[
    "List_of_Atlas_launches_(1970%E2%80%9379)#4",
    "List_of_Lost_characters#List_of_recurring_flashback_characters#3",
    "List_of_Teen_Wolf_characters#Jackson_Whittemore#3",
    "List_of_teams_and_cyclists_in_the_2005_Tour_de_France#9",
    "2007%E2%80%9308_Maltese_Second_Division#4",
    "Whitecaps_FC_Prospects#0",
    "List_of_Your_Song_episodes#0",
    "CBFT-DT#0",
    "CBUT-DT#0",
    "List_of_United_States_tornadoes_from_July_to_September_2012#46",
    "Hong_Kong_Island_(constituency)#0",
    "1983_The_Hot_Ones#0",
    "List_of_Lost_characters#Leslie_Arzt#1",
    "Stadion_Narodowy_metro_station#0",
    "Hypervalent_molecule#0",
    "UAAP_Season_74_basketball_tournaments#12",
    "UAAP_Season_74_basketball_tournaments#12",
    "2015%E2%80%9316_Liga_Leumit#2",
    "List_of_Lost_characters#Dharma_Initiative_members#6",
    "Khadga_Prasad_Sharma_Oli#0",
    "List_of_Rome_characters#Levi#0",
    "List_of_Game_of_Thrones_characters#18",
    "1965_in_paleontology#2",
    "1982_Escort_Championships#4",
    "Bagarmossen_metro_station#0",
    "List_of_Lost_characters#Widmore_and_employees#6",
    "List_of_teams_and_cyclists_in_the_2005_Tour_de_France#4",
    "2014_FIFA_World_Cup_qualification_(AFC)#15",
    "28th_Hong_Kong_Film_Awards#1",
    "Mixed_oxidant#2",
    "Tatiana_Calder%C3%B3n#1",
    "Masao_Suenaga#0",
    "Masao_Suenaga#0",
    "Masao_Suenaga#0",
    "List_of_The_Walking_Dead_(TV_series)_characters#The_Claimers#7",
    "2006_World_Baseball_Classic_%E2%80%93_Pool_C#1",
    "United_States_congressional_delegations_from_Arkansas#1",
    "Axitinib#0",
    "ACA_box_snoRNAs#0",
    "List_of_The_Walking_Dead_(TV_series)_characters#Main_Characters#7",
    "Caltrain#1",
    "List_of_European_tornadoes_in_2014#5",
    "Tributaries_of_the_Murrumbidgee_River#0",
    "Haplogroup_O-M122#1",
    "World_(Bee_Gees_song)#2",
    "857",
    "858",
    "859",
    "1430"
  ]