[
	"10579449_0_1681126353774891032",
	"11833461_1_3811022039809817402",
	"13719111_1_5719401842463579519",
	"14067031_0_559833072073397908",
	"1438042986423_95_20150728002306-00125-ip-10-236-191-2_88435628_5",
	"1438042989018_40_20150728002309-00067-ip-10-236-191-2_57714692_2",
	"1438042989043_35_20150728002309-00287-ip-10-236-191-2_875026214_2",
	"1438042986423_95_20150728002306-00329-ip-10-236-191-2_805336391_10",
	"14380604_4_3329235705746762392",
	"16767252_0_2409448375013995751",
	"20135078_0_7570343137119682530",
	"21245481_0_8730460088443117515",
	"21362676_0_6854186738074119688",
	"22864497_0_8632623712684511496",
	"24036779_0_5608105867560183058",
	"25404227_0_2240631045609013057",
	"26310680_0_5150772059999313798",
	"28086084_0_3127660530989916727",
	"29414811_12_251152470253168163",
	"29414811_13_8724394428539174350",
	"29414811_2_4773219892816395776",
	"29414811_6_8221428333921653560",
	"33401079_0_9127583903019856402",
	"34041816_1_4749054164534706977",
	"35188621_0_6058553107571275232",
	"36102169_0_7739454799295072814",
	"37856682_0_6818907050314633217",
	"38428277_0_1311643810102462607",
	"39107734_2_2329160387535788734",
	"39173938_0_7916056990138658530",
	"39650055_5_7135804139753401681",
	"39759273_0_1427898308030295194",
	"40534006_0_4617468856744635526",
	"41336118_0_4331895026409635103",
	"41480166_0_6681239260286218499",
	"43237185_1_3636357855502246981",
	"45073662_0_3179937335063201739",
	"46671561_0_6122315295162029872",
	"50245608_0_871275842592178099",
	"50270082_0_444360818941411589",
	"52299421_0_4473286348258170200",
	"53822652_0_5767892317858575530",
	"53989675_0_8697482470743954630",
	"54719588_0_8417197176086756912",
	"55004961_0_2904467548072189860",
	"55238374_0_3379409961751009152",
	"57943722_0_8666078014685775876",
	"58891288_0_1117541047012405958",
	"60319454_0_3938426910282115527",
	"61121469_0_6337620713408906340",
	"63450419_0_8012592961815711786",
	"66009064_0_9148652238372261251",
	"69537082_0_7789694313271016902",
	"69881946_0_1105130426898457358",
	"71137051_0_8039724067857124984",
	"71840765_0_6664391841933033844",
	"75367212_2_2745466355267233390",
	"77694908_0_6083291340991074532",
	"80588006_0_6965325215443683359",
	"8286121_0_8471791395229161598",
	"84548468_0_5955155464119382182",
	"84575189_0_6365692015941409487",
	"8468806_0_4382447409703007384",
	"88523363_0_8180214313099580515",
	"90196673_0_5458330029110291950",
	"91959037_0_7907661684242014480",
	"9475172_1_1023126399856690702",
	"9567241_0_5666388268510912770",
	"9834884_0_3871985887467090123",
	"99070098_0_2074872741302696997"
]