[
    {
        "Artist": "Ruslana",
        "Song": "Wild Dances",
        "Contest": "2004",
        "Best-of Place": "1",
        "Votes": "71209",
        "Own-year Place": "1",
        "Country": "Ukraine"
    },
    {
        "Artist": "Sertab Erener",
        "Song": "Every Way That I Can",
        "Contest": "2003",
        "Best-of Place": "2",
        "Votes": "63958",
        "Own-year Place": "1",
        "Country": "Turkey"
    },
    {
        "Artist": "Vicky Leandros",
        "Song": "Apr&egrave;s Toi",
        "Contest": "1972",
        "Best-of Place": "3",
        "Votes": "57514",
        "Own-year Place": "1",
        "Country": "Luxembourg"
    },
    {
        "Artist": "Helena Paparizou",
        "Song": "My Number One",
        "Contest": "2005",
        "Best-of Place": "4",
        "Votes": "51960",
        "Own-year Place": "1",
        "Country": "Greece"
    },
    {
        "Artist": "Max",
        "Song": "Can't Wait Until Tonight",
        "Contest": "2004",
        "Best-of Place": "5",
        "Votes": "24084",
        "Own-year Place": "8",
        "Country": "Germany"
    },
    {
        "Artist": "ABBA",
        "Song": "Waterloo",
        "Contest": "1974",
        "Best-of Place": "6",
        "Votes": "21659",
        "Own-year Place": "1",
        "Country": "Sweden"
    },
    {
        "Artist": "Gracia",
        "Song": "Run &amp; Hide",
        "Contest": "2005",
        "Best-of Place": "7",
        "Votes": "19157",
        "Own-year Place": "24",
        "Country": "Germany"
    },
    {
        "Artist": "Bucks Fizz",
        "Song": "Making Your Mind Up",
        "Contest": "1981",
        "Best-of Place": "8",
        "Votes": "15011",
        "Own-year Place": "1",
        "Country": "United Kingdom"
    },
    {
        "Artist": "Lena Valaitis",
        "Song": "Johnny Blue",
        "Contest": "1981",
        "Best-of Place": "9",
        "Votes": "13506",
        "Own-year Place": "2",
        "Country": "Germany"
    },
    {
        "Artist": "M&uuml;nchner Freiheit",
        "Song": "Viel Zu Weit",
        "Contest": "1993",
        "Best-of Place": "10",
        "Votes": "10225",
        "Own-year Place": "18",
        "Country": "Germany"
    },
    {
        "Artist": "Mary Roos",
        "Song": "Nur Die Liebe L&auml;&szlig;t Uns Leben",
        "Contest": "1972",
        "Best-of Place": "11",
        "Votes": "8423",
        "Own-year Place": "3",
        "Country": "Germany"
    },
    {
        "Artist": "Nicole",
        "Song": "Ein bi&szlig;chen Frieden",
        "Contest": "1982",
        "Best-of Place": "12",
        "Votes": "8092",
        "Own-year Place": "1",
        "Country": "Germany"
    },
    {
        "Artist": "Wind",
        "Song": "F&uuml;r Alle",
        "Contest": "1985",
        "Best-of Place": "13",
        "Votes": "7821",
        "Own-year Place": "2",
        "Country": "Germany"
    },
    {
        "Artist": "Bobbysocks",
        "Song": "La Det Swinge",
        "Contest": "1985",
        "Best-of Place": "14",
        "Votes": "7420",
        "Own-year Place": "1",
        "Country": "Norway"
    },
    {
        "Artist": "Dschinghis Khan",
        "Song": "Dschinghis Khan",
        "Contest": "1979",
        "Best-of Place": "15",
        "Votes": "7321",
        "Own-year Place": "4",
        "Country": "Germany"
    },
    {
        "Artist": "Marie Myriam",
        "Song": "L'oiseau et l'enfant",
        "Contest": "1977",
        "Best-of Place": "16",
        "Votes": "6287",
        "Own-year Place": "1",
        "Country": "France"
    },
    {
        "Artist": "Anne-Marie David",
        "Song": "Tu Te Reconna&icirc;tras",
        "Contest": "1973",
        "Best-of Place": "17",
        "Votes": "6278",
        "Own-year Place": "1",
        "Country": "Luxembourg"
    },
    {
        "Artist": "Sandra Kim",
        "Song": "J'aime La Vie",
        "Contest": "1986",
        "Best-of Place": "18",
        "Votes": "6227",
        "Own-year Place": "1",
        "Country": "Belgium"
    },
    {
        "Artist": "Jacqueline Boyer",
        "Song": "Tom Pillibi",
        "Contest": "1960",
        "Best-of Place": "19",
        "Votes": "6208",
        "Own-year Place": "1",
        "Country": "France"
    }
]