[
    {
        "Member": "John Klunder",
        "Party": "Australian Labor Party",
        "Term": "1977 &mdash; 1979"
    },
    {
        "Member": "Brian Billard",
        "Party": "Liberal Party of Australia",
        "Term": "1979 &mdash; 1982"
    },
    {
        "Member": "John Klunder",
        "Party": "Australian Labor Party",
        "Term": "1982 &mdash; 1985"
    },
    {
        "Member": "Dianne Gayler",
        "Party": "Australian Labor Party",
        "Term": "1985 &mdash; 1989"
    },
    {
        "Member": "Dorothy Kotz",
        "Party": "Liberal Party of Australia",
        "Term": "1989 &mdash; 2006"
    },
    {
        "Member": "Tom Kenyon",
        "Party": "Australian Labor Party",
        "Term": "2006 &mdash;present"
    }
]