[
    {
        "Institution": "University of Alabama",
        "Location": "Tuscaloosa, Alabama",
        "Founded": "1831",
        "Type": "Public",
        "Enrollment": "33,602",
        "Joined": "1921",
        "Left": "1932",
        "Nickname": "Crimson Tide",
        "Present Conference": "SEC"
    },
    {
        "Institution": "Auburn University",
        "Location": "Auburn, Alabama",
        "Founded": "1856",
        "Type": "Public",
        "Enrollment": "25,469",
        "Joined": "1921",
        "Left": "1932",
        "Nickname": "Tigers",
        "Present Conference": "SEC"
    },
    {
        "Institution": "Clemson University",
        "Location": "Clemson, South Carolina",
        "Founded": "1889",
        "Type": "Public",
        "Enrollment": "20,768",
        "Joined": "1921",
        "Left": "1953",
        "Nickname": "Tigers",
        "Present Conference": "ACC"
    },
    {
        "Institution": "College of Charleston",
        "Location": "Charleston, South Carolina",
        "Founded": "1770",
        "Type": "Private",
        "Enrollment": "11,320",
        "Joined": "1998",
        "Left": "2013",
        "Nickname": "Cougars",
        "Present Conference": "CAA"
    },
    {
        "Institution": "Duke University",
        "Location": "Durham, North Carolina",
        "Founded": "1838",
        "Type": "Private",
        "Enrollment": "14,591",
        "Joined": "1928",
        "Left": "1953",
        "Nickname": "Blue Devils",
        "Present Conference": "ACC"
    },
    {
        "Institution": "East Carolina University",
        "Location": "Greenville, North Carolina",
        "Founded": "1907",
        "Type": "Public",
        "Enrollment": "27,386",
        "Joined": "1964",
        "Left": "1976",
        "Nickname": "Pirates",
        "Present Conference": "C-USA, American"
    },
    {
        "Institution": "East Tennessee State University",
        "Location": "Johnson City, Tennessee",
        "Founded": "1911",
        "Type": "Public",
        "Enrollment": "15,536",
        "Joined": "1978",
        "Left": "2005",
        "Nickname": "Buccaneers",
        "Present Conference": "Atlantic Sun (A-Sun)"
    },
    {
        "Institution": "University of Florida",
        "Location": "Gainesville, Florida",
        "Founded": "1853",
        "Type": "Public",
        "Enrollment": "49,913",
        "Joined": "1922",
        "Left": "1932",
        "Nickname": "Gators",
        "Present Conference": "SEC"
    },
    {
        "Institution": "George Washington University",
        "Location": "Washington, D.C.",
        "Founded": "1821",
        "Type": "Private",
        "Enrollment": "24,531",
        "Joined": "1936",
        "Left": "1970",
        "Nickname": "Colonials",
        "Present Conference": "Atlantic 10 (A-10)"
    },
    {
        "Institution": "University of Georgia",
        "Location": "Athens, Georgia",
        "Founded": "1785",
        "Type": "Public",
        "Enrollment": "34,475",
        "Joined": "1921",
        "Left": "1932",
        "Nickname": "Bulldogs",
        "Present Conference": "SEC"
    },
    {
        "Institution": "Georgia Institute of Technology",
        "Location": "Atlanta, Georgia",
        "Founded": "1885",
        "Type": "Public",
        "Enrollment": "21,557",
        "Joined": "1921",
        "Left": "1932",
        "Nickname": "Yellow Jackets",
        "Present Conference": "ACC"
    },
    {
        "Institution": "University of Kentucky",
        "Location": "Lexington, Kentucky",
        "Founded": "1865",
        "Type": "Public",
        "Enrollment": "28,094",
        "Joined": "1921",
        "Left": "1932",
        "Nickname": "Wildcats",
        "Present Conference": "SEC"
    },
    {
        "Institution": "Louisiana State University",
        "Location": "Baton Rouge, Louisiana",
        "Founded": "1860",
        "Type": "Public",
        "Enrollment": "30,000",
        "Joined": "1922",
        "Left": "1932",
        "Nickname": "Tigers",
        "Present Conference": "SEC"
    },
    {
        "Institution": "Marshall University",
        "Location": "Huntington, West Virginia",
        "Founded": "1837",
        "Type": "Public",
        "Enrollment": "13,450",
        "Joined": "1976",
        "Left": "1997",
        "Nickname": "Thundering Herd",
        "Present Conference": "C-USA"
    },
    {
        "Institution": "University of Maryland",
        "Location": "College Park, Maryland",
        "Founded": "1856",
        "Type": "Public",
        "Enrollment": "37,631",
        "Joined": "1923",
        "Left": "1953",
        "Nickname": "Terrapins",
        "Present Conference": "Big Ten"
    },
    {
        "Institution": "University of Mississippi",
        "Location": "Oxford, Mississippi",
        "Founded": "1848",
        "Type": "Public",
        "Enrollment": "17,142",
        "Joined": "1922",
        "Left": "1932",
        "Nickname": "Rebels",
        "Present Conference": "SEC"
    },
    {
        "Institution": "Mississippi State University",
        "Location": "Starkville, Mississippi",
        "Founded": "1878",
        "Type": "Public",
        "Enrollment": "20,424",
        "Joined": "1921",
        "Left": "1932",
        "Nickname": "Bulldogs",
        "Present Conference": "SEC"
    },
    {
        "Institution": "University of North Carolina at Chapel Hill",
        "Location": "Chapel Hill, North Carolina",
        "Founded": "1789",
        "Type": "Public",
        "Enrollment": "29,390",
        "Joined": "1921",
        "Left": "1953",
        "Nickname": "Tar Heels",
        "Present Conference": "ACC"
    },
    {
        "Institution": "North Carolina State University",
        "Location": "Raleigh, North Carolina",
        "Founded": "1887",
        "Type": "Public",
        "Enrollment": "34,767",
        "Joined": "1921",
        "Left": "1953",
        "Nickname": "Wolfpack",
        "Present Conference": "ACC"
    },
    {
        "Institution": "University of Richmond",
        "Location": "Richmond, Virginia",
        "Founded": "1830",
        "Type": "Private",
        "Enrollment": "4,361",
        "Joined": "1936",
        "Left": "1976",
        "Nickname": "Spiders",
        "Present Conference": "Atlantic 10 (A-10)"
    },
    {
        "Institution": "University of the South (Sewanee)",
        "Location": "Sewanee, Tennessee",
        "Founded": "1857",
        "Type": "Private",
        "Enrollment": "1,560",
        "Joined": "1923",
        "Left": "1932",
        "Nickname": "Tigers",
        "Present Conference": "SAA"
    },
    {
        "Institution": "University of South Carolina",
        "Location": "Columbia, South Carolina",
        "Founded": "1801",
        "Type": "Public",
        "Enrollment": "31,288",
        "Joined": "1922",
        "Left": "1953",
        "Nickname": "Gamecocks",
        "Present Conference": "SEC"
    },
    {
        "Institution": "University of Tennessee",
        "Location": "Knoxville, Tennessee",
        "Founded": "1794",
        "Type": "Public",
        "Enrollment": "27,523",
        "Joined": "1921",
        "Left": "1932",
        "Nickname": "Volunteers",
        "Present Conference": "SEC"
    },
    {
        "Institution": "Tulane University",
        "Location": "New Orleans, Louisiana",
        "Founded": "1834",
        "Type": "Private",
        "Enrollment": "13,359",
        "Joined": "1922",
        "Left": "1932",
        "Nickname": "Green Wave",
        "Present Conference": "C-USA, , (American in 2014)"
    },
    {
        "Institution": "Vanderbilt University",
        "Location": "Nashville, Tennessee",
        "Founded": "1873",
        "Type": "Private",
        "Enrollment": "12,745",
        "Joined": "1922",
        "Left": "1932",
        "Nickname": "Commodores",
        "Present Conference": "SEC"
    },
    {
        "Institution": "University of Virginia",
        "Location": "Charlottesville, Virginia",
        "Founded": "1819",
        "Type": "Public",
        "Enrollment": "21,095",
        "Joined": "1921",
        "Left": "1937",
        "Nickname": "Cavaliers",
        "Present Conference": "ACC"
    },
    {
        "Institution": "Virginia Military Institute",
        "Location": "Lexington, Virginia",
        "Founded": "1839",
        "Type": "Public",
        "Enrollment": "1,500",
        "Joined": "1924",
        "Left": "2003",
        "Nickname": "Keydets",
        "Present Conference": "Big South"
    },
    {
        "Institution": "Virginia Polytechnic Institute and State University",
        "Location": "Blacksburg, Virginia",
        "Founded": "1872",
        "Type": "Public",
        "Enrollment": "31,087",
        "Joined": "1921",
        "Left": "1965",
        "Nickname": "Hokies",
        "Present Conference": "ACC"
    },
    {
        "Institution": "Wake Forest University",
        "Location": "Winston-Salem, North Carolina",
        "Founded": "1834",
        "Type": "Private",
        "Enrollment": "7,432",
        "Joined": "1936",
        "Left": "1953",
        "Nickname": "Demon Deacons",
        "Present Conference": "ACC"
    },
    {
        "Institution": "Washington and Lee University",
        "Location": "Lexington, Virginia",
        "Founded": "1749",
        "Type": "Private",
        "Enrollment": "2,203",
        "Joined": "1921",
        "Left": "1958",
        "Nickname": "Generals",
        "Present Conference": "ODAC"
    },
    {
        "Institution": "West Virginia University",
        "Location": "Morgantown, West Virginia",
        "Founded": "1867",
        "Type": "Public",
        "Enrollment": "29,707",
        "Joined": "1950",
        "Left": "1968",
        "Nickname": "Mountaineers",
        "Present Conference": "Big 12"
    },
    {
        "Institution": "The College of William &amp; Mary",
        "Location": "Williamsburg, Virginia",
        "Founded": "1693",
        "Type": "Public",
        "Enrollment": "8,258",
        "Joined": "1936",
        "Left": "1977",
        "Nickname": "Tribe",
        "Present Conference": "CAA"
    }
]