[
    {
        "Team": "Montreal Hockey Club",
        "City": "Montreal",
        "Existed": "1892-1908",
        "League titles": "3",
        "Stanley Cups": "3",
        "Notes": "AHA, CAHL, ECAHA, Allan Cup"
    },
    {
        "Team": "Montreal Shamrocks",
        "City": "Montreal",
        "Existed": "1888-1909",
        "League titles": "2",
        "Stanley Cups": "2",
        "Notes": "AHA, CAHL, ECAHA, Montreal Crystals"
    },
    {
        "Team": "Montreal Victorias",
        "City": "Montreal",
        "Existed": "1888?-1908",
        "League titles": "4",
        "Stanley Cups": "5",
        "Notes": "AHA, CAHL, ECAHA"
    },
    {
        "Team": "Montreal Wanderers",
        "City": "Montreal",
        "Existed": "1903-09",
        "League titles": "3",
        "Stanley Cups": "7",
        "Notes": "FAHL, ECAHA, NHA, NHL"
    },
    {
        "Team": "Quebec Bulldogs",
        "City": "Quebec City",
        "Existed": "1888-1908",
        "League titles": "1",
        "Stanley Cups": "0",
        "Notes": "AHA, CAHL, ECAHA"
    }
]