[
    {
        "Location": "Aldergrove",
        "County": "County Antrim",
        "ICAO": "EGAA",
        "IATA": "BFS",
        "Airport name": "Belfast International Airport",
        "Usage": "Public",
        "Rwy (ft)": "9,121",
        "Surface": "Asphalt"
    },
    {
        "Location": "Belfast",
        "County": "County Down",
        "ICAO": "EGAC",
        "IATA": "BHD",
        "Airport name": "George Best Belfast City Airport",
        "Usage": "Public",
        "Rwy (ft)": "6,001",
        "Surface": "Asphalt"
    },
    {
        "Location": "Eglinton",
        "County": "County Londonderry",
        "ICAO": "EGAE",
        "IATA": "LDY",
        "Airport name": "City of Derry Airport",
        "Usage": "Public",
        "Rwy (ft)": "6,453",
        "Surface": "Asphalt"
    },
    {
        "Location": "Enniskillen",
        "County": "County Fermanagh",
        "ICAO": "EGAB",
        "IATA": "ENK",
        "Airport name": "Enniskillen/St Angelo Airport",
        "Usage": "Private",
        "Rwy (ft)": "4,350",
        "Surface": "Asphalt"
    },
    {
        "Location": "Newtownards",
        "County": "County Down",
        "ICAO": "EGAD",
        "IATA": "",
        "Airport name": "Newtownards Airport",
        "Usage": "Public",
        "Rwy (ft)": "2,605",
        "Surface": "Asphalt"
    }
]