[
    {
        "Year": "1979",
        "Network": "CBS",
        "Lap-by-lap": "Ken Squier",
        "Color commentator(s)": "David Hobbs",
        "Pit reporters": "Ned Jarrett, Brock Yates",
        "Host": "Ken Squier",
        "Ratings[1]": "10.5/29",
        "Viewers[1]": "15.1 million"
    },
    {
        "Year": "1980",
        "Network": "CBS",
        "Lap-by-lap": "Ken Squier",
        "Color commentator(s)": "David Hobbs",
        "Pit reporters": "Ned Jarrett, Brock Yates",
        "Host": "Ken Squier",
        "Ratings[1]": "8.0/21",
        "Viewers[1]": "10.8 million"
    },
    {
        "Year": "1981",
        "Network": "CBS",
        "Lap-by-lap": "Ken Squier",
        "Color commentator(s)": "David Hobbs",
        "Pit reporters": "Ned Jarrett, Brock Yates",
        "Host": "Ken Squier",
        "Ratings[1]": "8.4/26",
        "Viewers[1]": "11.2 million"
    },
    {
        "Year": "1982",
        "Network": "CBS",
        "Lap-by-lap": "Ken Squier",
        "Color commentator(s)": "David Hobbs",
        "Pit reporters": "Ned Jarrett, Larry Nuber",
        "Host": "Brock Yates",
        "Ratings[1]": "9.4/27",
        "Viewers[1]": "11.8 million"
    },
    {
        "Year": "1983",
        "Network": "CBS",
        "Lap-by-lap": "Ken Squier",
        "Color commentator(s)": "David Hobbs",
        "Pit reporters": "Ned Jarrett, Larry Nuber",
        "Host": "Ken Squier",
        "Ratings[1]": "8.7/26",
        "Viewers[1]": "11.0 million"
    },
    {
        "Year": "1984",
        "Network": "CBS",
        "Lap-by-lap": "Ken Squier",
        "Color commentator(s)": "David Hobbs",
        "Pit reporters": "Ned Jarrett, Chris Economaki, Mike Joy",
        "Host": "Chris Economaki",
        "Ratings[1]": "8.7/23",
        "Viewers[1]": "12.3 million"
    },
    {
        "Year": "1985",
        "Network": "CBS",
        "Lap-by-lap": "Ken Squier",
        "Color commentator(s)": "David Hobbs, Ned Jarrett",
        "Pit reporters": "Chris Economaki, Mike Joy",
        "Host": "Chris Economaki",
        "Ratings[1]": "8.3/23",
        "Viewers[1]": "9.8 million"
    },
    {
        "Year": "1986",
        "Network": "CBS",
        "Lap-by-lap": "Ken Squier",
        "Color commentator(s)": "David Hobbs, Ned Jarrett",
        "Pit reporters": "Chris Economaki, Mike Joy",
        "Host": "Chris Economaki",
        "Ratings[1]": "8.4/22",
        "Viewers[1]": "10.3 million"
    },
    {
        "Year": "1987",
        "Network": "CBS",
        "Lap-by-lap": "Ken Squier",
        "Color commentator(s)": "David Hobbs, Ned Jarrett",
        "Pit reporters": "Chris Economaki, Mike Joy, Dave Despain",
        "Host": "Chris Economaki",
        "Ratings[1]": "9.4/26",
        "Viewers[1]": "12.4 million"
    },
    {
        "Year": "1988",
        "Network": "CBS",
        "Lap-by-lap": "Ken Squier",
        "Color commentator(s)": "Ned Jarrett, Chris Economaki",
        "Pit reporters": "Mike Joy, Dave Despain, David Hobbs",
        "Host": "Chris Economaki",
        "Ratings[1]": "7.4/18",
        "Viewers[1]": "10.0 million"
    },
    {
        "Year": "1989",
        "Network": "CBS",
        "Lap-by-lap": "Ken Squier",
        "Color commentator(s)": "Ned Jarrett, Chris Economaki",
        "Pit reporters": "Mike Joy, Dave Despain, David Hobbs",
        "Host": "Chris Economaki",
        "Ratings[1]": "8.1/21",
        "Viewers[1]": "12.0 million"
    },
    {
        "Year": "1990",
        "Network": "CBS",
        "Lap-by-lap": "Ken Squier",
        "Color commentator(s)": "Ned Jarrett, Chris Economaki",
        "Pit reporters": "Mike Joy, Dave Despain, David Hobbs",
        "Host": "Chris Economaki",
        "Ratings[1]": "7.3/20",
        "Viewers[1]": "10.5 million"
    },
    {
        "Year": "1991",
        "Network": "CBS",
        "Lap-by-lap": "Ken Squier",
        "Color commentator(s)": "Ned Jarrett, David Hobbs",
        "Pit reporters": "Mike Joy, Dave Despain, Chris Economaki",
        "Host": "Chris Economaki",
        "Ratings[1]": "7.6/20",
        "Viewers[1]": "10.9 million"
    },
    {
        "Year": "1992",
        "Network": "CBS",
        "Lap-by-lap": "Ken Squier",
        "Color commentator(s)": "Ned Jarrett, Neil Bonnett",
        "Pit reporters": "Mike Joy, David Hobbs, Chris Economaki",
        "Host": "Chris Economaki",
        "Ratings[1]": "9.2/25",
        "Viewers[1]": "13.4 million"
    },
    {
        "Year": "1993",
        "Network": "CBS",
        "Lap-by-lap": "Ken Squier",
        "Color commentator(s)": "Ned Jarrett, Neil Bonnett",
        "Pit reporters": "Mike Joy, David Hobbs, Chris Economaki",
        "Host": "Chris Economaki",
        "Ratings[1]": "8.4/23",
        "Viewers[1]": "12.7 million"
    },
    {
        "Year": "1994",
        "Network": "CBS",
        "Lap-by-lap": "Ken Squier",
        "Color commentator(s)": "Ned Jarrett, Chris Economaki",
        "Pit reporters": "Mike Joy, David Hobbs, Dick Berggren",
        "Host": "Chris Economaki",
        "Ratings[1]": "9.6/26",
        "Viewers[1]": "13.6 million"
    },
    {
        "Year": "1995",
        "Network": "CBS",
        "Lap-by-lap": "Ken Squier",
        "Color commentator(s)": "Ned Jarrett, Richard Petty",
        "Pit reporters": "Mike Joy, David Hobbs, Dick Berggren",
        "Host": "Ken Squier",
        "Ratings[1]": "7.8/20",
        "Viewers[1]": "11.4 million"
    },
    {
        "Year": "1996",
        "Network": "CBS",
        "Lap-by-lap": "Ken Squier",
        "Color commentator(s)": "Ned Jarrett, Buddy Baker",
        "Pit reporters": "Mike Joy, David Hobbs, Dick Berggren",
        "Host": "Ken Squier",
        "Ratings[1]": "9.2/24",
        "Viewers[1]": "13.9 million"
    },
    {
        "Year": "1997",
        "Network": "CBS",
        "Lap-by-lap": "Ken Squier",
        "Color commentator(s)": "Ned Jarrett, Buddy Baker",
        "Pit reporters": "Mike Joy, Dick Berggren, Ralph Sheheen",
        "Host": "Ken Squier",
        "Ratings[1]": "8.6/23",
        "Viewers[1]": "12.8 million"
    },
    {
        "Year": "1998",
        "Network": "CBS",
        "Lap-by-lap": "Mike Joy",
        "Color commentator(s)": "Ned Jarrett, Buddy Baker",
        "Pit reporters": "Dick Berggren, Ralph Sheheen, Bill Stephens",
        "Host": "Ken Squier",
        "Ratings[1]": "8.6/23",
        "Viewers[1]": "13.0 million"
    },
    {
        "Year": "1999",
        "Network": "CBS",
        "Lap-by-lap": "Mike Joy",
        "Color commentator(s)": "Ned Jarrett, Buddy Baker",
        "Pit reporters": "Dick Berggren, Ralph Sheheen, Bill Stephens",
        "Host": "Greg Gumbel, Ken Squier",
        "Ratings[1]": "9.6/25",
        "Viewers[1]": "12.9 million"
    },
    {
        "Year": "2000",
        "Network": "CBS",
        "Lap-by-lap": "Mike Joy",
        "Color commentator(s)": "Ned Jarrett, Buddy Baker",
        "Pit reporters": "Dick Berggren, Ralph Sheheen, Bill Stephens",
        "Host": "Ken Squier",
        "Ratings[1]": "8.4/22",
        "Viewers[1]": "12.9 million"
    }
]