[
    {
        "African rank": "1",
        "World rank": "41",
        "Nation": "Equatorial Guinea",
        "GDP per capita": "$16,507",
        "Total GDP world rank": "113"
    },
    {
        "African rank": "2",
        "World rank": "54",
        "Nation": "Mauritius",
        "GDP per capita": "$13,029",
        "Total GDP world rank": "120"
    },
    {
        "African rank": "3",
        "World rank": "57",
        "Nation": "Seychelles",
        "GDP per capita": "$12,135",
        "Total GDP world rank": "172"
    },
    {
        "African rank": "4",
        "World rank": "62",
        "Nation": "South Africa",
        "GDP per capita": "$11,035",
        "Total GDP world rank": "21"
    },
    {
        "African rank": "5",
        "World rank": "63",
        "Nation": "Libya",
        "GDP per capita": "$11,354",
        "Total GDP world rank": "67"
    },
    {
        "African rank": "6",
        "World rank": "64",
        "Nation": "Botswana",
        "GDP per capita": "$10,866",
        "Total GDP world rank": "116"
    },
    {
        "African rank": "7",
        "World rank": "75",
        "Nation": "Tunisia",
        "GDP per capita": "$8,223",
        "Total GDP world rank": "62"
    },
    {
        "African rank": "8",
        "World rank": "87",
        "Nation": "Algeria",
        "GDP per capita": "$7,095",
        "Total GDP world rank": "38"
    },
    {
        "African rank": "9",
        "World rank": "89",
        "Nation": "Gabon",
        "GDP per capita": "$6,977",
        "Total GDP world rank": "138"
    },
    {
        "African rank": "10",
        "World rank": "91",
        "Nation": "Namibia",
        "GDP per capita": "$6,658",
        "Total GDP world rank": "128"
    },
    {
        "African rank": "11",
        "World rank": "93",
        "Nation": "Cape Verde",
        "GDP per capita": "$6,287",
        "Total GDP world rank": "161"
    },
    {
        "African rank": "12",
        "World rank": "100",
        "Nation": "Morocco",
        "GDP per capita": "$5,765",
        "Total GDP world rank": "53"
    },
    {
        "African rank": "13",
        "World rank": "105",
        "Nation": "Swaziland",
        "GDP per capita": "$5,181",
        "Total GDP world rank": "148"
    },
    {
        "African rank": "14",
        "World rank": "115",
        "Nation": "Egypt",
        "GDP per capita": "$4,282",
        "Total GDP world rank": "32"
    },
    {
        "African rank": "15",
        "World rank": "129",
        "Nation": "Angola",
        "GDP per capita": "$2,829",
        "Total GDP world rank": "79"
    },
    {
        "African rank": "16",
        "World rank": "133",
        "Nation": "Ghana",
        "GDP per capita": "$2,601",
        "Total GDP world rank": "73"
    },
    {
        "African rank": "17",
        "World rank": "136",
        "Nation": "Sudan",
        "GDP per capita": "$2,417",
        "Total GDP world rank": "60"
    },
    {
        "African rank": "18",
        "World rank": "138",
        "Nation": "Zimbabwe",
        "GDP per capita": "$2,413",
        "Total GDP world rank": "98"
    },
    {
        "African rank": "19",
        "World rank": "139",
        "Nation": "Mauritania",
        "GDP per capita": "$2,307",
        "Total GDP world rank": "146"
    },
    {
        "African rank": "20",
        "World rank": "140",
        "Nation": "Cameroon",
        "GDP per capita": "$2,284",
        "Total GDP world rank": "82"
    },
    {
        "African rank": "21",
        "World rank": "142",
        "Nation": "Lesotho",
        "GDP per capita": "$2,163",
        "Total GDP world rank": "152"
    },
    {
        "African rank": "22",
        "World rank": "148",
        "Nation": "The Gambia",
        "GDP per capita": "$1,999",
        "Total GDP world rank": "160"
    },
    {
        "African rank": "23",
        "World rank": "150",
        "Nation": "Guinea",
        "GDP per capita": "$1,986",
        "Total GDP world rank": "113"
    },
    {
        "African rank": "24",
        "World rank": "151",
        "Nation": "Djibouti",
        "GDP per capita": "$1,957",
        "Total GDP world rank": "168"
    },
    {
        "African rank": "25",
        "World rank": "153",
        "Nation": "Senegal",
        "GDP per capita": "$1,914",
        "Total GDP world rank": "111"
    },
    {
        "African rank": "26",
        "World rank": "155",
        "Nation": "Uganda",
        "GDP per capita": "$1,817",
        "Total GDP world rank": "75"
    },
    {
        "African rank": "27",
        "World rank": "156",
        "Nation": "Chad",
        "GDP per capita": "$1,744",
        "Total GDP world rank": "125"
    },
    {
        "African rank": "28",
        "World rank": "157",
        "Nation": "Comoros",
        "GDP per capita": "$1,717",
        "Total GDP world rank": "171"
    },
    {
        "African rank": "29",
        "World rank": "158",
        "Nation": "S&atilde;o Tom&eacute; and Pr&iacute;ncipe",
        "GDP per capita": "$1,638",
        "Total GDP world rank": "187"
    },
    {
        "African rank": "30",
        "World rank": "161",
        "Nation": "Togo",
        "GDP per capita": "$1,600",
        "Total GDP world rank": "140"
    },
    {
        "African rank": "31",
        "World rank": "162",
        "Nation": "C&ocirc;te d'Ivoire",
        "GDP per capita": "$1,475",
        "Total GDP world rank": "97"
    },
    {
        "African rank": "32",
        "World rank": "164",
        "Nation": "Rwanda",
        "GDP per capita": "$1,431",
        "Total GDP world rank": "131"
    },
    {
        "African rank": "33",
        "World rank": "167",
        "Nation": "Republic of the Congo",
        "GDP per capita": "$1,379",
        "Total GDP world rank": "156"
    },
    {
        "African rank": "34",
        "World rank": "169",
        "Nation": "Mozambique",
        "GDP per capita": "$1,335",
        "Total GDP world rank": "101"
    },
    {
        "African rank": "35",
        "World rank": "170",
        "Nation": "Burkina Faso",
        "GDP per capita": "$1,326",
        "Total GDP world rank": "117"
    },
    {
        "African rank": "36",
        "World rank": "171",
        "Nation": "Nigeria",
        "GDP per capita": "$1,188",
        "Total GDP world rank": "46"
    },
    {
        "African rank": "37",
        "World rank": "172",
        "Nation": "Central African Republic",
        "GDP per capita": "$1,163",
        "Total GDP world rank": "154"
    },
    {
        "African rank": "38",
        "World rank": "173",
        "Nation": "Benin",
        "GDP per capita": "$1,147",
        "Total GDP world rank": "142"
    },
    {
        "African rank": "39",
        "World rank": "174",
        "Nation": "Kenya",
        "GDP per capita": "$1,125",
        "Total GDP world rank": "88"
    },
    {
        "African rank": "40",
        "World rank": "176",
        "Nation": "Mali",
        "GDP per capita": "$1,084",
        "Total GDP world rank": "129"
    },
    {
        "African rank": "41",
        "World rank": "177",
        "Nation": "Eritrea",
        "GDP per capita": "$917",
        "Total GDP world rank": "158"
    },
    {
        "African rank": "42",
        "World rank": "178",
        "Nation": "Zambia",
        "GDP per capita": "$911",
        "Total GDP world rank": "136"
    },
    {
        "African rank": "43",
        "World rank": "179",
        "Nation": "Madagascar",
        "GDP per capita": "$911",
        "Total GDP world rank": "119"
    },
    {
        "African rank": "44",
        "World rank": "180",
        "Nation": "Sierra Leone",
        "GDP per capita": "$901",
        "Total GDP world rank": "153"
    },
    {
        "African rank": "45",
        "World rank": "181",
        "Nation": "Liberia",
        "GDP per capita": "$900",
        "Total GDP world rank": "163"
    },
    {
        "African rank": "46",
        "World rank": "182",
        "Nation": "Niger",
        "GDP per capita": "$896",
        "Total GDP world rank": "134"
    },
    {
        "African rank": "47",
        "World rank": "183",
        "Nation": "Ethiopia",
        "GDP per capita": "$859",
        "Total GDP world rank": "69"
    },
    {
        "African rank": "48",
        "World rank": "184",
        "Nation": "Guinea-Bissau",
        "GDP per capita": "$856",
        "Total GDP world rank": "169"
    },
    {
        "African rank": "49",
        "World rank": "186",
        "Nation": "Burundi",
        "GDP per capita": "$753",
        "Total GDP world rank": "149"
    },
    {
        "African rank": "50",
        "World rank": "188",
        "Nation": "Tanzania",
        "GDP per capita": "$720",
        "Total GDP world rank": "99"
    },
    {
        "African rank": "51",
        "World rank": "189",
        "Nation": "Democratic Republic of the Congo",
        "GDP per capita": "$675",
        "Total GDP world rank": "83"
    },
    {
        "African rank": "52",
        "World rank": "190",
        "Nation": "Somalia",
        "GDP per capita": "$600",
        "Total GDP world rank": "157"
    },
    {
        "African rank": "53",
        "World rank": "191",
        "Nation": "Malawi",
        "GDP per capita": "$596",
        "Total GDP world rank": "145"
    }
]