[
    {
        "Name": "Pasqualina Napoletano",
        "Country": "Italy",
        "Region": "Central",
        "Party": "DS",
        "Group": "PES"
    },
    {
        "Name": "Juan Andr&eacute;s Naranjo Escobar",
        "Country": "Spain",
        "Region": "",
        "Party": "PP",
        "Group": "EPP-ED"
    },
    {
        "Name": "Hartmut Nassauer",
        "Country": "Germany",
        "Region": "Hesse",
        "Party": "CDU",
        "Group": "EPP-ED"
    },
    {
        "Name": "Mike Nattrass",
        "Country": "United Kingdom",
        "Region": "West Midlands",
        "Party": "UKIP",
        "Group": "IND/DEM"
    },
    {
        "Name": "Robert Navarro",
        "Country": "France",
        "Region": "Sud-Ouest",
        "Party": "PS",
        "Group": "PES"
    },
    {
        "Name": "C\u0103t\u0103lin-Ioan Nechifor from Dec 10 , 2007",
        "Country": "Romania",
        "Region": "",
        "Party": "PSD",
        "Group": "PES"
    },
    {
        "Name": "Catherine Neris from Jul 4 , 2007",
        "Country": "France",
        "Region": "outre-mer",
        "Party": "PS",
        "Group": "PES"
    },
    {
        "Name": "Bill Newton Dunn",
        "Country": "United Kingdom",
        "Region": "East Midlands",
        "Party": "Lib Dem",
        "Group": "ALDE"
    },
    {
        "Name": "Annemie Neyts-Uyttebroeck",
        "Country": "Belgium",
        "Region": "Flemish Community",
        "Party": "VLD / Vivant",
        "Group": "ALDE"
    },
    {
        "Name": "Emma Nicholson",
        "Country": "United Kingdom",
        "Region": "South East England",
        "Party": "Lib Dem",
        "Group": "ALDE"
    },
    {
        "Name": "Jim Nicholson",
        "Country": "United Kingdom",
        "Region": "Northern Ireland",
        "Party": "UUP",
        "Group": "EPP-ED"
    },
    {
        "Name": "Rare\u015f-Lucian Niculescu from Dec 10 , 2007",
        "Country": "Romania",
        "Region": "",
        "Party": "PSD",
        "Group": "EPP-ED"
    },
    {
        "Name": "Angelika Niebler",
        "Country": "Germany",
        "Region": "Bavaria",
        "Party": "CSU",
        "Group": "EPP-ED"
    },
    {
        "Name": "Ljudmila Novak",
        "Country": "Slovenia",
        "Region": "",
        "Party": "Nsi",
        "Group": "EPP-ED"
    }
]