[
    {
        "Theater": "Alhambra Theatre",
        "City and State": "El Paso, Texas",
        "Architect": "Henry C. Trost",
        "Date": "1914"
    },
    {
        "Theater": "Alhambra Theatre",
        "City and State": "Evansville, Indiana",
        "Architect": "Frank J. Schlotter",
        "Date": "1913"
    },
    {
        "Theater": "Alhambra Theatre",
        "City and State": "Birmingham, Alabama",
        "Architect": "Graven &amp; Maygar",
        "Date": "1927"
    },
    {
        "Theater": "Alhambra Theatre",
        "City and State": "Hopkinsville, Kentucky",
        "Architect": "John Walker",
        "Date": "1928"
    },
    {
        "Theater": "Alhambra Theatre",
        "City and State": "San Francisco, California",
        "Architect": "Miller and Pflueger",
        "Date": "1925"
    },
    {
        "Theater": "Bagdad Theatre",
        "City and State": "Portland, Oregon",
        "Architect": "Thomas &amp; Mercier",
        "Date": "1927"
    },
    {
        "Theater": "The Carpenter Center",
        "City and State": "Richmond, Virginia",
        "Architect": "John Eberson",
        "Date": "1928"
    },
    {
        "Theater": "Civic Theatre",
        "City and State": "Akron, Ohio",
        "Architect": "John Eberson",
        "Date": "1929"
    },
    {
        "Theater": "Emporia Granada Theatre",
        "City and State": "Emporia, Kansas",
        "Architect": "Boller Brothers",
        "Date": "1929"
    },
    {
        "Theater": "Fox Theatre",
        "City and State": "Atlanta, Georgia",
        "Architect": "Mayre, Alger &amp; Vinour",
        "Date": "1929"
    },
    {
        "Theater": "Fox Theatre",
        "City and State": "North Platte, Nebraska",
        "Architect": "Elmer F. Behrens",
        "Date": "1929"
    },
    {
        "Theater": "Granada Theater",
        "City and State": "The Dalles, Oregon",
        "Architect": "William Cutts",
        "Date": "1929"
    },
    {
        "Theater": "Keith's Flushing Theater",
        "City and State": "Queens, New York",
        "Architect": "Thomas Lamb",
        "Date": "1928"
    },
    {
        "Theater": "The Landmark Theater",
        "City and State": "Richmond, Virginia",
        "Architect": "Charles M. Robinson",
        "Date": "1927"
    },
    {
        "Theater": "Olympic Theatre",
        "City and State": "Miami, Florida",
        "Architect": "John Eberson",
        "Date": "1926"
    },
    {
        "Theater": "Lincoln Theater",
        "City and State": "Los Angeles, California",
        "Architect": "John Paxton Perrine",
        "Date": "1927"
    },
    {
        "Theater": "Loew's 72nd Street Theatre",
        "City and State": "New York City",
        "Architect": "Thomas W. Lamb",
        "Date": "1932 (dem.)"
    },
    {
        "Theater": "The Majestic Theatre",
        "City and State": "San Antonio, Texas",
        "Architect": "John Eberson",
        "Date": "1929"
    },
    {
        "Theater": "Mount Baker Theatre",
        "City and State": "Bellingham, Washington",
        "Architect": "Robert Reamer",
        "Date": "1927"
    },
    {
        "Theater": "Music Box Theatre",
        "City and State": "Chicago, Illinois",
        "Architect": "Louis J. Simon",
        "Date": "1929"
    },
    {
        "Theater": "Palace Theatre",
        "City and State": "Canton, Ohio",
        "Architect": "John Eberson",
        "Date": "1926"
    },
    {
        "Theater": "Palace Theatre",
        "City and State": "Marion, Ohio",
        "Architect": "John Eberson",
        "Date": "1928"
    },
    {
        "Theater": "Plaza Theatre",
        "City and State": "El Paso, Texas",
        "Architect": "W. Scott Donne",
        "Date": "1930"
    },
    {
        "Theater": "Saenger Theater",
        "City and State": "Hattiesburg, Mississippi",
        "Architect": "Emile Weil",
        "Date": "1929"
    },
    {
        "Theater": "Shrine Auditorium",
        "City and State": "Los Angeles, California",
        "Architect": "Lansburgh, Austin and Edelman",
        "Date": "1926"
    },
    {
        "Theater": "Sooner Theatre",
        "City and State": "Norman, Oklahoma",
        "Architect": "Harold Gimeno",
        "Date": "1929"
    },
    {
        "Theater": "Temple Theatre",
        "City and State": "Meridian, Mississippi",
        "Architect": "Emile Weil",
        "Date": "1927"
    },
    {
        "Theater": "Tennessee Theatre",
        "City and State": "Knoxville, Tennessee",
        "Architect": "Graven &amp; Mayger",
        "Date": "1928"
    },
    {
        "Theater": "Tower Theatre",
        "City and State": "Los Angeles, California",
        "Architect": "S. Charles Lee",
        "Date": "1927"
    }
]