[
    {
        "Ranking": "1",
        "Name": "Scotty Cranmer",
        "Points Total": "100"
    },
    {
        "Ranking": "2",
        "Name": "Ryan Guettler",
        "Points Total": "75"
    },
    {
        "Ranking": "3",
        "Name": "Daniel Dhers",
        "Points Total": "63"
    },
    {
        "Ranking": "4",
        "Name": "Dave Mirra",
        "Points Total": "55"
    },
    {
        "Ranking": "5",
        "Name": "Josh Harrington",
        "Points Total": "49"
    }
]