[
    {
        "Parish": "Beaumont",
        "LGA": "Tumbarumba Shire",
        "Coordinates": "35&deg;45&prime;54&Prime;S 148&deg;10&prime;04&Prime;E\ufeff / \ufeff35.76500&deg;S 148.16778&deg;E\ufeff / -35.76500; 148.16778\ufeff (Beaumont)"
    },
    {
        "Parish": "Boganyera",
        "LGA": "Tumbarumba Shire",
        "Coordinates": "35&deg;54&prime;54&Prime;S 147&deg;57&prime;04&Prime;E\ufeff / \ufeff35.91500&deg;S 147.95111&deg;E\ufeff / -35.91500; 147.95111\ufeff (Boganyera)"
    },
    {
        "Parish": "Bringenbrong",
        "LGA": "Tumbarumba Shire",
        "Coordinates": "36&deg;07&prime;54&Prime;S 148&deg;03&prime;04&Prime;E\ufeff / \ufeff36.13167&deg;S 148.05111&deg;E\ufeff / -36.13167; 148.05111\ufeff (Bringenbrong)"
    },
    {
        "Parish": "Buccleuch",
        "LGA": "Tumbarumba Shire",
        "Coordinates": "35&deg;44&prime;54&Prime;S 148&deg;18&prime;04&Prime;E\ufeff / \ufeff35.74833&deg;S 148.30111&deg;E\ufeff / -35.74833; 148.30111\ufeff (Buccleuch)"
    },
    {
        "Parish": "Buddong",
        "LGA": "Tumut Shire",
        "Coordinates": "35&deg;38&prime;54&Prime;S 148&deg;16&prime;04&Prime;E\ufeff / \ufeff35.64833&deg;S 148.26778&deg;E\ufeff / -35.64833; 148.26778\ufeff (Buddong)"
    },
    {
        "Parish": "Burra",
        "LGA": "Tumbarumba Shire",
        "Coordinates": "35&deg;51&prime;54&Prime;S 148&deg;03&prime;04&Prime;E\ufeff / \ufeff35.86500&deg;S 148.05111&deg;E\ufeff / -35.86500; 148.05111\ufeff (Burra)"
    },
    {
        "Parish": "Clear Hill",
        "LGA": "Tumbarumba Shire",
        "Coordinates": "36&deg;04&prime;54&Prime;S 148&deg;26&prime;04&Prime;E\ufeff / \ufeff36.08167&deg;S 148.43444&deg;E\ufeff / -36.08167; 148.43444\ufeff (Clear Hill)"
    },
    {
        "Parish": "Cowra",
        "LGA": "Tumbarumba Shire",
        "Coordinates": "35&deg;55&prime;54&Prime;S 148&deg;17&prime;04&Prime;E\ufeff / \ufeff35.93167&deg;S 148.28444&deg;E\ufeff / -35.93167; 148.28444\ufeff (Cowra)"
    },
    {
        "Parish": "Craven",
        "LGA": "Tumbarumba Shire",
        "Coordinates": "35&deg;40&prime;54&Prime;S 147&deg;50&prime;04&Prime;E\ufeff / \ufeff35.68167&deg;S 147.83444&deg;E\ufeff / -35.68167; 147.83444\ufeff (Craven)"
    },
    {
        "Parish": "Dargals",
        "LGA": "Tumbarumba Shire",
        "Coordinates": "36&deg;09&prime;54&Prime;S 148&deg;18&prime;04&Prime;E\ufeff / \ufeff36.16500&deg;S 148.30111&deg;E\ufeff / -36.16500; 148.30111\ufeff (Dargals)"
    },
    {
        "Parish": "Geehi",
        "LGA": "Tumbarumba Shire",
        "Coordinates": "36&deg;19&prime;54&Prime;S 148&deg;06&prime;04&Prime;E\ufeff / \ufeff36.33167&deg;S 148.10111&deg;E\ufeff / -36.33167; 148.10111\ufeff (Geehi)"
    },
    {
        "Parish": "Glenken",
        "LGA": "Tumbarumba Shire",
        "Coordinates": "35&deg;55&prime;54&Prime;S 147&deg;48&prime;04&Prime;E\ufeff / \ufeff35.93167&deg;S 147.80111&deg;E\ufeff / -35.93167; 147.80111\ufeff (Glenken)"
    },
    {
        "Parish": "Glenroy",
        "LGA": "Tumbarumba Shire",
        "Coordinates": "35&deg;44&prime;54&Prime;S 147&deg;51&prime;04&Prime;E\ufeff / \ufeff35.74833&deg;S 147.85111&deg;E\ufeff / -35.74833; 147.85111\ufeff (Glenroy)"
    },
    {
        "Parish": "Greg Greg",
        "LGA": "Tumbarumba Shire",
        "Coordinates": "36&deg;03&prime;54&Prime;S 148&deg;03&prime;04&Prime;E\ufeff / \ufeff36.06500&deg;S 148.05111&deg;E\ufeff / -36.06500; 148.05111\ufeff (Greg Greg)"
    },
    {
        "Parish": "Gungartan",
        "LGA": "Tumbarumba Shire",
        "Coordinates": "36&deg;13&prime;54&Prime;S 148&deg;22&prime;04&Prime;E\ufeff / \ufeff36.23167&deg;S 148.36778&deg;E\ufeff / -36.23167; 148.36778\ufeff (Gungartan)"
    },
    {
        "Parish": "Hay",
        "LGA": "Tumbarumba Shire",
        "Coordinates": "35&deg;51&prime;54&Prime;S 148&deg;09&prime;04&Prime;E\ufeff / \ufeff35.86500&deg;S 148.15111&deg;E\ufeff / -35.86500; 148.15111\ufeff (Hay)"
    },
    {
        "Parish": "Hume",
        "LGA": "Tumbarumba Shire",
        "Coordinates": "36&deg;19&prime;54&Prime;S 148&deg;11&prime;04&Prime;E\ufeff / \ufeff36.33167&deg;S 148.18444&deg;E\ufeff / -36.33167; 148.18444\ufeff (Hume)"
    },
    {
        "Parish": "Indi",
        "LGA": "Tumbarumba Shire",
        "Coordinates": "36&deg;13&prime;54&Prime;S 148&deg;04&prime;04&Prime;E\ufeff / \ufeff36.23167&deg;S 148.06778&deg;E\ufeff / -36.23167; 148.06778\ufeff (Indi)"
    },
    {
        "Parish": "Jagumba",
        "LGA": "Tumbarumba Shire",
        "Coordinates": "35&deg;58&prime;54&Prime;S 148&deg;17&prime;04&Prime;E\ufeff / \ufeff35.98167&deg;S 148.28444&deg;E\ufeff / -35.98167; 148.28444\ufeff (Jagumba)"
    },
    {
        "Parish": "Jagungal",
        "LGA": "Tumbarumba Shire",
        "Coordinates": "36&deg;10&prime;54&Prime;S 148&deg;23&prime;04&Prime;E\ufeff / \ufeff36.18167&deg;S 148.38444&deg;E\ufeff / -36.18167; 148.38444\ufeff (Jagungal)"
    },
    {
        "Parish": "Jingellic East",
        "LGA": "Tumbarumba Shire",
        "Coordinates": "35&deg;52&prime;54&Prime;S 147&deg;45&prime;04&Prime;E\ufeff / \ufeff35.88167&deg;S 147.75111&deg;E\ufeff / -35.88167; 147.75111\ufeff (Jingellic East)"
    },
    {
        "Parish": "Khancoban",
        "LGA": "Tumbarumba Shire",
        "Coordinates": "36&deg;10&prime;54&Prime;S 148&deg;11&prime;04&Prime;E\ufeff / \ufeff36.18167&deg;S 148.18444&deg;E\ufeff / -36.18167; 148.18444\ufeff (Khancoban)"
    },
    {
        "Parish": "King",
        "LGA": "Tumbarumba Shire",
        "Coordinates": "35&deg;44&prime;54&Prime;S 148&deg;05&prime;04&Prime;E\ufeff / \ufeff35.74833&deg;S 148.08444&deg;E\ufeff / -35.74833; 148.08444\ufeff (King)"
    },
    {
        "Parish": "Kosciusko",
        "LGA": "Tumbarumba Shire",
        "Coordinates": "36&deg;30&prime;54&Prime;S 148&deg;12&prime;04&Prime;E\ufeff / \ufeff36.51500&deg;S 148.20111&deg;E\ufeff / -36.51500; 148.20111\ufeff (Kosciusko)"
    },
    {
        "Parish": "Lea",
        "LGA": "Tumbarumba Shire",
        "Coordinates": "36&deg;07&prime;54&Prime;S 148&deg;10&prime;04&Prime;E\ufeff / \ufeff36.13167&deg;S 148.16778&deg;E\ufeff / -36.13167; 148.16778\ufeff (Lea)"
    },
    {
        "Parish": "Manjar",
        "LGA": "Tumbarumba Shire",
        "Coordinates": "35&deg;51&prime;54&Prime;S 148&deg;19&prime;04&Prime;E\ufeff / \ufeff35.86500&deg;S 148.31778&deg;E\ufeff / -35.86500; 148.31778\ufeff (Manjar)"
    },
    {
        "Parish": "Mannus",
        "LGA": "Tumbarumba Shire",
        "Coordinates": "35&deg;49&prime;54&Prime;S 147&deg;57&prime;04&Prime;E\ufeff / \ufeff35.83167&deg;S 147.95111&deg;E\ufeff / -35.83167; 147.95111\ufeff (Mannus)"
    },
    {
        "Parish": "Maragle",
        "LGA": "Tumbarumba Shire",
        "Coordinates": "35&deg;53&prime;54&Prime;S 148&deg;09&prime;04&Prime;E\ufeff / \ufeff35.89833&deg;S 148.15111&deg;E\ufeff / -35.89833; 148.15111\ufeff (Maragle)"
    },
    {
        "Parish": "Mate",
        "LGA": "Tumbarumba Shire",
        "Coordinates": "35&deg;39&prime;54&Prime;S 147&deg;53&prime;04&Prime;E\ufeff / \ufeff35.66500&deg;S 147.88444&deg;E\ufeff / -35.66500; 147.88444\ufeff (Mate)"
    },
    {
        "Parish": "Munderoo",
        "LGA": "Tumbarumba Shire",
        "Coordinates": "35&deg;49&prime;54&Prime;S 147&deg;51&prime;04&Prime;E\ufeff / \ufeff35.83167&deg;S 147.85111&deg;E\ufeff / -35.83167; 147.85111\ufeff (Munderoo)"
    },
    {
        "Parish": "Munyang",
        "LGA": "Tumbarumba Shire",
        "Coordinates": "36&deg;12&prime;54&Prime;S 148&deg;27&prime;04&Prime;E\ufeff / \ufeff36.21500&deg;S 148.45111&deg;E\ufeff / -36.21500; 148.45111\ufeff (Munyang)"
    },
    {
        "Parish": "Murray",
        "LGA": "Tumbarumba Shire",
        "Coordinates": "36&deg;12&prime;54&Prime;S 148&deg;16&prime;04&Prime;E\ufeff / \ufeff36.21500&deg;S 148.26778&deg;E\ufeff / -36.21500; 148.26778\ufeff (Murray)"
    },
    {
        "Parish": "Nurenmerenmong",
        "LGA": "Tumbarumba Shire",
        "Coordinates": "35&deg;49&prime;54&Prime;S 148&deg;15&prime;04&Prime;E\ufeff / \ufeff35.83167&deg;S 148.25111&deg;E\ufeff / -35.83167; 148.25111\ufeff (Nurenmerenmong)"
    },
    {
        "Parish": "Ournie",
        "LGA": "Tumbarumba Shire",
        "Coordinates": "35&deg;56&prime;54&Prime;S 147&deg;52&prime;04&Prime;E\ufeff / \ufeff35.94833&deg;S 147.86778&deg;E\ufeff / -35.94833; 147.86778\ufeff (Ournie)"
    },
    {
        "Parish": "Round Hill",
        "LGA": "Tumbarumba Shire",
        "Coordinates": "35&deg;58&prime;54&Prime;S 148&deg;23&prime;04&Prime;E\ufeff / \ufeff35.98167&deg;S 148.38444&deg;E\ufeff / -35.98167; 148.38444\ufeff (Round Hill)"
    },
    {
        "Parish": "Scott",
        "LGA": "Tumbarumba Shire",
        "Coordinates": "35&deg;59&prime;54&Prime;S 148&deg;30&prime;04&Prime;E\ufeff / \ufeff35.99833&deg;S 148.50111&deg;E\ufeff / -35.99833; 148.50111\ufeff (Scott)"
    },
    {
        "Parish": "Selwyn",
        "LGA": "Tumut Shire",
        "Coordinates": "35&deg;49&prime;54&Prime;S 148&deg;24&prime;04&Prime;E\ufeff / \ufeff35.83167&deg;S 148.40111&deg;E\ufeff / -35.83167; 148.40111\ufeff (Selwyn)"
    },
    {
        "Parish": "Table Top",
        "LGA": "Tumut Shire",
        "Coordinates": "35&deg;55&prime;54&Prime;S 148&deg;24&prime;04&Prime;E\ufeff / \ufeff35.93167&deg;S 148.40111&deg;E\ufeff / -35.93167; 148.40111\ufeff (Table Top)"
    },
    {
        "Parish": "Tooma",
        "LGA": "Tumbarumba Shire",
        "Coordinates": "35&deg;55&prime;54&Prime;S 148&deg;04&prime;04&Prime;E\ufeff / \ufeff35.93167&deg;S 148.06778&deg;E\ufeff / -35.93167; 148.06778\ufeff (Tooma)"
    },
    {
        "Parish": "Tougaroo",
        "LGA": "Tumbarumba Shire",
        "Coordinates": "36&deg;33&prime;54&Prime;S 148&deg;13&prime;04&Prime;E\ufeff / \ufeff36.56500&deg;S 148.21778&deg;E\ufeff / -36.56500; 148.21778\ufeff (Tougaroo)"
    },
    {
        "Parish": "Tumbarumba",
        "LGA": "Tumbarumba Shire",
        "Coordinates": "35&deg;51&prime;54&Prime;S 148&deg;02&prime;04&Prime;E\ufeff / \ufeff35.86500&deg;S 148.03444&deg;E\ufeff / -35.86500; 148.03444\ufeff (Tumbarumba)"
    },
    {
        "Parish": "Twynam",
        "LGA": "Tumbarumba Shire",
        "Coordinates": "36&deg;41&prime;54&Prime;S 148&deg;13&prime;04&Prime;E\ufeff / \ufeff36.69833&deg;S 148.21778&deg;E\ufeff / -36.69833; 148.21778\ufeff (Twynam)"
    },
    {
        "Parish": "Victoria",
        "LGA": "Tumbarumba Shire",
        "Coordinates": "36&deg;25&prime;54&Prime;S 148&deg;08&prime;04&Prime;E\ufeff / \ufeff36.43167&deg;S 148.13444&deg;E\ufeff / -36.43167; 148.13444\ufeff (Victoria)"
    },
    {
        "Parish": "Wallace",
        "LGA": "Tumbarumba Shire",
        "Coordinates": "35&deg;47&prime;54&Prime;S 148&deg;19&prime;04&Prime;E\ufeff / \ufeff35.79833&deg;S 148.31778&deg;E\ufeff / -35.79833; 148.31778\ufeff (Wallace)"
    },
    {
        "Parish": "Welaregang",
        "LGA": "Tumbarumba Shire",
        "Coordinates": "35&deg;58&prime;54&Prime;S 147&deg;56&prime;04&Prime;E\ufeff / \ufeff35.98167&deg;S 147.93444&deg;E\ufeff / -35.98167; 147.93444\ufeff (Welaregang)"
    },
    {
        "Parish": "Welumba",
        "LGA": "Tumbarumba Shire",
        "Coordinates": "35&deg;58&prime;54&Prime;S 148&deg;08&prime;04&Prime;E\ufeff / \ufeff35.98167&deg;S 148.13444&deg;E\ufeff / -35.98167; 148.13444\ufeff (Welumba)"
    },
    {
        "Parish": "Yellowin",
        "LGA": "Tumut Shire",
        "Coordinates": "35&deg;27&prime;54&Prime;S 148&deg;14&prime;04&Prime;E\ufeff / \ufeff35.46500&deg;S 148.23444&deg;E\ufeff / -35.46500; 148.23444\ufeff (Yellowin)"
    },
    {
        "Parish": "Youngal",
        "LGA": "Tumbarumba Shire",
        "Coordinates": "36&deg;13&prime;54&Prime;S 148&deg;10&prime;04&Prime;E\ufeff / \ufeff36.23167&deg;S 148.16778&deg;E\ufeff / -36.23167; 148.16778\ufeff (Youngal)"
    }
]