[
    {
        "No.": "1",
        "Position": "GK",
        "Player": "Johan Thorbj&oslash;rnsen",
        "Premiership": "3 (0)",
        "Norwegian Cup": "3 (0)",
        "Europe": "3 (0)",
        "Royal League": "1 (0)",
        "Total": "10 (0)"
    },
    {
        "No.": "12",
        "Position": "GK",
        "Player": "H&aring;kon Opdal",
        "Premiership": "25 (0)",
        "Norwegian Cup": "1 (0)",
        "Europe": "7 (0)",
        "Royal League": "2 (0)",
        "Total": "35 (0)"
    },
    {
        "No.": "24",
        "Position": "GK",
        "Player": "Kenneth Udjus",
        "Premiership": "0 (0)",
        "Norwegian Cup": "0 (0)",
        "Europe": "0 (0)",
        "Royal League": "0 (0)",
        "Total": "0 (0)"
    },
    {
        "No.": "3",
        "Position": "DF",
        "Player": "Bj&oslash;rn Dahl",
        "Premiership": "15 (0)",
        "Norwegian Cup": "4 (0)",
        "Europe": "9 (0)",
        "Royal League": "2 (0)",
        "Total": "30 (0)"
    },
    {
        "No.": "5",
        "Position": "DF",
        "Player": "Ramiro Corrales",
        "Premiership": "11 (1)",
        "Norwegian Cup": "3 (0)",
        "Europe": "3 (0)",
        "Royal League": "0 (0)",
        "Total": "17 (1)"
    },
    {
        "No.": "15",
        "Position": "DF",
        "Player": "Erlend Hanstveit",
        "Premiership": "19 (0)",
        "Norwegian Cup": "4 (0)",
        "Europe": "9 (1)",
        "Royal League": "2 (0)",
        "Total": "34 (1)"
    },
    {
        "No.": "18",
        "Position": "DF",
        "Player": "&Oacute;lafur &Ouml;rn Bjarnason",
        "Premiership": "25 (0)",
        "Norwegian Cup": "3 (0)",
        "Europe": "10 (1)",
        "Royal League": "2 (0)",
        "Total": "40 (1)"
    },
    {
        "No.": "21",
        "Position": "DF",
        "Player": "Kristj&aacute;n &Ouml;rn Sigur&eth;sson",
        "Premiership": "24 (4)",
        "Norwegian Cup": "3 (0)",
        "Europe": "7 (2)",
        "Royal League": "0 (0)",
        "Total": "34 (6)"
    },
    {
        "No.": "26",
        "Position": "DF",
        "Player": "Knut Walde",
        "Premiership": "3 (0)",
        "Norwegian Cup": "0 (0)",
        "Europe": "1 (0)",
        "Royal League": "0 (0)",
        "Total": "4 (0)"
    },
    {
        "No.": "6",
        "Position": "DF",
        "Player": "Azar Karadas",
        "Premiership": "8 (4)",
        "Norwegian Cup": "0 (0)",
        "Europe": "6 (1)",
        "Royal League": "0 (0)",
        "Total": "14 (5)"
    },
    {
        "No.": "28",
        "Position": "DF",
        "Player": "&Aacute;rmann Sm&aacute;ri Bj&ouml;rnsson",
        "Premiership": "15 (2)",
        "Norwegian Cup": "6 (5)",
        "Europe": "5 (2)",
        "Royal League": "2 (0)",
        "Total": "28 (9)"
    },
    {
        "No.": "4",
        "Position": "DF",
        "Player": "Cato Guntveit",
        "Premiership": "16 (0)",
        "Norwegian Cup": "2 (1)",
        "Europe": "7 (1)",
        "Royal League": "2 (0)",
        "Total": "27 (2)"
    },
    {
        "No.": "6",
        "Position": "MF",
        "Player": "Helge Haugen",
        "Premiership": "4 (0)",
        "Norwegian Cup": "3 (0)",
        "Europe": "0 (0)",
        "Royal League": "1 (0)",
        "Total": "8 (0)"
    },
    {
        "No.": "7",
        "Position": "MF",
        "Player": "Hassan El Fakiri",
        "Premiership": "9 (1)",
        "Norwegian Cup": "0 (0)",
        "Europe": "5 (0)",
        "Royal League": "0 (0)",
        "Total": "14 (1)"
    },
    {
        "No.": "7",
        "Position": "MF",
        "Player": "Ardian Gashi",
        "Premiership": "11 (0)",
        "Norwegian Cup": "3 (0)",
        "Europe": "2 (0)",
        "Royal League": "2 (0)",
        "Total": "18 (0)"
    },
    {
        "No.": "8",
        "Position": "MF",
        "Player": "Martin Andresen",
        "Premiership": "23 (6)",
        "Norwegian Cup": "1 (0)",
        "Europe": "4 (0)",
        "Royal League": "2 (1)",
        "Total": "30 (7)"
    },
    {
        "No.": "9",
        "Position": "MF",
        "Player": "Jan Gunnar Solli",
        "Premiership": "25 (2)",
        "Norwegian Cup": "3 (2)",
        "Europe": "9 (2)",
        "Royal League": "0 (0)",
        "Total": "37 (6)"
    },
    {
        "No.": "11",
        "Position": "MF",
        "Player": "Petter Vaagan Moen",
        "Premiership": "25 (5)",
        "Norwegian Cup": "2 (0)",
        "Europe": "8 (2)",
        "Royal League": "2 (0)",
        "Total": "37 (7)"
    },
    {
        "No.": "13",
        "Position": "MF",
        "Player": "Erik Huseklepp",
        "Premiership": "22 (1)",
        "Norwegian Cup": "4 (0)",
        "Europe": "10 (1)",
        "Royal League": "2 (0)",
        "Total": "38 (2)"
    },
    {
        "No.": "14",
        "Position": "MF",
        "Player": "Tijan Jaiteh",
        "Premiership": "11 (0)",
        "Norwegian Cup": "1 (0)",
        "Europe": "4 (0)",
        "Royal League": "0 (0)",
        "Total": "16 (0)"
    },
    {
        "No.": "17",
        "Position": "MF",
        "Player": "Eirik Bakke",
        "Premiership": "10 (1)",
        "Norwegian Cup": "3 (0)",
        "Europe": "7 (1)",
        "Royal League": "0 (0)",
        "Total": "20 (2)"
    },
    {
        "No.": "19",
        "Position": "MF",
        "Player": "Nicolai Misje",
        "Premiership": "0 (0)",
        "Norwegian Cup": "0 (0)",
        "Europe": "0 (0)",
        "Royal League": "0 (0)",
        "Total": "0 (0)"
    },
    {
        "No.": "30",
        "Position": "MF",
        "Player": "Arnaud Monkam",
        "Premiership": "0 (0)",
        "Norwegian Cup": "0 (0)",
        "Europe": "0 (0)",
        "Royal League": "1 (0)",
        "Total": "1 (0)"
    },
    {
        "No.": "20",
        "Position": "MF",
        "Player": "Trond Fredrik Ludvigsen",
        "Premiership": "1 (0)",
        "Norwegian Cup": "2 (1)",
        "Europe": "0 (0)",
        "Royal League": "1 (0)",
        "Total": "4 (1)"
    },
    {
        "No.": "9",
        "Position": "FW",
        "Player": "Migen Memelli",
        "Premiership": "0 (0)",
        "Norwegian Cup": "0 (0)",
        "Europe": "0 (0)",
        "Royal League": "1 (0)",
        "Total": "1 (0)"
    },
    {
        "No.": "10",
        "Position": "FW",
        "Player": "Bengt S&aelig;ternes",
        "Premiership": "10 (5)",
        "Norwegian Cup": "1 (2)",
        "Europe": "0 (0)",
        "Royal League": "1 (0)",
        "Total": "12 (7)"
    },
    {
        "No.": "16",
        "Position": "FW",
        "Player": "Joakim Sj&ouml;hage",
        "Premiership": "3 (0)",
        "Norwegian Cup": "0 (0)",
        "Europe": "3 (0)",
        "Royal League": "0 (0)",
        "Total": "6 (0)"
    },
    {
        "No.": "22",
        "Position": "FW",
        "Player": "Thorstein Helstad",
        "Premiership": "24 (22)",
        "Norwegian Cup": "2 (1)",
        "Europe": "7 (3)",
        "Royal League": "2 (1)",
        "Total": "35 (27)"
    },
    {
        "No.": "77",
        "Position": "FW",
        "Player": "Robbie Winters",
        "Premiership": "19 (5)",
        "Norwegian Cup": "4 (3)",
        "Europe": "5 (7)",
        "Royal League": "0 (0)",
        "Total": "28 (15)"
    }
]