[
    {
        "Southwest Divisionvte": "San Antonio Spurs",
        "W": "50",
        "L": "16",
        "PCT": ".758",
        "GB": "-",
        "Home": "26-8",
        "Road": "24-8",
        "Div": "9-3",
        "GP": "66"
    },
    {
        "Southwest Divisionvte": "Houston Rockets",
        "W": "45",
        "L": "22",
        "PCT": ".672",
        "GB": "5.5",
        "Home": "27-7",
        "Road": "18-15",
        "Div": "9-4",
        "GP": "67"
    },
    {
        "Southwest Divisionvte": "Dallas Mavericks",
        "W": "41",
        "L": "27",
        "PCT": ".603",
        "GB": "10.0",
        "Home": "22-10",
        "Road": "19-17",
        "Div": "9-5",
        "GP": "68"
    },
    {
        "Southwest Divisionvte": "Memphis Grizzlies",
        "W": "39",
        "L": "27",
        "PCT": ".591",
        "GB": "11.0",
        "Home": "20-14",
        "Road": "19-13",
        "Div": "3-11",
        "GP": "66"
    },
    {
        "Southwest Divisionvte": "New Orleans Pelicans",
        "W": "27",
        "L": "39",
        "PCT": ".409",
        "GB": "23.0",
        "Home": "16-16",
        "Road": "11-23",
        "Div": "3-10",
        "GP": "66"
    }
]