[
    {
        "State 1": "Alabama",
        "State 2": "Florida",
        "State 3": "Mississippi",
        "Notes": "Gulf Coast"
    },
    {
        "State 1": "Connecticut",
        "State 2": "New Jersey",
        "State 3": "New York",
        "Notes": "New York, New York Metropolitan Area"
    },
    {
        "State 1": "Delaware",
        "State 2": "Maryland",
        "State 3": "New Jersey",
        "Notes": "Wilmington, DE"
    },
    {
        "State 1": "Delaware",
        "State 2": "Maryland",
        "State 3": "Virginia",
        "Notes": "Delmarva Peninsula"
    },
    {
        "State 1": "Idaho",
        "State 2": "Montana",
        "State 3": "Washington",
        "Notes": "Spokane, WA, Interstate 90"
    },
    {
        "State 1": "Illinois",
        "State 2": "Indiana",
        "State 3": "Wisconsin",
        "Notes": "Chicago metro area"
    },
    {
        "State 1": "Kansas",
        "State 2": "Oklahoma",
        "State 3": "Texas",
        "Notes": "Liberal, Kansas, Oklahoma, Texas, panhandles"
    },
    {
        "State 1": "Massachusetts",
        "State 2": "Maine",
        "State 3": "New Hampshire",
        "Notes": "Boston, Portland"
    },
    {
        "State 1": "New York",
        "State 2": "Pennsylvania",
        "State 3": "Ohio",
        "Notes": "Erie, Niagara Frontier, North Coast, Ontario, Lake Erie"
    },
    {
        "State 1": "South Carolina",
        "State 2": "North Carolina",
        "State 3": "Tennessee",
        "Notes": "Spartanburg, South Carolina, Asheville, North Carolina, Johnson City, Tennessee, Kingsport, Tennessee, Interstate 26"
    },
    {
        "State 1": "Vermont",
        "State 2": "Maine",
        "State 3": "New Hampshire",
        "Notes": "New England"
    },
    {
        "State 1": "West Virginia",
        "State 2": "Virginia",
        "State 3": "North Carolina",
        "Notes": "Interstate 77, Charleston, West Virginia, Charlotte, North Carolina, Wytheville, Virginia"
    }
]