[
    {
        "Code": "BE",
        "Region": "Berovo",
        "Municipalities covered by the code": "Berovo",
        "Appearance": ""
    },
    {
        "Code": "BT",
        "Region": "Bitola",
        "Municipalities covered by the code": "Bitola",
        "Appearance": ""
    },
    {
        "Code": "DE",
        "Region": "Del\u010devo",
        "Municipalities covered by the code": "Del\u010devo",
        "Appearance": ""
    },
    {
        "Code": "GE",
        "Region": "Gevgelija",
        "Municipalities covered by the code": "Gevgelija",
        "Appearance": ""
    },
    {
        "Code": "GV",
        "Region": "Gostivar",
        "Municipalities covered by the code": "Gostivar",
        "Appearance": ""
    },
    {
        "Code": "KA",
        "Region": "Kavadarci",
        "Municipalities covered by the code": "Kavadarci",
        "Appearance": ""
    },
    {
        "Code": "KI",
        "Region": "Ki\u010devo",
        "Municipalities covered by the code": "Ki\u010devo",
        "Appearance": ""
    },
    {
        "Code": "KO",
        "Region": "Ko\u010dani",
        "Municipalities covered by the code": "Ko\u010dani",
        "Appearance": ""
    },
    {
        "Code": "KP",
        "Region": "Kriva Palanka",
        "Municipalities covered by the code": "Kriva Palanka",
        "Appearance": ""
    },
    {
        "Code": "KU",
        "Region": "Kumanovo",
        "Municipalities covered by the code": "Kumanovo",
        "Appearance": ""
    },
    {
        "Code": "NE",
        "Region": "Negotino",
        "Municipalities covered by the code": "Negotino",
        "Appearance": ""
    },
    {
        "Code": "OH",
        "Region": "Ohrid",
        "Municipalities covered by the code": "Ohrid",
        "Appearance": ""
    },
    {
        "Code": "PP",
        "Region": "Prilep",
        "Municipalities covered by the code": "Prilep",
        "Appearance": ""
    },
    {
        "Code": "RA",
        "Region": "Radovi&scaron;",
        "Municipalities covered by the code": "Radovi&scaron;",
        "Appearance": ""
    },
    {
        "Code": "RE",
        "Region": "Resen",
        "Municipalities covered by the code": "Resen",
        "Appearance": ""
    },
    {
        "Code": "SK",
        "Region": "Skopje",
        "Municipalities covered by the code": "Skopje",
        "Appearance": ""
    },
    {
        "Code": "SN",
        "Region": "Sveti Nikole",
        "Municipalities covered by the code": "Sveti Nikole",
        "Appearance": ""
    },
    {
        "Code": "SU",
        "Region": "Struga",
        "Municipalities covered by the code": "Struga",
        "Appearance": ""
    },
    {
        "Code": "SR",
        "Region": "Strumica",
        "Municipalities covered by the code": "Strumica",
        "Appearance": ""
    },
    {
        "Code": "ST",
        "Region": "&Scaron;tip",
        "Municipalities covered by the code": "&Scaron;tip",
        "Appearance": ""
    },
    {
        "Code": "TE",
        "Region": "Tetovo",
        "Municipalities covered by the code": "Tetovo",
        "Appearance": ""
    },
    {
        "Code": "VE",
        "Region": "Veles",
        "Municipalities covered by the code": "Veles",
        "Appearance": ""
    },
    {
        "Code": "VI",
        "Region": "Vinica",
        "Municipalities covered by the code": "Vinica",
        "Appearance": ""
    },
    {
        "Code": "VV",
        "Region": "Vev\u010dani",
        "Municipalities covered by the code": "Vev\u010dani",
        "Appearance": ""
    }
]