[
    {
        "Year": "2008",
        "Film": "Shahrukh Khan",
        "Producer / Productions": "Chak De India"
    },
    {
        "Year": "2007",
        "Film": "Hrithik Roshan",
        "Producer / Productions": "Krrish"
    },
    {
        "Year": "2006",
        "Film": "Amitabh Bachchan",
        "Producer / Productions": "Black"
    },
    {
        "Year": "2005",
        "Film": "Shahrukh Khan",
        "Producer / Productions": "Veer-Zaara"
    },
    {
        "Year": "2004",
        "Film": "Hrithik Roshan",
        "Producer / Productions": "Koi Mil Gaya"
    },
    {
        "Year": "2003",
        "Film": "Shahrukh Khan",
        "Producer / Productions": "Devdas"
    },
    {
        "Year": "2002",
        "Film": "Aamir Khan",
        "Producer / Productions": "Lagaan"
    },
    {
        "Year": "2001",
        "Film": "Hrithik Roshan",
        "Producer / Productions": "Kaho Naa... Pyaar Hai"
    },
    {
        "Year": "2000",
        "Film": "Aamir Khan",
        "Producer / Productions": "Sarfarosh"
    },
    {
        "Year": "1999",
        "Film": "Shahrukh Khan",
        "Producer / Productions": "Kuch Kuch Hota Hai"
    },
    {
        "Year": "1998",
        "Film": "Shahrukh Khan",
        "Producer / Productions": "Dil To Pagal Hai"
    }
]