[
    {
        "col0": "E. d'Oultremont",
        "col1": "Vatican City",
        "col2": "Roman Catholic Church",
        "col3": "1818-10-11",
        "col4": "1818-10-11",
        "col5": "1878-02-22",
        "col6": "1997-10-12"
    },
    {
        "col0": "Z. Meszlenyi",
        "col1": "Esztergom Basilica",
        "col2": "Roman Catholic Church",
        "col3": "1892-01-02",
        "col4": "1892-01-02",
        "col5": "1951-03-04",
        "col6": "2009-10-31"
    },
    {
        "col0": "Z. Czeska",
        "col1": "Poland",
        "col2": "Roman Catholic Church",
        "col3": "1584-1-1",
        "col4": "1584-1-1",
        "col5": "1650-04-01",
        "col6": "2013-06-09"
    },
    {
        "col0": "Z. Agostini",
        "col1": "Vatican City",
        "col2": "Roman Catholic Church",
        "col3": "1813-09-24",
        "col4": "1813-09-24",
        "col5": "1896-04-06",
        "col6": "1998-10-25"
    },
    {
        "col0": "W. Findysz",
        "col1": "Poland",
        "col2": "Roman Catholic Church",
        "col3": "1907-12-13",
        "col4": "1907-12-13",
        "col5": "1964-08-21",
        "col6": "2005-06-19"
    },
    {
        "col0": "W. Bukowinski",
        "col1": "Kazakhstan",
        "col2": "Roman Catholic Church",
        "col3": "1904-12-22",
        "col4": "1904-12-22",
        "col5": "1974-12-03",
        "col6": "2016-09-11"
    },
    {
        "col0": "W. Findysz",
        "col1": "Poland",
        "col2": "Roman Catholic Church",
        "col3": "1907-12-13",
        "col4": "1907-12-13",
        "col5": "1964-08-21",
        "col6": "2005-06-19"
    },
    {
        "col0": "W. Bukowinski",
        "col1": "Kazakhstan",
        "col2": "Roman Catholic Church",
        "col3": "1904-12-22",
        "col4": "1904-12-22",
        "col5": "1974-12-03",
        "col6": "2016-09-11"
    },
    {
        "col0": "V. Ghika",
        "col1": "Bucharest",
        "col2": "Eastern Catholic Churches",
        "col3": "1873-12-25",
        "col4": "1873-12-25",
        "col5": "1954-06-16",
        "col6": "2013-08-31"
    },
    {
        "col0": "V. C. Bracelli",
        "col1": "Vatican City",
        "col2": "Roman Catholic Church",
        "col3": "1587-04-02",
        "col4": "1587-04-02",
        "col5": "1651-12-15",
        "col6": "1985-09-22"
    },
    {
        "col0": "V. Grossi",
        "col1": "Vatican City",
        "col2": "Roman Catholic Church",
        "col3": "1845-03-09",
        "col4": "1845-03-09",
        "col5": "1917-11-07",
        "col6": "1975-11-01"
    },
    {
        "col0": "V. d. Paul",
        "col1": "Papal States",
        "col2": "Anglican Communion",
        "col3": "1581-04-24",
        "col4": "1581-04-24",
        "col5": "1660-09-27",
        "col6": "1729-08-13"
    },
    {
        "col0": "V. Romano",
        "col1": "Saint Peter's Basilica",
        "col2": "Roman Catholic Church",
        "col3": "1751-06-03",
        "col4": "1751-06-03",
        "col5": "1831-12-20",
        "col6": "1963-11-17"
    },
    {
        "col0": "V. Apor",
        "col1": "Vatican City",
        "col2": "Roman Catholic Church",
        "col3": "1892-02-29",
        "col4": "1892-02-29",
        "col5": "1945-04-02",
        "col6": "1997-11-09"
    },
    {
        "col0": "V. d. Botti",
        "col1": "Vatican City",
        "col2": "Roman Catholic Church",
        "col3": "1332-1-1",
        "col4": "1332-1-1",
        "col5": "1360-1-29",
        "col6": "1824-03-27"
    },
    {
        "col0": "V. Rasoamanarivo",
        "col1": "Vatican City",
        "col2": "Roman Catholic Church",
        "col3": "1848-0-0",
        "col4": "1848-0-0",
        "col5": "1894-08-21",
        "col6": "1989-04-30"
    },
    {
        "col0": "V. V. David",
        "col1": "Vatican City",
        "col2": "Roman Catholic Church",
        "col3": "1889-06-28",
        "col4": "1889-06-28",
        "col5": "1937-02-14",
        "col6": "1995-10-01"
    },
    {
        "col0": "Vicente Liem de la Paz",
        "col1": "Vatican City",
        "col2": "Roman Catholic Church",
        "col3": "1732-1-1",
        "col4": "1732-1-1",
        "col5": "1773-11-07",
        "col6": "1906-05-20"
    },
    {
        "col0": "Vicenta Maria Lopez i Vicuna",
        "col1": "Saint Peter's Basilica",
        "col2": "Roman Catholic Church",
        "col3": "1847-03-24",
        "col4": "1847-03-24",
        "col5": "1890-12-26",
        "col6": "1950-02-19"
    },
    {
        "col0": "V. C. Orozco",
        "col1": "Vatican City",
        "col2": "Roman Catholic Church",
        "col3": "1867-02-06",
        "col4": "1867-02-06",
        "col5": "1949-07-30",
        "col6": "1997-11-09"
    },
    {
        "col0": "V. Velychkovsky",
        "col1": "Ukrainian Soviet Socialist Republic",
        "col2": "Roman Catholic Church",
        "col3": "1903-01-13",
        "col4": "1903-01-13",
        "col5": "1973-06-30",
        "col6": "2001-06-27"
    },
    {
        "col0": "U. Ledochowska",
        "col1": "Poznan",
        "col2": "Roman Catholic Church",
        "col3": "1865-04-17",
        "col4": "1865-04-17",
        "col5": "1939-05-29",
        "col6": "1983-06-20"
    },
    {
        "col0": "U. d. Cerchi",
        "col1": "Papal States",
        "col2": "Roman Catholic Church",
        "col3": "1219-1-1",
        "col4": "1219-1-1",
        "col5": "1246-05-19",
        "col6": "1694-07-24"
    },
    {
        "col0": "Ugolino da Gualdo Cattaneo",
        "col1": "Kingdom of Italy",
        "col2": "Roman Catholic Church",
        "col3": "1200",
        "col4": "1200",
        "col5": "1260-01-01",
        "col6": "1919-03-12"
    },
    {
        "col0": "T. d. Olera",
        "col1": "Bergamo",
        "col2": "Roman Catholic Church",
        "col3": "1563-0-0",
        "col4": "1563-0-0",
        "col5": "1631-0-0",
        "col6": "2013-09-21"
    },
    {
        "col0": "T. d. Cori",
        "col1": "Papal States",
        "col2": "Roman Catholic Church",
        "col3": "1655-06-04",
        "col4": "1655-06-04",
        "col5": "1729-01-11",
        "col6": "1786-09-03"
    },
    {
        "col0": "T. Riccardi",
        "col1": "Saint Peter's Basilica",
        "col2": "Roman Catholic Church",
        "col3": "1844-06-24",
        "col4": "1844-06-24",
        "col5": "1915-03-25",
        "col6": "1954-12-05"
    },
    {
        "col0": "T. M. Fusco",
        "col1": "Vatican City",
        "col2": "Roman Catholic Church",
        "col3": "1831-12-01",
        "col4": "1831-12-01",
        "col5": "1891-02-24",
        "col6": "2001-10-07"
    },
    {
        "col0": "T. O. Real",
        "col1": "Vatican City",
        "col2": "Roman Catholic Church",
        "col3": "1842-11-12",
        "col4": "1842-11-12",
        "col5": "1916-02-26",
        "col6": "2004-03-21"
    },
    {
        "col0": "T. Couderc",
        "col1": "Saint Peter's Basilica",
        "col2": "Roman Catholic Church",
        "col3": "1805-02-01",
        "col4": "1805-02-01",
        "col5": "1885-09-26",
        "col6": "1951-11-04"
    },
    {
        "col0": "T. Venard",
        "col1": "Kingdom of Italy",
        "col2": "Roman Catholic Church",
        "col3": "1829-1-1",
        "col4": "1829-1-1",
        "col5": "1861-02-02",
        "col6": "1909-05-02"
    },
    {
        "col0": "T. C. Mankidiyan",
        "col1": "Vatican City",
        "col2": "Syro-Malabar Catholic Church",
        "col3": "1876-04-26",
        "col4": "1876-04-26",
        "col5": "1926-06-08",
        "col6": "2000-04-09"
    },
    {
        "col0": "Three Martyrs of Chimbote",
        "col1": "Peru",
        "col2": "Roman Catholic Church",
        "col3": "1960-09-23",
        "col4": "1960-09-23",
        "col5": "1991-08-09",
        "col6": "2015-12-05"
    },
    {
        "col0": "T. Kunjachan",
        "col1": "Ramapuram, Kottayam",
        "col2": "Catholic Church",
        "col3": "1891-04-01",
        "col4": "1891-04-01",
        "col5": "1973-10-16",
        "col6": "2006-04-30"
    },
    {
        "col0": "T. Couderc",
        "col1": "Saint Peter's Basilica",
        "col2": "Roman Catholic Church",
        "col3": "1805-02-01",
        "col4": "1805-02-01",
        "col5": "1885-09-26",
        "col6": "1951-11-04"
    },
    {
        "col0": "T. Venard",
        "col1": "Kingdom of Italy",
        "col2": "Roman Catholic Church",
        "col3": "1829-1-1",
        "col4": "1829-1-1",
        "col5": "1861-02-02",
        "col6": "1909-05-02"
    },
    {
        "col0": "T. o. Avila",
        "col1": "Rome",
        "col2": "Anglican Communion",
        "col3": "1515-03-28",
        "col4": "1515-03-28",
        "col5": "1582-10-04",
        "col6": "1614-04-24"
    },
    {
        "col0": "Teresa of the Andes",
        "col1": "Santiago, Chile",
        "col2": "Roman Catholic Church",
        "col3": "1900-07-13",
        "col4": "1900-07-13",
        "col5": "1920-04-12",
        "col6": "1987-04-03"
    },
    {
        "col0": "T. o. Avila",
        "col1": "Rome",
        "col2": "Anglican Communion",
        "col3": "1515-03-28",
        "col4": "1515-03-28",
        "col5": "1582-10-04",
        "col6": "1614-04-24"
    },
    {
        "col0": "T. M. Manetti",
        "col1": "Florence",
        "col2": "Roman Catholic Church",
        "col3": "1846-03-02",
        "col4": "1846-03-02",
        "col5": "1910-04-23",
        "col6": "1986-10-19"
    },
    {
        "col0": "T. Manganiello",
        "col1": "Benevento",
        "col2": "Roman Catholic Church",
        "col3": "1849-01-01",
        "col4": "1849-01-01",
        "col5": "1876-11-04",
        "col6": "2010-05-22"
    },
    {
        "col0": "T. J. Ibars",
        "col1": "Saint Peter's Basilica",
        "col2": "Roman Catholic Church",
        "col3": "1843-01-09",
        "col4": "1843-01-09",
        "col5": "1897-08-26",
        "col6": "1958-04-27"
    },
    {
        "col0": "T. Demjanovich",
        "col1": "Newark, New Jersey",
        "col2": "Catholic Church",
        "col3": "1901-03-26",
        "col4": "1901-03-26",
        "col5": "1927-05-08",
        "col6": "2014-10-04"
    },
    {
        "col0": "T. Bracco",
        "col1": "Italy",
        "col2": "Roman Catholic Church",
        "col3": "1924-02-24",
        "col4": "1924-02-24",
        "col5": "1944-08-28",
        "col6": "1998-05-24"
    }
]