[
    {
        "col0": "Olimpico Clube",
        "col1": "Head Coach",
        "col2": "1938-10-17",
        "col3": "President"
    },
    {
        "col0": "Olimpia Futebol Clube",
        "col1": "Head coach",
        "col2": "1946-12-05",
        "col3": "President"
    },
    {
        "col0": "Ole Brasil Futebol Clube",
        "col1": "Head coach",
        "col2": "2006-09-21",
        "col3": "President"
    },
    {
        "col0": "Olympic Club",
        "col1": "Head Coach",
        "col2": "1915-07-25",
        "col3": "President"
    },
    {
        "col0": "Olaria Atletico Clube",
        "col1": "Head coach",
        "col2": "1915-07-01",
        "col3": "President"
    },
    {
        "col0": "Olimpico Pirambu Futebol Clube",
        "col1": "Head Coach",
        "col2": "1931-09-04",
        "col3": "President"
    },
    {
        "col0": "Olimpico Esporte Clube",
        "col1": "Head Coach",
        "col2": "1958-08-18",
        "col3": "President"
    },
    {
        "col0": "Olimpico Clube",
        "col1": "Head Coach",
        "col2": "1938-10-17",
        "col3": "President"
    },
    {
        "col0": "Olimpia Futebol Clube",
        "col1": "Head coach",
        "col2": "1946-12-05",
        "col3": "President"
    },
    {
        "col0": "Ole Brasil Futebol Clube",
        "col1": "Head coach",
        "col2": "2006-09-21",
        "col3": "President"
    },
    {
        "col0": "O Magrane",
        "col1": "Manager",
        "col2": "1985-05-13",
        "col3": "President"
    },
    {
        "col0": "Nauas Esporte Clube",
        "col1": "Head Coach",
        "col2": "1923-10-19",
        "col3": "President"
    },
    {
        "col0": "Novo Horizonte Futebol Clube",
        "col1": "Head Coach",
        "col2": "1968-02-27",
        "col3": "President"
    },
    {
        "col0": "Nova Xavantina Esporte Clube",
        "col1": "Head Coach",
        "col2": "1986-03-20",
        "col3": "President"
    },
    {
        "col0": "Nova Iguacu Futebol Clube",
        "col1": "Head coach",
        "col2": "1990-04-01",
        "col3": "President"
    },
    {
        "col0": "North York Astros",
        "col1": "Head Coach",
        "col2": "1990-11-23",
        "col3": "General Manager"
    },
    {
        "col0": "Nilopolis Futebol Clube",
        "col1": "Head Coach",
        "col2": "1977-11-11",
        "col3": "President"
    },
    {
        "col0": "New York Red Bulls II",
        "col1": "Head Coach",
        "col2": "2015-01-21",
        "col3": "Sporting Director"
    },
    {
        "col0": "New York Cosmos",
        "col1": "Head Coach",
        "col2": "1970-12-10",
        "col3": "Chairman"
    },
    {
        "col0": "Nacional Futebol Clube",
        "col1": "Head coach",
        "col2": "1944-08-01",
        "col3": "President"
    },
    {
        "col0": "Nacional Esporte Clube",
        "col1": "Head coach",
        "col2": "2008-06-28",
        "col3": "President"
    },
    {
        "col0": "Nacional Atletico Clube",
        "col1": "Head Coach",
        "col2": "1927-12-25",
        "col3": "President"
    },
    {
        "col0": "Nacional Atletico Clube",
        "col1": "Head coach",
        "col2": "1973-04-21",
        "col3": "President"
    },
    {
        "col0": "Nacional Atletico Clube",
        "col1": "Head Coach",
        "col2": "1927-12-25",
        "col3": "President"
    },
    {
        "col0": "Nacional Atletico Clube",
        "col1": "Head coach",
        "col2": "1973-04-21",
        "col3": "President"
    },
    {
        "col0": "NK A marje pri JelA!ah",
        "col1": "Head Coach",
        "col2": "1942-06-13",
        "col3": "President"
    },
    {
        "col0": "Nauas Esporte Clube",
        "col1": "Head Coach",
        "col2": "1923-10-19",
        "col3": "President"
    },
    {
        "col0": "Murici Futebol Clube",
        "col1": "Head coach",
        "col2": "1974-09-07",
        "col3": "President"
    },
    {
        "col0": "Muniz Freire Futebol Clube",
        "col1": "Head Coach",
        "col2": "1930-05-01",
        "col3": "President"
    },
    {
        "col0": "Msida Lions SFC",
        "col1": "Coach",
        "col2": "2013-12-04",
        "col3": "President"
    },
    {
        "col0": "Moto Esporte Clube",
        "col1": "Head coach",
        "col2": "1952-05-13",
        "col3": "President"
    },
    {
        "col0": "Morrinhos Futebol Clube",
        "col1": "Head Coach",
        "col2": "1982-04-20",
        "col3": "President"
    },
    {
        "col0": "Misto Esporte Clube",
        "col1": "Head Coach",
        "col2": "1992-01-01",
        "col3": "President"
    },
    {
        "col0": "Miramar Esporte Clube",
        "col1": "Head Coach",
        "col2": "1928-03-28",
        "col3": "President"
    },
    {
        "col0": "Mineiros Esporte Clube",
        "col1": "Head Coach",
        "col2": "1977-01-20",
        "col3": "President"
    },
    {
        "col0": "Miami FC",
        "col1": "Head Coach",
        "col2": "2015-05-20",
        "col3": "Co-owner"
    },
    {
        "col0": "Mazagao Atletico Clube",
        "col1": "Head coach",
        "col2": "1979-01-23",
        "col3": "President"
    },
    {
        "col0": "Marilia Futebol Clube",
        "col1": "Head Coach",
        "col2": "1984-11-22",
        "col3": "President"
    },
    {
        "col0": "Maranguape Futebol Clube",
        "col1": "Head Coach",
        "col2": "1997-11-17",
        "col3": "President"
    },
    {
        "col0": "Maracana Esporte Clube",
        "col1": "Head coach",
        "col2": "2005-01-31",
        "col3": "President"
    },
    {
        "col0": "Maracaju Atletico Clube",
        "col1": "Head coach",
        "col2": "1986-10-12",
        "col3": "President"
    },
    {
        "col0": "Marilia Futebol Clube",
        "col1": "Head Coach",
        "col2": "1984-11-22",
        "col3": "President"
    },
    {
        "col0": "Manchete Futebol Clube do Recife",
        "col1": "Head Coach",
        "col2": "1950-01-01",
        "col3": "President"
    },
    {
        "col0": "Manaus Compensao Esporte Clube",
        "col1": "Head Coach",
        "col2": "2009-08-20",
        "col3": "President"
    },
    {
        "col0": "Madureira Esporte Clube",
        "col1": "Head coach",
        "col2": "1914-08-08",
        "col3": "President"
    },
    {
        "col0": "Macau Esporte Clube",
        "col1": "Head Coach",
        "col2": "1978-06-08",
        "col3": "President"
    },
    {
        "col0": "Libermorro Futebol Clube",
        "col1": "Head Coach",
        "col2": "1947-12-07",
        "col3": "President"
    },
    {
        "col0": "Legiao FC",
        "col1": "Head coach",
        "col2": "2006-05-11",
        "col3": "President"
    },
    {
        "col0": "Lauro Muller Futebol Clube",
        "col1": "Head Coach",
        "col2": "1924-07-23",
        "col3": "President"
    },
    {
        "col0": "Laranjeiras Esporte Clube",
        "col1": "Head Coach",
        "col2": "2008-02-22",
        "col3": "President"
    },
    {
        "col0": "Lagarto Futebol Clube",
        "col1": "Head coach",
        "col2": "2009-04-20",
        "col3": "President"
    },
    {
        "col0": "Kabure Esporte Clube",
        "col1": "Head coach",
        "col2": "1985-01-05",
        "col3": "President"
    },
    {
        "col0": "KF Tirana",
        "col1": "Head Coach",
        "col2": "1920-08-15",
        "col3": "President"
    },
    {
        "col0": "Juventus Futebol Clube",
        "col1": "Head coach",
        "col2": "2006-08-11",
        "col3": "President"
    },
    {
        "col0": "Juventus Atletico Clube",
        "col1": "Head coach",
        "col2": "1951-03-12",
        "col3": "President"
    },
    {
        "col0": "Junior Team Futebol",
        "col1": "Head Coach",
        "col2": "2001-02-05",
        "col3": "President"
    },
    {
        "col0": "Jatai Atletico Clube",
        "col1": "Head Coach",
        "col2": "1997-11-24",
        "col3": "President"
    },
    {
        "col0": "Jacutinga Atletico Clube",
        "col1": "Head Coach",
        "col2": "2005-04-27",
        "col3": "President"
    },
    {
        "col0": "Jacarei Atletico Clube",
        "col1": "Head Coach",
        "col2": "1980-10-27",
        "col3": "President"
    },
    {
        "col0": "Jaboticabal Atletico",
        "col1": "Head Coach",
        "col2": "1911-04-30",
        "col3": "President"
    },
    {
        "col0": "Jabaquara Atletico Clube",
        "col1": "Head coach",
        "col2": "1914-11-15",
        "col3": "President"
    },
    {
        "col0": "JV Lideral Futebol Clube",
        "col1": "Head coach",
        "col2": "2005-05-12",
        "col3": "President"
    },
    {
        "col0": "Ivinhema Futebol Clube",
        "col1": "Head Coach",
        "col2": "2006-01-01",
        "col3": "President"
    },
    {
        "col0": "Itumbiara Esporte Clube",
        "col1": "Head coach",
        "col2": "1970-03-09",
        "col3": "President"
    },
    {
        "col0": "Ittihad FC",
        "col1": "Head coach",
        "col2": "1927-01-04",
        "col3": "President"
    },
    {
        "col0": "Itapora Futebol Clube",
        "col1": "Head Coach",
        "col2": "2008-03-05",
        "col3": "President"
    },
    {
        "col0": "Itacuruba Sport Club",
        "col1": "Head Coach",
        "col2": "1987-08-02",
        "col3": "President"
    },
    {
        "col0": "Itabuna Esporte Clube",
        "col1": "Head Coach",
        "col2": "1967-05-23",
        "col3": "President"
    },
    {
        "col0": "Itabaiana Coritiba Foot Ball Clube",
        "col1": "Head Coach",
        "col2": "1972-09-14",
        "col3": "President"
    },
    {
        "col0": "Ipanema Atletico Clube",
        "col1": "Head Coach",
        "col2": "1923-05-05",
        "col3": "President"
    },
    {
        "col0": "Internazionale Pattaya F.C.",
        "col1": "Head Coach",
        "col2": "2015-12-20",
        "col3": "President"
    },
    {
        "col0": "Intercap Esporte Clube",
        "col1": "Head coach",
        "col2": "1972-07-10",
        "col3": "President"
    },
    {
        "col0": "Instituto de Administracao de Projetos Educacionais Futebol Clube",
        "col1": "Head Coach",
        "col2": "2008-08-08",
        "col3": "President"
    },
    {
        "col0": "Independente Futebol Clube",
        "col1": "Head coach",
        "col2": "1944-01-19",
        "col3": "President"
    },
    {
        "col0": "Independente Esporte Clube",
        "col1": "Head Coach",
        "col2": "1962-01-19",
        "col3": "President"
    },
    {
        "col0": "Impulse FC",
        "col1": "Last coach",
        "col2": "2009-02-03",
        "col3": "Last chairman"
    },
    {
        "col0": "Imbituba Futebol Clube",
        "col1": "Head Coach",
        "col2": "2007-02-01",
        "col3": "President"
    },
    {
        "col0": "Ikorodu United F.C.",
        "col1": "Manager",
        "col2": "2014-12-01",
        "col3": "Chairman"
    },
    {
        "col0": "Horizonte Futebol Clube",
        "col1": "Head Coach",
        "col2": "2004-03-27",
        "col3": "President"
    },
    {
        "col0": "Holanda Esporte Clube",
        "col1": "Head coach",
        "col2": "1984-10-24",
        "col3": "President"
    },
    {
        "col0": "Hoboken FC 1912",
        "col1": "Head Coach",
        "col2": "1912-03-12",
        "col3": "General Manager"
    },
    {
        "col0": "Hamburger SV II",
        "col1": "Head coach",
        "col2": "1887-09-29",
        "col3": "Chairman"
    },
    {
        "col0": "Gurupi Esporte Clube",
        "col1": "Head coach",
        "col2": "1988-09-15",
        "col3": "President"
    },
    {
        "col0": "Guarapari Esporte Clube",
        "col1": "Head Coach",
        "col2": "1936-06-12",
        "col3": "President"
    },
    {
        "col0": "Guarany Sporting Club",
        "col1": "Head coach",
        "col2": "1938-07-02",
        "col3": "President"
    },
    {
        "col0": "Guarany Futebol Clube",
        "col1": "Head Coach",
        "col2": "1946-02-12",
        "col3": "President"
    },
    {
        "col0": "Guarani Esporte Clube",
        "col1": "Head Coach",
        "col2": "1930-09-20",
        "col3": "President"
    },
    {
        "col0": "Guanambi Atletico Clube",
        "col1": "Head Coach",
        "col2": "1983-02-08",
        "col3": "President"
    },
    {
        "col0": "Guajara Esporte Clube",
        "col1": "Head coach",
        "col2": "1952-10-31",
        "col3": "President"
    },
    {
        "col0": "Gremio Recreativo e Esportivo",
        "col1": "Head Coach",
        "col2": "1984-05-01",
        "col3": "President"
    },
    {
        "col0": "Gremio Mangaratibense",
        "col1": "Head coach",
        "col2": "2009-01-21",
        "col3": "President"
    },
    {
        "col0": "Gremio Foot-Ball Santanense",
        "col1": "Head Coach",
        "col2": "1913-06-11",
        "col3": "President"
    },
    {
        "col0": "Gremio Esportivo Tiradentes",
        "col1": "Head coach",
        "col2": "1967-02-03",
        "col3": "President"
    },
    {
        "col0": "Gremio Esportivo Olimpico",
        "col1": "Head coach",
        "col2": "1919-08-14",
        "col3": "President"
    },
    {
        "col0": "Gremio Esportivo Mauaense",
        "col1": "Head Coach",
        "col2": "1981-12-15",
        "col3": "President"
    },
    {
        "col0": "Gremio Esportivo Juventus",
        "col1": "Head coach",
        "col2": "1966-05-01",
        "col3": "President"
    },
    {
        "col0": "Gremio Esportivo Inhumense",
        "col1": "Head coach",
        "col2": "1999-03-15",
        "col3": "President"
    },
    {
        "col0": "Gremio Esportivo Gloria",
        "col1": "Head coach",
        "col2": "1956-11-15",
        "col3": "President"
    },
    {
        "col0": "Gremio Barueri Futebol",
        "col1": "Head coach",
        "col2": "1989-03-26",
        "col3": "President"
    },
    {
        "col0": "Gremio Atletico Farroupilha",
        "col1": "Head Coach",
        "col2": "1926-04-26",
        "col3": "President"
    },
    {
        "col0": "Gremio Atletico Coariense",
        "col1": "Head Coach",
        "col2": "1977-01-06",
        "col3": "President"
    }
]