[
    {
        "col0": "Two Wrongs",
        "col1": "W. Jean",
        "col2": "Wyclef Jean",
        "col3": "229",
        "col4": "Africa"
    },
    {
        "col0": "Two Worlds",
        "col1": "P. Collins",
        "col2": "Phil Collins",
        "col3": "198",
        "col4": "\"You'll Be in My Heart\""
    },
    {
        "col0": "Two Weeks",
        "col1": "E. Haynie",
        "col2": "FKA twigs",
        "col3": "248",
        "col4": "\"Pendulum\""
    },
    {
        "col0": "Two Tribes",
        "col1": "H. Johnson",
        "col2": "Frankie Goes to Hollywood",
        "col3": "237",
        "col4": "\"One February Friday\", \"War\""
    },
    {
        "col0": "Two Tickets to Paradise",
        "col1": "E. Money",
        "col2": "Eddie Money",
        "col3": "189",
        "col4": "\"Don't Worry\""
    },
    {
        "col0": "Two Teardrops",
        "col1": "S. Wariner",
        "col2": "Steve Wariner",
        "col3": "269",
        "col4": "\"Cry No More\""
    },
    {
        "col0": "Two Steps Behind",
        "col1": "J. Elliott",
        "col2": "Def Leppard",
        "col3": "251",
        "col4": "* SMC"
    },
    {
        "col0": "Two Shoes",
        "col1": "F. Riebl",
        "col2": "The Cat Empire",
        "col3": "230",
        "col4": "\"Rhyme & Reason\""
    },
    {
        "col0": "Two Pina Coladas",
        "col1": "S. Camp",
        "col2": "Garth Brooks",
        "col3": "214",
        "col4": "\"To Make You Feel My Love\" (EU CD single)"
    },
    {
        "col0": "Two People Fell in Love",
        "col1": "B. Paisley",
        "col2": "Brad Paisley",
        "col3": "247",
        "col4": "\"Me Neither\""
    },
    {
        "col0": "Two People",
        "col1": "G. Lyle",
        "col2": "Tina Turner",
        "col3": "251",
        "col4": "\"Havin' a Party\""
    },
    {
        "col0": "Two Out of Three Ain't Bad",
        "col1": "J. Steinman",
        "col2": "Meat Loaf",
        "col3": "7",
        "col4": "\"For Crying Out Loud\""
    },
    {
        "col0": "Two More Bottles of Wine",
        "col1": "D. McClinton",
        "col2": "Emmylou Harris",
        "col3": "188",
        "col4": "\"I Ain't Living Long Like This\""
    },
    {
        "col0": "Two Lovers",
        "col1": "S. Robinson",
        "col2": "Mary Wells",
        "col3": "165",
        "col4": "\"Operator\""
    },
    {
        "col0": "Two Less Lonely People in the World",
        "col1": "H. Greenfield",
        "col2": "Air Supply",
        "col3": "239",
        "col4": "\"What Kind of Girl\""
    },
    {
        "col0": "Two Hearts",
        "col1": "J. Mtume",
        "col2": "Teddy Pendergrass",
        "col3": "240",
        "col4": "\"I Just Wanna Say\""
    },
    {
        "col0": "Two Hearts",
        "col1": "P. Collins",
        "col2": "Phil Collins",
        "col3": "203",
        "col4": "\"The Robbery\""
    },
    {
        "col0": "Two Faces Have I",
        "col1": "L. Christie",
        "col2": "Lou Christie",
        "col3": "164",
        "col4": "\"All That Glitters Isn't Gold\""
    },
    {
        "col0": "Two Dozen Roses",
        "col1": "M. McAnally",
        "col2": "Shenandoah",
        "col3": "222",
        "col4": "\"Hard Country\""
    },
    {
        "col0": "Two Divided by Love",
        "col1": "B. Potter",
        "col2": "The Grass Roots",
        "col3": "162",
        "col4": "\"Let It Go\""
    },
    {
        "col0": "Two-Timin' Me",
        "col1": "J. Griffin",
        "col2": "The Remingtons",
        "col3": "184",
        "col4": "\"That's Easy for Me to Say\""
    },
    {
        "col0": "Two-Bit Manchild",
        "col1": "N. Diamond",
        "col2": "Neil Diamond",
        "col3": "184",
        "col4": "\"Broad Old Woman (6 AM Insanity)\""
    },
    {
        "col0": "Twisting by the Pool",
        "col1": "M. Knopfler",
        "col2": "Dire Straits",
        "col3": "208",
        "col4": "\"If I Had You\""
    },
    {
        "col0": "Twistin' the Night Away",
        "col1": "S. Cooke",
        "col2": "Rod Stewart",
        "col3": "162",
        "col4": "\"A Divine Good Time\""
    },
    {
        "col0": "Twisted",
        "col1": "B. McFadden",
        "col2": "Brian McFadden",
        "col3": "234",
        "col4": "\"Patience\""
    },
    {
        "col0": "Twist of Fate",
        "col1": "S. Donaghy",
        "col2": "Siobhan Donaghy",
        "col3": "226",
        "col4": "\"Don't Know Why\""
    },
    {
        "col0": "Twist in My Sobriety",
        "col1": "T. Tikaram",
        "col2": "Tanita Tikaram",
        "col3": "233",
        "col4": "\"For All These Years\""
    },
    {
        "col0": "Twist and Shout",
        "col1": "B. Berns",
        "col2": "The Beatles",
        "col3": "125",
        "col4": "\"Always Late (Why Lead Me On)\""
    },
    {
        "col0": "Twist",
        "col1": "A. Goldfrapp",
        "col2": "Goldfrapp",
        "col3": "212",
        "col4": "\"Yes Sir\""
    },
    {
        "col0": "Twinkle, Twinkle Lucky Star",
        "col1": "M. Haggard",
        "col2": "Merle Haggard",
        "col3": "202",
        "col4": "\"I Don't Have Any Love Around\""
    },
    {
        "col0": "Twilight Zone",
        "col1": "G. Kooymans",
        "col2": "Golden Earring",
        "col3": "289",
        "col4": "\"King Dark\""
    },
    {
        "col0": "Twilight Time",
        "col1": "B. Ram",
        "col2": "The Platters",
        "col3": "167",
        "col4": "\"Out of My Mind\""
    },
    {
        "col0": "Twilight Is Gone",
        "col1": "C. Hillman",
        "col2": "The Desert Rose Band",
        "col3": "195",
        "col4": "\"Shades of Blue\""
    },
    {
        "col0": "Twilight",
        "col1": "J. Lynne",
        "col2": "Electric Light Orchestra",
        "col3": "217",
        "col4": "\"Julie Don't Live Here\""
    },
    {
        "col0": "Twenty Years Ago",
        "col1": "W. Newton",
        "col2": "Kenny Rogers",
        "col3": "224",
        "col4": "\"The Heart of the Matter\""
    },
    {
        "col0": "Twenty Four Hours from Tulsa",
        "col1": "B. Bacharach",
        "col2": "Gene Pitney",
        "col3": "172",
        "col4": "\"Lonely Night Dreams (Of Far Away Arms)\""
    },
    {
        "col0": "Twenty Flight Rock",
        "col1": "E. Cochran",
        "col2": "Eddie Cochran",
        "col3": "102",
        "col4": "\"Cradle Baby\""
    },
    {
        "col0": "Tusk",
        "col1": "L. Buckingham",
        "col2": "Fleetwood Mac",
        "col3": "209",
        "col4": "\"Never Make Me Cry\""
    },
    {
        "col0": "Tush",
        "col1": "B. Gibbons",
        "col2": "ZZ Top",
        "col3": "135",
        "col4": "\"Blue Jean Blues\""
    },
    {
        "col0": "Turning Away",
        "col1": "T. Krekel",
        "col2": "Crystal Gayle",
        "col3": "175",
        "col4": "\"On Our Way to Love\""
    },
    {
        "col0": "Turn to Stone",
        "col1": "J. Lynne",
        "col2": "Electric Light Orchestra",
        "col3": "227",
        "col4": "\"Mister Kingdom\""
    },
    {
        "col0": "Turn the Tide",
        "col1": "P. Thornalley",
        "col2": "Johnny Hates Jazz",
        "col3": "224",
        "col4": "Breaking Point"
    },
    {
        "col0": "Turn the Page",
        "col1": "B. Seger",
        "col2": "Metallica",
        "col3": "300",
        "col4": "\"Bleeding Me\"/\"Stone Cold Crazy\"/\"The Wait\""
    },
    {
        "col0": "Turn on",
        "col1": "M. White",
        "col2": "Earth, Wind & Fire",
        "col3": "255",
        "col4": "\"Turn On (The Beat Box)\" (Instrumental)"
    },
    {
        "col0": "Turn of the Century",
        "col1": "F. Knobloch",
        "col2": "Nitty Gritty Dirt Band",
        "col3": "219",
        "col4": "\"Blues Berry Hill\""
    },
    {
        "col0": "Turn Your Love Around",
        "col1": "S. Lukather",
        "col2": "George Benson",
        "col3": "230",
        "col4": "\"Nature Boy\""
    },
    {
        "col0": "Turn Up the Radio",
        "col1": "S. Lynch",
        "col2": "Autograph",
        "col3": "278",
        "col4": "\"Thrill of Love\""
    },
    {
        "col0": "Turn That Radio On",
        "col1": "P. Davis",
        "col2": "Ronnie Milsap",
        "col3": "222",
        "col4": "\"Old Habits Are Hard to Break\""
    },
    {
        "col0": "Turn On Your Love Light",
        "col1": "D. Robey",
        "col2": "Bobby Bland",
        "col3": "150",
        "col4": "\"You're The One (That I Need)\""
    },
    {
        "col0": "Turn On, Tune In, Cop Out",
        "col1": "N. Cook",
        "col2": "Freak Power",
        "col3": "260",
        "col4": "Remix, \"Getting Over the Hump\""
    },
    {
        "col0": "Turn My Back on You",
        "col1": "S. Matthewman",
        "col2": "Sade",
        "col3": "365",
        "col4": "\"Keep Looking\""
    },
    {
        "col0": "Turn Me Loose",
        "col1": "M. Reno",
        "col2": "Loverboy",
        "col3": "230",
        "col4": "\"Dear Santa (Bring Me a Man)\""
    },
    {
        "col0": "Turn It Up",
        "col1": "T. Feeling",
        "col2": "The Feeling",
        "col3": "210",
        "col4": "\"Femme Fatale\""
    },
    {
        "col0": "Turn It Up",
        "col1": "A. Green",
        "col2": "Busta Rhymes",
        "col3": "235",
        "col4": "\"Rhymes Galore\""
    },
    {
        "col0": "Turn It On Again",
        "col1": "P. Collins",
        "col2": "Genesis",
        "col3": "207",
        "col4": "\"Behind the Lines\" (Edit) (UK)"
    },
    {
        "col0": "Turn It On, Turn It Up, Turn Me Loose",
        "col1": "K. Lazarides",
        "col2": "Dwight Yoakam",
        "col3": "203",
        "col4": "\"Since I Started Drinkin' Again\""
    },
    {
        "col0": "Turn It Loose",
        "col1": "C. Bickhardt",
        "col2": "The Judds",
        "col3": "223",
        "col4": "\"Cow Cow Boogie\""
    },
    {
        "col0": "Turn It Around",
        "col1": "S. Focus",
        "col2": "Sub Focus",
        "col3": "193",
        "col4": "\"Turn It Around\" (TCRemix)"
    },
    {
        "col0": "Turn Back Time",
        "col1": "S. Focus",
        "col2": "Sub Focus",
        "col3": "205",
        "col4": "Special RequestRemix"
    },
    {
        "col0": "Turn Around",
        "col1": "M. Reynolds",
        "col2": "Dick and Dee Dee",
        "col3": "158",
        "col4": "\"Don't Leave Me\""
    },
    {
        "col0": "Turn Around, Look at Me",
        "col1": "J. Capehart",
        "col2": "Bee Gees",
        "col3": "136",
        "col4": "\"(Theme From) The Travels Of Jamie McPheeters\""
    },
    {
        "col0": "Turn-Down Day",
        "col1": "J. Keller",
        "col2": "The Cyrkle",
        "col3": "149",
        "col4": "\"Big Little Woman\""
    },
    {
        "col0": "Turn! Turn! Turn!",
        "col1": "P. Seeger",
        "col2": "The Byrds",
        "col3": "229",
        "col4": "\"She Don't Care About Time\""
    },
    {
        "col0": "Turbo Lover",
        "col1": "R. Halford",
        "col2": "Judas Priest",
        "col3": "333",
        "col4": "\"Hot for Love\""
    },
    {
        "col0": "Tupelo Honey",
        "col1": "V. Morrison",
        "col2": "Van Morrison",
        "col3": "414",
        "col4": "\"Starting a New Life\""
    },
    {
        "col0": "Tunnel of Love",
        "col1": "M. Knopfler",
        "col2": "Dire Straits",
        "col3": "488",
        "col4": "\"Tunnel of Love, Part 2\""
    },
    {
        "col0": "Tunnel of Love",
        "col1": "B. Springsteen",
        "col2": "Bruce Springsteen",
        "col3": "310",
        "col4": "\"Two for the Road\""
    },
    {
        "col0": "Tumbling Down",
        "col1": "S. Harley",
        "col2": "Cockney Rebel",
        "col3": "203",
        "col4": "\"Loretta's Tale\""
    },
    {
        "col0": "Tumbling Dice",
        "col1": "Jagger/Richards",
        "col2": "The Rolling Stones",
        "col3": "185",
        "col4": "\"I Never Will Marry\""
    },
    {
        "col0": "Tumbleweed",
        "col1": "D. Morgan",
        "col2": "Sylvia",
        "col3": "191",
        "col4": "\"Anytime, Anyplace"
    },
    {
        "col0": "Tug of War",
        "col1": "P. McCartney",
        "col2": "Paul McCartney",
        "col3": "240",
        "col4": "\"Get It\""
    },
    {
        "col0": "Tuff Enuff",
        "col1": "K. Wilson",
        "col2": "The Fabulous Thunderbirds",
        "col3": "201",
        "col4": "Look At That, Look At That"
    },
    {
        "col0": "Tuesday Afternoon",
        "col1": "J. Hayward",
        "col2": "The Moody Blues",
        "col3": "136",
        "col4": "\"Another Morning\""
    },
    {
        "col0": "Tube Snake Boogie",
        "col1": "B. Gibbons",
        "col2": "ZZ Top",
        "col3": "182",
        "col4": "\"La Grange\""
    },
    {
        "col0": "Tu t'laisses aller",
        "col1": "C. Aznavour",
        "col2": "Charles Aznavour",
        "col3": "223",
        "col4": "\"J'ai perdu la tete\""
    },
    {
        "col0": "Tu ne m'as pas laisse le temps",
        "col1": "D. Hallyday",
        "col2": "David Hallyday",
        "col3": "263",
        "col4": "\"Un Petit Peu de toi\""
    },
    {
        "col0": "Tu manques",
        "col1": "J. Goldman",
        "col2": "Carole Fredericks",
        "col3": "553",
        "col4": "\"Vivre cent vies\""
    },
    {
        "col0": "Tu es mon autre",
        "col1": "L. Fabian",
        "col2": "Lara Fabian",
        "col3": "222",
        "col4": "Instrumental + Live"
    },
    {
        "col0": "Tu' mir nicht weh",
        "col1": "B. Davis",
        "col2": "Connie Francis",
        "col3": "159",
        "col4": "\"Paradiso\""
    },
    {
        "col0": "Tthhee Ppaarrttyy",
        "col1": "Uffie",
        "col2": "Justice",
        "col3": "243",
        "col4": "\"Tthhee Ppaarrttyy\""
    },
    {
        "col0": "Tsutaetai Koto/I Wanna See You",
        "col1": "M. Abe",
        "col2": "Mao Abe",
        "col3": "215",
        "col4": "Kirei na Uta"
    },
    {
        "col0": "Tsukiyo no Shozo",
        "col1": "R. Sheena",
        "col2": "Chiaki Kuriyama",
        "col3": "229",
        "col4": "\"Seishun no Matataki\""
    },
    {
        "col0": "Tsubasa wa Iranai",
        "col1": "Y. Akimoto",
        "col2": "AKB48",
        "col3": "275",
        "col4": "\"AishA<< no Trumpeter\""
    },
    {
        "col0": "Traume leben ewig",
        "col1": "T. Brotzmann",
        "col2": "Christina Sturmer",
        "col3": "234",
        "col4": "Scherbenmeer, 4 Jahrezeiten"
    },
    {
        "col0": "Trying to Love Two Women",
        "col1": "S. Throckmorton",
        "col2": "The Oak Ridge Boys",
        "col3": "150",
        "col4": "\"Hold On Til Sunday\""
    },
    {
        "col0": "Tryin' to Hide a Fire in the Dark",
        "col1": "B. Dean",
        "col2": "Billy Dean",
        "col3": "217",
        "col4": "\"Steam Roller\""
    },
    {
        "col0": "Tryin' to Get the Feeling Again",
        "col1": "D. Pomeranz",
        "col2": "The Carpenters",
        "col3": "231",
        "col4": "\"Beautiful Music\""
    },
    {
        "col0": "Tryin' to Get Over You",
        "col1": "V. Gill",
        "col2": "Vince Gill",
        "col3": "223",
        "col4": "\"Nothing Like a Woman\""
    },
    {
        "col0": "Tryin' to Beat the Morning Home",
        "col1": "T. G. Sheppard",
        "col2": "T. G. Sheppard",
        "col3": "164",
        "col4": "\"I'll Be Satisfied\""
    },
    {
        "col0": "Try a Little Tenderness",
        "col1": "H. M. Woods",
        "col2": "Otis Redding",
        "col3": "200",
        "col4": "\"I'm Sick Y'all\""
    },
    {
        "col0": "Try a Little Kindness",
        "col1": "B. Austin",
        "col2": "Glen Campbell",
        "col3": "143",
        "col4": "\"Lonely My Lonely Friend\""
    },
    {
        "col0": "Try Try Try",
        "col1": "J. Cope",
        "col2": "Julian Cope",
        "col3": "208",
        "col4": "\"Baby, Let's Play Vet\"/\"W.E.S.S.E.X.Y\"/\"Don't Jump Me, Mother\""
    },
    {
        "col0": "Try Some, Buy Some",
        "col1": "G. Harrison",
        "col2": "Ronnie Spector",
        "col3": "248",
        "col4": "\"Tandoori Chicken\""
    },
    {
        "col0": "Try Not to Look So Pretty",
        "col1": "D. Yoakam",
        "col2": "Dwight Yoakam",
        "col3": "172",
        "col4": "\"Wild Side\""
    },
    {
        "col0": "Try Me",
        "col1": "J. Brown",
        "col2": "The Famous Flames",
        "col3": "148",
        "col4": "\"Papa's Got a Brand New Bag\""
    },
    {
        "col0": "Try Me, I Know We Can Make It",
        "col1": "G. Moroder",
        "col2": "Donna Summer",
        "col3": "1077",
        "col4": "Wasted"
    },
    {
        "col0": "Try Again",
        "col1": "T. Rice-Oxley",
        "col2": "Keane",
        "col3": "267",
        "col4": "\"A Bad Dream\" (Live)"
    },
    {
        "col0": "Try, Try, Try",
        "col1": "B. Corgan",
        "col2": "The Smashing Pumpkins",
        "col3": "309",
        "col4": "\"Here's to the Atom Bomb\""
    },
    {
        "col0": "Truth Is",
        "col1": "O. I. Jr.",
        "col2": "Fantasia Barrino",
        "col3": "235",
        "col4": "\"Baby Mama\""
    },
    {
        "col0": "Trust Your Love",
        "col1": "K. Koda",
        "col2": "Kumi Koda",
        "col3": "1602",
        "col4": "STILL IN LOVE"
    },
    {
        "col0": "Truly Yours",
        "col1": "W. \". Stevenson",
        "col2": "The Spinners",
        "col3": "187",
        "col4": "\"Where Is That Girl\""
    },
    {
        "col0": "Truly Yours",
        "col1": "M. Marl",
        "col2": "Kool G Rap",
        "col3": "307",
        "col4": "Cold Cuts"
    },
    {
        "col0": "Truly Madly Deeply",
        "col1": "D. Jones",
        "col2": "Cascada",
        "col3": "179",
        "col4": "\"I'll Bet He Was Cool\", \"I Want You\", \"Promises\", \"This Side of Me\", \"Love Can Move You\""
    },
    {
        "col0": "Truly",
        "col1": "L. Richie",
        "col2": "Lionel Richie",
        "col3": "200",
        "col4": "\"Just Put Some Love in Your Heart\""
    },
    {
        "col0": "Truly, Truly True",
        "col1": "A. Stillman",
        "col2": "Brenda Lee",
        "col3": "160",
        "col4": "\"I Still Miss Someone\""
    },
    {
        "col0": "True to His Word",
        "col1": "J. Steele",
        "col2": "Boy Howdy",
        "col3": "196",
        "col4": "\"I'm Already Lovin' You Too Much\""
    },
    {
        "col0": "True Tears of Joy",
        "col1": "J. Smith",
        "col2": "Hunters & Collectors",
        "col3": "260",
        "col4": "\"This Morning\""
    },
    {
        "col0": "True Love Ways",
        "col1": "N. Petty",
        "col2": "Cliff Richard",
        "col3": "167",
        "col4": "\"Galadriel\""
    },
    {
        "col0": "True Love",
        "col1": "V. Gill",
        "col2": "Vince Gill",
        "col3": "241",
        "col4": "\"Livin' the Way I Do\""
    },
    {
        "col0": "True Love",
        "col1": "R. Palmer",
        "col2": "Robert Palmer",
        "col3": "232",
        "col4": "\"Big Shot\""
    },
    {
        "col0": "True Love",
        "col1": "Pink",
        "col2": "Pink",
        "col3": "230",
        "col4": "\"Slut Like You\""
    },
    {
        "col0": "True Love",
        "col1": "C. Porter",
        "col2": "George Harrison",
        "col3": "137",
        "col4": "\"I Will Love You\""
    },
    {
        "col0": "True Heart",
        "col1": "D. Schlitz",
        "col2": "The Oak Ridge Boys",
        "col3": "236",
        "col4": "\"Love Without Mercy\""
    },
    {
        "col0": "True Grit",
        "col1": "D. Black",
        "col2": "Glen Campbell",
        "col3": "152",
        "col4": "\"Hava Nagila\""
    },
    {
        "col0": "True Faith",
        "col1": "B. Sumner",
        "col2": "New Order",
        "col3": "240",
        "col4": "\"1963\""
    },
    {
        "col0": "True Colors",
        "col1": "B. Steinberg",
        "col2": "Phil Collins",
        "col3": "226",
        "col4": "\"Heading for the Moon\""
    },
    {
        "col0": "True Blue",
        "col1": "L. Sea",
        "col2": "Luna Sea",
        "col3": "603",
        "col4": "\"Fallout\""
    },
    {
        "col0": "True Believer",
        "col1": "J. Hiatt",
        "col2": "Ronnie Milsap",
        "col3": "292",
        "col4": "\"These Foolish Things (Remind Me of You)\""
    },
    {
        "col0": "True",
        "col1": "G. Kemp",
        "col2": "Spandau Ballet",
        "col3": "298",
        "col4": "\"Gently\""
    },
    {
        "col0": "True",
        "col1": "M. Green",
        "col2": "George Strait",
        "col3": "216",
        "col4": "\"Remember the Alamo\""
    },
    {
        "col0": "Truckin'",
        "col1": "J. Garcia",
        "col2": "Grateful Dead",
        "col3": "193",
        "col4": "Ripple"
    },
    {
        "col0": "Truck On",
        "col1": "M. Bolan",
        "col2": "T. Rex",
        "col3": "189",
        "col4": "\"Sitting Here\""
    },
    {
        "col0": "Troy",
        "col1": "S. O'Connor",
        "col2": "Sinead O'Connor",
        "col3": "394",
        "col4": "\"Still Listening\""
    },
    {
        "col0": "Trouble in Mind",
        "col1": "R. M. Jones",
        "col2": "Richard M. Jones",
        "col3": "176",
        "col4": "\"Fire in the Mountain\""
    },
    {
        "col0": "Trouble Man",
        "col1": "M. Gaye",
        "col2": "Marvin Gaye",
        "col3": "229",
        "col4": "Don't Mess With Mister \"T\""
    },
    {
        "col0": "Trouble Blues",
        "col1": "C. Brown",
        "col2": "Charles Brown",
        "col3": "141",
        "col4": "\"Honey Keep Your Mind on Me\""
    },
    {
        "col0": "Trouble",
        "col1": "Pink",
        "col2": "Pink",
        "col3": "192",
        "col4": "\"Delirium\", \"Free\""
    },
    {
        "col0": "Trouble",
        "col1": "T. Snider",
        "col2": "Mark Chesnutt",
        "col3": "214",
        "col4": "\"Strangers\""
    },
    {
        "col0": "Trouble",
        "col1": "L. Buckingham",
        "col2": "Lindsey Buckingham",
        "col3": "236",
        "col4": "\"That's How We Do It in L.A.\""
    },
    {
        "col0": "Trouble",
        "col1": "G. Gregory",
        "col2": "Heaven 17",
        "col3": "240",
        "col4": "Move Out"
    },
    {
        "col0": "Trouble",
        "col1": "C. O. Wolbers",
        "col2": "Cypress Hill",
        "col3": "264",
        "col4": "Lowrider"
    },
    {
        "col0": "Trouble",
        "col1": "J. Buckland",
        "col2": "Coldplay",
        "col3": "273",
        "col4": "\"Brothers and Sisters\""
    },
    {
        "col0": "Trouble-Maker",
        "col1": "G. Moroder",
        "col2": "Roberta Kelly",
        "col3": "239",
        "col4": "\"The Family\""
    },
    {
        "col0": "Trojan Horse",
        "col1": "H. v. Hemert",
        "col2": "Luv'",
        "col3": "204",
        "col4": "Life Is On My Side"
    },
    {
        "col0": "Triumph of a Heart",
        "col1": "Bjork",
        "col2": "Bjork",
        "col3": "244",
        "col4": "* \"Desired Constellation\""
    },
    {
        "col0": "Trippin' on a Hole in a Paper Heart",
        "col1": "S. Weiland",
        "col2": "Stone Temple Pilots",
        "col3": "176",
        "col4": "\"Pop's Love Suicide\""
    },
    {
        "col0": "Trippin'",
        "col1": "T. Braxton",
        "col2": "Toni Braxton",
        "col3": "245",
        "col4": "\"I Hate You\", \"Places\""
    },
    {
        "col0": "Trip at the Brain",
        "col1": "M. Clark",
        "col2": "Suicidal Tendencies",
        "col3": "272",
        "col4": "\"Suicyco Mania\" (Instrumental Version)"
    },
    {
        "col0": "Tricks of the Light",
        "col1": "M. Oldfield",
        "col2": "Mike Oldfield",
        "col3": "232",
        "col4": "\"Afghan\""
    },
    {
        "col0": "Trick of the Light",
        "col1": "J. Entwistle",
        "col2": "The Who",
        "col3": "217",
        "col4": "\"905\""
    },
    {
        "col0": "Trick of the Light",
        "col1": "D. McComb",
        "col2": "The Triffids",
        "col3": "511",
        "col4": "\"Love the Fever\""
    },
    {
        "col0": "Tribus",
        "col1": "A. Kisser",
        "col2": "Sepultura",
        "col3": "105",
        "col4": "\"The Waste\", \"Common Bonds (Alternate Mix)\""
    },
    {
        "col0": "Triangler",
        "col1": "M. Sakamoto",
        "col2": "Maaya Sakamoto",
        "col3": "1132",
        "col4": "Kotomichi"
    },
    {
        "col0": "Tren de Amor",
        "col1": "J. Stewart",
        "col2": "Jermaine Stewart",
        "col3": "231",
        "col4": "When Sex Becomes a Religion"
    },
    {
        "col0": "Treaty",
        "col1": "P. Garrett",
        "col2": "Yothu Yindi",
        "col3": "215",
        "col4": "\"Yolngu Boy\""
    },
    {
        "col0": "Treat Me Right",
        "col1": "P. Benatar",
        "col2": "Pat Benatar",
        "col3": "204",
        "col4": "\"Never Wanna Leave You\""
    },
    {
        "col0": "Treat Me Like a Stranger",
        "col1": "P. McCann",
        "col2": "Baillie & the Boys",
        "col3": "209",
        "col4": "\"I'd Love To\""
    },
    {
        "col0": "Treat Me Like a Lady",
        "col1": "D. Pearson",
        "col2": "Five Star",
        "col3": "250",
        "col4": "\"Don't Stop\""
    },
    {
        "col0": "Treat Me Like Your Mother",
        "col1": "D. Fertita",
        "col2": "The Dead Weather",
        "col3": "250",
        "col4": "You Just Can't Win(vinyl only)"
    },
    {
        "col0": "Treat Her Right",
        "col1": "L. LeBlanc",
        "col2": "Sawyer Brown",
        "col3": "219",
        "col4": "\"She's Gettin' There\""
    },
    {
        "col0": "Treasure of Love",
        "col1": "G. Jones",
        "col2": "George Jones",
        "col3": "138",
        "col4": "\"If I Don't Love You (Grits Ain't Groceries)\""
    },
    {
        "col0": "Treacle Brown",
        "col1": "B. Gees",
        "col2": "Lori Balmer",
        "col3": "172",
        "col4": "\"Four Faces West\""
    },
    {
        "col0": "Travellin' Light",
        "col1": "R. C. Bennett",
        "col2": "Cliff Richard",
        "col3": "120",
        "col4": "\"Dynamite\" (Ian Samwell)"
    },
    {
        "col0": "Travellers Tune",
        "col1": "O. C. Scene",
        "col2": "Ocean Colour Scene",
        "col3": "221",
        "col4": "Song For The Front Row, On The Way Home, All God's Children Need Travelling Shoes"
    },
    {
        "col0": "Travelin' Prayer",
        "col1": "B. Joel",
        "col2": "Billy Joel",
        "col3": "183",
        "col4": "\"Ain't No Crime\""
    },
    {
        "col0": "Travelin' Man",
        "col1": "J. Fuller",
        "col2": "Ricky Nelson",
        "col3": "144",
        "col4": "\"Hello Mary Lou\""
    },
    {
        "col0": "Travelin' Light",
        "col1": "J. Cale",
        "col2": "JJ Cale",
        "col3": "170",
        "col4": "\"Hey Baby\""
    },
    {
        "col0": "Travelin' Band",
        "col1": "J. Fogerty",
        "col2": "Creedence Clearwater Revival",
        "col3": "128",
        "col4": "\"Who'll Stop the Rain\""
    },
    {
        "col0": "Trashed",
        "col1": "B. Ward",
        "col2": "Black Sabbath",
        "col3": "256",
        "col4": "Zero The Hero"
    },
    {
        "col0": "Trash",
        "col1": "B. Anderson",
        "col2": "Suede",
        "col3": "246",
        "col4": "Europe Is Our Playground"
    },
    {
        "col0": "Trash",
        "col1": "B. Ferry",
        "col2": "Roxy Music",
        "col3": "133",
        "col4": "\"Trash 2\""
    },
    {
        "col0": "Trampolene",
        "col1": "J. Cope",
        "col2": "Julian Cope",
        "col3": "218",
        "col4": "\"Disaster\""
    },
    {
        "col0": "Trampled Under Foot",
        "col1": "J. Page",
        "col2": "Led Zeppelin",
        "col3": "338",
        "col4": "\"Black Country Woman\""
    },
    {
        "col0": "Train of Thought",
        "col1": "A. O'Day",
        "col2": "Cher",
        "col3": "153",
        "col4": "\"Dixie Girl\""
    },
    {
        "col0": "Train of Thought",
        "col1": "P. Waaktaar-Savoy",
        "col2": "A-ha",
        "col3": "254",
        "col4": "\"And You Tell Me\" (Demo Version)"
    },
    {
        "col0": "Train of Memories",
        "col1": "J. Hinson",
        "col2": "Kathy Mattea",
        "col3": "170",
        "col4": "\"Evenin'\""
    },
    {
        "col0": "Train in Vain",
        "col1": "M. Jones",
        "col2": "The Clash",
        "col3": "189",
        "col4": "\"London Calling\""
    },
    {
        "col0": "Train Kept A-Rollin'",
        "col1": "T. Bradshaw",
        "col2": "The Rock and Roll Trio",
        "col3": "137",
        "col4": "\"Honey Hush\""
    },
    {
        "col0": "Train",
        "col1": "A. Goldfrapp",
        "col2": "Goldfrapp",
        "col3": "248",
        "col4": "\"Big Black Cloud, Little White Lie\""
    },
    {
        "col0": "Train-Train",
        "col1": "H. Komoto",
        "col2": "The Blue Hearts",
        "col3": "51",
        "col4": "Mugon Denwa no Blues"
    },
    {
        "col0": "Tragedy",
        "col1": "A. McCoy",
        "col2": "Hanoi Rocks",
        "col3": "245",
        "col4": "\"Cafe Avenue\", \"Don't Never Leave Me\""
    },
    {
        "col0": "Tragedy",
        "col1": "Barry, Robin & Maurice Gibb",
        "col2": "Bee Gees",
        "col3": "303",
        "col4": "\"Until\""
    },
    {
        "col0": "Traffic",
        "col1": "K. Jones",
        "col2": "Stereophonics",
        "col3": "265",
        "col4": "\"Tie Me Up Tie Me Down\""
    },
    {
        "col0": "Tracy",
        "col1": "L. Pockriss",
        "col2": "The Cuff Links",
        "col3": "125",
        "col4": "\"Where Do You Go?\""
    },
    {
        "col0": "Track Three",
        "col1": "S. Walker",
        "col2": "Scott Walker",
        "col3": "230",
        "col4": "\"Blanket Roll Blues\""
    },
    {
        "col0": "Traces",
        "col1": "B. Buie",
        "col2": "Classics IV",
        "col3": "165",
        "col4": "\"Mary, Mary Row Your Boat\""
    },
    {
        "col0": "Tra te e il mare",
        "col1": "B. Antonacci",
        "col2": "Laura Pausini",
        "col3": "229",
        "col4": "Looking For An Angel"
    }
]