[
    {
        "col0": "2014 Challenger Ciudad de Guayaquil",
        "col1": "G. Pella",
        "col2": "P. Cuevas",
        "col3": "P. Cuevas"
    },
    {
        "col0": "2014 Challenger Banque Nationale de Saguenay",
        "col1": "N. Slater",
        "col2": "N. Slater",
        "col3": "J. Coin"
    },
    {
        "col0": "2014 Challenger Banque Nationale de Rimouski",
        "col1": "D. Smethurst",
        "col2": "S. Groth",
        "col3": "S. Groth"
    },
    {
        "col0": "2014 Challenger Banque Nationale de Granby",
        "col1": "M. Daniell",
        "col2": "M. Daniell",
        "col3": "H. Moriya"
    },
    {
        "col0": "2014 Campeonato Internacional de Tenis de Campinas",
        "col1": "F. Bagnis",
        "col2": "F. Bagnis",
        "col3": "D. S. Schwartzman"
    },
    {
        "col0": "2014 Campeonato Internacional de Tenis de Santos",
        "col1": "M. Gonzalez",
        "col2": "M. Gonzalez",
        "col3": "M. Gonzalez"
    },
    {
        "col0": "2014 Campeonato Internacional de Tenis de Campinas",
        "col1": "F. Bagnis",
        "col2": "F. Bagnis",
        "col3": "D. S. Schwartzman"
    },
    {
        "col0": "2014 CIT Paraguay Open",
        "col1": "S. Luini",
        "col2": "G. P. Rojas",
        "col3": "B. Botto"
    },
    {
        "col0": "2014 Boyd Tinsley Women's Clay Court Classic",
        "col1": "T. Townsend",
        "col2": "T. Townsend",
        "col3": "T. Townsend"
    },
    {
        "col0": "2014 Blossom Cup",
        "col1": "X. Yifan",
        "col2": "Z. Diyas",
        "col3": "Z. Diyas"
    },
    {
        "col0": "2014 Bet-at-home Cup Kitzbuhel",
        "col1": "J. Nieminen",
        "col2": "J. Nieminen",
        "col3": "D. Goffin"
    },
    {
        "col0": "2014 Bendigo Women's International",
        "col1": "J. Moore",
        "col2": "J. Moore",
        "col3": "L. Fangzhou"
    },
    {
        "col0": "2014 Bendigo Women's International",
        "col1": "J. Moore",
        "col2": "J. Moore",
        "col3": "E. Hozumi"
    },
    {
        "col0": "2014 Bauer Watertechnology Cup",
        "col1": "R. Bemelmans",
        "col2": "R. Bemelmans",
        "col3": "R. Bemelmans"
    },
    {
        "col0": "2014 Banja Luka Challenger",
        "col1": "A. Sancic",
        "col2": "V. Troicki",
        "col3": "V. Troicki"
    },
    {
        "col0": "2014 BNP Paribas de Nouvelle-Caledonie",
        "col1": "A. Krajicek",
        "col2": "A. Falla",
        "col3": "A. Falla"
    },
    {
        "col0": "2014 BNP Paribas Open",
        "col1": "B. Bryan",
        "col2": "M. Bryan",
        "col3": "N. Djokovic"
    },
    {
        "col0": "2014 BGL Luxembourg Open",
        "col1": "T. Bacsinszky",
        "col2": "A. Beck",
        "col3": "A. Beck"
    },
    {
        "col0": "2014 Australian Open",
        "col1": "L. Kubot",
        "col2": "K. Mladenovic",
        "col3": "S. Wawrinka"
    },
    {
        "col0": "2014 Audi Melbourne Pro Tennis Classic",
        "col1": "T. Townsend",
        "col2": "T. Townsend",
        "col3": "T. Townsend"
    },
    {
        "col0": "2014 Astana Challenger",
        "col1": "A. Bury",
        "col2": "A. Golubev",
        "col3": "A. Golubev"
    },
    {
        "col0": "2014 Arimex Challenger Trophy",
        "col1": "R. Jebavy",
        "col2": "R. Jebavy",
        "col3": "A. Haider-Maurer"
    },
    {
        "col0": "2014 Apia International Sydney",
        "col1": "T. Babos",
        "col2": "N. Zimonjic",
        "col3": "T. Pironkova"
    },
    {
        "col0": "2014 Ankara Cup",
        "col1": "E. Gorgodze",
        "col2": "A. Krunic",
        "col3": "A. Krunic"
    },
    {
        "col0": "2014 Amex-Istanbul Challenger",
        "col1": "C. Fleming",
        "col2": "A. Mannarino",
        "col3": "A. Mannarino"
    },
    {
        "col0": "2014 Al Habtoor Tennis Challenge",
        "col1": "A. Panova",
        "col2": "A. Dulgheru",
        "col3": "A. Dulgheru"
    },
    {
        "col0": "2014 Aircel Chennai Open",
        "col1": "F. Nielsen",
        "col2": "S. Wawrinka",
        "col3": "S. Wawrinka"
    },
    {
        "col0": "2014 Aegon Trophy",
        "col1": "C. Guccione",
        "col2": "M. Baghdatis",
        "col3": "M. Baghdatis"
    },
    {
        "col0": "2014 Aegon Nottingham Challenge",
        "col1": "M. Venus",
        "col2": "A. Rodionova",
        "col3": "N. Kyrgios"
    },
    {
        "col0": "2014 Aegon Classic",
        "col1": "A. Spears",
        "col2": "A. Spears",
        "col3": "A. Ivanovic"
    },
    {
        "col0": "2014 Aegon Championships",
        "col1": "B. Soares",
        "col2": "B. Soares",
        "col3": "G. Dimitrov"
    },
    {
        "col0": "2014 Adidas International Gimcheon",
        "col1": "S. Groth",
        "col2": "S. Groth",
        "col3": "G. Muller"
    },
    {
        "col0": "2014 Abierto Tampico",
        "col1": "P. Martic",
        "col2": "P. Martic",
        "col3": "M. Duque"
    },
    {
        "col0": "2014 Aberto de Sao Paulo",
        "col1": "G. Kretschmer",
        "col2": "J. Souza",
        "col3": "J. Souza"
    },
    {
        "col0": "2014 ASB Classic",
        "col1": "S. Fichman",
        "col2": "S. Fichman",
        "col3": "A. Ivanovic"
    },
    {
        "col0": "2014 ABN AMRO World Tennis Tournament",
        "col1": "N. Mahut",
        "col2": "T. Berdych",
        "col3": "T. Berdych"
    },
    {
        "col0": "2013 Yeongwol Challenger Tennis",
        "col1": "M. Draganja",
        "col2": "B. Klahn",
        "col3": "B. Klahn"
    },
    {
        "col0": "2013 Yakima Regional Hospital Challenger",
        "col1": "A. Will",
        "col2": "N. Gibbs",
        "col3": "N. Gibbs"
    },
    {
        "col0": "2013 Wimbledon Championships",
        "col1": "D. Nestor",
        "col2": "K. Mladenovic",
        "col3": "M. Bartoli"
    },
    {
        "col0": "2013 Western & Southern Open",
        "col1": "M. Bryan",
        "col2": "V. Azarenka",
        "col3": "R. Nadal"
    },
    {
        "col0": "2013 Visit Panama Cup",
        "col1": "J. Aguilar",
        "col2": "R. R. Hidalgo",
        "col3": "R. R. Hidalgo"
    },
    {
        "col0": "2013 Viccourt Cup",
        "col1": "R. Voracova",
        "col2": "R. Voracova",
        "col3": "E. Svitolina"
    },
    {
        "col0": "2013 Vanessa Phillips Women's Tournament",
        "col1": "A. Kudryavtseva",
        "col2": "A. Kudryavtseva",
        "col3": "E. Svitolina"
    },
    {
        "col0": "2013 Uruguay Open",
        "col1": "M. Cuevas",
        "col2": "P. Cuevas",
        "col3": "T. Bellucci"
    },
    {
        "col0": "2013 US Open",
        "col1": "A. Hlavackova",
        "col2": "S. Williams",
        "col3": "R. Nadal"
    },
    {
        "col0": "2013 U.S. National Indoor Tennis Championships",
        "col1": "B. Bryan",
        "col2": "B. Bryan",
        "col3": "K. Nishikori"
    },
    {
        "col0": "2013 Turk Telecom Izmir Cup",
        "col1": "A. Krajicek",
        "col2": "A. Krajicek",
        "col3": "M. Kukushkin"
    },
    {
        "col0": "2013 Tunis Open",
        "col1": "D. Meffert",
        "col2": "A. Ungur",
        "col3": "A. Ungur"
    },
    {
        "col0": "2013 Trofeul Popeci",
        "col1": "A. Balducci",
        "col2": "K. Kucova",
        "col3": "K. Kucova"
    },
    {
        "col0": "2013 Trabzon Cup",
        "col1": "A. Krunic",
        "col2": "Serbia",
        "col3": "A. Friedsam"
    },
    {
        "col0": "2013 Trabzon Cup",
        "col1": "M. Zanevska",
        "col2": "A. Krunic",
        "col3": "A. Krunic"
    },
    {
        "col0": "2013 Torneo Internacional AGT",
        "col1": "C. Guccione",
        "col2": "C. Guccione",
        "col3": "D. Young"
    },
    {
        "col0": "2013 The Oaks Club Challenger",
        "col1": "A. Spears",
        "col2": "A. Spears",
        "col3": "M. Duque"
    },
    {
        "col0": "2013 Tevlin Women's Challenger",
        "col1": "V. Duval",
        "col2": "V. Duval",
        "col3": "V. Duval"
    },
    {
        "col0": "2013 Tetra Pak Tennis Cup",
        "col1": "M. Gonzalez",
        "col2": "M. Gonzalez",
        "col3": "G. Clezar"
    },
    {
        "col0": "2013 Tennis Napoli Cup",
        "col1": "P. Starace",
        "col2": "P. Starace",
        "col3": "P. Starace"
    },
    {
        "col0": "2013 Telavi Open",
        "col1": "M. E. Camerin",
        "col2": "M. E. Camerin",
        "col3": "A. Panova"
    },
    {
        "col0": "2013 Tatarstan Open",
        "col1": "K. Kozlova",
        "col2": "A. Friedsam",
        "col3": "A. Friedsam"
    },
    {
        "col0": "2013 Tashkent Challenger",
        "col1": "T. Gabashvili",
        "col2": "D. Sela",
        "col3": "D. Sela"
    },
    {
        "col0": "2013 Taroii Open de Tenis",
        "col1": "J. Duckworth",
        "col2": "J. Duckworth",
        "col3": "Rogerio Dutra da Silva"
    },
    {
        "col0": "2013 Tampere Open",
        "col1": "H. Kontinen",
        "col2": "H. Kontinen",
        "col3": "J. H. Galung"
    },
    {
        "col0": "2013 Tallahassee Tennis Challenger",
        "col1": "A. Krajicek",
        "col2": "D. Kudla",
        "col3": "D. Kudla"
    },
    {
        "col0": "2013 TEAN International",
        "col1": "Antal van der Duim",
        "col2": "D. Seguel",
        "col3": "D. Gimeno-Traver"
    },
    {
        "col0": "2013 Turk Telecom Izmir Cup",
        "col1": "A. Krajicek",
        "col2": "A. Krajicek",
        "col3": "M. Kukushkin"
    },
    {
        "col0": "2013 Sao Paulo Challenger de Tenis",
        "col1": "L. Pigossi",
        "col2": "L. Pigossi",
        "col3": "B. Botto"
    },
    {
        "col0": "2013 Swedish Open",
        "col1": "A. M. Garrigues",
        "col2": "S. Williams",
        "col3": "S. Williams"
    },
    {
        "col0": "2013 Suzhou Ladies Open",
        "col1": "M. Krajicek",
        "col2": "M. Krajicek",
        "col3": "S. Pe'er"
    },
    {
        "col0": "2013 Sparta Prague Open",
        "col1": "B. Zahlavova-Strycova",
        "col2": "R. Voracova",
        "col3": "L. Safarova"
    },
    {
        "col0": "2013 Sparkasse ATP Challenger",
        "col1": "C. Kas",
        "col2": "T. Puetz",
        "col3": "A. Seppi"
    },
    {
        "col0": "2013 Soweto Open",
        "col1": "C. Simmonds",
        "col2": "C. Simmonds",
        "col3": "V. Pospisil"
    },
    {
        "col0": "2013 South Seas Island Resort Women's Pro Classic",
        "col1": "G. Dabrowski",
        "col2": "M. Minella",
        "col3": "M. Minella"
    },
    {
        "col0": "2013 Soho Square Ladies Tournament",
        "col1": "T. Bacsinszky",
        "col2": "T. Bacsinszky",
        "col3": "V. Kan"
    },
    {
        "col0": "2013 Slovak Open",
        "col1": "H. Kontinen",
        "col2": "H. Kontinen",
        "col3": "L. Lacko"
    },
    {
        "col0": "2013 Seguros Bolivar Open Medellin",
        "col1": "E. Gomez",
        "col2": "A. Gonzalez",
        "col3": "A. Gonzalez"
    },
    {
        "col0": "2013 Seguros Bolivar Open Cali",
        "col1": "E. Schwank",
        "col2": "E. Schwank",
        "col3": "F. Bagnis"
    },
    {
        "col0": "2013 Seguros Bolivar Open Barranquilla",
        "col1": "F. Delbonis",
        "col2": "F. Delbonis",
        "col3": "F. Delbonis"
    },
    {
        "col0": "2013 Seguros Bolivar Open Medellin",
        "col1": "E. Gomez",
        "col2": "A. Gonzalez",
        "col3": "A. Gonzalez"
    },
    {
        "col0": "2013 Seguros Bolivar Open Cali",
        "col1": "E. Schwank",
        "col2": "E. Schwank",
        "col3": "F. Bagnis"
    },
    {
        "col0": "2013 Seguros Bolivar Open Barranquilla",
        "col1": "F. Delbonis",
        "col2": "F. Delbonis",
        "col3": "F. Delbonis"
    },
    {
        "col0": "2013 Save Cup",
        "col1": "S. Vogt",
        "col2": "S. Vogt",
        "col3": "C. Feuerstein"
    },
    {
        "col0": "2013 Samsung Securities Cup",
        "col1": "M. Draganja",
        "col2": "M. Draganja",
        "col3": "D. Lajovic"
    },
    {
        "col0": "2013 Samarkand Challenger",
        "col1": "F. Dustov",
        "col2": "F. Dustov",
        "col3": "T. Gabashvili"
    },
    {
        "col0": "2013 Sacramento Challenger",
        "col1": "M. Reid",
        "col2": "D. Young",
        "col3": "D. Young"
    },
    {
        "col0": "2013 Sao Paulo Challenger de Tenis",
        "col1": "L. Pigossi",
        "col2": "L. Pigossi",
        "col3": "B. Botto"
    },
    {
        "col0": "2013 Rogers Cup",
        "col1": "J. Jankovic",
        "col2": "S. Williams",
        "col3": "R. Nadal"
    },
    {
        "col0": "2013 Reinert Open",
        "col1": "A. Tatishvili",
        "col2": "D. Pfizenmaier",
        "col3": "D. Pfizenmaier"
    },
    {
        "col0": "2013 Rai Open",
        "col1": "A. Beck",
        "col2": "M. Fischer",
        "col3": "J. Reister"
    },
    {
        "col0": "2013 Qatar Open",
        "col1": "P. Kohlschreiber",
        "col2": "P. Kohlschreiber",
        "col3": "R. Gasquet"
    },
    {
        "col0": "2013 Proton Malaysian Open",
        "col1": "R. Klaasen",
        "col2": "E. Butorac",
        "col3": "J. Sousa"
    },
    {
        "col0": "2013 Prosperita Open",
        "col1": "O. Rochus",
        "col2": "O. Rochus",
        "col3": "J. Vesely"
    },
    {
        "col0": "2013 President's Cup",
        "col1": "L. Kichenok",
        "col2": "D. Sela",
        "col3": "D. Sela"
    },
    {
        "col0": "2013 Poznan Open",
        "col1": "Germany",
        "col2": "Germany",
        "col3": "A. Haider-Maurer"
    },
    {
        "col0": "2013 Peugeot Tennis Cup",
        "col1": "T. d. Bakker",
        "col2": "A. Velotti",
        "col3": "A. Velotti"
    },
    {
        "col0": "2013 Pekao Szczecin Open",
        "col1": "K. Skupski",
        "col2": "K. Skupski",
        "col3": "O. Nedovyesov"
    },
    {
        "col0": "2013 Party Rock Open",
        "col1": "T. Paszek",
        "col2": "T. Paszek",
        "col3": "M. Oudin"
    },
    {
        "col0": "2013 PTT Cup",
        "col1": "F. Martin",
        "col2": "B. Becker",
        "col3": "B. Becker"
    },
    {
        "col0": "2013 Oregon Challenger",
        "col1": "N. Melichar",
        "col2": "N. Melichar",
        "col3": "K. Nara"
    },
    {
        "col0": "2013 Open de Rennes",
        "col1": "F. Mergea",
        "col2": "N. Mahut",
        "col3": "N. Mahut"
    },
    {
        "col0": "2013 Open d'Orleans",
        "col1": "S. Stakhovsky",
        "col2": "R. Stepanek",
        "col3": "R. Stepanek"
    },
    {
        "col0": "2013 Open Saint-Gaudens Midi-Pyrenees",
        "col1": "J. Glushko",
        "col2": "J. Glushko",
        "col3": "P. Ormaechea"
    },
    {
        "col0": "2013 Open Harmonie mutuelle",
        "col1": "A. Siljestrom",
        "col2": "T. Bednarek",
        "col3": "J. H. Galung"
    },
    {
        "col0": "2013 Open GDF Suez de Touraine",
        "col1": "J. Coin",
        "col2": "M. Lucic-Baroni",
        "col3": "M. Lucic-Baroni"
    },
    {
        "col0": "2013 Open GDF Suez de Cagnes-sur-Mer Alpes-Maritimes",
        "col1": "A. Rus",
        "col2": "A. Rus",
        "col3": "C. Garcia"
    },
    {
        "col0": "2013 Open GDF Suez de Biarritz",
        "col1": "O. Savchuk",
        "col2": "S. Vogt",
        "col3": "S. Vogt"
    },
    {
        "col0": "2013 Open GDF Suez Seine-et-Marne",
        "col1": "A. Friedsam",
        "col2": "A. Friedsam",
        "col3": "A. Keothavong"
    },
    {
        "col0": "2013 Open GDF Suez Region Limousin",
        "col1": "V. Golubic",
        "col2": "V. Golubic",
        "col3": "K. Pliskova"
    },
    {
        "col0": "2013 Open GDF Suez Nantes Atlantique",
        "col1": "M. Krajicek",
        "col2": "M. Krajicek",
        "col3": "A. Sasnovich"
    },
    {
        "col0": "2013 Open Feminin de Marseille",
        "col1": "S. Klemenschits",
        "col2": "A. Petkovic",
        "col3": "A. Petkovic"
    },
    {
        "col0": "2013 Open BNP Paribas Banque de Bretagne",
        "col1": "J. Brunstrom",
        "col2": "M. Copil",
        "col3": "M. Copil"
    },
    {
        "col0": "2013 Open 88 Contrexeville",
        "col1": "A. Hesse",
        "col2": "A. Hesse",
        "col3": "T. Bacsinszky"
    },
    {
        "col0": "2013 Odlum Brown Vancouver Open",
        "col1": "S. Fichman",
        "col2": "S. Fichman",
        "col3": "V. Pospisil"
    },
    {
        "col0": "2013 OEC Taipei WTA Ladies Open",
        "col1": "C. Garcia",
        "col2": "A. V. Uytvanck",
        "col3": "A. V. Uytvanck"
    },
    {
        "col0": "2013 Nurnberger Versicherungscup",
        "col1": "V. Solovyeva",
        "col2": "S. Halep",
        "col3": "S. Halep"
    },
    {
        "col0": "2013 Ningbo International Women's Tennis Open",
        "col1": "C. Yung-jan",
        "col2": "B. Jovanovski",
        "col3": "B. Jovanovski"
    }
]