[
    {
        "col0": "V. Ulyanich",
        "col1": "Moscow",
        "col2": "Soviet Union",
        "col3": "1949-02-26"
    },
    {
        "col0": "S. Stepashkin",
        "col1": "Moscow",
        "col2": "Moscow",
        "col3": "1940-09-01"
    },
    {
        "col0": "R. Romanchuk",
        "col1": "Odessa",
        "col2": "Lviv Oblast",
        "col3": "1979-06-03"
    },
    {
        "col0": "R. Balado",
        "col1": "Havana",
        "col2": "Matanzas Province",
        "col3": "1969-02-15"
    },
    {
        "col0": "R. Carmody",
        "col1": "Saigon",
        "col2": "Brooklyn",
        "col3": "1938-09-04"
    },
    {
        "col0": "P. Nolasco",
        "col1": "La Romana, Dominican Republic",
        "col2": "La Romana, Dominican Republic",
        "col3": "1962-02-20"
    },
    {
        "col0": "O. Andren",
        "col1": "Stockholm",
        "col2": "Stockholm",
        "col3": "1899-11-07"
    },
    {
        "col0": "O. Tandberg",
        "col1": "Nacka Municipality",
        "col2": "Stockholm",
        "col3": "1918-10-10"
    },
    {
        "col0": "N. Ramm",
        "col1": "Linkoping",
        "col2": "Stockholm",
        "col3": "1903-01-01"
    },
    {
        "col0": "L. Blazynski",
        "col1": "Slaskie",
        "col2": "Elk",
        "col3": "1949-03-05"
    },
    {
        "col0": "J. Kajdi",
        "col1": "Budapest",
        "col2": "Hungary",
        "col3": "1939-12-30"
    },
    {
        "col0": "J. Aguilar",
        "col1": "Guantanamo",
        "col2": "Guantanamo",
        "col3": "1958-11-24"
    },
    {
        "col0": "J. Kulej",
        "col1": "Poland",
        "col2": "Poland",
        "col3": "1940-10-19"
    },
    {
        "col0": "J. Wallington",
        "col1": "Indiana",
        "col2": "Pennsylvania",
        "col3": "1944-07-28"
    },
    {
        "col0": "J. Kajdi",
        "col1": "Budapest",
        "col2": "Hungary",
        "col3": "1939-12-30"
    },
    {
        "col0": "H. D. Jr.",
        "col1": "Plantation, Florida",
        "col2": "Glen Cove, New York",
        "col3": "1956-02-14"
    },
    {
        "col0": "H. Soltani",
        "col1": "France",
        "col2": "Boumerdes",
        "col3": "1972-12-27"
    },
    {
        "col0": "H. Srednicki",
        "col1": "Piotrkow Trybunalski",
        "col2": "Siemianowice Slaskie",
        "col3": "1955-01-17"
    },
    {
        "col0": "H. Wolff",
        "col1": "Stockholm",
        "col2": "Nykoping",
        "col3": "1905-07-02"
    },
    {
        "col0": "H. Siljander",
        "col1": "Espoo",
        "col2": "Helsinki",
        "col3": "1922-12-10"
    },
    {
        "col0": "H. Mallin",
        "col1": "Lewisham",
        "col2": "London",
        "col3": "1892-06-01"
    },
    {
        "col0": "G. Bergman",
        "col1": "Stockholm",
        "col2": "Stockholm",
        "col3": "1898-02-08"
    },
    {
        "col0": "G. Carrillo",
        "col1": "Cuba",
        "col2": "Cuba",
        "col3": "1951-08-16"
    },
    {
        "col0": "G. Hernandez",
        "col1": "Yonkers, New York",
        "col2": "La Romana, La Romana",
        "col3": "1973-07-13"
    },
    {
        "col0": "F. Nagy",
        "col1": "Budapest",
        "col2": "Cegled",
        "col3": "1916-10-27"
    },
    {
        "col0": "D. Rodriguez",
        "col1": "Havana",
        "col2": "Havana",
        "col3": "1950-06-03"
    },
    {
        "col0": "B. Kuznetsov",
        "col1": "Astrakhan",
        "col2": "Soviet Union",
        "col3": "1947-02-23"
    },
    {
        "col0": "B. Ward",
        "col1": "Gladstone, Queensland",
        "col2": "Bundaberg",
        "col3": "1993-07-16"
    },
    {
        "col0": "B. v. Klaveren",
        "col1": "Rotterdam",
        "col2": "Rotterdam",
        "col3": "1907-09-26"
    },
    {
        "col0": "A. Oliver",
        "col1": "Indiana",
        "col2": "Mississippi",
        "col3": "1911-03-25"
    },
    {
        "col0": "A. Fedchuk",
        "col1": "Ivano-Frankivsk",
        "col2": "Ivano-Frankivsk",
        "col3": "1980-01-12"
    }
]