[
    {
        "col0": "G. Debreu",
        "col1": "France",
        "col2": "Calais",
        "col3": "Ecole Normale Superieure",
        "col4": "2004-12-31",
        "col5": "1921-07-04"
    },
    {
        "col0": "G. Orcutt",
        "col1": "United States",
        "col2": "Michigan",
        "col3": "University of Michigan",
        "col4": "2006-03-05",
        "col5": "1917-07-05"
    },
    {
        "col0": "G. Cassel",
        "col1": "Sweden",
        "col2": "Stockholm",
        "col3": "Uppsala University",
        "col4": "1945-01-14",
        "col5": "1866-10-20"
    },
    {
        "col0": "G. Feder",
        "col1": "Germans",
        "col2": "German Empire",
        "col3": "Humboldt University of Berlin",
        "col4": "1941-09-24",
        "col5": "1883-01-27"
    },
    {
        "col0": "G. Tullock",
        "col1": "United States",
        "col2": "Rockford, Illinois",
        "col3": "University of Chicago",
        "col4": "2014-11-03",
        "col5": "1922-02-13"
    },
    {
        "col0": "G. Tintner",
        "col1": "Austrian American",
        "col2": "Kingdom of Bavaria",
        "col3": "University of Vienna",
        "col4": "1983-11-13",
        "col5": "1907-09-29"
    },
    {
        "col0": "G. Stigler",
        "col1": "United States",
        "col2": "Seattle",
        "col3": "University of Chicago",
        "col4": "1991-12-01",
        "col5": "1911-01-17"
    },
    {
        "col0": "G. Hilton",
        "col1": "United States",
        "col2": "Chicago",
        "col3": "University of Chicago",
        "col4": "2014-08-04",
        "col5": "1925-01-18"
    },
    {
        "col0": "G. Lebedev",
        "col1": "Russians",
        "col2": "Soviet Union",
        "col3": "Moscow State University",
        "col4": "2004-05-12",
        "col5": "1957-1-1"
    },
    {
        "col0": "G. Debreu",
        "col1": "France",
        "col2": "Calais",
        "col3": "Ecole Normale Superieure",
        "col4": "2004-12-31",
        "col5": "1921-07-04"
    },
    {
        "col0": "F. Machlup",
        "col1": "Austria-Hungary",
        "col2": "Austria-Hungary",
        "col3": "University of Vienna",
        "col4": "1983-01-30",
        "col5": "1902-12-15"
    },
    {
        "col0": "F. v. Wieser",
        "col1": "Austria",
        "col2": "Austrian Empire",
        "col3": "University of Vienna",
        "col4": "1926-07-22",
        "col5": "1851-07-10"
    },
    {
        "col0": "F. H. Harbison",
        "col1": "United States",
        "col2": "Sewickley, Pennsylvania",
        "col3": "Princeton University",
        "col4": "1976-0-0",
        "col5": "1912-12-18"
    },
    {
        "col0": "F. H. Schulze-Delitzsch",
        "col1": "German nationality law",
        "col2": "Delitzsch",
        "col3": "Heidelberg University",
        "col4": "1883-04-29",
        "col5": "1808-08-29"
    },
    {
        "col0": "F. W. Taussig",
        "col1": "United States",
        "col2": "St. Louis",
        "col3": "Harvard University",
        "col4": "1940-11-11",
        "col5": "1859-12-28"
    },
    {
        "col0": "F. Modigliani",
        "col1": "Italians",
        "col2": "Kingdom of Italy",
        "col3": "The New School",
        "col4": "2003-09-25",
        "col5": "1918-06-18"
    },
    {
        "col0": "E. Domar",
        "col1": "Russia",
        "col2": "Lodz",
        "col3": "Harvard University",
        "col4": "1997-04-01",
        "col5": "1914-04-16"
    },
    {
        "col0": "E. Lederer",
        "col1": "German Empire",
        "col2": "Kingdom of Bohemia",
        "col3": "University of Vienna",
        "col4": "1939-05-29",
        "col5": "1882-07-22"
    }
]