[
    {
        "col0": "2016 Jalisco Open",
        "col1": "G. Kretschmer",
        "col2": "M. Jaziri",
        "col3": "M. Jaziri"
    },
    {
        "col0": "2016 J&T Banka Prague Open",
        "col1": "A. Hlavackova",
        "col2": "A. Hlavackova",
        "col3": "L. Safarova"
    },
    {
        "col0": "2016 Internazionali di Tennis dell'Umbria",
        "col1": "M. Demoliner",
        "col2": "M. Zekic",
        "col3": "M. Zekic"
    },
    {
        "col0": "2016 Internazionali Femminili di Brescia",
        "col1": "D. Chiesa",
        "col2": "K. Knapp",
        "col3": "K. Knapp"
    },
    {
        "col0": "2016 Internationaux de Strasbourg",
        "col1": "A. P. Santonja",
        "col2": "A. P. Santonja",
        "col3": "C. Garcia"
    },
    {
        "col0": "2016 ITS Cup",
        "col1": "E. B. Bucko",
        "col2": "E. B. Bucko",
        "col3": "E. Kulichkova"
    },
    {
        "col0": "2016 ITF Women's Circuit - Wuhan",
        "col1": "M. Ninomiya",
        "col2": "W. Qiang",
        "col3": "W. Qiang"
    },
    {
        "col0": "2016 ITF Women's Circuit - Shenzhen",
        "col1": "M. Ninomiya",
        "col2": "W. Qiang",
        "col3": "W. Qiang"
    },
    {
        "col0": "2016 ITF Women's Circuit UBS Thurgau",
        "col1": "A. Lottner",
        "col2": "A. Lottner",
        "col3": "K. Pliskova"
    },
    {
        "col0": "2016 ITF Women's Circuit - Wuhan",
        "col1": "M. Ninomiya",
        "col2": "W. Qiang",
        "col3": "W. Qiang"
    },
    {
        "col0": "2016 ITF Women's Circuit - Shenzhen",
        "col1": "M. Ninomiya",
        "col2": "W. Qiang",
        "col3": "W. Qiang"
    },
    {
        "col0": "2016 Heilbronner Neckarcup",
        "col1": "T. Weissborn",
        "col2": "N. Basilashvili",
        "col3": "N. Basilashvili"
    },
    {
        "col0": "2016 Hardee's Pro Classic",
        "col1": "T. Townsend",
        "col2": "R. Peterson",
        "col3": "R. Peterson"
    },
    {
        "col0": "2016 Hall of Fame Tennis Championships",
        "col1": "C. Guccione",
        "col2": "I. Karlovic",
        "col3": "I. Karlovic"
    },
    {
        "col0": "2016 Grand Prix SAR La Princesse Lalla Meryem",
        "col1": "X. Knoll",
        "col2": "A. Krunic",
        "col3": "T. Bacsinszky"
    },
    {
        "col0": "2016 Gimcheon Open ATP Challenger",
        "col1": "H. Cheng-peng",
        "col2": "M. Purcell",
        "col3": "M. Purcell"
    },
    {
        "col0": "2016 Gerry Weber Open",
        "col1": "R. Ram",
        "col2": "R. Ram",
        "col3": "F. Mayer"
    },
    {
        "col0": "2016 German Open",
        "col1": "H. Kontinen",
        "col2": "M. Klizan",
        "col3": "M. Klizan"
    },
    {
        "col0": "2016 Generali Open Kitzbuhel",
        "col1": "M. Middelkoop",
        "col2": "P. Lorenzi",
        "col3": "P. Lorenzi"
    },
    {
        "col0": "2016 Generali Ladies Linz",
        "col1": "K. Bertens",
        "col2": "D. Cibulkova",
        "col3": "D. Cibulkova"
    },
    {
        "col0": "2016 Garden Open",
        "col1": "B. Yan",
        "col2": "K. Edmund",
        "col3": "K. Edmund"
    },
    {
        "col0": "2016 Garanti Koza Sofia Open",
        "col1": "M. Middelkoop",
        "col2": "R. B. Agut",
        "col3": "R. B. Agut"
    },
    {
        "col0": "2016 Fukuoka International Women's Cup",
        "col1": "I. d. Vroome",
        "col2": "K. Lykina",
        "col3": "K. Lykina"
    },
    {
        "col0": "2016 French Open",
        "col1": "M. Lopez",
        "col2": "N. Djokovic",
        "col3": "N. Djokovic"
    },
    {
        "col0": "2016 Fergana Challenger",
        "col1": "Y. Jankovits",
        "col2": "R. Albot",
        "col3": "R. Albot"
    },
    {
        "col0": "2016 FSP Gold River Women's Challenger",
        "col1": "C. Whoriskey",
        "col2": "C. Whoriskey",
        "col3": "S. Kenin"
    },
    {
        "col0": "2016 Europe Tennis Center Ladies Open",
        "col1": "E. B. Bucko",
        "col2": "E. B. Bucko",
        "col3": "E. Kostova"
    },
    {
        "col0": "2016 Engie Open de Seine-et-Marne",
        "col1": "J. Rae",
        "col2": "I. Jorovic",
        "col3": "I. Jorovic"
    },
    {
        "col0": "2016 Engie Open de Cagnes-sur-Mer Alpes-Maritimes",
        "col1": "A. Mitu",
        "col2": "M. Linette",
        "col3": "M. Linette"
    },
    {
        "col0": "2016 Engie Open de Biarritz",
        "col1": "I. Khromacheva",
        "col2": "I. Khromacheva",
        "col3": "R. Sramkova"
    },
    {
        "col0": "2016 Engie Open Metropole 42",
        "col1": "A. Mestach",
        "col2": "A. Mestach",
        "col3": "S. Vogele"
    },
    {
        "col0": "2016 Empire Slovak Open",
        "col1": "T. Mihalikova",
        "col2": "K. Siniakova",
        "col3": "K. Siniakova"
    },
    {
        "col0": "2016 Dow Corning Tennis Classic",
        "col1": "C. Bellis",
        "col2": "N. Broady",
        "col3": "N. Broady"
    },
    {
        "col0": "2016 Delhi Open",
        "col1": "L. Ya-hsuan",
        "col2": "H. Ching-wen",
        "col3": "S. Sharipova"
    },
    {
        "col0": "2016 Dalian Women's Tennis Open",
        "col1": "K. Takahata",
        "col2": "K. Pliskova",
        "col3": "K. Pliskova"
    },
    {
        "col0": "2016 Coupe Banque Nationale",
        "col1": "A. Hlavackova",
        "col2": "A. Hlavackova",
        "col3": "O. Dodin"
    },
    {
        "col0": "2016 Copa Sevilla",
        "col1": "I. Cervantes",
        "col2": "C. Ruud",
        "col3": "C. Ruud"
    },
    {
        "col0": "2016 Connecticut Open",
        "col1": "M. Niculescu",
        "col2": "A. Radwanska",
        "col3": "A. Radwanska"
    },
    {
        "col0": "2016 Coleman Vision Tennis Championships",
        "col1": "M. Krajicek",
        "col2": "M. Krajicek",
        "col3": "M. Minella"
    },
    {
        "col0": "2016 Claro Open Medellin",
        "col1": "A. Falla",
        "col2": "A. Falla",
        "col3": "F. Bagnis"
    },
    {
        "col0": "2016 Cittadino Challenger",
        "col1": "M. Elgin",
        "col2": "F. Mayer",
        "col3": "F. Mayer"
    },
    {
        "col0": "2016 Citi Open",
        "col1": "E. Roger-Vasselin",
        "col2": "E. Roger-Vasselin",
        "col3": "G. Monfils"
    },
    {
        "col0": "2016 Chengdu Open",
        "col1": "R. Ram",
        "col2": "R. Ram",
        "col3": "K. Khachanov"
    },
    {
        "col0": "2016 Challenger Banque Nationale de Granby",
        "col1": "A. Mestach",
        "col2": "A. Gonzalez",
        "col3": "F. Tiafoe"
    },
    {
        "col0": "2016 Challenger Banque Nationale de Gatineau",
        "col1": "F. A kugor",
        "col2": "B. Andreescu",
        "col3": "B. Andreescu"
    },
    {
        "col0": "2016 Challenger Banque Nationale de Drummondville",
        "col1": "J. Cerretani",
        "col2": "J. Cerretani",
        "col3": "D. Evans"
    },
    {
        "col0": "2016 Capri Watch Cup",
        "col1": "G. Kretschmer",
        "col2": "J. Kovalik",
        "col3": "J. Kovalik"
    },
    {
        "col0": "2016 Campeonato Internacional de Tenis de Santos",
        "col1": "M. Gonzalez",
        "col2": "R. Olivo",
        "col3": "R. Olivo"
    },
    {
        "col0": "2016 Bastad Challenger",
        "col1": "I. Arvidsson",
        "col2": "H. Zeballos",
        "col3": "H. Zeballos"
    },
    {
        "col0": "2016 Bredeney Ladies Open",
        "col1": "L. P. Tio",
        "col2": "S. S. Tormo",
        "col3": "S. S. Tormo"
    },
    {
        "col0": "2016 Boyd Tinsley Women's Clay Court Classic",
        "col1": "T. Townsend",
        "col2": "T. Townsend",
        "col3": "T. Townsend"
    },
    {
        "col0": "2016 Bol Open",
        "col1": "P. Martic",
        "col2": "M. Minella",
        "col3": "M. Minella"
    },
    {
        "col0": "2016 Blossom Cup",
        "col1": "M. Ninomiya",
        "col2": "W. Qiang",
        "col3": "W. Qiang"
    },
    {
        "col0": "2016 BNP Paribas de Nouvelle-Caledonie",
        "col1": "E. Roger-Vasselin",
        "col2": "A. Mannarino",
        "col3": "A. Mannarino"
    },
    {
        "col0": "2016 BNP Paribas Open",
        "col1": "N. Mahut",
        "col2": "N. Djokovic",
        "col3": "N. Djokovic"
    },
    {
        "col0": "2016 BFD Energy Challenger",
        "col1": "F. Gaio",
        "col2": "J. Satral",
        "col3": "J. Satral"
    },
    {
        "col0": "2016 Bastad Challenger",
        "col1": "I. Arvidsson",
        "col2": "H. Zeballos",
        "col3": "H. Zeballos"
    },
    {
        "col0": "2016 Australian Open",
        "col1": "B. Soares",
        "col2": "S. Mirza",
        "col3": "N. Djokovic"
    },
    {
        "col0": "2016 Argentina Open",
        "col1": "R. Farah",
        "col2": "D. Thiem",
        "col3": "D. Thiem"
    },
    {
        "col0": "2016 Apia International Sydney",
        "col1": "M. Hingis",
        "col2": "V. Troicki",
        "col3": "S. Kuznetsova"
    },
    {
        "col0": "2016 Aircel Chennai Open",
        "col1": "O. Marach",
        "col2": "S. Wawrinka",
        "col3": "S. Wawrinka"
    },
    {
        "col0": "2016 Aegon Surbiton Trophy",
        "col1": "M. Oudin",
        "col2": "M. Melnikova",
        "col3": "M. Melnikova"
    },
    {
        "col0": "2016 Aegon Ilkley Trophy",
        "col1": "Y. Zhaoxuan",
        "col2": "Y. Zhaoxuan",
        "col3": "E. Rodina"
    },
    {
        "col0": "2016 Aegon Eastbourne Trophy",
        "col1": "Y. Zhaoxuan",
        "col2": "Y. Zhaoxuan",
        "col3": "A. Riske"
    },
    {
        "col0": "2016 Aegon Classic Birmingham",
        "col1": "K. Pliskova",
        "col2": "K. Pliskova",
        "col3": "M. Keys"
    },
    {
        "col0": "2016 Aegon Championships",
        "col1": "N. Mahut",
        "col2": "A. Murray",
        "col3": "A. Murray"
    },
    {
        "col0": "2016 Advantage Cars Prague Open",
        "col1": "J. Knowle",
        "col2": "A. Lottner",
        "col3": "A. Lottner"
    },
    {
        "col0": "2016 Adriatic Challenger",
        "col1": "A. Motti",
        "col2": "J. Souza",
        "col3": "J. Souza"
    },
    {
        "col0": "2016 Abierto de Puebla",
        "col1": "M. Daniell",
        "col2": "I. Khromacheva",
        "col3": "I. Khromacheva"
    },
    {
        "col0": "2016 ASB Classic",
        "col1": "M. Pavic",
        "col2": "R. B. Agut",
        "col3": "R. B. Agut"
    },
    {
        "col0": "2016 ABN AMRO World Tennis Tournament",
        "col1": "N. Mahut",
        "col2": "N. Mahut",
        "col3": "M. Klizan"
    },
    {
        "col0": "2015 Zhuhai ITF Women's Pro Circuit",
        "col1": "X. Shilin",
        "col2": "X. Shilin",
        "col3": "C. Kai-chen"
    },
    {
        "col0": "2015 Wuhan Open",
        "col1": "M. Hingis",
        "col2": "M. Hingis",
        "col3": "V. Williams"
    },
    {
        "col0": "2015 Western & Southern Open",
        "col1": "E. Roger-Vasselin",
        "col2": "R. Federer",
        "col3": "R. Federer"
    },
    {
        "col0": "2015 Waco Showdown",
        "col1": "N. Gibbs",
        "col2": "N. Gibbs",
        "col3": "V. Golubic"
    },
    {
        "col0": "2015 WTA Elite Trophy",
        "col1": "W. Yafan",
        "col2": "V. Williams",
        "col3": "V. Williams"
    },
    {
        "col0": "2015 Vietnam Open",
        "col1": "T. Lamasine",
        "col2": "S. Myneni",
        "col3": "S. Myneni"
    },
    {
        "col0": "2015 Uruguay Open",
        "col1": "A. Martin",
        "col2": "G. Pella",
        "col3": "G. Pella"
    },
    {
        "col0": "2015 US Open",
        "col1": "L. Paes",
        "col2": "L. Paes",
        "col3": "N. Djokovic"
    },
    {
        "col0": "2015 USTA Tennis Classic of Macon",
        "col1": "V. Golubic",
        "col2": "J. Abaza",
        "col3": "R. Peterson"
    },
    {
        "col0": "2015 Turk Telecom Izmir Cup",
        "col1": "S. Myneni",
        "col2": "L. Lacko",
        "col3": "L. Lacko"
    },
    {
        "col0": "2015 Trofeo CittA  di Brescia",
        "col1": "I. Bozoljac",
        "col2": "I. Bozoljac",
        "col3": "I. Sijsling"
    },
    {
        "col0": "2015 Torneo Internacional Challenger Leon",
        "col1": "R. Ram",
        "col2": "R. Ram",
        "col3": "A. Krajicek"
    },
    {
        "col0": "2015 Toray Pan Pacific Open",
        "col1": "C. S. Navarro",
        "col2": "A. Radwanska",
        "col3": "A. Radwanska"
    },
    {
        "col0": "2015 Tiburon Challenger",
        "col1": "F. Nielsen",
        "col2": "T. Smyczek",
        "col3": "T. Smyczek"
    },
    {
        "col0": "2015 Tevlin Women's Challenger",
        "col1": "S. Fichman",
        "col2": "S. Fichman",
        "col3": "T. Maria"
    },
    {
        "col0": "2015 Tennis Napoli Cup",
        "col1": "F. Krajinovic",
        "col2": "F. Krajinovic",
        "col3": "Daniel Munoz de la Nava"
    },
    {
        "col0": "2015 Tashkent Challenger",
        "col1": "M. Elgin",
        "col2": "D. Istomin",
        "col3": "D. Istomin"
    },
    {
        "col0": "2015 Tampere Open",
        "col1": "A. Ghem",
        "col2": "T. Lamasine",
        "col3": "L. Barzo"
    },
    {
        "col0": "2015 Tallahassee Tennis Challenger",
        "col1": "J. Peralta",
        "col2": "F. Arguello",
        "col3": "F. Arguello"
    },
    {
        "col0": "2015 TEAN International",
        "col1": "J. Struff",
        "col2": "D. Dzumhur",
        "col3": "D. Dzumhur"
    },
    {
        "col0": "2015 Turk Telecom Izmir Cup",
        "col1": "S. Myneni",
        "col2": "L. Lacko",
        "col3": "L. Lacko"
    },
    {
        "col0": "2015 Sao Paulo Challenger de Tenis",
        "col1": "C. Buchanan",
        "col2": "G. Pella",
        "col3": "G. Pella"
    },
    {
        "col0": "2015 Swedish Open",
        "col1": "K. Bertens",
        "col2": "L. Kubot",
        "col3": "J. Larsson"
    },
    {
        "col0": "2015 Suzhou Ladies Open",
        "col1": "Y. Zhaoxuan",
        "col2": "Z. Yuxuan",
        "col3": "Z. Kailin"
    },
    {
        "col0": "2015 Stockton Challenger",
        "col1": "S. Marand",
        "col2": "N. Hibino",
        "col3": "N. Hibino"
    },
    {
        "col0": "2015 Sparta Prague Open",
        "col1": "I. Zelenay",
        "col2": "I. Zelenay",
        "col3": "N. Gombos"
    },
    {
        "col0": "2015 Sparkassen ATP Challenger",
        "col1": "T. Weissborn",
        "col2": "R. Berankis",
        "col3": "R. Berankis"
    },
    {
        "col0": "2015 Slovak Open",
        "col1": "D. Jakupovic",
        "col2": "J. Maleckova",
        "col3": "J. Maleckova"
    },
    {
        "col0": "2015 Seguros Bolivar Open Medellin",
        "col1": "N. Barrientos",
        "col2": "N. Barrientos",
        "col3": "P. Lorenzi"
    },
    {
        "col0": "2015 Seguros Bolivar Open Cali",
        "col1": "M. Demoliner",
        "col2": "M. Demoliner",
        "col3": "F. Romboli"
    },
    {
        "col0": "2015 Seguros Bolivar Open Barranquilla",
        "col1": "M. Arevalo",
        "col2": "B. Coric",
        "col3": "B. Coric"
    },
    {
        "col0": "2015 Seguros Bolivar Open Medellin",
        "col1": "E. Struvay",
        "col2": "M. Minella",
        "col3": "P. Lorenzi"
    },
    {
        "col0": "2015 Seguros Bolivar Open Cali",
        "col1": "M. A. Reyes-Varela",
        "col2": "M. Demoliner",
        "col3": "F. Romboli"
    },
    {
        "col0": "2015 Seguros Bolivar Open Barranquilla",
        "col1": "S. Galdos",
        "col2": "B. Coric",
        "col3": "B. Coric"
    },
    {
        "col0": "2015 Santiago Challenger",
        "col1": "M. Gonzalez",
        "col2": "M. Gonzalez",
        "col3": "R. D. Silva"
    },
    {
        "col0": "2015 Samarkand Challenger",
        "col1": "M. Elgin",
        "col2": "T. Gabashvili",
        "col3": "T. Gabashvili"
    },
    {
        "col0": "2015 Sacramento Challenger",
        "col1": "B. Kavcic",
        "col2": "B. Kavcic",
        "col3": "T. Fritz"
    },
    {
        "col0": "2015 Sao Paulo Challenger de Tenis",
        "col1": "C. Buchanan",
        "col2": "G. Pella",
        "col3": "G. Pella"
    },
    {
        "col0": "2015 Rogers Cup",
        "col1": "M. Bryan",
        "col2": "L. Safarova",
        "col3": "A. Murray"
    },
    {
        "col0": "2015 Revolution Technologies Pro Tennis Classic",
        "col1": "T. Townsend",
        "col2": "T. Townsend",
        "col3": "K. Stewart"
    },
    {
        "col0": "2015 Reinert Open",
        "col1": "E. Hrdinova",
        "col2": "C. Witthoft",
        "col3": "C. Witthoft"
    },
    {
        "col0": "2015 Red Rock Pro Open",
        "col1": "N. Gibbs",
        "col2": "M. Krajicek",
        "col3": "M. Krajicek"
    },
    {
        "col0": "2015 Qatar ExxonMobil Open",
        "col1": "R. Nadal",
        "col2": "R. Nadal",
        "col3": "D. Ferrer"
    },
    {
        "col0": "2015 President's Cup",
        "col1": "N. Dzalamidze",
        "col2": "M. Kukushkin",
        "col3": "M. Kukushkin"
    },
    {
        "col0": "2015 Poznan Open",
        "col1": "M. Kowalczyk",
        "col2": "P. Carreno",
        "col3": "P. Carreno"
    },
    {
        "col0": "2015 Powiat Poznanski Open",
        "col1": "R. Hogenkamp",
        "col2": "P. Cetkovska",
        "col3": "P. Cetkovska"
    },
    {
        "col0": "2015 Pekao Szczecin Open",
        "col1": "F. Martin",
        "col2": "F. Martin",
        "col3": "J. Struff"
    },
    {
        "col0": "2015 Open du Pays d'Aix",
        "col1": "R. Haase",
        "col2": "R. Haase",
        "col3": "R. Haase"
    },
    {
        "col0": "2015 Open de Rennes",
        "col1": "A. Arnaboldi",
        "col2": "A. Sancic",
        "col3": "M. Jaziri"
    },
    {
        "col0": "2015 Open de Limoges",
        "col1": "M. Minella",
        "col2": "M. Minella",
        "col3": "C. Garcia"
    },
    {
        "col0": "2015 Open d'Orleans",
        "col1": "F. Martin",
        "col2": "F. Martin",
        "col3": "J. Struff"
    },
    {
        "col0": "2015 Open Montpellier Mediterranee Metropole Herault",
        "col1": "B. Krejcikova",
        "col2": "B. Krejcikova",
        "col3": "L. D. Lino"
    },
    {
        "col0": "2015 Open Harmonie mutuelle",
        "col1": "A. Sidorenko",
        "col2": "A. Sidorenko",
        "col3": "N. Mahut"
    },
    {
        "col0": "2015 Open GDF Suez de Cagnes-sur-Mer Alpes-Maritimes",
        "col1": "L. Thorpe",
        "col2": "C. Witthoft",
        "col3": "C. Witthoft"
    },
    {
        "col0": "2015 Open GDF Suez Seine-et-Marne",
        "col1": "A. Smith",
        "col2": "A. Smith",
        "col3": "M. Gasparyan"
    },
    {
        "col0": "2015 Open Feminin de Marseille",
        "col1": "T. Bua",
        "col2": "T. Bua",
        "col3": "M. Niculescu"
    },
    {
        "col0": "2015 Open Engie de Touraine",
        "col1": "A. Cadantu",
        "col2": "A. Cadantu",
        "col3": "O. Fridman"
    },
    {
        "col0": "2015 Open Engie Saint-Gaudens Midi-Pyrenees",
        "col1": "J. Glushko",
        "col2": "Maria Teresa Torro Flor",
        "col3": "Maria Teresa Torro Flor"
    },
    {
        "col0": "2015 Open BNP Paribas Banque de Bretagne",
        "col1": "F. Cipolla",
        "col2": "F. Cipolla",
        "col3": "B. Paire"
    },
    {
        "col0": "2015 Odlum Brown Vancouver Open",
        "col1": "J. Konta",
        "col2": "D. Sela",
        "col3": "D. Sela"
    },
    {
        "col0": "2015 OEC Taipei WTA Challenger",
        "col1": "K. Hisami",
        "col2": "T. Babos",
        "col3": "T. Babos"
    },
    {
        "col0": "2015 Nurnberger Versicherungscup",
        "col1": "A. M. Garrigues",
        "col2": "A. M. Garrigues",
        "col3": "K. Knapp"
    },
    {
        "col0": "2015 Ningbo Challenger",
        "col1": "D. Sela",
        "col2": "D. Sela",
        "col3": "L. Yen-hsun"
    },
    {
        "col0": "2015 Nanjing Ladies Open",
        "col1": "E. Hozumi",
        "col2": "H. Su-wei",
        "col3": "H. Su-wei"
    }
]