[
    {
        "col0": "J. Bolbochan",
        "col1": "Argentina",
        "col2": "Caracas",
        "col3": "1920-03-20",
        "col4": "1996-06-28",
        "col5": "1920-03-20"
    },
    {
        "col0": "Joao de Souza Mendes",
        "col1": "Angra do Heroismo",
        "col2": "Brazil",
        "col3": "1892-06-23",
        "col4": "1969-07-10",
        "col5": "1892-06-23"
    },
    {
        "col0": "J. R. Capablanca",
        "col1": "Havana",
        "col2": "New York City",
        "col3": "1888-11-19",
        "col4": "1942-03-08",
        "col5": "1888-11-19"
    },
    {
        "col0": "J. Plachutta",
        "col1": "Zadar",
        "col2": "Przemysl",
        "col3": "1827-5-13",
        "col4": "1883-7-22",
        "col5": "1827-5-13"
    },
    {
        "col0": "J. H. Blake",
        "col1": "Farnborough, Hampshire",
        "col2": "Kingston-upon-Thames",
        "col3": "1859-02-03",
        "col4": "1951-12-11",
        "col5": "1859-02-03"
    },
    {
        "col0": "J. H. Blackburne",
        "col1": "Manchester",
        "col2": "London",
        "col3": "1841-12-10",
        "col4": "1924-09-01",
        "col5": "1841-12-10"
    },
    {
        "col0": "J. R. Capablanca",
        "col1": "Havana",
        "col2": "New York",
        "col3": "1888-11-19",
        "col4": "1942-03-08",
        "col5": "1888-11-19"
    },
    {
        "col0": "J. W. Collins",
        "col1": "Newburgh, New York",
        "col2": "Manhattan",
        "col3": "1912-09-23",
        "col4": "2001-12-02",
        "col5": "1912-09-23"
    },
    {
        "col0": "J. Zukertort",
        "col1": "Lublin",
        "col2": "London",
        "col3": "1842-09-07",
        "col4": "1888-06-20",
        "col5": "1842-09-07"
    },
    {
        "col0": "J. Giersing",
        "col1": "Odense",
        "col2": "Copenhagen",
        "col3": "1872-11-18",
        "col4": "1954-11-11",
        "col5": "1872-11-18"
    },
    {
        "col0": "J. Lowenthal",
        "col1": "Budapest",
        "col2": "Hastings",
        "col3": "1810-07-15",
        "col4": "1876-07-24",
        "col5": "1810-07-15"
    },
    {
        "col0": "Joao de Souza Mendes",
        "col1": "Portugal",
        "col2": "Brazil",
        "col3": "1892-06-23",
        "col4": "1969-07-10",
        "col5": "1892-06-23"
    },
    {
        "col0": "Jesus Diez del Corral",
        "col1": "Zaragoza",
        "col2": "Madrid",
        "col3": "1933-04-06",
        "col4": "2010-02-19",
        "col5": "1933-04-06"
    },
    {
        "col0": "J. H. Donner",
        "col1": "The Hague",
        "col2": "Amsterdam",
        "col3": "1927-07-06",
        "col4": "1988-11-27",
        "col5": "1927-07-06"
    },
    {
        "col0": "J. Mason",
        "col1": "Ireland",
        "col2": "England",
        "col3": "1849-11-19",
        "col4": "1905-01-12",
        "col5": "1849-11-19"
    },
    {
        "col0": "J. Hanham",
        "col1": "Mississippi",
        "col2": "New York",
        "col3": "1840-01-04",
        "col4": "1923-12-30",
        "col5": "1840-01-04"
    },
    {
        "col0": "J. Grundy",
        "col1": "England",
        "col2": "England",
        "col3": "1855-02-14",
        "col4": "1919-01-26",
        "col5": "1855-02-14"
    },
    {
        "col0": "J. A. Leonard",
        "col1": "Ireland",
        "col2": "Annapolis",
        "col3": "1841-11-06",
        "col4": "1862-09-26",
        "col5": "1841-11-06"
    }
]