[
    {
        "col0": "E>>Eua Airport",
        "col1": "'Eua",
        "col2": "NFTE",
        "col3": "99"
    },
    {
        "col0": "Zilina Airport",
        "col1": "Zilina",
        "col2": "(Location of airport in Slovakia)",
        "col3": "310"
    },
    {
        "col0": "Zeljava Air Base",
        "col1": "Bosnia and Herzegovina",
        "col2": "LYBI",
        "col3": "343"
    },
    {
        "col0": "A piro MugoA!a Airport",
        "col1": "Montenegro",
        "col2": "(Location of airport in Montenegro)",
        "col3": "60"
    },
    {
        "col0": "Sirnak Airport",
        "col1": "Sirnak",
        "col2": "(Location of airport in Turkey)",
        "col3": "621"
    },
    {
        "col0": "Sanliurfa GAP Airport",
        "col1": "Turkey",
        "col2": "(Location of airport in Turkey)",
        "col3": "822"
    },
    {
        "col0": "Sanliurfa Airport",
        "col1": "Turkey",
        "col2": "(Location of airport in Turkey)",
        "col3": "452"
    },
    {
        "col0": "Lodz Wladyslaw Reymont Airport",
        "col1": "Lodz",
        "col2": "EPLL",
        "col3": "185"
    },
    {
        "col0": "Cacak Airport",
        "col1": "Serbia",
        "col2": "LYCA",
        "col3": "236"
    },
    {
        "col0": "Thorshofn Airport",
        "col1": "Iceland",
        "col2": "(Location of Airport in Iceland)",
        "col3": "19"
    },
    {
        "col0": "Thingeyri Airport",
        "col1": "Thingeyri",
        "col2": "BITE",
        "col3": "19"
    },
    {
        "col0": "Urumqi Diwopu International Airport",
        "col1": "Urumqi",
        "col2": "ZWWW",
        "col3": "648"
    },
    {
        "col0": "Utila Airport",
        "col1": "Utila",
        "col2": "MHUT",
        "col3": "8"
    },
    {
        "col0": "Orsta-Volda Airport, Hovden",
        "col1": "Orsta",
        "col2": "ENOV",
        "col3": "74"
    },
    {
        "col0": "Orland Airport",
        "col1": "Norway",
        "col2": "ENOL",
        "col3": "8"
    },
    {
        "col0": "Olafsfjordur Airport",
        "col1": "Olafsfjordur",
        "col2": "BIOF",
        "col3": "9"
    },
    {
        "col0": "Nanco Lauquen Airport",
        "col1": "Trenque Lauquen",
        "col2": "SAET",
        "col3": "92"
    },
    {
        "col0": "Ile d'Yeu Aerodrome",
        "col1": "France",
        "col2": "LFEY",
        "col3": "24"
    },
    {
        "col0": "Isafjordur Airport",
        "col1": "Iceland",
        "col2": "(Location of Airport in Iceland)",
        "col3": "2"
    },
    {
        "col0": "Evora Airport",
        "col1": "Evora",
        "col2": "LPEV",
        "col3": "248"
    },
    {
        "col0": "Epinal - Mirecourt Airport",
        "col1": "Epinal",
        "col2": "LFSG",
        "col3": "330"
    },
    {
        "col0": "Cukurova Regional Airport",
        "col1": "Adana",
        "col2": "?",
        "col3": "5"
    },
    {
        "col0": "Canakkale Airport",
        "col1": "Canakkale",
        "col2": "(Location of airport in Turkey)",
        "col3": "7"
    },
    {
        "col0": "Are Ostersund Airport",
        "col1": "Ostersund",
        "col2": "ESNZ",
        "col3": "375"
    },
    {
        "col0": "Alesund Airport, Vigra",
        "col1": "Norway",
        "col2": "ENAL",
        "col3": "21"
    },
    {
        "col0": "Angel S. Adami Airport",
        "col1": "Montevideo",
        "col2": "SUAA",
        "col3": "53"
    },
    {
        "col0": "Angel Albino Corzo International Airport",
        "col1": "Tuxtla Gutierrez",
        "col2": "MMTG",
        "col3": "457"
    },
    {
        "col0": "Agua Boa Airport",
        "col1": "Agua Boa, Mato Grosso",
        "col2": "SWHP",
        "col3": "459"
    },
    {
        "col0": "Zurich Airport",
        "col1": "Switzerland",
        "col2": "LSZH",
        "col3": "431"
    },
    {
        "col0": "Zweibrucken Airport",
        "col1": "Germany",
        "col2": "EDRZ",
        "col3": "345"
    },
    {
        "col0": "Zwartberg Airfield",
        "col1": "Genk",
        "col2": "EBZW",
        "col3": "84"
    },
    {
        "col0": "Zvartnots International Airport",
        "col1": "Yerevan",
        "col2": "(Location of airport in Armenia)",
        "col3": "865"
    },
    {
        "col0": "Zuwarah Airport",
        "col1": "Zuwarah",
        "col2": "HLZW",
        "col3": "2"
    },
    {
        "col0": "Zumbi dos Palmares International Airport",
        "col1": "Maceio",
        "col2": "SBMO",
        "col3": "105"
    },
    {
        "col0": "Zuienkerke Airfield",
        "col1": "Zuienkerke",
        "col2": "EBZU",
        "col3": "3"
    },
    {
        "col0": "Zouar Airport",
        "col1": "Zouar",
        "col2": "FTTR",
        "col3": "808"
    },
    {
        "col0": "Zonguldak Airport",
        "col1": "Zonguldak",
        "col2": "LTAS",
        "col3": "13"
    },
    {
        "col0": "Zona da Mata Regional Airport",
        "col1": "Juiz de Fora",
        "col2": "SBZM",
        "col3": "410"
    },
    {
        "col0": "Zingem Heliport",
        "col1": "Zingem",
        "col2": "EBZI",
        "col3": "9"
    },
    {
        "col0": "Ziguinchor Airport",
        "col1": "Senegal",
        "col2": "(Location of Airport in Senegal)",
        "col3": "22"
    },
    {
        "col0": "Zielona Gora Airport",
        "col1": "Poland",
        "col2": "(Location of airport in Poland)",
        "col3": "59"
    },
    {
        "col0": "Zhukovsky International Airport",
        "col1": "Moscow",
        "col2": "UUBW",
        "col3": "123"
    },
    {
        "col0": "Zhuhai Jinwan Airport",
        "col1": "Guangdong",
        "col2": "ZGSD",
        "col3": "7"
    },
    {
        "col0": "Zhigansk Airport",
        "col1": "Russia",
        "col2": "UEVV",
        "col3": "89"
    },
    {
        "col0": "Zhengzhou Xinzheng International Airport",
        "col1": "Zhengzhou",
        "col2": "(Location in Henan Province)",
        "col3": "151"
    },
    {
        "col0": "Zhanjiang Airport",
        "col1": "Guangdong",
        "col2": "ZGZJ",
        "col3": "38"
    },
    {
        "col0": "Zephyrhills Municipal Airport",
        "col1": "Zephyrhills, Florida",
        "col2": "KZPH",
        "col3": "27"
    },
    {
        "col0": "Zenata - Messali El Hadj Airport",
        "col1": "Tlemcen",
        "col2": "(Location of airport in Algeria)",
        "col3": "248"
    },
    {
        "col0": "Zemio Airport",
        "col1": "Central African Republic",
        "col2": "FEFZ",
        "col3": "608"
    },
    {
        "col0": "Zeltweg Air Base",
        "col1": "Zeltweg",
        "col2": "LOXZ",
        "col3": "682"
    },
    {
        "col0": "Zell am See Airport",
        "col1": "Zell am See",
        "col2": "LOWZ",
        "col3": "754"
    },
    {
        "col0": "Zelienople Municipal Airport",
        "col1": "Zelienople, Pennsylvania",
        "col2": "KPJC",
        "col3": "273"
    },
    {
        "col0": "Zbraslavice Airport",
        "col1": "Zbraslavice",
        "col2": "LKZB",
        "col3": "402"
    },
    {
        "col0": "Zaysan Airport",
        "col1": "Zaysan",
        "col2": "UASZ",
        "col3": "579"
    },
    {
        "col0": "Zavodske Airfield",
        "col1": "Crimea",
        "col2": "UKFW",
        "col3": "291"
    },
    {
        "col0": "Zaria Airport",
        "col1": "Nigeria",
        "col2": "DNZA",
        "col3": "661"
    },
    {
        "col0": "Zaranj Airport",
        "col1": "Nimruz Province",
        "col2": "(Location of airport in Afghanistan)",
        "col3": "485"
    },
    {
        "col0": "Zaqatala International Airport",
        "col1": "Azerbaijan",
        "col2": "(Location of airport in Azerbaijan)",
        "col3": "389"
    },
    {
        "col0": "Zaporizhia International Airport",
        "col1": "Ukraine",
        "col2": "UKDE",
        "col3": "113"
    },
    {
        "col0": "Zapallar Casas Viejas Airport",
        "col1": "Zapallar",
        "col2": "SCZC",
        "col3": "79"
    },
    {
        "col0": "Zanesville Municipal Airport",
        "col1": "Zanesville, Ohio",
        "col2": "KZZV",
        "col3": "274"
    },
    {
        "col0": "Zanaga Airport",
        "col1": "Republic of the Congo",
        "col2": "FCBZ",
        "col3": "569"
    },
    {
        "col0": "Zamboanga International Airport",
        "col1": "Zamboanga City",
        "col2": "RPMZ",
        "col3": "6"
    },
    {
        "col0": "Zambezi Airport",
        "col1": "Zambezi",
        "col2": "FLZB",
        "col3": "1078"
    },
    {
        "col0": "Zahedan Airport",
        "col1": "Zahedan",
        "col2": "(Location of airport in Iran)",
        "col3": "1391"
    },
    {
        "col0": "Zagreb Airport",
        "col1": "Croatia",
        "col2": "LDZA",
        "col3": "107"
    },
    {
        "col0": "Zagora Airport",
        "col1": "Zagora, Morocco",
        "col2": "GMAZ",
        "col3": "736"
    },
    {
        "col0": "Zagarzazu International Airport",
        "col1": "Carmelo, Uruguay",
        "col2": "SUCM",
        "col3": "10"
    },
    {
        "col0": "Zaffelare Heliport",
        "col1": "Lochristi",
        "col2": "EBLZ",
        "col3": "3"
    },
    {
        "col0": "Zafer Airport",
        "col1": "Afyonkarahisar",
        "col2": "(Location of airport in Turkey)",
        "col3": "1012"
    },
    {
        "col0": "Zadar Airport",
        "col1": "Zadar",
        "col2": "(Location of the airport in Croatia)",
        "col3": "88"
    },
    {
        "col0": "Zacapa Airport",
        "col1": "Zacapa",
        "col2": "MGZA",
        "col3": "192"
    },
    {
        "col0": "Zabre Airport",
        "col1": "Burkina Faso",
        "col2": "DFEZ",
        "col3": "270"
    },
    {
        "col0": "Zabrat Airport",
        "col1": "Baku",
        "col2": "UBTT",
        "col3": "28"
    },
    {
        "col0": "Zabre Airport",
        "col1": "Burkina Faso",
        "col2": "DFEZ",
        "col3": "270"
    },
    {
        "col0": "Z. M. Jack Stell Field",
        "col1": "Crossett, Arkansas",
        "col2": "KCRT",
        "col3": "56"
    },
    {
        "col0": "Zurich Airport",
        "col1": "Zurich",
        "col2": "LSZH",
        "col3": "431"
    },
    {
        "col0": "Yelimane Airport",
        "col1": "Yelimane",
        "col2": "GAYE",
        "col3": "99"
    },
    {
        "col0": "Yuzhno-Sakhalinsk Airport",
        "col1": "Russia",
        "col2": "UHSS",
        "col3": "17"
    },
    {
        "col0": "Yumbel Trilahue Airport",
        "col1": "Yumbel",
        "col2": "SCYB",
        "col3": "128"
    },
    {
        "col0": "Yuba County Airport",
        "col1": "Marysville, California",
        "col2": "KMYV",
        "col3": "19"
    },
    {
        "col0": "Youngstown-Warren Regional Airport",
        "col1": "Warren, Ohio",
        "col2": "KYNG",
        "col3": "364"
    },
    {
        "col0": "Young Airport",
        "col1": "Australia",
        "col2": "YYNG",
        "col3": "386"
    },
    {
        "col0": "Yoshkar-Ola Airport",
        "col1": "Russia",
        "col2": "(Location of airport in Mari El, Russia)",
        "col3": "106"
    },
    {
        "col0": "Yoro Airport",
        "col1": "Yoro",
        "col2": "MHYR",
        "col3": "675"
    },
    {
        "col0": "York Municipal Airport",
        "col1": "York, Nebraska",
        "col2": "KJYR",
        "col3": "509"
    },
    {
        "col0": "York Airport",
        "col1": "York, Pennsylvania",
        "col2": "KTHV",
        "col3": "150"
    },
    {
        "col0": "Yongphulla Airport",
        "col1": "Bhutan",
        "col2": "(Location of airport in Bhutan)",
        "col3": "2743"
    },
    {
        "col0": "Yonaguni Airport",
        "col1": "Japan",
        "col2": "ROYN",
        "col3": "14"
    },
    {
        "col0": "Yolo County Airport",
        "col1": "Davis, California",
        "col2": "KDWA",
        "col3": "30"
    },
    {
        "col0": "Yola Airport",
        "col1": "Nigeria",
        "col2": "(Location of Airport in Nigeria)",
        "col3": "182"
    },
    {
        "col0": "Yokangassi Airport",
        "col1": "Republic of the Congo",
        "col2": "FCBY",
        "col3": "164"
    },
    {
        "col0": "Yirol Airport",
        "col1": "South Sudan",
        "col2": "(Location of Yirol Airport in South Sudan)",
        "col3": "437"
    },
    {
        "col0": "Yining Airport",
        "col1": "Xinjiang",
        "col2": "(Location of airport in Xinjiang)",
        "col3": "665"
    },
    {
        "col0": "Yichun Mingyueshan Airport",
        "col1": "China",
        "col2": "ZSYC",
        "col3": "131"
    },
    {
        "col0": "Yichun Lindu Airport",
        "col1": "Yichun, Heilongjiang",
        "col2": "ZYLD",
        "col3": "241"
    },
    {
        "col0": "Yibal Airport",
        "col1": "Yibal",
        "col2": "OOYB",
        "col3": "108"
    },
    {
        "col0": "Yermolino Airport",
        "col1": "Moscow",
        "col2": "UUWE",
        "col3": "195"
    },
    {
        "col0": "Yeosu Airport",
        "col1": "Yeosu",
        "col2": "(Location of airport in South Korea)",
        "col3": "16"
    },
    {
        "col0": "Yenisehir Airport",
        "col1": "Turkey",
        "col2": "(Location of airport in Turkey)",
        "col3": "232"
    },
    {
        "col0": "Yengema Airport",
        "col1": "Yengema",
        "col2": "GFYE",
        "col3": "396"
    },
    {
        "col0": "Yendi Airport",
        "col1": "Yendi",
        "col2": "DGLY",
        "col3": "223"
    },
    {
        "col0": "Yendegaia Airport",
        "col1": "Cabo de Hornos, Chile",
        "col2": "SCNY",
        "col3": "49"
    },
    {
        "col0": "Yemelyanovo International Airport",
        "col1": "Krasnoyarsk",
        "col2": "UNKL",
        "col3": "287"
    },
    {
        "col0": "Yellowstone Regional Airport",
        "col1": "Cody, Wyoming",
        "col2": "KCOD",
        "col3": "1555"
    },
    {
        "col0": "Yellowstone Airport",
        "col1": "West Yellowstone, Montana",
        "col2": "KWYS",
        "col3": "2026"
    },
    {
        "col0": "Yei Airport",
        "col1": "South Sudan",
        "col2": "(Location of Yei Airport in South Sudan)",
        "col3": "830"
    },
    {
        "col0": "Yeager Airport",
        "col1": "Charleston, West Virginia",
        "col2": "KCRW",
        "col3": "288"
    },
    {
        "col0": "Yawan Airport",
        "col1": "Yawan District",
        "col2": "OAYW",
        "col3": "1720"
    },
    {
        "col0": "Yasawa Island Airport",
        "col1": "Fiji",
        "col2": "NFSW",
        "col3": "3"
    },
    {
        "col0": "Yapacani Airport",
        "col1": "Yapacani",
        "col2": "SLYI",
        "col3": "248"
    },
    {
        "col0": "Yaounde Nsimalen International Airport",
        "col1": "Yaounde",
        "col2": "(Location of Airport in Cameroon)",
        "col3": "694"
    },
    {
        "col0": "Yao Airport",
        "col1": "Osaka",
        "col2": "RJOY",
        "col3": "10"
    },
    {
        "col0": "Yantai Laishan Airport",
        "col1": "Shandong",
        "col2": "ZSYT",
        "col3": "18"
    },
    {
        "col0": "Yanji Chaoyangchuan Airport",
        "col1": "Yanji",
        "col2": "(Location of airport in Jilin province)",
        "col3": "190"
    },
    {
        "col0": "Yangzhou Taizhou Airport",
        "col1": "Yangzhou",
        "col2": "ZSYA",
        "col3": "2"
    },
    {
        "col0": "Yangyang International Airport",
        "col1": "Gangneung",
        "col2": "(Location of airport in South Korea)",
        "col3": "73"
    },
    {
        "col0": "Yangon International Airport",
        "col1": "Yangon",
        "col2": "(Location of airport in Burma)",
        "col3": "33"
    },
    {
        "col0": "Yanbu Airport",
        "col1": "Yanbu",
        "col2": "(Location of airport in Saudi Arabia)",
        "col3": "7"
    },
    {
        "col0": "Yampa Valley Airport",
        "col1": "Hayden, Colorado",
        "col2": "KHDN",
        "col3": "2013"
    },
    {
        "col0": "Yamoussoukro Airport",
        "col1": "Yamoussoukro",
        "col2": "DIYO",
        "col3": "213"
    },
    {
        "col0": "Yambio Airport",
        "col1": "South Sudan",
        "col2": "(Location of Yambio Airport in South Sudan)",
        "col3": "723"
    },
    {
        "col0": "Yamaguchi Ube Airport",
        "col1": "Ube, Yamaguchi",
        "col2": "RJDC",
        "col3": "4"
    },
    {
        "col0": "Yamagata Airport",
        "col1": "Yamagata, Yamagata",
        "col2": "RJSC",
        "col3": "105"
    },
    {
        "col0": "Yalinga Airport",
        "col1": "Yalinga",
        "col2": "FEFY",
        "col3": "601"
    },
    {
        "col0": "Yakutsk Airport",
        "col1": "Yakutsk",
        "col2": "UEEE",
        "col3": "99"
    },
    {
        "col0": "Yakutat Airport",
        "col1": "Yakutat, Alaska",
        "col2": "PAYA",
        "col3": "10"
    },
    {
        "col0": "Yakushima Airport",
        "col1": "Japan",
        "col2": "RJFC",
        "col3": "37"
    },
    {
        "col0": "Yakubu Gowon Airport",
        "col1": "Nigeria",
        "col2": "(Location of Airport in Nigeria)",
        "col3": "1289"
    },
    {
        "col0": "Yako Airport",
        "col1": "Yako",
        "col2": "DFCY",
        "col3": "299"
    },
    {
        "col0": "Yakima Air Terminal",
        "col1": "Yakima, Washington",
        "col2": "KYKM",
        "col3": "334"
    },
    {
        "col0": "Yakataga Airport",
        "col1": "Alaska",
        "col2": "PACY",
        "col3": "3"
    },
    {
        "col0": "Yagoua Airport",
        "col1": "Yagoua",
        "col2": "FKKJ",
        "col3": "326"
    },
    {
        "col0": "Yacuiba Airport",
        "col1": "Yacuiba",
        "col2": "(Location of airport in Bolivia)",
        "col3": "644"
    },
    {
        "col0": "Yelimane Airport",
        "col1": "Yelimane",
        "col2": "GAYE",
        "col3": "99"
    },
    {
        "col0": "Xuzhou Guanyin Airport",
        "col1": "Jiangsu",
        "col2": "ZSXZ",
        "col3": "32"
    },
    {
        "col0": "Xishuangbanna Gasa Airport",
        "col1": "Jinghong",
        "col2": "(Location of airport in Yunnan province)",
        "col3": "553"
    },
    {
        "col0": "Xining Caojiabao Airport",
        "col1": "China",
        "col2": "ZLXN",
        "col3": "2170"
    },
    {
        "col0": "Xichang Qingshan Airport",
        "col1": "Xichang",
        "col2": "(Location of the airport in Sichuan)",
        "col3": "1558"
    },
    {
        "col0": "Xiamen Gaoqi International Airport",
        "col1": "Xiamen",
        "col2": "ZSAM",
        "col3": "18"
    },
    {
        "col0": "Xi'an Xianyang International Airport",
        "col1": "Xi'an",
        "col2": "ZLXY",
        "col3": "479"
    },
    {
        "col0": "Xewkija Heliport",
        "col1": "Gozo",
        "col2": "LMMG",
        "col3": "98"
    },
    {
        "col0": "Xangongo Airport",
        "col1": "Xangongo",
        "col2": "FNXA",
        "col3": "1107"
    },
    {
        "col0": "Wycombe Air Park",
        "col1": "High Wycombe",
        "col2": "EGTB",
        "col3": "158"
    },
    {
        "col0": "Wuyishan Airport",
        "col1": "Nanping",
        "col2": "ZSWY",
        "col3": "196"
    },
    {
        "col0": "Wujah Al Hajar Air Base",
        "col1": "Hamat",
        "col2": "Z19O",
        "col3": "256"
    },
    {
        "col0": "Wuhan Tianhe International Airport",
        "col1": "Wuhan",
        "col2": "ZHHH",
        "col3": "34"
    },
    {
        "col0": "Wrangell Airport",
        "col1": "Wrangell, Alaska",
        "col2": "PAWG",
        "col3": "14"
    },
    {
        "col0": "Worland Municipal Airport",
        "col1": "Worland, Wyoming",
        "col2": "KWRL",
        "col3": "1296"
    },
    {
        "col0": "Worcester Regional Airport",
        "col1": "Worcester, Massachusetts",
        "col2": "KORH",
        "col3": "307"
    },
    {
        "col0": "Woodward Field",
        "col1": "Camden, South Carolina",
        "col2": "KCDN",
        "col3": "92"
    },
    {
        "col0": "Woodbourne Airport",
        "col1": "Blenheim, New Zealand",
        "col2": "(Location of airport in Marlborough)",
        "col3": "33"
    },
    {
        "col0": "Woodbine Municipal Airport",
        "col1": "Woodbine, New Jersey",
        "col2": "KOBI",
        "col3": "12"
    },
    {
        "col0": "Wood County Airport",
        "col1": "Mineola, Texas",
        "col2": "KJDD",
        "col3": "132"
    },
    {
        "col0": "Wonsan Kalma International Airport",
        "col1": "Wonsan",
        "col2": "ZKWS",
        "col3": "2"
    },
    {
        "col0": "Wonopito Airport",
        "col1": "Dutch East Indies",
        "col2": "WATW",
        "col3": "4"
    },
    {
        "col0": "Wonju Airport",
        "col1": "Wonju",
        "col2": "(Location of airport in South Korea)",
        "col3": "100"
    },
    {
        "col0": "Wonck Airport",
        "col1": "Bassenge",
        "col2": "EBBW",
        "col3": "111"
    },
    {
        "col0": "Wolverhampton Airport",
        "col1": "Wolverhampton",
        "col2": "EGBO",
        "col3": "86"
    },
    {
        "col0": "Wolfsberg Airport",
        "col1": "Wolfsberg, Carinthia",
        "col2": "LOKW",
        "col3": "445"
    },
    {
        "col0": "Woensdrecht Air Base",
        "col1": "Netherlands",
        "col2": "EHWO",
        "col3": "19"
    },
    {
        "col0": "Wittman Regional Airport",
        "col1": "Oshkosh, Wisconsin",
        "col2": "KOSH",
        "col3": "246"
    },
    {
        "col0": "Witham Field",
        "col1": "Stuart, Florida",
        "col2": "KSUA",
        "col3": "5"
    },
    {
        "col0": "Winton Airport",
        "col1": "Australia",
        "col2": "YWTN",
        "col3": "194"
    },
    {
        "col0": "Winter Haven's Gilbert Airport",
        "col1": "Winter Haven, Florida",
        "col2": "KGIF",
        "col3": "44"
    },
    {
        "col0": "Winslow-Lindbergh Regional Airport",
        "col1": "Winslow, Arizona",
        "col2": "KINW",
        "col3": "1506"
    },
    {
        "col0": "Winnipeg James Armstrong Richardson International Airport",
        "col1": "Manitoba",
        "col2": "CYWG",
        "col3": "238"
    },
    {
        "col0": "Winner Regional Airport",
        "col1": "Winner, South Dakota",
        "col2": "KICR",
        "col3": "619"
    },
    {
        "col0": "Winnemucca Municipal Airport",
        "col1": "Winnemucca, Nevada",
        "col2": "KWMC",
        "col3": "1313"
    },
    {
        "col0": "Winkler County Airport",
        "col1": "Wink, Texas",
        "col2": "KINK",
        "col3": "860"
    },
    {
        "col0": "Wings Field",
        "col1": "Philadelphia, Pennsylvania",
        "col2": "KLOM",
        "col3": "92"
    },
    {
        "col0": "Windsor International Airport",
        "col1": "Windsor, Ontario",
        "col2": "CYQG",
        "col3": "189"
    },
    {
        "col0": "Window Rock Airport",
        "col1": "Window Rock, Arizona",
        "col2": "KRQE",
        "col3": "2054"
    },
    {
        "col0": "Windorah Airport",
        "col1": "Australia",
        "col2": "YWDH",
        "col3": "137"
    },
    {
        "col0": "Winchester Regional Airport",
        "col1": "Winchester, Virginia",
        "col2": "KOKV",
        "col3": "221"
    },
    {
        "col0": "Winchester Municipal Airport",
        "col1": "Winchester, Tennessee",
        "col2": "KBGF",
        "col3": "298"
    },
    {
        "col0": "Wilson Airport",
        "col1": "Nairobi",
        "col2": "HKNW",
        "col3": "1690"
    },
    {
        "col0": "Wilmington International Airport",
        "col1": "Wilmington, North Carolina",
        "col2": "KILM",
        "col3": "9"
    },
    {
        "col0": "Wilmington Airport",
        "col1": "Wilmington, Delaware",
        "col2": "KILG",
        "col3": "24"
    },
    {
        "col0": "Willows-Glenn County Airport",
        "col1": "Willows, California",
        "col2": "KWLW",
        "col3": "42"
    },
    {
        "col0": "Willow Airport",
        "col1": "Willow, Alaska",
        "col2": "PAUO",
        "col3": "67"
    },
    {
        "col0": "Willmar Municipal Airport",
        "col1": "Willmar, Minnesota",
        "col2": "KBDH",
        "col3": "343"
    },
    {
        "col0": "Williston Basin International Airport",
        "col1": "North Dakota",
        "col2": "?",
        "col3": "717"
    },
    {
        "col0": "Williamsport Regional Airport",
        "col1": "Williamsport, Pennsylvania",
        "col2": "KIPT",
        "col3": "160"
    },
    {
        "col0": "Williamson-Sodus Airport",
        "col1": "New York",
        "col2": "KSDC",
        "col3": "129"
    },
    {
        "col0": "Williamson County Regional Airport",
        "col1": "Marion, Illinois",
        "col2": "KMWA",
        "col3": "143"
    },
    {
        "col0": "Williamson-Sodus Airport",
        "col1": "New York",
        "col2": "KSDC",
        "col3": "129"
    },
    {
        "col0": "Williamsburg Regional Airport",
        "col1": "Kingstree, South Carolina",
        "col2": "KCKI",
        "col3": "20"
    },
    {
        "col0": "William T. Piper Memorial Airport",
        "col1": "Lock Haven, Pennsylvania",
        "col2": "KLHV",
        "col3": "169"
    },
    {
        "col0": "William R. Pogue Municipal Airport",
        "col1": "Sand Springs, Oklahoma",
        "col2": "KOWP",
        "col3": "271"
    },
    {
        "col0": "William R. Fairchild International Airport",
        "col1": "Port Angeles, Washington",
        "col2": "KCLM",
        "col3": "88"
    },
    {
        "col0": "William P. Hobby Airport",
        "col1": "Greater Houston",
        "col2": "KHOU",
        "col3": "14"
    },
    {
        "col0": "Will Rogers World Airport",
        "col1": "Oklahoma City",
        "col2": "KOKC",
        "col3": "394"
    },
    {
        "col0": "Wilkins Runway",
        "col1": "Australian Antarctic Territory",
        "col2": "YWKS",
        "col3": "770"
    },
    {
        "col0": "Wilkes County Airport",
        "col1": "North Wilkesboro, North Carolina",
        "col2": "KUKF",
        "col3": "396"
    },
    {
        "col0": "Wilkes-Barre Wyoming Valley Airport",
        "col1": "Scranton/Wilkes-Barre metropolitan area",
        "col2": "KWBW",
        "col3": "165"
    },
    {
        "col0": "Wilkes-Barre/Scranton International Airport",
        "col1": "Wilkes-Barre, Pennsylvania",
        "col2": "KAVP",
        "col3": "293"
    },
    {
        "col0": "Wiley Post Airport",
        "col1": "Oklahoma City, Oklahoma",
        "col2": "KPWA",
        "col3": "395"
    },
    {
        "col0": "Wigram Aerodrome",
        "col1": "Christchurch",
        "col2": "(Location of Wigram Aerodrome)",
        "col3": "22"
    },
    {
        "col0": "Wiener Neustadt West Airport",
        "col1": "Wien",
        "col2": "LOXN",
        "col3": "286"
    }
]