[
    {
        "col0": "2015 Nana Trophy",
        "col1": "M. Irigoyen",
        "col2": "M. Irigoyen",
        "col3": "M. Irigoyen"
    },
    {
        "col0": "2015 Nurnberger Versicherungscup",
        "col1": "A. M. Garrigues",
        "col2": "A. M. Garrigues",
        "col3": "K. Knapp"
    },
    {
        "col0": "2015 Mutua Madrid Open",
        "col1": "F. Mergea",
        "col2": "A. Murray",
        "col3": "A. Murray"
    },
    {
        "col0": "2015 Moselle Open",
        "col1": "L. Kubot",
        "col2": "E. Roger-Vasselin",
        "col3": "J. Tsonga"
    },
    {
        "col0": "2015 Morocco Tennis Tour - Kenitra",
        "col1": "G. Granollers",
        "col2": "R. C. Baena",
        "col3": "R. C. Baena"
    },
    {
        "col0": "2015 Morocco Tennis Tour - Casablanca II",
        "col1": "M. Safwat",
        "col2": "D. Dzumhur",
        "col3": "D. Dzumhur"
    },
    {
        "col0": "2015 Morocco Tennis Tour - Kenitra",
        "col1": "G. Granollers",
        "col2": "R. C. Baena",
        "col3": "R. C. Baena"
    },
    {
        "col0": "2015 Morocco Tennis Tour - Casablanca II",
        "col1": "L. Grigelis",
        "col2": "D. Dzumhur",
        "col3": "D. Dzumhur"
    },
    {
        "col0": "2015 Morelos Open",
        "col1": "R. Gonzales",
        "col2": "V. E. Burgos",
        "col3": "V. E. Burgos"
    },
    {
        "col0": "2015 Monterrey Open",
        "col1": "G. Dabrowski",
        "col2": "T. Bacsinszky",
        "col3": "T. Bacsinszky"
    },
    {
        "col0": "2015 Monterrey Challenger",
        "col1": "T. d. Bakker",
        "col2": "T. d. Bakker",
        "col3": "T. d. Bakker"
    },
    {
        "col0": "2015 Miami Open",
        "col1": "B. Bryan",
        "col2": "B. Bryan",
        "col3": "N. Djokovic"
    },
    {
        "col0": "2015 MercedesCup",
        "col1": "R. Bopanna",
        "col2": "R. Nadal",
        "col3": "R. Nadal"
    },
    {
        "col0": "2015 Memphis Open",
        "col1": "S. Gonzalez",
        "col2": "K. Nishikori",
        "col3": "K. Nishikori"
    },
    {
        "col0": "2015 McDonald's Burnie International",
        "col1": "C. Ball",
        "col2": "C. Ball",
        "col3": "D. Gavrilova"
    },
    {
        "col0": "2015 Maserati Challenger",
        "col1": "D. Brown",
        "col2": "D. Brown",
        "col3": "A. Haider-Maurer"
    },
    {
        "col0": "2015 Malaysian Open, Kuala Lumpur",
        "col1": "T. Huey",
        "col2": "T. Huey",
        "col3": "D. Ferrer"
    },
    {
        "col0": "2015 Lorraine Open 88",
        "col1": "O. Kalashnikova",
        "col2": "A. Dulgheru",
        "col3": "A. Dulgheru"
    },
    {
        "col0": "2015 Lima Challenger",
        "col1": "H. Podlipnik",
        "col2": "G. Elias",
        "col3": "G. Elias"
    },
    {
        "col0": "2015 Lecoq Seoul Open",
        "col1": "C. Chin-wei",
        "col2": "G. Soeda",
        "col3": "G. Soeda"
    },
    {
        "col0": "2015 Launceston Tennis International",
        "col1": "H. Xinyun",
        "col2": "D. Gavrilova",
        "col3": "D. Gavrilova"
    },
    {
        "col0": "2015 Las Vegas Challenger",
        "col1": "C. Ball",
        "col2": "C. Ball",
        "col3": "T. d. Bakker"
    },
    {
        "col0": "2015 Lale Cup",
        "col1": "N. Kichenok",
        "col2": "S. Pe'er",
        "col3": "S. Pe'er"
    },
    {
        "col0": "2015 Ladies Neva Cup",
        "col1": "A. Sasnovich",
        "col2": "J. Ostapenko",
        "col3": "J. Ostapenko"
    },
    {
        "col0": "2015 L'Open Emeraude Solaire de Saint-Malo",
        "col1": "A. Sevastova",
        "col2": "K. Kucova",
        "col3": "D. Kasatkina"
    },
    {
        "col0": "2015 Kurume Best Amenity Cup",
        "col1": "M. Ninomiya",
        "col2": "N. Hibino",
        "col3": "N. Hibino"
    },
    {
        "col0": "2015 Korea Open",
        "col1": "A. Klepac",
        "col2": "I. Begu",
        "col3": "I. Begu"
    },
    {
        "col0": "2015 Kobe Challenger",
        "col1": "S. Ratiwatana",
        "col2": "S. Ratiwatana",
        "col3": "J. Millman"
    },
    {
        "col0": "2015 Knoxville Challenger",
        "col1": "F. Nielsen",
        "col2": "F. Nielsen",
        "col3": "D. Evans"
    },
    {
        "col0": "2015 Kirkland Tennis Challenger",
        "col1": "M. Minella",
        "col2": "S. Foretz",
        "col3": "M. Minella"
    },
    {
        "col0": "2015 Kentucky Bank Tennis Championships",
        "col1": "B. Klein",
        "col2": "B. Klein",
        "col3": "N. Hibino"
    },
    {
        "col0": "2015 Keio Challenger",
        "col1": "S. Ratiwatana",
        "col2": "S. Ratiwatana",
        "col3": "T. Daniel"
    },
    {
        "col0": "2015 Kangaroo Cup",
        "col1": "W. Yafan",
        "col2": "W. Yafan",
        "col3": "Z. Saisai"
    },
    {
        "col0": "2015 KPIT MSLTA Challenger",
        "col1": "A. Menendez-Maceiras",
        "col2": "Y. Bhambri",
        "col3": "Y. Bhambri"
    },
    {
        "col0": "2015 Jiangxi International Women's Tennis Open",
        "col1": "Z. Saisai",
        "col2": "J. Jankovic",
        "col3": "J. Jankovic"
    },
    {
        "col0": "2015 Jalisco Open",
        "col1": "R. Ram",
        "col2": "R. Ram",
        "col3": "R. Ram"
    },
    {
        "col0": "2015 JSM Challenger of Champaign-Urbana",
        "col1": "J. Salisbury",
        "col2": "J. Salisbury",
        "col3": "H. Laaksonen"
    },
    {
        "col0": "2015 J&T Banka Prague Open",
        "col1": "B. Bencic",
        "col2": "B. Bencic",
        "col3": "K. Pliskova"
    },
    {
        "col0": "2015 Internazionali di Tennis Castel del Monte",
        "col1": "F. Moser",
        "col2": "F. Moser",
        "col3": "I. Dodig"
    },
    {
        "col0": "2015 Internazionali Femminili di Brescia",
        "col1": "L. Siegemund",
        "col2": "S. Vogt",
        "col3": "S. Vogt"
    },
    {
        "col0": "2015 Internationaux de Tennis de Vendee",
        "col1": "A. Majchrowicz",
        "col2": "B. Paire",
        "col3": "B. Paire"
    },
    {
        "col0": "2015 Internationaux de Strasbourg",
        "col1": "C. Chia-jung",
        "col2": "C. Chia-jung",
        "col3": "S. Stosur"
    },
    {
        "col0": "2015 Internationaux Feminins de la Vienne",
        "col1": "M. Niculescu",
        "col2": "M. Niculescu",
        "col3": "M. Niculescu"
    },
    {
        "col0": "2015 Internacional Femenil Monterrey",
        "col1": "Y. Bonaventure",
        "col2": "Y. Bonaventure",
        "col3": "Y. Bonaventure"
    },
    {
        "col0": "2015 ITS Cup",
        "col1": "K. Stuchla",
        "col2": "B. Krejcikova",
        "col3": "B. Krejcikova"
    },
    {
        "col0": "2015 ITF Women's Circuit - Xuzhou",
        "col1": "H. Xinyun",
        "col2": "H. Xinyun",
        "col3": "L. Kumkhum"
    },
    {
        "col0": "2015 ITF Women's Circuit - Wuhan",
        "col1": "H. Xinyun",
        "col2": "H. Xinyun",
        "col3": "Z. Yuxuan"
    },
    {
        "col0": "2015 ITF Women's Circuit - Hong Kong",
        "col1": "H. Chieh-yu",
        "col2": "M. Doi",
        "col3": "M. Doi"
    },
    {
        "col0": "2015 ITF Women's Circuit UBS Thurgau",
        "col1": "N. Kichenok",
        "col2": "O. Govortsova",
        "col3": "O. Govortsova"
    },
    {
        "col0": "2015 ITF Women's Circuit - Xuzhou",
        "col1": "H. Xinyun",
        "col2": "L. Kumkhum",
        "col3": "L. Kumkhum"
    },
    {
        "col0": "2015 ITF Women's Circuit - Wuhan",
        "col1": "H. Xinyun",
        "col2": "Z. Yuxuan",
        "col3": "Z. Yuxuan"
    },
    {
        "col0": "2015 ITF Women's Circuit - Hong Kong",
        "col1": "H. Xinyun",
        "col2": "M. Doi",
        "col3": "M. Doi"
    },
    {
        "col0": "2015 Hua Hin Championships",
        "col1": "W. Yafan",
        "col2": "W. Yafan",
        "col3": "Y. Shvedova"
    },
    {
        "col0": "2015 Heilbronner Neckarcup",
        "col1": "I. Zelenay",
        "col2": "A. Z. Jr.",
        "col3": "A. Z. Jr."
    },
    {
        "col0": "2015 Hardee's Pro Classic",
        "col1": "J. Konta",
        "col2": "J. Konta",
        "col3": "L. Chirico"
    },
    {
        "col0": "2015 Hall of Fame Tennis Championships",
        "col1": "A. Qureshi",
        "col2": "R. Ram",
        "col3": "R. Ram"
    },
    {
        "col0": "2015 Grand Prix SAR La Princesse Lalla Meryem",
        "col1": "K. Mladenovic",
        "col2": "K. Mladenovic",
        "col3": "E. Svitolina"
    },
    {
        "col0": "2015 Gimcheon Open ATP Challenger",
        "col1": "L. Zhe",
        "col2": "L. Zhe",
        "col3": "A. Sarkissian"
    },
    {
        "col0": "2015 Gerry Weber Open",
        "col1": "R. Ram",
        "col2": "R. Federer",
        "col3": "R. Federer"
    },
    {
        "col0": "2015 German Open",
        "col1": "J. Murray",
        "col2": "R. Nadal",
        "col3": "R. Nadal"
    },
    {
        "col0": "2015 Generali Open Kitzbuhel",
        "col1": "N. Almagro",
        "col2": "N. Almagro",
        "col3": "P. Kohlschreiber"
    },
    {
        "col0": "2015 Generali Ladies Linz",
        "col1": "A. Spears",
        "col2": "Russia",
        "col3": "Russia"
    },
    {
        "col0": "2015 Gastein Ladies",
        "col1": "S. Vogt",
        "col2": "S. Stosur",
        "col3": "S. Stosur"
    },
    {
        "col0": "2015 Garden Open",
        "col1": "D. Brown",
        "col2": "D. Brown",
        "col3": "A. Bedene"
    },
    {
        "col0": "2015 Fukuoka International Women's Cup",
        "col1": "N. Broady",
        "col2": "N. Broady",
        "col3": "K. Pliskova"
    },
    {
        "col0": "2015 French Open",
        "col1": "L. Safarova",
        "col2": "M. Bryan",
        "col3": "S. Williams"
    },
    {
        "col0": "2015 Fergana Challenger",
        "col1": "T. Majeric",
        "col2": "T. Majeric",
        "col3": "T. Gabashvili"
    },
    {
        "col0": "2015 Family Circle Cup",
        "col1": "M. Hingis",
        "col2": "A. Kerber",
        "col3": "A. Kerber"
    },
    {
        "col0": "2015 Fairfield Challenger",
        "col1": "F. Nielsen",
        "col2": "T. Fritz",
        "col3": "T. Fritz"
    },
    {
        "col0": "2015 FSP Gold River Women's Challenger",
        "col1": "C. Whoriskey",
        "col2": "A. Kalinina",
        "col3": "A. Kalinina"
    },
    {
        "col0": "2015 Ethias Trophy",
        "col1": "P. Petzschner",
        "col2": "P. Petzschner",
        "col3": "I. Marchenko"
    },
    {
        "col0": "2015 Engie Open de Biarritz",
        "col1": "B. Eraydin",
        "col2": "B. Eraydin",
        "col3": "L. Siegemund"
    },
    {
        "col0": "2015 Engie Open Nantes Atlantique",
        "col1": "K. Stuchla",
        "col2": "M. Johansson",
        "col3": "M. Johansson"
    },
    {
        "col0": "2015 Empire Slovak Open",
        "col1": "Y. Beygelzimer",
        "col2": "D. Kovinic",
        "col3": "D. Kovinic"
    },
    {
        "col0": "2015 Dunlop World Challenge",
        "col1": "M. Reid",
        "col2": "M. Reid",
        "col3": "Y. Nishioka"
    },
    {
        "col0": "2015 Dow Corning Tennis Classic",
        "col1": "J. Coin",
        "col2": "J. Coin",
        "col3": "T. Maria"
    },
    {
        "col0": "2015 Distal & ITR Group Tennis Cup",
        "col1": "F. Cipolla",
        "col2": "F. Cipolla",
        "col3": "A. Bedene"
    },
    {
        "col0": "2015 Diamond Games",
        "col1": "A. P. Santonja",
        "col2": "A. Petkovic",
        "col3": "A. Petkovic"
    },
    {
        "col0": "2015 Delhi Open",
        "col1": "Y. Zhaoxuan",
        "col2": "M. Linette",
        "col3": "S. Devvarman"
    },
    {
        "col0": "2015 Dalian Women's Tennis Open",
        "col1": "Z. Kailin",
        "col2": "Z. Kailin",
        "col3": "Z. Saisai"
    },
    {
        "col0": "2015 Coupe Banque Nationale",
        "col1": "B. Krejcikova",
        "col2": "A. Beck",
        "col3": "A. Beck"
    },
    {
        "col0": "2015 CopperWynd Pro Women's Challenge",
        "col1": "R. Peterson",
        "col2": "R. Peterson",
        "col3": "S. Crawford"
    },
    {
        "col0": "2015 Copa Sevilla",
        "col1": "M. Middelkoop",
        "col2": "P. Cachin",
        "col3": "P. Cachin"
    },
    {
        "col0": "2015 Copa Fila",
        "col1": "H. Zeballos",
        "col2": "H. Zeballos",
        "col3": "K. Edmund"
    },
    {
        "col0": "2015 Connecticut Open",
        "col1": "L. Hradecka",
        "col2": "L. Hradecka",
        "col3": "P. Kvitova"
    },
    {
        "col0": "2015 Comerica Bank Challenger",
        "col1": "Australia",
        "col2": "Australia",
        "col3": "J. Millman"
    },
    {
        "col0": "2015 Columbus Challenger",
        "col1": "B. Rola",
        "col2": "C. Buchanan",
        "col3": "D. Novikov"
    },
    {
        "col0": "2015 Coleman Vision Tennis Championships",
        "col1": "P. C. Goncalves",
        "col2": "M. Krajicek",
        "col3": "M. Krajicek"
    },
    {
        "col0": "2015 CittA  di Como Challenger",
        "col1": "G. Kretschmer",
        "col2": "G. Kretschmer",
        "col3": "A. Kuznetsov"
    },
    {
        "col0": "2015 Citi Open",
        "col1": "B. Bryan",
        "col2": "B. Bryan",
        "col3": "K. Nishikori"
    },
    {
        "col0": "2015 China International Challenger",
        "col1": "X. Yifan",
        "col2": "W. Di",
        "col3": "Z. Saisai"
    },
    {
        "col0": "2015 Charlottesville Men's Pro Challenger",
        "col1": "C. Buchanan",
        "col2": "C. Buchanan",
        "col3": "N. Rubin"
    },
    {
        "col0": "2015 Chang-Sat Bangkok Open",
        "col1": "B. Yan",
        "col2": "Y. Sugita",
        "col3": "Y. Sugita"
    },
    {
        "col0": "2015 Challenger Ciudad de Guayaquil",
        "col1": "A. Molteni",
        "col2": "G. Duran",
        "col3": "G. Elias"
    },
    {
        "col0": "2015 Challenger Banque Nationale de Saguenay",
        "col1": "J. Jegiolka",
        "col2": "J. Jaksic",
        "col3": "J. Jaksic"
    },
    {
        "col0": "2015 Challenger Banque Nationale de Granby",
        "col1": "P. Bester",
        "col2": "S. Sanders",
        "col3": "J. Konta"
    },
    {
        "col0": "2015 Challenger Banque Nationale de Drummondville",
        "col1": "C. Guccione",
        "col2": "C. Guccione",
        "col3": "J. Smith"
    },
    {
        "col0": "2015 Carlsbad Classic",
        "col1": "G. Ce",
        "col2": "G. Ce",
        "col3": "Y. Wickmayer"
    },
    {
        "col0": "2015 Campeonato Internacional de Tenis de Campinas",
        "col1": "A. Molteni",
        "col2": "F. Arguello",
        "col3": "F. Arguello"
    },
    {
        "col0": "2015 Campeonato Internacional de Tenis de Santos",
        "col1": "M. Gonzalez",
        "col2": "M. Gonzalez",
        "col3": "B. Rola"
    },
    {
        "col0": "2015 Campeonato Internacional de Tenis de Campinas",
        "col1": "A. Molteni",
        "col2": "F. Arguello",
        "col3": "F. Arguello"
    },
    {
        "col0": "2015 Bursa Cup",
        "col1": "M. Melnikova",
        "col2": "M. Melnikova",
        "col3": "Adeg. Soylu"
    },
    {
        "col0": "2015 Brest Challenger",
        "col1": "M. Middelkoop",
        "col2": "I. Dodig",
        "col3": "I. Dodig"
    },
    {
        "col0": "2015 Boyd Tinsley Women's Clay Court Classic",
        "col1": "M. Sanchez",
        "col2": "A. Kiick",
        "col3": "A. Kiick"
    },
    {
        "col0": "2015 Blossom Cup",
        "col1": "E. Hozumi",
        "col2": "E. Kulichkova",
        "col3": "E. Kulichkova"
    },
    {
        "col0": "2015 Bendigo Women's International",
        "col1": "L. Embree",
        "col2": "M. Eguchi",
        "col3": "M. Eguchi"
    },
    {
        "col0": "2015 Bauer Watertechnology Cup",
        "col1": "P. Petzschner",
        "col2": "M. Youzhny",
        "col3": "M. Youzhny"
    },
    {
        "col0": "2015 Banja Luka Challenger",
        "col1": "F. Cipolla",
        "col2": "F. Cipolla",
        "col3": "D. Lajovic"
    },
    {
        "col0": "2015 Bangalore Challenger",
        "col1": "S. Myneni",
        "col2": "S. Myneni",
        "col3": "J. Ward"
    },
    {
        "col0": "2015 BNP Paribas de Nouvelle-Caledonie",
        "col1": "A. Krajicek",
        "col2": "T. Sandgren",
        "col3": "S. Darcis"
    },
    {
        "col0": "2015 BNP Paribas Open",
        "col1": "M. Hingis",
        "col2": "M. Hingis",
        "col3": "N. Djokovic"
    },
    {
        "col0": "2015 BGL Luxembourg Open",
        "col1": "M. Barthel",
        "col2": "M. Doi",
        "col3": "M. Doi"
    },
    {
        "col0": "2015 BFD Energy Challenger",
        "col1": "M. Kowalczyk",
        "col2": "T. Bednarek",
        "col3": "F. Delbonis"
    },
    {
        "col0": "2015 Australian Open",
        "col1": "C. Republic",
        "col2": "C. Republic",
        "col3": "N. Djokovic"
    },
    {
        "col0": "2015 Arimex Challenger Trophy",
        "col1": "M. Middelkoop",
        "col2": "R. Haase",
        "col3": "R. Haase"
    },
    {
        "col0": "2015 Argentina Open",
        "col1": "J. Nieminen",
        "col2": "J. Nieminen",
        "col3": "R. Nadal"
    },
    {
        "col0": "2015 Apia International Sydney",
        "col1": "D. Nestor",
        "col2": "R. Bopanna",
        "col3": "P. Kvitova"
    },
    {
        "col0": "2015 Ankara Cup",
        "col1": "M. Melnikova",
        "col2": "M. Melnikova",
        "col3": "I. Jorovic"
    },
    {
        "col0": "2015 Ando Securities Open",
        "col1": "M. Ninomiya",
        "col2": "Z. Shuai",
        "col3": "Z. Shuai"
    },
    {
        "col0": "2015 Amex-Istanbul Challenger",
        "col1": "A. Kuznetsov",
        "col2": "A. Kuznetsov",
        "col3": "K. Khachanov"
    },
    {
        "col0": "2015 Al Habtoor Tennis Challenge",
        "col1": "C. Buyukakcay",
        "col2": "C. Buyukakcay",
        "col3": "C. Buyukakcay"
    },
    {
        "col0": "2015 Aircel Chennai Open",
        "col1": "J. Marray",
        "col2": "S. Wawrinka",
        "col3": "S. Wawrinka"
    },
    {
        "col0": "2015 Aegon Surbiton Trophy",
        "col1": "X. Knoll",
        "col2": "M. Ebden",
        "col3": "M. Ebden"
    },
    {
        "col0": "2015 Aegon Ilkley Trophy",
        "col1": "M. Daniell",
        "col2": "D. Kudla",
        "col3": "D. Kudla"
    },
    {
        "col0": "2015 Aegon Eastbourne Trophy",
        "col1": "C. Vandeweghe",
        "col2": "A. Kontaveit",
        "col3": "A. Kontaveit"
    },
    {
        "col0": "2015 Aegon Classic",
        "col1": "C. S. Navarro",
        "col2": "C. S. Navarro",
        "col3": "A. Kerber"
    },
    {
        "col0": "2015 Aegon Championships",
        "col1": "N. Mahut",
        "col2": "A. Murray",
        "col3": "A. Murray"
    },
    {
        "col0": "2015 Advantage Cars Prague Open",
        "col1": "M. Middelkoop",
        "col2": "Maria Teresa Torro Flor",
        "col3": "Maria Teresa Torro Flor"
    },
    {
        "col0": "2015 Abierto Victoria",
        "col1": "Y. Bonaventure",
        "col2": "Y. Bonaventure",
        "col3": "E. Mertens"
    },
    {
        "col0": "2015 Abierto Tampico",
        "col1": "B. Krejcikova",
        "col2": "B. Krejcikova",
        "col3": "L. D. Lino"
    },
    {
        "col0": "2015 ATP World Tour Finals",
        "col1": "J. Rojer",
        "col2": "N. Djokovic",
        "col3": "N. Djokovic"
    },
    {
        "col0": "2015 ASB Classic",
        "col1": "S. Errani",
        "col2": "S. Errani",
        "col3": "V. Williams"
    },
    {
        "col0": "2015 ABN AMRO World Tennis Tournament",
        "col1": "J. Rojer",
        "col2": "H. Tecau",
        "col3": "S. Wawrinka"
    },
    {
        "col0": "2014 Western & Southern Open",
        "col1": "R. Kops-Jones",
        "col2": "R. Kops-Jones",
        "col3": "R. Federer"
    },
    {
        "col0": "2014 Visit Panama Cup de Chitre",
        "col1": "K. King",
        "col2": "W. Odesnik",
        "col3": "W. Odesnik"
    },
    {
        "col0": "2014 Visit Panama Cup",
        "col1": "F. Cermak",
        "col2": "P. Riba",
        "col3": "P. Riba"
    },
    {
        "col0": "2014 Visit Panama Cup de Chitre",
        "col1": "J. C. Spir",
        "col2": "W. Odesnik",
        "col3": "W. Odesnik"
    },
    {
        "col0": "2014 Visit Panama Cup",
        "col1": "F. Cermak",
        "col2": "F. Cermak",
        "col3": "P. Riba"
    },
    {
        "col0": "2014 Uruguay Open",
        "col1": "P. Cuevas",
        "col2": "P. Cuevas",
        "col3": "P. Cuevas"
    },
    {
        "col0": "2014 US Open",
        "col1": "E. Makarova",
        "col2": "B. Bryan",
        "col3": "S. Williams"
    },
    {
        "col0": "2014 USTA Tennis Classic of Macon",
        "col1": "M. Brengle",
        "col2": "K. Bondarenko",
        "col3": "K. Bondarenko"
    },
    {
        "col0": "2014 USTA Player Development Classic",
        "col1": "M. Krajicek",
        "col2": "M. Krajicek",
        "col3": "N. Gibbs"
    },
    {
        "col0": "2014 U.S. National Indoor Tennis Championships",
        "col1": "E. Butorac",
        "col2": "K. Nishikori",
        "col3": "K. Nishikori"
    },
    {
        "col0": "2014 Turk Telecom Izmir Cup",
        "col1": "K. Skupski",
        "col2": "B. Coric",
        "col3": "B. Coric"
    }
]