[
    {
        "col0": "Zhanghewan Pumped Storage Power Station",
        "col1": "1000000000",
        "col2": "5760000000000",
        "col3": "2003"
    },
    {
        "col0": "Yugadanavi Power Station",
        "col1": "300000000",
        "col2": "6480000000000000",
        "col3": "2007"
    },
    {
        "col0": "Yixing Pumped Storage Power Station",
        "col1": "1000000000",
        "col2": "5364000000000000",
        "col3": "2003"
    },
    {
        "col0": "Xilongchi Pumped Storage Power Station",
        "col1": "1200000000",
        "col2": "6480000000000000",
        "col3": "2001"
    },
    {
        "col0": "Xianyou Pumped Storage Power Station",
        "col1": "1200000000",
        "col2": "6840000000000000",
        "col3": "2009"
    },
    {
        "col0": "Xiangshuijian Pumped Storage Power Station",
        "col1": "1000000000",
        "col2": "6480000000000000",
        "col3": "2006"
    },
    {
        "col0": "Vao Power Plant",
        "col1": "25000000",
        "col2": "648000000000000",
        "col3": "2007"
    },
    {
        "col0": "Vianden Pumped Storage Plant",
        "col1": "220000000",
        "col2": "5940000000000000",
        "col3": "1959"
    },
    {
        "col0": "Velebit Pumped Storage Power Plant",
        "col1": "276000000",
        "col2": "1683000000000000",
        "col3": "1978"
    },
    {
        "col0": "Valle Solar Power Station",
        "col1": "100000000",
        "col2": "1224000000000000",
        "col3": "2009"
    },
    {
        "col0": "Vao Power Plant",
        "col1": "25000000",
        "col2": "648000000000000",
        "col3": "2007"
    },
    {
        "col0": "Uthuru Janani Power Station",
        "col1": "24000000",
        "col2": "633600000000000",
        "col3": "2012"
    },
    {
        "col0": "Uppudaluwa Wind Farm",
        "col1": "10500000",
        "col2": "94608000000000",
        "col3": "2010"
    },
    {
        "col0": "Tricastin Nuclear Power Plant",
        "col1": "3820000000",
        "col2": "90378000000000000",
        "col3": "1974"
    },
    {
        "col0": "Tongbai Pumped Storage Power Station",
        "col1": "1200000000",
        "col2": "10080000000000000",
        "col3": "2000"
    },
    {
        "col0": "Tihange Nuclear Power Station",
        "col1": "2985000000",
        "col2": "82800000000000000",
        "col3": "1970"
    },
    {
        "col0": "Three Mile Island Nuclear Generating Station",
        "col1": "852000000",
        "col2": "23922000000000000",
        "col3": "1968"
    },
    {
        "col0": "Te Apiti Wind Farm",
        "col1": "90750000",
        "col2": "928800000000000",
        "col3": "2003"
    },
    {
        "col0": "Tai'an Pumped Storage Power Station",
        "col1": "1000000000",
        "col2": "4680000000000000",
        "col3": "2000"
    },
    {
        "col0": "Tafila Wind Farm",
        "col1": "117000000",
        "col2": "1440000000000000",
        "col3": "2013"
    },
    {
        "col0": "THTR-300",
        "col1": "308000000",
        "col2": "3898800000000000",
        "col3": "1971"
    },
    {
        "col0": "Superphenix",
        "col1": "1242000000",
        "col2": "12211200000000000",
        "col3": "1976"
    },
    {
        "col0": "South Texas Nuclear Generating Station",
        "col1": "2760000000",
        "col2": "79844400000000000",
        "col3": "1975"
    },
    {
        "col0": "Somers Solar Center",
        "col1": "5000000",
        "col2": "19440000000000",
        "col3": "2012"
    },
    {
        "col0": "Soma Wind Farm",
        "col1": "140400000",
        "col2": "1458000000000000",
        "col3": "2009"
    },
    {
        "col0": "Solar Energy Generating Systems",
        "col1": "361000000",
        "col2": "2383200000000000",
        "col3": "1983"
    },
    {
        "col0": "Slieve Rushen Wind Farm",
        "col1": "54000000",
        "col2": "486000000000000",
        "col3": "2007"
    },
    {
        "col0": "Shisanling Pumped Storage Power Station",
        "col1": "800000000",
        "col2": "4485600000000000",
        "col3": "1988"
    },
    {
        "col0": "Shams Solar Power Station",
        "col1": "100000000",
        "col2": "756000000000000",
        "col3": "2010"
    },
    {
        "col0": "Seguwantivu and Vidatamunai Wind Farms",
        "col1": "20000000",
        "col2": "189216000000000",
        "col3": "2009"
    },
    {
        "col0": "Scout Moor Wind Farm",
        "col1": "65000000",
        "col2": "554400000000000",
        "col3": "2007"
    },
    {
        "col0": "Saint-Laurent Nuclear Power Plant",
        "col1": "1912000000",
        "col2": "46504800000000000",
        "col3": "1963"
    },
    {
        "col0": "Saint-Alban Nuclear Power Plant",
        "col1": "2600000000",
        "col2": "59277600000000000000",
        "col3": "1979"
    },
    {
        "col0": "Rio Grande Hydroelectric Complex",
        "col1": "750000000",
        "col2": "3517200000000000",
        "col3": "1976"
    },
    {
        "col0": "Qinghai Golmud Solar Park",
        "col1": "20160000",
        "col2": "120240000000000",
        "col3": "2011"
    },
    {
        "col0": "Pushihe Pumped Storage Power Station",
        "col1": "1200000000",
        "col2": "3600000000000000",
        "col3": "2006"
    },
    {
        "col0": "Project West Wind",
        "col1": "142600000",
        "col2": "1980000000000000",
        "col3": "2007"
    },
    {
        "col0": "Presenzano Hydroelectric Plant",
        "col1": "1000000000",
        "col2": "4593600000000000",
        "col3": "1979"
    },
    {
        "col0": "Penly Nuclear Power Plant",
        "col1": "2764000000",
        "col2": "69904800000000000",
        "col3": "1982"
    },
    {
        "col0": "Paluel Nuclear Power Plant",
        "col1": "5528000000",
        "col2": "123847200000000000",
        "col3": "1977"
    },
    {
        "col0": "Palo Verde Nuclear Generating Station",
        "col1": "3942000000",
        "col2": "105300000000000000",
        "col3": "1976"
    },
    {
        "col0": "Paks Nuclear Power Plant",
        "col1": "2000000000",
        "col2": "53344800000000000",
        "col3": "1967"
    },
    {
        "col0": "PS20 solar power plant",
        "col1": "20000000",
        "col2": "172800000000000",
        "col3": "2006"
    },
    {
        "col0": "PS10 solar power plant",
        "col1": "11000000",
        "col2": "84240000000000",
        "col3": "2004"
    },
    {
        "col0": "Ouarzazate Solar Power Station",
        "col1": "160000000",
        "col2": "1332000000000000",
        "col3": "2013"
    },
    {
        "col0": "Ormonde Wind Farm",
        "col1": "150000000",
        "col2": "1800000000000000",
        "col3": "2010"
    },
    {
        "col0": "Olkiluoto Nuclear Power Plant",
        "col1": "1760000000",
        "col2": "51364800000000000",
        "col3": "1973"
    },
    {
        "col0": "Nogent Nuclear Power Plant",
        "col1": "2726000000",
        "col2": "69591600000000000",
        "col3": "1981"
    },
    {
        "col0": "Nga Awa Purua Power Station",
        "col1": "140000000",
        "col2": "3960000000000000",
        "col3": "2008"
    }
]