[
    {
        "col0": "W. Ulrich",
        "col1": "Akron, Ohio",
        "col2": "Carleton College",
        "col3": "1921-3-12"
    },
    {
        "col0": "P. Berg",
        "col1": "Fort Myers, Florida",
        "col2": "University of Minnesota",
        "col3": "1918-2-13"
    },
    {
        "col0": "K. Venturi",
        "col1": "Rancho Mirage, California",
        "col2": "San Jose State Spartans",
        "col3": "1931-5-15"
    },
    {
        "col0": "J. Boros",
        "col1": "Fort Lauderdale, Florida",
        "col2": "Junior College of Connecticut",
        "col3": "1920-3-3"
    },
    {
        "col0": "J. Sweetser",
        "col1": "Bethesda, Maryland",
        "col2": "Yale University",
        "col3": "1902-4-18"
    },
    {
        "col0": "J. Hebert",
        "col1": "Houston",
        "col2": "University of Louisiana at Lafayette",
        "col3": "1923-2-14"
    },
    {
        "col0": "J. Weiller",
        "col1": "Ventura County, California",
        "col2": "Northwestern University",
        "col3": "1912-4-25"
    },
    {
        "col0": "H. Smith",
        "col1": "Detroit",
        "col2": "Missouri State University",
        "col3": "1908-5-22"
    },
    {
        "col0": "H. Hutchinson",
        "col1": "Chelsea, London",
        "col2": "Oxford University",
        "col3": "1859-5-16"
    },
    {
        "col0": "F. Souchak",
        "col1": "Pebble Beach, California",
        "col2": "University of Pittsburgh",
        "col3": "1915-4-30"
    },
    {
        "col0": "E. Stulb",
        "col1": "Augusta, Georgia",
        "col2": "Augusta State University",
        "col3": "1923-6-23"
    },
    {
        "col0": "D. Downey",
        "col1": "Lee County, Alabama",
        "col2": "Auburn University",
        "col3": "1980-12-6"
    },
    {
        "col0": "D. Morey",
        "col1": "High Point, North Carolina",
        "col2": "LSU Tigers basketball",
        "col3": "1918-12-01"
    },
    {
        "col0": "C. Egan",
        "col1": "Everett, Washington",
        "col2": "Harvard University",
        "col3": "1884-8-21"
    },
    {
        "col0": "B. Jones",
        "col1": "Atlanta",
        "col2": "Georgia Institute of Technology",
        "col3": "1902-3-17"
    },
    {
        "col0": "B. Casper",
        "col1": "Utah",
        "col2": "University of Notre Dame",
        "col3": "1931-6-24"
    },
    {
        "col0": "B. Hanson",
        "col1": "Twin Falls, Idaho",
        "col2": "University of Wisconsin",
        "col3": "1924-12-5"
    },
    {
        "col0": "A. Palmer",
        "col1": "Pittsburgh",
        "col2": "Wake Forest College",
        "col3": "1929-9-10"
    }
]