[
    {
        "col0": "Wright Pass",
        "col1": "Marie Byrd Land",
        "col2": "Marie Byrd Land",
        "col3": "Marie Byrd Land",
        "col4": "Marie Byrd Land"
    },
    {
        "col0": "Wolverine Pass",
        "col1": "British Columbia Interior",
        "col2": "British Columbia Interior",
        "col3": "British Columbia Interior",
        "col4": "British Columbia"
    },
    {
        "col0": "Webster Pass",
        "col1": "Marie Byrd Land",
        "col2": "Marie Byrd Land",
        "col3": "Marie Byrd Land",
        "col4": "Marie Byrd Land"
    },
    {
        "col0": "Warner Pass",
        "col1": "British Columbia",
        "col2": "British Columbia",
        "col3": "British Columbia",
        "col4": "British Columbia"
    },
    {
        "col0": "Wapiti Pass",
        "col1": "British Columbia",
        "col2": "British Columbia",
        "col3": "British Columbia",
        "col4": "British Columbia Interior"
    },
    {
        "col0": "Vermilion Pass",
        "col1": "British Columbia",
        "col2": "British Columbia",
        "col3": "British Columbia",
        "col4": "British Columbia"
    },
    {
        "col0": "Tyoax Pass",
        "col1": "British Columbia",
        "col2": "British Columbia",
        "col3": "British Columbia",
        "col4": "British Columbia"
    },
    {
        "col0": "Tonquin Pass",
        "col1": "British Columbia",
        "col2": "British Columbia",
        "col3": "British Columbia",
        "col4": "British Columbia"
    },
    {
        "col0": "Taylor Pass",
        "col1": "British Columbia",
        "col2": "British Columbia",
        "col3": "British Columbia",
        "col4": "British Columbia"
    },
    {
        "col0": "Surrey Lake Summit",
        "col1": "British Columbia",
        "col2": "British Columbia",
        "col3": "British Columbia",
        "col4": "British Columbia"
    },
    {
        "col0": "Sunday Summit",
        "col1": "British Columbia",
        "col2": "British Columbia Interior",
        "col3": "British Columbia",
        "col4": "British Columbia"
    },
    {
        "col0": "Summit Pass",
        "col1": "British Columbia",
        "col2": "British Columbia",
        "col3": "British Columbia",
        "col4": "British Columbia Interior"
    },
    {
        "col0": "Strawn Pass",
        "col1": "Marie Byrd Land",
        "col2": "Marie Byrd Land",
        "col3": "Marie Byrd Land",
        "col4": "Marie Byrd Land"
    },
    {
        "col0": "Sinclair Pass",
        "col1": "British Columbia",
        "col2": "British Columbia Interior",
        "col3": "British Columbia Interior",
        "col4": "British Columbia Interior"
    },
    {
        "col0": "Sifton Pass",
        "col1": "British Columbia",
        "col2": "British Columbia",
        "col3": "British Columbia",
        "col4": "British Columbia"
    },
    {
        "col0": "Rozca",
        "col1": "Slovenia",
        "col2": "Slovenia",
        "col3": "Slovenia",
        "col4": "Slovenia"
    },
    {
        "col0": "Richter Pass",
        "col1": "British Columbia",
        "col2": "British Columbia",
        "col3": "British Columbia",
        "col4": "British Columbia"
    },
    {
        "col0": "Relief Pass",
        "col1": "Antarctica",
        "col2": "Antarctica",
        "col3": "Antarctica",
        "col4": "Antarctica"
    },
    {
        "col0": "Reece Pass",
        "col1": "Marie Byrd Land",
        "col2": "Marie Byrd Land",
        "col3": "Marie Byrd Land",
        "col4": "Marie Byrd Land"
    },
    {
        "col0": "Railroad Pass",
        "col1": "British Columbia",
        "col2": "British Columbia",
        "col3": "British Columbia",
        "col4": "British Columbia"
    },
    {
        "col0": "Pennask Summit",
        "col1": "British Columbia",
        "col2": "British Columbia",
        "col3": "British Columbia",
        "col4": "British Columbia"
    },
    {
        "col0": "Parker Pass",
        "col1": "Marie Byrd Land",
        "col2": "Marie Byrd Land",
        "col3": "Marie Byrd Land",
        "col4": "Marie Byrd Land"
    },
    {
        "col0": "Palliser Pass",
        "col1": "British Columbia",
        "col2": "British Columbia",
        "col3": "British Columbia",
        "col4": "British Columbia"
    },
    {
        "col0": "Muncho Pass",
        "col1": "British Columbia",
        "col2": "British Columbia",
        "col3": "British Columbia",
        "col4": "British Columbia Interior"
    },
    {
        "col0": "Monkman Pass",
        "col1": "British Columbia",
        "col2": "British Columbia",
        "col3": "British Columbia",
        "col4": "British Columbia"
    },
    {
        "col0": "Monashee Pass",
        "col1": "British Columbia",
        "col2": "British Columbia",
        "col3": "British Columbia",
        "col4": "British Columbia"
    },
    {
        "col0": "Metsantan Pass",
        "col1": "British Columbia Interior",
        "col2": "British Columbia",
        "col3": "British Columbia",
        "col4": "British Columbia"
    },
    {
        "col0": "McGregor Pass",
        "col1": "British Columbia",
        "col2": "British Columbia",
        "col3": "British Columbia",
        "col4": "British Columbia"
    },
    {
        "col0": "McGillivray Pass",
        "col1": "British Columbia",
        "col2": "British Columbia",
        "col3": "British Columbia",
        "col4": "British Columbia"
    },
    {
        "col0": "Kotal-e Khushk",
        "col1": "Afghanistan",
        "col2": "Afghanistan",
        "col3": "Afghanistan",
        "col4": "Afghanistan"
    },
    {
        "col0": "Kiwi Pass",
        "col1": "Antarctica",
        "col2": "Antarctica",
        "col3": "Antarctica",
        "col4": "Antarctica"
    },
    {
        "col0": "Kakwa Pass",
        "col1": "British Columbia",
        "col2": "British Columbia",
        "col3": "British Columbia",
        "col4": "British Columbia"
    },
    {
        "col0": "Joss Pass",
        "col1": "British Columbia",
        "col2": "British Columbia",
        "col3": "British Columbia",
        "col4": "British Columbia"
    }
]