[
    {
        "col0": "Zapresic",
        "col1": "1",
        "col2": "18960000",
        "col3": "1"
    },
    {
        "col0": "Xi'an",
        "col1": "8",
        "col2": "2420700000",
        "col3": "1"
    },
    {
        "col0": "Taoyuan, Taiwan",
        "col1": "8",
        "col2": "1140000000",
        "col3": "1"
    },
    {
        "col0": "Tampa, Florida",
        "col1": "-4",
        "col2": "2077947460",
        "col3": "1"
    },
    {
        "col0": "Taipei",
        "col1": "8",
        "col2": "1140000000",
        "col3": "1"
    },
    {
        "col0": "Tainan",
        "col1": "8",
        "col2": "259000000",
        "col3": "1"
    },
    {
        "col0": "Taichung",
        "col1": "8",
        "col2": "492000000",
        "col3": "1"
    },
    {
        "col0": "Sao Jose dos Campos",
        "col1": "-2",
        "col2": "298990000",
        "col3": "1"
    },
    {
        "col0": "Sao Jose do Rio Preto",
        "col1": "-2",
        "col2": "117430000",
        "col3": "1"
    },
    {
        "col0": "Sao Carlos",
        "col1": "-2",
        "col2": "67250000",
        "col3": "1"
    },
    {
        "col0": "Stamford, Connecticut",
        "col1": "-4",
        "col2": "1205000000",
        "col3": "1"
    },
    {
        "col0": "St. Louis",
        "col1": "-5",
        "col2": "2392113018",
        "col3": "1"
    },
    {
        "col0": "Southampton",
        "col1": "0",
        "col2": "72800000",
        "col3": "1"
    },
    {
        "col0": "Skopje",
        "col1": "1",
        "col2": "337800000",
        "col3": "1"
    }
]