[
    {
        "col0": "A. Zeilinger",
        "col1": "Austria",
        "col2": "P. Jianwei",
        "col3": "1945-05-20"
    },
    {
        "col0": "A. J. Leggett",
        "col1": "United States",
        "col2": "A. Caldeira",
        "col3": "1938-03-26"
    },
    {
        "col0": "A. S. Tanenbaum",
        "col1": "Amsterdam, Netherlands",
        "col2": "F. Kaashoek",
        "col3": "1944-03-16"
    },
    {
        "col0": "A. Fabian",
        "col1": "United Kingdom",
        "col2": "C. Crawford",
        "col3": "1948-02-20"
    },
    {
        "col0": "A. Geim",
        "col1": "Manchester",
        "col2": "K. Novoselov",
        "col3": "1958-10-21"
    },
    {
        "col0": "A. Katok",
        "col1": "United States",
        "col2": "R. J. Spatzier",
        "col3": "1944-08-09"
    },
    {
        "col0": "A. Church",
        "col1": "United States",
        "col2": "A. Turing",
        "col3": "1903-06-14"
    },
    {
        "col0": "A. Nevins",
        "col1": "United States",
        "col2": "B. Bellush",
        "col3": "1890-05-20"
    },
    {
        "col0": "A. Ramakrishnan",
        "col1": "British Raj",
        "col2": "A. P. Balachandran",
        "col3": "1923-08-09"
    },
    {
        "col0": "A. W. Maurer",
        "col1": "Saarbrucken",
        "col2": "University of the Saarland",
        "col3": "1945-10-03"
    },
    {
        "col0": "A. Kleiner",
        "col1": "Switzerland",
        "col2": "A. Einstein",
        "col3": "1849-04-24"
    },
    {
        "col0": "A. Stakhov",
        "col1": "Canada",
        "col2": "PhD",
        "col3": "1939-05-07"
    },
    {
        "col0": "A. Ghika",
        "col1": "Romania",
        "col2": "P. Mocanu",
        "col3": "1902-06-22"
    },
    {
        "col0": "A. Bressan",
        "col1": "Pennsylvania",
        "col2": "S. Bianchini",
        "col3": "1956-06-15"
    },
    {
        "col0": "A. Shiryaev",
        "col1": "Russia",
        "col2": "D. Kramkov",
        "col3": "1934-10-12"
    },
    {
        "col0": "A. P. Wills",
        "col1": "United States",
        "col2": "I. I. Rabi",
        "col3": "1873-1-1"
    },
    {
        "col0": "A. Brudzewski",
        "col1": "Poland",
        "col2": "N. Copernicus",
        "col3": "1445-1-1"
    },
    {
        "col0": "A. B. Wood",
        "col1": "United Kingdom",
        "col2": "M. M. Qurashi",
        "col3": "1890-1-1"
    },
    {
        "col0": "A. Turing",
        "col1": "Wilmslow",
        "col2": "R. Gandy",
        "col3": "1912-06-23"
    }
]