[
    {
        "col0": "Southern at Heart",
        "col1": "LEG",
        "col2": "D. Phillips",
        "col3": "2016-02-28"
    },
    {
        "col0": "Soundaravalli",
        "col1": "Prabhu Nepal",
        "col2": "Madhoo",
        "col3": "2011-01-13"
    },
    {
        "col0": "Sos mi hombre",
        "col1": "Adrian Suar",
        "col2": "L. Castro",
        "col3": "2013-06-24"
    },
    {
        "col0": "Sons of Tucson",
        "col1": "Justin Berfield",
        "col2": "T. Labine",
        "col3": "2010-08-01"
    },
    {
        "col0": "Sons of Anarchy",
        "col1": "Liz Sagal",
        "col2": "R. Perlman",
        "col3": "2014-12-09"
    },
    {
        "col0": "Sondha Bandham",
        "col1": "UTV Software Communications",
        "col2": "Annapoorna",
        "col3": "2015-08-08"
    },
    {
        "col0": "Son of the Beach",
        "col1": "Gil Wadsworth",
        "col2": "L. Arcieri",
        "col3": "2002-10-01"
    },
    {
        "col0": "Son",
        "col1": "Kerem Catay",
        "col2": "E. A. Duzyatan",
        "col3": "2012-06-25"
    },
    {
        "col0": "Solo",
        "col1": "Gareth Gwenlan",
        "col2": "E. Gray",
        "col3": "1982-10-17"
    },
    {
        "col0": "Solamente vos",
        "col1": "Pol-ka",
        "col2": "A. Suar",
        "col3": "2014-01-20"
    },
    {
        "col0": "Sohaagi Sindoor",
        "col1": "Ekta Kapoor",
        "col2": "S. Chakraborty",
        "col3": "2016-06-11"
    },
    {
        "col0": "Socialite Belle Panchanne: The Wife Is a Superheroine!",
        "col1": "Marvelous Entertainment",
        "col2": "N. Hiroshi",
        "col3": "2007-06-26"
    },
    {
        "col0": "Soap",
        "col1": "Susan Harris",
        "col2": "R. Urich",
        "col3": "1981-04-20"
    },
    {
        "col0": "So What Now?",
        "col1": "Tony Dow",
        "col2": "S. O'Donnell",
        "col3": "2001-05-22"
    },
    {
        "col0": "Snuff Box",
        "col1": "Charlie Hanson",
        "col2": "R. Fulcher",
        "col3": "2006-04-03"
    },
    {
        "col0": "Smith and Goody",
        "col1": "Thames Television",
        "col2": "M. Smith",
        "col3": "1980-12-30"
    }
]