[
    {
        "col0": "Zombie Hunter",
        "col1": "K. Hirai",
        "col2": "Y. Kyung-il",
        "col3": "4"
    },
    {
        "col0": "Zettai Karen Children",
        "col1": "G. Mikumo",
        "col2": "T. Shiina",
        "col3": "5"
    },
    {
        "col0": "Zetsuai 1989",
        "col1": "M. Ozaki",
        "col2": "M. Ozaki",
        "col3": "1"
    },
    {
        "col0": "Yurikuma Arashi",
        "col1": "K. Ikuhara",
        "col2": "A. Morishima",
        "col3": "2"
    },
    {
        "col0": "Yu-Gi-Oh!",
        "col1": "K. Takahashi",
        "col2": "K. Takahashi",
        "col3": "38"
    },
    {
        "col0": "Yakushiji Ryoko no Kaiki Jikenbo",
        "col1": "Y. Tanaka",
        "col2": "N. Kakinouchi",
        "col3": "8"
    },
    {
        "col0": "XxxHolic",
        "col1": "N. Isin",
        "col2": "Clamp",
        "col3": "3"
    },
    {
        "col0": "Wounded Man",
        "col1": "K. Koike",
        "col2": "R. Ikegami",
        "col3": "11"
    },
    {
        "col0": "White Album",
        "col1": "Leaf",
        "col2": "C. Abeno",
        "col3": "3"
    },
    {
        "col0": "Welcome to the N.H.K.",
        "col1": "T. Takimoto",
        "col2": "Y. ABe",
        "col3": "8"
    },
    {
        "col0": "Wedding Peach",
        "col1": "S. Tomita",
        "col2": "N. Yazawa",
        "col3": "1"
    },
    {
        "col0": "Watashitachi no Tamura-kun",
        "col1": "Y. Takemiya",
        "col2": "Yasu",
        "col3": "2"
    },
    {
        "col0": "Violence Jack",
        "col1": "G. Nagai",
        "col2": "G. Nagai",
        "col3": "1"
    },
    {
        "col0": "Usotsuki Mii-kun to Kowareta Maa-chan",
        "col1": "H. Iruma",
        "col2": "Hidari",
        "col3": "1"
    },
    {
        "col0": "Until the Full Moon",
        "col1": "S. Matoh",
        "col2": "S. Matoh",
        "col3": "2"
    },
    {
        "col0": "Umineko When They Cry",
        "col1": "Ryukishi07",
        "col2": "E. Mizuno",
        "col3": "1"
    },
    {
        "col0": "Tytania",
        "col1": "Y. Tanaka",
        "col2": "H. Mikimoto",
        "col3": "3"
    },
    {
        "col0": "Toradora!",
        "col1": "Y. Takemiya",
        "col2": "Yasu",
        "col3": "3"
    },
    {
        "col0": "Tomoyo After: It's a Wonderful Life",
        "col1": "Key",
        "col2": "Y. Sumiyoshi",
        "col3": "1"
    },
    {
        "col0": "Tokyo Mew Mew",
        "col1": "R. Yoshida",
        "col2": "M. Ikumi",
        "col3": "2"
    },
    {
        "col0": "Tokyo Ghoul",
        "col1": "S. Ishida",
        "col2": "S. Ishida",
        "col3": "1"
    },
    {
        "col0": "To Love-Ru",
        "col1": "S. Hasemi",
        "col2": "K. Yabuki",
        "col3": "16"
    },
    {
        "col0": "The World God Only Knows",
        "col1": "T. Wakaki",
        "col2": "T. Wakaki",
        "col3": "26"
    },
    {
        "col0": "The Twelve Kingdoms",
        "col1": "F. Ono",
        "col2": "A. Yamada",
        "col3": "8"
    },
    {
        "col0": "The Sword of Paros",
        "col1": "K. Kurimoto",
        "col2": "Y. Igarashi",
        "col3": "3"
    },
    {
        "col0": "The Mystic Archives of Dantalian",
        "col1": "G. Mikumo",
        "col2": "C. Abeno",
        "col3": "1"
    },
    {
        "col0": "The Kurosagi Corpse Delivery Service",
        "col1": "E. Otsuka",
        "col2": "H. Yamazaki",
        "col3": "20"
    },
    {
        "col0": "The Kindaichi Case Files",
        "col1": "S. Kibayashi",
        "col2": "F. Sato",
        "col3": "1"
    },
    {
        "col0": "The Heroic Legend of Arslan",
        "col1": "Y. Tanaka",
        "col2": "Y. Amano",
        "col3": "5"
    },
    {
        "col0": "The Familiar of Zero",
        "col1": "N. Yamaguchi",
        "col2": "E. Usatsuka",
        "col3": "2"
    },
    {
        "col0": "Sword Gai",
        "col1": "T. Inoue",
        "col2": "K. Amemiya",
        "col3": "6"
    },
    {
        "col0": "Sword Art Online",
        "col1": "K. Sigsawa",
        "col2": "K. Kuroboshi",
        "col3": "4"
    },
    {
        "col0": "Suzuka",
        "col1": "K. Seo",
        "col2": "K. Seo",
        "col3": "18"
    },
    {
        "col0": "Strike Witches",
        "col1": "H. Shimada",
        "col2": "H. Shimada",
        "col3": "1"
    },
    {
        "col0": "Strawberry Panic!",
        "col1": "S. Kimino",
        "col2": "C. Maki",
        "col3": "2"
    },
    {
        "col0": "Strain",
        "col1": "Buronson",
        "col2": "R. Ikegami",
        "col3": "5"
    },
    {
        "col0": "Steam Detectives",
        "col1": "K. Asamiya",
        "col2": "K. Asamiya",
        "col3": "2"
    },
    {
        "col0": "Starship Operators",
        "col1": "R. Mizuno",
        "col2": "K. Yamane",
        "col3": "6"
    },
    {
        "col0": "Star of the Giants",
        "col1": "I. Kajiwara",
        "col2": "N. Kawasaki",
        "col3": "19"
    },
    {
        "col0": "Star of Guidance",
        "col1": "I. Ogawa",
        "col2": "R. Murata",
        "col3": "4"
    },
    {
        "col0": "Star Wars",
        "col1": "G. Lucas",
        "col2": "K. Asamiya",
        "col3": "2"
    },
    {
        "col0": "Spriggan",
        "col1": "H. Takashige",
        "col2": "R. Minagawa",
        "col3": "11"
    },
    {
        "col0": "Spider-Man: The Manga",
        "col1": "K. Hirai",
        "col2": "R. Ikegami",
        "col3": "5"
    },
    {
        "col0": "Spice and Wolf",
        "col1": "I. Hasekura",
        "col2": "J. Ayakura",
        "col3": "13"
    },
    {
        "col0": "Sorcerer Hunters",
        "col1": "S. Akahori",
        "col2": "R. Omishi",
        "col3": "3"
    },
    {
        "col0": "Sola",
        "col1": "N. Hisaya",
        "col2": "C. Abeno",
        "col3": "2"
    },
    {
        "col0": "Sohryuden: Legend of the Dragon Kings",
        "col1": "Y. Tanaka",
        "col2": "Y. Amano",
        "col3": "5"
    },
    {
        "col0": "Slayers",
        "col1": "H. Kanzaka",
        "col2": "Slayers",
        "col3": "1"
    },
    {
        "col0": "Skull Man",
        "col1": "S. Ishinomori",
        "col2": "Meimu",
        "col3": "2"
    },
    {
        "col0": "Sket Dance",
        "col1": "K. Shinohara",
        "col2": "K. Shinohara",
        "col3": "32"
    },
    {
        "col0": "Shonen Onmyoji",
        "col1": "M. YA<<ki",
        "col2": "S. Asagi",
        "col3": "1"
    },
    {
        "col0": "Shutendoji",
        "col1": "G. Nagai",
        "col2": "G. Nagai",
        "col3": "2"
    },
    {
        "col0": "Shuffle!",
        "col1": "Navel",
        "col2": "H. Suzuhira",
        "col3": "6"
    },
    {
        "col0": "Shishunki Miman Okotowari",
        "col1": "Y. Watase",
        "col2": "Y. Watase",
        "col3": "1"
    },
    {
        "col0": "Shion no O",
        "col1": "N. Hayashiba",
        "col2": "J. Ando",
        "col3": "8"
    },
    {
        "col0": "Shina Dark",
        "col1": "B. Nakayama",
        "col2": "Y. Higa",
        "col3": "4"
    },
    {
        "col0": "Shiki",
        "col1": "F. Ono",
        "col2": "R. Fujisaki",
        "col3": "2"
    },
    {
        "col0": "Shattered Angels",
        "col1": "Kaishaku",
        "col2": "Kaishaku",
        "col3": "3"
    },
    {
        "col0": "Shakugan no Shana",
        "col1": "Y. Takahashi",
        "col2": "N. Ito",
        "col3": "5"
    },
    {
        "col0": "Shonen Onmyoji",
        "col1": "M. YA<<ki",
        "col2": "S. Asagi",
        "col3": "1"
    },
    {
        "col0": "Seraph of the End",
        "col1": "T. Kagami",
        "col2": "Y. Yamamoto",
        "col3": "1"
    },
    {
        "col0": "Sankarea: Undying Love",
        "col1": "M. Hattori",
        "col2": "M. Hattori",
        "col3": "11"
    },
    {
        "col0": "Sanctuary",
        "col1": "Buronson",
        "col2": "R. Ikegami",
        "col3": "12"
    },
    {
        "col0": "Samurai Executioner",
        "col1": "K. Koike",
        "col2": "G. Kojima",
        "col3": "10"
    },
    {
        "col0": "Rurouni Kenshin",
        "col1": "N. Watsuki",
        "col2": "N. Watsuki",
        "col3": "1"
    },
    {
        "col0": "Red Data Girl",
        "col1": "N. Ogiwara",
        "col2": "M. Kishida",
        "col3": "4"
    },
    {
        "col0": "Record of Lodoss War",
        "col1": "R. Mizuno",
        "col2": "A. Yamada",
        "col3": "2"
    },
    {
        "col0": "Reborn!",
        "col1": "A. Amano",
        "col2": "A. Amano",
        "col3": "5"
    },
    {
        "col0": "Queen Millennia",
        "col1": "L. Matsumoto",
        "col2": "L. Matsumoto",
        "col3": "2"
    },
    {
        "col0": "Psychometrer Eiji",
        "col1": "Y. Ando",
        "col2": "M. Asaki",
        "col3": "9"
    },
    {
        "col0": "Psycho Busters",
        "col1": "T. Agi",
        "col2": "R. Ayamine",
        "col3": "3"
    },
    {
        "col0": "Princess Ai",
        "col1": "C. Love",
        "col2": "A. Yazawa",
        "col3": "2"
    },
    {
        "col0": "Pokemon Adventures",
        "col1": "H. Kusaka",
        "col2": "S. Yamamoto",
        "col3": "52"
    },
    {
        "col0": "Platinum End",
        "col1": "T. Ohba",
        "col2": "T. Obata",
        "col3": "3"
    },
    {
        "col0": "Pita-Ten",
        "col1": "Koge-Donbo",
        "col2": "Koge-Donbo",
        "col3": "3"
    },
    {
        "col0": "Patlabor",
        "col1": "M. Oshii",
        "col2": "M. Yuki",
        "col3": "2"
    },
    {
        "col0": "Path of the Assassin",
        "col1": "K. Koike",
        "col2": "G. Kojima",
        "col3": "15"
    },
    {
        "col0": "Pandora in the Crimson Shell: Ghost Urn",
        "col1": "M. Shirow",
        "col2": "K. Rikudo",
        "col3": "8"
    },
    {
        "col0": "Otome wa Boku ni Koishiteru",
        "col1": "C. Box",
        "col2": "K. Araki",
        "col3": "2"
    },
    {
        "col0": "One-Punch Man",
        "col1": "One",
        "col2": "Y. Murata",
        "col3": "11"
    },
    {
        "col0": "Old Boy",
        "col1": "G. Tsuchiya",
        "col2": "N. Minegishi",
        "col3": "8"
    },
    {
        "col0": "Oi! Ryoma",
        "col1": "T. Takeda",
        "col2": "Y. Koyama",
        "col3": "23"
    },
    {
        "col0": "Ohayo! Spank",
        "col1": "S. Yukimuro",
        "col2": "S. Takanashi",
        "col3": "7"
    },
    {
        "col0": "Oh My Goddess!",
        "col1": "Y. Toma",
        "col2": "K. Fujishima",
        "col3": "48"
    },
    {
        "col0": "Nurse Angel Ririka SOS",
        "col1": "Y. Akimoto",
        "col2": "K. Ikeno",
        "col3": "4"
    },
    {
        "col0": "Nisekoi",
        "col1": "N. Komi",
        "col2": "N. Komi",
        "col3": "2"
    },
    {
        "col0": "Multiple Personality Detective Psycho",
        "col1": "E. Otsuka",
        "col2": "S. Tajima",
        "col3": "24"
    },
    {
        "col0": "Moribito: Guardian of the Spirit",
        "col1": "N. Uehashi",
        "col2": "K. Fujiwara",
        "col3": "2"
    },
    {
        "col0": "Mobile Suit Gundam: Char's Counterattack",
        "col1": "Y. Tomino",
        "col2": "K. Tokita",
        "col3": "1"
    },
    {
        "col0": "Mermaid Melody Pichi Pichi Pitch",
        "col1": "M. Yokote",
        "col2": "P. Hanamori",
        "col3": "7"
    },
    {
        "col0": "Meg and Seron",
        "col1": "K. Sigsawa",
        "col2": "K. Kuroboshi",
        "col3": "7"
    },
    {
        "col0": "Medaka Box",
        "col1": "N. Isin",
        "col2": "A. Akatsuki",
        "col3": "22"
    },
    {
        "col0": "Maze",
        "col1": "S. Akahori",
        "col2": "R. Omishi",
        "col3": "6"
    },
    {
        "col0": "Mayoi Neko Overrun!",
        "col1": "T. Matsu",
        "col2": "K. Yabuki",
        "col3": "2"
    },
    {
        "col0": "Marriage Royale",
        "col1": "Navel",
        "col2": "H. Suzuhira",
        "col3": "7"
    },
    {
        "col0": "Marmalade Boy",
        "col1": "W. Yoshizumi",
        "col2": "W. Yoshizumi",
        "col3": "4"
    },
    {
        "col0": "Mardock Scramble",
        "col1": "T. Ubukata",
        "col2": "K. Terada",
        "col3": "3"
    },
    {
        "col0": "Mahoromatic",
        "col1": "B. Nakayama",
        "col2": "B. Ditama",
        "col3": "8"
    },
    {
        "col0": "Madara",
        "col1": "E. Otsuka",
        "col2": "S. Tajima",
        "col3": "5"
    },
    {
        "col0": "Maboroshi Panty",
        "col1": "Y. Nagai",
        "col2": "G. Nagai",
        "col3": "3"
    },
    {
        "col0": "Lucky Star",
        "col1": "K. Yoshimizu",
        "col2": "K. Yoshimizu",
        "col3": "1"
    },
    {
        "col0": "Loveless",
        "col1": "Y. Koga",
        "col2": "Y. Koga",
        "col3": "12"
    },
    {
        "col0": "Love Stage!!",
        "col1": "E. Eiki",
        "col2": "M. Tsuda",
        "col3": "3"
    },
    {
        "col0": "Lord",
        "col1": "Buronson",
        "col2": "R. Ikegami",
        "col3": "22"
    },
    {
        "col0": "Lone Wolf and Cub",
        "col1": "K. Koike",
        "col2": "G. Kojima",
        "col3": "28"
    },
    {
        "col0": "Listen to Me, Girls. I Am Your Father!",
        "col1": "T. Matsu",
        "col2": "T. Ejiri",
        "col3": "1"
    },
    {
        "col0": "List of Pokemon Black and White chapters",
        "col1": "H. Kusaka",
        "col2": "S. Yamamoto",
        "col3": "20"
    },
    {
        "col0": "Lillia and Treize",
        "col1": "K. Sigsawa",
        "col2": "K. Kuroboshi",
        "col3": "2"
    },
    {
        "col0": "Library War",
        "col1": "H. Arikawa",
        "col2": "S. Adabana",
        "col3": "1"
    },
    {
        "col0": "Legend of the Galactic Heroes",
        "col1": "Y. Tanaka",
        "col2": "N. Kato",
        "col3": "4"
    },
    {
        "col0": "Lady Snowblood",
        "col1": "K. Koike",
        "col2": "K. Kamimura",
        "col3": "4"
    },
    {
        "col0": "Kuroko's Basketball",
        "col1": "T. Fujimaki",
        "col2": "T. Fujimaki",
        "col3": "2"
    },
    {
        "col0": "Kure-nai",
        "col1": "K. Katayama",
        "col2": "Y. Yamamoto",
        "col3": "4"
    },
    {
        "col0": "Kitchen Princess",
        "col1": "M. Kobayashi",
        "col2": "N. Ando",
        "col3": "1"
    },
    {
        "col0": "Kino's Journey",
        "col1": "K. Sigsawa",
        "col2": "K. Kuroboshi",
        "col3": "19"
    },
    {
        "col0": "Kiddy Grade",
        "col1": "F. Shimo",
        "col2": "H. Kimura",
        "col3": "2"
    },
    {
        "col0": "Kiddy Girl-and",
        "col1": "H. Kimura",
        "col2": "M. Kadonosono",
        "col3": "2"
    },
    {
        "col0": "Kerberos Panzer Cop",
        "col1": "M. Oshii",
        "col2": "K. Fujiwara",
        "col3": "1"
    },
    {
        "col0": "Kenji",
        "col1": "M. Ryuchi",
        "col2": "Y. Fujiwara",
        "col3": "21"
    },
    {
        "col0": "Kekko Kamen",
        "col1": "G. Nagai",
        "col2": "G. Nagai",
        "col3": "2"
    },
    {
        "col0": "Kashimashi: Girl Meets Girl",
        "col1": "S. Akahori",
        "col2": "Y. Katsura",
        "col3": "5"
    },
    {
        "col0": "Karasuma Kyoko no Jikenbo",
        "col1": "O. Hiroi",
        "col2": "Y. Kozaki",
        "col3": "10"
    },
    {
        "col0": "Karakuri DA'ji Ultimo",
        "col1": "S. Lee",
        "col2": "H. Takei",
        "col3": "12"
    },
    {
        "col0": "Kara no Kyokai",
        "col1": "K. Nasu",
        "col2": "T. Takeuchi",
        "col3": "2"
    },
    {
        "col0": "Kanon",
        "col1": "Key",
        "col2": "I. Hinoue",
        "col3": "2"
    },
    {
        "col0": "Kamen Rider Spirits",
        "col1": "S. Ishinomori",
        "col2": "K. Muraeda",
        "col3": "10"
    },
    {
        "col0": "Kamasutra",
        "col1": "G. Nagai",
        "col2": "G. Nagai",
        "col3": "4"
    },
    {
        "col0": "Judgement Chime",
        "col1": "Navel",
        "col2": "A. Nishimata",
        "col3": "1"
    },
    {
        "col0": "Joshiraku",
        "col1": "K. Kumeta",
        "col2": "Yasu",
        "col3": "6"
    },
    {
        "col0": "JoJo's Bizarre Adventure",
        "col1": "N. Isin",
        "col2": "H. Araki",
        "col3": "117"
    },
    {
        "col0": "Japan",
        "col1": "Buronson",
        "col2": "K. Miura",
        "col3": "1"
    },
    {
        "col0": "Humanity Has Declined",
        "col1": "R. Tanaka",
        "col2": "S. Tobe",
        "col3": "1"
    },
    {
        "col0": "Hulk: The Manga",
        "col1": "K. Koike",
        "col2": "H. Trimpe",
        "col3": "23"
    },
    {
        "col0": "HoneyComing",
        "col1": "Hooksoft",
        "col2": "Y. Kiriga",
        "col3": "1"
    },
    {
        "col0": "Hikaru no Go",
        "col1": "Y. Hotta",
        "col2": "T. Obata",
        "col3": "23"
    },
    {
        "col0": "Higurashi When They Cry",
        "col1": "Ryukishi07",
        "col2": "K. Suzuragi",
        "col3": "4"
    },
    {
        "col0": "Highschool of the Dead",
        "col1": "D. Sato",
        "col2": "S. Sato",
        "col3": "7"
    },
    {
        "col0": "High School DxD",
        "col1": "I. Ishibumi",
        "col2": "Miyama-Zero",
        "col3": "9"
    },
    {
        "col0": "Hidamari Sketch",
        "col1": "U. Aoki",
        "col2": "U. Aoki",
        "col3": "2"
    },
    {
        "col0": "Hibiki's Magic",
        "col1": "J. Maeda",
        "col2": "R. Izumi",
        "col3": "4"
    },
    {
        "col0": "Heaven's Memo Pad",
        "col1": "H. Sugii",
        "col2": "M. Kishida",
        "col3": "3"
    },
    {
        "col0": "Heaven's Lost Property",
        "col1": "S. Minazuki",
        "col2": "S. Minazuki",
        "col3": "20"
    },
    {
        "col0": "Heat",
        "col1": "Buronson",
        "col2": "R. Ikegami",
        "col3": "17"
    },
    {
        "col0": "Hayate the Combat Butler",
        "col1": "K. Hata",
        "col2": "K. Hata",
        "col3": "2"
    },
    {
        "col0": "Haruhi Suzumiya",
        "col1": "N. Tanigawa",
        "col2": "N. Ito",
        "col3": "1"
    },
    {
        "col0": "Haru Natsu Aki Fuyu",
        "col1": "E. Eiki",
        "col2": "T. Zaou",
        "col3": "1"
    },
    {
        "col0": "Happiness!",
        "col1": "Windmill",
        "col2": "R. Fujii",
        "col3": "2"
    },
    {
        "col0": "Hanappe Bazooka",
        "col1": "K. Koike",
        "col2": "G. Nagai",
        "col3": "10"
    },
    {
        "col0": "Guin Saga",
        "col1": "K. Kurimoto",
        "col2": "Y. Amano",
        "col3": "3"
    },
    {
        "col0": "Ground Control to Psychoelectric Girl",
        "col1": "H. Iruma",
        "col2": "Buriki",
        "col3": "4"
    },
    {
        "col0": "Grendizer",
        "col1": "G. Nagai",
        "col2": "G. Ota",
        "col3": "1"
    },
    {
        "col0": "God Mazinger",
        "col1": "G. Nagai",
        "col2": "G. Nagai",
        "col3": "4"
    },
    {
        "col0": "Gin Tama",
        "col1": "H. Sorachi",
        "col2": "H. Sorachi",
        "col3": "5"
    },
    {
        "col0": "Gift",
        "col1": "M. Komao",
        "col2": "Yukiwo",
        "col3": "2"
    },
    {
        "col0": "Getter Robo Armageddon",
        "col1": "G. Nagai",
        "col2": "K. Ishikawa",
        "col3": "1"
    },
    {
        "col0": "GetBackers",
        "col1": "S. Kibayashi",
        "col2": "R. Ayamine",
        "col3": "39"
    },
    {
        "col0": "Georgie!",
        "col1": "M. Izawa",
        "col2": "Y. Igarashi",
        "col3": "5"
    },
    {
        "col0": "Genshiken",
        "col1": "S. Kio",
        "col2": "S. Kio",
        "col3": "9"
    },
    {
        "col0": "Gemini Knives",
        "col1": "H. Kimura",
        "col2": "K. Gotoh",
        "col3": "2"
    },
    {
        "col0": "Garoden",
        "col1": "B. Yumemakura",
        "col2": "K. Itagaki",
        "col3": "13"
    },
    {
        "col0": "Gakuen Utopia Manabi Straight!",
        "col1": "Ufotable",
        "col2": "T. Check",
        "col3": "2"
    },
    {
        "col0": "Fushigi Yugi",
        "col1": "Y. Watase",
        "col2": "Y. Watase",
        "col3": "13"
    },
    {
        "col0": "Fullmetal Alchemist",
        "col1": "H. Arakawa",
        "col2": "H. Arakawa",
        "col3": "10"
    },
    {
        "col0": "Full Metal Panic!",
        "col1": "S. Gatoh",
        "col2": "R. Tateo",
        "col3": "2"
    },
    {
        "col0": "Fluffy, Fluffy Cinnamoroll",
        "col1": "Y. Tsukirino",
        "col2": "Y. Tsukirino",
        "col3": "5"
    },
    {
        "col0": "Fist of the North Star",
        "col1": "Buronson",
        "col2": "T. Hara",
        "col3": "27"
    },
    {
        "col0": "Fist of the Blue Sky",
        "col1": "Buronson",
        "col2": "T. Hara",
        "col3": "22"
    },
    {
        "col0": "Figure 17",
        "col1": "S. Yonemura",
        "col2": "Y. Chiba",
        "col3": "2"
    },
    {
        "col0": "Fate/Zero",
        "col1": "G. Urobuchi",
        "col2": "T. Takeuchi",
        "col3": "4"
    },
    {
        "col0": "Eyeshield 21",
        "col1": "R. Inagaki",
        "col2": "Y. Murata",
        "col3": "37"
    },
    {
        "col0": "Erased",
        "col1": "K. Sanbe",
        "col2": "K. Sanbe",
        "col3": "1"
    },
    {
        "col0": "Elemental Gelade",
        "col1": "M. Azuma",
        "col2": "M. Azuma",
        "col3": "8"
    },
    {
        "col0": "Durarara!!",
        "col1": "R. Narita",
        "col2": "S. Yasuda",
        "col3": "2"
    },
    {
        "col0": "Dragon Quest Retsuden: Roto no Monsho",
        "col1": "C. Kawamata",
        "col2": "K. Fujiwara",
        "col3": "21"
    },
    {
        "col0": "Dragon Quest: Dai no Daiboken",
        "col1": "R. Sanjo",
        "col2": "K. Inada",
        "col3": "37"
    },
    {
        "col0": "Dororon Enma-kun",
        "col1": "G. Nagai",
        "col2": "G. Nagai",
        "col3": "1"
    },
    {
        "col0": "Dokkoida?!",
        "col1": "T. Achi",
        "col2": "Y. Yagami",
        "col3": "3"
    },
    {
        "col0": "Dirty Pair",
        "col1": "H. Takachiho",
        "col2": "Y. Yasuhiko",
        "col3": "8"
    },
    {
        "col0": "Dirty Pair",
        "col1": "H. Takachiho",
        "col2": "Y. Yasuhiko",
        "col3": "8"
    },
    {
        "col0": "Devilman",
        "col1": "G. Nagai",
        "col2": "G. Nagai",
        "col3": "1"
    },
    {
        "col0": "Detective School Q",
        "col1": "S. Amagi",
        "col2": "F. Sato",
        "col3": "22"
    },
    {
        "col0": "Despera",
        "col1": "C. J. Konaka",
        "col2": "Y. ABe",
        "col3": "1"
    },
    {
        "col0": "Denpa teki na Kanojo",
        "col1": "K. Katayama",
        "col2": "Y. Yamamoto",
        "col3": "3"
    },
    {
        "col0": "Defense Devil",
        "col1": "Y. In-wan",
        "col2": "Y. Kyung-il",
        "col3": "10"
    },
    {
        "col0": "Death Note",
        "col1": "T. Ohba",
        "col2": "T. Obata",
        "col3": "12"
    },
    {
        "col0": "Darker than Black",
        "col1": "T. Okamura",
        "col2": "Y. Iwahara",
        "col3": "2"
    },
    {
        "col0": "Danganronpa 2: Goodbye Despair",
        "col1": "S. Chunsoft",
        "col2": "K. Suzuragi",
        "col3": "1"
    },
    {
        "col0": "D.Gray-man",
        "col1": "K. Hoshino",
        "col2": "K. Hoshino",
        "col3": "3"
    },
    {
        "col0": "D-Live!!",
        "col1": "R. Minagawa",
        "col2": "R. Minagawa",
        "col3": "15"
    },
    {
        "col0": "Cutie Honey",
        "col1": "G. Nagai",
        "col2": "K. Ishikawa",
        "col3": "1"
    },
    {
        "col0": "Crying Freeman",
        "col1": "K. Koike",
        "col2": "R. Ikegami",
        "col3": "9"
    },
    {
        "col0": "Crusher Joe",
        "col1": "H. Takachiho",
        "col2": "F. Hosono",
        "col3": "1"
    }
]