[
    {
        "col0": "W. Dutton",
        "col1": "Canadian",
        "col2": "Calgary",
        "col3": "1989-11-28"
    },
    {
        "col0": "R. Webster",
        "col1": "Australia",
        "col2": "Balwyn North",
        "col3": "1987-12-27"
    },
    {
        "col0": "N. Zagame",
        "col1": "Australia",
        "col2": "New South Wales",
        "col3": "1990-08-11"
    },
    {
        "col0": "K. Hyon-suk",
        "col1": "North Korea",
        "col2": "North Korea",
        "col3": "1985-03-21"
    },
    {
        "col0": "Kees-Jan van der Klooster",
        "col1": "Netherlands",
        "col2": "Netherlands",
        "col3": "1977-07-03"
    },
    {
        "col0": "K. Crema",
        "col1": "Australia",
        "col2": "Australia",
        "col3": "1988-08-02"
    },
    {
        "col0": "H. Lincoln-Smith",
        "col1": "Australia",
        "col2": "Australia",
        "col3": "1988-03-26"
    },
    {
        "col0": "D. Giannoni",
        "col1": "Italy",
        "col2": "Republic of San Marino",
        "col3": "1978-06-24"
    },
    {
        "col0": "C. Ratushniak",
        "col1": "Canadians",
        "col2": "London",
        "col3": "1985-08-18"
    },
    {
        "col0": "B. Knox",
        "col1": "Australia",
        "col2": "Queensland",
        "col3": "1986-04-16"
    },
    {
        "col0": "A. Baver",
        "col1": "United States of America",
        "col2": "Salt Lake City, Utah",
        "col3": "1980-08-11"
    }
]