[
    {
        "col0": "S. Hillis",
        "col1": "Scottish people",
        "col2": "1943-09-28",
        "col3": "William Stewart Hillis"
    },
    {
        "col0": "N. Bethune",
        "col1": "Canadians",
        "col2": "1890-03-04",
        "col3": "Henry Norman Bethune"
    },
    {
        "col0": "N. Faran",
        "col1": "Saudi",
        "col2": "1978-1-1",
        "col3": "Naila Mohammed Habib Al Faran"
    },
    {
        "col0": "M. E. Materi",
        "col1": "Tunisia",
        "col2": "1897-12-0",
        "col3": "Mahmoud El Materi"
    },
    {
        "col0": "J. Yu",
        "col1": "Australian",
        "col2": "1934-12-12",
        "col3": "Yu Sen Mei "
    },
    {
        "col0": "F. B. Wynn",
        "col1": "United States",
        "col2": "1859-05-28",
        "col3": "Francis Barbour Wynn"
    },
    {
        "col0": "E. Contreras",
        "col1": "Dominican Republic",
        "col2": "1961-05-15",
        "col3": "Edgar Isidro Contreras Rosario"
    },
    {
        "col0": "B. Cadwaladr",
        "col1": "Wales",
        "col2": "1789-05-24",
        "col3": "Elizabeth 'Betsi' Cadwaladr"
    },
    {
        "col0": "A. R. Cook",
        "col1": "United Kingdom",
        "col2": "1870-03-22",
        "col3": "Albert Ruskin Cook"
    }
]