[
    {
        "col0": "T. v. Gogh",
        "col1": "The Hague",
        "col2": "http://dbpedia.org/resource/Assassination",
        "col3": "1957-07-23"
    },
    {
        "col0": "T. Todd",
        "col1": "Lawrence, Massachusetts",
        "col2": "http://dbpedia.org/resource/Carbon_monoxide_poisoning",
        "col3": "1906-07-29"
    },
    {
        "col0": "T. Ritter",
        "col1": "New York",
        "col2": "http://dbpedia.org/resource/Myocardial_infarction",
        "col3": "1902-02-14"
    },
    {
        "col0": "T. Bara",
        "col1": "Cincinnati",
        "col2": "http://dbpedia.org/resource/Stomach_cancer",
        "col3": "1885-07-29"
    },
    {
        "col0": "T. David",
        "col1": "Medford, Massachusetts",
        "col2": "http://dbpedia.org/resource/Heart_attack",
        "col3": "1927-03-04"
    },
    {
        "col0": "T. Rasulala",
        "col1": "Miami",
        "col2": "http://dbpedia.org/resource/Heart_Failure",
        "col3": "1939-11-15"
    },
    {
        "col0": "T. Avery",
        "col1": "Taylor, Texas",
        "col2": "http://dbpedia.org/resource/Lung_cancer",
        "col3": "1908-02-26"
    },
    {
        "col0": "T. Tamba",
        "col1": "Japan",
        "col2": "http://dbpedia.org/resource/Pneumonia",
        "col3": "1922-07-17"
    },
    {
        "col0": "T. Wogan",
        "col1": "Ireland",
        "col2": "http://dbpedia.org/resource/Cancer",
        "col3": "1938-08-03"
    },
    {
        "col0": "T. Scully",
        "col1": "England",
        "col2": "http://dbpedia.org/resource/Stroke",
        "col3": "1932-05-13"
    },
    {
        "col0": "T. Savalas",
        "col1": "Garden City, New York",
        "col2": "http://dbpedia.org/resource/Bladder_cancer",
        "col3": "1922-01-21"
    },
    {
        "col0": "T. d. Corsia",
        "col1": "Brooklyn",
        "col2": "http://dbpedia.org/resource/Myocardial_infarction",
        "col3": "1903-09-29"
    },
    {
        "col0": "T. Knight",
        "col1": "Connecticut",
        "col2": "http://dbpedia.org/resource/Colorectal_cancer",
        "col3": "1923-12-07"
    },
    {
        "col0": "T. Healy",
        "col1": "Kaufman, Texas",
        "col2": "http://dbpedia.org/resource/Nephritis",
        "col3": "1896-10-01"
    },
    {
        "col0": "T. Negron",
        "col1": "Glendale, California",
        "col2": "http://dbpedia.org/resource/Liver_cancer",
        "col3": "1957-08-01"
    },
    {
        "col0": "T. Ishida",
        "col1": "Kyoto",
        "col2": "http://dbpedia.org/resource/Myocardial_infarction",
        "col3": "1944-03-16"
    },
    {
        "col0": "T. Masud",
        "col1": "East Pakistan",
        "col2": "http://dbpedia.org/resource/Road_accident",
        "col3": "1956-12-06"
    },
    {
        "col0": "T. F. Messner",
        "col1": "International Falls, Minnesota",
        "col2": "http://dbpedia.org/resource/Colon_Cancer",
        "col3": "1942-03-07"
    },
    {
        "col0": "T. Dobson",
        "col1": "Baltimore",
        "col2": "http://dbpedia.org/resource/Multiple_Sclerosis",
        "col3": "1944-5-14"
    },
    {
        "col0": "T. Bankhead",
        "col1": "Huntsville, Alabama",
        "col2": "http://dbpedia.org/resource/Malnutrition",
        "col3": "1902-01-31"
    },
    {
        "col0": "T. Taniguchi",
        "col1": "Hokkaido",
        "col2": "http://dbpedia.org/resource/Disease",
        "col3": "1947-07-05"
    },
    {
        "col0": "T. Shimura",
        "col1": "Japan",
        "col2": "http://dbpedia.org/resource/Emphysema",
        "col3": "1905-03-12"
    },
    {
        "col0": "S. Boniface",
        "col1": "New York City",
        "col2": "http://dbpedia.org/resource/Pancreatic_cancer",
        "col3": "1894-03-05"
    },
    {
        "col0": "S. Sidney",
        "col1": "New York City",
        "col2": "http://dbpedia.org/resource/Esophageal_cancer",
        "col3": "1910-08-08"
    },
    {
        "col0": "S. Kristel",
        "col1": "Utrecht",
        "col2": "http://dbpedia.org/resource/Cancer",
        "col3": "1952-09-28"
    },
    {
        "col0": "S. Pollack",
        "col1": "New York City",
        "col2": "http://dbpedia.org/resource/Cancer_of_unknown_primary_origin",
        "col3": "1934-07-01"
    },
    {
        "col0": "S. Greenstreet",
        "col1": "Sandwich, Kent",
        "col2": "http://dbpedia.org/resource/Bright's_disease",
        "col3": "1879-12-27"
    },
    {
        "col0": "S. Chaplin",
        "col1": "California",
        "col2": "http://dbpedia.org/resource/Stroke",
        "col3": "1926-03-30"
    },
    {
        "col0": "S. Tamim",
        "col1": "Beirut",
        "col2": "http://dbpedia.org/resource/Murder",
        "col3": "1977-09-23"
    },
    {
        "col0": "S. Pleshette",
        "col1": "New York",
        "col2": "http://dbpedia.org/resource/Respiratory_failure",
        "col3": "1937-01-31"
    },
    {
        "col0": "S. York",
        "col1": "Chelsea, London",
        "col2": "http://dbpedia.org/resource/Multiple_myeloma",
        "col3": "1939-01-09"
    },
    {
        "col0": "S. Tyrrell",
        "col1": "San Francisco",
        "col2": "http://dbpedia.org/resource/Essential_thrombocythaemia",
        "col3": "1945-03-18"
    },
    {
        "col0": "S. Strasberg",
        "col1": "New York City",
        "col2": "http://dbpedia.org/resource/Breast_cancer",
        "col3": "1938-05-22"
    },
    {
        "col0": "S. Peters",
        "col1": "Spokane, Washington",
        "col2": "http://dbpedia.org/resource/Bronchial_pneumonia",
        "col3": "1921-07-03"
    },
    {
        "col0": "S. Oliver",
        "col1": "New York City",
        "col2": "http://dbpedia.org/resource/Lung_cancer",
        "col3": "1932-02-13"
    },
    {
        "col0": "S. Hayward",
        "col1": "New York",
        "col2": "http://dbpedia.org/resource/Brain_cancer",
        "col3": "1917-06-30"
    },
    {
        "col0": "S. Gordon",
        "col1": "Saint Paul, Minnesota",
        "col2": "http://dbpedia.org/resource/Thyroid_cancer",
        "col3": "1949-07-27"
    },
    {
        "col0": "S. Shirakawa",
        "col1": "Japan",
        "col2": "http://dbpedia.org/resource/Subarachnoid_hemorrhage",
        "col3": "1935-06-26"
    },
    {
        "col0": "S. Das",
        "col1": "British Raj",
        "col2": "http://dbpedia.org/resource/Cardiac_failure",
        "col3": "1938-07-28"
    },
    {
        "col0": "S. Lloyd",
        "col1": "England",
        "col2": "http://dbpedia.org/resource/Cancer",
        "col3": "1939-08-07"
    },
    {
        "col0": "S. Carol",
        "col1": "Chicago",
        "col2": "http://dbpedia.org/resource/Myocardial_infarction",
        "col3": "1906-10-30"
    },
    {
        "col0": "S. Kaye",
        "col1": "New York",
        "col2": "http://dbpedia.org/resource/Lung_cancer",
        "col3": "1918-11-11"
    },
    {
        "col0": "S. Wagstaff",
        "col1": "England",
        "col2": "http://dbpedia.org/resource/Pulmonary_fibrosis",
        "col3": "1925-02-13"
    },
    {
        "col0": "S. Erwin",
        "col1": "Squaw Valley, Fresno County, California",
        "col2": "http://dbpedia.org/resource/Myocardial_infarction",
        "col3": "1903-02-14"
    },
    {
        "col0": "S. Gilliam",
        "col1": "Detroit",
        "col2": "http://dbpedia.org/resource/COPD",
        "col3": "1933-07-27"
    },
    {
        "col0": "S. Martin",
        "col1": "Kokomo, Indiana",
        "col2": "http://dbpedia.org/resource/Myocardial_infarction",
        "col3": "1919-03-26"
    },
    {
        "col0": "S. Johns",
        "col1": "Union of South Africa",
        "col2": "http://dbpedia.org/resource/Heart_disease",
        "col3": "1925-09-22"
    },
    {
        "col0": "S. McQueen",
        "col1": "Indiana",
        "col2": "http://dbpedia.org/resource/Malignant_mesothelioma",
        "col3": "1930-03-24"
    },
    {
        "col0": "S. Landesberg",
        "col1": "New York City",
        "col2": "http://dbpedia.org/resource/Colorectal_cancer",
        "col3": "1936-11-23"
    },
    {
        "col0": "S. Jobs",
        "col1": "San Francisco",
        "col2": "http://dbpedia.org/resource/Pancreatic_cancer",
        "col3": "1955-02-24"
    },
    {
        "col0": "S. Irwin",
        "col1": "Essendon, Victoria",
        "col2": "http://dbpedia.org/resource/Stingray_injury",
        "col3": "1962-02-22"
    },
    {
        "col0": "S. Ihnat",
        "col1": "Czechoslovakia",
        "col2": "http://dbpedia.org/resource/Myocardial_infarction",
        "col3": "1934-08-07"
    },
    {
        "col0": "S. Franken",
        "col1": "Brooklyn",
        "col2": "http://dbpedia.org/resource/Cancer",
        "col3": "1932-05-27"
    }
]