[
    {
        "col0": "Fort Stanwix",
        "col1": "National Park Service",
        "col2": "64749",
        "col3": "64749"
    },
    {
        "col0": "Fort Niagara",
        "col1": "New York State Office of Parks, Recreation and Historic Preservation",
        "col2": "1011714",
        "col3": "1011714"
    },
    {
        "col0": "Fort Negley",
        "col1": "Nashville Board of Parks and Recreation",
        "col2": "16722",
        "col3": "16722"
    },
    {
        "col0": "Fort Monroe",
        "col1": "Commonwealth of Virginia",
        "col2": "2286473",
        "col3": "2286473"
    },
    {
        "col0": "Fort Massachusetts",
        "col1": "National Park Service",
        "col2": "343982",
        "col3": "343982"
    },
    {
        "col0": "Fort Inge",
        "col1": "Texas",
        "col2": "157827",
        "col3": "157827"
    },
    {
        "col0": "Fort Crown Point",
        "col1": "New York State Office of Parks, Recreation and Historic Preservation",
        "col2": "47752905",
        "col3": "47752905"
    },
    {
        "col0": "Castle Clinton",
        "col1": "National Park Service",
        "col2": "4046",
        "col3": "4046"
    },
    {
        "col0": "Cape Canaveral Air Force Station",
        "col1": "United States Department of Defense",
        "col2": "5362084",
        "col3": "5362084"
    },
    {
        "col0": "Camp Mabry",
        "col1": "State of Texas",
        "col2": "1517571",
        "col3": "1517571"
    },
    {
        "col0": "Bent's Old Fort National Historic Site",
        "col1": "National Park Service",
        "col2": "3233438",
        "col3": "3233438"
    },
    {
        "col0": "Battery Weed",
        "col1": "National Park Service",
        "col2": "4046",
        "col3": "4046"
    },
    {
        "col0": "Apple River Fort",
        "col1": "Illinois Historic Preservation Agency",
        "col2": "2023",
        "col3": "2023"
    }
]