[
    {
        "col0": "H. Kiviaho",
        "col1": "Dallas Stars",
        "col2": "Finland",
        "col3": "Dallas Stars",
        "col4": "1994-02-26"
    },
    {
        "col0": "H. Ikonen",
        "col1": "Tampa Bay Lightning",
        "col2": "Finland",
        "col3": "Tampa Bay Lightning",
        "col4": "1994-04-17"
    },
    {
        "col0": "H. Fleury",
        "col1": "Carolina Hurricanes",
        "col2": "Carlyle, Saskatchewan",
        "col3": "Carolina Hurricanes",
        "col4": "1996-07-08"
    },
    {
        "col0": "H. Reed",
        "col1": "Carolina Hurricanes",
        "col2": "Canada",
        "col3": "Dresdner Eislowen",
        "col4": "1988-01-18"
    },
    {
        "col0": "H. Sateri",
        "col1": "San Jose Sharks",
        "col2": "Finland",
        "col3": "HC Vityaz Podolsk",
        "col4": "1989-12-29"
    },
    {
        "col0": "H. Ilvonen",
        "col1": "Minnesota Wild",
        "col2": "Finland",
        "col3": "Tappara",
        "col4": "1988-11-03"
    },
    {
        "col0": "H. Pratt",
        "col1": "Pittsburgh Penguins",
        "col2": "Alberta",
        "col3": "Alba Volan Szekesfehervar",
        "col4": "1978-12-10"
    },
    {
        "col0": "H. Jonsson",
        "col1": "Pittsburgh Penguins",
        "col2": "Sweden",
        "col3": "Modo Hockey",
        "col4": "1973-08-02"
    },
    {
        "col0": "H. Toivonen",
        "col1": "Boston Bruins",
        "col2": "Finland",
        "col3": "Vaasan Sport",
        "col4": "1984-05-18"
    },
    {
        "col0": "H. Hyvonen",
        "col1": "San Jose Sharks",
        "col2": "Finland",
        "col3": "Farjestads BK",
        "col4": "1975-08-29"
    },
    {
        "col0": "H. Lindholm",
        "col1": "Anaheim Ducks",
        "col2": "Helsingborg",
        "col3": "Anaheim Ducks",
        "col4": "1994-01-20"
    },
    {
        "col0": "G. Possler",
        "col1": "Buffalo Sabres",
        "col2": "Sweden",
        "col3": "Djurgardens IF Hockey",
        "col4": "1994-11-11"
    },
    {
        "col0": "G. Olofsson",
        "col1": "Minnesota Wild",
        "col2": "Sweden",
        "col3": "Minnesota Wild",
        "col4": "1994-12-01"
    },
    {
        "col0": "G. Nyquist",
        "col1": "Detroit Red Wings",
        "col2": "Halmstad",
        "col3": "Detroit Red Wings",
        "col4": "1989-09-01"
    },
    {
        "col0": "G. Forsling",
        "col1": "Vancouver Canucks",
        "col2": "Linkoping",
        "col3": "Chicago Blackhawks",
        "col4": "1996-06-12"
    },
    {
        "col0": "G. Lefebvre",
        "col1": "Philadelphia Flyers",
        "col2": "Canada",
        "col3": "Graz 99ers",
        "col4": "1981-05-07"
    },
    {
        "col0": "G. Desbiens",
        "col1": "Atlanta Thrashers",
        "col2": "Canada",
        "col3": "Sheffield Steelers",
        "col4": "1985-04-20"
    },
    {
        "col0": "G. Hofmann",
        "col1": "Carolina Hurricanes",
        "col2": "Switzerland",
        "col3": "HC Lugano",
        "col4": "1992-11-13"
    },
    {
        "col0": "G. Shafigulin",
        "col1": "Nashville Predators",
        "col2": "Soviet Union",
        "col3": "Amur Khabarovsk",
        "col4": "1985-01-13"
    },
    {
        "col0": "G. Reinhart",
        "col1": "New York Islanders",
        "col2": "Vancouver",
        "col3": "Edmonton Oilers",
        "col4": "1994-01-24"
    },
    {
        "col0": "G. Hogeboom",
        "col1": "Los Angeles Kings",
        "col2": "Canada",
        "col3": "HC Alleghe",
        "col4": "1982-09-26"
    },
    {
        "col0": "G. Campbell",
        "col1": "Florida Panthers",
        "col2": "Canada",
        "col3": "Columbus Blue Jackets",
        "col4": "1983-12-17"
    },
    {
        "col0": "G. Johnson",
        "col1": "Ottawa Senators",
        "col2": "Connecticut",
        "col3": "Free Agent",
        "col4": "1982-06-18"
    },
    {
        "col0": "G. Stewart",
        "col1": "Montreal Canadiens",
        "col2": "Canada",
        "col3": "Edmonton Oilers",
        "col4": "1986-05-21"
    },
    {
        "col0": "G. Pateryn",
        "col1": "Toronto Maple Leafs",
        "col2": "Sterling Heights, Michigan",
        "col3": "Montreal Canadiens",
        "col4": "1990-06-20"
    },
    {
        "col0": "G. McKegg",
        "col1": "Toronto Maple Leafs",
        "col2": "St. Thomas, Ontario",
        "col3": "Florida Panthers",
        "col4": "1992-06-17"
    },
    {
        "col0": "G. Mauldin",
        "col1": "Columbus Blue Jackets",
        "col2": "Massachusetts",
        "col3": "HC Fribourg-Gotteron",
        "col4": "1982-06-10"
    },
    {
        "col0": "G. Kuznik",
        "col1": "Hartford Whalers",
        "col2": "British Columbia",
        "col3": "EC VSV",
        "col4": "1978-06-12"
    },
    {
        "col0": "G. Besse",
        "col1": "Anaheim Ducks",
        "col2": "Minnesota",
        "col3": "Wisconsin Badgers men's ice hockey",
        "col4": "1994-07-14"
    },
    {
        "col0": "G. Black",
        "col1": "New Jersey Devils",
        "col2": "Regina, Saskatchewan",
        "col3": "Florida Panthers",
        "col4": "1993-01-13"
    },
    {
        "col0": "G. Hofmann",
        "col1": "Carolina Hurricanes",
        "col2": "Switzerland",
        "col3": "HC Lugano",
        "col4": "1992-11-13"
    },
    {
        "col0": "G. Bezina",
        "col1": "Phoenix Coyotes",
        "col2": "Socialist Federal Republic of Yugoslavia",
        "col3": "KHL Medvescak Zagreb",
        "col4": "1980-03-21"
    },
    {
        "col0": "G. Fournier",
        "col1": "Detroit Red Wings",
        "col2": "Canada",
        "col3": "Cardiff Devils",
        "col4": "1991-09-08"
    },
    {
        "col0": "G. Brule",
        "col1": "Columbus Blue Jackets",
        "col2": "Alberta",
        "col3": "KHL Medvescak Zagreb",
        "col4": "1987-01-01"
    },
    {
        "col0": "G. Rubtsov",
        "col1": "Philadelphia Flyers",
        "col2": "Russia",
        "col3": "HC Vityaz",
        "col4": "1998-06-27"
    },
    {
        "col0": "G. Pujacs",
        "col1": "Boston Bruins",
        "col2": "Riga",
        "col3": "HC Neftekhimik Nizhnekamsk",
        "col4": "1981-06-11"
    },
    {
        "col0": "G. Misharin",
        "col1": "Minnesota Wild",
        "col2": "Soviet Union",
        "col3": "HC CSKA Moscow",
        "col4": "1985-05-11"
    },
    {
        "col0": "G. Wudrick",
        "col1": "Los Angeles Kings",
        "col2": "British Columbia",
        "col3": "CBR Brave",
        "col4": "1990-04-09"
    },
    {
        "col0": "G. Waugh",
        "col1": "Dallas Stars",
        "col2": "Canada",
        "col3": "Nottingham Panthers",
        "col4": "1983-08-25"
    },
    {
        "col0": "G. Paukovich",
        "col1": "Edmonton Oilers",
        "col2": "Colorado",
        "col3": "Atlanta Gladiators",
        "col4": "1986-04-24"
    },
    {
        "col0": "G. Stolyarov",
        "col1": "Detroit Red Wings",
        "col2": "Moscow",
        "col3": "HC CSKA Moscow",
        "col4": "1986-08-20"
    },
    {
        "col0": "G. Razin",
        "col1": "Montreal Canadiens",
        "col2": "Soviet Union",
        "col3": "HC Donbass",
        "col4": "1978-02-03"
    },
    {
        "col0": "G. Wilson",
        "col1": "Florida Panthers",
        "col2": "Ontario",
        "col3": "Pittsburgh Penguins",
        "col4": "1991-03-16"
    },
    {
        "col0": "G. Roe",
        "col1": "Los Angeles Kings",
        "col2": "Vienna, Virginia",
        "col3": "Linkopings HC",
        "col4": "1988-02-22"
    },
    {
        "col0": "G. Mitchell",
        "col1": "Washington Capitals",
        "col2": "Canada",
        "col3": "Washington Capitals",
        "col4": "1991-09-02"
    },
    {
        "col0": "G. Klotz",
        "col1": "Philadelphia Flyers",
        "col2": "Canada",
        "col3": "Coventry Blaze",
        "col4": "1988-11-27"
    },
    {
        "col0": "G. Sparks",
        "col1": "Toronto Maple Leafs",
        "col2": "Elmhurst, Illinois",
        "col3": "Toronto Maple Leafs",
        "col4": "1993-06-28"
    },
    {
        "col0": "G. Ross",
        "col1": "Chicago Blackhawks",
        "col2": "Michigan",
        "col3": "Arizona Coyotes",
        "col4": "1992-05-26"
    },
    {
        "col0": "G. Patterson",
        "col1": "Calgary Flames",
        "col2": "Canada",
        "col3": "Sparta Warriors",
        "col4": "1990-08-22"
    },
    {
        "col0": "G. Landeskog",
        "col1": "Colorado Avalanche",
        "col2": "Stockholm",
        "col3": "Colorado Avalanche",
        "col4": "1992-11-23"
    },
    {
        "col0": "G. Gagne",
        "col1": "Ottawa Senators",
        "col2": "Canada",
        "col3": "Ottawa Senators",
        "col4": "1996-11-11"
    },
    {
        "col0": "G. Dumont",
        "col1": "Montreal Canadiens",
        "col2": "Degelis",
        "col3": "Tampa Bay Lightning",
        "col4": "1990-10-06"
    },
    {
        "col0": "G. Carlsson",
        "col1": "Columbus Blue Jackets",
        "col2": "Sweden",
        "col3": "Columbus Blue Jackets",
        "col4": "1997-01-02"
    },
    {
        "col0": "G. Bourque",
        "col1": "Nashville Predators",
        "col2": "Canada",
        "col3": "Colorado Avalanche",
        "col4": "1990-09-23"
    },
    {
        "col0": "G. Beaupre",
        "col1": "Colorado Avalanche",
        "col2": "Canada",
        "col3": "Fort Wayne Komets",
        "col4": "1992-11-23"
    },
    {
        "col0": "F. Girard",
        "col1": "Nashville Predators",
        "col2": "Canada",
        "col3": "Nashville Predators",
        "col4": "1994-05-09"
    },
    {
        "col0": "F. Gauthier",
        "col1": "Toronto Maple Leafs",
        "col2": "Laval, Quebec",
        "col3": "Toronto Maple Leafs",
        "col4": "1995-04-26"
    },
    {
        "col0": "F. Cabana",
        "col1": "Philadelphia Flyers",
        "col2": "Canada",
        "col3": "Hamburg Freezers",
        "col4": "1986-05-16"
    },
    {
        "col0": "F. Cassivi",
        "col1": "Ottawa Senators",
        "col2": "Canada",
        "col3": "Reading Royals",
        "col4": "1975-06-12"
    },
    {
        "col0": "F. Pettersson-Wentzel",
        "col1": "Atlanta Thrashers",
        "col2": "Sweden",
        "col3": "HV71",
        "col4": "1991-07-23"
    },
    {
        "col0": "F. Pettersson",
        "col1": "Edmonton Oilers",
        "col2": "Gothenburg",
        "col3": "HC Lugano",
        "col4": "1987-06-10"
    },
    {
        "col0": "F. Naslund",
        "col1": "Dallas Stars",
        "col2": "Sweden",
        "col3": "Falu IF",
        "col4": "1986-02-11"
    },
    {
        "col0": "F. Johansson",
        "col1": "Edmonton Oilers",
        "col2": "Sweden",
        "col3": "Edmonton Oilers",
        "col4": "1984-02-27"
    },
    {
        "col0": "F. Claesson",
        "col1": "Ottawa Senators",
        "col2": "Stockholm",
        "col3": "Ottawa Senators",
        "col4": "1992-11-24"
    },
    {
        "col0": "F. Bergvik",
        "col1": "San Jose Sharks",
        "col2": "Stockholm",
        "col3": "Frolunda HC",
        "col4": "1995-02-14"
    },
    {
        "col0": "F. Beaubien",
        "col1": "Los Angeles Kings",
        "col2": "Canada",
        "col3": "Los Angeles Kings",
        "col4": "1975-04-01"
    },
    {
        "col0": "F. Andersen",
        "col1": "Anaheim Ducks",
        "col2": "Herning",
        "col3": "Toronto Maple Leafs",
        "col4": "1989-10-02"
    },
    {
        "col0": "F. Deschenes",
        "col1": "Detroit Red Wings",
        "col2": "Canada",
        "col3": "Saint-Georges CRS Express",
        "col4": "1976-01-12"
    },
    {
        "col0": "F. Hamilton",
        "col1": "San Jose Sharks",
        "col2": "Canada",
        "col3": "Calgary Flames",
        "col4": "1992-01-01"
    },
    {
        "col0": "F. Groleau",
        "col1": "Calgary Flames",
        "col2": "Canada",
        "col3": "Thetford Mines Isothermic",
        "col4": "1973-01-23"
    },
    {
        "col0": "F. Bouchard",
        "col1": "Washington Capitals",
        "col2": "Canada",
        "col3": "KHL Medvescak",
        "col4": "1988-04-26"
    },
    {
        "col0": "F. Beauchemin",
        "col1": "Montreal Canadiens",
        "col2": "Sorel-Tracy",
        "col3": "Colorado Avalanche",
        "col4": "1980-06-04"
    },
    {
        "col0": "F. Skladany",
        "col1": "Colorado Avalanche",
        "col2": "Martin, Slovakia",
        "col3": "HC Olomouc",
        "col4": "1982-04-22"
    },
    {
        "col0": "F. Mrazek",
        "col1": "Toronto Maple Leafs",
        "col2": "Ceske Budejovice",
        "col3": "Landshut Cannibals",
        "col4": "1979-05-16"
    },
    {
        "col0": "F. LukeA!",
        "col1": "Phoenix Coyotes",
        "col2": "Czechoslovakia",
        "col3": "HC Litvinov",
        "col4": "1982-09-25"
    },
    {
        "col0": "F. Skladany",
        "col1": "Colorado Avalanche",
        "col2": "Czechoslovakia",
        "col3": "HC Olomouc",
        "col4": "1982-04-22"
    },
    {
        "col0": "F. Mrazek",
        "col1": "Toronto Maple Leafs",
        "col2": "Czechoslovakia",
        "col3": "Landshut Cannibals",
        "col4": "1979-05-16"
    },
    {
        "col0": "F. LukeA!",
        "col1": "Phoenix Coyotes",
        "col2": "Czechoslovakia",
        "col3": "HC Litvinov",
        "col4": "1982-09-25"
    },
    {
        "col0": "F. Tuohimaa",
        "col1": "Edmonton Oilers",
        "col2": "Finland",
        "col3": "Leksands IF",
        "col4": "1991-08-19"
    },
    {
        "col0": "F. Nielsen",
        "col1": "New York Islanders",
        "col2": "Herning",
        "col3": "Detroit Red Wings",
        "col4": "1984-04-24"
    },
    {
        "col0": "F. Corrado",
        "col1": "Vancouver Canucks",
        "col2": "Toronto",
        "col3": "Toronto Maple Leafs",
        "col4": "1993-03-26"
    },
    {
        "col0": "F. Wathier",
        "col1": "Dallas Stars",
        "col2": "Canada",
        "col3": "Portland Pirates",
        "col4": "1984-12-07"
    },
    {
        "col0": "F. Perron",
        "col1": "Ottawa Senators",
        "col2": "Canada",
        "col3": "Ottawa Senators",
        "col4": "1996-04-18"
    },
    {
        "col0": "F. Lessard",
        "col1": "Carolina Hurricanes",
        "col2": "Canada",
        "col3": "Cornwall River Kings",
        "col4": "1979-05-30"
    },
    {
        "col0": "F. Groleau",
        "col1": "Calgary Flames",
        "col2": "Canada",
        "col3": "Thetford Mines Isothermic",
        "col4": "1973-01-23"
    },
    {
        "col0": "F. Bouchard",
        "col1": "Washington Capitals",
        "col2": "Canada",
        "col3": "KHL Medvescak",
        "col4": "1988-04-26"
    },
    {
        "col0": "F. Beauchemin",
        "col1": "Montreal Canadiens",
        "col2": "Sorel-Tracy",
        "col3": "Colorado Avalanche",
        "col4": "1980-06-04"
    }
]