[
    {
        "col0": "Women's Club",
        "col1": "Alexandre Mnouchkine",
        "col2": "I. Desny",
        "col3": "4860"
    },
    {
        "col0": "Womb Ghosts",
        "col1": "Dennis Law Sau-Yiu",
        "col2": "C. Chau",
        "col3": "5280"
    },
    {
        "col0": "Womanhunt",
        "col1": "Maury Dexter",
        "col2": "B. Kroeger",
        "col3": "3600"
    },
    {
        "col0": "Woman to Woman",
        "col1": "Michael Balcon",
        "col2": "B. Compson",
        "col3": "4920"
    },
    {
        "col0": "Woman on Top",
        "col1": "Alan Poul",
        "col2": "P. Cruz",
        "col3": "5520"
    },
    {
        "col0": "Woman of the Year",
        "col1": "Joseph L. Mankiewicz",
        "col2": "K. Hepburn",
        "col3": "6840"
    },
    {
        "col0": "Woman of the Red Sea",
        "col1": "Goffredo Lombardo",
        "col2": "S. Loren",
        "col3": "5400"
    },
    {
        "col0": "Woman of the North Country",
        "col1": "Joseph Kane",
        "col2": "J. Davis",
        "col3": "5400"
    },
    {
        "col0": "Woman of Straw",
        "col1": "Michael Relph",
        "col2": "S. Connery",
        "col3": "7320"
    },
    {
        "col0": "Woman of Rome",
        "col1": "Dino De Laurentiis",
        "col2": "G. Lollobrigida",
        "col3": "6480"
    },
    {
        "col0": "Woman of Fire",
        "col1": "Jung Jin-woo",
        "col2": "Y. Yuh-jung",
        "col3": "5880"
    },
    {
        "col0": "Woman in the River",
        "col1": "Karl Hartl",
        "col2": "A. Horbiger",
        "col3": "5640"
    },
    {
        "col0": "Woman in the Dark",
        "col1": "Stephen Auer",
        "col2": "R. Benedict",
        "col3": "3600"
    },
    {
        "col0": "Woman in a Dressing Gown",
        "col1": "J. Lee Thompson",
        "col2": "S. Syms",
        "col3": "5580"
    },
    {
        "col0": "Woman in Gold",
        "col1": "David M. Thompson",
        "col2": "H. Mirren",
        "col3": "6540"
    },
    {
        "col0": "Woman at the Wheel",
        "col1": "Max Pfeiffer",
        "col2": "W. Fritsch",
        "col3": "4440"
    },
    {
        "col0": "Woman Wanted",
        "col1": "Damian Lee",
        "col2": "K. Sutherland",
        "col3": "6600"
    },
    {
        "col0": "Woman Trap",
        "col1": "Harold Hurley",
        "col2": "A. Tamiroff",
        "col3": "3780"
    },
    {
        "col0": "Woman Times Seven",
        "col1": "Joseph E. Levine",
        "col2": "M. Caine",
        "col3": "6480"
    },
    {
        "col0": "Woman They Almost Lynched",
        "col1": "Allan Dwan",
        "col2": "B. Donlevy",
        "col3": "5400"
    },
    {
        "col0": "Woman Possessed",
        "col1": "Edward J. Danziger",
        "col2": "M. Scott",
        "col3": "4080"
    },
    {
        "col0": "Woman Obsessed",
        "col1": "Sydney Boehm",
        "col2": "K. Scott",
        "col3": "6120"
    },
    {
        "col0": "Woman Is the Future of Man",
        "col1": "Marin Karmitz",
        "col2": "K. Tae-woo",
        "col3": "5220"
    },
    {
        "col0": "Woman Haters",
        "col1": "Jules White",
        "col2": "B. Jamison",
        "col3": "1158"
    },
    {
        "col0": "Woman Hater",
        "col1": "William Sistrom",
        "col2": "E. Feuillere",
        "col3": "6300"
    },
    {
        "col0": "Woman Doctor",
        "col1": "Sol C. Siegel",
        "col2": "H. Wilcoxon",
        "col3": "3900"
    },
    {
        "col0": "Woman Chases Man",
        "col1": "Samuel Goldwyn",
        "col2": "J. McCrea",
        "col3": "4260"
    },
    {
        "col0": "Woman Against Woman",
        "col1": "Edward Chodorov",
        "col2": "H. Marshall",
        "col3": "3600"
    },
    {
        "col0": "Woman-Wise",
        "col1": "Sol M. Wurtzel",
        "col2": "A. Dinehart",
        "col3": "3720"
    },
    {
        "col0": "Woman-Proof",
        "col1": "Adolph Zukor",
        "col2": "T. Meighan",
        "col3": "4800"
    },
    {
        "col0": "Woman's World",
        "col1": "Charles Brackett",
        "col2": "L. Bacall",
        "col3": "5640"
    },
    {
        "col0": "Woman's Temptation",
        "col1": "Harry Lee Danziger",
        "col2": "R. Ayres",
        "col3": "3600"
    },
    {
        "col0": "Woman's Place",
        "col1": "Joseph M. Schenck",
        "col2": "C. Talmadge",
        "col3": "3600"
    },
    {
        "col0": "Wolves of the Rail",
        "col1": "Thomas H. Ince",
        "col2": "W. S. Hart",
        "col3": "3000"
    },
    {
        "col0": "Wolves of Wall Street",
        "col1": "Paul Colichman",
        "col2": "J. Branson",
        "col3": "5100"
    },
    {
        "col0": "Wolves Hunt at Night",
        "col1": "Raymond Borderie",
        "col2": "L. d. Funes",
        "col3": "5880"
    },
    {
        "col0": "Wolves",
        "col1": "Steven Hoban",
        "col2": "J. Momoa",
        "col3": "5400"
    },
    {
        "col0": "Wolves",
        "col1": "British and Dominions Imperial Studios",
        "col2": "C. Laughton",
        "col3": "2220"
    },
    {
        "col0": "Wolfshead: The Legend of Robin Hood",
        "col1": "Bill Anderson",
        "col2": "D. Warbeck",
        "col3": "3360"
    },
    {
        "col0": "Wolfman",
        "col1": "Earl Owensby",
        "col2": "E. Grady",
        "col3": "6120"
    },
    {
        "col0": "Wolf Song",
        "col1": "Lucien Hubbard",
        "col2": "G. Cooper",
        "col3": "5580"
    },
    {
        "col0": "Wolf Lowry",
        "col1": "Thomas H. Ince",
        "col2": "W. S. Hart",
        "col3": "3000"
    },
    {
        "col0": "Wolf Creek 2",
        "col1": "Greg McLean",
        "col2": "J. Jarratt",
        "col3": "6360"
    },
    {
        "col0": "Wolf Creek",
        "col1": "Greg McLean",
        "col2": "J. Jarratt",
        "col3": "5940"
    },
    {
        "col0": "Wolf",
        "col1": "Douglas Wick",
        "col2": "J. Nicholson",
        "col3": "7500"
    },
    {
        "col0": "Woke Up Dead",
        "col1": "Stan Rogow",
        "col2": "J. Heder",
        "col3": "420"
    },
    {
        "col0": "Woh Rehne Waali Mehlon Ki",
        "col1": "Kavita K. Barjatya",
        "col2": "Woh Rehne Waali Mehlon Ki",
        "col3": "1500"
    },
    {
        "col0": "Wog Boy 2: Kings of Mykonos",
        "col1": "Nick Giannopoulos",
        "col2": "N. Giannopoulos",
        "col3": "6120"
    },
    {
        "col0": "Wo Hu",
        "col1": "Wong Jing",
        "col2": "S. Kwok",
        "col3": "6120"
    },
    {
        "col0": "Wizards vs Aliens",
        "col1": "Brian Minchin",
        "col2": "B. Blessed",
        "col3": "1680"
    },
    {
        "col0": "Wizards of Waverly Place: The Movie",
        "col1": "Peter Murrieta",
        "col2": "S. Gomez",
        "col3": "5880"
    },
    {
        "col0": "Wizards",
        "col1": "Ralph Bakshi",
        "col2": "D. Proval",
        "col3": "4800"
    },
    {
        "col0": "Wives and Daughters",
        "col1": "Sue Birtwistle",
        "col2": "K. Hawes",
        "col3": "18060"
    },
    {
        "col0": "Wives Under Suspicion",
        "col1": "Edmund Grainger",
        "col2": "W. William",
        "col3": "4140"
    },
    {
        "col0": "Wives Never Know",
        "col1": "Harlan Thompson",
        "col2": "M. Boland",
        "col3": "4500"
    },
    {
        "col0": "Witness to the Mob",
        "col1": "Robert De Niro",
        "col2": "N. Turturro",
        "col3": "14400"
    },
    {
        "col0": "Witness to Murder",
        "col1": "Chester Erskine",
        "col2": "G. Merrill",
        "col3": "4980"
    },
    {
        "col0": "Witness for the Prosecution",
        "col1": "Arthur Hornblow Jr.",
        "col2": "C. Laughton",
        "col3": "6960"
    },
    {
        "col0": "Witness",
        "col1": "Edward S. Feldman",
        "col2": "H. Ford",
        "col3": "6720"
    },
    {
        "col0": "Without the King",
        "col1": "Michael Skolnik",
        "col2": "Mswati III of Swaziland",
        "col3": "4980"
    },
    {
        "col0": "Without a Trace",
        "col1": "Stanley R. Jaffe",
        "col2": "J. Hirsch",
        "col3": "7200"
    },
    {
        "col0": "Without a Paddle",
        "col1": "Donald DeLine",
        "col2": "S. Green",
        "col3": "5940"
    },
    {
        "col0": "Without Warning",
        "col1": "Greydon Clark",
        "col2": "J. Palance",
        "col3": "5340"
    },
    {
        "col0": "Without Warning!",
        "col1": "Arthur Gardner",
        "col2": "A. Williams",
        "col3": "4620"
    },
    {
        "col0": "Without Reservations",
        "col1": "Jesse L. Lasky",
        "col2": "C. Colbert",
        "col3": "6420"
    },
    {
        "col0": "Without Pity",
        "col1": "Carlo Ponti",
        "col2": "C. D. Poggio",
        "col3": "5700"
    },
    {
        "col0": "Without Orders",
        "col1": "Cliff Reid",
        "col2": "C. Grapewin",
        "col3": "3840"
    },
    {
        "col0": "Without Love",
        "col1": "Lawrence Weingarten",
        "col2": "K. Hepburn",
        "col3": "6660"
    },
    {
        "col0": "Without Limits",
        "col1": "Tom Cruise",
        "col2": "D. Sutherland",
        "col3": "7020"
    },
    {
        "col0": "Without Leaving an Address",
        "col1": "Raoul Ploquin",
        "col2": "B. Blier",
        "col3": "5400"
    },
    {
        "col0": "Without Honor",
        "col1": "Robert and Raymond Hakim",
        "col2": "A. Moorehead",
        "col3": "4140"
    },
    {
        "col0": "Without Fear or Blame",
        "col1": "Antonio da Cunha Telles",
        "col2": "M. Lamotte",
        "col3": "6000"
    },
    {
        "col0": "Without Consent",
        "col1": "Robert Iscove",
        "col2": "J. Garth",
        "col3": "5280"
    },
    {
        "col0": "Without Compassion",
        "col1": "Francisco Jose Lombardi",
        "col2": "D. Bertie",
        "col3": "7200"
    },
    {
        "col0": "Withnail and I",
        "col1": "Paul Heller",
        "col2": "P. McGann",
        "col3": "6420"
    },
    {
        "col0": "Within the Woods",
        "col1": "Sam Raimi",
        "col2": "B. Campbell",
        "col3": "1920"
    },
    {
        "col0": "Within These Walls",
        "col1": "Ben Silvey",
        "col2": "M. Anderson",
        "col3": "4260"
    },
    {
        "col0": "Within Our Gates",
        "col1": "Oscar Micheaux",
        "col2": "E. Preer",
        "col3": "4740"
    },
    {
        "col0": "With the East Wind",
        "col1": "Jose Antonio Sainz de Vicuna",
        "col2": "A. Gades",
        "col3": "5220"
    },
    {
        "col0": "With or Without You",
        "col1": "Andrew Eaton",
        "col2": "C. Eccleston",
        "col3": "5580"
    },
    {
        "col0": "With a Song in My Heart",
        "col1": "Lamar Trotti",
        "col2": "R. Calhoun",
        "col3": "7020"
    },
    {
        "col0": "With These Hands",
        "col1": "Jack Arnold",
        "col2": "S. Levene",
        "col3": "3120"
    },
    {
        "col0": "With Six You Get Eggroll",
        "col1": "Martin Melcher",
        "col2": "D. Day",
        "col3": "5700"
    },
    {
        "col0": "With Love and Hisses",
        "col1": "Hal Roach",
        "col2": "O. Hardy",
        "col3": "1260"
    },
    {
        "col0": "With Honors",
        "col1": "Paula Weinstein",
        "col2": "G. Vidal",
        "col3": "6180"
    },
    {
        "col0": "With Friends Like These...",
        "col1": "Jon Ein",
        "col2": "A. Arkin",
        "col3": "6300"
    },
    {
        "col0": "With Fire and Sword",
        "col1": "Jerzy Hoffman",
        "col2": "I. Scorupco",
        "col3": "10500"
    },
    {
        "col0": "With Byrd at the South Pole",
        "col1": "Adolph Zukor",
        "col2": "R. E. Byrd",
        "col3": "4920"
    },
    {
        "col0": "Witchville",
        "col1": "Brad Krevoy",
        "col2": "E. Speleers",
        "col3": "5280"
    },
    {
        "col0": "Witchouse",
        "col1": "Charles Band",
        "col2": "B. Mueller",
        "col3": "4320"
    },
    {
        "col0": "Witchfinder General",
        "col1": "Louis M. Heyward",
        "col2": "I. Ogilvy",
        "col3": "5160"
    },
    {
        "col0": "Witches of the Caribbean",
        "col1": "Paul Colichman",
        "col2": "J. Cassidy",
        "col3": "4920"
    },
    {
        "col0": "Witchery",
        "col1": "Joe D'Amato",
        "col2": "D. Hasselhoff",
        "col3": "5700"
    },
    {
        "col0": "Witchcraft",
        "col1": "Jesse L. Lasky",
        "col2": "L. Leighton",
        "col3": "3000"
    },
    {
        "col0": "Witchboard III: The Possession",
        "col1": "Robin Spry",
        "col2": "C. Smith",
        "col3": "6000"
    },
    {
        "col0": "Witchblade",
        "col1": "Marc Silvestri",
        "col2": "E. Etebari",
        "col3": "7200"
    },
    {
        "col0": "Witch Way Love",
        "col1": "Christian Fechner",
        "col2": "G. Bellows",
        "col3": "6120"
    },
    {
        "col0": "Wishmaster",
        "col1": "Wes Craven",
        "col2": "J. O'Hara",
        "col3": "5400"
    },
    {
        "col0": "Wished on Mabel",
        "col1": "Mack Sennett",
        "col2": "M. Normand",
        "col3": "660"
    },
    {
        "col0": "Wish You Were Here",
        "col1": "Sarah Radclyffe",
        "col2": "E. Lloyd",
        "col3": "5520"
    },
    {
        "col0": "Wish Upon a Star",
        "col1": "Don Schain",
        "col2": "L. Chiles",
        "col3": "5340"
    },
    {
        "col0": "Wish Kid",
        "col1": "Chuck Patton",
        "col2": "M. Culkin",
        "col3": "1800"
    },
    {
        "col0": "Wish I Was Here",
        "col1": "Stacey Sher",
        "col2": "K. Hudson",
        "col3": "6360"
    },
    {
        "col0": "Wiseguy",
        "col1": "Stephen J. Cannell",
        "col2": "S. Bauer",
        "col3": "3600"
    },
    {
        "col0": "Wise Guys",
        "col1": "Aaron Russo",
        "col2": "D. DeVito",
        "col3": "6000"
    },
    {
        "col0": "Wiretapper",
        "col1": "World Wide Pictures",
        "col2": "G. Lee",
        "col3": "4800"
    },
    {
        "col0": "Wired Science",
        "col1": "KCET",
        "col2": "C. Hardwick",
        "col3": "3300"
    },
    {
        "col0": "Wired",
        "col1": "Edward S. Feldman",
        "col2": "M. Chiklis",
        "col3": "6720"
    },
    {
        "col0": "Wire Service",
        "col1": "Buck Houghton",
        "col2": "M. McCambridge",
        "col3": "2880"
    },
    {
        "col0": "Wir Wunderkinder",
        "col1": "Rolf Thiele",
        "col2": "R. Graf",
        "col3": "6420"
    },
    {
        "col0": "Wintertime",
        "col1": "William Le Baron",
        "col2": "S. Henie",
        "col3": "4920"
    },
    {
        "col0": "Winterset",
        "col1": "Pandro S. Berman",
        "col2": "B. Meredith",
        "col3": "4620"
    },
    {
        "col0": "Winterhawk",
        "col1": "Charles B. Pierce",
        "col2": "L. Erickson",
        "col3": "5880"
    },
    {
        "col0": "Winter of Our Dreams",
        "col1": "Richard Mason",
        "col2": "B. Luhrmann",
        "col3": "5340"
    },
    {
        "col0": "Winter in the Woods",
        "col1": "Alf Teichs",
        "col2": "C. Holm",
        "col3": "5820"
    },
    {
        "col0": "Winter in Wartime",
        "col1": "San Fu Maltha",
        "col2": "J. C. Bower",
        "col3": "6180"
    },
    {
        "col0": "Winter in Rio",
        "col1": "Croatian Radiotelevision",
        "col2": "M. Nadarevic",
        "col3": "5400"
    },
    {
        "col0": "Winter Wonderland",
        "col1": "Walter Colmes",
        "col2": "E. Donahue",
        "col3": "4260"
    },
    {
        "col0": "Winter Sonata",
        "col1": "Lee Hyung-min",
        "col2": "B. Yong-joon",
        "col3": "1315"
    },
    {
        "col0": "Winter Meeting",
        "col1": "Henry Blanke",
        "col2": "B. Davis",
        "col3": "6240"
    },
    {
        "col0": "Winter Light",
        "col1": "Allan Ekelund",
        "col2": "M. v. Sydow",
        "col3": "4860"
    },
    {
        "col0": "Winter Kills",
        "col1": "Fred C. Caruso",
        "col2": "A. Perkins",
        "col3": "5820"
    },
    {
        "col0": "Winter Kill",
        "col1": "Burt Nodella",
        "col2": "N. Nolte",
        "col3": "5640"
    },
    {
        "col0": "Winter Kept Us Warm",
        "col1": "David Secter",
        "col2": "J. Fielding",
        "col3": "4860"
    },
    {
        "col0": "Winter",
        "col1": "Rebecca Gibney",
        "col2": "R. Gibney",
        "col3": "2700"
    },
    {
        "col0": "Winter's Bone",
        "col1": "Anne Rosellini",
        "col2": "J. Lawrence",
        "col3": "6000"
    },
    {
        "col0": "Winning of the West",
        "col1": "Armand Schaefer",
        "col2": "G. Autry",
        "col3": "3420"
    },
    {
        "col0": "Winning Back His Love",
        "col1": "Biograph Company",
        "col2": "W. Lucas",
        "col3": "1020"
    },
    {
        "col0": "Winning America",
        "col1": "Brent Hodge",
        "col2": "S. T. Whale",
        "col3": "2640"
    },
    {
        "col0": "Winning: The Racing Life of Paul Newman",
        "col1": "Adam Carolla",
        "col2": "P. Newman",
        "col3": "4980"
    },
    {
        "col0": "Winning",
        "col1": "John Foreman",
        "col2": "P. Newman",
        "col3": "7380"
    },
    {
        "col0": "Winnie the Pooh and the Honey Tree",
        "col1": "Walt Disney",
        "col2": "H. Smith",
        "col3": "1560"
    },
    {
        "col0": "Winnie the Pooh and the Blustery Day",
        "col1": "Walt Disney",
        "col2": "P. Winchell",
        "col3": "1500"
    },
    {
        "col0": "Winnie the Pooh and Tigger Too",
        "col1": "Wolfgang Reitherman",
        "col2": "P. Winchell",
        "col3": "1500"
    },
    {
        "col0": "Winnie the Pooh and Christmas Too",
        "col1": "Jamie Mitchell",
        "col2": "K. Sansom",
        "col3": "1560"
    },
    {
        "col0": "Winnie the Pooh",
        "col1": "Clark Spencer",
        "col2": "K. Anderson-Lopez",
        "col3": "3780"
    },
    {
        "col0": "Winnetka Road",
        "col1": "John Byrum",
        "col2": "C. Hicks",
        "col3": "3600"
    },
    {
        "col0": "Winners of the West",
        "col1": "Henry MacRae",
        "col2": "C. Stevens",
        "col3": "14820"
    },
    {
        "col0": "Winners and Sinners",
        "col1": "Raymond Chow",
        "col2": "C. Chung",
        "col3": "6060"
    },
    {
        "col0": "Winner Takes All",
        "col1": "Chico Slimani",
        "col2": "C. Slimani",
        "col3": "360"
    },
    {
        "col0": "Winner Takes All",
        "col1": "Raymond Wong Pak-ming",
        "col2": "R. Hui",
        "col3": "5460"
    },
    {
        "col0": "Winner Take All",
        "col1": "Roy Del Ruth",
        "col2": "J. Cagney",
        "col3": "3960"
    },
    {
        "col0": "Winnebago Man",
        "col1": "Ben Steinbauer",
        "col2": "D. Rushkoff",
        "col3": "5100"
    },
    {
        "col0": "Wink of an Eye",
        "col1": "Fernando Carrere",
        "col2": "W. Brown",
        "col3": "4320"
    },
    {
        "col0": "Wings of the Navy",
        "col1": "Louis F. Edelman",
        "col2": "O. d. Havilland",
        "col3": "5340"
    },
    {
        "col0": "Wings of the Morning",
        "col1": "Robert Kane",
        "col2": "H. Fonda",
        "col3": "5340"
    }
]