[
    {
        "col0": "Hall of Transportation, Treasure Island",
        "col1": "G. W. Kelham",
        "col2": "8093",
        "col3": "2008-02-26"
    },
    {
        "col0": "Hall-Chaney House",
        "col1": "E. F. Lawrence",
        "col2": "8093",
        "col3": "1988-09-08"
    },
    {
        "col0": "Halifax County Home and Tubercular Hospital",
        "col1": "B. &. Benton",
        "col2": "1416399",
        "col3": "1985-12-10"
    },
    {
        "col0": "Hager House",
        "col1": "A. &. Shambleau",
        "col2": "4046",
        "col3": "1985-06-05"
    },
    {
        "col0": "H. Russell Albee House",
        "col1": "A. E. Doyle",
        "col2": "2832",
        "col3": "1992-10-22"
    },
    {
        "col0": "H. H. Richardson Historic District of North Easton",
        "col1": "F. L. Olmsted",
        "col2": "23471",
        "col3": "1987-12-23"
    },
    {
        "col0": "H. Chandler and Alice B. Egan House",
        "col1": "C. Egan",
        "col2": "32172",
        "col3": "1997-02-21"
    },
    {
        "col0": "Gomez Residence",
        "col1": "F. Porrata-Doria",
        "col2": "999",
        "col3": "1988-06-15"
    },
    {
        "col0": "Gus J. Solomon United States Courthouse",
        "col1": "M. H. Whitehouse",
        "col2": "10869",
        "col3": "1979-04-30"
    },
    {
        "col0": "Gunston Hall",
        "col1": "G. Mason",
        "col2": "2248838",
        "col3": "1966-10-15"
    },
    {
        "col0": "Guardian Bank Building",
        "col1": "Shepley, Rutan & Coolidge",
        "col2": "4046",
        "col3": "2000-09-08"
    },
    {
        "col0": "Grove Street Cemetery",
        "col1": "H. Austin",
        "col2": "72843",
        "col3": "1997-08-08"
    },
    {
        "col0": "Grove Farm",
        "col1": "C. W. Dickey",
        "col2": "330992",
        "col3": "1974-06-25"
    },
    {
        "col0": "Grosscup Road Historic District",
        "col1": "H. R. Warne",
        "col2": "40468",
        "col3": "1984-01-26"
    },
    {
        "col0": "Greystone Mansion",
        "col1": "G. Kaufmann",
        "col2": "4273",
        "col3": "1976-04-23"
    },
    {
        "col0": "Grey Towers National Historic Site",
        "col1": "R. M. Hunt",
        "col2": "412779",
        "col3": "1966-10-15"
    },
    {
        "col0": "Greer Depot",
        "col1": "C. C. Hook",
        "col2": "2023",
        "col3": "1987-03-06"
    },
    {
        "col0": "Greenwood Plantation",
        "col1": "J. Wind",
        "col2": "5665598",
        "col3": "1976-05-13"
    },
    {
        "col0": "Greenwich Town Hall",
        "col1": "M. a. Uffinger",
        "col2": "4046",
        "col3": "1987-05-21"
    },
    {
        "col0": "Greenville Downtown Historic District",
        "col1": "E. E. Myers",
        "col2": "60702",
        "col3": "2008-11-19"
    },
    {
        "col0": "Greenville City Hall",
        "col1": "W. P. Administration",
        "col2": "809",
        "col3": "1985-08-26"
    },
    {
        "col0": "Greenville Carnegie Library",
        "col1": "W. S. Kaufman",
        "col2": "16187",
        "col3": "1980-11-26"
    },
    {
        "col0": "Greenlawn Cemetery",
        "col1": "C. Connick",
        "col2": "15782",
        "col3": "2000-05-11"
    },
    {
        "col0": "Greenfield Public Square Historic District",
        "col1": "C. E. Bell",
        "col2": "30351",
        "col3": "2014-09-17"
    },
    {
        "col0": "Greenfield Elementary School",
        "col1": "K. a. Elliott",
        "col2": "36421",
        "col3": "1986-09-30"
    },
    {
        "col0": "Greenbelt Knoll",
        "col1": "L. Kahn",
        "col2": "36421",
        "col3": "2010-12-14"
    },
    {
        "col0": "Green-Wood Cemetery",
        "col1": "D. B. Douglass",
        "col2": "1934397",
        "col3": "1997-03-08"
    },
    {
        "col0": "Great Northern Freight Warehouse and Depot",
        "col1": "G. N. Railway",
        "col2": "4046",
        "col3": "1990-01-29"
    },
    {
        "col0": "Graves Creek Ranger Station",
        "col1": "N. P. Service",
        "col2": "8093",
        "col3": "2007-07-13"
    },
    {
        "col0": "Gratiot County Courthouse",
        "col1": "C. Allen",
        "col2": "8093",
        "col3": "1976-01-31"
    },
    {
        "col0": "Graphic Arts Building",
        "col1": "S. &. Williams",
        "col2": "4046",
        "col3": "2009-11-12"
    },
    {
        "col0": "Grants Pass Supervisor's Warehouse",
        "col1": "United States Forest Service",
        "col2": "15378",
        "col3": "1991-03-06"
    },
    {
        "col0": "Grant's Tomb",
        "col1": "J. H. Duncan",
        "col2": "3075",
        "col3": "1966-10-15"
    },
    {
        "col0": "Granot Loma",
        "col1": "M. &. Fox",
        "col2": "2326942",
        "col3": "1991-04-04"
    },
    {
        "col0": "Graniteville Historic District",
        "col1": "W. Gregg",
        "col2": "222577",
        "col3": "1978-06-02"
    },
    {
        "col0": "Granger Hall",
        "col1": "I. J. Gill",
        "col2": "2832",
        "col3": "1975-03-18"
    },
    {
        "col0": "Grand Opera House",
        "col1": "W. J. Edbrooke",
        "col2": "4046",
        "col3": "2002-09-20"
    },
    {
        "col0": "Grand Ole Opry",
        "col1": "W. Becket",
        "col2": "16187",
        "col3": "2015-01-27"
    },
    {
        "col0": "Grand Forks Woolen Mills",
        "col1": "J. W. Ross",
        "col2": "4046",
        "col3": "1983-10-26"
    },
    {
        "col0": "Grand Forks Near Southside Historic District",
        "col1": "J. B. DeRemer",
        "col2": "736527",
        "col3": "2004-07-28"
    },
    {
        "col0": "Grand Canyon Inn and Campground",
        "col1": "G. S. Underwood",
        "col2": "311607",
        "col3": "1982-09-02"
    },
    {
        "col0": "Grand Army of the Republic Memorial Hall",
        "col1": "H. &. Emerson",
        "col2": "404",
        "col3": "1976-07-13"
    },
    {
        "col0": "Granada Theater",
        "col1": "B. Brothers",
        "col2": "4046",
        "col3": "2005-02-09"
    },
    {
        "col0": "Grace United Methodist Church",
        "col1": "S. S. Woodcock",
        "col2": "809",
        "col3": "1985-03-07"
    },
    {
        "col0": "Grace Reformed Church",
        "col1": "P. J. Pelz",
        "col2": "809",
        "col3": "1991-04-18"
    },
    {
        "col0": "Grace Hospital",
        "col1": "C. M. Robinson",
        "col2": "2023",
        "col3": "2004-08-11"
    },
    {
        "col0": "Grace Episcopal Church",
        "col1": "W. Strickland",
        "col2": "20234",
        "col3": "1976-10-21"
    },
    {
        "col0": "Grace Church Van Vorst",
        "col1": "D. Lienau",
        "col2": "1618",
        "col3": "1979-08-01"
    },
    {
        "col0": "Gov. John F. Hill Mansion",
        "col1": "J. C. Stevens",
        "col2": "8093",
        "col3": "1977-11-21"
    },
    {
        "col0": "Gov. John Butler Smith House",
        "col1": "W. M. Butterfield",
        "col2": "4856",
        "col3": "2002-09-14"
    },
    {
        "col0": "Gov. Frank West Rollins House",
        "col1": "Andrews, Jaques & Rantoul",
        "col2": "2023",
        "col3": "1984-03-15"
    },
    {
        "col0": "Gould Mansion Complex",
        "col1": "A. W. Fuller",
        "col2": "2023",
        "col3": "1978-04-19"
    },
    {
        "col0": "Gordon C. Felts House",
        "col1": "G. &. Sheffey",
        "col2": "6070",
        "col3": "2002-02-05"
    },
    {
        "col0": "Gordon-Nash Library",
        "col1": "F. &. Delano",
        "col2": "4451",
        "col3": "1988-09-15"
    },
    {
        "col0": "Goose River Bank",
        "col1": "J. W. Ross",
        "col2": "809",
        "col3": "1985-11-14"
    },
    {
        "col0": "Goldschmidt House",
        "col1": "P. Williams",
        "col2": "2832",
        "col3": "2004-10-14"
    },
    {
        "col0": "Goldsboro Union Station",
        "col1": "J. Leitner",
        "col2": "20234",
        "col3": "1977-04-13"
    },
    {
        "col0": "Gold Creek Ranger Station",
        "col1": "C. C. Corps",
        "col2": "24281",
        "col3": "1992-09-15"
    },
    {
        "col0": "Goffstown Public Library",
        "col1": "Henry M. Francis & Sons",
        "col2": "1214",
        "col3": "1995-12-07"
    },
    {
        "col0": "Godillot Place",
        "col1": "Palliser, Palliser & Co.",
        "col2": "12545",
        "col3": "1977-08-29"
    },
    {
        "col0": "Globe Ticket Company Building",
        "col1": "T. B. Company",
        "col2": "2023",
        "col3": "1984-11-01"
    },
    {
        "col0": "Glenville School",
        "col1": "J. O. Betelle",
        "col2": "40468",
        "col3": "2003-11-21"
    },
    {
        "col0": "Glenview Mansion",
        "col1": "C. W. Clinton",
        "col2": "93077",
        "col3": "1972-06-19"
    },
    {
        "col0": "Glendale National Cemetery",
        "col1": "M. C. Meigs",
        "col2": "26709",
        "col3": "1996-02-26"
    },
    {
        "col0": "Gilmanton Academy",
        "col1": "B. &. Sargent",
        "col2": "6474",
        "col3": "1983-09-08"
    },
    {
        "col0": "Gilbert Building",
        "col1": "W. &. Lewis",
        "col2": "404",
        "col3": "1980-08-21"
    },
    {
        "col0": "Giesy-Failing House",
        "col1": "J. Jacobberger",
        "col2": "6474",
        "col3": "1991-02-22"
    },
    {
        "col0": "Gibson County Courthouse",
        "col1": "M. Brothers",
        "col2": "8093",
        "col3": "1984-09-27"
    },
    {
        "col0": "Gibraltar",
        "col1": "A. E. Ives",
        "col2": "24685",
        "col3": "1998-09-14"
    },
    {
        "col0": "German United Evangelical Church Complex",
        "col1": "G. &. Kaelber",
        "col2": "4046",
        "col3": "1992-03-12"
    },
    {
        "col0": "German Evangelical St. Johns Church",
        "col1": "H. Brothers",
        "col2": "11331",
        "col3": "2001-01-11"
    },
    {
        "col0": "Gerald Hotel",
        "col1": "W. R. Miller",
        "col2": "2428",
        "col3": "2013-03-25"
    },
    {
        "col0": "George Scott House",
        "col1": "S. Hannaford",
        "col2": "4046",
        "col3": "1980-03-03"
    },
    {
        "col0": "George Pipes House",
        "col1": "W. H. Pipes",
        "col2": "404",
        "col3": "1991-02-22"
    },
    {
        "col0": "George Hummel House",
        "col1": "S. Hannaford",
        "col2": "4046",
        "col3": "1980-03-03"
    },
    {
        "col0": "George Hoadley Jr. House",
        "col1": "A. O. Elzner",
        "col2": "4046",
        "col3": "1990-03-09"
    },
    {
        "col0": "George H. Cox House",
        "col1": "G. H. Miller",
        "col2": "4046",
        "col3": "1985-11-14"
    },
    {
        "col0": "George Ferris Mansion",
        "col1": "B. &. Klutz",
        "col2": "1618",
        "col3": "1982-11-01"
    },
    {
        "col0": "George F. Heusner House",
        "col1": "E. M. Lazarus",
        "col2": "809",
        "col3": "1978-10-19"
    },
    {
        "col0": "George C. Boldt Yacht House",
        "col1": "G. W. & W. D. Hewitt",
        "col2": "4046",
        "col3": "1978-04-26"
    },
    {
        "col0": "George Bonner Sr. House",
        "col1": "J. Watkins",
        "col2": "1214",
        "col3": "1986-06-17"
    },
    {
        "col0": "George A. Lougee House",
        "col1": "C. a. Starck",
        "col2": "404",
        "col3": "1978-06-07"
    },
    {
        "col0": "Geneva Country Day School",
        "col1": "H. &. Roche",
        "col2": "4856",
        "col3": "1989-08-21"
    },
    {
        "col0": "General Motors Technical Center",
        "col1": "E. Saarinen",
        "col2": "2428113",
        "col3": "2000-03-27"
    },
    {
        "col0": "General Building",
        "col1": "B. &. McMurry",
        "col2": "404",
        "col3": "1988-03-08"
    },
    {
        "col0": "Gene Stratton-Porter Cabin",
        "col1": "G. Stratton-Porter",
        "col2": "40468",
        "col3": "1974-06-27"
    },
    {
        "col0": "Gaylord City Park",
        "col1": "W. P. Administration",
        "col2": "28044",
        "col3": "2012-02-06"
    },
    {
        "col0": "Gay Street",
        "col1": "B. family",
        "col2": "52609",
        "col3": "1986-11-04"
    },
    {
        "col0": "Gaston-Strong House",
        "col1": "A. E. Doyle",
        "col2": "404",
        "col3": "1990-02-23"
    },
    {
        "col0": "Gasquet Ranger Station Historic District",
        "col1": "C. C. Corps",
        "col2": "12140",
        "col3": "1998-03-26"
    },
    {
        "col0": "Gas Works Park",
        "col1": "R. Haag",
        "col2": "82960",
        "col3": "2013-01-02"
    },
    {
        "col0": "Garton Toy Company",
        "col1": "W. C. Weeks",
        "col2": "4046",
        "col3": "2000-05-11"
    },
    {
        "col0": "Garment Capitol Building",
        "col1": "W. D. Lee",
        "col2": "809",
        "col3": "2010-03-08"
    },
    {
        "col0": "Garfinckel's Department Store",
        "col1": "Starrett & van Vleck",
        "col2": "4046",
        "col3": "1995-04-04"
    },
    {
        "col0": "Garfield County Courthouse",
        "col1": "H. &. Parr",
        "col2": "4046",
        "col3": "1984-08-23"
    },
    {
        "col0": "Garden District",
        "col1": "R. A. Cram",
        "col2": "1274759",
        "col3": "1984-09-13"
    },
    {
        "col0": "Galveston United States Post Office and Courthouse",
        "col1": "A. C. Finn",
        "col2": "4046",
        "col3": "2001-04-25"
    },
    {
        "col0": "G. G. Green's Block",
        "col1": "H. Co.",
        "col2": "1618",
        "col3": "2001-07-25"
    },
    {
        "col0": "Gomez Residence",
        "col1": "F. Porrata-Doria",
        "col2": "999",
        "col3": "1988-06-15"
    },
    {
        "col0": "Furness Library",
        "col1": "F. Furness",
        "col2": "10776",
        "col3": "1972-05-19"
    },
    {
        "col0": "Fulton Opera House",
        "col1": "S. Sloan",
        "col2": "4046",
        "col3": "1969-08-11"
    },
    {
        "col0": "Front Royal Recreational Park Historic District",
        "col1": "C. C. Corps",
        "col2": "254951",
        "col3": "1992-10-27"
    },
    {
        "col0": "Friendfield Plantation",
        "col1": "M. &. Meigs",
        "col2": "13374860",
        "col3": "1996-04-12"
    },
    {
        "col0": "French Worsted Company Mill Historic District",
        "col1": "F. &. Kinnicutt",
        "col2": "27113",
        "col3": "2008-05-21"
    },
    {
        "col0": "Freethinkers' Hall",
        "col1": "A. C. Clas",
        "col2": "8093",
        "col3": "1988-03-31"
    },
    {
        "col0": "Frederic Remington House",
        "col1": "F. Remington",
        "col2": "182108",
        "col3": "1966-10-15"
    },
    {
        "col0": "Franklin Square",
        "col1": "T. Holme",
        "col2": "30351",
        "col3": "1981-09-14"
    }
]