[
    {
        "col0": "You Got It",
        "col1": "Bonnie Raitt",
        "col2": "She's a Mystery to Me",
        "col3": "207"
    },
    {
        "col0": "You Gonna Fly",
        "col1": "Keith Urban",
        "col2": "Long Hot Summer",
        "col3": "216"
    },
    {
        "col0": "You Go Your Way",
        "col1": "Alan Jackson",
        "col2": "So You Don't Have to Love Me Anymore",
        "col3": "197"
    },
    {
        "col0": "You Go Now",
        "col1": "Chroma Key",
        "col2": "Dead Air for Radios",
        "col3": "2353"
    },
    {
        "col0": "You Go First",
        "col1": "Jessica Andrews",
        "col2": "I Will Be There for You",
        "col3": "196"
    },
    {
        "col0": "You Give Me Something",
        "col1": "Jamiroquai",
        "col2": "Little L",
        "col3": "197"
    },
    {
        "col0": "You Give Love a Bad Name",
        "col1": "Bon Jovi",
        "col2": "Silent Night",
        "col3": "222"
    },
    {
        "col0": "You Give Love a Bad Name",
        "col1": "GG Allin",
        "col2": "Hated in the Nation",
        "col3": "1892"
    },
    {
        "col0": "You Give Good Love",
        "col1": "Whitney Houston",
        "col2": "Thinking About You",
        "col3": "246"
    },
    {
        "col0": "You Gets No Love",
        "col1": "Faith Evans",
        "col2": "Can't Believe",
        "col3": "241"
    },
    {
        "col0": "You Get What You Give",
        "col1": "Zac Brown Band",
        "col2": "Pass the Jar: Zac Brown Band and Friends Live from the Fabulous Fox Theatre In Atlanta",
        "col3": "3639"
    },
    {
        "col0": "You Get More Bounce with Curtis Counce!",
        "col1": "Curtis Counce",
        "col2": "The Curtis Counce Group",
        "col3": "2679"
    },
    {
        "col0": "You Get Me",
        "col1": "ZOEgirl",
        "col2": "Dismissed",
        "col3": "228"
    },
    {
        "col0": "You Gave Me the Answer",
        "col1": "Wings",
        "col2": "Listen to What the Man Said",
        "col3": "135"
    },
    {
        "col0": "You Gave Me Freedom",
        "col1": "Rosie Gaines",
        "col2": "Arrival",
        "col3": "3666"
    },
    {
        "col0": "You Found Me",
        "col1": "The Fray",
        "col2": "All at Once",
        "col3": "244"
    },
    {
        "col0": "You Forgot It in People",
        "col1": "Broken Social Scene",
        "col2": "Feel Good Lost",
        "col3": "3371"
    },
    {
        "col0": "You Follow Me",
        "col1": "Nina Nastasia",
        "col2": "On Leaving",
        "col3": "1878"
    },
    {
        "col0": "You Feel Good All Over",
        "col1": "T.G. Sheppard",
        "col2": "Happy Together",
        "col3": "196"
    },
    {
        "col0": "You Fail Me",
        "col1": "Converge",
        "col2": "Unloved and Weeded Out",
        "col3": "2126"
    },
    {
        "col0": "You Dropped a Bomb on Me",
        "col1": "The Gap Band",
        "col2": "Early in the Morning",
        "col3": "12"
    },
    {
        "col0": "You Drive Me Crazy",
        "col1": "Shakin' Stevens",
        "col2": "This Ole House",
        "col3": "171"
    },
    {
        "col0": "You Don't Understand Me",
        "col1": "Roxette",
        "col2": "Vulnerable",
        "col3": "268"
    },
    {
        "col0": "You Don't Seem to Miss Me",
        "col1": "Patty Loveless",
        "col2": "The Trouble with the Truth",
        "col3": "247"
    },
    {
        "col0": "You Don't Own Me",
        "col1": "Lesley Gore",
        "col2": "She's a Fool",
        "col3": "151"
    },
    {
        "col0": "You Don't Need Me Now",
        "col1": "Clint Black",
        "col2": "Loosen Up My Strings",
        "col3": "222"
    },
    {
        "col0": "You Don't Miss Your Water",
        "col1": "William Bell",
        "col2": "Beautiful Waste",
        "col3": "182"
    },
    {
        "col0": "You Don't Mess Around with Jim",
        "col1": "Jim Croce",
        "col2": "Jim & Ingrid Croce",
        "col3": "2002"
    },
    {
        "col0": "You Don't Love Me Anymore",
        "col1": "Eddie Rabbitt",
        "col2": "Hearts on Fire",
        "col3": "202"
    },
    {
        "col0": "You Don't Love Me Anymore",
        "col1": "\"Weird Al\" Yankovic",
        "col2": "Smells Like Nirvana",
        "col3": "240"
    },
    {
        "col0": "You Don't Love Me",
        "col1": "The Kooks",
        "col2": "Sofa Song",
        "col3": "155"
    },
    {
        "col0": "You Don't Love Me",
        "col1": "Spica",
        "col2": "Tonight",
        "col3": "241"
    },
    {
        "col0": "You Don't Know What to Do",
        "col1": "Mariah Carey",
        "col2": "You're Mine",
        "col3": "287"
    },
    {
        "col0": "You Don't Know What Love Is",
        "col1": "The White Stripes",
        "col2": "Rag and Bone",
        "col3": "234"
    },
    {
        "col0": "You Don't Know My Name",
        "col1": "Alicia Keys",
        "col2": "Girlfriend",
        "col3": "268"
    },
    {
        "col0": "You Don't Know Me: The Songs of Cindy Walker",
        "col1": "Willie Nelson",
        "col2": "Countryman",
        "col3": "2348"
    },
    {
        "col0": "You Don't Know Love",
        "col1": "Janie Fricke",
        "col2": "It Ain't Easy Bein' Easy",
        "col3": "196"
    },
    {
        "col0": "You Don't Know Love",
        "col1": "Editors",
        "col2": "Papillon",
        "col3": "280"
    },
    {
        "col0": "You Don't Know How It Feels",
        "col1": "Tom Petty",
        "col2": "American Girl",
        "col3": "289"
    },
    {
        "col0": "You Don't Know Her Like I Do",
        "col1": "Brantley Gilbert",
        "col2": "Country Must Be Country Wide",
        "col3": "287"
    },
    {
        "col0": "You Don't Know Anything",
        "col1": "Ivy",
        "col2": "This Is the Day",
        "col3": "225"
    },
    {
        "col0": "You Don't Know",
        "col1": "Lloyd Banks",
        "col2": "Smack That",
        "col3": "257"
    },
    {
        "col0": "You Don't Know",
        "col1": "Cyndi Lauper",
        "col2": "Come On Home",
        "col3": "314"
    },
    {
        "col0": "You Don't Have to Worry",
        "col1": "New Edition",
        "col2": "Hit Me Off",
        "col3": "321"
    },
    {
        "col0": "You Don't Have to Worry",
        "col1": "Mary J. Blige",
        "col2": "Love No Limit",
        "col3": "246"
    },
    {
        "col0": "You Don't Have to Worry",
        "col1": "En Vogue",
        "col2": "Lies",
        "col3": "47"
    },
    {
        "col0": "You Don't Have to Be in the Army to Fight in the War",
        "col1": "Mungo Jerry",
        "col2": "Lady Rose",
        "col3": "207"
    },
    {
        "col0": "You Don't Fool Me",
        "col1": "Queen",
        "col2": "Let Me Live",
        "col3": "234"
    },
    {
        "col0": "You Don't Even Know Who I Am",
        "col1": "Patty Loveless",
        "col2": "Here I Am",
        "col3": "244"
    },
    {
        "col0": "You Don't Count the Cost",
        "col1": "Billy Dean",
        "col2": "Somewhere in My Broken Heart",
        "col3": "199"
    },
    {
        "col0": "You Don't Come Close",
        "col1": "Ramones",
        "col2": "We're Outta Here!",
        "col3": "1440"
    },
    {
        "col0": "You Don't Care About Us",
        "col1": "Placebo",
        "col2": "Pure Morning",
        "col3": "233"
    },
    {
        "col0": "You Don't Bring Me Flowers",
        "col1": "Neil Diamond",
        "col2": "I'm Glad You're Here with Me Tonight",
        "col3": "2505"
    },
    {
        "col0": "You Do Your Thing",
        "col1": "Montgomery Gentry",
        "col2": "If You Ever Stop Loving Me",
        "col3": "223"
    },
    {
        "col0": "You Do Your Thing",
        "col1": "Montgomery Gentry",
        "col2": "My Town",
        "col3": "2869"
    },
    {
        "col0": "You Disgust Me",
        "col1": "Gangrene",
        "col2": "Welcome to Los Santos",
        "col3": "2340"
    },
    {
        "col0": "You Didn't Have to Be So Nice",
        "col1": "The Lovin' Spoonful",
        "col2": "Do You Believe in Magic",
        "col3": "149"
    },
    {
        "col0": "You Decorated My Life",
        "col1": "Kenny Rogers",
        "col2": "'Til I Can Make It on My Own",
        "col3": "218"
    },
    {
        "col0": "You Cross My Path",
        "col1": "The Charlatans",
        "col2": "Collection",
        "col3": "2200"
    },
    {
        "col0": "You Could Have It So Much Better",
        "col1": "Franz Ferdinand",
        "col2": "Franz Ferdinand",
        "col3": "2476"
    },
    {
        "col0": "You Could Have Been with Me",
        "col1": "Sheena Easton",
        "col2": "Take My Time",
        "col3": "2103"
    },
    {
        "col0": "You Could Be Mine",
        "col1": "Guns N' Roses",
        "col2": "Nightrain",
        "col3": "344"
    },
    {
        "col0": "You Complete Me",
        "col1": "Keyshia Cole",
        "col2": "Playa Cardz Right",
        "col3": "231"
    },
    {
        "col0": "You Complete Me",
        "col1": "Toni Gonzaga",
        "col2": "Toni Gonzaga",
        "col3": "1586"
    },
    {
        "col0": "You Come Before You",
        "col1": "Poison the Well",
        "col2": "Tear from the Red",
        "col3": "2579"
    },
    {
        "col0": "You Comb Her Hair",
        "col1": "George Jones",
        "col2": "Not What I Had in Mind",
        "col3": "161"
    },
    {
        "col0": "You Caught Me Out",
        "col1": "Tracey Ullman",
        "col2": "You Broke My Heart in 17 Places",
        "col3": "3799"
    },
    {
        "col0": "You Can Win If You Want",
        "col1": "Modern Talking",
        "col2": "You're My Heart, You're My Soul",
        "col3": "235"
    },
    {
        "col0": "You Can Tune a Piano, but You Can't Tuna Fish",
        "col1": "REO Speedwagon",
        "col2": "Live: You Get What You Play For",
        "col3": "2027"
    },
    {
        "col0": "You Can Take What's Mine",
        "col1": "George",
        "col2": "Self-titled/Homebrew",
        "col3": "1678"
    },
    {
        "col0": "You Can Sleep While I Drive",
        "col1": "Trisha Yearwood",
        "col2": "Thinkin' About You",
        "col3": "195"
    },
    {
        "col0": "You Can Make Me Dance, Sing or Anything",
        "col1": "Faces",
        "col2": "Pool Hall Richard",
        "col3": "269"
    },
    {
        "col0": "You Can Go Home",
        "col1": "The Desert Rose Band",
        "col2": "Come a Little Closer",
        "col3": "213"
    },
    {
        "col0": "You Can Get It",
        "col1": "Maxx",
        "col2": "No More",
        "col3": "207"
    },
    {
        "col0": "You Can Dream of Me",
        "col1": "Steve Wariner",
        "col2": "Some Fools Never Learn",
        "col3": "244"
    },
    {
        "col0": "You Can Do It",
        "col1": "Ice Cube",
        "col2": "Pushin' Weight",
        "col3": "259"
    },
    {
        "col0": "You Can Do Better",
        "col1": "Johnny Foreigner",
        "col2": "Names",
        "col3": "2325"
    },
    {
        "col0": "You Can Do Anything",
        "col1": "The Zutons",
        "col2": "Tired of Hanging Around",
        "col3": "2938"
    },
    {
        "col0": "You Can Depend on Me",
        "col1": "Restless Heart",
        "col2": "Long Lost Friend",
        "col3": "158"
    },
    {
        "col0": "You Can Dance",
        "col1": "Madonna",
        "col2": "Who's That Girl",
        "col3": "4118"
    },
    {
        "col0": "You Can't Win",
        "col1": "Michael Jackson",
        "col2": "Ease on Down the Road",
        "col3": "437"
    },
    {
        "col0": "You Can't Walk Away From Love",
        "col1": "Gloria Estefan",
        "col2": "Por Un Beso",
        "col3": "254"
    },
    {
        "col0": "You Can't Touch Me",
        "col1": "Royce da 5'9\"",
        "col2": "Boom",
        "col3": "236"
    },
    {
        "col0": "You Can't Take the Honky Tonk Out of the Girl",
        "col1": "Brooks & Dunn",
        "col2": "Red Dirt Road",
        "col3": "221"
    },
    {
        "col0": "You Can't Stop the Reign",
        "col1": "Shaquille O'Neal",
        "col2": "No Hook",
        "col3": "280"
    },
    {
        "col0": "You Can't Stop the Reign",
        "col1": "Shaquille O'Neal",
        "col2": "Shaq-Fu: Da Return",
        "col3": "4118"
    },
    {
        "col0": "You Can't Stop the Music",
        "col1": "The Kinks",
        "col2": "Ducks on the Wall",
        "col3": "192"
    },
    {
        "col0": "You Can't Stop Rock 'n' Roll",
        "col1": "Twisted Sister",
        "col2": "Under the Blade",
        "col3": "2273"
    },
    {
        "col0": "You Can't Stop Me",
        "col1": "Suicide Silence",
        "col2": "The Black Crown",
        "col3": "2397"
    },
    {
        "col0": "You Can't Stop Me",
        "col1": "Guano Apes",
        "col2": "Kumba Yo!",
        "col3": "188"
    },
    {
        "col0": "You Can't Stop Destiny",
        "col1": "Papoose",
        "col2": "The Nacirema Dream",
        "col3": "2370"
    },
    {
        "col0": "You Can't Spell Slaughter Without Laughter",
        "col1": "I Set My Friends On Fire",
        "col2": "I Set My Friends On Fire EP",
        "col3": "2105"
    },
    {
        "col0": "You Can't Run from Love",
        "col1": "Eddie Rabbitt",
        "col2": "You and I",
        "col3": "220"
    },
    {
        "col0": "You Can't Resist It",
        "col1": "Lyle Lovett",
        "col2": "What Else Can I Do",
        "col3": "185"
    },
    {
        "col0": "You Can't Resist",
        "col1": "Patricia Conroy",
        "col2": "Bad Day for Trains",
        "col3": "2157"
    },
    {
        "col0": "You Can't Regret What You Don't Remember",
        "col1": "Ben Moody",
        "col2": "All for This",
        "col3": "2697"
    },
    {
        "col0": "You Can't Really Miss Me If I Never Go Away",
        "col1": "Donnie Iris",
        "col2": "Ellwood City",
        "col3": "1621"
    },
    {
        "col0": "You Can't Pray a Lie",
        "col1": "Laughing Hyenas",
        "col2": "Come Down to the Merry Go Round",
        "col3": "1873"
    },
    {
        "col0": "You Can't Make a Heart Love Somebody",
        "col1": "George Strait",
        "col2": "The Big One",
        "col3": "201"
    },
    {
        "col0": "You Can't Lose Me",
        "col1": "Faith Hill",
        "col2": "Someone Else's Dream",
        "col3": "232"
    },
    {
        "col0": "You Can't Imagine How Much Fun We're Having",
        "col1": "Atmosphere",
        "col2": "Headshots: Se7en",
        "col3": "3059"
    },
    {
        "col0": "You Can't Hurry Love",
        "col1": "Phil Collins",
        "col2": "Love Is Like an Itching in My Heart",
        "col3": "167"
    },
    {
        "col0": "You Can't Get There from Here",
        "col1": "Lee Roy Parnell",
        "col2": "Lucky Me, Lucky You",
        "col3": "227"
    },
    {
        "col0": "You Can't Fool Me Dennis",
        "col1": "Mystery Jets",
        "col2": "On My Feet",
        "col3": "219"
    },
    {
        "col0": "You Can't Fall in Love When You're Cryin'",
        "col1": "Lee Greenwood",
        "col2": "I Still Believe",
        "col3": "233"
    },
    {
        "col0": "You Can't Do That on Stage Anymore, Vol. 6",
        "col1": "Frank Zappa",
        "col2": "You Can't Do That on Stage Anymore, Vol. 5",
        "col3": "8246"
    },
    {
        "col0": "You Can't Do That on Stage Anymore, Vol. 5",
        "col1": "Frank Zappa",
        "col2": "Make A Jazz Noise Here",
        "col3": "8445"
    },
    {
        "col0": "You Can't Do That on Stage Anymore, Vol. 4",
        "col1": "Frank Zappa",
        "col2": "The Best Band You Never Heard in Your Life",
        "col3": "8043"
    },
    {
        "col0": "You Can't Do That on Stage Anymore, Vol. 3",
        "col1": "Frank Zappa",
        "col2": "Broadway the Hard Way",
        "col3": "8103"
    },
    {
        "col0": "You Can't Do That on Stage Anymore, Vol. 2",
        "col1": "Frank Zappa",
        "col2": "You Can't Do That on Stage Anymore, Vol. 1",
        "col3": "7002"
    },
    {
        "col0": "You Can't Do That on Stage Anymore, Vol. 1",
        "col1": "Frank Zappa",
        "col2": "Guitar",
        "col3": "8243"
    },
    {
        "col0": "You Can't Do That",
        "col1": "The Beatles",
        "col2": "I Want to Hold Your Hand",
        "col3": "157"
    },
    {
        "col0": "You Can't Do Me",
        "col1": "Madeleine Peyroux",
        "col2": "Once in a While",
        "col3": "304"
    },
    {
        "col0": "You Can't Deny It",
        "col1": "Lisa Stansfield",
        "col2": "What Did I Do to You?",
        "col3": "336"
    },
    {
        "col0": "You Can't Blame the Train",
        "col1": "Don McLean",
        "col2": "She's Got You",
        "col3": "187"
    },
    {
        "col0": "You Can't Beat Tomorrow",
        "col1": "The Howling Hex",
        "col2": "All-Night Fox",
        "col3": "1734"
    },
    {
        "col0": "You Can't Argue with a Sick Mind",
        "col1": "Joe Walsh",
        "col2": "So What",
        "col3": "2109"
    },
    {
        "col0": "You Can't Always Get What You Want",
        "col1": "The Rolling Stones",
        "col2": "Street Fighting Man",
        "col3": "290"
    },
    {
        "col0": "You Came Up",
        "col1": "Big Pun",
        "col2": "Still Not a Player",
        "col3": "234"
    },
    {
        "col0": "You Came",
        "col1": "Kim Wilde",
        "col2": "Hey Mister Heartache",
        "col3": "7"
    },
    {
        "col0": "You Broke My Heart So I Busted Your Jaw",
        "col1": "Spooky Tooth",
        "col2": "The Last Puff",
        "col3": "2090"
    },
    {
        "col0": "You Bring Me Up",
        "col1": "K-Ci & JoJo",
        "col2": "How Could You",
        "col3": "263"
    },
    {
        "col0": "You Bring Me Joy",
        "col1": "Mary J. Blige",
        "col2": "Mary Jane",
        "col3": "276"
    },
    {
        "col0": "You Bring Me Joy",
        "col1": "Amelia Lily",
        "col2": "Wishing on a Star",
        "col3": "231"
    },
    {
        "col0": "You Bring Me Down",
        "col1": "Blood Red Shoes",
        "col2": "A.D.H.D",
        "col3": "222"
    },
    {
        "col0": "You Brainstorm, I Brainstorm, but Brilliance Needs a Good Editor",
        "col1": "Manchester Orchestra",
        "col2": "Nobody Sings Anymore",
        "col3": "1293"
    },
    {
        "col0": "You Boyz Make Big Noize",
        "col1": "Slade",
        "col2": "That's What Friends Are For",
        "col3": "181"
    },
    {
        "col0": "You Boyz Make Big Noize",
        "col1": "Slade",
        "col2": "Crackers - The Christmas Party Album",
        "col3": "2462"
    },
    {
        "col0": "You Bought It - You Name It",
        "col1": "Joe Walsh",
        "col2": "There Goes the Neighborhood",
        "col3": "2303"
    },
    {
        "col0": "You Blow Me Away",
        "col1": "Robert Palmer",
        "col2": "Know by Now",
        "col3": "275"
    },
    {
        "col0": "You Blew",
        "col1": "La Toya Jackson",
        "col2": "Such a Wicked Love",
        "col3": "200"
    },
    {
        "col0": "You Better You Bet",
        "col1": "The Who",
        "col2": "5.15",
        "col3": "336"
    },
    {
        "col0": "You Better Wait",
        "col1": "Steve Perry",
        "col2": "Foolish Heart",
        "col3": "225"
    },
    {
        "col0": "You Better Think Twice",
        "col1": "Vince Gill",
        "col2": "Which Bridge to Cross",
        "col3": "208"
    },
    {
        "col0": "You Better Sit Down Kids",
        "col1": "Cher",
        "col2": "Hey Joe",
        "col3": "222"
    },
    {
        "col0": "You Better Run",
        "col1": "Pat Benatar",
        "col2": "Good Lovin'",
        "col3": "145"
    },
    {
        "col0": "You Better Pray",
        "col1": "The Red Jumpsuit Apparatus",
        "col2": "Damn Regret",
        "col3": "215"
    },
    {
        "col0": "You Better Dance",
        "col1": "The Jets",
        "col2": "Anytime",
        "col3": "210"
    },
    {
        "col0": "You Better Be Sure",
        "col1": "Shirley Myers",
        "col2": "Forever in Love",
        "col3": "243"
    },
    {
        "col0": "You Better Ask Somebody",
        "col1": "Yo-Yo",
        "col2": "Black Pearl",
        "col3": "2671"
    },
    {
        "col0": "You Belong with Me",
        "col1": "Taylor Swift",
        "col2": "White Horse",
        "col3": "232"
    },
    {
        "col0": "You Belong to Me",
        "col1": "Jake Williams",
        "col2": "Son of a Gun",
        "col3": "243"
    },
    {
        "col0": "You Belong to Me",
        "col1": "Carly Simon",
        "col2": "Nobody Does It Better",
        "col3": "232"
    },
    {
        "col0": "You Belong in Rock n' Roll",
        "col1": "Tin Machine",
        "col2": "Fame",
        "col3": "213"
    },
    {
        "col0": "You Belong",
        "col1": "Hercules and Love Affair",
        "col2": "Blind",
        "col3": "252"
    },
    {
        "col0": "You Been Played",
        "col1": "Smooth",
        "col2": "Smooth & Legit",
        "col3": "2919"
    },
    {
        "col0": "You Beat Me to the Punch",
        "col1": "Mary Wells",
        "col2": "The One Who Really Loves You",
        "col3": "165"
    },
    {
        "col0": "You Be Me",
        "col1": "Joe Morris",
        "col2": "Elsewhere",
        "col3": "3939"
    }
]