[
    {
        "col0": "326 Tamara",
        "col1": "9",
        "col2": "1892-03-19",
        "col3": "412498176710",
        "col4": "280890945941"
    },
    {
        "col0": "3267 Glo",
        "col1": "12",
        "col2": "1981-01-03",
        "col3": "451287647961",
        "col4": "245809512232"
    },
    {
        "col0": "325 Heidelberga",
        "col1": "8",
        "col2": "1892-03-04",
        "col3": "556848154106",
        "col4": "403911258932"
    },
    {
        "col0": "3255 Tholen",
        "col1": "13",
        "col2": "1980-09-02",
        "col3": "484023910649",
        "col4": "225683347738"
    },
    {
        "col0": "324 Bamberga",
        "col1": "6",
        "col2": "1892-02-25",
        "col3": "537717578401",
        "col4": "264822638649"
    },
    {
        "col0": "3247 Di Martino",
        "col1": "13",
        "col2": "1981-12-30",
        "col3": "401324352713",
        "col4": "309911317199"
    },
    {
        "col0": "3240 Laocoon",
        "col1": "10",
        "col2": "1978-11-07",
        "col3": "882492799046",
        "col4": "684589775897"
    },
    {
        "col0": "323 Brucia",
        "col1": "9",
        "col2": "1891-12-22",
        "col3": "463529002363",
        "col4": "249215092799"
    },
    {
        "col0": "322 Phaeo",
        "col1": "9",
        "col2": "1891-11-27",
        "col3": "518655817716",
        "col4": "313636423858"
    },
    {
        "col0": "3225 Hoag",
        "col1": "13",
        "col2": "1982-08-20",
        "col3": "296143944837",
        "col4": "266278225931"
    },
    {
        "col0": "32226 Vikulgupta",
        "col1": "14",
        "col2": "2000-07-23",
        "col3": "387069530649",
        "col4": "308455849596"
    },
    {
        "col0": "321 Florentina",
        "col1": "10",
        "col2": "1891-10-15",
        "col3": "451604556090",
        "col4": "412037415269"
    },
    {
        "col0": "32145 Katberman",
        "col1": "14",
        "col2": "2000-06-07",
        "col3": "424842993000",
        "col4": "297699762693"
    },
    {
        "col0": "3212 Agricola",
        "col1": "13",
        "col2": "1938-02-19",
        "col3": "388730067013",
        "col4": "286390163668"
    },
    {
        "col0": "320 Katharina",
        "col1": "10",
        "col2": "1891-10-11",
        "col3": "503097639164",
        "col4": "397855537126"
    },
    {
        "col0": "3204 Lindgren",
        "col1": "12",
        "col2": "1978-09-01",
        "col3": "604210839970",
        "col4": "340439874351"
    },
    {
        "col0": "3202 Graff",
        "col1": "10",
        "col2": "1908-01-03",
        "col3": "656629933863",
        "col4": "521064343435"
    },
    {
        "col0": "3201 Sijthoff",
        "col1": "13",
        "col2": "1960-09-24",
        "col3": "367288189246",
        "col4": "308246203140"
    },
    {
        "col0": "3200 Phaethon",
        "col1": "14",
        "col2": "1983-10-11",
        "col3": "359393760012",
        "col4": "20942220879"
    },
    {
        "col0": "32008 Adriangalad",
        "col1": "14",
        "col2": "2000-04-29",
        "col3": "391228351454",
        "col4": "264593753907"
    },
    {
        "col0": "31 Euphrosyne",
        "col1": "6",
        "col2": "1854-09-01",
        "col3": "577571000000",
        "col4": "364719608766"
    },
    {
        "col0": "319 Leona",
        "col1": "10",
        "col2": "1891-10-08",
        "col3": "620352450218",
        "col4": "398738164563"
    },
    {
        "col0": "3199 Nefertiti",
        "col1": "14",
        "col2": "1982-09-13",
        "col3": "302434121518",
        "col4": "168625072476"
    },
    {
        "col0": "3198 Wallonia",
        "col1": "13",
        "col2": "1981-12-30",
        "col3": "403961269500",
        "col4": "248503096693"
    },
    {
        "col0": "3192 A'Hearn",
        "col1": "13",
        "col2": "1982-01-30",
        "col3": "415612804378",
        "col4": "295560513141"
    },
    {
        "col0": "318 Magdalena",
        "col1": "9",
        "col2": "1891-09-24",
        "col3": "518322214465",
        "col4": "437005299888"
    },
    {
        "col0": "3184 Raab",
        "col1": "12",
        "col2": "1949-08-22",
        "col3": "504046972291",
        "col4": "293369278330"
    },
    {
        "col0": "3181 Ahnert",
        "col1": "12",
        "col2": "1964-03-08",
        "col3": "355115425467",
        "col4": "311806841900"
    },
    {
        "col0": "317 Roxane",
        "col1": "10",
        "col2": "1891-09-11",
        "col3": "371481432522",
        "col4": "312674509550"
    },
    {
        "col0": "3176 Paolicchi",
        "col1": "11",
        "col2": "1980-11-13",
        "col3": "443138812587",
        "col4": "417452858188"
    },
    {
        "col0": "3174 Alcock",
        "col1": "11",
        "col2": "1984-10-26",
        "col3": "552390137559",
        "col4": "388595428930"
    },
    {
        "col0": "316 Goberta",
        "col1": "10",
        "col2": "1891-09-08",
        "col3": "540407348116",
        "col4": "410765833368"
    },
    {
        "col0": "3169 Ostro",
        "col1": "12",
        "col2": "1981-06-04",
        "col3": "301918422646",
        "col4": "264130000507"
    },
    {
        "col0": "31641 Cevasco",
        "col1": "14",
        "col2": "1999-04-06",
        "col3": "411783098888",
        "col4": "317626199070"
    },
    {
        "col0": "315 Constantia",
        "col1": "12",
        "col2": "1891-09-04",
        "col3": "391891070021",
        "col4": "278597610583"
    },
    {
        "col0": "314 Rosalia",
        "col1": "10",
        "col2": "1891-09-01",
        "col3": "555021564105",
        "col4": "388415911485"
    },
    {
        "col0": "313 Chaldaea",
        "col1": "8",
        "col2": "1891-08-30",
        "col3": "419681866461",
        "col4": "291057617233"
    },
    {
        "col0": "3137 Horky",
        "col1": "13",
        "col2": "1982-09-16",
        "col3": "427326317654",
        "col4": "291162335743"
    },
    {
        "col0": "3133 Sendai",
        "col1": "12",
        "col2": "1907-10-04",
        "col3": "378692049889",
        "col4": "273734183806"
    },
    {
        "col0": "3131 Mason-Dixon",
        "col1": "12",
        "col2": "1982-01-24",
        "col3": "455929430532",
        "col4": "418500043283"
    },
    {
        "col0": "312 Pierretta",
        "col1": "8",
        "col2": "1891-08-28",
        "col3": "482498012368",
        "col4": "350192159542"
    },
    {
        "col0": "3122 Florence",
        "col1": "14",
        "col2": "1981-03-02",
        "col3": "376433122042",
        "col4": "152739425984"
    },
    {
        "col0": "311 Claudia",
        "col1": "10",
        "col2": "1891-06-11",
        "col3": "434565358617",
        "col4": "432482956257"
    },
    {
        "col0": "31192 Aigoual",
        "col1": "13",
        "col2": "1997-12-29",
        "col3": "488541766344",
        "col4": "334680356330"
    },
    {
        "col0": "31179 Gongju",
        "col1": "13",
        "col2": "1997-12-21",
        "col3": "435658919052",
        "col4": "295276277187"
    },
    {
        "col0": "310 Margarita",
        "col1": "10",
        "col2": "1891-05-16",
        "col3": "460200449740",
        "col4": "366439984279"
    },
    {
        "col0": "3103 Eger",
        "col1": "15",
        "col2": "1982-01-20",
        "col3": "284550109858",
        "col4": "135644877299"
    },
    {
        "col0": "3102 Krok",
        "col1": "16",
        "col2": "1981-08-21",
        "col3": "466345455329",
        "col4": "177121385922"
    },
    {
        "col0": "30 Urania",
        "col1": "7",
        "col2": "1854-07-22",
        "col3": "398817000000",
        "col4": "309338000000"
    },
    {
        "col0": "309 Fraternitas",
        "col1": "10",
        "col2": "1891-04-06",
        "col3": "444495665274",
        "col4": "352720363557"
    },
    {
        "col0": "308 Polyxo",
        "col1": "8",
        "col2": "1891-03-31",
        "col3": "427811014755",
        "col4": "394900979180"
    },
    {
        "col0": "307 Nike",
        "col1": "10",
        "col2": "1891-03-05",
        "col3": "497053885187",
        "col4": "372483738255"
    },
    {
        "col0": "3074 Popov",
        "col1": "13",
        "col2": "1979-12-24",
        "col3": "388819825736",
        "col4": "311133651481"
    },
    {
        "col0": "3073 Kursk",
        "col1": "13",
        "col2": "1979-09-24",
        "col3": "381220253904",
        "col4": "289800995120"
    },
    {
        "col0": "30718 Records",
        "col1": "14",
        "col2": "1955-09-14",
        "col3": "544640967857",
        "col4": "282515578816"
    },
    {
        "col0": "3070 Aitken",
        "col1": "13",
        "col2": "1949-04-04",
        "col3": "413069640576",
        "col4": "276785980369"
    },
    {
        "col0": "306 Unitas",
        "col1": "8",
        "col2": "1891-03-01",
        "col3": "406128299376",
        "col4": "299330379483"
    },
    {
        "col0": "3067 Akhmatova",
        "col1": "13",
        "col2": "1982-10-14",
        "col3": "382072961767",
        "col4": "289756115758"
    },
    {
        "col0": "3066 McFadden",
        "col1": "11",
        "col2": "1984-03-01",
        "col3": "428426654872",
        "col4": "327657200054"
    },
    {
        "col0": "3063 Makhaon",
        "col1": "8",
        "col2": "1983-08-04",
        "col3": "825041232782",
        "col4": "732365351884"
    },
    {
        "col0": "305 Gordonia",
        "col1": "8",
        "col2": "1891-02-16",
        "col3": "552295890901",
        "col4": "373436676692"
    },
    {
        "col0": "30564 Olomouc",
        "col1": "15",
        "col2": "2001-07-28",
        "col3": "444619831507",
        "col4": "332585986140"
    },
    {
        "col0": "3054 Strugatskia",
        "col1": "11",
        "col2": "1977-09-11",
        "col3": "560478146439",
        "col4": "365270128930"
    },
    {
        "col0": "304 Olga",
        "col1": "9",
        "col2": "1891-02-14",
        "col3": "439397369841",
        "col4": "279528109339"
    },
    {
        "col0": "3047 Goethe",
        "col1": "12",
        "col2": "1960-09-24",
        "col3": "406292348401",
        "col4": "384423518311"
    },
    {
        "col0": "3045 Alois",
        "col1": "11",
        "col2": "1984-01-08",
        "col3": "521139142370",
        "col4": "415672643527"
    },
    {
        "col0": "3043 San Diego",
        "col1": "13",
        "col2": "1982-09-20",
        "col3": "318912740758",
        "col4": "257457935474"
    },
    {
        "col0": "3040 Kozai",
        "col1": "13",
        "col2": "1979-01-23",
        "col3": "330506575737",
        "col4": "220223025457"
    },
    {
        "col0": "303 Josephina",
        "col1": "8",
        "col2": "1891-02-12",
        "col3": "496130866325",
        "col4": "438272393853"
    },
    {
        "col0": "3037 Alku",
        "col1": "11",
        "col2": "1944-01-17",
        "col3": "475661389677",
        "col4": "324073867297"
    },
    {
        "col0": "3034 Climenhaga",
        "col1": "12",
        "col2": "1917-09-24",
        "col3": "420773930917",
        "col4": "274556972095"
    },
    {
        "col0": "3031 Houston",
        "col1": "12",
        "col2": "1984-02-08",
        "col3": "367234348973",
        "col4": "301846615668"
    },
    {
        "col0": "302 Clarissa",
        "col1": "10",
        "col2": "1890-11-14",
        "col3": "400035178102",
        "col4": "319612858793"
    },
    {
        "col0": "301 Bavaria",
        "col1": "10",
        "col2": "1890-11-16",
        "col3": "434870538273",
        "col4": "380523127827"
    },
    {
        "col0": "3015 Candy",
        "col1": "11",
        "col2": "1980-11-09",
        "col3": "594157863059",
        "col4": "418694520515"
    },
    {
        "col0": "300 Geraldina",
        "col1": "9",
        "col2": "1890-10-03",
        "col3": "506740347315",
        "col4": "452361521316"
    }
]