[
    {
        "col0": "Catch My Soul",
        "col1": "W. Shakespeare",
        "col2": "Othello",
        "col3": "R. Pohlman"
    },
    {
        "col0": "Catch Me If You Can",
        "col1": "T. McNally",
        "col2": "Catch Me If You Can",
        "col3": "M. Shaiman"
    },
    {
        "col0": "Carrie",
        "col1": "L. D. Cohen",
        "col2": "Stephen King",
        "col3": "M. Gore"
    },
    {
        "col0": "Carousel",
        "col1": "O. H. II",
        "col2": "Ferenc Molnar",
        "col3": "R. Rodgers"
    },
    {
        "col0": "Carnival in Flanders",
        "col1": "P. Sturges",
        "col2": "Cinema of France",
        "col3": "J. V. Heusen"
    },
    {
        "col0": "Carnival!",
        "col1": "M. Stewart",
        "col2": "Lili",
        "col3": "B. Merrill"
    },
    {
        "col0": "Carmen Jones",
        "col1": "O. H. II",
        "col2": "Georges Bizet",
        "col3": "G. Bizet"
    },
    {
        "col0": "Carmelina",
        "col1": "A. J. Lerner",
        "col2": "Buona Sera, Mrs. Campbell",
        "col3": "B. Lane"
    },
    {
        "col0": "Canterbury Tales",
        "col1": "N. Coghill",
        "col2": "Canterbury Tales",
        "col3": "R. Hill"
    },
    {
        "col0": "Candide",
        "col1": "H. Wheeler",
        "col2": "Candide",
        "col3": "L. Bernstein"
    },
    {
        "col0": "Camelot",
        "col1": "A. J. Lerner",
        "col2": "T. H. White",
        "col3": "F. Loewe"
    },
    {
        "col0": "Calamity Jane",
        "col1": "R. Hanmer",
        "col2": "Calamity Jane",
        "col3": "S. Fain"
    },
    {
        "col0": "Cabaret",
        "col1": "J. Masteroff",
        "col2": "Christopher Isherwood",
        "col3": "J. Kander"
    },
    {
        "col0": "By Jeeves",
        "col1": "A. Ayckbourn",
        "col2": "P. G. Wodehouse",
        "col3": "A. L. Webber"
    },
    {
        "col0": "Busker Alley",
        "col1": "A. Carothers",
        "col2": "Sidewalks of London",
        "col3": "R. B. Sherman"
    },
    {
        "col0": "Bugs Bunny on Broadway",
        "col1": "G. Daugherty",
        "col2": "Looney Tunes",
        "col3": "M. Franklyn"
    },
    {
        "col0": "Bubble Boy",
        "col1": "C. Paul",
        "col2": "Bubble Boy",
        "col3": "C. Paul"
    },
    {
        "col0": "Bring It On the Musical",
        "col1": "J. Whitty",
        "col2": "Bring It On",
        "col3": "L. Miranda"
    },
    {
        "col0": "Bring Back Birdie",
        "col1": "M. Stewart",
        "col2": "Bye Bye Birdie",
        "col3": "C. Strouse"
    },
    {
        "col0": "Bridget Jones' Diary",
        "col1": "H. Fielding",
        "col2": "Bridget Jones's Diary",
        "col3": "L. Allen"
    },
    {
        "col0": "Breakfast at Tiffany's",
        "col1": "E. Albee",
        "col2": "Breakfast at Tiffany's",
        "col3": "B. Merrill"
    },
    {
        "col0": "Black Nativity",
        "col1": "L. Hughes",
        "col2": "Nativity play",
        "col3": "L. Hughes"
    },
    {
        "col0": "Billy Elliot the Musical",
        "col1": "L. Hall",
        "col2": "Billy Elliot",
        "col3": "E. John"
    },
    {
        "col0": "Billy Bishop Goes to War",
        "col1": "J. M. Gray",
        "col2": "Billy Bishop",
        "col3": "J. M. Gray"
    }
]