[
    {
        "col0": "Plant's gulella snail",
        "col1": "Streptaxoidea",
        "col2": "LR/lc",
        "col3": "IUCN2.3"
    },
    {
        "col0": "Planorbis planorbis",
        "col1": "Planorbidae",
        "col2": "LC",
        "col3": "iucn3.1"
    },
    {
        "col0": "Planorbarius corneus",
        "col1": "Planorbidae",
        "col2": "LC",
        "col3": "iucn3.1"
    },
    {
        "col0": "Planilaoma luckmanii",
        "col1": "Charopidae",
        "col2": "LC",
        "col3": "IUCN2.3"
    },
    {
        "col0": "Plain cactus snail",
        "col1": "Helicoidea",
        "col2": "VU",
        "col3": "IUCN2.3"
    },
    {
        "col0": "Plagigeyeria conilis",
        "col1": "Hydrobiidae",
        "col2": "VU",
        "col3": "IUCN2.3"
    },
    {
        "col0": "Placostylus porphyrostomus",
        "col1": "Orthalicoidea",
        "col2": "VU",
        "col3": "IUCN2.3"
    },
    {
        "col0": "Placostylus hongii",
        "col1": "Orthalicoidea",
        "col2": "VU",
        "col3": "IUCN2.3"
    },
    {
        "col0": "Placostylus fibratus",
        "col1": "Orthalicoidea",
        "col2": "VU",
        "col3": "IUCN2.3"
    },
    {
        "col0": "Placostylus eddystonensis",
        "col1": "Orthalicoidea",
        "col2": "VU",
        "col3": "IUCN2.3"
    },
    {
        "col0": "Placostylus cuniculinsulae",
        "col1": "Orthalicoidea",
        "col2": "EX",
        "col3": "IUCN2.3"
    },
    {
        "col0": "Placostylus ambagiosus",
        "col1": "Orthalicoidea",
        "col2": "VU",
        "col3": "iucn2.3"
    },
    {
        "col0": "Pittoconcha concinna",
        "col1": "Helicarionidae",
        "col2": "VU",
        "col3": "IUCN2.3"
    },
    {
        "col0": "Pisidium supinum",
        "col1": "Sphaeriidae",
        "col2": "LC",
        "col3": "IUCN3.1"
    },
    {
        "col0": "Pisidium stewarti",
        "col1": "Sphaeriidae",
        "col2": "DD",
        "col3": "IUCN3.1"
    },
    {
        "col0": "Pisidium pseudosphaerium",
        "col1": "Sphaeriidae",
        "col2": "LC",
        "col3": "IUCN3.1"
    },
    {
        "col0": "Pisidium fultoni",
        "col1": "Sphaeriidae",
        "col2": "LR/nt",
        "col3": "IUCN2.3"
    },
    {
        "col0": "Pisidium artifex",
        "col1": "Sphaeriidae",
        "col2": "VU",
        "col3": "IUCN3.1"
    },
    {
        "col0": "Pink mucket",
        "col1": "Unionidae",
        "col2": "EN",
        "col3": "IUCN2.3"
    },
    {
        "col0": "Pilula praetumida",
        "col1": "Charopidae",
        "col2": "VU",
        "col3": "IUCN2.3"
    },
    {
        "col0": "Pilsbrycharopa tumida",
        "col1": "Charopidae",
        "col2": "VU",
        "col3": "IUCN2.3"
    },
    {
        "col0": "Pilsbry's narrow-apertured land snail",
        "col1": "Helicoidea",
        "col2": "DD",
        "col3": "IUCN2.3"
    },
    {
        "col0": "Pillomena aemula",
        "col1": "Charopidae",
        "col2": "LR/nt",
        "col3": "IUCN2.3"
    },
    {
        "col0": "Pila speciosa",
        "col1": "Ampullariidae",
        "col2": "DD",
        "col3": "IUCN3.1"
    },
    {
        "col0": "Pila occidentalis",
        "col1": "Ampullariidae",
        "col2": "LC",
        "col3": "IUCN3.1"
    },
    {
        "col0": "Phrantela umbilicata",
        "col1": "Hydrobiidae",
        "col2": "VU",
        "col3": "IUCN2.3"
    },
    {
        "col0": "Phrantela richardsoni",
        "col1": "Hydrobiidae",
        "col2": "DD",
        "col3": "IUCN2.3"
    },
    {
        "col0": "Phrantela pupiformis",
        "col1": "Hydrobiidae",
        "col2": "VU",
        "col3": "IUCN2.3"
    },
    {
        "col0": "Phrantela kutikina",
        "col1": "Hydrobiidae",
        "col2": "VU",
        "col3": "IUCN2.3"
    },
    {
        "col0": "Phrantela conica",
        "col1": "Hydrobiidae",
        "col2": "VU",
        "col3": "IUCN2.3"
    },
    {
        "col0": "Phrantela annamurrayae",
        "col1": "Hydrobiidae",
        "col2": "VU",
        "col3": "IUCN2.3"
    },
    {
        "col0": "Philonesia pitcairnensis",
        "col1": "Helicarionidae",
        "col2": "VU",
        "col3": "IUCN2.3"
    },
    {
        "col0": "Philonesia filiceti",
        "col1": "Helicarionidae",
        "col2": "VU",
        "col3": "IUCN2.3"
    },
    {
        "col0": "Phenacolimax atlantica",
        "col1": "Limacoidea",
        "col2": "LR/lc",
        "col3": "IUCN2.3"
    },
    {
        "col0": "Phantom cave snail",
        "col1": "Hydrobiidae",
        "col2": "VU",
        "col3": "IUCN2.3"
    },
    {
        "col0": "Petasina subtecta",
        "col1": "Helicoidea",
        "col2": "NT",
        "col3": "IUCN3.1"
    },
    {
        "col0": "Pernagera gatliffi",
        "col1": "Charopidae",
        "col2": "VU",
        "col3": "IUCN2.3"
    },
    {
        "col0": "Perdicella zebrina",
        "col1": "Achatinelloidea",
        "col2": "EX",
        "col3": "IUCN2.3"
    },
    {
        "col0": "Perdicella zebra",
        "col1": "Achatinelloidea",
        "col2": "EX",
        "col3": "IUCN2.3"
    },
    {
        "col0": "Perdicella ornata",
        "col1": "Achatinelloidea",
        "col2": "DD",
        "col3": "IUCN2.3"
    },
    {
        "col0": "Perdicella maniensis",
        "col1": "Achatinelloidea",
        "col2": "EX",
        "col3": "IUCN2.3"
    },
    {
        "col0": "Perdicella kuhnsi",
        "col1": "Achatinelloidea",
        "col2": "DD",
        "col3": "IUCN2.3"
    },
    {
        "col0": "Perdicella helena",
        "col1": "Achatinelloidea",
        "col2": "EN",
        "col3": "IUCN2.3"
    },
    {
        "col0": "Perdicella fulgurans",
        "col1": "Achatinelloidea",
        "col2": "EX",
        "col3": "IUCN2.3"
    },
    {
        "col0": "Perdicella carinella",
        "col1": "Achatinelloidea",
        "col2": "DD",
        "col3": "IUCN2.3"
    },
    {
        "col0": "Penitent mussel",
        "col1": "Unionidae",
        "col2": "CR",
        "col3": "IUCN2.3"
    },
    {
        "col0": "Penescosta sororcula",
        "col1": "Charopidae",
        "col2": "VU",
        "col3": "IUCN2.3"
    },
    {
        "col0": "Penescosta mathewsi",
        "col1": "Charopidae",
        "col2": "VU",
        "col3": "IUCN2.3"
    },
    {
        "col0": "Pene galilaea",
        "col1": "Enidae",
        "col2": "CR",
        "col3": "IUCN2.3"
    },
    {
        "col0": "Pegias",
        "col1": "Unionidae",
        "col2": "G1",
        "col3": "TNC"
    },
    {
        "col0": "Pecos springsnail",
        "col1": "Hydrobiidae",
        "col2": "DD",
        "col3": "IUCN2.3"
    },
    {
        "col0": "Patera clenchi",
        "col1": "Helicoidea",
        "col2": "EN",
        "col3": "IUCN2.3"
    },
    {
        "col0": "Patera clarki nantahala",
        "col1": "Helicoidea",
        "col2": "LT",
        "col3": "ESA"
    },
    {
        "col0": "Patera clarki",
        "col1": "Helicoidea",
        "col2": "G3",
        "col3": "TNC"
    },
    {
        "col0": "Pasmaditta jungermanniae",
        "col1": "Punctoidea",
        "col2": "VU",
        "col3": "IUCN3.1"
    },
    {
        "col0": "Paryphanta busbyi",
        "col1": "Rhytididae",
        "col2": "LR/nt",
        "col3": "IUCN2.3"
    },
    {
        "col0": "Partulina virgulata",
        "col1": "Achatinelloidea",
        "col2": "DD",
        "col3": "IUCN2.3"
    },
    {
        "col0": "Partulina variabilis",
        "col1": "Achatinelloidea",
        "col2": "EN",
        "col3": "IUCN2.3"
    },
    {
        "col0": "Partulina ustulata",
        "col1": "Achatinelloidea",
        "col2": "DD",
        "col3": "IUCN2.3"
    },
    {
        "col0": "Partulina tessellata",
        "col1": "Achatinelloidea",
        "col2": "EN",
        "col3": "IUCN2.3"
    },
    {
        "col0": "Partulina terebra",
        "col1": "Achatinelloidea",
        "col2": "DD",
        "col3": "IUCN2.3"
    },
    {
        "col0": "Partulina tappaniana",
        "col1": "Achatinelloidea",
        "col2": "EN",
        "col3": "IUCN2.3"
    },
    {
        "col0": "Partulina talpina",
        "col1": "Achatinelloidea",
        "col2": "DD",
        "col3": "IUCN2.3"
    },
    {
        "col0": "Partulina semicarinata",
        "col1": "Achatinelloidea",
        "col2": "EN",
        "col3": "IUCN2.3"
    },
    {
        "col0": "Partulina redfieldi",
        "col1": "Achatinelloidea",
        "col2": "EN",
        "col3": "IUCN2.3"
    },
    {
        "col0": "Partulina proxima",
        "col1": "Achatinelloidea",
        "col2": "EN",
        "col3": "IUCN2.3"
    },
    {
        "col0": "Partulina porcellana",
        "col1": "Achatinelloidea",
        "col2": "DD",
        "col3": "IUCN2.3"
    },
    {
        "col0": "Partulina physa",
        "col1": "Achatinelloidea",
        "col2": "EN",
        "col3": "IUCN2.3"
    },
    {
        "col0": "Partulina perdix",
        "col1": "Achatinelloidea",
        "col2": "EN",
        "col3": "IUCN2.3"
    },
    {
        "col0": "Partulina nattii",
        "col1": "Achatinelloidea",
        "col2": "DD",
        "col3": "IUCN2.3"
    },
    {
        "col0": "Partulina montagui",
        "col1": "Achatinelloidea",
        "col2": "EX",
        "col3": "IUCN2.3"
    },
    {
        "col0": "Partulina mighelsiana",
        "col1": "Achatinelloidea",
        "col2": "EN",
        "col3": "IUCN2.3"
    },
    {
        "col0": "Partulina kaaeana",
        "col1": "Achatinelloidea",
        "col2": "DD",
        "col3": "IUCN2.3"
    },
    {
        "col0": "Partulina fusoidea",
        "col1": "Achatinelloidea",
        "col2": "DD",
        "col3": "IUCN2.3"
    },
    {
        "col0": "Partulina dwightii",
        "col1": "Achatinelloidea",
        "col2": "DD",
        "col3": "IUCN2.3"
    },
    {
        "col0": "Partulina dubia",
        "col1": "Achatinellidae",
        "col2": "CR",
        "col3": "IUCN2.3"
    },
    {
        "col0": "Partulina dolei",
        "col1": "Achatinelloidea",
        "col2": "DD",
        "col3": "IUCN2.3"
    },
    {
        "col0": "Partulina crassa",
        "col1": "Achatinelloidea",
        "col2": "EX",
        "col3": "IUCN2.3"
    },
    {
        "col0": "Partulina confusa",
        "col1": "Achatinelloidea",
        "col2": "CR",
        "col3": "IUCN2.3"
    },
    {
        "col0": "Partula vittata",
        "col1": "Partuloidea",
        "col2": "EX",
        "col3": "IUCN3.1"
    },
    {
        "col0": "Partula variabilis",
        "col1": "Partuloidea",
        "col2": "EX",
        "col3": "IUCN2.3"
    },
    {
        "col0": "Partula varia",
        "col1": "Partuloidea",
        "col2": "EW",
        "col3": "IUCN3.1"
    },
    {
        "col0": "Partula umbilicata",
        "col1": "Partuloidea",
        "col2": "EX",
        "col3": "IUCN3.1"
    },
    {
        "col0": "Partula turgida",
        "col1": "Partuloidea",
        "col2": "EX",
        "col3": "IUCN3.1"
    },
    {
        "col0": "Partula tristis",
        "col1": "Partuloidea",
        "col2": "EW",
        "col3": "IUCN3.1"
    },
    {
        "col0": "Partula tohiveana",
        "col1": "Partuloidea",
        "col2": "EW",
        "col3": "IUCN3.1"
    },
    {
        "col0": "Partula thetis",
        "col1": "Partuloidea",
        "col2": "EN",
        "col3": "IUCN3.1"
    },
    {
        "col0": "Partula thalia",
        "col1": "Partuloidea",
        "col2": "EX",
        "col3": "IUCN3.1"
    },
    {
        "col0": "Partula taeniata",
        "col1": "Partuloidea",
        "col2": "CR",
        "col3": "IUCN3.1"
    },
    {
        "col0": "Partula suturalis",
        "col1": "Partuloidea",
        "col2": "EW",
        "col3": "IUCN3.1"
    },
    {
        "col0": "Partula salifera",
        "col1": "Partuloidea",
        "col2": "EX",
        "col3": "IUCN2.3"
    },
    {
        "col0": "Partula sagitta",
        "col1": "Partuloidea",
        "col2": "EX",
        "col3": "IUCN3.1"
    },
    {
        "col0": "Partula rustica",
        "col1": "Partuloidea",
        "col2": "EX",
        "col3": "IUCN3.1"
    },
    {
        "col0": "Partula rosea",
        "col1": "Partuloidea",
        "col2": "EW",
        "col3": "IUCN3.1"
    },
    {
        "col0": "Partula robusta",
        "col1": "Partuloidea",
        "col2": "EX",
        "col3": "IUCN3.1"
    },
    {
        "col0": "Partula remota",
        "col1": "Partuloidea",
        "col2": "EX",
        "col3": "IUCN3.1"
    },
    {
        "col0": "Partula raiatensis",
        "col1": "Partuloidea",
        "col2": "EX",
        "col3": "IUCN2.3"
    },
    {
        "col0": "Partula radiata",
        "col1": "Partuloidea",
        "col2": "EX",
        "col3": "IUCN3.1"
    },
    {
        "col0": "Partula protracta",
        "col1": "Partuloidea",
        "col2": "EX",
        "col3": "IUCN3.1"
    },
    {
        "col0": "Partula protea",
        "col1": "Partuloidea",
        "col2": "EX",
        "col3": "IUCN2.3"
    },
    {
        "col0": "Partula producta",
        "col1": "Partuloidea",
        "col2": "EX",
        "col3": "IUCN3.1"
    },
    {
        "col0": "Partula planilabrum",
        "col1": "Partuloidea",
        "col2": "EX",
        "col3": "IUCN3.1"
    },
    {
        "col0": "Partula otaheitana",
        "col1": "Partuloidea",
        "col2": "CR",
        "col3": "iucn3.1"
    },
    {
        "col0": "Partula nodosa",
        "col1": "Partuloidea",
        "col2": "EW",
        "col3": "IUCN3.1"
    },
    {
        "col0": "Partula mooreana",
        "col1": "Partuloidea",
        "col2": "EW",
        "col3": "IUCN3.1"
    },
    {
        "col0": "Partula mirabilis",
        "col1": "Partuloidea",
        "col2": "EW",
        "col3": "IUCN3.1"
    },
    {
        "col0": "Partula microstoma",
        "col1": "Partuloidea",
        "col2": "EX",
        "col3": "IUCN2.3"
    },
    {
        "col0": "Partula martensiana",
        "col1": "Partuloidea",
        "col2": "CR",
        "col3": "IUCN2.3"
    },
    {
        "col0": "Partula lutea",
        "col1": "Partuloidea",
        "col2": "EX",
        "col3": "IUCN3.1"
    },
    {
        "col0": "Partula levistriata",
        "col1": "Partuloidea",
        "col2": "EX",
        "col3": "IUCN3.1"
    },
    {
        "col0": "Partula levilineata",
        "col1": "Partuloidea",
        "col2": "EX",
        "col3": "IUCN3.1"
    },
    {
        "col0": "Partula leucothoe",
        "col1": "Partuloidea",
        "col2": "CR",
        "col3": "IUCN3.1"
    },
    {
        "col0": "Partula leptochila",
        "col1": "Partuloidea",
        "col2": "EX",
        "col3": "IUCN3.1"
    },
    {
        "col0": "Partula langfordi",
        "col1": "Partulidae",
        "col2": "CR",
        "col3": "IUCN2.3"
    },
    {
        "col0": "Partula labrusca",
        "col1": "Partuloidea",
        "col2": "EX",
        "col3": "IUCN3.1"
    },
    {
        "col0": "Partula imperforata",
        "col1": "Partuloidea",
        "col2": "EX",
        "col3": "IUCN3.1"
    },
    {
        "col0": "Partula hyalina",
        "col1": "Partuloidea",
        "col2": "VU",
        "col3": "IUCN3.1"
    },
    {
        "col0": "Partula hebe",
        "col1": "Partuloidea",
        "col2": "EW",
        "col3": "IUCN3.1"
    },
    {
        "col0": "Partula guamensis",
        "col1": "Partuloidea",
        "col2": "CR",
        "col3": "IUCN3.1"
    },
    {
        "col0": "Partula garretti",
        "col1": "Partuloidea",
        "col2": "EX",
        "col3": "IUCN3.1"
    },
    {
        "col0": "Partula fusca",
        "col1": "Partuloidea",
        "col2": "EX",
        "col3": "IUCN3.1"
    },
    {
        "col0": "Partula formosa",
        "col1": "Partuloidea",
        "col2": "EX",
        "col3": "IUCN3.1"
    },
    {
        "col0": "Partula filosa",
        "col1": "Partuloidea",
        "col2": "EX",
        "col3": "IUCN3.1"
    },
    {
        "col0": "Partula faba",
        "col1": "Partuloidea",
        "col2": "EX",
        "col3": "IUCN3.1"
    },
    {
        "col0": "Partula exigua",
        "col1": "Partuloidea",
        "col2": "EX",
        "col3": "IUCN3.1"
    },
    {
        "col0": "Partula eremita",
        "col1": "Partuloidea",
        "col2": "EX",
        "col3": "IUCN3.1"
    },
    {
        "col0": "Partula emersoni",
        "col1": "Partuloidea",
        "col2": "CR",
        "col3": "IUCN3.1"
    },
    {
        "col0": "Partula dolorosa",
        "col1": "Partuloidea",
        "col2": "EX",
        "col3": "IUCN3.1"
    },
    {
        "col0": "Partula dolichostoma",
        "col1": "Partuloidea",
        "col2": "EX",
        "col3": "IUCN3.1"
    },
    {
        "col0": "Partula dentifera",
        "col1": "Partuloidea",
        "col2": "EW",
        "col3": "IUCN3.1"
    },
    {
        "col0": "Partula cytherea",
        "col1": "Partuloidea",
        "col2": "EX",
        "col3": "IUCN3.1"
    },
    {
        "col0": "Partula cuneata",
        "col1": "Partuloidea",
        "col2": "EX",
        "col3": "IUCN3.1"
    },
    {
        "col0": "Partula crassilabris",
        "col1": "Partuloidea",
        "col2": "EX",
        "col3": "IUCN3.1"
    },
    {
        "col0": "Partula compacta",
        "col1": "Partuloidea",
        "col2": "EX",
        "col3": "IUCN2.3"
    },
    {
        "col0": "Partula clara",
        "col1": "Partuloidea",
        "col2": "CR",
        "col3": "IUCN3.1"
    },
    {
        "col0": "Partula citrina",
        "col1": "Partuloidea",
        "col2": "EX",
        "col3": "IUCN3.1"
    },
    {
        "col0": "Partula cedista",
        "col1": "Partuloidea",
        "col2": "EX",
        "col3": "IUCN3.1"
    },
    {
        "col0": "Partula castanea",
        "col1": "Partuloidea",
        "col2": "EX",
        "col3": "IUCN2.3"
    },
    {
        "col0": "Partula candida",
        "col1": "Partuloidea",
        "col2": "EX",
        "col3": "IUCN3.1"
    },
    {
        "col0": "Partula calypso",
        "col1": "Partuloidea",
        "col2": "CR",
        "col3": "IUCN3.1"
    },
    {
        "col0": "Partula callifera",
        "col1": "Partuloidea",
        "col2": "EX",
        "col3": "IUCN3.1"
    },
    {
        "col0": "Partula bilineata",
        "col1": "Partuloidea",
        "col2": "EX",
        "col3": "IUCN3.1"
    },
    {
        "col0": "Partula auriculata",
        "col1": "Partuloidea",
        "col2": "EX",
        "col3": "IUCN3.1"
    },
    {
        "col0": "Partula aurantia",
        "col1": "Partuloidea",
        "col2": "EX",
        "col3": "IUCN3.1"
    },
    {
        "col0": "Partula atilis",
        "col1": "Partuloidea",
        "col2": "EX",
        "col3": "IUCN3.1"
    },
    {
        "col0": "Partula arguta",
        "col1": "Partuloidea",
        "col2": "EX",
        "col3": "IUCN3.1"
    },
    {
        "col0": "Partula approximata",
        "col1": "Partuloidea",
        "col2": "EX",
        "col3": "IUCN2.3"
    }
]