[
    {
        "col0": "World Demise",
        "col1": "The End Complete",
        "col2": "Obituary",
        "col3": "3057"
    },
    {
        "col0": "World Container",
        "col1": "Yer Favourites",
        "col2": "Bob Rock",
        "col3": "2547"
    },
    {
        "col0": "World Coming Down",
        "col1": "October Rust",
        "col2": "Peter Steele",
        "col3": "4438"
    },
    {
        "col0": "World",
        "col1": "D-Ream On Volume 1",
        "col2": "Tom Frederikse",
        "col3": "2933"
    },
    {
        "col0": "World",
        "col1": "Ruined in a Day",
        "col2": "New Order",
        "col3": "218"
    },
    {
        "col0": "World",
        "col1": "Lowdown Popcorn",
        "col2": "James Brown",
        "col3": "178"
    },
    {
        "col0": "World",
        "col1": "Massachusetts",
        "col2": "Bee Gees",
        "col3": "200"
    },
    {
        "col0": "World, Hold On",
        "col1": "Love Generation",
        "col2": "Bob Sinclar",
        "col3": "198"
    },
    {
        "col0": "World's on Fire",
        "col1": "Invaders Must Die",
        "col2": "Liam Howlett",
        "col3": "3933"
    },
    {
        "col0": "World's Greatest Lover",
        "col1": "Forget About Me",
        "col2": "The Bellamy Brothers",
        "col3": "263"
    },
    {
        "col0": "Works in Progress",
        "col1": "Once I Was",
        "col2": "Zal Yanovsky",
        "col3": "3985"
    },
    {
        "col0": "Works Volume 2",
        "col1": "Works Volume 1",
        "col2": "Peter Sinfield",
        "col3": "2634"
    },
    {
        "col0": "Works Volume 1",
        "col1": "Welcome Back My Friends to the Show That Never Ends... Ladies and Gentlemen",
        "col2": "Peter Sinfield",
        "col3": "5243"
    },
    {
        "col0": "Works",
        "col1": "The Final Cut",
        "col2": "Pink Floyd",
        "col3": "2530"
    },
    {
        "col0": "Workout Holiday LP",
        "col1": "Workout Holiday",
        "col2": "White Denim",
        "col3": "2248"
    },
    {
        "col0": "Workout",
        "col1": "Roll Call",
        "col2": "Alfred Lion",
        "col3": "3060"
    },
    {
        "col0": "Workout",
        "col1": "Looking Good, Feeling Gorgeous",
        "col2": "RuPaul",
        "col3": "236"
    },
    {
        "col0": "Workingman's Dead",
        "col1": "Live/Dead",
        "col2": "Grateful Dead",
        "col3": "2160"
    },
    {
        "col0": "Working with Fire and Steel - Possible Pop Songs Volume Two",
        "col1": "Difficult Shapes & Passive Rhythms, Some People Think It's Fun to Entertain",
        "col2": "Mike Howlett",
        "col3": "2423"
    }
]