[
    {
        "col0": "You Have Been Loved",
        "col1": "Outside",
        "col2": "G. Michael",
        "col3": "George Michael"
    },
    {
        "col0": "You Had Me from Hello",
        "col1": "She Thinks My Tractor's Sexy",
        "col2": "K. Chesney",
        "col3": "Kenny Chesney"
    },
    {
        "col0": "You Had Me",
        "col1": "Right to Be Wrong",
        "col2": "J. Stone",
        "col3": "Joss Stone"
    },
    {
        "col0": "You Gotta Love That",
        "col1": "Then You Can Tell Me Goodbye",
        "col2": "B. Jones",
        "col3": "Neal McCoy"
    },
    {
        "col0": "You Gotta Be My Baby",
        "col1": "Boat of Life",
        "col2": "G. Jones",
        "col3": "George Jones"
    },
    {
        "col0": "You Gots to Chill",
        "col1": "I'm Housin",
        "col2": "R. Troutman",
        "col3": "EPMD"
    },
    {
        "col0": "You Got the Style",
        "col1": "Wires",
        "col2": "J. Pott",
        "col3": "Athlete"
    },
    {
        "col0": "You Got the Love",
        "col1": "Once You Get Started",
        "col2": "R. P. Jr.",
        "col3": "Rufus"
    },
    {
        "col0": "You Got Me Rocking",
        "col1": "Out of Tears",
        "col2": "Jagger/Richards",
        "col3": "The Rolling Stones"
    },
    {
        "col0": "You Got Me",
        "col1": "Takes Me Higher",
        "col2": "Scribe",
        "col3": "J.Williams"
    },
    {
        "col0": "You Got Lucky",
        "col1": "Change of Heart",
        "col2": "T. Petty",
        "col3": "Tom Petty and the Heartbreakers"
    },
    {
        "col0": "You Got It",
        "col1": "I'll Be Loving You",
        "col2": "M. Starr",
        "col3": "New Kids on the Block"
    },
    {
        "col0": "You Got It",
        "col1": "End of the Line",
        "col2": "R. Orbison",
        "col3": "Bonnie Raitt"
    },
    {
        "col0": "You Gonna Fly",
        "col1": "For You",
        "col2": "J. Johnston",
        "col3": "Keith Urban"
    },
    {
        "col0": "You Go First",
        "col1": "Unbreakable Heart",
        "col2": "K. Chater",
        "col3": "Jessica Andrews"
    },
    {
        "col0": "You Give Me Something",
        "col1": "Wonderful World",
        "col2": "J. Morrison",
        "col3": "James Morrison"
    },
    {
        "col0": "You Give Love a Bad Name",
        "col1": "Livin' on a Prayer",
        "col2": "R. Sambora",
        "col3": "Bon Jovi"
    },
    {
        "col0": "You Give Good Love",
        "col1": "All at Once",
        "col2": "L. La",
        "col3": "Whitney Houston"
    },
    {
        "col0": "You Gets No Love",
        "col1": "I Love You",
        "col2": "F. Evans",
        "col3": "Faith Evans"
    },
    {
        "col0": "You Get What You Give",
        "col1": "Someday We'll Know",
        "col2": "G. Alexander",
        "col3": "New Radicals"
    },
    {
        "col0": "You Gave Me the Answer",
        "col1": "Venus and Mars/Rock Show",
        "col2": "P. McCartney",
        "col3": "Wings"
    },
    {
        "col0": "You Found Me",
        "col1": "Never Say Never",
        "col2": "I. Slade",
        "col3": "The Fray"
    },
    {
        "col0": "You Feel Good All Over",
        "col1": "Last Cheater's Waltz",
        "col2": "S. Throckmorton",
        "col3": "T.G. Sheppard"
    },
    {
        "col0": "You Dropped a Bomb on Me",
        "col1": "Outstanding",
        "col2": "C. Wilson",
        "col3": "The Gap Band"
    },
    {
        "col0": "You Don't Understand Me",
        "col1": "The Look",
        "col2": "P. Gessle",
        "col3": "Roxette"
    },
    {
        "col0": "You Don't Treat Me No Good",
        "col1": "What Do You Want",
        "col2": "D. Pritzker",
        "col3": "Jerrod Niemann"
    },
    {
        "col0": "You Don't Seem to Miss Me",
        "col1": "To Have You Back Again",
        "col2": "J. Lauderdale",
        "col3": "Patty Loveless"
    },
    {
        "col0": "You Don't Own Me",
        "col1": "That's the Way Boys Are",
        "col2": "G-Eazy",
        "col3": "Lesley Gore"
    },
    {
        "col0": "You Don't Need Me Now",
        "col1": "When I Said I Do",
        "col2": "C. Black",
        "col3": "Clint Black"
    },
    {
        "col0": "You Don't Miss Your Water",
        "col1": "Wide Open Road",
        "col2": "W. Bell",
        "col3": "William Bell"
    },
    {
        "col0": "You Don't Mess Around with Jim",
        "col1": "Operator",
        "col2": "J. Croce",
        "col3": "Jim Croce"
    },
    {
        "col0": "You Don't Love Me",
        "col1": "I Did It",
        "col2": "L. Hyori",
        "col3": "Spica"
    },
    {
        "col0": "You Don't Know What to Do",
        "col1": "Infinity",
        "col2": "M. Carey",
        "col3": "Mariah Carey"
    },
    {
        "col0": "You Don't Know What Love Is",
        "col1": "Conquest",
        "col2": "J. White",
        "col3": "The White Stripes"
    },
    {
        "col0": "You Don't Know My Name",
        "col1": "If I Ain't Got You",
        "col2": "A. Keys",
        "col3": "Alicia Keys"
    },
    {
        "col0": "You Don't Know Me",
        "col1": "Flowerz",
        "col2": "A. V. Helden",
        "col3": "Armand Van Helden"
    },
    {
        "col0": "You Don't Know Love",
        "col1": "He's a Heartache",
        "col2": "D. King",
        "col3": "Janie Fricke"
    },
    {
        "col0": "You Don't Know Love",
        "col1": "Last Day",
        "col2": "T. Smith",
        "col3": "Editors"
    },
    {
        "col0": "You Don't Know Her Like I Do",
        "col1": "Kick It in the Sticks",
        "col2": "B. Gilbert",
        "col3": "Brantley Gilbert"
    },
    {
        "col0": "You Don't Have to Worry",
        "col1": "One More Day",
        "col2": "H. D",
        "col3": "New Edition"
    },
    {
        "col0": "You Don't Have to Worry",
        "col1": "My Love",
        "col2": "K. Greene",
        "col3": "Mary J. Blige"
    },
    {
        "col0": "You Don't Have to Worry",
        "col1": "Don't Go",
        "col2": "D. Foster",
        "col3": "En Vogue"
    },
    {
        "col0": "You Don't Have to Be a Baby to Cry",
        "col1": "I Really Don't Want to Know",
        "col2": "B. Merrill",
        "col3": "The Caravelles"
    },
    {
        "col0": "You Don't Fool Me",
        "col1": "No-One but You",
        "col2": "Queen",
        "col3": "Queen"
    },
    {
        "col0": "You Don't Even Know Who I Am",
        "col1": "Halfway Down",
        "col2": "G. Peters",
        "col3": "Patty Loveless"
    },
    {
        "col0": "You Don't Count the Cost",
        "col1": "Only the Wind",
        "col2": "T. Shapiro",
        "col3": "Billy Dean"
    },
    {
        "col0": "You Don't Care About Us",
        "col1": "Every You Every Me",
        "col2": "B. Molko",
        "col3": "Placebo"
    },
    {
        "col0": "You Don't Bring Me Flowers",
        "col1": "The Main Event/Fight",
        "col2": "N. Diamond",
        "col3": "Barbra Streisand"
    },
    {
        "col0": "You Do Your Thing",
        "col1": "Gone",
        "col2": "C. Beathard",
        "col3": "Montgomery Gentry"
    },
    {
        "col0": "You Didn't Have to Be So Nice",
        "col1": "Daydream",
        "col2": "J. Sebastian",
        "col3": "The Lovin' Spoonful"
    },
    {
        "col0": "You Could Be Mine",
        "col1": "Don't Cry",
        "col2": "I. Stradlin",
        "col3": "Guns N' Roses"
    },
    {
        "col0": "You Complete Me",
        "col1": "Trust",
        "col2": "K. Cole",
        "col3": "Keyshia Cole"
    },
    {
        "col0": "You Comb Her Hair",
        "col1": "Your Heart Turned Left",
        "col2": "H. Cochran",
        "col3": "George Jones"
    },
    {
        "col0": "You Can Win If You Want",
        "col1": "Cheri, Cheri Lady",
        "col2": "D. Bohlen",
        "col3": "Modern Talking"
    },
    {
        "col0": "You Can Trust in My Love",
        "col1": "Right Here, Right Now",
        "col2": "C. Major",
        "col3": "Charlie Major"
    },
    {
        "col0": "You Can Sleep While I Drive",
        "col1": "I Wanna Go Too Far",
        "col2": "M. Etheridge",
        "col3": "Trisha Yearwood"
    },
    {
        "col0": "You Can Go Home",
        "col1": "Twilight is Gone",
        "col2": "C. Hillman",
        "col3": "The Desert Rose Band"
    },
    {
        "col0": "You Can Dream of Me",
        "col1": "Life's Highway",
        "col2": "S. Wariner",
        "col3": "Steve Wariner"
    },
    {
        "col0": "You Can Do Magic",
        "col1": "Right Before Your Eyes",
        "col2": "R. Ballard",
        "col3": "America"
    },
    {
        "col0": "You Can Do It",
        "col1": "Hello",
        "col2": "I. Cube",
        "col3": "Ice Cube"
    },
    {
        "col0": "You Can Depend on Me",
        "col1": "Familiar Pain",
        "col2": "J. Griffin",
        "col3": "Restless Heart"
    },
    {
        "col0": "You Can Call Me Al",
        "col1": "Graceland",
        "col2": "P. Simon",
        "col3": "Paul Simon"
    },
    {
        "col0": "You Can't Win",
        "col1": "A Brand New Day",
        "col2": "C. Smalls",
        "col3": "Michael Jackson"
    },
    {
        "col0": "You Can't Touch Me",
        "col1": "I Wanna Be Bad",
        "col2": "R. d. 5'9\"",
        "col3": "Royce da 5'9\""
    },
    {
        "col0": "You Can't Take the Honky Tonk Out of the Girl",
        "col1": "That's What She Gets for Loving Me",
        "col2": "B. DiPiero",
        "col3": "Brooks & Dunn"
    },
    {
        "col0": "You Can't Stop the Reign",
        "col1": "Strait Playin'",
        "col2": "S. O'Neal",
        "col3": "Shaquille O'Neal"
    },
    {
        "col0": "You Can't Stop the Music",
        "col1": "I'm in Disgrace",
        "col2": "R. Davies",
        "col3": "The Kinks"
    },
    {
        "col0": "You Can't Stop Me",
        "col1": "Pretty in Scarlet",
        "col2": "G. Apes",
        "col3": "Guano Apes"
    },
    {
        "col0": "You Can't Stop Love",
        "col1": "Cheap Love",
        "col2": "M. Stuart",
        "col3": "Marty Stuart"
    },
    {
        "col0": "You Can't Run from Love",
        "col1": "You Put the Beat in My Heart",
        "col2": "D. Malloy",
        "col3": "Eddie Rabbitt"
    },
    {
        "col0": "You Can't Resist It",
        "col1": "I Don't Wanna Be the One",
        "col2": "L. Lovett",
        "col3": "Lyle Lovett"
    },
    {
        "col0": "You Can't Lose Me",
        "col1": "I Can't Do That Anymore",
        "col2": "T. Bruce",
        "col3": "Faith Hill"
    },
    {
        "col0": "You Can't Hurry Love",
        "col1": "You Keep Me Hangin' On",
        "col2": "Holland-Dozier-Holland",
        "col3": "Phil Collins"
    },
    {
        "col0": "You Can't Fall in Love When You're Cryin'",
        "col1": "I'll Be Lovin' You",
        "col2": "L. Greenwood",
        "col3": "Lee Greenwood"
    },
    {
        "col0": "You Can't Do That",
        "col1": "A Hard Day's Night",
        "col2": "Lennon-McCartney",
        "col3": "The Beatles"
    },
    {
        "col0": "You Can't Do Me",
        "col1": "Instead",
        "col2": "L. Klein",
        "col3": "Madeleine Peyroux"
    },
    {
        "col0": "You Can't Bring Me Down",
        "col1": "Send Me Your Money",
        "col2": "R. George",
        "col3": "Suicidal Tendencies"
    },
    {
        "col0": "You Can't Always Get What You Want",
        "col1": "Brown Sugar",
        "col2": "Jagger/Richards",
        "col3": "The Rolling Stones"
    },
    {
        "col0": "You Came Up",
        "col1": "Banned from T.V.",
        "col2": "F. Joe",
        "col3": "Big Pun"
    },
    {
        "col0": "You Came",
        "col1": "Never Trust a Stranger",
        "col2": "K. Wilde",
        "col3": "Kim Wilde"
    },
    {
        "col0": "You Bring Me Up",
        "col1": "Last Night's Letter",
        "col2": "K-Ci",
        "col3": "K-Ci & JoJo"
    },
    {
        "col0": "You Bring Me Joy",
        "col1": "I Love You",
        "col2": "M. J. Blige",
        "col3": "Mary J. Blige"
    },
    {
        "col0": "You Bring Me Joy",
        "col1": "Shut Up",
        "col2": "B. Higgins",
        "col3": "Amelia Lily"
    },
    {
        "col0": "You Boyz Make Big Noize",
        "col1": "Ooh La La in L.A.",
        "col2": "N. Holder",
        "col3": "Slade"
    },
    {
        "col0": "You Better You Bet",
        "col1": "Don't Let Go the Coat",
        "col2": "P. Townshend",
        "col3": "The Who"
    },
    {
        "col0": "You Better Wait",
        "col1": "Missing You",
        "col2": "L. Brewster",
        "col3": "Steve Perry"
    },
    {
        "col0": "You Better Think Twice",
        "col1": "Go Rest High on That Mountain",
        "col2": "V. Gill",
        "col3": "Vince Gill"
    },
    {
        "col0": "You Better Run",
        "col1": "Hit Me with Your Best Shot",
        "col2": "E. Brigati",
        "col3": "Pat Benatar"
    },
    {
        "col0": "You Better Not Waste My Time",
        "col1": "I Swear",
        "col2": "T. Contostavlos",
        "col3": "N-Dubz"
    },
    {
        "col0": "You Better Be Sure",
        "col1": "I'm Missin' You",
        "col2": "S. Myers",
        "col3": "Shirley Myers"
    },
    {
        "col0": "You Belong with Me",
        "col1": "Fifteen",
        "col2": "T. Swift",
        "col3": "Taylor Swift"
    },
    {
        "col0": "You Belong to the City",
        "col1": "True Love",
        "col2": "G. Frey",
        "col3": "Glenn Frey"
    },
    {
        "col0": "You Belong to Me",
        "col1": "There's Nothing I Wont Do",
        "col2": "J. Williams",
        "col3": "Jake Williams"
    },
    {
        "col0": "You Belong to Me",
        "col1": "Devoted to You",
        "col2": "C. Simon",
        "col3": "Carly Simon"
    },
    {
        "col0": "You Beat Me to the Punch",
        "col1": "Two Lovers",
        "col2": "R. White",
        "col3": "Mary Wells"
    },
    {
        "col0": "You Be Killin Em",
        "col1": "Oh My",
        "col2": "Fabolous",
        "col3": "Fabolous"
    },
    {
        "col0": "You Be Illin'",
        "col1": "It's Tricky",
        "col2": "D. McDaniels",
        "col3": "Run-D.M.C."
    },
    {
        "col0": "You Are the Sunshine of My Life",
        "col1": "Higher Ground",
        "col2": "S. Wonder",
        "col3": "Stevie Wonder"
    },
    {
        "col0": "You Are the Only One",
        "col1": "Let's Be Friends",
        "col2": "E. Osment",
        "col3": "Emily Osment"
    },
    {
        "col0": "You Are the One",
        "col1": "Rainy Monday",
        "col2": "J. Dawson",
        "col3": "Shiny Toy Guns"
    },
    {
        "col0": "You Are the One",
        "col1": "There Is Never a Forever Thing",
        "col2": "M. Furuholmen",
        "col3": "A-ha"
    },
    {
        "col0": "You Are the Girl",
        "col1": "Strap Me In",
        "col2": "R. Ocasek",
        "col3": "The Cars"
    },
    {
        "col0": "You Are So Beautiful",
        "col1": "Up Where We Belong",
        "col2": "B. Preston",
        "col3": "Joe Cocker"
    },
    {
        "col0": "You Are Not Alone",
        "col1": "Sexy, Sexy Lover",
        "col2": "D. Bohlen",
        "col3": "Modern Talking"
    },
    {
        "col0": "You Are Not Alone",
        "col1": "Earth Song",
        "col2": "R. Kelly",
        "col3": "Michael Jackson"
    },
    {
        "col0": "You Are Everything",
        "col1": "Betcha by Golly, Wow",
        "col2": "L. Creed",
        "col3": "Diana Ross"
    },
    {
        "col0": "You Are",
        "col1": "My Love",
        "col2": "L. Richie",
        "col3": "Lionel Richie"
    },
    {
        "col0": "You Are",
        "col1": "Paper Angels",
        "col2": "M. Green",
        "col3": "Jimmy Wayne"
    },
    {
        "col0": "You Are",
        "col1": "It's OK!",
        "col2": "S. Mac",
        "col3": "Atomic Kitten"
    },
    {
        "col0": "You Almost Slipped My Mind",
        "col1": "Roll On Mississippi",
        "col2": "T. Seals",
        "col3": "Charley Pride"
    },
    {
        "col0": "You Ain't Woman Enough",
        "col1": "Don't Come Home A-Drinkin'",
        "col2": "L. Lynn",
        "col3": "Loretta Lynn"
    },
    {
        "col0": "You Ain't Seen Nothing Yet",
        "col1": "Roll On Down the Highway",
        "col2": "R. Bachman",
        "col3": "Bachman-Turner Overdrive"
    },
    {
        "col0": "You Ain't Much Fun",
        "col1": "Big Ol' Truck",
        "col2": "T. Keith",
        "col3": "Toby Keith"
    },
    {
        "col0": "You Ain't Goin' Nowhere",
        "col1": "Down in the Flood",
        "col2": "B. Dylan",
        "col3": "Bob Dylan"
    },
    {
        "col0": "You Again",
        "col1": "Lyin' in His Arms Again",
        "col2": "P. Overstreet",
        "col3": "The Forester Sisters"
    },
    {
        "col0": "You",
        "col1": "Alive",
        "col2": "T. Lever",
        "col3": "S Club"
    },
    {
        "col0": "You",
        "col1": "Promise",
        "col2": "R. Santos",
        "col3": "Romeo Santos"
    },
    {
        "col0": "You",
        "col1": "Breakdown",
        "col2": "C. DeGarmo",
        "col3": "Queensryche"
    },
    {
        "col0": "You",
        "col1": "If I Could Build My Whole World Around You",
        "col2": "I. J. Hunter",
        "col3": "Marvin Gaye"
    },
    {
        "col0": "You",
        "col1": "Birthday Eve",
        "col2": "K. Kumi",
        "col3": "Koda Kumi"
    },
    {
        "col0": "You",
        "col1": "Every Time",
        "col2": "C. Miller",
        "col3": "Janet Jackson"
    },
    {
        "col0": "You",
        "col1": "This Guitar",
        "col2": "G. Harrison",
        "col3": "George Harrison"
    },
    {
        "col0": "You",
        "col1": "Runaway",
        "col2": "L. Eklow",
        "col3": "Galantis"
    },
    {
        "col0": "You",
        "col1": "Neon",
        "col2": "L. Laird",
        "col3": "Chris Young"
    },
    {
        "col0": "You",
        "col1": "Far Behind",
        "col2": "Candlebox",
        "col3": "Candlebox"
    },
    {
        "col0": "You",
        "col1": "Poker Face",
        "col2": "A. Hamasaki",
        "col3": "Ayumi Hamasaki"
    },
    {
        "col0": "You & I",
        "col1": "Steal My Girl",
        "col2": "J. Ryan",
        "col3": "One Direction"
    },
    {
        "col0": "You & I",
        "col1": "I Can't Look at Your Skin / What's He Got?",
        "col2": "G. Coxon",
        "col3": "Graham Coxon"
    },
    {
        "col0": "You've Still Got a Place in My Heart",
        "col1": "She's My Rock",
        "col2": "L. Payne",
        "col3": "George Jones"
    },
    {
        "col0": "You've Seen the Butcher",
        "col1": "Leathers",
        "col2": "S. Carpenter",
        "col3": "Deftones"
    },
    {
        "col0": "You've Really Got a Hold on Me",
        "col1": "A Love She Can Count On",
        "col2": "S. Robinson",
        "col3": "The Miracles"
    },
    {
        "col0": "You've Never Been This Far Before",
        "col1": "There's a Honky Tonk Angel",
        "col2": "C. Twitty",
        "col3": "Conway Twitty"
    },
    {
        "col0": "You've Made Me So Very Happy",
        "col1": "Spinning Wheel",
        "col2": "B. G. Jr.",
        "col3": "Blood, Sweat & Tears"
    },
    {
        "col0": "You've Lost That Lovin' Feelin'",
        "col1": "I'll Never Fall in Love Again",
        "col2": "B. Mann",
        "col3": "Cilla Black"
    },
    {
        "col0": "You've Got to Talk to Me",
        "col1": "Buckaroo",
        "col2": "J. O'Hara",
        "col3": "Lee Ann Womack"
    },
    {
        "col0": "You've Got to Stand for Something",
        "col1": "I Wonder How Far It Is Over You",
        "col2": "A. Tippin",
        "col3": "Aaron Tippin"
    },
    {
        "col0": "You've Got to Earn It",
        "col1": "My Baby",
        "col2": "S. Robinson",
        "col3": "The Temptations"
    },
    {
        "col0": "You've Got a Way",
        "col1": "Come On Over",
        "col2": "S. Twain",
        "col3": "Shania Twain"
    },
    {
        "col0": "You've Got a Habit of Leaving",
        "col1": "Can't Help Thinking About Me",
        "col2": "D. Bowie",
        "col3": "David Bowie"
    },
    {
        "col0": "You've Got a Good Love Comin'",
        "col1": "Dixie Road",
        "col2": "V. Stephenson",
        "col3": "Lee Greenwood"
    },
    {
        "col0": "You've Got a Friend in Me",
        "col1": "We Belong Together",
        "col2": "R. Newman",
        "col3": "Lyle Lovett"
    },
    {
        "col0": "You've Got a Friend",
        "col1": "The End of the World",
        "col2": "Stock, Aitken & Waterman",
        "col3": "Sonia"
    },
    {
        "col0": "You've Got a Friend",
        "col1": "Where You Lead",
        "col2": "C. King",
        "col3": "Carole King"
    },
    {
        "col0": "You've Got Your Troubles",
        "col1": "Here It Comes Again",
        "col2": "R. Greenaway",
        "col3": "The Fortunes"
    },
    {
        "col0": "You've Got That Somethin'",
        "col1": "Do You Really Want Me",
        "col2": "Robyn",
        "col3": "Robyn"
    },
    {
        "col0": "You've Got Something on Your Mind",
        "col1": "Your Memory Ain't What It Used to Be",
        "col2": "N. Wilson",
        "col3": "Mickey Gilley"
    },
    {
        "col0": "You've Got My Number",
        "col1": "My Perfect Cousin",
        "col2": "J. O'Neill",
        "col3": "The Undertones"
    },
    {
        "col0": "You've Got Me to Hold On To",
        "col1": "Here's Some Love",
        "col2": "D. Loggins",
        "col3": "Tanya Tucker"
    },
    {
        "col0": "You've Got It Bad",
        "col1": "The Day We Caught the Train",
        "col2": "O. C. Scene",
        "col3": "Ocean Colour Scene"
    },
    {
        "col0": "You've Got Another Thing Comin'",
        "col1": "(Take These) Chains",
        "col2": "R. Halford",
        "col3": "Judas Priest"
    },
    {
        "col0": "You've Been a Friend to Me",
        "col1": "One World, One Flame",
        "col2": "B. Adams",
        "col3": "Bryan Adams"
    },
    {
        "col0": "You're the World to Me",
        "col1": "Fugitive",
        "col2": "D. Gray",
        "col3": "David Gray"
    },
    {
        "col0": "You're the Voice",
        "col1": "Will You Be There",
        "col2": "K. Reid",
        "col3": "Alan Parsons"
    },
    {
        "col0": "You're the Reason God Made Oklahoma",
        "col1": "A Texas State of Mind",
        "col2": "L. Collins",
        "col3": "Shelly West"
    },
    {
        "col0": "You're the Only One",
        "col1": "Sweet Summer Lovin'",
        "col2": "C. B. Sager",
        "col3": "Dolly Parton"
    },
    {
        "col0": "You're the One for Me, Fatty",
        "col1": "Tomorrow",
        "col2": "Morrissey",
        "col3": "Morrissey"
    },
    {
        "col0": "You're the One That I Want",
        "col1": "Summer Nights",
        "col2": "J. Farrar",
        "col3": "Olivia Newton-John"
    },
    {
        "col0": "You're the One",
        "col1": "Just Got To Be",
        "col2": "P. Carney",
        "col3": "The Black Keys"
    },
    {
        "col0": "You're the One",
        "col1": "Use Your Heart",
        "col2": "T. Johnson-George",
        "col3": "SWV"
    },
    {
        "col0": "You're the One",
        "col1": "Five O'Clock World",
        "col2": "P. Clark",
        "col3": "Petula Clark"
    },
    {
        "col0": "You're the One",
        "col1": "Nothing's Changed Here",
        "col2": "D. Yoakam",
        "col3": "Dwight Yoakam"
    },
    {
        "col0": "You're the One",
        "col1": "Shawty Wus Up",
        "col2": "B. Cox",
        "col3": "Dondria"
    },
    {
        "col0": "You're the One",
        "col1": "You",
        "col2": "P. Berger",
        "col3": "Charli XCX"
    },
    {
        "col0": "You're the Man",
        "col1": "Trouble Man",
        "col2": "M. Gaye",
        "col3": "Marvin Gaye"
    },
    {
        "col0": "You're the Inspiration",
        "col1": "Along Comes a Woman",
        "col2": "P. Cetera",
        "col3": "Peter Cetera"
    },
    {
        "col0": "You're the Greatest Lover",
        "col1": "Trojan Horse",
        "col2": "H. v. Hemert",
        "col3": "Luv'"
    },
    {
        "col0": "You're the First Time I've Thought About Leaving",
        "col1": "Why Do We Want",
        "col2": "D. Lee",
        "col3": "Reba McEntire"
    },
    {
        "col0": "You're the First, the Last, My Everything",
        "col1": "What Am I Gonna Do with You",
        "col2": "B. White",
        "col3": "Barry White"
    },
    {
        "col0": "You're the Best Break This Old Heart Ever Had",
        "col1": "Love's Found You and Me",
        "col2": "W. Holyfield",
        "col3": "Ed Bruce"
    },
    {
        "col0": "You're the Apple of My Eye",
        "col1": "Jambalaya",
        "col2": "O. Blackwell",
        "col3": "The Four Lovers"
    },
    {
        "col0": "You're in a Bad Way",
        "col1": "Hobart Paving",
        "col2": "S. Cracknell",
        "col3": "Saint Etienne"
    },
    {
        "col0": "You're in My Heart",
        "col1": "Hot Legs",
        "col2": "R. Stewart",
        "col3": "Rod Stewart"
    },
    {
        "col0": "You're in My Heart",
        "col1": "Play It Cool, Man",
        "col2": "G. Jones",
        "col3": "George Jones"
    },
    {
        "col0": "You're in Love",
        "col1": "The Dream Is Still Alive",
        "col2": "W. Phillips",
        "col3": "Wilson Phillips"
    },
    {
        "col0": "You're in Love",
        "col1": "What You Give Is What You Get",
        "col2": "J. Croucier",
        "col3": "Ratt"
    },
    {
        "col0": "You're a Wonderful One",
        "col1": "Try It Baby",
        "col2": "Holland-Dozier-Holland",
        "col3": "Marvin Gaye"
    },
    {
        "col0": "You're a Lie",
        "col1": "Standing in the Sun",
        "col2": "Slash",
        "col3": "Slash"
    },
    {
        "col0": "You're a God",
        "col1": "Best I Ever Had",
        "col2": "M. Scannell",
        "col3": "Vertical Horizon"
    },
    {
        "col0": "You're Welcome",
        "col1": "Gettin' Hungry",
        "col2": "B. Wilson",
        "col3": "The Beach Boys"
    },
    {
        "col0": "You're Still the One",
        "col1": "From This Moment On",
        "col2": "S. Twain",
        "col3": "Shania Twain"
    },
    {
        "col0": "You're So Vain",
        "col1": "The Right Thing to Do",
        "col2": "C. Simon",
        "col3": "Carly Simon"
    },
    {
        "col0": "You're So Right for Me",
        "col1": "Deep and Meaningless",
        "col2": "N. Atkinson",
        "col3": "Rooster"
    },
    {
        "col0": "You're So Good to Me",
        "col1": "God Only Knows",
        "col2": "B. Wilson",
        "col3": "The Beach Boys"
    },
    {
        "col0": "You're So Fine",
        "col1": "Puzzle",
        "col2": "J. Yong-hwa",
        "col3": "CNBLUE"
    },
    {
        "col0": "You're Sixteen",
        "col1": "Oh My My",
        "col2": "R. B. Sherman",
        "col3": "Johnny Burnette"
    },
    {
        "col0": "You're Pitiful",
        "col1": "Don't Download This Song",
        "col2": "\". A. Yankovic",
        "col3": "\"Weird Al\" Yankovic"
    },
    {
        "col0": "You're Out of My Life",
        "col1": "Lovekiller",
        "col2": "H. Janson",
        "col3": "Darin"
    },
    {
        "col0": "You're Only Human",
        "col1": "The Night Is Still Young",
        "col2": "B. Joel",
        "col3": "Billy Joel"
    },
    {
        "col0": "You're Not the One",
        "col1": "I Blame Myself",
        "col2": "S. Ferreira",
        "col3": "Sky Ferreira"
    },
    {
        "col0": "You're Not There",
        "col1": "Take the World by Storm",
        "col2": "L. G. Forchhammer",
        "col3": "Lukas Graham"
    },
    {
        "col0": "You're Not Alone",
        "col1": "Gangsta?",
        "col2": "T. Tempah",
        "col3": "Kwasi Danquah III"
    },
    {
        "col0": "You're Not Alone",
        "col1": "Outlaw",
        "col2": "T. Kellett",
        "col3": "Andre Tanneberger"
    },
    {
        "col0": "You're Nobody 'til Somebody Loves You",
        "col1": "Recovery",
        "col2": "TMS",
        "col3": "James Arthur"
    }
]