[
    {
        "col0": "Waiting Alone",
        "col1": "Dayyan Eng",
        "col2": "L. Bingbing",
        "col3": "6420"
    },
    {
        "col0": "Waiting...",
        "col1": "Jeff Balis",
        "col2": "L. Guzman",
        "col3": "5640"
    },
    {
        "col0": "Wait till the Sun Shines, Nellie",
        "col1": "George Jessel",
        "col2": "J. Peters",
        "col3": "6480"
    },
    {
        "col0": "Wait till Your Mother Gets Home!",
        "col1": "Vanessa Greene",
        "col2": "J. Lawrence",
        "col3": "5820"
    },
    {
        "col0": "Wait Until Spring, Bandini",
        "col1": "Francis Ford Coppola",
        "col2": "F. Dunaway",
        "col3": "6000"
    },
    {
        "col0": "Wait Until Dark",
        "col1": "Mel Ferrer",
        "col2": "A. Arkin",
        "col3": "6480"
    },
    {
        "col0": "Wait 'til You're Older",
        "col1": "Teddy Chan",
        "col2": "A. Lau",
        "col3": "5340"
    },
    {
        "col0": "Waist Deep",
        "col1": "Ted Field",
        "col2": "M. Good",
        "col3": "5220"
    },
    {
        "col0": "Waisa Bhi Hota Hai Part II",
        "col1": "Sameer Gupta",
        "col2": "A. Jog",
        "col3": "8280"
    },
    {
        "col0": "Wainy Days",
        "col1": "David Wain",
        "col2": "D. Wain",
        "col3": "300"
    },
    {
        "col0": "Waikiki Wedding",
        "col1": "Arthur Hornblow, Jr.",
        "col2": "M. Raye",
        "col3": "5340"
    },
    {
        "col0": "Waikiki Brothers",
        "col1": "Lee Eun",
        "col2": "P. Won-sang",
        "col3": "6540"
    },
    {
        "col0": "Wagons Westward",
        "col1": "Armand Schaefer",
        "col2": "A. Louise",
        "col3": "4140"
    },
    {
        "col0": "Wagon Train",
        "col1": "Bert Gilroy",
        "col2": "T. Holt",
        "col3": "3540"
    },
    {
        "col0": "Wagon Tracks",
        "col1": "Thomas H. Ince",
        "col2": "W. S. Hart",
        "col3": "4680"
    },
    {
        "col0": "Wagon Master",
        "col1": "John Ford",
        "col2": "B. Johnson",
        "col3": "5160"
    },
    {
        "col0": "Wagner's Dream",
        "col1": "Susan Froemke",
        "col2": "D. Voigt",
        "col3": "6720"
    },
    {
        "col0": "Wages of Virtue",
        "col1": "Adolph Zukor",
        "col2": "G. Swanson",
        "col3": "4200"
    },
    {
        "col0": "Wag the Dog",
        "col1": "Barry Levinson",
        "col2": "D. Leary",
        "col3": "5820"
    },
    {
        "col0": "Wadd: The Life & Times of John C. Holmes",
        "col1": "Mike Sager",
        "col2": "L. Flynt",
        "col3": "7200"
    },
    {
        "col0": "Waco",
        "col1": "A. C. Lyles",
        "col2": "H. Keel",
        "col3": "5100"
    },
    {
        "col0": "Wacko",
        "col1": "Greydon Clark",
        "col2": "S. Stevens",
        "col3": "5400"
    },
    {
        "col0": "Wabash Avenue",
        "col1": "William Perlberg",
        "col2": "V. Mature",
        "col3": "5520"
    },
    {
        "col0": "Waar",
        "col1": "Hassan Rana",
        "col2": "B. Lashari",
        "col3": "7800"
    },
    {
        "col0": "W",
        "col1": "Mel Ferrer",
        "col2": "D. Benedict",
        "col3": "5700"
    },
    {
        "col0": "WUSA",
        "col1": "John Foreman",
        "col2": "P. Newman",
        "col3": "6900"
    },
    {
        "col0": "WOW!",
        "col1": "Andi Peters",
        "col2": "S. Aldred",
        "col3": "1800"
    },
    {
        "col0": "WKRP in Cincinnati",
        "col1": "Steven Kampmann",
        "col2": "G. Jump",
        "col3": "-1500"
    },
    {
        "col0": "WIOU",
        "col1": "Michelle Ashford",
        "col2": "J. Shea",
        "col3": "3600"
    },
    {
        "col0": "WALL-E",
        "col1": "Jim Morris",
        "col2": "J. Ratzenberger",
        "col3": "5880"
    },
    {
        "col0": "W.",
        "col1": "Bill Block",
        "col2": "E. Burstyn",
        "col3": "7740"
    },
    {
        "col0": "W.E.B.",
        "col1": "Lin Bolen",
        "col2": "R. Basehart",
        "col3": "3600"
    },
    {
        "col0": "W.E.",
        "col1": "Madonna",
        "col2": "A. Cornish",
        "col3": "7140"
    },
    {
        "col0": "W.C. Fields and Me",
        "col1": "Jay Weston",
        "col2": "R. Steiger",
        "col3": "6660"
    },
    {
        "col0": "WDZ",
        "col1": "Allan Niblo",
        "col2": "M. George",
        "col3": "6240"
    },
    {
        "col0": "Walsungenblut",
        "col1": "Franz Seitz, Jr.",
        "col2": "M. Maien",
        "col3": "5160"
    },
    {
        "col0": "Veronique et son cancre",
        "col1": "Claude Chabrol",
        "col2": "N. Berger",
        "col3": "1200"
    },
    {
        "col0": "Varldens basta Karlsson",
        "col1": "Olle Nordemar",
        "col2": "L. Soderdahl",
        "col3": "5940"
    },
    {
        "col0": "Vysotsky. Thank You For Being Alive",
        "col1": "Konstantin Ernst",
        "col2": "I. Urgant",
        "col3": "4320"
    },
    {
        "col0": "Vulgaria",
        "col1": "Pang Ho-cheung",
        "col2": "R. Cheng",
        "col3": "5520"
    },
    {
        "col0": "Vulgar",
        "col1": "Monica Hampton",
        "col2": "M. Maher",
        "col3": "5460"
    },
    {
        "col0": "Vs",
        "col1": "Lucas Till",
        "col2": "J. Trost",
        "col3": "4680"
    },
    {
        "col0": "Voyager",
        "col1": "Eberhard Junkersdorf",
        "col2": "J. Delpy",
        "col3": "7020"
    },
    {
        "col0": "Voyage to the Prehistoric Planet",
        "col1": "Stephanie Rothman",
        "col2": "F. Domergue",
        "col3": "4680"
    },
    {
        "col0": "Voyage to the Planet of Prehistoric Women",
        "col1": "Roger Corman",
        "col2": "M. V. Doren",
        "col3": "4680"
    },
    {
        "col0": "Voyage to the Bottom of the Sea",
        "col1": "Irwin Allen",
        "col2": "J. Fontaine",
        "col3": "6300"
    },
    {
        "col0": "Voyage to the Beginning of the World",
        "col1": "Paulo Branco",
        "col2": "M. Mastroianni",
        "col3": "5700"
    },
    {
        "col0": "Voyage to Nowhere",
        "col1": "Julian Mateos",
        "col2": "F. F. Gomez",
        "col3": "8400"
    },
    {
        "col0": "Voyage to Italy, Complete with Love",
        "col1": "Artur Brauner",
        "col2": "P. Hubschmid",
        "col3": "5820"
    },
    {
        "col0": "Voyage of the Damned",
        "col1": "Robert Fryer",
        "col2": "F. Dunaway",
        "col3": "9300"
    },
    {
        "col0": "Vous etes de la police?",
        "col1": "Dardenne brothers",
        "col2": "J. Cassel",
        "col3": "5640"
    },
    {
        "col0": "Voulez-vous coucher avec God?",
        "col1": "Michael Hirsh",
        "col2": "T. Kupferberg",
        "col3": "4140"
    },
    {
        "col0": "Vote for Huggett",
        "col1": "Betty E. Box",
        "col2": "J. Warner",
        "col3": "5040"
    },
    {
        "col0": "Voodoo Woman",
        "col1": "Alex Gordon",
        "col2": "M. Connors",
        "col3": "4500"
    },
    {
        "col0": "Voodoo Tiger",
        "col1": "Sam Katzman",
        "col2": "J. Weissmuller",
        "col3": "4080"
    },
    {
        "col0": "Voodoo Moon",
        "col1": "Karen Bailey",
        "col2": "E. Mabius",
        "col3": "5160"
    },
    {
        "col0": "Voodoo Man",
        "col1": "Sam Katzman",
        "col2": "B. Lugosi",
        "col3": "3720"
    },
    {
        "col0": "Voodoo Island",
        "col1": "Howard W. Koch",
        "col2": "B. Karloff",
        "col3": "4920"
    },
    {
        "col0": "Voodoo Academy",
        "col1": "Charles Band",
        "col2": "H. Ritter",
        "col3": "5580"
    },
    {
        "col0": "Von Ryan's Express",
        "col1": "Saul David",
        "col2": "F. Sinatra",
        "col3": "7020"
    },
    {
        "col0": "Von Richthofen and Brown",
        "col1": "Gene Corman",
        "col2": "J. P. Law",
        "col3": "5820"
    },
    {
        "col0": "Volver",
        "col1": "Agustin Almodovar",
        "col2": "C. Maura",
        "col3": "7260"
    },
    {
        "col0": "Volunteers",
        "col1": "Dick Shepherd",
        "col2": "R. Wilson",
        "col3": "6420"
    },
    {
        "col0": "Volcano",
        "col1": "Neal H. Moritz",
        "col2": "T. L. Jones",
        "col3": "6240"
    },
    {
        "col0": "Volcano!",
        "col1": "Adolph Zukor",
        "col2": "B. Daniels",
        "col3": "3600"
    },
    {
        "col0": "Voitheia! O Vengos faneros praktor 000",
        "col1": "Thanasis Vengos",
        "col2": "D. Nikolaidis",
        "col3": "5340"
    },
    {
        "col0": "Voices of Sarafina!",
        "col1": "Nigel Noble",
        "col2": "L. Khumalo",
        "col3": "5100"
    },
    {
        "col0": "Voices Within: The Lives of Truddi Chase",
        "col1": "Lamont Johnson",
        "col2": "S. Long",
        "col3": "12000"
    },
    {
        "col0": "Voice of the Whistler",
        "col1": "Rudolph Flothow",
        "col2": "R. Williams",
        "col3": "3600"
    },
    {
        "col0": "Voice of the City",
        "col1": "Irving Thalberg",
        "col2": "R. Ames",
        "col3": "4860"
    },
    {
        "col0": "Voice in the Wind",
        "col1": "Arthur Ripley",
        "col2": "J. E. Bromberg",
        "col3": "5100"
    },
    {
        "col0": "Voces inocentes",
        "col1": "Lawrence Bender",
        "col2": "L. Varela",
        "col3": "9120"
    },
    {
        "col0": "Vober Hat",
        "col1": "Salauddin Lavlu",
        "col2": "M. Karim",
        "col3": "1680"
    }
]