[
    {
        "col0": "The Carlyle Group",
        "col1": "Washington, D.C.",
        "col2": "1650",
        "col3": "3022000000"
    },
    {
        "col0": "The Briad Group",
        "col1": "Livingston, New Jersey",
        "col2": "6489",
        "col3": "400000000"
    },
    {
        "col0": "The Blackstone Group",
        "col1": "Manhattan",
        "col2": "2190",
        "col3": "7484000000"
    },
    {
        "col0": "The Bank of Tokyo-Mitsubishi UFJ",
        "col1": "Chiyoda, Tokyo",
        "col2": "33827",
        "col3": "2391000000000"
    },
    {
        "col0": "The Bank of New York Mellon",
        "col1": "Manhattan",
        "col2": "51200",
        "col3": "15194000000"
    },
    {
        "col0": "The Andersons",
        "col1": "Maumee, Ohio",
        "col2": "1833",
        "col3": "5270000000"
    },
    {
        "col0": "Thales Group",
        "col1": "La Defense",
        "col2": "63730",
        "col3": "13030000000"
    },
    {
        "col0": "Teva Pharmaceutical Industries",
        "col1": "Petah Tikva",
        "col2": "43000",
        "col3": "20300000000"
    },
    {
        "col0": "Tetra Tech",
        "col1": "Pasadena, California",
        "col2": "16000",
        "col3": "2300000000"
    },
    {
        "col0": "Tessera Technologies",
        "col1": "San Jose, California",
        "col2": "264",
        "col3": "273300000"
    },
    {
        "col0": "Tesoro",
        "col1": "San Antonio, Texas",
        "col2": "6000",
        "col3": "37600000000"
    },
    {
        "col0": "Tescra",
        "col1": "California",
        "col2": "750",
        "col3": "30000000"
    },
    {
        "col0": "Tesco Bank",
        "col1": "Edinburgh",
        "col2": "2818",
        "col3": "1075000000"
    },
    {
        "col0": "Terremark",
        "col1": "Miami",
        "col2": "260",
        "col3": "292"
    },
    {
        "col0": "TerraLink",
        "col1": "Moscow",
        "col2": "150",
        "col3": "19000000"
    },
    {
        "col0": "Termoelectrica",
        "col1": "Bucharest",
        "col2": "1683",
        "col3": "346000000"
    },
    {
        "col0": "Teollisuuden Voima",
        "col1": "Eurajoki",
        "col2": "791",
        "col3": "273000000"
    },
    {
        "col0": "Tenon Limited",
        "col1": "Auckland",
        "col2": "1300",
        "col3": "740000000"
    },
    {
        "col0": "TenneT",
        "col1": "Arnhem",
        "col2": "1985",
        "col3": "1525"
    },
    {
        "col0": "Tenga",
        "col1": "Tokyo",
        "col2": "28",
        "col3": "2200000000"
    },
    {
        "col0": "Tenaris",
        "col1": "Luxembourg",
        "col2": "25420",
        "col3": "10800000000"
    },
    {
        "col0": "Tempur Sealy International",
        "col1": "Lexington, Kentucky",
        "col2": "7100",
        "col3": "2989000000"
    },
    {
        "col0": "Temenos Group",
        "col1": "Geneva, Switzerland",
        "col2": "4000",
        "col3": "999800000"
    },
    {
        "col0": "Telkom Kenya",
        "col1": "Nairobi",
        "col2": "6500",
        "col3": "40000000000"
    },
    {
        "col0": "Telkom Indonesia",
        "col1": "Bandung",
        "col2": "19780",
        "col3": "7838000000"
    },
    {
        "col0": "Teligent Telecom",
        "col1": "Nynashamn Municipality",
        "col2": "100",
        "col3": "102500000"
    },
    {
        "col0": "Teleste",
        "col1": "Kaarina",
        "col2": "1325",
        "col3": "193"
    },
    {
        "col0": "Telenor Serbia",
        "col1": "Belgrade",
        "col2": "1153",
        "col3": "391540000"
    },
    {
        "col0": "Telekom Srbija",
        "col1": "Belgrade",
        "col2": "12703",
        "col3": "1038000000"
    },
    {
        "col0": "TelefA'nica Vivo",
        "col1": "Sao Paulo",
        "col2": "84000",
        "col3": "16600000000"
    },
    {
        "col0": "Telefonica Germany",
        "col1": "Munich",
        "col2": "5288",
        "col3": "3745000000"
    },
    {
        "col0": "Telefonica Europe",
        "col1": "Berkshire",
        "col2": "29366",
        "col3": "13533000000"
    },
    {
        "col0": "Telefonica",
        "col1": "Madrid",
        "col2": "120497",
        "col3": "50377000000"
    },
    {
        "col0": "TelefA'nica Vivo",
        "col1": "Sao Paulo",
        "col2": "84000",
        "col3": "16600000000"
    },
    {
        "col0": "Telefonica Germany",
        "col1": "Munich",
        "col2": "5288",
        "col3": "3745000000"
    },
    {
        "col0": "Telefonica Europe",
        "col1": "Berkshire",
        "col2": "29366",
        "col3": "13533000000"
    },
    {
        "col0": "Telefonica",
        "col1": "Madrid",
        "col2": "120497",
        "col3": "50377000000"
    },
    {
        "col0": "Teledyne Technologies",
        "col1": "California",
        "col2": "9600",
        "col3": "1644000000"
    },
    {
        "col0": "Tegut...",
        "col1": "Fulda",
        "col2": "6353",
        "col3": "1160000000"
    },
    {
        "col0": "Tecumseh Products",
        "col1": "Ann Arbor, Michigan",
        "col2": "5800",
        "col3": "824700000"
    },
    {
        "col0": "Teck Resources",
        "col1": "British Columbia",
        "col2": "13500",
        "col3": "11514000000"
    },
    {
        "col0": "Technology Services Group",
        "col1": "Newcastle upon Tyne",
        "col2": "560",
        "col3": "42000000"
    },
    {
        "col0": "Technology Service Corporation",
        "col1": "Silver Spring, Maryland",
        "col2": "400",
        "col3": "37200000"
    },
    {
        "col0": "Technogym",
        "col1": "Cesena",
        "col2": "2200",
        "col3": "413000000"
    },
    {
        "col0": "TechnoAlpin",
        "col1": "Bolzano",
        "col2": "250",
        "col3": "100000000"
    },
    {
        "col0": "Technicolor SA",
        "col1": "France",
        "col2": "14639",
        "col3": "3449000000"
    },
    {
        "col0": "TechniSat",
        "col1": "Daun, Germany",
        "col2": "2500",
        "col3": "440300000"
    },
    {
        "col0": "Tech Data",
        "col1": "Florida",
        "col2": "9100",
        "col3": "27670630000"
    },
    {
        "col0": "TeamHealth",
        "col1": "Knoxville, Tennessee",
        "col2": "40000",
        "col3": "7350000000"
    },
    {
        "col0": "Tea Collection",
        "col1": "San Francisco, California",
        "col2": "90",
        "col3": "40"
    },
    {
        "col0": "Taurus",
        "col1": "Porto Alegre",
        "col2": "3150",
        "col3": "342100000"
    },
    {
        "col0": "Tatua Dairy Company",
        "col1": "Morrinsville",
        "col2": "15600",
        "col3": "204000000"
    },
    {
        "col0": "Tatneft",
        "col1": "Almetyevsk",
        "col2": "80560",
        "col3": "14500000000"
    },
    {
        "col0": "Tata Elxsi",
        "col1": "Bangalore",
        "col2": "3850",
        "col3": "852"
    },
    {
        "col0": "Tartu Mill",
        "col1": "Tartu",
        "col2": "53",
        "col3": "56700000"
    },
    {
        "col0": "Tarmac",
        "col1": "Birmingham",
        "col2": "6600",
        "col3": "1800000000"
    },
    {
        "col0": "Tarkett d.o.o.",
        "col1": "Backa Palanka",
        "col2": "2755",
        "col3": "562290000"
    },
    {
        "col0": "Target Australia",
        "col1": "North Geelong, Victoria",
        "col2": "24000",
        "col3": "3500000000"
    },
    {
        "col0": "Tarek Nour Communications",
        "col1": "Giza",
        "col2": "201",
        "col3": "50"
    },
    {
        "col0": "Tapad",
        "col1": "New York",
        "col2": "82",
        "col3": "23000000"
    },
    {
        "col0": "Tanzania Telecommunications Company Limited",
        "col1": "Dar Es Salaam",
        "col2": "1600",
        "col3": "93"
    },
    {
        "col0": "Tanjug",
        "col1": "Belgrade",
        "col2": "216",
        "col3": "2660000"
    },
    {
        "col0": "Tangs",
        "col1": "Singapore",
        "col2": "686",
        "col3": "196790000"
    },
    {
        "col0": "Tangerine Confectionery",
        "col1": "Pontefract",
        "col2": "1500",
        "col3": "150000000"
    },
    {
        "col0": "Tamedia",
        "col1": "Switzerland",
        "col2": "3400",
        "col3": "1064000000"
    },
    {
        "col0": "Tallink",
        "col1": "Tallinn",
        "col2": "6835",
        "col3": "945200000"
    },
    {
        "col0": "Talen Energy",
        "col1": "Allentown, PA",
        "col2": "3500",
        "col3": "4300000000"
    },
    {
        "col0": "Taiyo Nippon Sanso Corporation",
        "col1": "Tokyo",
        "col2": "13142",
        "col3": "5800000000"
    },
    {
        "col0": "Taiwan Power Company",
        "col1": "Taipei City",
        "col2": "27261",
        "col3": "547164"
    },
    {
        "col0": "Taisei Corporation",
        "col1": "Tokyo",
        "col2": "7945",
        "col3": "17558416000"
    },
    {
        "col0": "Taikisha",
        "col1": "Tokyo",
        "col2": "5000",
        "col3": "1700000000"
    },
    {
        "col0": "TT Hellenic Postbank",
        "col1": "Athens",
        "col2": "2510",
        "col3": "319000000"
    },
    {
        "col0": "TTI Telecom",
        "col1": "Rosh Ha'ayin",
        "col2": "361",
        "col3": "46100000"
    },
    {
        "col0": "TSMC",
        "col1": "Hsinchu Science and Industrial Park",
        "col2": "37149",
        "col3": "20000000000"
    },
    {
        "col0": "TSB Bank",
        "col1": "Edinburgh",
        "col2": "8500",
        "col3": "900200000"
    },
    {
        "col0": "TRW Automotive",
        "col1": "Livonia, Michigan",
        "col2": "66100",
        "col3": "16400000000"
    },
    {
        "col0": "TP-Link",
        "col1": "Guangdong",
        "col2": "21849",
        "col3": "1900000000"
    },
    {
        "col0": "TOA Technologies",
        "col1": "Beachwood, Ohio",
        "col2": "550",
        "col3": "41000000"
    },
    {
        "col0": "TNK-BP",
        "col1": "Moscow",
        "col2": "50000",
        "col3": "60200000000"
    },
    {
        "col0": "TMX Finance",
        "col1": "Savannah, Georgia",
        "col2": "3300",
        "col3": "389400000"
    },
    {
        "col0": "TMEIC",
        "col1": "Tokyo",
        "col2": "1832",
        "col3": "188600000000"
    },
    {
        "col0": "TJX Companies",
        "col1": "Massachusetts",
        "col2": "216000",
        "col3": "30900000000"
    },
    {
        "col0": "TDC A/S",
        "col1": "Copenhagen",
        "col2": "8594",
        "col3": "23344000000"
    },
    {
        "col0": "TCL Corporation",
        "col1": "Guangdong",
        "col2": "73537",
        "col3": "16440000000"
    },
    {
        "col0": "TARGIT Business Intelligence",
        "col1": "North Denmark Region",
        "col2": "75",
        "col3": "21000000"
    },
    {
        "col0": "T-Systems",
        "col1": "Frankfurt",
        "col2": "45990",
        "col3": "8600000000"
    },
    {
        "col0": "T-Mobile US",
        "col1": "Washington",
        "col2": "50000",
        "col3": "32000000000"
    },
    {
        "col0": "T-Hrvatski Telekom",
        "col1": "Zagreb",
        "col2": "4728",
        "col3": "7040000000"
    },
    {
        "col0": "TUV SUD",
        "col1": "Germany",
        "col2": "22000",
        "col3": "2200000000"
    },
    {
        "col0": "TUV NORD",
        "col1": "Germany",
        "col2": "9840",
        "col3": "1089"
    },
    {
        "col0": "Synnex",
        "col1": "Fremont, California",
        "col2": "50000",
        "col3": "10400000000"
    },
    {
        "col0": "Synchrony Financial",
        "col1": "Connecticut",
        "col2": "12000",
        "col3": "13620000000"
    },
    {
        "col0": "Symmetricom",
        "col1": "San Jose, California",
        "col2": "584",
        "col3": "208100000"
    },
    {
        "col0": "Symantec",
        "col1": "California",
        "col2": "11000",
        "col3": "3600000000"
    },
    {
        "col0": "Swisslion Group",
        "col1": "Novi Sad",
        "col2": "3203",
        "col3": "134650000"
    },
    {
        "col0": "Swisscom",
        "col1": "Ittigen",
        "col2": "22",
        "col3": "11678000000"
    },
    {
        "col0": "Swiss Life",
        "col1": "Zurich",
        "col2": "7492",
        "col3": "19102"
    },
    {
        "col0": "Swiss Federal Railways",
        "col1": "Bern",
        "col2": "30977",
        "col3": "8319000000"
    },
    {
        "col0": "Swisher Hygiene",
        "col1": "Charlotte, North Carolina",
        "col2": "1375",
        "col3": "217700000"
    },
    {
        "col0": "Swedish Match",
        "col1": "Stockholm",
        "col2": "4488",
        "col3": "14486000000"
    },
    {
        "col0": "Swagelok",
        "col1": "Solon, Ohio",
        "col2": "4800",
        "col3": "1800000000"
    },
    {
        "col0": "Surgutneftegas",
        "col1": "Surgut",
        "col2": "92935",
        "col3": "27400000000"
    },
    {
        "col0": "SureFire",
        "col1": "California",
        "col2": "500",
        "col3": "75000000"
    },
    {
        "col0": "Superfish",
        "col1": "Palo Alto, California",
        "col2": "90",
        "col3": "40000000"
    },
    {
        "col0": "Super-Pharm",
        "col1": "Herzliya",
        "col2": "7000",
        "col3": "1200000000"
    },
    {
        "col0": "Sunshine Suites",
        "col1": "New York City",
        "col2": "20",
        "col3": "4000000"
    },
    {
        "col0": "Sunseeker",
        "col1": "Poole",
        "col2": "2230",
        "col3": "320000000"
    },
    {
        "col0": "Sunrise Communications AG",
        "col1": "Switzerland",
        "col2": "1",
        "col3": "2066"
    },
    {
        "col0": "Sundog",
        "col1": "Fargo, North Dakota",
        "col2": "100",
        "col3": "8700000"
    },
    {
        "col0": "SunPower",
        "col1": "San Jose, California",
        "col2": "6320",
        "col3": "1576470000"
    }
]