[
    {
        "col0": "L. H. Arnold",
        "col1": "Rhode Island",
        "col2": "St. Johnsbury, Vermont",
        "col3": "I. P. Rodman"
    },
    {
        "col0": "Juan Ponce de Leon II",
        "col1": "San Juan, Puerto Rico",
        "col2": "New Spain",
        "col3": "Juan Ponce de Leon"
    },
    {
        "col0": "J. Dudley",
        "col1": "Province of Massachusetts Bay",
        "col2": "Massachusetts Bay Colony",
        "col3": "T. Dudley"
    },
    {
        "col0": "J. S. Roane",
        "col1": "Arkansas",
        "col2": "Tennessee",
        "col3": "A. Roane"
    },
    {
        "col0": "J. M. Patton",
        "col1": "Richmond, Virginia",
        "col2": "Fredericksburg, Virginia",
        "col3": "George S. Patton Sr."
    },
    {
        "col0": "J. C. Fremont",
        "col1": "New York",
        "col2": "Georgia",
        "col3": "T. H. Benton"
    },
    {
        "col0": "J. Bell",
        "col1": "Chester, New Hampshire",
        "col2": "Londonderry, New Hampshire",
        "col3": "S. Bell"
    },
    {
        "col0": "J. Garrard",
        "col1": "Bourbon County, Kentucky",
        "col2": "Stafford County, Virginia",
        "col3": "K. Garrard"
    },
    {
        "col0": "J. F. Robinson",
        "col1": "Scott County, Kentucky",
        "col2": "Scott County, Kentucky",
        "col3": "J. M. Robinson"
    },
    {
        "col0": "J. Clark",
        "col1": "Frankfort, Kentucky",
        "col2": "Bedford County, Virginia",
        "col3": "C. H. Clark"
    },
    {
        "col0": "J. Dupre",
        "col1": "Opelousas, Louisiana",
        "col2": "Louisiana",
        "col3": "G. L. Dupre"
    },
    {
        "col0": "H. M. Mathews",
        "col1": "Lewisburg, West Virginia",
        "col2": "Greenbrier County, West Virginia",
        "col3": "Mathews"
    },
    {
        "col0": "H. Howard",
        "col1": "Coventry, Rhode Island",
        "col2": "Cranston, Rhode Island",
        "col3": "E. Harris"
    },
    {
        "col0": "H. H. Crapo",
        "col1": "Flint, Michigan",
        "col2": "Dartmouth, Massachusetts",
        "col3": "W. C. Durant"
    },
    {
        "col0": "G. Walton",
        "col1": "Augusta, Georgia",
        "col2": "Virginia",
        "col3": "Georgia"
    },
    {
        "col0": "G. S. Mickelson",
        "col1": "Dubuque, Iowa",
        "col2": "Mobridge, South Dakota",
        "col3": "G. T. Mickelson"
    },
    {
        "col0": "G. Madison",
        "col1": "Paris, Kentucky",
        "col2": "Augusta County, Virginia",
        "col3": "J. Madison"
    },
    {
        "col0": "C. Pinckney",
        "col1": "Charleston, South Carolina",
        "col2": "Charleston, South Carolina",
        "col3": "C. C. Pinckney"
    },
    {
        "col0": "C. A. FitzRoy",
        "col1": "England",
        "col2": "Derbyshire",
        "col3": "R. FitzRoy"
    },
    {
        "col0": "A. Havelock",
        "col1": "Bath, Somerset",
        "col2": "Bath, Somerset",
        "col3": "H. Havelock"
    },
    {
        "col0": "A. Roane",
        "col1": "Knox County, Tennessee",
        "col2": "Lancaster County, Pennsylvania",
        "col3": "S. Roane"
    }
]