[
    {
        "col0": "Los Ricos Tambien Lloran",
        "col1": "Valentin Pimstein",
        "col2": "C. Dominguez",
        "col3": "1980-02-29"
    },
    {
        "col0": "Los Luchadores",
        "col1": "ABC Family",
        "col2": "A. Burghardt",
        "col3": "2001-07-01"
    },
    {
        "col0": "Los Dos Bros",
        "col1": "Victoria Pile",
        "col2": "D. Boyd",
        "col3": "2001-10-26"
    },
    {
        "col0": "Lord of Shanghai",
        "col1": "Amy Wong",
        "col2": "M. Wu",
        "col3": "2015-11-29"
    },
    {
        "col0": "Lonesome Dove",
        "col1": "Dyson Lovell",
        "col2": "R. Duvall",
        "col3": "1989-02-08"
    },
    {
        "col0": "Living Dolls",
        "col1": "R.J. Colleary",
        "col2": "L. Remini",
        "col3": "1989-12-30"
    },
    {
        "col0": "List of The Wild Wild West episodes",
        "col1": "Bruce Lansbury",
        "col2": "R. Martin",
        "col3": "1969-04-04"
    },
    {
        "col0": "List of The Wiggles episodes",
        "col1": "Paul Field",
        "col2": "T. Wiggles",
        "col3": "1998-09-24"
    },
    {
        "col0": "Lipstick",
        "col1": "Goldie Behl",
        "col2": "Lipstick",
        "col3": "2004-07-04"
    },
    {
        "col0": "Line Walker",
        "col1": "Jazz Boon",
        "col2": "R. Lam",
        "col3": "2014-10-03"
    },
    {
        "col0": "Lights Out",
        "col1": "Robin Veith",
        "col2": "C. McCormack",
        "col3": "2011-04-05"
    },
    {
        "col0": "Life with Elizabeth",
        "col1": "Betty White",
        "col2": "D. Moore",
        "col3": "1955-09-01"
    },
    {
        "col0": "Life on Mars",
        "col1": "Kudos",
        "col2": "J. Simm",
        "col3": "2007-04-10"
    },
    {
        "col0": "Life of Ryan",
        "col1": "Ryan Sheckler",
        "col2": "R. Sheckler",
        "col3": "2008-05-19"
    },
    {
        "col0": "Life Begins",
        "col1": "ITV Studios",
        "col2": "F. Finlay",
        "col3": "2006-10-09"
    },
    {
        "col0": "Life",
        "col1": "Loucas George",
        "col2": "D. Lewis",
        "col3": "2009-04-08"
    },
    {
        "col0": "Lie to Me",
        "col1": "Tim Roth",
        "col2": "T. Roth",
        "col3": "2011-01-31"
    },
    {
        "col0": "Lidsville",
        "col1": "Sid and Marty Krofft",
        "col2": "B. Patrick",
        "col3": "1973-09-02"
    },
    {
        "col0": "Lewis & Clark: The Journey of the Corps of Discovery",
        "col1": "Ken Burns",
        "col2": "A. Arkin",
        "col3": "1997-11-05"
    },
    {
        "col0": "Lenny",
        "col1": "Gil Junger",
        "col2": "L. Clarke",
        "col3": "1991-03-09"
    },
    {
        "col0": "Legit",
        "col1": "The Comedy Unit",
        "col2": "S. McNicoll",
        "col3": "2007-10-12"
    },
    {
        "col0": "Legend of the Demigods",
        "col1": "Lee Tim-shing",
        "col2": "B. Chan",
        "col3": "2008-10-17"
    },
    {
        "col0": "Legacy of Murder",
        "col1": "Harold Snoad",
        "col2": "D. Emery",
        "col3": "1982-03-23"
    },
    {
        "col0": "Legacy",
        "col1": "GMA Entertainment TV Group",
        "col2": "H. Evangelista",
        "col3": "2012-06-01"
    },
    {
        "col0": "Leave It to Beaver",
        "col1": "Bob Mosher",
        "col2": "B. Billingsley",
        "col3": "1963-06-20"
    },
    {
        "col0": "Lead Balloon",
        "col1": "Alex Hardcastle",
        "col2": "J. Dee",
        "col3": "2011-07-05"
    },
    {
        "col0": "Le Juste Prix",
        "col1": "FremantleMedia",
        "col2": "Lagaf'",
        "col3": "2015-04-10"
    },
    {
        "col0": "Lacos de Sangue",
        "col1": "Rede Globo",
        "col2": "D. Morgado",
        "col3": "2011-10-02"
    },
    {
        "col0": "Lawrence Leung's Unbelievable",
        "col1": "Craig Melville",
        "col2": "L. Leung",
        "col3": "2011-07-20"
    },
    {
        "col0": "Lawrence Leung's Choose Your Own Adventure",
        "col1": "Craig Melville",
        "col2": "L. Leung",
        "col3": "2009-04-29"
    },
    {
        "col0": "Lawman",
        "col1": "Oren W. Haglund",
        "col2": "P. Brown",
        "col3": "1962-06-24"
    },
    {
        "col0": "Law & Order: UK",
        "col1": "Richard Stokes",
        "col2": "P. Davison",
        "col3": "2014-06-11"
    },
    {
        "col0": "Law & Order: Criminal Intent",
        "col1": "John L. Roman",
        "col2": "S. Burrows",
        "col3": "2011-06-26"
    },
    {
        "col0": "Law & Order",
        "col1": "Dick Wolf",
        "col2": "A. Anderson",
        "col3": "2010-05-24"
    },
    {
        "col0": "Laut Aao Trisha",
        "col1": "Bhairavi Raichura",
        "col2": "B. Patwardhan",
        "col3": "2015-04-24"
    },
    {
        "col0": "Last Resort",
        "col1": "Jean Higgins",
        "col2": "D. Lissing",
        "col3": "2013-01-24"
    },
    {
        "col0": "Last Man Standing",
        "col1": "Marieke Hardy",
        "col2": "M. Smith",
        "col3": "2005-10-25"
    },
    {
        "col0": "Lassie",
        "col1": "Robert Maxwell",
        "col2": "J. Shepodd",
        "col3": "1973-03-24"
    },
    {
        "col0": "Las dos caras de Ana",
        "col1": "Lucero Suarez",
        "col2": "A. Layevska",
        "col3": "2007-03-09"
    },
    {
        "col0": "Laramie",
        "col1": "Revue Studios",
        "col2": "H. Carmichael",
        "col3": "1963-05-21"
    },
    {
        "col0": "Lanigan's Rabbi",
        "col1": "Don Mankiewicz",
        "col2": "A. Carney",
        "col3": "1977-04-24"
    },
    {
        "col0": "Langit sa Piling Mo",
        "col1": "GMA Entertainment TV Group",
        "col2": "D. Matsunaga",
        "col3": "2010-09-17"
    },
    {
        "col0": "Lancer",
        "col1": "Sam Wanamaker",
        "col2": "J. Stacy",
        "col3": "1970-06-23"
    },
    {
        "col0": "Lajwanti",
        "col1": "Rajat Bedi",
        "col2": "Lajwanti",
        "col3": "2016-02-05"
    },
    {
        "col0": "Lab Rats",
        "col1": "Simon Nicholls",
        "col2": "C. Addison",
        "col3": "2008-08-14"
    },
    {
        "col0": "Laagi Tujhse Lagan",
        "col1": "Paresh Rawal",
        "col2": "L. T. Lagan",
        "col3": "2012-01-06"
    },
    {
        "col0": "Laa",
        "col1": "Momina Duraid",
        "col2": "M. Zulfiqar",
        "col3": "2014-08-30"
    },
    {
        "col0": "La sombra del otro",
        "col1": "Giselle Gonzalez",
        "col2": "E. Gonzalez",
        "col3": "1996-08-16"
    },
    {
        "col0": "La otra cara del alma",
        "col1": "Gerardo Zurita",
        "col2": "E. Capetillo",
        "col3": "2013-05-10"
    },
    {
        "col0": "La indomable",
        "col1": "Mapat L. de Zatarain",
        "col2": "M. Rivas",
        "col3": "1987-09-18"
    },
    {
        "col0": "La Tormenta",
        "col1": "Hugo Leon Ferrer",
        "col2": "N. Streignard",
        "col3": "2006-07-24"
    },
    {
        "col0": "La Picara Sonadora",
        "col1": "Salvador Mejia Alejandre",
        "col2": "E. Palomo",
        "col3": "1991-12-20"
    },
    {
        "col0": "La Ninera",
        "col1": "Fran Drescher",
        "col2": "F. Pena",
        "col3": "2005-03-19"
    },
    {
        "col0": "LaLola",
        "col1": "Wilma Galvante",
        "col2": "R. Ramos",
        "col3": "2009-02-06"
    },
    {
        "col0": "Lacos de Sangue",
        "col1": "Rede Globo",
        "col2": "D. Morgado",
        "col3": "2011-10-02"
    },
    {
        "col0": "LG15: Outbreak",
        "col1": "Gregory Austin McConnell",
        "col2": "G. A. McConnell",
        "col3": "2010-03-24"
    },
    {
        "col0": "Kyunki Saas Bhi Kabhi Bahu Thi",
        "col1": "Ekta Kapoor",
        "col2": "Kyunki Saas Bhi Kabhi Bahu Thi",
        "col3": "2008-11-06"
    },
    {
        "col0": "Kyle XY",
        "col1": "Julie Plec",
        "col2": "J. Alexander",
        "col3": "2009-03-16"
    },
    {
        "col0": "Kyaa Hoga Nimmo Kaa",
        "col1": "Ekta Kapoor",
        "col2": "Kyaa Hoga Nimmo Kaa",
        "col3": "2007-01-18"
    },
    {
        "col0": "Kya Huaa Tera Vaada",
        "col1": "Ekta Kapoor",
        "col2": "Kya Huaa Tera Vaada",
        "col3": "2013-05-23"
    },
    {
        "col0": "Kya Dill Mein Hai",
        "col1": "Shobha Kapoor",
        "col2": "Kya Dill Mein Hai",
        "col3": "2008-11-08"
    },
    {
        "col0": "Kya Aap Paanchvi Pass Se Tez Hain?",
        "col1": "Siddhartha Basu",
        "col2": "S. Khan",
        "col3": "2008-07-27"
    },
    {
        "col0": "Kutumb",
        "col1": "Ekta Kapoor",
        "col2": "Kutumb",
        "col3": "2003-02-07"
    },
    {
        "col0": "Kung Aagawin Mo Ang Langit",
        "col1": "GMA Network",
        "col2": "M. Madrigal",
        "col3": "2012-02-03"
    },
    {
        "col0": "Kulvaddhu",
        "col1": "Anuj Saxena",
        "col2": "Kulvaddhu",
        "col3": "2007-03-15"
    },
    {
        "col0": "Kuchh Jhuki Palkain",
        "col1": "Ekta Kapoor",
        "col2": "K. J. Palkain",
        "col3": "2003-01-08"
    },
    {
        "col0": "Kuch Toh Hai Tere Mere Darmiyaan",
        "col1": "Ekta Kapoor",
        "col2": "A. Negi",
        "col3": "2016-01-02"
    },
    {
        "col0": "Kuch Pyar Ka Pagalpan",
        "col1": "Samina Humayun Saeed",
        "col2": "S. Baloch",
        "col3": "2012-03-10"
    },
    {
        "col0": "Krishnaben Khakhrawala",
        "col1": "Asit Kumarr Modi",
        "col2": "K. Khakhrawala",
        "col3": "2011-09-29"
    },
    {
        "col0": "Korg: 70,000 B.C.",
        "col1": "Richard O'Connor",
        "col2": "B. Ewing",
        "col3": "1975-08-30"
    },
    {
        "col0": "Kolangal",
        "col1": "Vikatan Televistas",
        "col2": "Devayani",
        "col3": "2009-12-04"
    },
    {
        "col0": "Kokak",
        "col1": "GMA Entertainment TV Group",
        "col2": "S. Lahbati",
        "col3": "2012-03-02"
    },
    {
        "col0": "Kohi Apna Sa",
        "col1": "Ekta Kapoor",
        "col2": "K. A. Sa",
        "col3": "2003-01-15"
    },
    {
        "col0": "Knowing Me Knowing You with Alan Partridge",
        "col1": "Armando Iannucci",
        "col2": "D. Mackichan",
        "col3": "1994-10-21"
    },
    {
        "col0": "Klondike",
        "col1": "David Zucker",
        "col2": "S. Shepard",
        "col3": "2014-01-22"
    },
    {
        "col0": "Kkavyanjali",
        "col1": "Ekta Kapoor",
        "col2": "Kavyanjali",
        "col3": "2006-08-28"
    },
    {
        "col0": "Kitna Satatay Ho",
        "col1": "Momina Duraid",
        "col2": "R. Ashraf",
        "col3": "2015-11-22"
    },
    {
        "col0": "Kitani Mohabbat Hai",
        "col1": "Ekta Kapoor",
        "col2": "Kitani Mohabbat Hai Season 2",
        "col3": "2011-05-26"
    },
    {
        "col0": "Kitani Mohabbat Hai",
        "col1": "Ekta Kapoor",
        "col2": "K. M. Hai",
        "col3": "2009-09-25"
    },
    {
        "col0": "Kismat",
        "col1": "Aditya Chopra",
        "col2": "Kismat",
        "col3": "2011-06-02"
    },
    {
        "col0": "Kisi Ki Nazarr Na Lage",
        "col1": "Raja Mukherjee",
        "col2": "Kisi Ki Nazarr Na Lage",
        "col3": "2009-07-03"
    },
    {
        "col0": "Kis Desh Mein Hai Meraa Dil",
        "col1": "Ekta Kapoor",
        "col2": "Kis Desh Mein Hai Meraa Dil",
        "col3": "2010-02-05"
    },
    {
        "col0": "Kingdom Hospital",
        "col1": "Lars von Trier",
        "col2": "J. M. Ferland",
        "col3": "2004-07-15"
    },
    {
        "col0": "Kingdom",
        "col1": "Georgina Lowe",
        "col2": "S. Fry",
        "col3": "2009-07-12"
    },
    {
        "col0": "Killer Net",
        "col1": "Lynda La Plante",
        "col2": "P. Bettany",
        "col3": "1998-05-26"
    },
    {
        "col0": "Kidnap and Ransom",
        "col1": "Trevor Eve",
        "col2": "E. Fielding",
        "col3": "2012-03-08"
    },
    {
        "col0": "Kidd Video",
        "col1": "Shuki Levy",
        "col2": "R. Rist",
        "col3": "1985-12-07"
    },
    {
        "col0": "Kick",
        "col1": "Esben Storm",
        "col2": "R. James",
        "col3": "2007-08-18"
    },
    {
        "col0": "Khwaish",
        "col1": "Ekta Kapoor",
        "col2": "Khwaish",
        "col3": "2008-04-24"
    },
    {
        "col0": "Khushiyon Kii Gullak Aashi",
        "col1": "Naren Kumar",
        "col2": "Khushiyon Kii Gullak Aashi",
        "col3": "2014-12-05"
    },
    {
        "col0": "Khuda Aur Muhabbat",
        "col1": "Javeria Saud",
        "col2": "A. Jahanzeb",
        "col3": "2011-05-26"
    },
    {
        "col0": "Khotey Sikkey",
        "col1": "Aditya Chopra",
        "col2": "K. Sikkey",
        "col3": "2011-04-23"
    },
    {
        "col0": "Khelti Hai Zindagi Aankh Micholi",
        "col1": "Subhash Chandra",
        "col2": "M. Gohil",
        "col3": "2014-01-03"
    },
    {
        "col0": "Khatti Meethi Zindagi",
        "col1": "Momina Duraid",
        "col2": "F. Mustafa",
        "col3": "2011-09-12"
    },
    {
        "col0": "Kevin Hill",
        "col1": "Taye Diggs",
        "col2": "M. Good",
        "col3": "2005-05-18"
    },
    {
        "col0": "Kesetiaan Cinta",
        "col1": "Manoj Punjabi",
        "col2": "E. Sanders",
        "col3": "2010-07-26"
    },
    {
        "col0": "Kesar",
        "col1": "Ekta Kapoor",
        "col2": "Kesar",
        "col3": "2007-05-31"
    },
    {
        "col0": "Kenny Hotz's Triumph of the Will",
        "col1": "Kenny Hotz",
        "col2": "K. Hotz",
        "col3": "2011-08-05"
    },
    {
        "col0": "Kenan & Kel",
        "col1": "Kevin Kopelow and Heath Seifert",
        "col2": "K. Mitchell",
        "col3": "2000-07-15"
    },
    {
        "col0": "Kehta Hai Dil Jee Le Zara",
        "col1": "Goldie Behl",
        "col2": "Kehta Hai Dil Jee Le Zara",
        "col3": "2014-05-08"
    },
    {
        "col0": "Keeping Up Appearances",
        "col1": "Harold Snoad",
        "col2": "P. Routledge",
        "col3": "1995-12-25"
    },
    {
        "col0": "Keep It in the Family",
        "col1": "Michael Mills",
        "col2": "G. Houston",
        "col3": "1983-10-19"
    },
    {
        "col0": "Kayitham",
        "col1": "Samuthirakani",
        "col2": "D. Padmini",
        "col3": "2014-05-16"
    },
    {
        "col0": "Kayamath",
        "col1": "Ekta Kapoor",
        "col2": "Kayamath",
        "col3": "2009-03-12"
    },
    {
        "col0": "Kate Brasher",
        "col1": "Mary Stuart Masterson",
        "col2": "R. Perlman",
        "col3": "2001-04-14"
    },
    {
        "col0": "Kate & Allie",
        "col1": "Bill Persky",
        "col2": "A. Smith",
        "col3": "1989-05-22"
    },
    {
        "col0": "Kasthuri",
        "col1": "Ekta Kapoor",
        "col2": "Latha",
        "col3": "2012-08-31"
    },
    {
        "col0": "Kasautii Zindagii Kay",
        "col1": "Ekta Kapoor",
        "col2": "K. Z. Kay",
        "col3": "2008-02-28"
    },
    {
        "col0": "Kasamh Se",
        "col1": "Ekta Kapoor",
        "col2": "K. Se",
        "col3": "2009-03-12"
    },
    {
        "col0": "Kasalanan Bang Ibigin Ka?",
        "col1": "GMA Network",
        "col2": "G. Eigenmann",
        "col3": "2012-08-31"
    },
    {
        "col0": "Karthigai Pengal",
        "col1": "Thirumurugan",
        "col2": "Shruti",
        "col3": "2013-08-23"
    },
    {
        "col0": "Karen",
        "col1": "Bob Mosher",
        "col2": "R. Denning",
        "col3": "1965-04-19"
    },
    {
        "col0": "Karb",
        "col1": "Amna Nawaz Khan",
        "col2": "A. Siddiqui",
        "col3": "2015-10-12"
    },
    {
        "col0": "Karate Kommandos",
        "col1": "Larry Huber",
        "col2": "C. Norris",
        "col3": "1986-09-19"
    },
    {
        "col0": "Karam Apnaa Apnaa",
        "col1": "Ekta Kapoor",
        "col2": "K. A. Apnaa",
        "col3": "2009-03-27"
    },
    {
        "col0": "Karadayi",
        "col1": "Kerem Catay",
        "col2": "B. Korel",
        "col3": "2015-06-15"
    },
    {
        "col0": "Kara Para Ask",
        "col1": "Kerem Catay",
        "col2": "E. Akyurek",
        "col3": "2015-07-15"
    },
    {
        "col0": "Kanakanjali",
        "col1": "Prosenjit Chatterjee",
        "col2": "A. Adhya",
        "col3": "2012-09-22"
    },
    {
        "col0": "Kammal",
        "col1": "Ekta Kapoor",
        "col2": "Kammal",
        "col3": "2003-03-20"
    },
    {
        "col0": "Kamen Rider: Dragon Knight",
        "col1": "Steve Wang",
        "col2": "M. Mullins",
        "col3": "2009-12-26"
    },
    {
        "col0": "Kamandag",
        "col1": "GMA Entertainment TV Group",
        "col2": "J. Mische",
        "col3": "2008-04-25"
    },
    {
        "col0": "Kahiin to Hoga",
        "col1": "Ekta Kapoor",
        "col2": "K. T. Hoga",
        "col3": "2007-02-15"
    },
    {
        "col0": "Kahani Raima Aur Manahil Ki",
        "col1": "Afzal Ali",
        "col2": "M. Syed",
        "col3": "2014-08-20"
    },
    {
        "col0": "Kahani Hamari... Dil Dosti Deewanepan Ki",
        "col1": "Gul Khan",
        "col2": "K. Wahi",
        "col3": "2016-06-24"
    },
    {
        "col0": "Kahani Chandrakanta Ki",
        "col1": "Sunil Agnihotri",
        "col2": "K. C. Ki",
        "col3": "2012-03-23"
    },
    {
        "col0": "Kahaani Hamaaray Mahaabhaarat Ki",
        "col1": "Ekta Kapoor",
        "col2": "Kahaani Hamaaray Mahaabhaarat Ki",
        "col3": "2008-11-06"
    },
    {
        "col0": "Kaahin Kissii Roz",
        "col1": "Ekta Kapoor",
        "col2": "K. K. Roz",
        "col3": "2004-09-23"
    },
    {
        "col0": "K. Street Pali Hill",
        "col1": "Ekta Kapoor",
        "col2": "K. Street Pali Hill",
        "col3": "2006-10-12"
    },
    {
        "col0": "K-Ville",
        "col1": "Skip Schoolnik",
        "col2": "A. Anderson",
        "col3": "2007-12-17"
    },
    {
        "col0": "Justice",
        "col1": "David Susskind",
        "col2": "G. Merrill",
        "col3": "1956-03-25"
    },
    {
        "col0": "Just for Laughs",
        "col1": "Philip Morrow",
        "col2": "K. O'Sullivan",
        "col3": "2007-07-21"
    },
    {
        "col0": "Just Love II",
        "col1": "Chong Wai-kin",
        "col2": "N. Tong",
        "col3": "2009-06-05"
    },
    {
        "col0": "Junoon - Aisi Nafrat Toh Kaisa Ishq",
        "col1": "Yash A Patnaik",
        "col2": "S. Khan",
        "col3": "2013-09-06"
    },
    {
        "col0": "Julia",
        "col1": "Hal Kanter",
        "col2": "D. Carroll",
        "col3": "1971-03-23"
    },
    {
        "col0": "Jugnoo",
        "col1": "Momina Duraid",
        "col2": "I. Zaidi",
        "col3": "2015-08-14"
    },
    {
        "col0": "Judith Lucy's Spiritual Journey",
        "col1": "Judith Lucy",
        "col2": "J. Lucy",
        "col3": "2011-08-31"
    },
    {
        "col0": "Judging Amy",
        "col1": "Joseph Stern",
        "col2": "A. Brenneman",
        "col3": "2005-05-03"
    },
    {
        "col0": "Judge Roy Bean",
        "col1": "Russell Hayden",
        "col2": "E. Buchanan",
        "col3": "1956-08-01"
    },
    {
        "col0": "Judge John Deed",
        "col1": "G.F. Newman",
        "col2": "M. Shaw",
        "col3": "2007-01-18"
    },
    {
        "col0": "Juan Tamad",
        "col1": "GMA News and Public Affairs",
        "col2": "S. Cadayona",
        "col3": "2016-03-13"
    },
    {
        "col0": "Journey to the Center of the Earth",
        "col1": "George T. Miller",
        "col2": "T. Williams",
        "col3": "1999-09-15"
    },
    {
        "col0": "Josie and the Pussycats",
        "col1": "Joseph Barbera",
        "col2": "C. Kasem",
        "col3": "1971-01-02"
    },
    {
        "col0": "Jonah from Tonga",
        "col1": "Chris Lilley",
        "col2": "C. Lilley",
        "col3": "2014-05-04"
    },
    {
        "col0": "Jollitown",
        "col1": "Jolibee",
        "col2": "Jollibee",
        "col3": "2013-10-12"
    },
    {
        "col0": "Joking Apart",
        "col1": "Andre Ptaszynski",
        "col2": "R. Bathurst",
        "col3": "1995-02-07"
    },
    {
        "col0": "Johnny Jupiter",
        "col1": "Jerome Coopersmith",
        "col2": "V. Taylor",
        "col3": "1953-06-13"
    },
    {
        "col0": "John Adams",
        "col1": "Tom Hanks",
        "col2": "R. Sewell",
        "col3": "2008-04-27"
    },
    {
        "col0": "Joe and Sons",
        "col1": "Bernie Kukoff",
        "col2": "J. Stiller",
        "col3": "1976-01-13"
    },
    {
        "col0": "Joe's Life",
        "col1": "Lee Aronsohn",
        "col2": "J. M. Jones",
        "col3": "1993-12-15"
    },
    {
        "col0": "Jodha Akbar",
        "col1": "Ekta Kapoor",
        "col2": "R. Tokas",
        "col3": "2015-08-07"
    },
    {
        "col0": "Joaquin Bordado",
        "col1": "GMA Entertainment TV Group",
        "col2": "R. Padilla",
        "col3": "2008-07-11"
    },
    {
        "col0": "Jo",
        "col1": "Klaus Zimmermann",
        "col2": "W. Mosaku",
        "col3": "2013-03-07"
    },
    {
        "col0": "Jiya Jale",
        "col1": "Siddhartha Basu",
        "col2": "J. Jale",
        "col3": "2008-06-19"
    },
    {
        "col0": "Jim Henson's Pajanimals",
        "col1": "Colin Williams",
        "col2": "J. Kennedy",
        "col3": "2010-04-18"
    },
    {
        "col0": "Jhoome Jiiya Re",
        "col1": "Tony Singh",
        "col2": "J. J. Re",
        "col3": "2008-09-04"
    },
    {
        "col0": "Jesus of Nazareth",
        "col1": "Lew Grade",
        "col2": "R. Powell",
        "col3": "1977-04-24"
    },
    {
        "col0": "Jeremy Clarkson's Extreme Machines",
        "col1": "Andy Wilman",
        "col2": "J. Clarkson",
        "col3": "1998-02-12"
    },
    {
        "col0": "Jeopardy",
        "col1": "Andy Rowley",
        "col2": "K. Corbett",
        "col3": "2004-05-11"
    },
    {
        "col0": "Jeff Global's Global Probe",
        "col1": "Absolutely Productions",
        "col2": "J. Sparkes",
        "col3": "2004-09-10"
    },
    {
        "col0": "Jeevan Saathi",
        "col1": "Paresh Rawal",
        "col2": "J. Saathi",
        "col3": "2009-09-04"
    },
    {
        "col0": "Jeder stirbt fur sich allein",
        "col1": "Adolf Fischer",
        "col2": "E. Geschonneck",
        "col3": "1970-09-20"
    },
    {
        "col0": "Jason King",
        "col1": "Monty Berman",
        "col2": "P. Wyngarde",
        "col3": "1972-04-28"
    },
    {
        "col0": "Jane Eyre",
        "col1": "Diederick Santer",
        "col2": "T. Stephens",
        "col3": "2006-10-15"
    },
    {
        "col0": "Jamie",
        "col1": "Julian Claman",
        "col2": "E. M. Saint",
        "col3": "1954-10-04"
    },
    {
        "col0": "James May's Big Ideas",
        "col1": "Nigel Paterson",
        "col2": "J. May",
        "col3": "2008-10-12"
    },
    {
        "col0": "Jake in Progress",
        "col1": "John Stamos",
        "col2": "J. Stamos",
        "col3": "2006-01-09"
    },
    {
        "col0": "Jake and the Fatman",
        "col1": "Viacom Productions",
        "col2": "W. Conrad",
        "col3": "1992-05-06"
    },
    {
        "col0": "Jackson Heights",
        "col1": "Humayun Saeed",
        "col2": "A. Sheikh",
        "col3": "2015-03-20"
    },
    {
        "col0": "Jack of All Trades",
        "col1": "Bruce Campbell",
        "col2": "B. Campbell",
        "col3": "2000-12-02"
    }
]