[
    {
        "col0": "Sweet Sixteen",
        "col1": "Crossings",
        "col2": "CPB Box no. 1949 vol. 17",
        "col3": "0-7434-2732-7"
    },
    {
        "col0": "Swallowing Darkness",
        "col1": "A Lick of Frost",
        "col2": "PS3558.A443357 S93 2005",
        "col3": "978-0-345-49593-8"
    },
    {
        "col0": "Survivor",
        "col1": "Patternist series",
        "col2": "PZ4.B98674 Su PS3552.U827",
        "col3": "0-385-13385-5"
    },
    {
        "col0": "Superfudge",
        "col1": "Otherwise Known as Sheila the Great",
        "col2": "PZ7.B6265 Su 1980",
        "col3": "0-525-40522-4"
    },
    {
        "col0": "Sunstorm",
        "col1": "Time's Eye",
        "col2": "PR6005.L36 S86 2005",
        "col3": "0-345-45250-X"
    },
    {
        "col0": "Sunset",
        "col1": "Twilight",
        "col2": "PZ7.H916625 Sun 2007",
        "col3": "978-0-06-082769-4"
    },
    {
        "col0": "Summon the Thunder",
        "col1": "Harbinger",
        "col2": "CPB Box no. 2703 vol. 17",
        "col3": "1-4165-2400-2"
    },
    {
        "col0": "Summer Knight",
        "col1": "Grave Peril",
        "col2": "CPB Box no. 2028 vol. 14",
        "col3": "0-451-45892-3"
    },
    {
        "col0": "Street Magic",
        "col1": "Magic Steps",
        "col2": "PZ7.P61464 St 2001",
        "col3": "0-590-39628-5"
    },
    {
        "col0": "Straken",
        "col1": "Tanequil",
        "col2": "PS3552.R6596 S77 2005",
        "col3": "0-345-45112-0"
    },
    {
        "col0": "Storming Heaven",
        "col1": "Good King Harry",
        "col2": "PS3557.I136 S76 1987",
        "col3": "0-393-02440-7"
    },
    {
        "col0": "Storm from the Shadows",
        "col1": "The Shadow of Saganami",
        "col2": "PS3573.E217 S76 2009",
        "col3": "978-1-4165-9147-4"
    },
    {
        "col0": "Stone of Tears",
        "col1": "Wizard's First Rule",
        "col2": "PS3557.O5826 S76 1995",
        "col3": "0-312-85706-3"
    },
    {
        "col0": "Still Life with Crows",
        "col1": "The Cabinet of Curiosities",
        "col2": "PS3566.R3982 S7 2003",
        "col3": "0-446-53142-1"
    },
    {
        "col0": "Still I Rise: A Graphic History of African Americans",
        "col1": "Still I Rise: A Cartoon History of African Americans",
        "col2": "E185 .L35 2009",
        "col3": "978-1-4027-6226-0"
    },
    {
        "col0": "State of Denial",
        "col1": "Plan of Attack",
        "col2": "E903.3 .W67 2006",
        "col3": "0-7432-7223-4"
    },
    {
        "col0": "Startide Rising",
        "col1": "Sundiver",
        "col2": "CPB Box no. 2914 vol. 13",
        "col3": "0-553-23495-1"
    },
    {
        "col0": "Starry Nights",
        "col1": "Socialite Evenings",
        "col2": "PR9499.3.D4 S56 1991",
        "col3": "0-14-015456-6"
    },
    {
        "col0": "Stanley Yelnats' Survival Guide to Camp Green Lake",
        "col1": "Holes",
        "col2": "MLCS 2006/42289 (P)",
        "col3": "0-440-41947-6"
    },
    {
        "col0": "Stalin's Ghost",
        "col1": "Wolves Eat Dogs",
        "col2": "PS3569.M5377 S73 2007",
        "col3": "0-7432-7672-8"
    },
    {
        "col0": "Squire",
        "col1": "Page",
        "col2": "PZ7.P61464 Sq 2001",
        "col3": "0-679-88916-7"
    },
    {
        "col0": "Splendor: A Luxe Novel",
        "col1": "Envy: A Luxe Novel",
        "col2": "PZ7.G53887 Sp 2009",
        "col3": "978-0-06-162631-9"
    },
    {
        "col0": "Spirit Bound",
        "col1": "Blood Promise",
        "col2": "PZ7.M478897 Sp 2010",
        "col3": "978-1-59514-250-4"
    },
    {
        "col0": "Spindle's End",
        "col1": "Rose Daughter",
        "col2": "PZ8.M1793 Sp 2000",
        "col3": "0-399-23466-7"
    },
    {
        "col0": "Special Assignments",
        "col1": "The Death of Achilles",
        "col2": "PG3478.K78 O8413 2007b",
        "col3": "0-297-84822-4"
    },
    {
        "col0": "Space Apprentice",
        "col1": "The Way to Amalthea",
        "col2": "PG3476.S78835 S6",
        "col3": "0-02-615220-7"
    },
    {
        "col0": "South of Broad",
        "col1": "My Losing Season",
        "col2": "PS3553.O5198 S68 2009",
        "col3": "978-0-385-41305-3"
    },
    {
        "col0": "Sound the Retreat",
        "col1": "Fielding Gray",
        "col2": "PR6068.A9",
        "col3": "978-0-2185-1140-6"
    },
    {
        "col0": "Soul of the Fire",
        "col1": "Temple of the Winds",
        "col2": "PS3557.O5826 S68 1999",
        "col3": "0-312-89054-0"
    },
    {
        "col0": "Soul Trade",
        "col1": "Close to the Ground",
        "col2": "CPB Box no. 1892 vol. 6",
        "col3": "0-7434-0699-0"
    },
    {
        "col0": "Soul Harvest",
        "col1": "Nicolae",
        "col2": "PS3562.A315 S68 1998",
        "col3": "0-8423-2915-3"
    },
    {
        "col0": "Soul Circus",
        "col1": "Hell to Pay",
        "col2": "PS3566.E354 S68 2003",
        "col3": "0-316-60843-2"
    },
    {
        "col0": "Sorcerer's Apprentice",
        "col1": "Beyond the Devil's Teeth",
        "col2": "GV1545.S29 A3 2001",
        "col3": "1-55970-580-9"
    },
    {
        "col0": "Sons of the Oak",
        "col1": "The Lair of Bones",
        "col2": "PS3556.A71558 S66 2006",
        "col3": "0-7653-0177-6"
    },
    {
        "col0": "Songs of the Doomed",
        "col1": "Generation of Swine",
        "col2": "E839.5 .T47 1991",
        "col3": "0-330-32179-X"
    },
    {
        "col0": "Something Rotten",
        "col1": "The Well of Lost Plots",
        "col2": "PR6106.F67 T484 2004",
        "col3": "0-670-03359-6"
    },
    {
        "col0": "Some Like It Hot",
        "col1": "Back in Black",
        "col2": "PZ7.D3473 Som 2006",
        "col3": "0-316-01093-6"
    },
    {
        "col0": "Some Lie and Some Die",
        "col1": "Murder Being Once Done",
        "col2": "PZ4.R4132 So3 PR6068.E63",
        "col3": "0-09-115050-7"
    },
    {
        "col0": "Soldiers and Slaves",
        "col1": "Hearts Grown Brutal",
        "col2": "D805.5.B46 C63 2005",
        "col3": "978-0-375-41410-7"
    },
    {
        "col0": "Smuggler's Moon",
        "col1": "The Color of Death",
        "col2": "PS3553.O55314 S68 2001",
        "col3": "0-399-14774-8"
    },
    {
        "col0": "Small World: An Academic Romance",
        "col1": "Changing Places",
        "col2": "PR6062.O36 S64x 1984",
        "col3": "0-436-25663-0"
    },
    {
        "col0": "Sly Mongoose",
        "col1": "Ragamuffin",
        "col2": "PS3602.U2635 S58 2008",
        "col3": "0-7653-1920-9"
    },
    {
        "col0": "Slow Learner",
        "col1": "Gravity's Rainbow",
        "col2": "PS3566.Y55 S5 1984",
        "col3": "0-316-72442-4"
    }
]