[
    {
        "col0": "Wabash Avenue Bridge",
        "col1": "Chicago River",
        "col2": "70",
        "col3": "3",
        "col4": "Automobiles",
        "col5": "16605226647"
    },
    {
        "col0": "Tower Bridge",
        "col1": "Sacramento River",
        "col2": "63",
        "col3": "8",
        "col4": "Cars, pedestrians, and previously railroad on 4 lanes of",
        "col5": "22 0021"
    },
    {
        "col0": "San Mateo-Hayward Bridge",
        "col1": "San Francisco Bay",
        "col2": "230",
        "col3": "37",
        "col4": "Cars and trucks on 6 lanes of",
        "col5": "35 0054"
    },
    {
        "col0": "San Diego-Coronado Bridge",
        "col1": "San Diego Bay",
        "col2": "201",
        "col3": "32",
        "col4": "5 lanes of",
        "col5": "57 0857"
    },
    {
        "col0": "Rio Vista Bridge",
        "col1": "Sacramento River",
        "col2": "93",
        "col3": "13",
        "col4": "2 lanes of",
        "col5": "23 0024"
    },
    {
        "col0": "Quaibrucke, Zurich",
        "col1": "Limmat",
        "col2": "121",
        "col3": "4",
        "col4": "Two tram tracks, and on each side two lanes for road traffic, bicycles, and pedestrian sidewalks",
        "col5": "1560"
    },
    {
        "col0": "Pulaski Skyway",
        "col1": "Hackensack River",
        "col2": "167",
        "col3": "118",
        "col4": "and",
        "col5": "0704150 (Essex County)"
    },
    {
        "col0": "Long Beach Bridge",
        "col1": "Reynolds Channel",
        "col2": "45",
        "col3": "2",
        "col4": "Motor vehicles, pedestrians",
        "col5": "3300301 (southbound)"
    },
    {
        "col0": "Lake Shore Drive Bridge",
        "col1": "Eagle River",
        "col2": "32",
        "col3": "3",
        "col4": "Pedestrians",
        "col5": "42142021000B030"
    },
    {
        "col0": "Hadley Parabolic Bridge",
        "col1": "Sacandaga River",
        "col2": "41",
        "col3": "2",
        "col4": "(Corinth Road)",
        "col5": "2202740"
    },
    {
        "col0": "Donald and Morris Goodkind Bridges",
        "col1": "Raritan River",
        "col2": "61",
        "col3": "15",
        "col4": "Bicyclesandpedestrians",
        "col5": "NJ 1203150"
    },
    {
        "col0": "Cochecton-Damascus Bridge",
        "col1": "Delaware River",
        "col2": "68",
        "col3": "3",
        "col4": "Pennsylvania Route 371,",
        "col5": "1091660"
    },
    {
        "col0": "Clay Street Bridge",
        "col1": "Passaic River",
        "col2": "36",
        "col3": "3",
        "col4": "Clay Street & Central Ave.",
        "col5": "NJ0700H01"
    },
    {
        "col0": "Clackline Bridge",
        "col1": "Clackline Brook",
        "col2": "14",
        "col3": "18",
        "col4": "Motor vehicles",
        "col5": "608"
    },
    {
        "col0": "Berkley Bridge",
        "col1": "Eastern Branch Elizabeth River",
        "col2": "70",
        "col3": "2",
        "col4": "eight lanes oftraffic, pedestrians",
        "col5": "20947 (WB)"
    },
    {
        "col0": "Astoria-Megler Bridge",
        "col1": "Columbia River",
        "col2": "375",
        "col3": "8",
        "col4": "2 lanes ofand bicycles",
        "col5": "s0000548"
    }
]