[
    {
        "col0": "Wiener Neustadt East Airport",
        "col1": "Wiener Neustadt",
        "col2": "LOAN",
        "col3": "273"
    },
    {
        "col0": "Wickenby Aerodrome",
        "col1": "Langworth",
        "col2": "EGNW",
        "col3": "25"
    },
    {
        "col0": "Wick Airport",
        "col1": "Wick, Highland",
        "col2": "EGPC",
        "col3": "38"
    },
    {
        "col0": "Whyalla Airport",
        "col1": "Whyalla",
        "col2": "YWHA",
        "col3": "12"
    },
    {
        "col0": "Whitegrass Airport",
        "col1": "Vanuatu",
        "col2": "NVVW",
        "col3": "5"
    },
    {
        "col0": "Whitecourt Airport",
        "col1": "Whitecourt",
        "col2": "CYZU",
        "col3": "782"
    },
    {
        "col0": "White Mountain Airport",
        "col1": "White Mountain, Alaska",
        "col2": "PAWM",
        "col3": "81"
    },
    {
        "col0": "White County Airport",
        "col1": "Monticello, Indiana",
        "col2": "KMCX",
        "col3": "206"
    },
    {
        "col0": "Wheeling Ohio County Airport",
        "col1": "Wheeling, West Virginia",
        "col2": "KHLG",
        "col3": "363"
    },
    {
        "col0": "Wheaton Municipal Airport",
        "col1": "Wheaton, Minnesota",
        "col2": "KETH",
        "col3": "312"
    },
    {
        "col0": "Wheatland County Airport",
        "col1": "Harlowton, Montana",
        "col2": "KHWQ",
        "col3": "1313"
    },
    {
        "col0": "Wharton Regional Airport",
        "col1": "Wharton, Texas",
        "col2": "KARM",
        "col3": "30"
    },
    {
        "col0": "Westover Metropolitan Airport",
        "col1": "Springfield, Massachusetts",
        "col2": "KCEF",
        "col3": "73"
    },
    {
        "col0": "Weston Airport",
        "col1": "Dublin",
        "col2": "EIWT",
        "col3": "47"
    },
    {
        "col0": "Westfield-Barnes Regional Airport",
        "col1": "Springfield, Massachusetts",
        "col2": "KBAF",
        "col3": "82"
    },
    {
        "col0": "Western Nebraska Regional Airport",
        "col1": "Scottsbluff, Nebraska",
        "col2": "KBFF",
        "col3": "1209"
    },
    {
        "col0": "Western Carolina Regional Airport",
        "col1": "Andrews, North Carolina",
        "col2": "KRHP",
        "col3": "517"
    },
    {
        "col0": "Westerly State Airport",
        "col1": "Westerly, Rhode Island",
        "col2": "KWST",
        "col3": "24"
    },
    {
        "col0": "Westchester County Airport",
        "col1": "Westchester County, New York",
        "col2": "KHPN",
        "col3": "133"
    },
    {
        "col0": "West Woodward Airport",
        "col1": "Woodward, Oklahoma",
        "col2": "KWWR",
        "col3": "667"
    },
    {
        "col0": "West Plains Regional Airport",
        "col1": "West Plains, Missouri",
        "col2": "KUNO",
        "col3": "374"
    },
    {
        "col0": "West Michigan Regional Airport",
        "col1": "Holland, Michigan",
        "col2": "KBIV",
        "col3": "212"
    },
    {
        "col0": "West Memphis Municipal Airport",
        "col1": "West Memphis, Arkansas",
        "col2": "KAWM",
        "col3": "64"
    },
    {
        "col0": "West Kilimanjaro Airstrip",
        "col1": "Kilimanjaro National Park",
        "col2": "HTWK",
        "col3": "1310"
    },
    {
        "col0": "West Houston Airport",
        "col1": "Houston, Texas",
        "col2": "KIWS",
        "col3": "33"
    },
    {
        "col0": "West Georgia Regional Airport",
        "col1": "Carrollton, Georgia",
        "col2": "KCTJ",
        "col3": "353"
    },
    {
        "col0": "West End Airport",
        "col1": "Grand Bahama",
        "col2": "MYGW",
        "col3": "1"
    },
    {
        "col0": "West Bend Municipal Airport",
        "col1": "West Bend, Wisconsin",
        "col2": "KETB",
        "col3": "270"
    },
    {
        "col0": "West 30th Street Heliport",
        "col1": "New York City",
        "col2": "KJRA",
        "col3": "2"
    },
    {
        "col0": "Wenshan Puzhehei Airport",
        "col1": "China",
        "col2": "(Location of the airport in Yunnan)",
        "col3": "1590"
    },
    {
        "col0": "Wendover Airport",
        "col1": "Wendover, Utah",
        "col2": "KENV",
        "col3": "1291"
    },
    {
        "col0": "Wels Airport",
        "col1": "Wels",
        "col2": "LOLW",
        "col3": "317"
    },
    {
        "col0": "Wellsville Municipal Airport",
        "col1": "Wellsville",
        "col2": "KELZ",
        "col3": "647"
    },
    {
        "col0": "Wells Municipal Airport",
        "col1": "Wells, Nevada",
        "col2": "KLWL",
        "col3": "1758"
    },
    {
        "col0": "Wellington Municipal Airport",
        "col1": "Wellington, Kansas",
        "col2": "KEGT",
        "col3": "389"
    },
    {
        "col0": "Wellington International Airport",
        "col1": "New Zealand",
        "col2": "(Location of the Wellington International Airport)",
        "col3": "12"
    },
    {
        "col0": "Wekweeti Airport",
        "col1": "Canada",
        "col2": "CYWE",
        "col3": "368"
    },
    {
        "col0": "Weiz-Unterfladnitz Airport",
        "col1": "Weiz",
        "col2": "LOGW",
        "col3": "395"
    },
    {
        "col0": "Weiser Air Park",
        "col1": "Houston, Texas",
        "col2": "KEYQ",
        "col3": "41"
    },
    {
        "col0": "Weihai Dashuibo Airport",
        "col1": "Weihai",
        "col2": "(Location of airport in Shandong province)",
        "col3": "44"
    },
    {
        "col0": "Weifang Airport",
        "col1": "Weifang",
        "col2": "ZSWF",
        "col3": "47"
    },
    {
        "col0": "Weeze Airport",
        "col1": "Duisburg",
        "col2": "(Location of the airport in North Rhine-Westphalia)",
        "col3": "32"
    },
    {
        "col0": "Weerawila Airport",
        "col1": "Hambantota",
        "col2": "VCCW",
        "col3": "15"
    },
    {
        "col0": "Weedon Field",
        "col1": "Eufaula, Alabama",
        "col2": "KEUF",
        "col3": "86"
    },
    {
        "col0": "Wedderburn Airport",
        "col1": "Campbelltown, New South Wales",
        "col2": "YWBN",
        "col3": "259"
    },
    {
        "col0": "Webster City Municipal Airport",
        "col1": "Webster City, Iowa",
        "col2": "KEBS",
        "col3": "341"
    },
    {
        "col0": "Waynesville-St. Robert Regional Airport",
        "col1": "Missouri",
        "col2": "KTBN",
        "col3": "353"
    },
    {
        "col0": "Wayne Executive Jetport",
        "col1": "Goldsboro, North Carolina",
        "col2": "KGWW",
        "col3": "40"
    },
    {
        "col0": "Wayne County Airport",
        "col1": "Wayne County, Ohio",
        "col2": "KBJJ",
        "col3": "346"
    },
    {
        "col0": "Wayne County Airport",
        "col1": "Monticello, Kentucky",
        "col2": "KEKQ",
        "col3": "293"
    },
    {
        "col0": "Waycross-Ware County Airport",
        "col1": "Waycross, Georgia",
        "col2": "KAYS",
        "col3": "43"
    },
    {
        "col0": "Wausau Downtown Airport",
        "col1": "Wausau, Wisconsin",
        "col2": "KAUW",
        "col3": "366"
    },
    {
        "col0": "Waupaca Municipal Airport",
        "col1": "Waupaca, Wisconsin",
        "col2": "KPCZ",
        "col3": "256"
    },
    {
        "col0": "Waukegan National Airport",
        "col1": "Chicago, Illinois",
        "col2": "KUGN",
        "col3": "221"
    },
    {
        "col0": "Wauchula Municipal Airport",
        "col1": "Wauchula, Florida",
        "col2": "KCHN",
        "col3": "32"
    },
    {
        "col0": "Wau Airport",
        "col1": "Wau, Papua New Guinea",
        "col2": "AYWU",
        "col3": "1059"
    },
    {
        "col0": "Wau Airport",
        "col1": "South Sudan",
        "col2": "HSWW",
        "col3": "433"
    },
    {
        "col0": "Watsa Airport",
        "col1": "Watsa",
        "col2": "FZJI",
        "col3": "975"
    },
    {
        "col0": "Watonga Regional Airport",
        "col1": "Watonga, Oklahoma",
        "col2": "KJWG",
        "col3": "472"
    },
    {
        "col0": "Watertown Regional Airport",
        "col1": "Watertown, South Dakota",
        "col2": "KATY",
        "col3": "533"
    },
    {
        "col0": "Watertown Municipal Airport",
        "col1": "Watertown, Wisconsin",
        "col2": "KRYV",
        "col3": "253"
    },
    {
        "col0": "Watertown International Airport",
        "col1": "Watertown",
        "col2": "KART",
        "col3": "99"
    },
    {
        "col0": "Waterloo Regional Airport",
        "col1": "Waterloo, Iowa",
        "col2": "KALO",
        "col3": "266"
    },
    {
        "col0": "Waterford Airport",
        "col1": "Ireland",
        "col2": "(Location of Waterford Airport in Ireland)",
        "col3": "36"
    },
    {
        "col0": "Wasilla Airport",
        "col1": "Wasilla, Alaska",
        "col2": "PAWS",
        "col3": "107"
    },
    {
        "col0": "Washington Dulles International Airport",
        "col1": "Washington metropolitan area",
        "col2": "KIAD",
        "col3": "95"
    },
    {
        "col0": "Waseca Municipal Airport",
        "col1": "Waseca, Minnesota",
        "col2": "KACQ",
        "col3": "343"
    },
    {
        "col0": "Warsaw Municipal Airport",
        "col1": "Warsaw, Missouri",
        "col2": "KRAW",
        "col3": "285"
    },
    {
        "col0": "Warsaw Municipal Airport",
        "col1": "Warsaw, Indiana",
        "col2": "KASW",
        "col3": "259"
    },
    {
        "col0": "Warsaw Modlin Airport",
        "col1": "Poland",
        "col2": "(Location of airport in Poland)",
        "col3": "103"
    },
    {
        "col0": "Warsaw Chopin Airport",
        "col1": "Poland",
        "col2": "(Location of airport in Poland)",
        "col3": "110"
    },
    {
        "col0": "Warsaw Babice Airport",
        "col1": "Warsaw",
        "col2": "EPBC",
        "col3": "106"
    },
    {
        "col0": "Warroad International Memorial Airport",
        "col1": "Warroad, Minnesota",
        "col2": "KRRT",
        "col3": "327"
    },
    {
        "col0": "Warrenton-Fauquier Airport",
        "col1": "Warrenton, Virginia",
        "col2": "KHWY",
        "col3": "102"
    },
    {
        "col0": "Warren County Memorial Airport",
        "col1": "Warren County, Tennessee",
        "col2": "KRNC",
        "col3": "314"
    },
    {
        "col0": "Warren Airport",
        "col1": "Warren, New South Wales",
        "col2": "YWRN",
        "col3": "203"
    },
    {
        "col0": "Warnervale Airport",
        "col1": "Central Coast, New South Wales",
        "col2": "YWVA",
        "col3": "7"
    },
    {
        "col0": "Wamena Airport",
        "col1": "Wamena",
        "col2": "(Location of airport in Papua)",
        "col3": "1550"
    },
    {
        "col0": "Wamba Airport",
        "col1": "Kikongo",
        "col2": "FZCW",
        "col3": "399"
    },
    {
        "col0": "Walvis Bay Airport",
        "col1": "Namibia",
        "col2": "FYWB",
        "col3": "91"
    },
    {
        "col0": "Walton Airport",
        "col1": "Lahore",
        "col2": "OPLH",
        "col3": "206"
    },
    {
        "col0": "Walnut Ridge Regional Airport",
        "col1": "Walnut Ridge, Arkansas",
        "col2": "KARG",
        "col3": "85"
    },
    {
        "col0": "Walla Walla Regional Airport",
        "col1": "Walla Walla, Washington",
        "col2": "KALW",
        "col3": "363"
    },
    {
        "col0": "Walker County Airport",
        "col1": "Jasper, Alabama",
        "col2": "KJFX",
        "col3": "146"
    },
    {
        "col0": "Walker's Cay Airport",
        "col1": "Walker's Cay",
        "col2": "MYAW",
        "col3": "2"
    },
    {
        "col0": "Wales Airport",
        "col1": "Wales, Alaska",
        "col2": "PAIW",
        "col3": "6"
    },
    {
        "col0": "Walaha Airport",
        "col1": "Vanuatu",
        "col2": "NVSW",
        "col3": "46"
    },
    {
        "col0": "Wajir Airport",
        "col1": "Wajir",
        "col2": "(Location of the Airport in Kenya)",
        "col3": "234"
    },
    {
        "col0": "Wainwright Airport",
        "col1": "Wainwright, Alaska",
        "col2": "PAWI",
        "col3": "13"
    },
    {
        "col0": "Waimea-Kohala Airport",
        "col1": "Kamuela, Hawaii",
        "col2": "PHMU",
        "col3": "814"
    },
    {
        "col0": "Wahoo Municipal Airport",
        "col1": "Wahoo, Nebraska",
        "col2": "KAHQ",
        "col3": "373"
    },
    {
        "col0": "Wagga Wagga Airport",
        "col1": "New South Wales",
        "col2": "YSWG",
        "col3": "220"
    },
    {
        "col0": "Wadi al-Dawasir Domestic Airport",
        "col1": "Wadi al-Dawasir",
        "col2": "OEWD",
        "col3": "628"
    },
    {
        "col0": "Wadi Halfa Airport",
        "col1": "Wadi Halfa",
        "col2": "HSSW",
        "col3": "292"
    },
    {
        "col0": "Wadena Municipal Airport",
        "col1": "Wadena, Minnesota",
        "col2": "KADC",
        "col3": "417"
    },
    {
        "col0": "Waddan Airport",
        "col1": "Waddan, Libya",
        "col2": "HL72",
        "col3": "277"
    },
    {
        "col0": "Waco Regional Airport",
        "col1": "Waco, Texas",
        "col2": "KACT",
        "col3": "157"
    },
    {
        "col0": "Waco Kungo Airport",
        "col1": "Waku-Kungo",
        "col2": "FNWK",
        "col3": "1317"
    },
    {
        "col0": "W. K. Kellogg Airport",
        "col1": "Battle Creek, Michigan",
        "col2": "KBTL",
        "col3": "290"
    },
    {
        "col0": "W. H. 'Bud' Barron Airport",
        "col1": "Dublin, Georgia",
        "col2": "KDBN",
        "col3": "94"
    },
    {
        "col0": "Victor Lafon Airport",
        "col1": "San Felipe, Chile",
        "col2": "SCSF",
        "col3": "657"
    },
    {
        "col0": "Vaeroy Heliport",
        "col1": "Vaeroy",
        "col2": "ENVR",
        "col3": "4"
    },
    {
        "col0": "Vaeroy Airport",
        "col1": "Norway",
        "col2": "ENVY",
        "col3": "10"
    },
    {
        "col0": "Vaxjo Smaland Airport",
        "col1": "Vaxjo",
        "col2": "ESMX",
        "col3": "185"
    },
    {
        "col0": "Vaclav Havel Airport Prague",
        "col1": "Czech Republic",
        "col2": "LKPR",
        "col3": "380"
    },
    {
        "col0": "VrA!ac International Airport",
        "col1": "VrA!ac",
        "col2": "(Location within Serbia)",
        "col3": "84"
    },
    {
        "col0": "Vryburg Airport",
        "col1": "South Africa",
        "col2": "FAVB",
        "col3": "1194"
    },
    {
        "col0": "VrA!ac International Airport",
        "col1": "VrA!ac",
        "col2": "(Location within Serbia)",
        "col3": "84"
    },
    {
        "col0": "Voss Airport, Bomoen",
        "col1": "Norway",
        "col2": "ENBM",
        "col3": "91"
    },
    {
        "col0": "Voronezh International Airport",
        "col1": "Tambov",
        "col2": "Location of airport inVoronezh Oblast",
        "col3": "156"
    },
    {
        "col0": "Vopnafjordur Airport",
        "col1": "Iceland",
        "col2": "BIVO",
        "col3": "3"
    },
    {
        "col0": "Volgograd International Airport",
        "col1": "Volgograd",
        "col2": "(Location of airport in Volgograd Oblast)",
        "col3": "146"
    },
    {
        "col0": "Voinjama Airport",
        "col1": "Voinjama",
        "col2": "GLVA",
        "col3": "425"
    },
    {
        "col0": "Voi Airport",
        "col1": "Kenya",
        "col2": "HKVO",
        "col3": "579"
    },
    {
        "col0": "Vohemar Airport",
        "col1": "Vohemar",
        "col2": "FMNV",
        "col3": "5"
    },
    {
        "col0": "Vodudahue Airport",
        "col1": "Chaiten",
        "col2": "SCDH",
        "col3": "29"
    },
    {
        "col0": "Vodochody Airport",
        "col1": "Prague",
        "col2": "LKVO",
        "col3": "280"
    },
    {
        "col0": "Vnukovo International Airport",
        "col1": "Moscow",
        "col2": "UUWW",
        "col3": "209"
    },
    {
        "col0": "Vlore Air Base",
        "col1": "Vlore",
        "col2": "LAVL",
        "col3": "0"
    },
    {
        "col0": "Vladivostok International Airport",
        "col1": "Vladivostok",
        "col2": "(Location of airport in Primorsky Krai)",
        "col3": "14"
    },
    {
        "col0": "Vinamar Airport",
        "col1": "Casablanca, Chile",
        "col2": "SCVA",
        "col3": "284"
    },
    {
        "col0": "Vitoria da Conquista Airport",
        "col1": "Vitoria da Conquista",
        "col2": "SBQV",
        "col3": "913"
    },
    {
        "col0": "Vitim Airport",
        "col1": "Vitim",
        "col2": "UERT",
        "col3": "185"
    },
    {
        "col0": "Vitebsk Vostochny Airport",
        "col1": "Belarus",
        "col2": "UMII",
        "col3": "207"
    },
    {
        "col0": "Vitoria da Conquista Airport",
        "col1": "Vitoria da Conquista",
        "col2": "SBQV",
        "col3": "913"
    },
    {
        "col0": "Visoko Sport Airfield",
        "col1": "Visoko, Bosnia and Herzegovina",
        "col2": "LQVI",
        "col3": "448"
    },
    {
        "col0": "Visby Airport",
        "col1": "Visby",
        "col2": "ESSV",
        "col3": "49"
    },
    {
        "col0": "Visalia Municipal Airport",
        "col1": "Visalia, California",
        "col2": "KVIS",
        "col3": "89"
    },
    {
        "col0": "Visakhapatnam Airport",
        "col1": "Visakhapatnam",
        "col2": "VOVZ",
        "col3": "5"
    },
    {
        "col0": "Virginia Tech Montgomery Executive Airport",
        "col1": "Blacksburg, Virginia",
        "col2": "KBCB",
        "col3": "649"
    },
    {
        "col0": "Virginia Highlands Airport",
        "col1": "Abingdon, Virginia",
        "col2": "KVJI",
        "col3": "636"
    },
    {
        "col0": "Virginia Airport",
        "col1": "South Africa",
        "col2": "FAVG",
        "col3": "6"
    },
    {
        "col0": "Virgin Gorda Airport",
        "col1": "Virgin Gorda",
        "col2": "TUPW",
        "col3": "4"
    },
    {
        "col0": "Virgil I. Grissom Municipal Airport",
        "col1": "Bedford, Indiana",
        "col2": "KBFR",
        "col3": "221"
    },
    {
        "col0": "Viracopos International Airport",
        "col1": "Campinas",
        "col2": "SBKP",
        "col3": "661"
    },
    {
        "col0": "Virac Airport",
        "col1": "Virac, Catanduanes",
        "col2": "RPUV",
        "col3": "36"
    },
    {
        "col0": "Vincenzo Florio Airport Trapani-Birgi",
        "col1": "Trapani",
        "col2": "(Location of the airport in Sicily)",
        "col3": "7"
    },
    {
        "col0": "Vilyuysk Airport",
        "col1": "Russia",
        "col2": "UENW",
        "col3": "110"
    },
    {
        "col0": "Vilo Acuna Airport",
        "col1": "Cuba",
        "col2": "MUCL",
        "col3": "3"
    },
    {
        "col0": "Vilnius Airport",
        "col1": "Vilnius, Lithuania",
        "col2": "EYVI",
        "col3": "196"
    },
    {
        "col0": "Villazon Airport",
        "col1": "Villazon",
        "col2": "SLVZ",
        "col3": "3432"
    },
    {
        "col0": "Villarrica Airport",
        "col1": "Villarrica, Chile",
        "col2": "SCVI",
        "col3": "288"
    },
    {
        "col0": "Albenga Airport",
        "col1": "Italy",
        "col2": "LIMG",
        "col3": "45"
    },
    {
        "col0": "Villamor Air Base",
        "col1": "Manila",
        "col2": "RPLL",
        "col3": "22"
    },
    {
        "col0": "Villaguay Aerodrome",
        "col1": "Villaguay",
        "col2": "SAAU",
        "col3": "42"
    },
    {
        "col0": "Villa de Merlo Airport",
        "col1": "Villa de Merlo",
        "col2": "SADR",
        "col3": "24"
    },
    {
        "col0": "Villa Reynolds Airport",
        "col1": "San Luis Province",
        "col2": "SAOR",
        "col3": "484"
    },
    {
        "col0": "Villa Portales Airport",
        "col1": "Lonquimay",
        "col2": "SCQY",
        "col3": "969"
    },
    {
        "col0": "Villa O'Higgins South Airport",
        "col1": "Villa O'Higgins",
        "col2": "SCIO",
        "col3": "600"
    },
    {
        "col0": "Villa Maria de Rio Seco Airport",
        "col1": "Villa de Maria del Rio Seco",
        "col2": "SACV",
        "col3": "341"
    },
    {
        "col0": "Villa International Airport",
        "col1": "Maldives",
        "col2": "VRMV",
        "col3": "1"
    },
    {
        "col0": "Villa Independencia Airport",
        "col1": "Fray Bentos",
        "col2": "SUFB",
        "col3": "35"
    },
    {
        "col0": "Villa General Mitre Airport",
        "col1": "Villa General Mitre",
        "col2": "SACM",
        "col3": "536"
    },
    {
        "col0": "Villa Dolores Airport",
        "col1": "Villa Dolores",
        "col2": "SAOD",
        "col3": "583"
    }
]