[
    {
        "col0": "Winisk Lake",
        "col1": "Kenora District, Ontario",
        "col2": "Kenora District, Ontario",
        "col3": "193"
    },
    {
        "col0": "Weir Lake",
        "col1": "Division No. 23, Manitoba",
        "col2": "Division No. 23, Manitoba",
        "col3": "186"
    },
    {
        "col0": "Vils",
        "col1": "Vilshofen",
        "col2": "Vilshofen",
        "col3": "425"
    },
    {
        "col0": "Tryfan",
        "col1": "Conwy",
        "col2": "Conwy",
        "col3": "917"
    },
    {
        "col0": "Trout Lake",
        "col1": "Nipissing District, Ontario",
        "col2": "Nipissing District, Ontario",
        "col3": "202"
    },
    {
        "col0": "Taljai Hills",
        "col1": "India",
        "col2": "India",
        "col3": "609"
    },
    {
        "col0": "Summit Lake",
        "col1": "British Columbia",
        "col2": "British Columbia",
        "col3": "710"
    },
    {
        "col0": "St. Joseph Channel",
        "col1": "Algoma District",
        "col2": "Algoma District",
        "col3": "176"
    },
    {
        "col0": "Source Lake",
        "col1": "Nipissing District",
        "col2": "Nipissing District",
        "col3": "448"
    },
    {
        "col0": "Source Lake",
        "col1": "Kenora District",
        "col2": "Kenora District",
        "col3": "380"
    },
    {
        "col0": "Snake Island Lake",
        "col1": "Nipissing District",
        "col2": "Nipissing District",
        "col3": "288"
    },
    {
        "col0": "Skeleton Lake",
        "col1": "District Municipality of Muskoka",
        "col2": "District Municipality of Muskoka",
        "col3": "280"
    },
    {
        "col0": "Shutze Lake",
        "col1": "Kenora District, Ontario",
        "col2": "Kenora District, Ontario",
        "col3": "314"
    },
    {
        "col0": "Scum Lake",
        "col1": "Thunder Bay District",
        "col2": "Thunder Bay District",
        "col3": "264"
    },
    {
        "col0": "Scum Lake",
        "col1": "British Columbia",
        "col2": "British Columbia",
        "col3": "1189"
    },
    {
        "col0": "Schwendibach",
        "col1": "Thun",
        "col2": "Thun",
        "col3": "880"
    },
    {
        "col0": "San Mateo Peak",
        "col1": "California",
        "col2": "California",
        "col3": "1094"
    },
    {
        "col0": "Sachigo Lake",
        "col1": "Kenora District",
        "col2": "Kenora District",
        "col3": "248"
    },
    {
        "col0": "Rock Creek",
        "col1": "Inyo National Forest",
        "col2": "Inyo National Forest",
        "col3": "2160"
    },
    {
        "col0": "Riley Lake",
        "col1": "District Municipality of Muskoka",
        "col2": "District Municipality of Muskoka",
        "col3": "247"
    },
    {
        "col0": "Riley Lake",
        "col1": "Kenora District",
        "col2": "Kenora District",
        "col3": "394"
    },
    {
        "col0": "Redstone Lake",
        "col1": "Sudbury District",
        "col2": "Sudbury District",
        "col3": "359"
    },
    {
        "col0": "Redstone Lake",
        "col1": "Haliburton County",
        "col2": "Haliburton County",
        "col3": "365"
    },
    {
        "col0": "Povazska Bystrica",
        "col1": "Povazska Bystrica District",
        "col2": "Povazska Bystrica District",
        "col3": "288"
    },
    {
        "col0": "Port of Cleveland",
        "col1": "Ohio",
        "col2": "Ohio",
        "col3": "174"
    },
    {
        "col0": "Pittsburgh Channel",
        "col1": "District Municipality of Muskoka",
        "col2": "District Municipality of Muskoka",
        "col3": "176"
    },
    {
        "col0": "Pen yr Ole Wen",
        "col1": "Wales",
        "col2": "Wales",
        "col3": "978"
    },
    {
        "col0": "Papasidero",
        "col1": "Province of Cosenza",
        "col2": "Province of Cosenza",
        "col3": "210"
    },
    {
        "col0": "Palgrave Pond",
        "col1": "Regional Municipality of Peel",
        "col2": "Regional Municipality of Peel",
        "col3": "274"
    },
    {
        "col0": "Onigam Lake",
        "col1": "Kenora District, Ontario",
        "col2": "Kenora District, Ontario",
        "col3": "93"
    },
    {
        "col0": "North Tea Lake",
        "col1": "Nipissing District, Ontario",
        "col2": "Nipissing District, Ontario",
        "col3": "360"
    },
    {
        "col0": "Night Hawk Lake",
        "col1": "Cochrane District, Ontario",
        "col2": "Cochrane District, Ontario",
        "col3": "274"
    },
    {
        "col0": "Nameless Lake",
        "col1": "Sudbury District",
        "col2": "Sudbury District",
        "col3": "233"
    },
    {
        "col0": "Nameless Lake",
        "col1": "Manitoulin District",
        "col2": "Manitoulin District",
        "col3": "225"
    },
    {
        "col0": "Mount Mills",
        "col1": "California",
        "col2": "California",
        "col3": "4101"
    },
    {
        "col0": "Mount Elsay",
        "col1": "British Columbia",
        "col2": "British Columbia",
        "col3": "1419"
    },
    {
        "col0": "Mills Lake",
        "col1": "Inyo County, California",
        "col2": "Inyo County, California",
        "col3": "3556"
    },
    {
        "col0": "Mildenitz",
        "col1": "Mecklenburgische Seenplatte",
        "col2": "Mecklenburgische Seenplatte",
        "col3": "107"
    },
    {
        "col0": "McKay Lake",
        "col1": "Thunder Bay District",
        "col2": "Thunder Bay District",
        "col3": "321"
    }
]