[
    {
        "col0": "Yaypuri",
        "col1": "Andes",
        "col2": "Bolivia",
        "col3": "5566"
    },
    {
        "col0": "Yayamari",
        "col1": "Andes",
        "col2": "Peru",
        "col3": "6049"
    },
    {
        "col0": "Yawriwiri",
        "col1": "Wansu mountain range",
        "col2": "Peru",
        "col3": "5000"
    },
    {
        "col0": "Yawriq",
        "col1": "Andes",
        "col2": "Peru",
        "col3": "5235"
    },
    {
        "col0": "Yawray",
        "col1": "Andes",
        "col2": "Junin Region",
        "col3": "5112"
    },
    {
        "col0": "Yawarqucha",
        "col1": "Andes",
        "col2": "Peru",
        "col3": "5000"
    },
    {
        "col0": "Yawarqucha",
        "col1": "Andes",
        "col2": "Peru",
        "col3": "4800"
    },
    {
        "col0": "Yawarqucha",
        "col1": "Andes",
        "col2": "Peru",
        "col3": "5035"
    },
    {
        "col0": "Yawarqucha",
        "col1": "Andes",
        "col2": "Peru",
        "col3": "5100"
    },
    {
        "col0": "Yawar Q'asa",
        "col1": "Andes",
        "col2": "Peru",
        "col3": "5000"
    },
    {
        "col0": "Yawa Yawa",
        "col1": "Andes",
        "col2": "Bolivia",
        "col3": "4600"
    },
    {
        "col0": "Yate",
        "col1": "Andes",
        "col2": "Chile",
        "col3": "2187"
    },
    {
        "col0": "Yarupac",
        "col1": "Andes",
        "col2": "Peru",
        "col3": "5685"
    },
    {
        "col0": "Yarq'asqa",
        "col1": "Andes",
        "col2": "Peru",
        "col3": "5000"
    },
    {
        "col0": "Yarlside",
        "col1": "Howgill Fells",
        "col2": "Cumbria",
        "col3": "638"
    },
    {
        "col0": "Yaritayuq",
        "col1": "Andes",
        "col2": "Bolivia",
        "col3": "4100"
    },
    {
        "col0": "Yaritayuq",
        "col1": "Andes",
        "col2": "Peru",
        "col3": "4800"
    },
    {
        "col0": "Yaritani",
        "col1": "Andes",
        "col2": "Peru",
        "col3": "4600"
    },
    {
        "col0": "Yaritani",
        "col1": "Andes",
        "col2": "Bolivia",
        "col3": "4140"
    },
    {
        "col0": "Yaritani",
        "col1": "Andes",
        "col2": "Sajama Province",
        "col3": "5006"
    },
    {
        "col0": "Yapuchanani",
        "col1": "Andes",
        "col2": "Bolivia",
        "col3": "5526"
    },
    {
        "col0": "Yapu Qullu",
        "col1": "Andes",
        "col2": "Bolivia",
        "col3": "4206"
    },
    {
        "col0": "Yapu Qullu",
        "col1": "Andes",
        "col2": "Bolivia",
        "col3": "4148"
    },
    {
        "col0": "Yapu Qullu",
        "col1": "Andes",
        "col2": "Bolivia",
        "col3": "4418"
    },
    {
        "col0": "Yanteles",
        "col1": "Andes",
        "col2": "Chile",
        "col3": "2042"
    },
    {
        "col0": "Yantayuq",
        "col1": "Andes",
        "col2": "Peru",
        "col3": "5300"
    },
    {
        "col0": "Yantarni Volcano",
        "col1": "Aleutian Range",
        "col2": "Alaska",
        "col3": "1335"
    },
    {
        "col0": "Yanta Pallana",
        "col1": "Andes",
        "col2": "Peru",
        "col3": "4800"
    },
    {
        "col0": "Yanqha",
        "col1": "Andes",
        "col2": "Peru",
        "col3": "5200"
    },
    {
        "col0": "Yangra",
        "col1": "Himalaya",
        "col2": "China",
        "col3": "7422"
    },
    {
        "col0": "Yanawara",
        "col1": "Andes",
        "col2": "Peru",
        "col3": "5465"
    },
    {
        "col0": "Yanawara",
        "col1": "Andes",
        "col2": "Peru",
        "col3": "5000"
    },
    {
        "col0": "Yanawara",
        "col1": "Andes",
        "col2": "Peru",
        "col3": "5267"
    },
    {
        "col0": "Yanawara",
        "col1": "Andes",
        "col2": "Peru",
        "col3": "5000"
    },
    {
        "col0": "Yanawaqra",
        "col1": "Andes",
        "col2": "Peru",
        "col3": "4730"
    },
    {
        "col0": "Yanasinqa",
        "col1": "Andes",
        "col2": "Peru",
        "col3": "5400"
    },
    {
        "col0": "Yanashallash",
        "col1": "Wallanka mountain range",
        "col2": "Peru",
        "col3": "4600"
    },
    {
        "col0": "Yanarrajo",
        "col1": "Andes",
        "col2": "Peru",
        "col3": "5055"
    },
    {
        "col0": "Yanaqucha",
        "col1": "Andes",
        "col2": "Peru",
        "col3": "4600"
    },
    {
        "col0": "Yanaqucha",
        "col1": "Andes",
        "col2": "Peru",
        "col3": "4800"
    },
    {
        "col0": "Yanaqucha",
        "col1": "Andes",
        "col2": "Peru",
        "col3": "5105"
    },
    {
        "col0": "Yanaqucha",
        "col1": "Andes",
        "col2": "Peru",
        "col3": "5000"
    },
    {
        "col0": "Yanaqucha",
        "col1": "Andes",
        "col2": "Peru",
        "col3": "5000"
    },
    {
        "col0": "Yanaqucha",
        "col1": "Andes",
        "col2": "Peru",
        "col3": "5025"
    },
    {
        "col0": "Yanaqucha",
        "col1": "Andes",
        "col2": "Peru",
        "col3": "4920"
    },
    {
        "col0": "Yanapaccha",
        "col1": "Andes",
        "col2": "Peru",
        "col3": "5460"
    },
    {
        "col0": "Yanaorco",
        "col1": "Andes",
        "col2": "Peru",
        "col3": "4400"
    },
    {
        "col0": "Yanamauras",
        "col1": "Andes",
        "col2": "Peru",
        "col3": "3761"
    },
    {
        "col0": "Yanamarey",
        "col1": "Cordillera Blanca",
        "col2": "Peru",
        "col3": "5237"
    },
    {
        "col0": "Yanama",
        "col1": "Vilcabamba mountain range",
        "col2": "Peru",
        "col3": "5473"
    },
    {
        "col0": "Yanajirca",
        "col1": "Andes",
        "col2": "Peru",
        "col3": "4600"
    },
    {
        "col0": "Yanajirca",
        "col1": "Andes",
        "col2": "Peru",
        "col3": "4782"
    },
    {
        "col0": "Yanajirca",
        "col1": "Andes",
        "col2": "Peru",
        "col3": "4600"
    },
    {
        "col0": "Yanajirca",
        "col1": "Rawra mountain range",
        "col2": "Peru",
        "col3": "4782"
    },
    {
        "col0": "Yanajirca",
        "col1": "Andes",
        "col2": "Peru",
        "col3": "4800"
    },
    {
        "col0": "Yanajaja",
        "col1": "Andes",
        "col2": "Peru",
        "col3": "5173"
    },
    {
        "col0": "Yanajaja",
        "col1": "Andes",
        "col2": "Peru",
        "col3": "5500"
    },
    {
        "col0": "Yanacushman",
        "col1": "Andes",
        "col2": "Peru",
        "col3": "4800"
    },
    {
        "col0": "Yanacocha",
        "col1": "Andes",
        "col2": "Peru",
        "col3": "5138"
    },
    {
        "col0": "Yanaccacca",
        "col1": "Andes",
        "col2": "Peru",
        "col3": "4400"
    },
    {
        "col0": "Yanaccacca",
        "col1": "Andes",
        "col2": "Peru",
        "col3": "4200"
    },
    {
        "col0": "Yana Yana",
        "col1": "Andes",
        "col2": "Peru",
        "col3": "5321"
    },
    {
        "col0": "Yana Yana",
        "col1": "Andes",
        "col2": "Peru",
        "col3": "5303"
    },
    {
        "col0": "Yana Yaku",
        "col1": "Cordillera Negra",
        "col2": "Peru",
        "col3": "4800"
    },
    {
        "col0": "Yana Wachuku",
        "col1": "Andes",
        "col2": "Peru",
        "col3": "5012"
    },
    {
        "col0": "Yana Urqu",
        "col1": "Andes",
        "col2": "Peru",
        "col3": "5000"
    },
    {
        "col0": "Yana Urqu",
        "col1": "Andes",
        "col2": "Peru",
        "col3": "4460"
    },
    {
        "col0": "Yana Urqu",
        "col1": "Andes",
        "col2": "Potosi Department",
        "col3": "4623"
    },
    {
        "col0": "Yana Urqu",
        "col1": "Andes",
        "col2": "Peru",
        "col3": "4800"
    },
    {
        "col0": "Yana Urqu",
        "col1": "Andes",
        "col2": "Peru",
        "col3": "5000"
    },
    {
        "col0": "Yana Urqu",
        "col1": "Andes",
        "col2": "Peru",
        "col3": "4644"
    },
    {
        "col0": "Yana Urqu",
        "col1": "Andes",
        "col2": "Peru",
        "col3": "4800"
    },
    {
        "col0": "Yana Urqu",
        "col1": "Andes",
        "col2": "Bolivia",
        "col3": "3572"
    },
    {
        "col0": "Yana Urqu",
        "col1": "Andes",
        "col2": "Bolivia",
        "col3": "4860"
    },
    {
        "col0": "Yana Urqu",
        "col1": "Andes",
        "col2": "Peru",
        "col3": "4800"
    },
    {
        "col0": "Yana Urqu",
        "col1": "Andes",
        "col2": "Peru",
        "col3": "4800"
    },
    {
        "col0": "Yana Urqu",
        "col1": "Andes",
        "col2": "Peru",
        "col3": "4800"
    },
    {
        "col0": "Yana Urqu",
        "col1": "Andes",
        "col2": "Peru",
        "col3": "5000"
    },
    {
        "col0": "Yana Urqu",
        "col1": "Andes",
        "col2": "Peru",
        "col3": "4800"
    },
    {
        "col0": "Yana Urqu",
        "col1": "Andes",
        "col2": "Bolivia",
        "col3": "3902"
    },
    {
        "col0": "Yana Urqu",
        "col1": "Andes",
        "col2": "Peru",
        "col3": "4890"
    },
    {
        "col0": "Yana Urqu",
        "col1": "Andes",
        "col2": "Peru",
        "col3": "5000"
    },
    {
        "col0": "Yana Urqu",
        "col1": "Andes",
        "col2": "Bolivia",
        "col3": "3200"
    },
    {
        "col0": "Yana Urqu",
        "col1": "Andes",
        "col2": "Peru",
        "col3": "5100"
    },
    {
        "col0": "Yana Urqu",
        "col1": "Andes",
        "col2": "Peru",
        "col3": "4800"
    },
    {
        "col0": "Yana Urqu",
        "col1": "Urupampa mountain range",
        "col2": "Peru",
        "col3": "4800"
    },
    {
        "col0": "Yana Urqu",
        "col1": "Andes",
        "col2": "Peru",
        "col3": "5000"
    },
    {
        "col0": "Yana Urqu",
        "col1": "Andes",
        "col2": "Peru",
        "col3": "4800"
    },
    {
        "col0": "Yana Uqsha",
        "col1": "Andes",
        "col2": "Peru",
        "col3": "5000"
    },
    {
        "col0": "Yana Uqsha",
        "col1": "Andes",
        "col2": "Peru",
        "col3": "4800"
    },
    {
        "col0": "Yana Uqsha",
        "col1": "Andes",
        "col2": "Peru",
        "col3": "4600"
    },
    {
        "col0": "Yana Uqsha",
        "col1": "Andes",
        "col2": "Junin Region",
        "col3": "5300"
    },
    {
        "col0": "Yana Uqhu",
        "col1": "Andes",
        "col2": "Peru",
        "col3": "5000"
    },
    {
        "col0": "Yana Uqhu",
        "col1": "Andes",
        "col2": "Peru",
        "col3": "5000"
    },
    {
        "col0": "Yana Uqhu",
        "col1": "Andes",
        "col2": "Peru",
        "col3": "5000"
    },
    {
        "col0": "Yana Uqhu",
        "col1": "Andes",
        "col2": "Peru",
        "col3": "4800"
    },
    {
        "col0": "Yana Unu",
        "col1": "Andes",
        "col2": "Bolivia",
        "col3": "4040"
    },
    {
        "col0": "Yana Uma",
        "col1": "Andes",
        "col2": "Peru",
        "col3": "5009"
    },
    {
        "col0": "Yana Ulla",
        "col1": "Andes",
        "col2": "Peru",
        "col3": "5100"
    },
    {
        "col0": "Yana Sallayuq",
        "col1": "Andes",
        "col2": "Peru",
        "col3": "5000"
    },
    {
        "col0": "Yana Ranra",
        "col1": "Andes",
        "col2": "Peru",
        "col3": "4800"
    },
    {
        "col0": "Yana Ranra",
        "col1": "Andes",
        "col2": "Peru",
        "col3": "5002"
    },
    {
        "col0": "Yana Ranra",
        "col1": "Andes",
        "col2": "Peru",
        "col3": "5000"
    },
    {
        "col0": "Yana Qaqa",
        "col1": "Andes",
        "col2": "Bolivia",
        "col3": "4180"
    },
    {
        "col0": "Yana Qaqa",
        "col1": "Andes",
        "col2": "Bolivia",
        "col3": "3742"
    },
    {
        "col0": "Yana Qaqa",
        "col1": "Andes",
        "col2": "Bolivia",
        "col3": "4260"
    },
    {
        "col0": "Yana Qaqa",
        "col1": "Andes",
        "col2": "Bolivia",
        "col3": "3148"
    },
    {
        "col0": "Yana Qaqa",
        "col1": "Andes",
        "col2": "Bolivia",
        "col3": "3944"
    },
    {
        "col0": "Yana Q'asa",
        "col1": "Andes",
        "col2": "Peru",
        "col3": "5200"
    },
    {
        "col0": "Yana P'unqu",
        "col1": "Andes",
        "col2": "Peru",
        "col3": "4800"
    },
    {
        "col0": "Yana Orjo",
        "col1": "Andes",
        "col2": "Peru",
        "col3": "4400"
    },
    {
        "col0": "Yana Muqu",
        "col1": "Andes",
        "col2": "Bolivia",
        "col3": "3422"
    },
    {
        "col0": "Yana Muqu",
        "col1": "Andes",
        "col2": "Bolivia",
        "col3": "3893"
    },
    {
        "col0": "Yana Mayu",
        "col1": "Potosi mountain range",
        "col2": "Bolivia",
        "col3": "4797"
    },
    {
        "col0": "Yana Mach'ay",
        "col1": "Andes",
        "col2": "Peru",
        "col3": "5000"
    },
    {
        "col0": "Yana Kusma",
        "col1": "Andes",
        "col2": "Peru",
        "col3": "4540"
    },
    {
        "col0": "Yana Kunkush",
        "col1": "Cordillera Negra",
        "col2": "Peru",
        "col3": "4600"
    },
    {
        "col0": "Yana Khuchilla",
        "col1": "Andes",
        "col2": "Peru",
        "col3": "5472"
    },
    {
        "col0": "Yana K'uchu",
        "col1": "Andes",
        "col2": "Peru",
        "col3": "5000"
    },
    {
        "col0": "Yana Jaqhi",
        "col1": "Andes",
        "col2": "Peru",
        "col3": "4600"
    },
    {
        "col0": "Yana Chuku",
        "col1": "Andes",
        "col2": "Peru",
        "col3": "4996"
    },
    {
        "col0": "Yana Chuku",
        "col1": "Andes",
        "col2": "Peru",
        "col3": "5058"
    },
    {
        "col0": "Yana Chaka",
        "col1": "Andes",
        "col2": "Peru",
        "col3": "5000"
    },
    {
        "col0": "Yana Chaka",
        "col1": "Andes",
        "col2": "Peru",
        "col3": "5002"
    },
    {
        "col0": "Yamsay Mountain",
        "col1": "Cascade Range",
        "col2": "Oregon",
        "col3": "2499"
    },
    {
        "col0": "Yala Peak",
        "col1": "Himalayas",
        "col2": "Nepal",
        "col3": "5700"
    },
    {
        "col0": "Yak Peak",
        "col1": "Canadian Cascades",
        "col2": "British Columbia",
        "col3": "2039"
    },
    {
        "col0": "Yage Taung",
        "col1": "Tenasserim Hills",
        "col2": "Myanmar",
        "col3": "978"
    },
    {
        "col0": "Y Ro Wen",
        "col1": "Moelwynion",
        "col2": "Conwy County Borough",
        "col3": "9000"
    },
    {
        "col0": "Y Mountain",
        "col1": "Wasatch Front",
        "col2": "Utah",
        "col3": "2612"
    },
    {
        "col0": "Y Lliwedd East Peak",
        "col1": "Snowdonia",
        "col2": "Gwynedd",
        "col3": "893"
    },
    {
        "col0": "Y Lliwedd",
        "col1": "Snowdonia",
        "col2": "Wales",
        "col3": "898"
    },
    {
        "col0": "Y Llethr",
        "col1": "Rhinogydd",
        "col2": "Wales",
        "col3": "756"
    },
    {
        "col0": "Y Gyrn",
        "col1": "Brecon Beacons",
        "col2": "Wales",
        "col3": "619"
    },
    {
        "col0": "Y Groes Fagl",
        "col1": "Berwyn range",
        "col2": "Wales",
        "col3": "659"
    },
    {
        "col0": "Y Garn",
        "col1": "Rhinogydd",
        "col2": "Gwynedd",
        "col3": "629"
    },
    {
        "col0": "Y Garn",
        "col1": "Cambrian Mountains",
        "col2": "Wales",
        "col3": "684"
    },
    {
        "col0": "Y Garn",
        "col1": "Moel Hebog",
        "col2": "Wales",
        "col3": "633"
    },
    {
        "col0": "Y Gamallt",
        "col1": "Arenigs",
        "col2": "Wales",
        "col3": "588"
    },
    {
        "col0": "Y Fronllwyd",
        "col1": "Glyderau",
        "col2": "Gwynedd",
        "col3": "720"
    },
    {
        "col0": "Xueshan",
        "col1": "Xueshan Range",
        "col2": "Taiwan",
        "col3": "3886"
    },
    {
        "col0": "Xuelian Feng",
        "col1": "Tian Shan",
        "col2": "China",
        "col3": "6627"
    },
    {
        "col0": "Xiuguluan Mountain",
        "col1": "Central Mountain Range",
        "col2": "Taiwan",
        "col3": "3825"
    },
    {
        "col0": "Wustegarten",
        "col1": "Kellerwald",
        "col2": "Germany",
        "col3": "675"
    },
    {
        "col0": "Wurznerhorn",
        "col1": "Alps",
        "col2": "Liechtenstein",
        "col3": "1713"
    },
    {
        "col0": "Worner",
        "col1": "Karwendel",
        "col2": "Austria",
        "col3": "2476"
    },
    {
        "col0": "Watterlatte",
        "col1": "Bernese Alps",
        "col2": "Canton of Bern",
        "col3": "2007"
    },
    {
        "col0": "Wysshorn",
        "col1": "Bernese Alps",
        "col2": "Switzerland",
        "col3": "3546"
    },
    {
        "col0": "Wyssegga",
        "col1": "Pennine Alps",
        "col2": "Switzerland",
        "col3": "3168"
    },
    {
        "col0": "Wyoming Peak",
        "col1": "Wyoming Range",
        "col2": "Lincoln County, Wyoming",
        "col3": "3469"
    },
    {
        "col0": "Wynn Mountain",
        "col1": "Lewis Range",
        "col2": "United States",
        "col3": "2561"
    },
    {
        "col0": "Wurzelbrink",
        "col1": "Wiehen Hills",
        "col2": "Germany",
        "col3": "318"
    },
    {
        "col0": "Wurmberg",
        "col1": "Harz",
        "col2": "Germany",
        "col3": "971"
    },
    {
        "col0": "Wurmaulspitze",
        "col1": "Zillertal Alps",
        "col2": "Italy",
        "col3": "3022"
    },
    {
        "col0": "Wuosthorn",
        "col1": "Albula Alps",
        "col2": "Switzerland",
        "col3": "2815"
    },
    {
        "col0": "Wugong Mountains",
        "col1": "Luoxiao Mountains",
        "col2": "Jiangxi",
        "col3": "1918"
    },
    {
        "col0": "Wright Peak",
        "col1": "MacIntyre Range",
        "col2": "United States",
        "col3": "1398"
    },
    {
        "col0": "Woloszyn",
        "col1": "Tatra Mountains",
        "col2": "Poland",
        "col3": "2158"
    },
    {
        "col0": "Woss Mountain",
        "col1": "Vancouver Island Ranges",
        "col2": "British Columbia",
        "col3": "1593"
    },
    {
        "col0": "Woodall Mountain",
        "col1": "Appalachian Mountains",
        "col2": "United States",
        "col3": "245"
    },
    {
        "col0": "Womrather Hohe",
        "col1": "Lutzelsoon",
        "col2": "Rheinland-Pfalz",
        "col3": "599"
    },
    {
        "col0": "Wolverine Peak",
        "col1": "Absaroka Range",
        "col2": "Montana",
        "col3": "3193"
    },
    {
        "col0": "Wollbachspitze",
        "col1": "Zillertal Alps",
        "col2": "Austria",
        "col3": "3210"
    },
    {
        "col0": "Wolftrap Mountain",
        "col1": "Slieve Bloom Mountains",
        "col2": "Ireland",
        "col3": "487"
    }
]