[
    {
        "col0": "P. Burnum",
        "col1": "1900-02-06",
        "col2": "1981-09-14",
        "col3": "Baseball: 12-6"
    },
    {
        "col0": "P. Bixler",
        "col1": "1907-01-25",
        "col2": "1985-11-18",
        "col3": "18-30-4 (football)"
    },
    {
        "col0": "P. Baldacci",
        "col1": "1907-01-25",
        "col2": "1984-11-01",
        "col3": "7-10"
    },
    {
        "col0": "P. Amen",
        "col1": "1916-07-06",
        "col2": "2005-06-04",
        "col3": "11-26-3 (football)"
    },
    {
        "col0": "P. \". Williams",
        "col1": "1892-08-08",
        "col2": "1973-7-0",
        "col3": "207-228-4 (baseball)"
    },
    {
        "col0": "P. Summitt",
        "col1": "1952-06-14",
        "col2": "2016-06-28",
        "col3": "1,098-208 (.841)"
    },
    {
        "col0": "P. O'Dea",
        "col1": "1872-03-17",
        "col2": "1962-04-05",
        "col3": "19-7-2"
    },
    {
        "col0": "P. Malley",
        "col1": "1931-02-28",
        "col2": "1985-05-18",
        "col3": "142-100-3"
    },
    {
        "col0": "P. Kenelly",
        "col1": "1922-10-07",
        "col2": "2000-12-12",
        "col3": "25-43"
    },
    {
        "col0": "P. Hanley",
        "col1": "1896-08-21",
        "col2": "1966-07-20",
        "col3": "35-24-5"
    },
    {
        "col0": "P. H. Davis",
        "col1": "1871-07-16",
        "col2": "1934-06-05",
        "col3": "37-11-3"
    },
    {
        "col0": "P. Waldorf",
        "col1": "1902-10-03",
        "col2": "1981-08-15",
        "col3": "157-89-19 (excluding Oklahoma City)"
    },
    {
        "col0": "P. W. Underwood",
        "col1": "1931-10-16",
        "col2": "2013-02-04",
        "col3": "31-32-2"
    },
    {
        "col0": "P. J. Dranginis",
        "col1": "1909-11-13",
        "col2": "1995-08-05",
        "col3": "2-1"
    },
    {
        "col0": "P. E. Shotwell",
        "col1": "1893-08-17",
        "col2": "1978-02-08",
        "col3": "14-10-1 (college)"
    },
    {
        "col0": "O. Johnson",
        "col1": "1910-08-26",
        "col2": "1980-0-0",
        "col3": "0-2"
    },
    {
        "col0": "O. Dougherty",
        "col1": "1929-09-14",
        "col2": "1991-02-27",
        "col3": "133-58 (baseball)"
    },
    {
        "col0": "O. Klum",
        "col1": "1892-10-17",
        "col2": "1944-09-24",
        "col3": "13-8 (basketball)"
    },
    {
        "col0": "O. D. Unruh",
        "col1": "1899-09-17",
        "col2": "1992-05-19",
        "col3": "126-65-8 (high school football)"
    },
    {
        "col0": "O. Douglas",
        "col1": "1911-07-25",
        "col2": "1989-03-21",
        "col3": "17-34-4 (college)"
    },
    {
        "col0": "O. Caldwell",
        "col1": "1869-1-1",
        "col2": "1947-1-1",
        "col3": "4-1-2"
    },
    {
        "col0": "O. Solem",
        "col1": "1891-12-13",
        "col2": "1970-10-26",
        "col3": "162-117-20 (college football)"
    },
    {
        "col0": "O. F. Field",
        "col1": "1886-10-03",
        "col2": "1965-11-13",
        "col3": "31-36 (basketball)"
    },
    {
        "col0": "O. Rackle",
        "col1": "1882-11-28",
        "col2": "1970-0-0",
        "col3": "15-12"
    },
    {
        "col0": "O. Osthoff",
        "col1": "1883-03-23",
        "col2": "1950-12-09",
        "col3": "5-6"
    },
    {
        "col0": "O. Hagberg",
        "col1": "1908-12-18",
        "col2": "1992-08-02",
        "col3": "13-4-1"
    },
    {
        "col0": "O. Dahlene",
        "col1": "1886-04-24",
        "col2": "1949-10-22",
        "col3": "2-3-1"
    },
    {
        "col0": "O. Cowles",
        "col1": "1899-08-25",
        "col2": "1997-08-29",
        "col3": "416-189 ()"
    },
    {
        "col0": "O. A. Kates",
        "col1": "1883-11-18",
        "col2": "1947-01-31",
        "col3": "1-0-1 (basketball)"
    },
    {
        "col0": "O. Landreth",
        "col1": "1904-06-21",
        "col2": "1996-10-20",
        "col3": "3-6"
    },
    {
        "col0": "O. LaJeunesse",
        "col1": "1908-05-04",
        "col2": "1994-05-15",
        "col3": "18-25-2"
    },
    {
        "col0": "O. Huie",
        "col1": "1877-09-07",
        "col2": "1951-12-24",
        "col3": "3-5"
    },
    {
        "col0": "O. D. Mann",
        "col1": "1877-12-10",
        "col2": "1956-07-09",
        "col3": "7-16-1"
    },
    {
        "col0": "O. Cutts",
        "col1": "1873-08-06",
        "col2": "1939-08-04",
        "col3": "23-18-3"
    },
    {
        "col0": "O. Kollevoll",
        "col1": "1923-01-07",
        "col2": "2010-09-11",
        "col3": "154-92-4"
    }
]