[
    {
        "col0": "Tomort",
        "col1": "Tien Shan",
        "col2": "China",
        "col3": "4886"
    },
    {
        "col0": "Tomle",
        "col1": "Berwyn range",
        "col2": "Wales",
        "col3": "741"
    },
    {
        "col0": "Tomkins Knob",
        "col1": "Blue Ridge Mountains",
        "col2": "Wilkes County, North Carolina",
        "col3": "1242"
    },
    {
        "col0": "Tomichi Dome",
        "col1": "Sawatch Range",
        "col2": "Colorado",
        "col3": "3496"
    },
    {
        "col0": "Tomasamil",
        "col1": "Cordillera Occidental",
        "col2": "Bolivia",
        "col3": "5890"
    },
    {
        "col0": "Tom Dick and Harry Mountain",
        "col1": "Cascade Range",
        "col2": "Oregon",
        "col3": "1545"
    },
    {
        "col0": "Tolmie Peak",
        "col1": "Cascade Range",
        "col2": "Washington",
        "col3": "1804"
    },
    {
        "col0": "Toller Down",
        "col1": "Dorset Downs",
        "col2": "Dorset",
        "col3": "252"
    },
    {
        "col0": "Tolhuaca",
        "col1": "Andes",
        "col2": "Chile",
        "col3": "2806"
    },
    {
        "col0": "Tolch Rock",
        "col1": "Boundary Ranges",
        "col2": "United States",
        "col3": "59"
    },
    {
        "col0": "Tokarnia",
        "col1": "Bukowica Range",
        "col2": "Poland",
        "col3": "778"
    },
    {
        "col0": "Tofane",
        "col1": "Dolomites",
        "col2": "Italy",
        "col3": "3244"
    },
    {
        "col0": "Tofana di Rozes",
        "col1": "Dolomites",
        "col2": "Italy",
        "col3": "3225"
    },
    {
        "col0": "Todorka",
        "col1": "Pirin",
        "col2": "Bulgaria",
        "col3": "2746"
    },
    {
        "col0": "Todd Crag",
        "col1": "Lake District",
        "col2": "Cumbria",
        "col3": "224"
    },
    {
        "col0": "Tocorpuri",
        "col1": "Andes",
        "col2": "Bolivia",
        "col3": "5808"
    },
    {
        "col0": "Tocllaraju",
        "col1": "Andes",
        "col2": "Peru",
        "col3": "6034"
    },
    {
        "col0": "Tochuhorn",
        "col1": "Pennine Alps",
        "col2": "Switzerland",
        "col3": "2661"
    },
    {
        "col0": "Tochal",
        "col1": "Alborz",
        "col2": "Iran",
        "col3": "3933"
    },
    {
        "col0": "Tlsta",
        "col1": "Greater Fatra",
        "col2": "Slovakia",
        "col3": "1373"
    },
    {
        "col0": "Tjornholstind",
        "col1": "Jotunheimen",
        "col2": "Norway",
        "col3": "2331"
    },
    {
        "col0": "Titus Peak",
        "col1": "Smoky Mountains",
        "col2": "Idaho",
        "col3": "3081"
    },
    {
        "col0": "Titterstone Clee Hill",
        "col1": "Shropshire Hills",
        "col2": "England",
        "col3": "533"
    },
    {
        "col0": "Titov Vrv",
        "col1": "A ar Mountain",
        "col2": "Republic of Macedonia",
        "col3": "2748"
    },
    {
        "col0": "Titlis",
        "col1": "Uri Alps",
        "col2": "Obwalden",
        "col3": "3238"
    },
    {
        "col0": "Titkana Peak",
        "col1": "Rainbow Range",
        "col2": "Alberta",
        "col3": "2827"
    },
    {
        "col0": "Titiri",
        "col1": "Andes",
        "col2": "Peru",
        "col3": "4560"
    },
    {
        "col0": "Titini",
        "col1": "Andes",
        "col2": "Peru",
        "col3": "4800"
    },
    {
        "col0": "Titila",
        "col1": "Sredinny Range",
        "col2": "Kamchatka Peninsula",
        "col3": "1559"
    },
    {
        "col0": "Titi Uta",
        "col1": "Andes",
        "col2": "Peru",
        "col3": "4800"
    },
    {
        "col0": "Titi Pinkillu",
        "col1": "Andes",
        "col2": "Bolivia",
        "col3": "4529"
    },
    {
        "col0": "Tita Neire",
        "col1": "Mont Blanc Massif",
        "col2": "Switzerland",
        "col3": "3175"
    },
    {
        "col0": "Tirsuli West",
        "col1": "Garhwal Division",
        "col2": "India",
        "col3": "7035"
    },
    {
        "col0": "Tirsuli",
        "col1": "Kumaon Division",
        "col2": "India",
        "col3": "7074"
    },
    {
        "col0": "Tirich Mir",
        "col1": "Hindu Kush",
        "col2": "Pakistan",
        "col3": "7708"
    },
    {
        "col0": "Tirani",
        "col1": "Andes",
        "col2": "Peru",
        "col3": "5105"
    },
    {
        "col0": "Tira Qullu",
        "col1": "Andes",
        "col2": "Bolivia",
        "col3": "4832"
    },
    {
        "col0": "Tira K'ark'a",
        "col1": "Andes",
        "col2": "Bolivia",
        "col3": "4974"
    },
    {
        "col0": "Tipas",
        "col1": "Andes",
        "col2": "Argentina",
        "col3": "6660"
    },
    {
        "col0": "Tip Top Mountain",
        "col1": "Canadian Shield",
        "col2": "Canada",
        "col3": "641"
    },
    {
        "col0": "Tinto",
        "col1": "Southern Uplands",
        "col2": "Scotland",
        "col3": "711"
    },
    {
        "col0": "Tintaya",
        "col1": "Wansu mountain range",
        "col2": "Peru",
        "col3": "5230"
    },
    {
        "col0": "Tinkham Mountain",
        "col1": "Lewis Range",
        "col2": "United States",
        "col3": "2573"
    },
    {
        "col0": "Tinguiririca Volcano",
        "col1": "Andes",
        "col2": "Chile",
        "col3": "4280"
    },
    {
        "col0": "Tindfjallajokull",
        "col1": "Mid-Atlantic Ridge",
        "col2": "Iceland",
        "col3": "1462"
    },
    {
        "col0": "Timber Ridge",
        "col1": "Ridge-and-valley Appalachians",
        "col2": "United States",
        "col3": "413"
    },
    {
        "col0": "Timber Mountain",
        "col1": "San Gabriel Mountains",
        "col2": "California",
        "col3": "2531"
    },
    {
        "col0": "Tilva Njagra",
        "col1": "Serbian Carpathians",
        "col2": "Serbia",
        "col3": "770"
    },
    {
        "col0": "Tilisuna-Schwarzhorn",
        "col1": "Ratikon",
        "col2": "Austria",
        "col3": "2460"
    },
    {
        "col0": "Tilicho Peak",
        "col1": "Himalaya",
        "col2": "Nepal",
        "col3": "7134"
    },
    {
        "col0": "Tilata",
        "col1": "Andes",
        "col2": "Bolivia",
        "col3": "5336"
    },
    {
        "col0": "Tikti Punta",
        "col1": "Andes",
        "col2": "Huanuco Region",
        "col3": "4944"
    },
    {
        "col0": "Tikti Mach'ay",
        "col1": "Andes",
        "col2": "Peru",
        "col3": "5000"
    },
    {
        "col0": "Tikrasqa",
        "col1": "Andes",
        "col2": "Bolivia",
        "col3": "3718"
    },
    {
        "col0": "Tikrasqa",
        "col1": "Andes",
        "col2": "Bolivia",
        "col3": "4480"
    },
    {
        "col0": "Tiklla Q'asa",
        "col1": "Andes",
        "col2": "Peru",
        "col3": "4800"
    },
    {
        "col0": "Tiklla",
        "col1": "Andes",
        "col2": "Peru",
        "col3": "4800"
    },
    {
        "col0": "Tiklla",
        "col1": "Andes",
        "col2": "Peru",
        "col3": "5360"
    },
    {
        "col0": "Tiklla",
        "col1": "Andes",
        "col2": "Peru",
        "col3": "5072"
    },
    {
        "col0": "Tiklla",
        "col1": "Andes",
        "col2": "Peru",
        "col3": "5303"
    },
    {
        "col0": "Tijtin",
        "col1": "Andes",
        "col2": "Bolivia",
        "col3": "4543"
    },
    {
        "col0": "Tijeras Peak",
        "col1": "Sangre de Cristo Range",
        "col2": "Colorado",
        "col3": "4148"
    },
    {
        "col0": "Tiger Mountain",
        "col1": "Issaquah Alps",
        "col2": "Washington",
        "col3": "915"
    },
    {
        "col0": "Tiger Island",
        "col1": "Central America Volcanic Arc",
        "col2": "Honduras",
        "col3": "783"
    },
    {
        "col0": "Tiger Hill, Kargil",
        "col1": "The Himalayas",
        "col2": "India",
        "col3": "5306"
    },
    {
        "col0": "Tievebulliagh",
        "col1": "Antrim Plateau",
        "col2": "Northern Ireland",
        "col3": "554"
    },
    {
        "col0": "Tievebaun Mountain",
        "col1": "Dartry Mountains",
        "col2": "Ireland",
        "col3": "611"
    },
    {
        "col0": "Tierra Redonda Mountain",
        "col1": "Santa Lucia Range",
        "col2": "California",
        "col3": "630"
    },
    {
        "col0": "Tieregghorn",
        "col1": "Bernese Alps",
        "col2": "Switzerland",
        "col3": "3075"
    },
    {
        "col0": "Tieralplistock",
        "col1": "Urner Alps",
        "col2": "Canton of Bern",
        "col3": "3383"
    },
    {
        "col0": "Tiejer Flue",
        "col1": "Plessur Alps",
        "col2": "Switzerland",
        "col3": "2781"
    },
    {
        "col0": "Tiefenstock",
        "col1": "Urner Alps",
        "col2": "Canton of Uri",
        "col3": "3515"
    },
    {
        "col0": "Ticsho",
        "col1": "Andes",
        "col2": "Peru",
        "col3": "3860"
    },
    {
        "col0": "Ticsani",
        "col1": "Andes",
        "col2": "Moquegua Region",
        "col3": "5408"
    },
    {
        "col0": "Ticlla",
        "col1": "Andes",
        "col2": "Peru",
        "col3": "5897"
    },
    {
        "col0": "Tibradden Mountain",
        "col1": "Dublin Mountains",
        "col2": "County Dublin",
        "col3": "467"
    },
    {
        "col0": "Tibidabo",
        "col1": "Serra de Collserola",
        "col2": "Barcelona",
        "col3": "512"
    },
    {
        "col0": "Thuwa",
        "col1": "Andes",
        "col2": "Bolivia",
        "col3": "5063"
    },
    {
        "col0": "Thurwieserspitze",
        "col1": "Ortler Alps",
        "col2": "Italy",
        "col3": "3652"
    },
    {
        "col0": "Thuru",
        "col1": "Andes",
        "col2": "Bolivia",
        "col3": "5179"
    },
    {
        "col0": "Thunderhead Mountain",
        "col1": "Great Smoky Mountains",
        "col2": "North Carolina",
        "col3": "1684"
    },
    {
        "col0": "Thunderbolt Peak",
        "col1": "Sierra Nevada",
        "col2": "California",
        "col3": "4269"
    },
    {
        "col0": "Thunderbird Mountain",
        "col1": "Livingston Range",
        "col2": "United States",
        "col3": "2682"
    },
    {
        "col0": "Thunder Mountain",
        "col1": "Albion Mountains",
        "col2": "Idaho",
        "col3": "2272"
    },
    {
        "col0": "Thunder Mountain",
        "col1": "Sierra Nevada",
        "col2": "California",
        "col3": "2869"
    },
    {
        "col0": "Thunacar Knott",
        "col1": "Lake District",
        "col2": "Cumbria",
        "col3": "723"
    },
    {
        "col0": "Thujsa",
        "col1": "Wansu mountain range",
        "col2": "Peru",
        "col3": "5000"
    },
    {
        "col0": "Thudaka Peak",
        "col1": "Cassiar Mountains",
        "col2": "British Columbia Interior",
        "col3": "2748"
    },
    {
        "col0": "Throop Peak",
        "col1": "San Gabriel Mountains",
        "col2": "California",
        "col3": "2786"
    },
    {
        "col0": "Three Waters Mountain",
        "col1": "Wind River Range",
        "col2": "Sublette County, Wyoming",
        "col3": "3561"
    },
    {
        "col0": "Three Top Mountain",
        "col1": "Blue Ridge Mountains",
        "col2": "North Carolina",
        "col3": "1530"
    },
    {
        "col0": "Three Sisters",
        "col1": "Cascade Range",
        "col2": "Oregon",
        "col3": "3062"
    },
    {
        "col0": "Three Rock",
        "col1": "Dublin Mountains",
        "col2": "Dun Laoghaire-Rathdown",
        "col3": "448"
    },
    {
        "col0": "Three Rivers Peak",
        "col1": "Gallatin Range",
        "col2": "Yellowstone National Park",
        "col3": "2976"
    },
    {
        "col0": "Three Lakes Ridge",
        "col1": "Flathead Range",
        "col2": "Alberta",
        "col3": "2492"
    },
    {
        "col0": "Three Fingered Jack",
        "col1": "Cascade Range",
        "col2": "Oregon",
        "col3": "2390"
    },
    {
        "col0": "Three Brothers",
        "col1": "Sierra Nevada",
        "col2": "United States",
        "col3": "2372"
    },
    {
        "col0": "Thousand Lake Mountain",
        "col1": "Aquarius Plateau",
        "col2": "Utah",
        "col3": "3444"
    },
    {
        "col0": "Thorpe Cloud",
        "col1": "Peak District",
        "col2": "Derbyshire",
        "col3": "287"
    },
    {
        "col0": "Thorny Flat",
        "col1": "Alleghany Mountains",
        "col2": "Pocahontas County, West Virginia",
        "col3": "1477"
    },
    {
        "col0": "Thornton Peak",
        "col1": "Great Dividing Range",
        "col2": "Australia",
        "col3": "1374"
    },
    {
        "col0": "Thornthwaite Crag",
        "col1": "Lake District",
        "col2": "Cumbria",
        "col3": "784"
    },
    {
        "col0": "Thornbury Hill",
        "col1": "Lincolnshire Wolds",
        "col2": "England",
        "col3": "77"
    },
    {
        "col0": "Thorington Tower",
        "col1": "Winston Churchill Range",
        "col2": "Alberta",
        "col3": "3155"
    },
    {
        "col0": "Thor Peak",
        "col1": "Teton Range",
        "col2": "Wyoming",
        "col3": "3666"
    },
    {
        "col0": "Thompson Peak",
        "col1": "Sawtooth Range",
        "col2": "United States",
        "col3": "3276"
    },
    {
        "col0": "Thompson Peak",
        "col1": "Klamath Mountains",
        "col2": "California",
        "col3": "2743"
    },
    {
        "col0": "Thompson Peak",
        "col1": "McDowell Mountains",
        "col2": "Arizona",
        "col3": "1214"
    },
    {
        "col0": "Thomas Peak",
        "col1": "Ruby Mountains",
        "col2": "Nevada",
        "col3": "3450"
    },
    {
        "col0": "Thomas Cole Mountain",
        "col1": "Catskill Mountains",
        "col2": "New York",
        "col3": "1203"
    },
    {
        "col0": "Thirtynine Mile Mountain",
        "col1": "Front Range",
        "col2": "Colorado",
        "col3": "3521"
    },
    {
        "col0": "Third Schafalpenkopf",
        "col1": "Allgauer Alpen",
        "col2": "Bavaria",
        "col3": "2320"
    },
    {
        "col0": "Third Hill Mountain",
        "col1": "Ridge-and-Valley Appalachians",
        "col2": "United States",
        "col3": "659"
    },
    {
        "col0": "Thipata",
        "col1": "Andes",
        "col2": "Bolivia",
        "col3": "5045"
    },
    {
        "col0": "Thimble Peak",
        "col1": "Santa Catalina Mountains",
        "col2": "Arizona",
        "col3": "1622"
    },
    {
        "col0": "Theodulhorn",
        "col1": "Pennine Alps",
        "col2": "Aosta Valley",
        "col3": "3469"
    },
    {
        "col0": "The Wrekin",
        "col1": "Shropshire Hills",
        "col2": "Shropshire",
        "col3": "406"
    },
    {
        "col0": "The Wedge",
        "col1": "Kananaskis Country",
        "col2": "Alberta",
        "col3": "2665"
    },
    {
        "col0": "The Wall",
        "col1": "Teton Range",
        "col2": "Wyoming",
        "col3": "3385"
    },
    {
        "col0": "The Volcano",
        "col1": "Boundary Ranges",
        "col2": "British Columbia",
        "col3": "1656"
    },
    {
        "col0": "The Vice President",
        "col1": "Canadian Rockies",
        "col2": "British Columbia",
        "col3": "3077"
    },
    {
        "col0": "The Tower",
        "col1": "Kananaskis Range",
        "col2": "Alberta",
        "col3": "3117"
    },
    {
        "col0": "The Thunderer",
        "col1": "Absaroka Range",
        "col2": "Yellowstone National Park",
        "col3": "3198"
    },
    {
        "col0": "The Thumb",
        "col1": "Coast Mountains",
        "col2": "British Columbia",
        "col3": "1815"
    },
    {
        "col0": "The Thumb",
        "col1": "Omineca Mountains",
        "col2": "British Columbia",
        "col3": "1854"
    },
    {
        "col0": "The Three Sisters",
        "col1": "Canadian Rockies",
        "col2": "Canada",
        "col3": "2936"
    },
    {
        "col0": "The Table",
        "col1": "Garibaldi Ranges",
        "col2": "British Columbia",
        "col3": "2021"
    },
    {
        "col0": "The Sphinx",
        "col1": "Garibaldi Ranges",
        "col2": "British Columbia",
        "col3": "2402"
    },
    {
        "col0": "The Sphinx",
        "col1": "Wind River Range",
        "col2": "Wyoming",
        "col3": "4042"
    },
    {
        "col0": "The Sow of Atholl",
        "col1": "Grampian Mountains",
        "col2": "Perth and Kinross",
        "col3": "803"
    },
    {
        "col0": "The Sleepers",
        "col1": "Sandwich Range",
        "col2": "New Hampshire",
        "col3": "1175"
    },
    {
        "col0": "The Sawtooth",
        "col1": "Front Range",
        "col2": "Colorado",
        "col3": "4201"
    },
    {
        "col0": "The Roaches",
        "col1": "Peak District",
        "col2": "England",
        "col3": "505"
    },
    {
        "col0": "The Riddler",
        "col1": "Lemhi Range",
        "col2": "Idaho",
        "col3": "3523"
    },
    {
        "col0": "The Red Tusk",
        "col1": "Tantalus Range",
        "col2": "British Columbia",
        "col3": "2147"
    },
    {
        "col0": "The Red Pillar",
        "col1": "Vancouver Island Ranges",
        "col2": "Vancouver Island",
        "col3": "2034"
    },
    {
        "col0": "The Pyramid",
        "col1": "Tahltan Highland",
        "col2": "British Columbia",
        "col3": "2199"
    },
    {
        "col0": "The Priest",
        "col1": "Blue Ridge Mountains",
        "col2": "Virginia",
        "col3": "1238"
    },
    {
        "col0": "The President",
        "col1": "Canadian Rockies",
        "col2": "British Columbia",
        "col3": "3123"
    },
    {
        "col0": "The Pinnacle",
        "col1": "Blue Mountain",
        "col2": "Pennsylvania",
        "col3": "498"
    },
    {
        "col0": "The Needles",
        "col1": "Sierra Nevada",
        "col2": "California",
        "col3": "2517"
    },
    {
        "col0": "The Nab",
        "col1": "Lake District",
        "col2": "Cumbria",
        "col3": "576"
    },
    {
        "col0": "The Moose's Tooth",
        "col1": "Alaska Range",
        "col2": "Alaska",
        "col3": "3150"
    },
    {
        "col0": "The Lions",
        "col1": "Howe Sound Group",
        "col2": "British Columbia",
        "col3": "1606"
    },
    {
        "col0": "The Lion",
        "col1": "Frankland Range",
        "col2": "Australia",
        "col3": "988"
    },
    {
        "col0": "The Knott",
        "col1": "Lake District",
        "col2": "Cumbria",
        "col3": "739"
    },
    {
        "col0": "The Jaw",
        "col1": "Teton Range",
        "col2": "Wyoming",
        "col3": "3474"
    },
    {
        "col0": "The Innominate",
        "col1": "Bighorn Mountains",
        "col2": "Wyoming",
        "col3": "3889"
    },
    {
        "col0": "The Horn",
        "col1": "Pilot Range",
        "col2": "New Hampshire",
        "col3": "1190"
    },
    {
        "col0": "The Horn",
        "col1": "Great Dividing Range",
        "col2": "Australia",
        "col3": "1723"
    },
    {
        "col0": "The Guardhouse",
        "col1": "Livingston Range",
        "col2": "United States",
        "col3": "2845"
    },
    {
        "col0": "The Grandstand",
        "col1": "Cottonwood Mountains",
        "col2": "Death Valley National Park",
        "col3": "22"
    },
    {
        "col0": "The Fortress",
        "col1": "Kananaskis Range",
        "col2": "Alberta",
        "col3": "3000"
    },
    {
        "col0": "The Forefinger",
        "col1": "Coast Mountains",
        "col2": "British Columbia",
        "col3": "1741"
    },
    {
        "col0": "The Finger",
        "col1": "Sawback Range",
        "col2": "Alberta",
        "col3": "2545"
    },
    {
        "col0": "The Ercall",
        "col1": "Shropshire Hills",
        "col2": "Shropshire",
        "col3": "140"
    },
    {
        "col0": "The Dutchmans Stern",
        "col1": "Flinders Ranges",
        "col2": "Australia",
        "col3": "820"
    },
    {
        "col0": "The Devil's Nose",
        "col1": "Ridge-and-valley Appalachians",
        "col2": "United States",
        "col3": "341"
    },
    {
        "col0": "The Cupola",
        "col1": "Frankland Range",
        "col2": "South West Tasmania",
        "col3": "970"
    },
    {
        "col0": "The Crown",
        "col1": "Karakoram",
        "col2": "China",
        "col3": "7295"
    },
    {
        "col0": "The Cobbler",
        "col1": "Grampian Mountains",
        "col2": "Scotland",
        "col3": "884"
    },
    {
        "col0": "The Cloud",
        "col1": "Peak District",
        "col2": "Cheshire",
        "col3": "343"
    },
    {
        "col0": "The Citadel",
        "col1": "Frankland Range",
        "col2": "Australia",
        "col3": "929"
    },
    {
        "col0": "The Castle",
        "col1": "Pacific Ranges",
        "col2": "British Columbia",
        "col3": "510"
    },
    {
        "col0": "The Cannon Balls",
        "col1": "Kinsman Range",
        "col2": "New Hampshire",
        "col3": "1148"
    },
    {
        "col0": "The Cairnwell",
        "col1": "Cairngorms",
        "col2": "Perth and Kinross",
        "col3": "933"
    },
    {
        "col0": "The Cabox",
        "col1": "Long Range Mountains",
        "col2": "Canada",
        "col3": "812"
    },
    {
        "col0": "The Brothers",
        "col1": "Olympic Mountains",
        "col2": "Washington",
        "col3": "2085"
    },
    {
        "col0": "The Brack",
        "col1": "Grampian Mountains",
        "col2": "Scotland",
        "col3": "787"
    },
    {
        "col0": "The Bones",
        "col1": "MacGillycuddy's Reeks",
        "col2": "Ireland",
        "col3": "956"
    },
    {
        "col0": "The Black Tusk",
        "col1": "Garibaldi Ranges",
        "col2": "British Columbia",
        "col3": "2319"
    },
    {
        "col0": "The Big Gun",
        "col1": "MacGillycuddy's Reeks",
        "col2": "Ireland",
        "col3": "939"
    },
    {
        "col0": "The Behinde",
        "col1": "Vancouver Island Ranges",
        "col2": "Vancouver Island",
        "col3": "2018"
    },
    {
        "col0": "The Beehive",
        "col1": "Bow Range",
        "col2": "Alberta",
        "col3": "2270"
    },
    {
        "col0": "The Ash Pit",
        "col1": "Spectrum Range",
        "col2": "British Columbia",
        "col3": "1580"
    },
    {
        "col0": "The Acropolis",
        "col1": "Du Cane Range",
        "col2": "Australia",
        "col3": "1481"
    },
    {
        "col0": "Tharpu Chuli",
        "col1": "Himalayas",
        "col2": "Nepal",
        "col3": "5663"
    },
    {
        "col0": "Thaneller",
        "col1": "Lechtal Alps",
        "col2": "Austria",
        "col3": "2341"
    }
]