[
    {
        "col0": "J. Hassett",
        "col1": "Providence, Rhode Island",
        "col2": "Providence Friars men's basketball",
        "col3": "Seattle SuperSonics"
    },
    {
        "col0": "J. Harris",
        "col1": "Chelan, Washington",
        "col2": "Virginia Cavaliers men's basketball",
        "col3": "Cleveland Cavaliers"
    },
    {
        "col0": "J. Hamilton",
        "col1": "Lexington, Kentucky",
        "col2": "North Texas Mean Green men's basketball",
        "col3": "Milwaukee Bucks"
    },
    {
        "col0": "J. Ellis",
        "col1": "Oakland, California",
        "col2": "San Francisco Dons men's basketball",
        "col3": "San Francisco Warriors"
    },
    {
        "col0": "J. Dumars",
        "col1": "Shreveport, Louisiana",
        "col2": "McNeese State Cowboys basketball",
        "col3": "Detroit Pistons"
    },
    {
        "col0": "J. Crawford",
        "col1": "Detroit",
        "col2": "Kentucky Wildcats men's basketball",
        "col3": "Los Angeles Lakers"
    },
    {
        "col0": "J. Cooper",
        "col1": "Houston",
        "col2": "Tulsa Golden Hurricane men's basketball",
        "col3": "New Jersey Nets"
    },
    {
        "col0": "J. Cooke",
        "col1": "Toledo, Ohio",
        "col2": "Indiana Hoosiers men's basketball",
        "col3": "Cleveland Cavaliers"
    },
    {
        "col0": "J. Caldwell",
        "col1": "Texas City, Texas",
        "col2": "Arizona State Sun Devils men's basketball",
        "col3": "Detroit Pistons"
    },
    {
        "col0": "J. Buckhalter",
        "col1": "Chicago",
        "col2": "Tennessee State Tigers men's basketball",
        "col3": "St. Louis Hawks"
    },
    {
        "col0": "J. Bryant",
        "col1": "Philadelphia",
        "col2": "La Salle Explorers men's basketball",
        "col3": "Golden State Warriors"
    },
    {
        "col0": "J. Binion",
        "col1": "Rochester, New York",
        "col2": "North Carolina A&T Aggies men's basketball",
        "col3": "San Antonio Spurs"
    },
    {
        "col0": "J. B. Carroll",
        "col1": "Pine Bluff, Arkansas",
        "col2": "Purdue Boilermakers men's basketball",
        "col3": "Golden State Warriors"
    },
    {
        "col0": "J. Arlauckas",
        "col1": "Rochester, New York",
        "col2": "Niagara Purple Eagles men's basketball",
        "col3": "Sacramento Kings"
    },
    {
        "col0": "J. Alexander",
        "col1": "Kaohsiung",
        "col2": "West Virginia Mountaineers men's basketball",
        "col3": "Milwaukee Bucks"
    },
    {
        "col0": "J. Meeks",
        "col1": "Nashville, Tennessee",
        "col2": "Kentucky Wildcats men's basketball",
        "col3": "Milwaukee Bucks"
    },
    {
        "col0": "J. Penn",
        "col1": "Tucker, Georgia",
        "col2": "South Carolina Gamecocks women's basketball",
        "col3": "Charlotte Sting"
    },
    {
        "col0": "J. Wright",
        "col1": "Savannah, Georgia",
        "col2": "Indiana Hoosiers men's basketball",
        "col3": "Seattle SuperSonics"
    },
    {
        "col0": "J. Noah",
        "col1": "New York City",
        "col2": "Florida Gators men's basketball",
        "col3": "Chicago Bulls"
    },
    {
        "col0": "J. J. White",
        "col1": "St. Louis, Missouri",
        "col2": "Kansas Jayhawks men's basketball",
        "col3": "Boston Celtics"
    },
    {
        "col0": "J. Walker",
        "col1": "Amherst, Virginia",
        "col2": "Providence Friars men's basketball",
        "col3": "Detroit Pistons"
    },
    {
        "col0": "J. Smith",
        "col1": "Pittsburgh, Pennsylvania",
        "col2": "Franciscan Barons",
        "col3": "Boston Celtics"
    },
    {
        "col0": "J. Rayl",
        "col1": "Kokomo, Indiana",
        "col2": "Indiana Hoosiers men's basketball",
        "col3": "Cincinnati Royals"
    },
    {
        "col0": "J. Oliver",
        "col1": "Menifee, Arkansas",
        "col2": "Purdue Boilermakers men's basketball",
        "col3": "Cleveland Cavaliers"
    },
    {
        "col0": "J. King",
        "col1": "South Bend, Indiana",
        "col2": "Michigan Wolverines men's basketball",
        "col3": "Toronto Raptors"
    },
    {
        "col0": "J. Jones",
        "col1": "Tallulah, Louisiana",
        "col2": "Grambling State Tigers men's basketball",
        "col3": "Baltimore Bullets"
    },
    {
        "col0": "J. Foster",
        "col1": "Jersey City, New Jersey",
        "col2": "Connecticut Huskies men's basketball",
        "col3": "Cleveland Cavaliers"
    },
    {
        "col0": "J. Darrow",
        "col1": "Akron, Ohio",
        "col2": "Bowling Green Falcons men's basketball",
        "col3": "St. Louis Hawks"
    },
    {
        "col0": "J. Darden",
        "col1": "Cheyenne, Wyoming",
        "col2": "Wyoming Cowboys basketball",
        "col3": "Chicago Stags"
    },
    {
        "col0": "J. Butler",
        "col1": "Houston",
        "col2": "Tyler Junior College",
        "col3": "Chicago Bulls"
    },
    {
        "col0": "J. Black",
        "col1": "Bronx, New York",
        "col2": "North Carolina Tar Heels men's basketball",
        "col3": "New Jersey Nets"
    },
    {
        "col0": "J. Baker",
        "col1": "Pennsylvania",
        "col2": "UNLV Runnin' Rebels basketball",
        "col3": "Philadelphia 76ers"
    },
    {
        "col0": "J. Fredette",
        "col1": "Glens Falls, New York",
        "col2": "BYU Cougars men's basketball",
        "col3": "Milwaukee Bucks"
    },
    {
        "col0": "J. Washington",
        "col1": "Philadelphia",
        "col2": "Villanova Wildcats men's basketball",
        "col3": "St. Louis Hawks"
    },
    {
        "col0": "J. Ware",
        "col1": "Natchez, Mississippi",
        "col2": "Oklahoma City Stars men's basketball",
        "col3": "Cincinnati Royals"
    },
    {
        "col0": "J. Walsh",
        "col1": "San Francisco",
        "col2": "Stanford Cardinal men's basketball",
        "col3": "Baltimore Bullets"
    },
    {
        "col0": "J. Tucker",
        "col1": "Paris, Kentucky",
        "col2": "Duquesne Dukes men's basketball",
        "col3": "Syracuse Nationals"
    },
    {
        "col0": "J. Thomas",
        "col1": "Lakeland, Florida",
        "col2": "Indiana Hoosiers men's basketball",
        "col3": "Indiana Pacers"
    },
    {
        "col0": "J. Spanarkel",
        "col1": "Jersey City, New Jersey",
        "col2": "Duke Blue Devils men's basketball",
        "col3": "Philadelphia 76ers"
    },
    {
        "col0": "J. Smith",
        "col1": "Cleveland",
        "col2": "Ohio State Buckeyes men's basketball",
        "col3": "San Diego Clippers"
    },
    {
        "col0": "J. Slaughter",
        "col1": "Roanoke, Virginia",
        "col2": "South Carolina Gamecocks men's basketball",
        "col3": "Tri-Cities Blackhawks"
    },
    {
        "col0": "J. Rowinski",
        "col1": "Long Island",
        "col2": "Purdue Boilermakers men's basketball",
        "col3": "Utah Jazz"
    },
    {
        "col0": "J. Riffey",
        "col1": "Washington, Indiana",
        "col2": "Tulane Green Wave men's basketball",
        "col3": "Fort Wayne Pistons"
    },
    {
        "col0": "J. Ray",
        "col1": "Toledo, Ohio",
        "col2": "Toledo Rockets men's basketball",
        "col3": "Syracuse Nationals"
    },
    {
        "col0": "J. Price",
        "col1": "Russellville, Kentucky",
        "col2": "Louisville Cardinals men's basketball",
        "col3": "Los Angeles Lakers"
    },
    {
        "col0": "J. Pollard",
        "col1": "Oakland, California",
        "col2": "Stanford Cardinal men's basketball",
        "col3": "Chicago Stags"
    },
    {
        "col0": "J. Phelan",
        "col1": "Philadelphia",
        "col2": "La Salle Explorers men's basketball",
        "col3": "Philadelphia Warriors"
    },
    {
        "col0": "J. Petersen",
        "col1": "Minneapolis",
        "col2": "Minnesota Golden Gophers men's basketball",
        "col3": "Houston Rockets"
    },
    {
        "col0": "J. P. Sr.",
        "col1": "Springfield, Ohio",
        "col2": "Dayton Flyers men's basketball",
        "col3": "Minneapolis Lakers"
    },
    {
        "col0": "J. Paxson",
        "col1": "Kettering, Ohio",
        "col2": "Dayton Flyers men's basketball",
        "col3": "Portland Trail Blazers"
    },
    {
        "col0": "J. Palmer",
        "col1": "Keokee, Virginia",
        "col2": "Dayton Flyers men's basketball",
        "col3": "St. Louis Hawks"
    },
    {
        "col0": "J. Owens",
        "col1": "Los Angeles",
        "col2": "Arizona State Sun Devils men's basketball",
        "col3": "Phoenix Suns"
    },
    {
        "col0": "J. O'Brien",
        "col1": "Falls Church, Virginia",
        "col2": "Maryland Terrapins men's basketball",
        "col3": "Cleveland Cavaliers"
    },
    {
        "col0": "J. Nolan",
        "col1": "Macon, Georgia",
        "col2": "Georgia Tech Yellow Jackets men's basketball",
        "col3": "Philadelphia Warriors"
    },
    {
        "col0": "J. Neal",
        "col1": "Silverstreet, South Carolina",
        "col2": "Wofford Terriers men's basketball",
        "col3": "Syracuse Nationals"
    },
    {
        "col0": "J. McMillian",
        "col1": "Raeford, North Carolina",
        "col2": "Columbia Lions men's basketball",
        "col3": "Los Angeles Lakers"
    },
    {
        "col0": "J. McIlvaine",
        "col1": "Racine, Wisconsin",
        "col2": "Marquette Golden Eagles men's basketball",
        "col3": "Washington Bullets"
    },
    {
        "col0": "J. McElroy",
        "col1": "Cotton Plant, Arkansas",
        "col2": "Monroe County Community College",
        "col3": "New Orleans Jazz"
    },
    {
        "col0": "J. McDaniels",
        "col1": "Scottsville, Kentucky",
        "col2": "WKU Hilltoppers basketball",
        "col3": "Seattle SuperSonics"
    },
    {
        "col0": "J. Marsh",
        "col1": "Pasadena, California",
        "col2": "USC Trojans men's basketball",
        "col3": "Seattle SuperSonics"
    },
    {
        "col0": "J. Loscutoff",
        "col1": "California",
        "col2": "Oregon Ducks men's basketball",
        "col3": "Boston Celtics"
    },
    {
        "col0": "J. Line",
        "col1": "Port Royal, Pennsylvania",
        "col2": "Kentucky Wildcats men's basketball",
        "col3": "Indianapolis Olympians"
    },
    {
        "col0": "J. Les",
        "col1": "Niles, Illinois",
        "col2": "Cleveland State Vikings men's basketball",
        "col3": "Atlanta Hawks"
    }
]