[
    {
        "col0": "The Invaders",
        "col1": "Alan Armer",
        "col2": "K. Smith",
        "col3": "1968-03-26"
    },
    {
        "col0": "The Interns",
        "col1": "Charles Larson",
        "col2": "B. Crawford",
        "col3": "1971-09-10"
    },
    {
        "col0": "The Inbetweeners",
        "col1": "Christopher Young",
        "col2": "J. Thomas",
        "col3": "2010-10-18"
    },
    {
        "col0": "The Impressionable Jon Culshaw",
        "col1": "Richard Hearsey",
        "col2": "J. Culshaw",
        "col3": "2004-03-31"
    },
    {
        "col0": "The IT Crowd",
        "col1": "FremantleMedia",
        "col2": "M. Berry",
        "col3": "2013-09-27"
    },
    {
        "col0": "The Human Jungle",
        "col1": "Julian Wintle",
        "col2": "H. Lom",
        "col3": "1965-05-13"
    },
    {
        "col0": "The Huggabug Club",
        "col1": "Audrey Landers",
        "col2": "S. Solomon",
        "col3": "2000-07-30"
    },
    {
        "col0": "The Honourable Woman",
        "col1": "Hugo Blick",
        "col2": "J. McTeer",
        "col3": "2014-08-21"
    },
    {
        "col0": "The Hogan Family",
        "col1": "Richard Correll",
        "col2": "V. Harper",
        "col3": "1991-07-20"
    },
    {
        "col0": "The Hitchhiker's Guide to the Galaxy",
        "col1": "John Lloyd",
        "col2": "D. Learner",
        "col3": "1981-02-09"
    },
    {
        "col0": "The Heroes",
        "col1": "Anthony Buckley",
        "col2": "J. Bach",
        "col3": "1989-04-03"
    },
    {
        "col0": "The Heights",
        "col1": "Aaron Spelling",
        "col2": "J. Walters",
        "col3": "1992-11-26"
    },
    {
        "col0": "The Hathaways",
        "col1": "Ezra Stone",
        "col2": "J. Weston",
        "col3": "1962-03-30"
    },
    {
        "col0": "The Hanging Gale",
        "col1": "Jonathan Cavendish",
        "col2": "P. McGann",
        "col3": "1995-05-23"
    },
    {
        "col0": "The Hanged Man",
        "col1": "ITV Yorkshire",
        "col2": "M. Williams",
        "col3": "1975-04-05"
    },
    {
        "col0": "The Guns of Will Sonnett",
        "col1": "Aaron Spelling",
        "col2": "W. Brennan",
        "col3": "1969-09-16"
    },
    {
        "col0": "The Guild",
        "col1": "Felicia Day",
        "col2": "F. Day",
        "col3": "2013-01-08"
    },
    {
        "col0": "The Growing Pains of Adrian Mole",
        "col1": "Peter Sasdy",
        "col2": "Lulu",
        "col3": "1987-02-09"
    },
    {
        "col0": "The Gregory Hines Show",
        "col1": "Andrew D. Weyman",
        "col2": "B. Cobbs",
        "col3": "1998-02-27"
    },
    {
        "col0": "The Greed of Man",
        "col1": "Wai Ka-fai",
        "col2": "D. Lau",
        "col3": "1992-11-27"
    },
    {
        "col0": "The Gray Ghost",
        "col1": "Russell Hayden",
        "col2": "P. Chambers",
        "col3": "1958-07-09"
    },
    {
        "col0": "The Governor",
        "col1": "Lynda La Plante",
        "col2": "A. Scarborough",
        "col3": "1996-04-27"
    },
    {
        "col0": "The Good Wife",
        "col1": "Corinne Brinkerhoff",
        "col2": "A. Panjabi",
        "col3": "2016-05-08"
    },
    {
        "col0": "The Good Life",
        "col1": "David Silverman",
        "col2": "D. Carey",
        "col3": "1994-04-12"
    },
    {
        "col0": "The Good Life",
        "col1": "John Howard Davies",
        "col2": "F. Kendal",
        "col3": "1978-06-10"
    },
    {
        "col0": "The Good Life",
        "col1": "Claudio Guzman",
        "col2": "H. Baddeley",
        "col3": "1972-01-08"
    },
    {
        "col0": "The Good Guys",
        "col1": "Jack Rose",
        "col2": "B. Denver",
        "col3": "1970-01-23"
    },
    {
        "col0": "The Good Daughter",
        "col1": "Wilma Galvante",
        "col2": "K. Padilla",
        "col3": "2012-06-01"
    },
    {
        "col0": "The Good, the Bad and the Ugly",
        "col1": "Lee Tim-sing",
        "col2": "C. Yun-fat",
        "col3": "1979-12-21"
    },
    {
        "col0": "The Gnomes of Dulwich",
        "col1": "Sydney Lotterby",
        "col2": "J. Clive",
        "col3": "1969-06-16"
    },
    {
        "col0": "The Glittering Prizes",
        "col1": "Mark Shivas",
        "col2": "T. Conti",
        "col3": "1976-02-25"
    },
    {
        "col0": "The Glamorous Imperial Concubine",
        "col1": "Ruby Lin",
        "col2": "R. Lin",
        "col3": "2011-10-20"
    },
    {
        "col0": "The Glam Metal Detectives",
        "col1": "Nira Park",
        "col2": "D. Mackichan",
        "col3": "1995-04-06"
    },
    {
        "col0": "The Girl in My Life",
        "col1": "Bill Carruthers",
        "col2": "J. Harlan",
        "col3": "1974-12-20"
    },
    {
        "col0": "The Ghost Squad",
        "col1": "Chris Clough",
        "col2": "E. Fielding",
        "col3": "2005-12-27"
    },
    {
        "col0": "The Ghost & Mrs. Muir",
        "col1": "Gene Reynolds",
        "col2": "R. Shaw",
        "col3": "1970-03-13"
    },
    {
        "col0": "The George Wendt Show",
        "col1": "Lew Schneider",
        "col2": "M. C. Lawrence",
        "col3": "1995-04-12"
    },
    {
        "col0": "The George Burns Show",
        "col1": "Rod Amateau",
        "col2": "B. Benaderet",
        "col3": "1959-04-14"
    },
    {
        "col0": "The Gentle Crackdown II",
        "col1": "Lau Kar Ho",
        "col2": "Y. Cheng",
        "col3": "2008-02-15"
    },
    {
        "col0": "The Gentle Crackdown",
        "col1": "Lau Kar Ho",
        "col2": "M. Yim",
        "col3": "2005-06-21"
    },
    {
        "col0": "The Gem of Life",
        "col1": "Jonathan Chik",
        "col2": "B. Wong",
        "col3": "2009-02-13"
    },
    {
        "col0": "The Gastineau Girls",
        "col1": "Toy Newkirk",
        "col2": "B. Gastineau",
        "col3": "2006-02-07"
    },
    {
        "col0": "The Gale Storm Show",
        "col1": "Hal Roach",
        "col2": "Z. Pitts",
        "col3": "1960-09-22"
    },
    {
        "col0": "The Four Just Men",
        "col1": "Sidney Cole",
        "col2": "J. Hawkins",
        "col3": "1960-08-17"
    },
    {
        "col0": "The Fortunes and Misfortunes of Moll Flanders",
        "col1": "Rebecca Eaton",
        "col2": "A. Kingston",
        "col3": "1996-12-09"
    },
    {
        "col0": "The Forsyte Saga",
        "col1": "Donald Wilson",
        "col2": "S. Hampshire",
        "col3": "1967-07-01"
    },
    {
        "col0": "The Ford Show",
        "col1": "Bud Yorkin",
        "col2": "T. E. Ford",
        "col3": "1961-06-29"
    },
    {
        "col0": "The Flying Fox of Snowy Mountain",
        "col1": "Wong Tin-lam",
        "col2": "P. Tse",
        "col3": "1985-12-06"
    },
    {
        "col0": "The Flockton Flyer",
        "col1": "Colin Nutley",
        "col2": "A. Sharp",
        "col3": "1978-02-13"
    },
    {
        "col0": "The Flaxton Boys",
        "col1": "Jess Yates",
        "col2": "P. Firth",
        "col3": "1973-06-17"
    },
    {
        "col0": "The Flash",
        "col1": "Gail Morgan Hickman",
        "col2": "A. Pays",
        "col3": "1991-05-18"
    },
    {
        "col0": "The Firm",
        "col1": "Anne Low",
        "col2": "P. Pek",
        "col3": "2007-08-26"
    },
    {
        "col0": "The Final Cut",
        "col1": "Ken Riddington",
        "col2": "I. Richardson",
        "col3": "1995-11-26"
    },
    {
        "col0": "The Fantastic Journey",
        "col1": "Leonard Katzman",
        "col2": "C. Franklin",
        "col3": "1977-06-17"
    },
    {
        "col0": "The Famous Five",
        "col1": "Sidney Hayers",
        "col2": "G. Russell",
        "col3": "1979-08-08"
    },
    {
        "col0": "The Family Man",
        "col1": "Martha Williamson",
        "col2": "A. Molinaro",
        "col3": "1991-07-17"
    },
    {
        "col0": "The Fall and Rise of Reginald Perrin",
        "col1": "John Howard Davies",
        "col2": "G. Palmer",
        "col3": "1979-01-24"
    },
    {
        "col0": "The Fall Guy",
        "col1": "Lee Majors",
        "col2": "L. Majors",
        "col3": "1986-05-02"
    },
    {
        "col0": "The Expert",
        "col1": "Gerard Glaister",
        "col2": "M. Goring",
        "col3": "1976-11-26"
    },
    {
        "col0": "The Everglades",
        "col1": "Budd Schulberg",
        "col2": "R. Hayes",
        "col3": "1962-06-26"
    },
    {
        "col0": "The Eve Arden Show",
        "col1": "Edmund Hartmann",
        "col2": "E. Arden",
        "col3": "1958-03-25"
    },
    {
        "col0": "The Erotic Traveler",
        "col1": "Tabitha Stevens",
        "col2": "K. Lei",
        "col3": "2007-04-28"
    },
    {
        "col0": "The Entertainers",
        "col1": "Joe Hamilton",
        "col2": "C. Burnett",
        "col3": "1965-03-27"
    },
    {
        "col0": "The Emissary",
        "col1": "Lee Tim-shing",
        "col2": "A. Lau",
        "col3": "1983-01-21"
    },
    {
        "col0": "The Ellen Burstyn Show",
        "col1": "David Frankel",
        "col2": "E. Burstyn",
        "col3": "1987-09-05"
    },
    {
        "col0": "The Eleventh Hour",
        "col1": "Sam Rolfe",
        "col2": "W. Corey",
        "col3": "1964-04-22"
    },
    {
        "col0": "The Elephant Princess",
        "col1": "Jonathan M. Shiff",
        "col2": "L. Hemsworth",
        "col3": "2011-10-06"
    },
    {
        "col0": "The Edge of Night",
        "col1": "Freddie Bartholomew",
        "col2": "D. May",
        "col3": "1984-12-28"
    },
    {
        "col0": "The Edge",
        "col1": "Julie Brown",
        "col2": "W. Knight",
        "col3": "1993-05-02"
    },
    {
        "col0": "The Eddy Arnold Show",
        "col1": "Charles Harrison Brown",
        "col2": "E. Arnold",
        "col3": "1952-08-22"
    },
    {
        "col0": "The Eddie Fisher Show",
        "col1": "Gil Rodin",
        "col2": "D. Reynolds",
        "col3": "1959-03-17"
    },
    {
        "col0": "The Ed Wynn Show",
        "col1": "Harlan Thompson",
        "col2": "E. Wynn",
        "col3": "1950-06-15"
    },
    {
        "col0": "The Dumplings",
        "col1": "Bernie West",
        "col2": "J. Coco",
        "col3": "1976-03-31"
    },
    {
        "col0": "The Dresden Files",
        "col1": "Jack Bernstein",
        "col2": "T. Mann",
        "col3": "2007-04-15"
    },
    {
        "col0": "The Dovekeepers",
        "col1": "Alice Hoffman",
        "col2": "S. Neill",
        "col3": "2015-04-01"
    },
    {
        "col0": "The Doris Day Show",
        "col1": "Bob Sweeney",
        "col2": "D. Day",
        "col3": "1973-03-12"
    },
    {
        "col0": "The Donna Reed Show",
        "col1": "William Roberts",
        "col2": "S. Fabares",
        "col3": "1966-03-19"
    },
    {
        "col0": "The Dick Van Dyke Show",
        "col1": "Carl Reiner",
        "col2": "R. Marie",
        "col3": "1966-06-01"
    },
    {
        "col0": "The Devil's Whore",
        "col1": "Company Pictures",
        "col2": "M. Fassbender",
        "col3": "2008-12-10"
    },
    {
        "col0": "The Detectives",
        "col1": "Levy-Gardner-Laven",
        "col2": "R. Taylor",
        "col3": "1962-05-18"
    },
    {
        "col0": "The Defenders",
        "col1": "Bob Markell",
        "col2": "E. G. Marshall",
        "col3": "1965-05-13"
    },
    {
        "col0": "The Debbie Reynolds Show",
        "col1": "Jess Oppenheimer",
        "col2": "D. Reynolds",
        "col3": "1970-04-14"
    },
    {
        "col0": "The Dead Zone",
        "col1": "Peter Lhotka",
        "col2": "A. M. Hall",
        "col3": "2007-09-16"
    },
    {
        "col0": "The Day of the Triffids",
        "col1": "David Maloney",
        "col2": "M. Colbourne",
        "col3": "1981-10-15"
    },
    {
        "col0": "The Dark Side of the Sun",
        "col1": "Vere Lorrimer",
        "col2": "P. Mower",
        "col3": "1983-10-18"
    },
    {
        "col0": "The Dark Side of Fame with Piers Morgan",
        "col1": "BBC Scotland",
        "col2": "T. Emin",
        "col3": "2008-10-27"
    },
    {
        "col0": "The Danny Thomas Show",
        "col1": "Sheldon Leonard",
        "col2": "J. Hagen",
        "col3": "1964-04-27"
    },
    {
        "col0": "The Dance of Passion",
        "col1": "Jonathan Chik",
        "col2": "C. K. Fai",
        "col3": "2006-06-12"
    },
    {
        "col0": "The Cut",
        "col1": "Geoffrey Goodwin",
        "col2": "M. Kane",
        "col3": "2010-12-18"
    },
    {
        "col0": "The Cup",
        "col1": "Sue Vertue",
        "col2": "S. Edge",
        "col3": "2008-09-25"
    },
    {
        "col0": "The Cult",
        "col1": "Rachel Gardner",
        "col2": "L. Chappell",
        "col3": "2009-12-10"
    },
    {
        "col0": "The Cube",
        "col1": "Jim Henson",
        "col2": "R. Schaal",
        "col3": "1971-02-21"
    },
    {
        "col0": "The Crow Road",
        "col1": "Bradley Adams",
        "col2": "B. Paterson",
        "col3": "1996-11-25"
    },
    {
        "col0": "The Crow: Stairway to Heaven",
        "col1": "Bryce Zabel",
        "col2": "K. Hardison",
        "col3": "1999-05-22"
    },
    {
        "col0": "The Criminal Investigator II",
        "col1": "Jonathan Chik",
        "col2": "F. Wong",
        "col3": "1996-12-06"
    },
    {
        "col0": "The Criminal Investigator",
        "col1": "Jonathan Chik",
        "col2": "F. Wong",
        "col3": "1995-07-29"
    },
    {
        "col0": "The Crew",
        "col1": "Joey Murphy",
        "col2": "L. Davies",
        "col3": "1996-06-30"
    },
    {
        "col0": "The Court of Last Resort",
        "col1": "Elliott Lewis",
        "col2": "L. Bettger",
        "col3": "1958-04-11"
    }
]