[
    {
        "col0": "Okami",
        "col1": "H. Kamiya",
        "col2": "A. Kaida",
        "col3": "Capcom",
        "col4": "Atsushi Inaba"
    },
    {
        "col0": "Zone of the Enders",
        "col1": "S. Murata",
        "col2": "N. Hibino",
        "col3": "Konami",
        "col4": "Hideo Kojima"
    },
    {
        "col0": "Zelda II: The Adventure of Link",
        "col1": "T. Tezuka",
        "col2": "A. Nakatsuka",
        "col3": "Nintendo",
        "col4": "Shigeru Miyamoto"
    },
    {
        "col0": "Worlds of Ultima: The Savage Empire",
        "col1": "A. Allston",
        "col2": "G. Sanger",
        "col3": "Origin Systems",
        "col4": "Richard Garriott"
    },
    {
        "col0": "White Knight Chronicles",
        "col1": "A. Hino",
        "col2": "N. Agematsu",
        "col3": "Sony Computer Entertainment",
        "col4": "Akihiro Hino"
    },
    {
        "col0": "Viewtiful Joe: Double Trouble!",
        "col1": "H. Kamiya",
        "col2": "T. Miura",
        "col3": "Capcom",
        "col4": "Atsushi Inaba"
    },
    {
        "col0": "Vagrant Story",
        "col1": "Y. Matsuno",
        "col2": "H. Sakimoto",
        "col3": "Square",
        "col4": "Yasumi Matsuno"
    },
    {
        "col0": "Ultima VII Part Two: Serpent Isle",
        "col1": "R. Benson",
        "col2": "D. K. Glover",
        "col3": "Origin Systems",
        "col4": "Warren Spector"
    },
    {
        "col0": "Torment: Tides of Numenera",
        "col1": "C. McComb",
        "col2": "M. Morgan",
        "col3": "Techland Publishing",
        "col4": "Brian Fargo"
    },
    {
        "col0": "Torin's Passage",
        "col1": "A. Lowe",
        "col2": "A. Lowe",
        "col3": "Sierra Entertainment",
        "col4": "Mark Seibert"
    },
    {
        "col0": "Tom Clancy's Splinter Cell",
        "col1": "J. Petty",
        "col2": "M. R. Plowman",
        "col3": "Aspyr Media",
        "col4": "Mathieu Ferland"
    },
    {
        "col0": "Thor: God of Thunder",
        "col1": "M. Fraction",
        "col2": "I. Zur",
        "col3": "Sega",
        "col4": "Robb Alvey"
    },
    {
        "col0": "The Wonderful 101",
        "col1": "H. Kamiya",
        "col2": "N. Hibino",
        "col3": "Nintendo",
        "col4": "Atsushi Inaba"
    },
    {
        "col0": "The Legend of Zelda: Phantom Hourglass",
        "col1": "H. Fujibayashi",
        "col2": "T. Minegishi",
        "col3": "Nintendo",
        "col4": "Eiji Aonuma"
    },
    {
        "col0": "The Legend of Zelda: A Link to the Past",
        "col1": "Y. Koizumi",
        "col2": "K. Kondo",
        "col3": "Nintendo",
        "col4": "Shigeru Miyamoto"
    },
    {
        "col0": "Super Metroid",
        "col1": "Y. Sakamoto",
        "col2": "K. Yamamoto",
        "col3": "Nintendo",
        "col4": "Makoto Kano"
    },
    {
        "col0": "Super Mario RPG",
        "col1": "K. Tanabe",
        "col2": "Y. Shimomura",
        "col3": "Nintendo",
        "col4": "Shigeru Miyamoto"
    },
    {
        "col0": "Suikoden II",
        "col1": "Y. Murayama",
        "col2": "M. Higashino",
        "col3": "Konami",
        "col4": "Yoshitaka Murayama"
    },
    {
        "col0": "Stonekeep",
        "col1": "P. Oliphant",
        "col2": "R. Band",
        "col3": "Interplay Entertainment",
        "col4": "Brian Fargo"
    },
    {
        "col0": "Star Wars: Knights of the Old Republic",
        "col1": "D. Karpyshyn",
        "col2": "J. Soule",
        "col3": "LucasArts",
        "col4": "Casey Hudson"
    },
    {
        "col0": "Sonic Generations",
        "col1": "K. Pontac",
        "col2": "J. Senoue",
        "col3": "Sega",
        "col4": "Takashi Iizuka"
    },
    {
        "col0": "Sonic Colors",
        "col1": "W. Graff",
        "col2": "N. Hataya",
        "col3": "Sega",
        "col4": "Takashi Iizuka"
    },
    {
        "col0": "Soma Bringer",
        "col1": "S. Saga",
        "col2": "Y. Mitsuda",
        "col3": "Nintendo",
        "col4": "Tetsuya Takahashi"
    },
    {
        "col0": "Shining Force III",
        "col1": "H. Takahashi",
        "col2": "M. Sakuraba",
        "col3": "Sega",
        "col4": "Hiroyuki Takahashi"
    },
    {
        "col0": "Shining Force Gaiden",
        "col1": "H. Takahashi",
        "col2": "M. Takenouchi",
        "col3": "Sega",
        "col4": "Hiroyuki Takahashi"
    },
    {
        "col0": "Shenmue II",
        "col1": "Y. Suzuki",
        "col2": "Y. Koshiro",
        "col3": "Sega",
        "col4": "Yu Suzuki"
    },
    {
        "col0": "Shenmue",
        "col1": "Y. Suzuki",
        "col2": "Y. Koshiro",
        "col3": "Sega",
        "col4": "Yu Suzuki"
    },
    {
        "col0": "Shadows of the Damned",
        "col1": "G. Suda",
        "col2": "A. Yamaoka",
        "col3": "Electronic Arts",
        "col4": "Shinji Mikami"
    },
    {
        "col0": "Shadow the Hedgehog",
        "col1": "T. Iizuka",
        "col2": "J. Senoue",
        "col3": "Sega",
        "col4": "Yuji Naka"
    },
    {
        "col0": "Shadow of the Colossus",
        "col1": "F. Ueda",
        "col2": "K. Otani",
        "col3": "Sony Computer Entertainment",
        "col4": "Kenji Kaido"
    },
    {
        "col0": "Secret of Mana",
        "col1": "H. Tanaka",
        "col2": "H. Kikuta",
        "col3": "Square",
        "col4": "Hiromichi Tanaka"
    },
    {
        "col0": "Radiant Silvergun",
        "col1": "H. Iuchi",
        "col2": "H. Sakimoto",
        "col3": "Sega",
        "col4": "Hiroshi Iuchi"
    },
    {
        "col0": "Racing Lagoon",
        "col1": "M. Toriyama",
        "col2": "T. Eguchi",
        "col3": "Square",
        "col4": "Akitoshi Kawazu"
    },
    {
        "col0": "Prey",
        "col1": "S. Miller",
        "col2": "J. Soule",
        "col3": "2K Games",
        "col4": "George Broussard"
    },
    {
        "col0": "Portal 2",
        "col1": "E. Wolpaw",
        "col2": "M. Morasky",
        "col3": "Valve Corporation",
        "col4": "Gabe Newell"
    },
    {
        "col0": "Pokemon Yellow",
        "col1": "S. Tajiri",
        "col2": "J. Masuda",
        "col3": "Nintendo",
        "col4": "Shigeru Miyamoto"
    },
    {
        "col0": "Pokemon Red and Blue",
        "col1": "S. Tajiri",
        "col2": "J. Masuda",
        "col3": "Nintendo",
        "col4": "Shigeru Miyamoto"
    },
    {
        "col0": "Pokemon Yellow",
        "col1": "S. Tajiri",
        "col2": "J. Masuda",
        "col3": "Nintendo",
        "col4": "Shigeru Miyamoto"
    },
    {
        "col0": "Pokemon Red and Blue",
        "col1": "S. Tajiri",
        "col2": "J. Masuda",
        "col3": "Nintendo",
        "col4": "Shigeru Miyamoto"
    },
    {
        "col0": "Phoenix Wright: Ace Attorney - Trials and Tribulations",
        "col1": "S. Takumi",
        "col2": "N. Iwadare",
        "col3": "Capcom",
        "col4": "Atsushi Inaba"
    },
    {
        "col0": "Parasite Eve",
        "col1": "T. Tokita",
        "col2": "Y. Shimomura",
        "col3": "Square",
        "col4": "Hironobu Sakaguchi"
    },
    {
        "col0": "Onimusha 2: Samurai's Destiny",
        "col1": "N. Sugimura",
        "col2": "T. Iwashiro",
        "col3": "Capcom",
        "col4": "Keiji Inafune"
    },
    {
        "col0": "Onimusha: Warlords",
        "col1": "N. Sugimura",
        "col2": "T. Niigaki",
        "col3": "Capcom",
        "col4": "Keiji Inafune"
    },
    {
        "col0": "Mother",
        "col1": "S. Itoi",
        "col2": "K. Suzuki",
        "col3": "Nintendo",
        "col4": "Shigeru Miyamoto"
    },
    {
        "col0": "Metroid",
        "col1": "M. Kano",
        "col2": "H. Tanaka",
        "col3": "Nintendo",
        "col4": "Gunpei Yokoi"
    },
    {
        "col0": "Metroid: Other M",
        "col1": "Y. Sakamoto",
        "col2": "K. Haishima",
        "col3": "Nintendo",
        "col4": "Yoshio Sakamoto"
    },
    {
        "col0": "Metal Gear Solid V: The Phantom Pain",
        "col1": "H. Kojima",
        "col2": "J. Burnett",
        "col3": "Konami Digital Entertainment",
        "col4": "Hideo Kojima"
    },
    {
        "col0": "Metal Gear Solid V: Ground Zeroes",
        "col1": "H. Kojima",
        "col2": "H. Gregson-Williams",
        "col3": "Konami Digital Entertainment",
        "col4": "Hideo Kojima"
    },
    {
        "col0": "Metal Gear Solid 4: Guns of the Patriots",
        "col1": "H. Kojima",
        "col2": "H. Gregson-Williams",
        "col3": "Konami",
        "col4": "Hideo Kojima"
    },
    {
        "col0": "Metal Gear Solid 3: Snake Eater",
        "col1": "H. Kojima",
        "col2": "H. Gregson-Williams",
        "col3": "Konami Corporation",
        "col4": "Hideo Kojima"
    },
    {
        "col0": "Metal Gear Solid 2: Sons of Liberty",
        "col1": "H. Kojima",
        "col2": "H. Gregson-Williams",
        "col3": "Konami",
        "col4": "Hideo Kojima"
    },
    {
        "col0": "Metal Gear Solid: The Twin Snakes",
        "col1": "H. Kojima",
        "col2": "N. Hibino",
        "col3": "Konami",
        "col4": "Hideo Kojima"
    },
    {
        "col0": "Metal Gear Solid: Portable Ops",
        "col1": "G. Mikumo",
        "col2": "N. Hibino",
        "col3": "Konami",
        "col4": "Hideo Kojima"
    },
    {
        "col0": "Max Payne",
        "col1": "S. Lake",
        "col2": "K. Hatakka",
        "col3": "Gathering of Developers",
        "col4": "George Broussard"
    },
    {
        "col0": "Mario Golf: World Tour",
        "col1": "H. Takahashi",
        "col2": "M. Sakuraba",
        "col3": "Nintendo",
        "col4": "Hiroyuki Takahashi"
    },
    {
        "col0": "Lightning Returns: Final Fantasy XIII",
        "col1": "D. Watanabe",
        "col2": "M. Hamauzu",
        "col3": "Square Enix",
        "col4": "Yoshinori Kitase"
    },
    {
        "col0": "Legend of Mana",
        "col1": "N. Inoue",
        "col2": "Y. Shimomura",
        "col3": "Square",
        "col4": "Akitoshi Kawazu"
    },
    {
        "col0": "Legacy of Kain: Soul Reaver",
        "col1": "A. Hennig",
        "col2": "K. Harland",
        "col3": "Eidos Interactive",
        "col4": "Amy Hennig"
    },
    {
        "col0": "Kingdom Hearts II",
        "col1": "K. Nojima",
        "col2": "Y. Shimomura",
        "col3": "Square Enix",
        "col4": "Shinji Hashimoto"
    },
    {
        "col0": "Kingdom Hearts: Chain of Memories",
        "col1": "D. Watanabe",
        "col2": "Y. Shimomura",
        "col3": "Square Enix",
        "col4": "Shinji Hashimoto"
    },
    {
        "col0": "King's Quest: Mask of Eternity",
        "col1": "R. Williams",
        "col2": "K. Manthei",
        "col3": "Sierra Entertainment",
        "col4": "Mark Seibert"
    },
    {
        "col0": "Killer7",
        "col1": "S. Mikami",
        "col2": "M. Takada",
        "col3": "Capcom",
        "col4": "Hiroyuki Kobayashi"
    },
    {
        "col0": "Kaeru no Tame ni Kane wa Naru",
        "col1": "Y. Sakamoto",
        "col2": "K. Totaka",
        "col3": "Nintendo",
        "col4": "Makoto Kano"
    },
    {
        "col0": "Infinite Undiscovery",
        "col1": "R. Mizuno",
        "col2": "M. Sakuraba",
        "col3": "Square Enix",
        "col4": "Hajime Kojima"
    },
    {
        "col0": "Indiana Jones and the Fate of Atlantis",
        "col1": "H. Barwood",
        "col2": "C. Bajakian",
        "col3": "LucasArts",
        "col4": "Shelley Day"
    },
    {
        "col0": "Heroes of Mana",
        "col1": "M. Kato",
        "col2": "Y. Shimomura",
        "col3": "Square Enix",
        "col4": "Koichi Ishii"
    },
    {
        "col0": "Grand Theft Auto V",
        "col1": "D. Houser",
        "col2": "T. Dream",
        "col3": "Rockstar Games",
        "col4": "Leslie Benzies"
    },
    {
        "col0": "Grand Theft Auto IV",
        "col1": "D. Houser",
        "col2": "M. Hunter",
        "col3": "Rockstar Games",
        "col4": "Leslie Benzies"
    },
    {
        "col0": "Grand Theft Auto: The Ballad of Gay Tony",
        "col1": "D. Houser",
        "col2": "J. Murphy",
        "col3": "Rockstar Games",
        "col4": "Leslie Benzies"
    },
    {
        "col0": "Grand Theft Auto: San Andreas",
        "col1": "D. Pooh",
        "col2": "M. Hunter",
        "col3": "Rockstar Games",
        "col4": "Leslie Benzies"
    },
    {
        "col0": "Golden Sun",
        "col1": "H. Takahashi",
        "col2": "M. Sakuraba",
        "col3": "Nintendo",
        "col4": "Hiroyuki Takahashi"
    },
    {
        "col0": "GoldenEye 007",
        "col1": "D. Doak",
        "col2": "R. Beanland",
        "col3": "Nintendo",
        "col4": "Martin Hollis"
    },
    {
        "col0": "Gears of War 2",
        "col1": "J. Ortega",
        "col2": "S. Jablonsky",
        "col3": "Microsoft Game Studios",
        "col4": "Rod Fergusson"
    },
    {
        "col0": "Gears of War",
        "col1": "E. Nylund",
        "col2": "K. Riepl",
        "col3": "Microsoft Game Studios",
        "col4": "Rod Fergusson"
    },
    {
        "col0": "Gabriel Knight: Sins of the Fathers",
        "col1": "J. Jensen",
        "col2": "R. Holmes",
        "col3": "Sierra Entertainment",
        "col4": "Robert Holmes"
    },
    {
        "col0": "Front Mission Evolved",
        "col1": "D. Watanabe",
        "col2": "G. Schyman",
        "col3": "Square Enix",
        "col4": "Shinji Hashimoto"
    },
    {
        "col0": "Front Mission",
        "col1": "T. Tsuchida",
        "col2": "N. Matsueda",
        "col3": "Square",
        "col4": "Shinji Hashimoto"
    }
]