[
    {
        "col0": "You're Under Arrest",
        "col1": "Serge Gainsbourg",
        "col2": "Gainsbourg Live",
        "col3": "2329"
    },
    {
        "col0": "You're Under Arrest",
        "col1": "Miles Davis",
        "col2": "Decoy",
        "col3": "2582"
    },
    {
        "col0": "You're Too Straight to Love Me",
        "col1": "Oh My God",
        "col2": "Interrogations and Confessions",
        "col3": "1731"
    },
    {
        "col0": "You're Still the One",
        "col1": "Shania Twain",
        "col2": "Don't Be Stupid",
        "col3": "199"
    },
    {
        "col0": "You're Speaking My Language",
        "col1": "Juliette and the Licks",
        "col2": "...Like a Bolt of Lightning",
        "col3": "2440"
    },
    {
        "col0": "You're Something Special to Me",
        "col1": "George Strait",
        "col2": "The Chair",
        "col3": "200"
    },
    {
        "col0": "You're So Vain",
        "col1": "Carly Simon",
        "col2": "Legend in Your Own Time",
        "col3": "259"
    },
    {
        "col0": "You're So Right for Me",
        "col1": "Rooster",
        "col2": "Staring at the Sun",
        "col3": "209"
    },
    {
        "col0": "You're So Good to Me",
        "col1": "The Beach Boys",
        "col2": "Barbara Ann",
        "col3": "136"
    },
    {
        "col0": "You're So Close",
        "col1": "Peter Murphy",
        "col2": "The Sweetest Drop",
        "col3": "331"
    },
    {
        "col0": "You're Sixteen",
        "col1": "Johnny Burnette",
        "col2": "Photograph",
        "col3": "116"
    },
    {
        "col0": "You're Pitiful",
        "col1": "\"Weird Al\" Yankovic",
        "col2": "Pretty Fly for a Rabbi",
        "col3": "196"
    },
    {
        "col0": "You're Out of My Life",
        "col1": "Darin",
        "col2": "What If",
        "col3": "198"
    },
    {
        "col0": "You're Only Lonely",
        "col1": "J. D. Souther",
        "col2": "Black Rose",
        "col3": "2127"
    },
    {
        "col0": "You're Only Human",
        "col1": "Billy Joel",
        "col2": "Keeping the Faith",
        "col3": "261"
    },
    {
        "col0": "You're Nothing",
        "col1": "Iceage",
        "col2": "New Brigade",
        "col3": "1710"
    },
    {
        "col0": "You're Not the Only One Who Feels This Way",
        "col1": "Ammonia",
        "col2": "Satin Only",
        "col3": "233"
    },
    {
        "col0": "You're Not the One",
        "col1": "Sky Ferreira",
        "col2": "Everything Is Embarrassing",
        "col3": "237"
    },
    {
        "col0": "You're Not in Kansas Anymore",
        "col1": "Jo Dee Messina",
        "col2": "Heads Carolina, Tails California",
        "col3": "173"
    },
    {
        "col0": "You're Not There",
        "col1": "Lukas Graham",
        "col2": "Golden",
        "col3": "201"
    },
    {
        "col0": "You're Not My Kind of Girl",
        "col1": "New Edition",
        "col2": "If It Isn't Love",
        "col3": "241"
    },
    {
        "col0": "You're Not Alone",
        "col1": "Kwasi Danquah III",
        "col2": "I Got Soul",
        "col3": "230"
    },
    {
        "col0": "You're Not Alone",
        "col1": "Andre Tanneberger",
        "col2": "Miracle",
        "col3": "180"
    },
    {
        "col0": "You're Not Alone",
        "col1": "Bonerama",
        "col2": "Oh No",
        "col3": "1123"
    },
    {
        "col0": "You're Not Alone",
        "col1": "Chicago",
        "col2": "Look Away",
        "col3": "236"
    },
    {
        "col0": "You're Nobody 'til Somebody Loves You",
        "col1": "James Arthur",
        "col2": "Impossible",
        "col3": "200"
    },
    {
        "col0": "You're No Good",
        "col1": "Linda Ronstadt",
        "col2": "Good Golly Miss Molly",
        "col3": "138"
    },
    {
        "col0": "You're Never Too Old for Young Love",
        "col1": "Eddy Raven",
        "col2": "Right Hand Man",
        "col3": "164"
    },
    {
        "col0": "You're Never Fully Dressed Without a Smile",
        "col1": "Sia Furler",
        "col2": "Guts Over Fear",
        "col3": "190"
    },
    {
        "col0": "You're Never Alone with a Schizophrenic",
        "col1": "Ian Hunter",
        "col2": "Overnight Angels",
        "col3": "2524"
    },
    {
        "col0": "You're Never Alone With a Cigarette",
        "col1": "Sun City Girls",
        "col2": "Dulce",
        "col3": "2356"
    },
    {
        "col0": "You're My World",
        "col1": "Emilia Rydberg",
        "col2": "2008 in music",
        "col3": "180"
    },
    {
        "col0": "You're My World",
        "col1": "Cilla Black",
        "col2": "Anyone Who Had a Heart",
        "col3": "161"
    },
    {
        "col0": "You're My Thrill",
        "col1": "Shirley Horn",
        "col2": "I Remember Miles",
        "col3": "2265"
    },
    {
        "col0": "You're My Sunshine",
        "col1": "Namie Amuro",
        "col2": "Don't Wanna Cry",
        "col3": "1062"
    },
    {
        "col0": "You're My Star",
        "col1": "Stereophonics",
        "col2": "My Friends",
        "col3": "247"
    },
    {
        "col0": "You're My One and Only Love",
        "col1": "Ricky Nelson",
        "col2": "I'm Walkin'",
        "col3": "122"
    },
    {
        "col0": "You're My Number One",
        "col1": "Enrique Iglesias",
        "col2": "Be with You",
        "col3": "269"
    },
    {
        "col0": "You're My Number One",
        "col1": "S Club",
        "col2": "Two in a Million",
        "col3": "206"
    },
    {
        "col0": "You're My Man",
        "col1": "Lynn Anderson",
        "col2": "Rose Garden",
        "col3": "160"
    },
    {
        "col0": "You're My Kind of Climate",
        "col1": "Rip Rig + Panic",
        "col2": "Bob Hope Takes Risks",
        "col3": "170"
    },
    {
        "col0": "You're My First Lady",
        "col1": "T.G. Sheppard",
        "col2": "Half Past Forever",
        "col3": "207"
    },
    {
        "col0": "You're My Everything",
        "col1": "The Temptations",
        "col2": "All I Need",
        "col3": "192"
    },
    {
        "col0": "You're My Driving Wheel",
        "col1": "The Supremes",
        "col2": "High Energy",
        "col3": "199"
    },
    {
        "col0": "You're My Better Half",
        "col1": "Keith Urban",
        "col2": "Days Go By",
        "col3": "239"
    },
    {
        "col0": "You're My Best Friend",
        "col1": "Queen",
        "col2": "Bohemian Rhapsody",
        "col3": "172"
    },
    {
        "col0": "You're My Best Friend",
        "col1": "Don Williams",
        "col2": "The Ties That Bind",
        "col3": "163"
    },
    {
        "col0": "You're Mine You",
        "col1": "Sarah Vaughan",
        "col2": "After Hours",
        "col3": "2500"
    },
    {
        "col0": "You're Mine",
        "col1": "Mariah Carey",
        "col2": "The Art of Letting Go",
        "col3": "224"
    },
    {
        "col0": "You're Makin' Me High",
        "col1": "Toni Braxton",
        "col2": "I Belong to You/How Many Ways",
        "col3": "243"
    },
    {
        "col0": "You're Lookin' at Me",
        "col1": "Carmen McRae",
        "col2": "Heat Wave",
        "col3": "2160"
    },
    {
        "col0": "You're Lookin' at Country",
        "col1": "Loretta Lynn",
        "col2": "I Wanna Be Free",
        "col3": "137"
    },
    {
        "col0": "You're Living All Over Me",
        "col1": "Dinosaur Jr.",
        "col2": "Dinosaur",
        "col3": "2168"
    },
    {
        "col0": "You're Like Comin' Home",
        "col1": "Lonestar",
        "col2": "Class Reunion",
        "col3": "240"
    },
    {
        "col0": "You're Gonna Ruin My Bad Reputation",
        "col1": "Ronnie McDowell",
        "col2": "Personally",
        "col3": "187"
    },
    {
        "col0": "You're Gonna Miss This",
        "col1": "Trace Adkins",
        "col2": "I Got My Game On",
        "col3": "224"
    },
    {
        "col0": "You're Gonna Miss Me When I'm Gone",
        "col1": "Brooks & Dunn",
        "col2": "Little Miss Honky Tonk",
        "col3": "292"
    },
    {
        "col0": "You're Gonna Miss It All",
        "col1": "Modern Baseball",
        "col2": "Sports",
        "col3": "1770"
    },
    {
        "col0": "You're Gonna Love This",
        "col1": "3OH!3",
        "col2": "Touchin' on My",
        "col3": "212"
    },
    {
        "col0": "You're Gonna Love Again",
        "col1": "Nervo",
        "col2": "Livin' My Love",
        "col3": "201"
    },
    {
        "col0": "You're Gonna Hear from Me",
        "col1": "Andy Williams",
        "col2": "May Each Day",
        "col3": "167"
    },
    {
        "col0": "You're Gonna Hear from Me",
        "col1": "Bill Evans",
        "col2": "Jazzhouse",
        "col3": "3003"
    },
    {
        "col0": "You're Gonna Go Far, Kid",
        "col1": "The Offspring",
        "col2": "Hammerhead",
        "col3": "178"
    },
    {
        "col0": "You're Gonna Get Rocked!",
        "col1": "La Toya Jackson",
        "col2": "(Tell Me) She Means Nothing To You At All",
        "col3": "235"
    },
    {
        "col0": "You're Gonna Get It!",
        "col1": "Tom Petty and the Heartbreakers",
        "col2": "Tom Petty and the Heartbreakers",
        "col3": "1778"
    },
    {
        "col0": "You're Gonna Change",
        "col1": "Hank Williams",
        "col2": "Mind Your Own Business",
        "col3": "176"
    },
    {
        "col0": "You're Gonna Be",
        "col1": "Reba McEntire",
        "col2": "My Sister",
        "col3": "232"
    },
    {
        "col0": "You're Gone",
        "col1": "Diamond Rio",
        "col2": "Imagine That",
        "col3": "211"
    },
    {
        "col0": "You're Going Out of My Mind",
        "col1": "T.G. Sheppard",
        "col2": "One Owner Heart",
        "col3": "200"
    },
    {
        "col0": "You're Going Down",
        "col1": "Sick Puppies",
        "col2": "Pitiful",
        "col3": "189"
    },
    {
        "col0": "You're Gettin' a Little Too Smart",
        "col1": "The Detroit Emeralds",
        "col2": "Feel the Need in Me",
        "col3": "201"
    },
    {
        "col0": "You're Everything",
        "col1": "Jiggs Whigham",
        "col2": "Update",
        "col3": "3359"
    },
    {
        "col0": "You're Everything",
        "col1": "Rick Ross",
        "col2": "That's Gangsta",
        "col3": "276"
    },
    {
        "col0": "You're Easy on the Eyes",
        "col1": "Terri Clark",
        "col2": "Now That I Found You",
        "col3": "213"
    },
    {
        "col0": "You're Dead!",
        "col1": "Flying Lotus",
        "col2": "Ideas+drafts+loops",
        "col3": "2295"
    },
    {
        "col0": "You're Beginning to Get to Me",
        "col1": "Clay Walker",
        "col2": "Ordinary People",
        "col3": "161"
    },
    {
        "col0": "You're Beautiful",
        "col1": "Nathaniel Willemse",
        "col2": "I Am Australian",
        "col3": "179"
    },
    {
        "col0": "You're Beautiful",
        "col1": "James Blunt",
        "col2": "Wisemen",
        "col3": "202"
    },
    {
        "col0": "You're Awful, I Love You",
        "col1": "Ludo",
        "col2": "Broken Bride",
        "col3": "2911"
    },
    {
        "col0": "You're Amazing",
        "col1": "Robert Palmer",
        "col2": "I'll Be Your Baby Tonight",
        "col3": "230"
    },
    {
        "col0": "You're Always Here",
        "col1": "Ashley Tisdale",
        "col2": "Crank It Up",
        "col3": "225"
    },
    {
        "col0": "You're All Worthless and Weak",
        "col1": "Gwar",
        "col2": "We Kill Everything",
        "col3": "3402"
    },
    {
        "col0": "You're All That Matters to Me",
        "col1": "Curtis Stigers",
        "col2": "I Wonder Why",
        "col3": "280"
    },
    {
        "col0": "You're All Living in Cuckooland",
        "col1": "Budgie",
        "col2": "The Last Stage",
        "col3": "3196"
    },
    {
        "col0": "You're All I Wanna Do",
        "col1": "Cheap Trick",
        "col2": "Woke up with a Monster",
        "col3": "243"
    },
    {
        "col0": "You're All I Need to Get By",
        "col1": "Marvin Gaye",
        "col2": "Ain't Nothing Like the Real Thing",
        "col3": "158"
    },
    {
        "col0": "You're All I Have",
        "col1": "Snow Patrol",
        "col2": "How to Be Dead",
        "col3": "230"
    },
    {
        "col0": "You'll See",
        "col1": "Madonna",
        "col2": "Human Nature",
        "col3": "279"
    },
    {
        "col0": "You'll Ruin It for Everyone",
        "col1": "Crass",
        "col2": "Christ: The Bootleg",
        "col3": "3068"
    },
    {
        "col0": "You'll Rock",
        "col1": "LL Cool J",
        "col2": "Rock the Bells",
        "col3": "272"
    },
    {
        "col0": "You'll Pay for This",
        "col1": "Bear Hands",
        "col2": "Distraction",
        "col3": "2581"
    },
    {
        "col0": "You'll Never Walk Alone",
        "col1": "Elvis Presley",
        "col2": "Elvis Country",
        "col3": "1573"
    },
    {
        "col0": "You'll Never See...",
        "col1": "Grave",
        "col2": "Into the Grave",
        "col3": "2219"
    },
    {
        "col0": "You'll Never Know What You're Missing",
        "col1": "The Real Thing",
        "col2": "Can't Get By Without You",
        "col3": "208"
    },
    {
        "col0": "You'll Never Know",
        "col1": "Mindy McCready",
        "col2": "What If I Do",
        "col3": "244"
    },
    {
        "col0": "You'll Never Know",
        "col1": "1927",
        "col2": "If I Could",
        "col3": "221"
    },
    {
        "col0": "You'll Never Get to Heaven",
        "col1": "Dionne Warwick",
        "col2": "Break Up to Make Up",
        "col3": "178"
    },
    {
        "col0": "You'll Never Be Alone",
        "col1": "Anastacia",
        "col2": "Why'd You Lie to Me",
        "col3": "233"
    },
    {
        "col0": "You'll Need Somebody on Your Bond",
        "col1": "Blind Willie Johnson",
        "col2": "Universal Soldier",
        "col3": "185"
    },
    {
        "col0": "You'll Lose a Good Thing",
        "col1": "Barbara Lynn",
        "col2": "Secret Love",
        "col3": "173"
    },
    {
        "col0": "You'll Follow Me Down",
        "col1": "Skunk Anansie",
        "col2": "Lately",
        "col3": "209"
    },
    {
        "col0": "You'll Come 'Round",
        "col1": "Status Quo",
        "col2": "All Stand Up",
        "col3": "201"
    },
    {
        "col0": "You'll Be in My Heart",
        "col1": "Phil Collins",
        "col2": "True Colors",
        "col3": "257"
    },
    {
        "col0": "You'll Be There",
        "col1": "George Strait",
        "col2": "I Hate Everything",
        "col3": "258"
    },
    {
        "col0": "You'll Be Safe Here",
        "col1": "Rivermaya",
        "col2": "Between the Stars and Waves",
        "col3": "1276"
    },
    {
        "col0": "You'll Be Mine",
        "col1": "Gloria Estefan",
        "col2": "Reach",
        "col3": "290"
    },
    {
        "col0": "You'll Be Mine",
        "col1": "The Beatles",
        "col2": "Hallelujah I Love Her So",
        "col3": "98"
    },
    {
        "col0": "You'll Be Back",
        "col1": "The Statler Brothers",
        "col2": "Years Ago",
        "col3": "159"
    },
    {
        "col0": "You'll Always Find Me in the Kitchen at Parties",
        "col1": "Jona Lewie",
        "col2": "Stop the Cavalry",
        "col3": "144"
    },
    {
        "col0": "You'll Always Be My Baby",
        "col1": "Sara Evans",
        "col2": "Coalmine",
        "col3": "277"
    },
    {
        "col0": "You'll Always Be Loved by Me",
        "col1": "Brooks & Dunn",
        "col2": "Beer Thirty",
        "col3": "182"
    },
    {
        "col0": "You'll Accomp'ny Me",
        "col1": "Bob Seger & The Silver Bullet Band",
        "col2": "Against the Wind",
        "col3": "216"
    },
    {
        "col0": "You'd Prefer an Astronaut",
        "col1": "Hum",
        "col2": "Electra 2000",
        "col3": "2753"
    },
    {
        "col0": "You? Me? Us?",
        "col1": "Richard Thompson",
        "col2": "Live At Crawley",
        "col3": "4441"
    },
    {
        "col0": "Yosuga",
        "col1": "Nagisa ni te",
        "col2": "Dream Sounds",
        "col3": "4253"
    },
    {
        "col0": "YoshA<< FukushA<<",
        "col1": "Maximum the Hormone",
        "col2": "Bu-ikikaesu",
        "col3": "3630"
    },
    {
        "col0": "Yoshinotsune",
        "col1": "Merzbow",
        "col2": "Offering",
        "col3": "3173"
    },
    {
        "col0": "Yoshimi Battles the Pink Robots",
        "col1": "The Flaming Lips",
        "col2": "The Soft Bulletin",
        "col3": "2845"
    },
    {
        "col0": "Yoshimi Battles the Hip-Hop Robots",
        "col1": "The Kleptones",
        "col2": "Never Trust Originality",
        "col3": "2829"
    },
    {
        "col0": "Yoshiki Classical",
        "col1": "Yoshiki",
        "col2": "Eternal Melody II",
        "col3": "2436"
    },
    {
        "col0": "Yoshi City",
        "col1": "Yung Lean",
        "col2": "Kyoto",
        "col3": "225"
    },
    {
        "col0": "YoshA<< FukushA<<",
        "col1": "Maximum the Hormone",
        "col2": "Bu-ikikaesu",
        "col3": "3630"
    },
    {
        "col0": "Yoru o Yuke",
        "col1": "Miyuki Nakajima",
        "col2": "Kaikinetsu",
        "col3": "3363"
    },
    {
        "col0": "Yoru no Odoriko",
        "col1": "Sakanaction",
        "col2": "Boku to Hana",
        "col3": "306"
    },
    {
        "col0": "Yorokobi no Uta",
        "col1": "KAT-TUN",
        "col2": "Bokura no Machi de",
        "col3": "242"
    },
    {
        "col0": "York",
        "col1": "Blu",
        "col2": "Jesus",
        "col3": "3540"
    },
    {
        "col0": "York",
        "col1": "Foetus",
        "col2": "Boil",
        "col3": "2789"
    },
    {
        "col0": "Yonn-De",
        "col1": "David Murray",
        "col2": "Like a Kiss that Never Ends",
        "col3": "4219"
    },
    {
        "col0": "Yoni",
        "col1": "Ginger",
        "col2": "Valor Del Corazon",
        "col3": "3705"
    },
    {
        "col0": "Yonder Mountain String Band",
        "col1": "Yonder Mountain String Band",
        "col2": "Mountain Tracks: Volume 4",
        "col3": "2509"
    },
    {
        "col0": "Yolanda... Live in Washington",
        "col1": "Yolanda Adams",
        "col2": "More Than A Melody",
        "col3": "4323"
    },
    {
        "col0": "Yoko Ono/Plastic Ono Band",
        "col1": "Yoko Ono",
        "col2": "Live Peace in Toronto 1969",
        "col3": "2429"
    },
    {
        "col0": "Yoko",
        "col1": "Beulah",
        "col2": "The Coast Is Never Clear",
        "col3": "2695"
    },
    {
        "col0": "Yokan",
        "col1": "Dir En Grey",
        "col2": "Cage",
        "col3": "602"
    },
    {
        "col0": "Yokan",
        "col1": "Miyuki Nakajima",
        "col2": "Kansuigyo",
        "col3": "2634"
    },
    {
        "col0": "Yoga",
        "col1": "Janelle Monae",
        "col2": "Electric Lady",
        "col3": "217"
    },
    {
        "col0": "Yodelling Song",
        "col1": "Tanita Tikaram",
        "col2": "Wonderful Shadow",
        "col3": "214"
    },
    {
        "col0": "Yodel the Cowboy Way",
        "col1": "Riders in the Sky",
        "col2": "Public Cowboy",
        "col3": "1944"
    },
    {
        "col0": "Yoake Mae",
        "col1": "Chara",
        "col2": "Madrigal",
        "col3": "3591"
    },
    {
        "col0": "Yo no quiero volverme tan loco",
        "col1": "Seru Giran",
        "col2": "En vivo",
        "col3": "4928"
    },
    {
        "col0": "Yo Te Quiero",
        "col1": "Wisin & Yandel",
        "col2": "Pegao",
        "col3": "207"
    },
    {
        "col0": "Yo Te Necesito",
        "col1": "Los Bukis",
        "col2": "Presiento Que Voy a Llorar",
        "col3": "1952"
    },
    {
        "col0": "Yo Te Avise",
        "col1": "Los Fabulosos Cadillacs",
        "col2": "Bares y Fondas",
        "col3": "2389"
    },
    {
        "col0": "Yo No Tengo Nah",
        "col1": "Kany Garcia",
        "col2": "Para Volver Amar",
        "col3": "233"
    },
    {
        "col0": "Yo No Soy Esa Mujer",
        "col1": "Paulina Rubio",
        "col2": "Y Yo Sigo Aqui",
        "col3": "225"
    },
    {
        "col0": "Yo Mister",
        "col1": "Patti LaBelle",
        "col2": "If You Asked Me To",
        "col3": "247"
    },
    {
        "col0": "Yo Ho! Poor You, Little Me",
        "col1": "Frank Wess",
        "col2": "Southern Comfort",
        "col3": "1988"
    },
    {
        "col0": "Yo Bailo/Don't Call me Crazy",
        "col1": "Porno Graffitti",
        "col2": "NaNaNa Summer Girl",
        "col3": "797"
    },
    {
        "col0": "Yo",
        "col1": "Chris Brown",
        "col2": "Run It!",
        "col3": "229"
    },
    {
        "col0": "Yo-Yo",
        "col1": "Nicola Roberts",
        "col2": "Lucky Day",
        "col3": "206"
    },
    {
        "col0": "Yo, Yo, Yo",
        "col1": "Dani Stevenson",
        "col2": "Honk Your Horn",
        "col3": "212"
    },
    {
        "col0": "Yo, Minoria Absoluta",
        "col1": "Extremoduro",
        "col2": "Canciones Prohibidas",
        "col3": "2571"
    }
]