[
    {
        "col0": "R. Amick",
        "col1": "Kansas City, Missouri",
        "col2": "1929-1-19",
        "col3": "0",
        "col4": "1929-1-19"
    },
    {
        "col0": "R. Sommer",
        "col1": "Mouzon, Ardennes",
        "col2": "1906-8-31",
        "col3": "0",
        "col4": "1906-8-31"
    },
    {
        "col0": "R. Crawford",
        "col1": "Roswell, New Mexico",
        "col2": "1915-10-26",
        "col3": "0",
        "col4": "1915-10-26"
    },
    {
        "col0": "R. Boesel",
        "col1": "Curitiba",
        "col2": "1957-12-4",
        "col3": "0",
        "col4": "1957-12-4"
    },
    {
        "col0": "P. Courage",
        "col1": "Colchester",
        "col2": "1942-5-27",
        "col3": "0",
        "col4": "1942-5-27"
    },
    {
        "col0": "P. Levegh",
        "col1": "Paris",
        "col2": "1905-12-22",
        "col3": "0",
        "col4": "1905-12-22"
    },
    {
        "col0": "P. Raphanel",
        "col1": "Algiers",
        "col2": "1961-5-27",
        "col3": "0",
        "col4": "1961-5-27"
    },
    {
        "col0": "P. Taruffi",
        "col1": "Albano Laziale",
        "col2": "1906-10-12",
        "col3": "1",
        "col4": "1906-10-12"
    },
    {
        "col0": "P. Scotti",
        "col1": "Florence",
        "col2": "1909-11-11",
        "col3": "0",
        "col4": "1909-11-11"
    },
    {
        "col0": "P. Dusio",
        "col1": "Scurzolengo",
        "col2": "1899-10-13",
        "col3": "0",
        "col4": "1899-10-13"
    },
    {
        "col0": "P. Drogo",
        "col1": "Vignale Monferrato",
        "col2": "1926-8-8",
        "col3": "0",
        "col4": "1926-8-8"
    },
    {
        "col0": "P. Carini",
        "col1": "Genoa",
        "col2": "1921-3-6",
        "col3": "0",
        "col4": "1921-3-6"
    },
    {
        "col0": "P. Martini",
        "col1": "Lugo, Emilia-Romagna",
        "col2": "1961-4-23",
        "col3": "0",
        "col4": "1961-4-23"
    },
    {
        "col0": "P. Ghinzani",
        "col1": "Solza",
        "col2": "1952-1-16",
        "col3": "0",
        "col4": "1952-1-16"
    },
    {
        "col0": "P. Etancelin",
        "col1": "Rouen",
        "col2": "1896-12-28",
        "col3": "0",
        "col4": "1896-12-28"
    },
    {
        "col0": "P. Streiff",
        "col1": "La Tronche",
        "col2": "1955-6-26",
        "col3": "0",
        "col4": "1955-6-26"
    },
    {
        "col0": "P. Alliot",
        "col1": "Voves",
        "col2": "1954-7-27",
        "col3": "0",
        "col4": "1954-7-27"
    },
    {
        "col0": "P. Adams",
        "col1": "Mouscron",
        "col2": "1969-11-19",
        "col3": "0",
        "col4": "1969-11-19"
    },
    {
        "col0": "P. Etancelin",
        "col1": "Rouen",
        "col2": "1896-12-28",
        "col3": "0",
        "col4": "1896-12-28"
    },
    {
        "col0": "P. Fotheringham-Parker",
        "col1": "Beckenham",
        "col2": "1907-9-22",
        "col3": "0",
        "col4": "1907-9-22"
    },
    {
        "col0": "P. Hill",
        "col1": "Miami",
        "col2": "1927-4-20",
        "col3": "3",
        "col4": "1927-4-20"
    },
    {
        "col0": "P. Cade",
        "col1": "Charles City, Iowa",
        "col2": "1916-6-12",
        "col3": "0",
        "col4": "1916-6-12"
    },
    {
        "col0": "P. d. Klerk",
        "col1": "Pilgrim's Rest, Mpumalanga",
        "col2": "1935-3-16",
        "col3": "0",
        "col4": "1935-3-16"
    },
    {
        "col0": "P. Westbury",
        "col1": "London",
        "col2": "1938-5-26",
        "col3": "0",
        "col4": "1938-5-26"
    },
    {
        "col0": "P. Ryan",
        "col1": "Philadelphia",
        "col2": "1940-6-10",
        "col3": "0",
        "col4": "1940-6-10"
    },
    {
        "col0": "P. Revson",
        "col1": "New York City",
        "col2": "1939-2-27",
        "col3": "2",
        "col4": "1939-2-27"
    },
    {
        "col0": "P. Monteverdi",
        "col1": "Binningen, Switzerland",
        "col2": "1934-6-7",
        "col3": "0",
        "col4": "1934-6-7"
    },
    {
        "col0": "P. Hirt",
        "col1": "Kusnacht",
        "col2": "1910-3-30",
        "col3": "0",
        "col4": "1910-3-30"
    },
    {
        "col0": "P. Gethin",
        "col1": "Ewell",
        "col2": "1940-2-21",
        "col3": "1",
        "col4": "1940-2-21"
    },
    {
        "col0": "P. Collins",
        "col1": "Kidderminster",
        "col2": "1931-11-6",
        "col3": "3",
        "col4": "1931-11-6"
    },
    {
        "col0": "P. Broeker",
        "col1": "Hamilton, Ontario",
        "col2": "1926-5-15",
        "col3": "0",
        "col4": "1926-5-15"
    },
    {
        "col0": "P. Ashdown",
        "col1": "Danbury, Essex",
        "col2": "1934-10-16",
        "col3": "0",
        "col4": "1934-10-16"
    },
    {
        "col0": "P. Arundell",
        "col1": "Ilford",
        "col2": "1933-11-8",
        "col3": "0",
        "col4": "1933-11-8"
    },
    {
        "col0": "P. Lovely",
        "col1": "Livingston, Montana",
        "col2": "1926-4-11",
        "col3": "0",
        "col4": "1926-4-11"
    },
    {
        "col0": "P. McCarthy",
        "col1": "Stepney",
        "col2": "1961-3-3",
        "col3": "0",
        "col4": "1961-3-3"
    },
    {
        "col0": "Pedro de la Rosa",
        "col1": "Barcelona",
        "col2": "1971-2-24",
        "col3": "0",
        "col4": "1971-2-24"
    },
    {
        "col0": "P. Rodriguez",
        "col1": "Mexico City",
        "col2": "1940-1-18",
        "col3": "2",
        "col4": "1940-1-18"
    },
    {
        "col0": "P. Lamy",
        "col1": "Alenquer, Portugal",
        "col2": "1972-3-20",
        "col3": "0",
        "col4": "1972-3-20"
    },
    {
        "col0": "P. Diniz",
        "col1": "Sao Paulo",
        "col2": "1970-5-22",
        "col3": "0",
        "col4": "1970-5-22"
    },
    {
        "col0": "P. Chaves",
        "col1": "Porto",
        "col2": "1965-2-27",
        "col3": "0",
        "col4": "1965-2-27"
    },
    {
        "col0": "P. Russo",
        "col1": "Kenosha, Wisconsin",
        "col2": "1914-4-10",
        "col3": "0",
        "col4": "1914-4-10"
    },
    {
        "col0": "P. Pietsch",
        "col1": "Freiburg im Breisgau",
        "col2": "1911-6-20",
        "col3": "0",
        "col4": "1911-6-20"
    },
    {
        "col0": "P. Hawkins",
        "col1": "Melbourne",
        "col2": "1937-10-12",
        "col3": "0",
        "col4": "1937-10-12"
    },
    {
        "col0": "P. Frere",
        "col1": "Le Havre",
        "col2": "1917-1-30",
        "col3": "0",
        "col4": "1917-1-30"
    },
    {
        "col0": "P. England",
        "col1": "Melbourne",
        "col2": "1929-3-28",
        "col3": "0",
        "col4": "1929-3-28"
    },
    {
        "col0": "P. Emery",
        "col1": "Chiswick",
        "col2": "1916-11-12",
        "col3": "0",
        "col4": "1916-11-12"
    },
    {
        "col0": "P. Belmondo",
        "col1": "Boulogne-Billancourt",
        "col2": "1963-4-23",
        "col3": "0",
        "col4": "1963-4-23"
    },
    {
        "col0": "P. Tambay",
        "col1": "Paris",
        "col2": "1949-6-25",
        "col3": "2",
        "col4": "1949-6-25"
    },
    {
        "col0": "P. Neve",
        "col1": "Liege",
        "col2": "1949-10-13",
        "col3": "0",
        "col4": "1949-10-13"
    },
    {
        "col0": "P. Gaillard",
        "col1": "Paris",
        "col2": "1952-2-12",
        "col3": "0",
        "col4": "1952-2-12"
    },
    {
        "col0": "P. Friesacher",
        "col1": "Wolfsberg, Carinthia",
        "col2": "1980-9-26",
        "col3": "0",
        "col4": "1980-9-26"
    },
    {
        "col0": "P. Depailler",
        "col1": "Clermont-Ferrand",
        "col2": "1944-8-9",
        "col3": "2",
        "col4": "1944-8-9"
    },
    {
        "col0": "P. O'Connor",
        "col1": "North Vernon, Indiana",
        "col2": "1928-10-9",
        "col3": "0",
        "col4": "1928-10-9"
    },
    {
        "col0": "P. Flaherty",
        "col1": "Glendale, California",
        "col2": "1926-1-6",
        "col3": "1",
        "col4": "1926-1-6"
    },
    {
        "col0": "P. Fabre",
        "col1": "Lyon",
        "col2": "1960-1-9",
        "col3": "0",
        "col4": "1960-1-9"
    },
    {
        "col0": "P. Barilla",
        "col1": "Milan",
        "col2": "1961-4-20",
        "col3": "0",
        "col4": "1961-4-20"
    },
    {
        "col0": "P. Godia",
        "col1": "Barcelona",
        "col2": "1921-3-21",
        "col3": "0",
        "col4": "1921-3-21"
    },
    {
        "col0": "P. Birger",
        "col1": "Buenos Aires",
        "col2": "1924-1-7",
        "col3": "0",
        "col4": "1924-1-7"
    },
    {
        "col0": "O. Volonterio",
        "col1": "Orselina",
        "col2": "1917-12-7",
        "col3": "0",
        "col4": "1917-12-7"
    },
    {
        "col0": "O. Stuppacher",
        "col1": "Vienna",
        "col2": "1947-3-3",
        "col3": "0",
        "col4": "1947-3-3"
    },
    {
        "col0": "O. Karch",
        "col1": "Ludwigshafen",
        "col2": "1917-3-6",
        "col3": "0",
        "col4": "1917-3-6"
    },
    {
        "col0": "O. Larrauri",
        "col1": "Granadero Baigorria",
        "col2": "1954-8-19",
        "col3": "0",
        "col4": "1954-8-19"
    },
    {
        "col0": "O. A. Galvez",
        "col1": "Buenos Aires",
        "col2": "1913-8-17",
        "col3": "0",
        "col4": "1913-8-17"
    },
    {
        "col0": "O. Marimon",
        "col1": "Zarate, Buenos Aires",
        "col2": "1923-12-23",
        "col3": "0",
        "col4": "1923-12-23"
    },
    {
        "col0": "O. Panis",
        "col1": "Lyon",
        "col2": "1966-9-2",
        "col3": "1",
        "col4": "1966-9-2"
    },
    {
        "col0": "O. Grouillard",
        "col1": "Toulouse",
        "col2": "1958-9-2",
        "col3": "0",
        "col4": "1958-9-2"
    },
    {
        "col0": "O. Beretta",
        "col1": "Monte Carlo",
        "col2": "1969-11-23",
        "col3": "0",
        "col4": "1969-11-23"
    },
    {
        "col0": "N. Takahara",
        "col1": "Tokyo",
        "col2": "1951-6-6",
        "col3": "0",
        "col4": "1951-6-6"
    },
    {
        "col0": "N. Fontana",
        "col1": "Arrecifes",
        "col2": "1975-1-20",
        "col3": "0",
        "col4": "1975-1-20"
    },
    {
        "col0": "N. Vaccarella",
        "col1": "Palermo",
        "col2": "1933-3-4",
        "col3": "0",
        "col4": "1933-3-4"
    },
    {
        "col0": "N. Lauda",
        "col1": "Vienna",
        "col2": "1949-2-22",
        "col3": "25",
        "col4": "1949-2-22"
    },
    {
        "col0": "N. Kiesa",
        "col1": "Copenhagen",
        "col2": "1978-3-3",
        "col3": "0",
        "col4": "1978-3-3"
    },
    {
        "col0": "N. Larini",
        "col1": "Tuscany",
        "col2": "1964-03-19",
        "col3": "0",
        "col4": "1964-03-19"
    },
    {
        "col0": "N. Lederle",
        "col1": "Theunissen",
        "col2": "1938-9-25",
        "col3": "0",
        "col4": "1938-9-25"
    },
    {
        "col0": "N. Piquet",
        "col1": "Rio de Janeiro",
        "col2": "1952-8-17",
        "col3": "23",
        "col4": "1952-8-17"
    },
    {
        "col0": "N. Estefano",
        "col1": "Concepcion, Tucuman",
        "col2": "1932-11-18",
        "col3": "0",
        "col4": "1932-11-18"
    },
    {
        "col0": "N. Hattori",
        "col1": "Yokkaichi, Mie",
        "col2": "1966-6-13",
        "col3": "0",
        "col4": "1966-6-13"
    },
    {
        "col0": "N. Galli",
        "col1": "Bologna",
        "col2": "1940-10-2",
        "col3": "0",
        "col4": "1940-10-2"
    },
    {
        "col0": "Mario de Araujo Cabral",
        "col1": "Porto",
        "col2": "1934-1-15",
        "col3": "0",
        "col4": "1934-1-15"
    },
    {
        "col0": "M. Fohr",
        "col1": "Milwaukee",
        "col2": "1912-6-17",
        "col3": "0",
        "col4": "1912-6-17"
    },
    {
        "col0": "M. Solana",
        "col1": "Mexico City",
        "col2": "1935-12-26",
        "col3": "0",
        "col4": "1935-12-26"
    },
    {
        "col0": "M. Kozarowitzky",
        "col1": "Helsinki",
        "col2": "1948-5-17",
        "col3": "0",
        "col4": "1948-5-17"
    },
    {
        "col0": "M. Wilds",
        "col1": "London",
        "col2": "1946-1-7",
        "col3": "0",
        "col4": "1946-1-7"
    },
    {
        "col0": "M. Thackwell",
        "col1": "Auckland",
        "col2": "1961-3-30",
        "col3": "0",
        "col4": "1961-3-30"
    },
    {
        "col0": "M. Taylor",
        "col1": "London",
        "col2": "1934-4-24",
        "col3": "0",
        "col4": "1934-4-24"
    },
    {
        "col0": "M. Spence",
        "col1": "London Borough of Croydon",
        "col2": "1936-12-30",
        "col3": "0",
        "col4": "1936-12-30"
    },
    {
        "col0": "M. Sparken",
        "col1": "Neuilly-sur-Seine",
        "col2": "1930-6-16",
        "col3": "0",
        "col4": "1930-6-16"
    }
]