[
    {
        "col0": "Zarathustra",
        "col1": "Persian Gulf",
        "col2": "Bahram",
        "col3": "Sansovino"
    },
    {
        "col0": "Zambezi Sun",
        "col1": "Dansili",
        "col2": "Danehill",
        "col3": "Zafonic"
    },
    {
        "col0": "Zahrat Dubai",
        "col1": "Unfuwain",
        "col2": "Northern Dancer",
        "col3": "Star Appeal"
    },
    {
        "col0": "Zagreb",
        "col1": "Theatrical",
        "col2": "Nureyev",
        "col3": "Wollow"
    },
    {
        "col0": "Zafonic",
        "col1": "Gone West",
        "col2": "Mr. Prospector",
        "col3": "The Minstrel"
    },
    {
        "col0": "Zabeel",
        "col1": "Sir Tristram",
        "col2": "Sir Ivor",
        "col3": "Nureyev"
    },
    {
        "col0": "Your Majesty",
        "col1": "Persimmon",
        "col2": "St. Simon",
        "col3": "Melton"
    },
    {
        "col0": "Your Host",
        "col1": "Alibhai",
        "col2": "Hyperion",
        "col3": "Mahmoud"
    },
    {
        "col0": "Young Giantess",
        "col1": "Diomed",
        "col2": "Florizel",
        "col3": "Matchem"
    },
    {
        "col0": "Xtension",
        "col1": "Xaar",
        "col2": "Zafonic",
        "col3": "Grand Lodge"
    },
    {
        "col0": "Xaar",
        "col1": "Zafonic",
        "col2": "Gone West",
        "col3": "Sir Ivor"
    },
    {
        "col0": "Workforce",
        "col1": "King's Best",
        "col2": "Kingmambo",
        "col3": "Sadler's Wells"
    }
]