[
    {
        "col0": "Oklahoma Secretary of Safety and Security",
        "col1": "Oklahoma",
        "col2": "Oklahoma Department of Public Safety",
        "col3": "1986",
        "col4": "1986-06-06"
    },
    {
        "col0": "Oklahoma Secretary of Human Resources and Administration",
        "col1": "Oklahoma",
        "col2": "Oklahoma Department of Central Services",
        "col3": "1986",
        "col4": "1986-06-06"
    },
    {
        "col0": "Oklahoma Secretary of Finance and Revenue",
        "col1": "Oklahoma",
        "col2": "Oklahoma State Banking Department",
        "col3": "1986",
        "col4": "1986-06-06"
    },
    {
        "col0": "Oklahoma Secretary of Energy",
        "col1": "Oklahoma",
        "col2": "Oklahoma Corporation Commission",
        "col3": "1986",
        "col4": "1986-06-06"
    },
    {
        "col0": "Oklahoma Secretary of Education",
        "col1": "Oklahoma",
        "col2": "Oklahoma Department of Career and Technology Education",
        "col3": "1986",
        "col4": "1986-06-06"
    },
    {
        "col0": "Oklahoma Secretary of Commerce and Tourism",
        "col1": "Oklahoma",
        "col2": "Oklahoma Department of Commerce",
        "col3": "2003",
        "col4": "2003-02-01"
    },
    {
        "col0": "Oklahoma Secretary of Commerce",
        "col1": "Oklahoma",
        "col2": "Oklahoma Department of Commerce",
        "col3": "1986",
        "col4": "1986-06-06"
    },
    {
        "col0": "Oklahoma Secretary of Agriculture",
        "col1": "Oklahoma",
        "col2": "Oklahoma Conservation Commission",
        "col3": "1986",
        "col4": "1986-06-06"
    },
    {
        "col0": "Oklahoma Military Department",
        "col1": "Oklahoma",
        "col2": "Oklahoma National Guard",
        "col3": "1951",
        "col4": "1951-05-16"
    },
    {
        "col0": "Oklahoma Department of Public Safety",
        "col1": "Oklahoma",
        "col2": "Oklahoma Highway Patrol",
        "col3": "1937",
        "col4": "1937-04-20"
    },
    {
        "col0": "Office quebecois de la langue francaise",
        "col1": "Montreal",
        "col2": "Commission de toponymie du Quebec",
        "col3": "1961",
        "col4": "1961-03-24"
    },
    {
        "col0": "Office of the Inspector General of Colombia",
        "col1": "Colombia",
        "col2": "Ombudsman's Office of Colombia",
        "col3": "1830",
        "col4": "1830-04-29"
    },
    {
        "col0": "Office of the Comptroller General of Colombia",
        "col1": "Bogota, D.C.",
        "col2": "Office of the Auditor General of Colombia",
        "col3": "1923",
        "col4": "1923-07-19"
    },
    {
        "col0": "Office of Special Education and Rehabilitative Services",
        "col1": "Washington, D.C.",
        "col2": "Office of Special Education Programs",
        "col3": "1979",
        "col4": "1979-10-17"
    },
    {
        "col0": "Office of Scientific Research and Development",
        "col1": "Washington, D.C.",
        "col2": "Metallurgical Laboratory",
        "col3": "1941",
        "col4": "1941-06-28"
    },
    {
        "col0": "Office for Emergency Management",
        "col1": "Washington, D.C.",
        "col2": "Office of War Information",
        "col3": "1940",
        "col4": "1940-05-25"
    },
    {
        "col0": "Nuclear Decommissioning Authority",
        "col1": "Cumbria",
        "col2": "Direct Rail Services",
        "col3": "2005",
        "col4": "2005-04-01"
    },
    {
        "col0": "New South Wales Land and Property Information",
        "col1": "City of Sydney",
        "col2": "Geographical Names Board of New South Wales",
        "col3": "2011",
        "col4": "2011-04-01"
    },
    {
        "col0": "National Security Council",
        "col1": "Taipei",
        "col2": "National Security Bureau",
        "col3": "1936",
        "col4": "1936-07-13"
    },
    {
        "col0": "National Planning Department",
        "col1": "Colombia",
        "col2": "Superintendency of Residential Public Services",
        "col3": "1958",
        "col4": "1958-11-25"
    },
    {
        "col0": "National Natural Parks System",
        "col1": "Bogota, D.C.",
        "col2": "National System of Protected Areas",
        "col3": "1977",
        "col4": "1977-03-16"
    },
    {
        "col0": "National Museums Scotland",
        "col1": "Edinburgh",
        "col2": "National Museum of Flight",
        "col3": "1985",
        "col4": "1985-10-01"
    },
    {
        "col0": "National Defense Research Committee",
        "col1": "Washington, D.C.",
        "col2": "S-1 Uranium Committee",
        "col3": "1940",
        "col4": "1940-06-27"
    },
    {
        "col0": "National Agency of Ukraine on Civil Service",
        "col1": "Kiev",
        "col2": "Center for Adaptation of Civil Service to the Standards of the European Union",
        "col3": "1994",
        "col4": "1994-04-02"
    },
    {
        "col0": "National Administrative Department of Statistics",
        "col1": "Colombia",
        "col2": "Agustin Codazzi Institute of Geography",
        "col3": "1953",
        "col4": "1953-10-14"
    },
    {
        "col0": "Ministry of the Interior and Justice",
        "col1": "Colombia",
        "col2": "National Penitentiary and Prison Institute",
        "col3": "2002",
        "col4": "2002-12-27"
    },
    {
        "col0": "Ministry of the Interior",
        "col1": "Colombia",
        "col2": "Nasa Kiwe Corporation",
        "col3": "2011",
        "col4": "2011-05-04"
    },
    {
        "col0": "Ministry of Unification",
        "col1": "Seoul",
        "col2": "Hanawon",
        "col3": "1969",
        "col4": "1969-03-01"
    },
    {
        "col0": "Ministry of Transport",
        "col1": "Bogota, D.C.",
        "col2": "National Infrastructure Agency",
        "col3": "1992",
        "col4": "1992-12-30"
    },
    {
        "col0": "Ministry of Trade, Industry and Energy",
        "col1": "Korea",
        "col2": "Korean Intellectual Property Office",
        "col3": "1948",
        "col4": "2008-02-29"
    },
    {
        "col0": "Ministry of Strategy and Finance",
        "col1": "Korea",
        "col2": "Public Procurement Service",
        "col3": "2008",
        "col4": "2008-02-29"
    },
    {
        "col0": "Ministry of Research, Technology and Higher Education",
        "col1": "Dutch East Indies",
        "col2": "Eijkman",
        "col3": "1962",
        "col4": "1962-03-16"
    },
    {
        "col0": "Ministry of Regional Development",
        "col1": "Moscow",
        "col2": "Rosstroy",
        "col3": "2004",
        "col4": "2004-09-13"
    },
    {
        "col0": "Ministry of Natural Resources and Environment",
        "col1": "Moscow",
        "col2": "Federal Agency of Water Resources",
        "col3": "2008",
        "col4": "2008-05-28"
    },
    {
        "col0": "Ministry of National Education",
        "col1": "Colombia",
        "col2": "Colombian Institute for Culture",
        "col3": "1928",
        "col4": "1928-01-01"
    },
    {
        "col0": "Ministry of Minority Affairs",
        "col1": "New Delhi",
        "col2": "National Commission for Minorities",
        "col3": "2006",
        "col4": "2006-01-29"
    },
    {
        "col0": "Ministry of Labour",
        "col1": "Colombia",
        "col2": "National Learning Service",
        "col3": "2011",
        "col4": "2011-05-04"
    },
    {
        "col0": "Ministry of Justice and Law",
        "col1": "Colombia",
        "col2": "National Penitentiary and Prison Institute",
        "col3": "2011",
        "col4": "2011-05-04"
    },
    {
        "col0": "Ministry of Infrastructure",
        "col1": "Kiev",
        "col2": "Ukrainian Railways",
        "col3": "2010",
        "col4": "2010-12-07"
    },
    {
        "col0": "Ministry of Information Technologies and Communications",
        "col1": "Bogota, D.C.",
        "col2": "Radio Television Nacional de Colombia",
        "col3": "2009",
        "col4": "2009-07-30"
    },
    {
        "col0": "Ministry of Housing, City and Territory",
        "col1": "Colombia",
        "col2": "Potable Water and Basic Sanitation Regulation Commission",
        "col3": "2011",
        "col4": "2011-05-04"
    },
    {
        "col0": "Ministry of Health and Welfare",
        "col1": "Sejong City",
        "col2": "National Pension Service",
        "col3": "1948",
        "col4": "1948-11-04"
    },
    {
        "col0": "Ministry of Foreign Trade",
        "col1": "Colombia",
        "col2": "Proexport",
        "col3": "1991",
        "col4": "1991-01-16"
    },
    {
        "col0": "Ministry of Foreign Affairs and Cooperation",
        "col1": "Madrid",
        "col2": "Instituto Cervantes",
        "col3": "1714",
        "col4": "1714-12-04"
    },
    {
        "col0": "Ministry of Foreign Affairs",
        "col1": "Tashkent",
        "col2": "University of World Economy and Diplomacy",
        "col3": "1994",
        "col4": "1994-02-25"
    },
    {
        "col0": "Ministry of Foreign Affairs",
        "col1": "Lima",
        "col2": "Lima",
        "col3": "1821",
        "col4": "1821-08-03"
    }
]