[
    {
        "col0": "Alonso de Orozco Mena",
        "col1": "Pope John Paul II",
        "col2": "Madrid",
        "col3": "Vatican City",
        "col4": "2002-05-19"
    },
    {
        "col0": "A. M. Fusco",
        "col1": "P. Francis",
        "col2": "Kingdom of Italy",
        "col3": "Vatican City",
        "col4": "2016-10-16"
    },
    {
        "col0": "A. Schmorell",
        "col1": "Russian Orthodox Church Outside Russia",
        "col2": "Germany",
        "col3": "Germany",
        "col4": "2012-02-05"
    },
    {
        "col0": "A. Hurtado",
        "col1": "P. B. XVI",
        "col2": "Chile",
        "col3": "Vatican City",
        "col4": "2005-10-23"
    },
    {
        "col0": "A. Chmielowski",
        "col1": "Pope John Paul II",
        "col2": "Austria-Hungary",
        "col3": "Vatican City",
        "col4": "1989-11-12"
    },
    {
        "col0": "A. Crescitelli",
        "col1": "Pope John Paul II",
        "col2": "China",
        "col3": "Vatican City",
        "col4": "2000-10-01"
    },
    {
        "col0": "A. Roe",
        "col1": "P. P. VI",
        "col2": "England",
        "col3": "Rome",
        "col4": "1970-10-25"
    },
    {
        "col0": "A. L. Pietrantoni",
        "col1": "Pope John Paul II",
        "col2": "Kingdom of Italy",
        "col3": "Vatican City",
        "col4": "1999-04-18"
    },
    {
        "col0": "A. o. Bohemia",
        "col1": "Pope John Paul II",
        "col2": "Bohemia",
        "col3": "Vatican City",
        "col4": "1989-11-12"
    },
    {
        "col0": "16 Martyrs of Japan",
        "col1": "Pope John Paul II",
        "col2": "Japan",
        "col3": "Vatican City",
        "col4": "1987-10-18"
    }
]