[
    {
        "col0": "Our Town",
        "col1": "R. Newman",
        "col2": "Sh-Boom",
        "col3": "2006 in film"
    },
    {
        "col0": "Our Song",
        "col1": "T. Swift",
        "col2": "Picture to Burn",
        "col3": "Quad Studios Nashville"
    },
    {
        "col0": "Our Prayer",
        "col1": "B. Wilson",
        "col2": "Heroes and Villains",
        "col3": "Sunset Sound Recorders"
    },
    {
        "col0": "Oui mais... non",
        "col1": "M. Farmer",
        "col2": "Bleu Noir",
        "col3": "2010 in music"
    },
    {
        "col0": "Orinoco Flow",
        "col1": "R. Ryan",
        "col2": "Evening Falls...",
        "col3": "Artane, Dublin"
    },
    {
        "col0": "Original",
        "col1": "P. Daley",
        "col2": "Afro-Left",
        "col3": "London"
    },
    {
        "col0": "Orgasm Addict",
        "col1": "P. Shelley",
        "col2": "What Do I Get?",
        "col3": "Fulham"
    },
    {
        "col0": "Ordinary World",
        "col1": "D. Duran",
        "col2": "Come Undone",
        "col3": "London"
    },
    {
        "col0": "Optimistique-moi",
        "col1": "M. Farmer",
        "col2": "Innamoramento",
        "col3": "France"
    },
    {
        "col0": "Opposite",
        "col1": "S. Neil",
        "col2": "Victory Over the Sun",
        "col3": "Los Angeles"
    },
    {
        "col0": "Open the Door",
        "col1": "R. Morris",
        "col2": "This Family",
        "col3": "California"
    },
    {
        "col0": "Open Your Heart",
        "col1": "P. Oakey",
        "col2": "Don't You Want Me",
        "col3": "Reading, Berkshire"
    },
    {
        "col0": "Oops",
        "col1": "M. Elliott",
        "col2": "Call Me",
        "col3": "Westlake Recording Studios"
    },
    {
        "col0": "Ooo Baby Baby",
        "col1": "S. Robinson",
        "col2": "Just One Look",
        "col3": "Hitsville U.S.A."
    },
    {
        "col0": "Ooh La La",
        "col1": "A. Goldfrapp",
        "col2": "Number 1",
        "col3": "Bath, Somerset"
    },
    {
        "col0": "Ooh, Yes I Do",
        "col1": "H. v. Hemert",
        "col2": "Ann-Maria",
        "col3": "1979 in music"
    },
    {
        "col0": "Only a Memory",
        "col1": "P. DiNizio",
        "col2": "House We Used to Live In",
        "col3": "Capitol Studios"
    },
    {
        "col0": "Only You",
        "col1": "E. Iglesias",
        "col2": "Don't Go",
        "col3": "Madrid"
    },
    {
        "col0": "Only Sixteen",
        "col1": "S. Cooke",
        "col2": "Summertime",
        "col3": "California"
    },
    {
        "col0": "Only One Word Comes to Mind",
        "col1": "S. Neil",
        "col2": "Semi-Mental",
        "col3": "Monmouth, Wales"
    },
    {
        "col0": "Only One Woman",
        "col1": "B. Gibb",
        "col2": "The Walls Fell Down",
        "col3": "IBC Studios"
    },
    {
        "col0": "Only Happy When It Rains",
        "col1": "Garbage",
        "col2": "Queer",
        "col3": "Madison, Wisconsin"
    },
    {
        "col0": "Only Girl",
        "col1": "Stargate",
        "col2": "What's My Name?",
        "col3": "Westlake Recording Studios"
    },
    {
        "col0": "One of These Days",
        "col1": "D. Gilmour",
        "col2": "Free Four",
        "col3": "Abbey Road Studios"
    },
    {
        "col0": "One in a Million",
        "col1": "M. Elliott",
        "col2": "4 Page Letter",
        "col3": "Ithaca, New York"
    },
    {
        "col0": "One for the Road",
        "col1": "A. Turner",
        "col2": "Arabella",
        "col3": "Los Angeles"
    },
    {
        "col0": "One Way Out",
        "col1": "E. James",
        "col2": "Ramblin' Man",
        "col3": "New York City"
    },
    {
        "col0": "One Tree Hill",
        "col1": "Bono",
        "col2": "Desire",
        "col3": "Dublin"
    },
    {
        "col0": "One Time",
        "col1": "T. Stewart",
        "col2": "One Less Lonely Girl",
        "col3": "Savannah, Georgia"
    },
    {
        "col0": "One Summer Dream",
        "col1": "J. Lynne",
        "col2": "Sweet Talkin' Woman",
        "col3": "Germany"
    },
    {
        "col0": "One Step at a Time",
        "col1": "R. Nevil",
        "col2": "Battlefield",
        "col3": "Copenhagen"
    },
    {
        "col0": "One Step Up",
        "col1": "B. Springsteen",
        "col2": "Tougher Than the Rest",
        "col3": "Los Angeles"
    },
    {
        "col0": "One Slip",
        "col1": "D. Gilmour",
        "col2": "Take It Back",
        "col3": "1987 in music"
    },
    {
        "col0": "One Shot",
        "col1": "D. Bowie",
        "col2": "Real Cool World",
        "col3": "Los Angeles"
    },
    {
        "col0": "One Particular Harbour",
        "col1": "J. Buffett",
        "col2": "Brown Eyed Girl",
        "col3": "1983 in music"
    },
    {
        "col0": "One Nite Stand",
        "col1": "W. Jean",
        "col2": "Skin on Skin",
        "col3": "New York"
    },
    {
        "col0": "One Night Without You",
        "col1": "D. Warren",
        "col2": "Now That You Can't Have Me",
        "col3": "Hollywood, California"
    },
    {
        "col0": "One Night Stand",
        "col1": "C. Brown",
        "col2": "Lose Control",
        "col3": "New York City"
    },
    {
        "col0": "One Night Love Affair",
        "col1": "B. Adams",
        "col2": "It's Only Love",
        "col3": "Canada"
    },
    {
        "col0": "One Night",
        "col1": "D. Bartholomew",
        "col2": "I Need Your Love Tonight",
        "col3": "Los Angeles, California"
    },
    {
        "col0": "One More Try",
        "col1": "G. Michael",
        "col2": "Monkey",
        "col3": "1987 in music"
    },
    {
        "col0": "One More Night",
        "col1": "M. Cretu",
        "col2": "Don't Be Aggressive",
        "col3": "1990 in music"
    },
    {
        "col0": "One More Night",
        "col1": "P. Collins",
        "col2": "Sussudio",
        "col3": "London"
    },
    {
        "col0": "One More Heartache",
        "col1": "R. White",
        "col2": "Take This Heart of Mine",
        "col3": "Hitsville USA"
    },
    {
        "col0": "One Love",
        "col1": "L. Howlett",
        "col2": "No Good",
        "col3": "Essex"
    },
    {
        "col0": "One Less Lonely Girl",
        "col1": "Usher",
        "col2": "Baby",
        "col3": "Atlanta, Georgia"
    },
    {
        "col0": "One Last Time",
        "col1": "A. Carlsson",
        "col2": "All I Want Is You",
        "col3": "Sweden"
    },
    {
        "col0": "One Kiss from Heaven",
        "col1": "S. Climie",
        "col2": "Arms Around the World",
        "col3": "1996 in music"
    },
    {
        "col0": "One Hundred Things You Should Have Done in Bed",
        "col1": "G. Lightbody",
        "col2": "Velocity Girl / Absolute Gravity",
        "col3": "Edinburgh"
    },
    {
        "col0": "One Heart",
        "col1": "K. DioGuardi",
        "col2": "Stand by Your Side",
        "col3": "Los Angeles, California"
    },
    {
        "col0": "One Brief Moment",
        "col1": "N. Atlas",
        "col2": "I Put a Spell on You",
        "col3": "London"
    },
    {
        "col0": "One",
        "col1": "Bono",
        "col2": "Even Better Than the Real Thing",
        "col3": "Dublin"
    },
    {
        "col0": "One",
        "col1": "H. Nilsson",
        "col2": "Everybody's Talkin'",
        "col3": "1968 in music"
    },
    {
        "col0": "One",
        "col1": "B. Gibb",
        "col2": "Bodyguard",
        "col3": "London"
    },
    {
        "col0": "One",
        "col1": "R. J. Jordan",
        "col2": "Suavemente",
        "col3": "2004 in music"
    },
    {
        "col0": "One's on the Way",
        "col1": "S. Silverstein",
        "col2": "Here I Am Again",
        "col3": "1971 in country music"
    },
    {
        "col0": "Once",
        "col1": "E. Vedder",
        "col2": "Even Flow",
        "col3": "Seattle"
    },
    {
        "col0": "On to the Next One",
        "col1": "Jay-Z",
        "col2": "Young Forever",
        "col3": "New York"
    },
    {
        "col0": "On the Verge of Something Wonderful",
        "col1": "D. Hayes",
        "col2": "Me, Myself and",
        "col3": "United States"
    },
    {
        "col0": "On the Banks of the Old Ponchartrain",
        "col1": "H. Williams",
        "col2": "My Sweet Love Ain't Around",
        "col3": "Nashville"
    },
    {
        "col0": "On a Carousel",
        "col1": "A. Clarke",
        "col2": "Carrie Anne",
        "col3": "Abbey Road Studios"
    },
    {
        "col0": "On Top of the World",
        "col1": "D. Reynolds",
        "col2": "Monster",
        "col3": "Los Angeles"
    },
    {
        "col0": "On My Knees",
        "col1": "T. 411",
        "col2": "Dumb",
        "col3": "England"
    },
    {
        "col0": "Oleada",
        "col1": "J. Venegas",
        "col2": "Me Voy",
        "col3": "Madrid"
    },
    {
        "col0": "Old Town",
        "col1": "J. Bain",
        "col2": "Breathless",
        "col3": "County Wicklow"
    },
    {
        "col0": "Old John Robertson",
        "col1": "C. Hillman",
        "col2": "Goin' Back",
        "col3": "Hollywood, California"
    },
    {
        "col0": "Old Flames Can't Hold a Candle to You",
        "col1": "P. Sebert",
        "col2": "9 to 5",
        "col3": "Nashville, Tennessee"
    },
    {
        "col0": "Old Brown Shoe",
        "col1": "G. Harrison",
        "col2": "Come Together",
        "col3": "Abbey Road Studios"
    },
    {
        "col0": "Ojala Pudiera Borrarte",
        "col1": "F. Olvera",
        "col2": "El Rey Tiburon",
        "col3": "Miami, Florida"
    },
    {
        "col0": "Ohne dich",
        "col1": "O. Riedel",
        "col2": "Keine Lust",
        "col3": "Malaga"
    },
    {
        "col0": "Ohio",
        "col1": "T. Bruner",
        "col2": "I Melt with You",
        "col3": "Atlanta, Georgia"
    },
    {
        "col0": "Oh Santa!",
        "col1": "M. Carey",
        "col2": "Auld Lang Syne",
        "col3": "Westlake Recording Studios"
    },
    {
        "col0": "Oh No!",
        "col1": "G. Kurstin",
        "col2": "Shampain",
        "col3": "Kingsize Soundlabs"
    },
    {
        "col0": "Oh Mother of Mine",
        "col1": "O. Williams",
        "col2": "Check Yourself",
        "col3": "Hitsville USA"
    },
    {
        "col0": "Oh Love",
        "col1": "M. Dirnt",
        "col2": "Kill the DJ",
        "col3": "Oakland, California"
    },
    {
        "col0": "Oh, Boy!",
        "col1": "N. Petty",
        "col2": "Maybe Baby",
        "col3": "Clovis, New Mexico"
    },
    {
        "col0": "Oh! You Pretty Things",
        "col1": "D. Bowie",
        "col2": "Eight Line Poem",
        "col3": "Trident Studios"
    },
    {
        "col0": "Oh! Darling",
        "col1": "Lennon-McCartney",
        "col2": "Help Me!",
        "col3": "Los Angeles"
    },
    {
        "col0": "Offshore",
        "col1": "Chicane",
        "col2": "Lost You Somewhere",
        "col3": "United Kingdom"
    },
    {
        "col0": "Officially Yours",
        "col1": "C. David",
        "col2": "Where's Your Love",
        "col3": "Cuba"
    },
    {
        "col0": "Off He Goes",
        "col1": "E. Vedder",
        "col2": "Given to Fly",
        "col3": "Louisiana"
    },
    {
        "col0": "Odorono",
        "col1": "P. Townshend",
        "col2": "Tattoo",
        "col3": "IBC Studios"
    },
    {
        "col0": "Oceans",
        "col1": "E. Vedder",
        "col2": "Go",
        "col3": "England"
    },
    {
        "col0": "Objects in the Rear View Mirror May Appear Closer Than They Are",
        "col1": "J. Steinman",
        "col2": "I'd Lie for You",
        "col3": "Ocean Way Recording"
    },
    {
        "col0": "Ob-La-Di, Ob-La-Da",
        "col1": "Lennon-McCartney",
        "col2": "Sgt. Pepper's Lonely Hearts Club Band",
        "col3": "Abbey Road Studios"
    },
    {
        "col0": "OMG",
        "col1": "B.E.",
        "col2": "There Goes My Baby",
        "col3": "New York City, New York"
    },
    {
        "col0": "Nutbush City Limits",
        "col1": "T. Turner",
        "col2": "Addicted to Love",
        "col3": "Inglewood, California"
    },
    {
        "col0": "Number One Stunna",
        "col1": "L. Wayne",
        "col2": "Still Fly",
        "col3": "2000 in film"
    },
    {
        "col0": "Number One",
        "col1": "R. \". Hamilton",
        "col2": "Religious",
        "col3": "Atlanta"
    },
    {
        "col0": "Number 1",
        "col1": "A. Goldfrapp",
        "col2": "Ride a White Horse",
        "col3": "Bath, Somerset"
    },
    {
        "col0": "Nuit",
        "col1": "J. Goldman",
        "col2": "A nos actes manques",
        "col3": "SNEP"
    },
    {
        "col0": "Nowhere to Run",
        "col1": "Holland-Dozier-Holland",
        "col2": "You've Been in Love Too Long",
        "col3": "Hitsville U.S.A."
    },
    {
        "col0": "Now We're Getting Somewhere",
        "col1": "N. Finn",
        "col2": "Don't Dream It's Over",
        "col3": "Los Angeles"
    },
    {
        "col0": "Now That You Got It",
        "col1": "S. Beatz",
        "col2": "Early Winter",
        "col3": "Henson Recording Studios"
    },
    {
        "col0": "Now",
        "col1": "H. Williams",
        "col2": "Still Into You",
        "col3": "California"
    },
    {
        "col0": "Nothing to Gein",
        "col1": "R. Martinie",
        "col2": "Not Falling",
        "col3": "Vancouver"
    },
    {
        "col0": "Nothing in This World",
        "col1": "J. Singh",
        "col2": "Creepin' Up Slowly",
        "col3": "Ocean Way Studios"
    },
    {
        "col0": "Nothing in My Way",
        "col1": "T. Rice-Oxley",
        "col2": "Try Again",
        "col3": "New York City"
    },
    {
        "col0": "Nothing but Heartaches",
        "col1": "Holland-Dozier-Holland",
        "col2": "I Hear a Symphony",
        "col3": "Hitsville U.S.A."
    },
    {
        "col0": "Nothing at All",
        "col1": "R. Thomas",
        "col2": "Feels Like Fire",
        "col3": "2003 in music"
    },
    {
        "col0": "Nothing as It Seems",
        "col1": "J. Ament",
        "col2": "Light Years",
        "col3": "Seattle"
    },
    {
        "col0": "Nothing Else Matters",
        "col1": "J. Hetfield",
        "col2": "No Leaf Clover",
        "col3": "California"
    },
    {
        "col0": "Nothin' to Lose",
        "col1": "G. Simmons",
        "col2": "Kissin' Time",
        "col3": "New York City"
    },
    {
        "col0": "Not for You",
        "col1": "E. Vedder",
        "col2": "Immortality",
        "col3": "Seattle"
    },
    {
        "col0": "Not a Dry Eye in the House",
        "col1": "D. Warren",
        "col2": "Runnin' for the Red Light",
        "col3": "Virgin Records"
    },
    {
        "col0": "Not Your Fault",
        "col1": "A. Bruno",
        "col2": "Kill Your Heroes",
        "col3": "Los Angeles, California"
    },
    {
        "col0": "Not Now John",
        "col1": "R. Waters",
        "col2": "Learning to Fly",
        "col3": "1982 in music"
    },
    {
        "col0": "Not Falling",
        "col1": "R. Martinie",
        "col2": "World So Cold",
        "col3": "Cannon Falls, Minnesota"
    },
    {
        "col0": "Not Anymore",
        "col1": "Ne-Yo",
        "col2": "She Ain't Got...",
        "col3": "Atlanta"
    },
    {
        "col0": "Not About Love",
        "col1": "F. Apple",
        "col2": "Get Him Back",
        "col3": "Los Angeles, California"
    },
    {
        "col0": "Northern Lites",
        "col1": "S. F. Animals",
        "col2": "Fire in My Heart",
        "col3": "Box, Wiltshire"
    },
    {
        "col0": "Non ti scordar mai di me",
        "col1": "T. Ferro",
        "col2": "Novembre",
        "col3": "Milan"
    },
    {
        "col0": "Non me lo so spiegare",
        "col1": "T. Ferro",
        "col2": "Universal Prayer",
        "col3": "Italy"
    },
    {
        "col0": "Non ho mai smesso",
        "col1": "L. Pausini",
        "col2": "Bastava",
        "col3": "Castelbolognese"
    },
    {
        "col0": "Nobody Sees",
        "col1": "B. Fanning",
        "col2": "Who Really Cares",
        "col3": "Los Angeles"
    },
    {
        "col0": "Nobody Rides for Free",
        "col1": "S. Caton",
        "col2": "Best of Me",
        "col3": "1991 in music"
    },
    {
        "col0": "Nobody Knows",
        "col1": "C. Buckingham",
        "col2": "Ja a ty",
        "col3": "Bratislava"
    },
    {
        "col0": "Nobody's Home",
        "col1": "A. Lavigne",
        "col2": "He Wasn't",
        "col3": "NRG Recording Studios"
    },
    {
        "col0": "No ha parado de llover",
        "col1": "F. Olvera",
        "col2": "Hundido En Un Rincon",
        "col3": "Hollywood"
    },
    {
        "col0": "No U Hang Up",
        "col1": "R. Yacoub",
        "col2": "Breathless",
        "col3": "Stockholm"
    },
    {
        "col0": "No Surprise",
        "col1": "C. Daughtry",
        "col2": "Life After You",
        "col3": "California"
    },
    {
        "col0": "No Spare Parts",
        "col1": "Jagger/Richards",
        "col2": "Doom and Gloom",
        "col3": "Paris"
    },
    {
        "col0": "No Son of Mine",
        "col1": "P. Collins",
        "col2": "I Can't Dance",
        "col3": "The Farm"
    },
    {
        "col0": "No Pussy Blues",
        "col1": "N. Cave",
        "col2": "(I Don't Need You To) Set Me Free",
        "col3": "London, United Kingdom"
    },
    {
        "col0": "No Place to Go",
        "col1": "K. Shields",
        "col2": "Sunny Sundae Smile",
        "col3": "London"
    },
    {
        "col0": "No Particular Place to Go",
        "col1": "C. Berry",
        "col2": "You Never Can Tell",
        "col3": "Chicago"
    },
    {
        "col0": "No Ordinary Love",
        "col1": "Sade",
        "col2": "Feel No Pain",
        "col3": "The Hit Factory"
    },
    {
        "col0": "No One Like You",
        "col1": "R. Schenker",
        "col2": "Can't Live Without You",
        "col3": "Germany"
    },
    {
        "col0": "No One Knows How to Love Me Quite Like You Do",
        "col1": "R. Kelly",
        "col2": "Are You Ready",
        "col3": "Chicago"
    },
    {
        "col0": "No One Is Innocent",
        "col1": "R. Biggs",
        "col2": "Somethin' Else",
        "col3": "London"
    },
    {
        "col0": "No One Does It Better",
        "col1": "J. Franceschi",
        "col2": "Reckless",
        "col3": "California"
    },
    {
        "col0": "No More Lonely Nights",
        "col1": "P. McCartney",
        "col2": "We All Stand Together",
        "col3": "Abbey Road Studios"
    },
    {
        "col0": "No Money in This Deal",
        "col1": "G. Jones",
        "col2": "Play It Cool, Man",
        "col3": "Beaumont, Texas"
    },
    {
        "col0": "No Modest Bear",
        "col1": "M. Middleton",
        "col2": "Break My Heart",
        "col3": "Scotland"
    },
    {
        "col0": "No Man's Land",
        "col1": "B. Joel",
        "col2": "Lullabye",
        "col3": "New York"
    },
    {
        "col0": "No Llores Por Mi",
        "col1": "E. Iglesias",
        "col2": "Trapecista",
        "col3": "Hollywood"
    },
    {
        "col0": "No Light, No Light",
        "col1": "F. Welch",
        "col2": "Never Let Me Go",
        "col3": "Abbey Road Studios"
    },
    {
        "col0": "No Leaf Clover",
        "col1": "J. Hetfield",
        "col2": "I Disappear",
        "col3": "Berkeley, California"
    },
    {
        "col0": "No Good",
        "col1": "L. Howlett",
        "col2": "Voodoo People",
        "col3": "England"
    },
    {
        "col0": "No Freedom",
        "col1": "Dido",
        "col2": "End of Night",
        "col3": "London"
    },
    {
        "col0": "No Fear",
        "col1": "T. Rasmus",
        "col2": "Sail Away",
        "col3": "Stockholm"
    },
    {
        "col0": "No Excuses",
        "col1": "J. Cantrell",
        "col2": "I Stay Away",
        "col3": "Seattle, Washington"
    },
    {
        "col0": "No Can Do",
        "col1": "V. Brown",
        "col2": "Get Sexy",
        "col3": "England"
    },
    {
        "col0": "No Bullshit",
        "col1": "C. Brown",
        "col2": "Look at Me Now",
        "col3": "Richmond, Virginia"
    },
    {
        "col0": "No Bueno",
        "col1": "S. Cowboy",
        "col2": "Slapper",
        "col3": "England"
    },
    {
        "col0": "No Bravery",
        "col1": "J. Blunt",
        "col2": "1973",
        "col3": "California"
    },
    {
        "col0": "No Boundaries",
        "col1": "K. DioGuardi",
        "col2": "Live Like We're Dying",
        "col3": "American Idol"
    },
    {
        "col0": "No Better",
        "col1": "Lorde",
        "col2": "Glory and Gore",
        "col3": "Golden Age Studios"
    },
    {
        "col0": "No",
        "col1": "Shakira",
        "col2": "Don't Bother",
        "col3": "New York"
    },
    {
        "col0": "No-One Driving",
        "col1": "J. Foxx",
        "col2": "Burning Car",
        "col3": "London"
    }
]