[
    {
        "col0": "Worthy Hotel",
        "col1": "1895",
        "col2": "1983-02-24",
        "col3": "83000779"
    },
    {
        "col0": "Worthington Valley Historic District",
        "col1": "1795",
        "col2": "1976-12-12",
        "col3": "76000977"
    },
    {
        "col0": "Worthington Presbyterian Church",
        "col1": "1830",
        "col2": "1980-04-17",
        "col3": "80003023"
    },
    {
        "col0": "Worthington Hall",
        "col1": "1904",
        "col2": "1978-04-14",
        "col3": "78002433"
    },
    {
        "col0": "Worthen Bank Building",
        "col1": "1928",
        "col2": "1986-11-13",
        "col3": "86003125"
    },
    {
        "col0": "Wortham Gymnasium",
        "col1": "1935",
        "col2": "1990-04-19",
        "col3": "90000667"
    },
    {
        "col0": "Worth County Courthouse",
        "col1": "1893",
        "col2": "1981-07-02",
        "col3": "81000705"
    },
    {
        "col0": "Worth's Chapel",
        "col1": "1902",
        "col2": "2005-09-28",
        "col3": "5001097"
    },
    {
        "col0": "Wortendyke Barn",
        "col1": "1770",
        "col2": "1973-05-07",
        "col3": "73001081"
    },
    {
        "col0": "Wortendyke-Demund House",
        "col1": "1797",
        "col2": "1983-01-10",
        "col3": "83001590"
    },
    {
        "col0": "Wort Hotel",
        "col1": "1941",
        "col2": "1999-12-09",
        "col3": "99001507"
    },
    {
        "col0": "Worsley-Burnette House",
        "col1": "1830",
        "col2": "1990-05-24",
        "col3": "90000791"
    },
    {
        "col0": "Worsham High School",
        "col1": "1927",
        "col2": "2010-06-24",
        "col3": "10000384"
    },
    {
        "col0": "Worrell-Ettlinger House",
        "col1": "1912",
        "col2": "2004-10-12",
        "col3": "4001152"
    },
    {
        "col0": "Worrall Covered Bridge",
        "col1": "1870",
        "col2": "1973-07-16",
        "col3": "73000209"
    },
    {
        "col0": "Wormsloe Historic Site",
        "col1": "1739",
        "col2": "1973-04-26",
        "col3": "73000615"
    },
    {
        "col0": "Wormeley Cottage",
        "col1": "1750",
        "col2": "1980-05-23",
        "col3": "80004201"
    },
    {
        "col0": "World War Memorial Library",
        "col1": "1897",
        "col2": "1995-03-31",
        "col3": "95000361"
    },
    {
        "col0": "World War Memorial Building",
        "col1": "1935",
        "col2": "1995-05-26",
        "col3": "95000637"
    },
    {
        "col0": "World War Memorial",
        "col1": "1928",
        "col2": "1993-04-09",
        "col3": "93000227"
    },
    {
        "col0": "World War I Memorial",
        "col1": "1921",
        "col2": "1984-02-17",
        "col3": "84001106"
    },
    {
        "col0": "World War I Memorial",
        "col1": "1927",
        "col2": "2001-10-19",
        "col3": "1000466"
    },
    {
        "col0": "World War I Memorial",
        "col1": "1922",
        "col2": "1981-08-28",
        "col3": "81000388"
    },
    {
        "col0": "World War II Facilities at Midway",
        "col1": "1941",
        "col2": "1987-05-28",
        "col3": "87001302"
    },
    {
        "col0": "World's Largest Round Barn",
        "col1": "1916",
        "col2": "1997-03-21",
        "col3": "97000269"
    },
    {
        "col0": "Worland Ranch",
        "col1": "1900",
        "col2": "1992-03-05",
        "col3": "92000123"
    },
    {
        "col0": "Worland House",
        "col1": "1917",
        "col2": "1986-02-27",
        "col3": "86000310"
    },
    {
        "col0": "Works Progress Administration works at Arrow Rock State Historic Site",
        "col1": "1937",
        "col2": "1985-03-04",
        "col3": "85000516"
    },
    {
        "col0": "Workman and Temple Family Homestead Museum",
        "col1": "1842",
        "col2": "1974-11-20",
        "col3": "74000519"
    },
    {
        "col0": "Working Boys Home",
        "col1": "1896",
        "col2": "1986-09-04",
        "col3": "86001898"
    },
    {
        "col0": "Working Benevolent Temple and Professional Building",
        "col1": "1922",
        "col2": "1982-07-01",
        "col3": "82003865"
    },
    {
        "col0": "Worker's House at Lower Laurel Iron Works",
        "col1": "1870",
        "col2": "1985-09-16",
        "col3": "85002381"
    },
    {
        "col0": "Worcester Market Building",
        "col1": "1914",
        "col2": "1980-03-05",
        "col3": "80000612"
    },
    {
        "col0": "Worcester House",
        "col1": "1802",
        "col2": "1983-12-22",
        "col3": "83004091"
    },
    {
        "col0": "Worcester Five Cents Savings Bank",
        "col1": "1891",
        "col2": "1978-09-13",
        "col3": "78000472"
    },
    {
        "col0": "Worcester Corset Company Factory",
        "col1": "1895",
        "col2": "1984-10-04",
        "col3": "84000097"
    },
    {
        "col0": "Worcester City Hall and Common",
        "col1": "1669",
        "col2": "1978-03-29",
        "col3": "78001405"
    },
    {
        "col0": "Wooton Presbyterian Center",
        "col1": "1919",
        "col2": "1979-05-24",
        "col3": "79001019"
    },
    {
        "col0": "Woonsocket Rubber Company Mill",
        "col1": "1857",
        "col2": "1989-05-01",
        "col3": "89000334"
    },
    {
        "col0": "Woonsocket District Courthouse",
        "col1": "1894",
        "col2": "1982-11-24",
        "col3": "82000014"
    },
    {
        "col0": "Woonsocket Civil War Monument",
        "col1": "1868",
        "col2": "1982-11-24",
        "col3": "82000013"
    },
    {
        "col0": "Woonsocket City Hall",
        "col1": "1856",
        "col2": "1974-05-01",
        "col3": "74000007"
    },
    {
        "col0": "Woolworth Estate",
        "col1": "1916",
        "col2": "1979-05-17",
        "col3": "79001593"
    },
    {
        "col0": "Woolwich Town House",
        "col1": "1837",
        "col2": "1978-02-17",
        "col3": "78000199"
    },
    {
        "col0": "Woolslair Elementary School",
        "col1": "1897",
        "col2": "1986-09-30",
        "col3": "86002718"
    },
    {
        "col0": "Woolsey Ranchhouse Ruins",
        "col1": "1863",
        "col2": "1977-11-07",
        "col3": "77000240"
    },
    {
        "col0": "Woolsey Bridge",
        "col1": "1925",
        "col2": "2000-06-09",
        "col3": "637"
    },
    {
        "col0": "Woolery Stone Company",
        "col1": "1948",
        "col2": "2002-12-20",
        "col3": "2001563"
    },
    {
        "col0": "Woolen Mills Chapel",
        "col1": "1887",
        "col2": "1982-10-21",
        "col3": "82001815"
    },
    {
        "col0": "Wooldridge Park",
        "col1": "1909",
        "col2": "1979-08-01",
        "col3": "79003018"
    },
    {
        "col0": "Wooldridge Monuments",
        "col1": "1892",
        "col2": "1980-08-11",
        "col3": "80001533"
    },
    {
        "col0": "Woolaroc",
        "col1": "1925",
        "col2": "2008-12-05",
        "col3": "8001151"
    },
    {
        "col0": "Wool Warehouse",
        "col1": "1929",
        "col2": "1981-07-23",
        "col3": "81000400"
    },
    {
        "col0": "Woodworth House",
        "col1": "1823",
        "col2": "1996-04-09",
        "col3": "96000317"
    },
    {
        "col0": "Woodwardville Historic District",
        "col1": "1872",
        "col2": "2003-11-08",
        "col3": "3001115"
    },
    {
        "col0": "Woodward Road Stone Arch Bridge",
        "col1": "1887",
        "col2": "2009-03-09",
        "col3": "9000134"
    },
    {
        "col0": "Woodward Inn",
        "col1": "1814",
        "col2": "1978-12-18",
        "col3": "78002367"
    },
    {
        "col0": "Woodward Houses",
        "col1": "1745",
        "col2": "1979-04-20",
        "col3": "79000639"
    },
    {
        "col0": "Woodward House",
        "col1": "1782",
        "col2": "1974-06-19",
        "col3": "74002243"
    },
    {
        "col0": "Woodward Heights, Lexington",
        "col1": "1818",
        "col2": "1977-12-16",
        "col3": "77000615"
    },
    {
        "col0": "Woodward Hall",
        "col1": "1931",
        "col2": "2014-05-12",
        "col3": "14000206"
    },
    {
        "col0": "Woodward Federal Courthouse and Post Office",
        "col1": "1921",
        "col2": "2007-09-06",
        "col3": "7000915"
    },
    {
        "col0": "Woodward Avenue Presbyterian Church",
        "col1": "1911",
        "col2": "1982-08-03",
        "col3": "82002916"
    },
    {
        "col0": "Woodward & Lothrop Service Warehouse",
        "col1": "39",
        "col2": "2005-02-15",
        "col3": "5000046"
    },
    {
        "col0": "Woodville School",
        "col1": "1923",
        "col2": "2004-02-11",
        "col3": "4000042"
    },
    {
        "col0": "Woodville Historic District",
        "col1": "1816",
        "col2": "1982-09-30",
        "col3": "82003122, 93001200, 99000594, 01001127"
    },
    {
        "col0": "Woodville Historic District",
        "col1": "1801",
        "col2": "1998-08-28",
        "col3": "98001112"
    },
    {
        "col0": "Woodville",
        "col1": "1814",
        "col2": "1979-05-10",
        "col3": "79000714"
    },
    {
        "col0": "Woodville",
        "col1": "1819",
        "col2": "1979-06-22",
        "col3": "79000695"
    },
    {
        "col0": "Woodville",
        "col1": "1785",
        "col2": "1974-02-05",
        "col3": "74001733"
    },
    {
        "col0": "Woodview",
        "col1": "1744",
        "col2": "1990-10-25",
        "col3": "90001574"
    },
    {
        "col0": "Woodvale Historic District",
        "col1": "1890",
        "col2": "1992-07-24",
        "col3": "92000942"
    },
    {
        "col0": "Woodsville Opera Building",
        "col1": "1890",
        "col2": "1980-05-15",
        "col3": "80000288"
    },
    {
        "col0": "Woodstock Warren Through Truss Bridge",
        "col1": "1925",
        "col2": "1992-08-18",
        "col3": "92000987"
    },
    {
        "col0": "Woodstock Opera House",
        "col1": "1889",
        "col2": "1974-07-17",
        "col3": "74002184"
    },
    {
        "col0": "Woodstock Hall Tavern",
        "col1": "1757",
        "col2": "1987-01-29",
        "col3": "86003735"
    },
    {
        "col0": "Woodstock Academy Classroom Building",
        "col1": "1873",
        "col2": "1984-02-16",
        "col3": "84001176"
    },
    {
        "col0": "Woodstock",
        "col1": "1743",
        "col2": "1973-09-07",
        "col3": "73000551"
    },
    {
        "col0": "Woodstock",
        "col1": "1850",
        "col2": "1987-09-21",
        "col3": "87001573"
    },
    {
        "col0": "Woodstock",
        "col1": "1783",
        "col2": "1980-11-25",
        "col3": "80002844"
    },
    {
        "col0": "Woodstock",
        "col1": "1851",
        "col2": "1989-06-29",
        "col3": "89000782"
    },
    {
        "col0": "Woodson Farmstead",
        "col1": "1895",
        "col2": "1998-04-30",
        "col3": "98000422"
    },
    {
        "col0": "Woodson County Courthouse",
        "col1": "1899",
        "col2": "1985-10-10",
        "col3": "85002951"
    },
    {
        "col0": "Woodson's Mill",
        "col1": "1825",
        "col2": "1992-12-17",
        "col3": "92001703"
    },
    {
        "col0": "Woodside Methodist Episcopal Church",
        "col1": "1889",
        "col2": "1996-02-16",
        "col3": "96000107"
    },
    {
        "col0": "Woodside Cotton Mill Village Historic District",
        "col1": "1902",
        "col2": "1987-04-30",
        "col3": "87000678"
    },
    {
        "col0": "Woodside",
        "col1": "1858",
        "col2": "1973-07-24",
        "col3": "73002021"
    },
    {
        "col0": "Woodside",
        "col1": "1860",
        "col2": "1985-09-13",
        "col3": "85002119"
    },
    {
        "col0": "Woodside",
        "col1": "1838",
        "col2": "1986-03-06",
        "col3": "86000420"
    },
    {
        "col0": "Woodside",
        "col1": "1798",
        "col2": "1973-03-07",
        "col3": "73001357"
    },
    {
        "col0": "Woodside",
        "col1": "1800",
        "col2": "2009-08-12",
        "col3": "9000616"
    },
    {
        "col0": "Woodside",
        "col1": "1860",
        "col2": "1993-11-16",
        "col3": "93000040"
    },
    {
        "col0": "Woodside",
        "col1": "1861",
        "col2": "1982-02-19",
        "col3": "82002048"
    },
    {
        "col0": "Woodside",
        "col1": "1823",
        "col2": "1979-11-01",
        "col3": "79001134"
    },
    {
        "col0": "Woodsboro and Frederick Turnpike Company Tollhouse",
        "col1": "1850",
        "col2": "1979-09-24",
        "col3": "79003276"
    },
    {
        "col0": "Woods Mill Farm",
        "col1": "1770",
        "col2": "2007-08-15",
        "col3": "7000812"
    },
    {
        "col0": "Woods Landing Dance Hall",
        "col1": "1932",
        "col2": "1985-12-13",
        "col3": "85003210"
    },
    {
        "col0": "Woods Hole School",
        "col1": "1870",
        "col2": "1982-10-21",
        "col3": "82000473"
    },
    {
        "col0": "Woods Hill",
        "col1": "1951",
        "col2": "2014-02-05",
        "col3": "13001161"
    },
    {
        "col0": "Woods End Road Historic District",
        "col1": "1938",
        "col2": "1988-07-08",
        "col3": "88000956"
    },
    {
        "col0": "Woods-Meade House",
        "col1": "1830",
        "col2": "1982-07-08",
        "col3": "82004557"
    },
    {
        "col0": "Woods-Gerry House",
        "col1": "1860",
        "col2": "1971-02-12",
        "col3": "71000003"
    },
    {
        "col0": "Woodrums' Building",
        "col1": "1916",
        "col2": "1996-04-18",
        "col3": "96000439"
    },
    {
        "col0": "Woodruff Stake House",
        "col1": "1900",
        "col2": "2000-12-28",
        "col3": "1586"
    },
    {
        "col0": "Woodruff House",
        "col1": "1780",
        "col2": "1989-01-19",
        "col3": "88003097"
    },
    {
        "col0": "Woodruff House",
        "col1": "1850",
        "col2": "1978-12-11",
        "col3": "78001800"
    },
    {
        "col0": "Woodruff County Courthouse",
        "col1": "1901",
        "col2": "1982-12-22",
        "col3": "82000959"
    },
    {
        "col0": "Woodruff Cabin Site",
        "col1": "1871",
        "col2": "1970-02-26",
        "col3": "70000671"
    },
    {
        "col0": "Woodrow Wilson School",
        "col1": "1917",
        "col2": "2012-10-24",
        "col3": "12000881"
    },
    {
        "col0": "Woodrow Wilson Presidential Library",
        "col1": "1846",
        "col2": "1966-10-15",
        "col3": "66000926"
    },
    {
        "col0": "Woodrow Wilson Junior High School",
        "col1": "1927",
        "col2": "1996-03-25",
        "col3": "96000285"
    },
    {
        "col0": "Woodrow Wilson Junior High School",
        "col1": "1927",
        "col2": "1986-12-04",
        "col3": "86003347"
    },
    {
        "col0": "Woodrow Wilson Junior High School",
        "col1": "1924",
        "col2": "1990-10-25",
        "col3": "90001602"
    },
    {
        "col0": "Woodrow Wilson House",
        "col1": "1915",
        "col2": "1966-10-15",
        "col3": "66000873"
    },
    {
        "col0": "Woodrow Wilson Bridge",
        "col1": "1925",
        "col2": "1988-11-16",
        "col3": "88002485"
    },
    {
        "col0": "Woodrow Wilson Boyhood Home",
        "col1": "1840",
        "col2": "1979-02-28",
        "col3": "79000746"
    },
    {
        "col0": "Woodrow Store",
        "col1": "1927",
        "col2": "2001-01-04",
        "col3": "1592"
    },
    {
        "col0": "Woodrow Methodist Church",
        "col1": "1842",
        "col2": "1982-10-29",
        "col3": "82001265"
    },
    {
        "col0": "Woodrow Memorial Presbyterian Church",
        "col1": "1885",
        "col2": "1979-03-02",
        "col3": "79003366"
    },
    {
        "col0": "Woodridge",
        "col1": "1831",
        "col2": "2005-07-06",
        "col3": "5000658"
    },
    {
        "col0": "Woodmont Terrace Apartments",
        "col1": "1938",
        "col2": "2003-04-21",
        "col3": "3000280"
    },
    {
        "col0": "Woodmont",
        "col1": "1891",
        "col2": "1998-08-05",
        "col3": "98001192"
    },
    {
        "col0": "Woodmen of the World Lodge-Phoenix Camp No. 32",
        "col1": "1915",
        "col2": "1996-01-19",
        "col3": "95001551"
    },
    {
        "col0": "Woodmen of the World Building",
        "col1": "1923",
        "col2": "1992-02-14",
        "col3": "92000012"
    },
    {
        "col0": "Woodmen of Union Building",
        "col1": "1923",
        "col2": "1997-06-27",
        "col3": "97000616"
    },
    {
        "col0": "Woodman Road Historic District",
        "col1": "1830",
        "col2": "1983-04-11",
        "col3": "83001152"
    },
    {
        "col0": "Woodman Institute Museum",
        "col1": "1675",
        "col2": "1980-07-24",
        "col3": "80000317"
    },
    {
        "col0": "Woodman Building",
        "col1": "1867",
        "col2": "1972-02-23",
        "col3": "72000075"
    },
    {
        "col0": "Woodley Park, Washington, D.C.",
        "col1": "1905",
        "col2": "1990-06-15",
        "col3": "90000856"
    },
    {
        "col0": "Woodledge",
        "col1": "1935",
        "col2": "1988-07-28",
        "col3": "88001161"
    },
    {
        "col0": "Woodlawn School Building",
        "col1": "1921",
        "col2": "1993-02-25",
        "col3": "93000086"
    },
    {
        "col0": "Woodlawn School",
        "col1": "1911",
        "col2": "1991-11-29",
        "col3": "91001745"
    },
    {
        "col0": "Woodlawn Quaker Meetinghouse",
        "col1": "1853",
        "col2": "2009-05-21",
        "col3": "9000335"
    },
    {
        "col0": "Woodlawn National Cemetery",
        "col1": "1864",
        "col2": "2004-10-06",
        "col3": "4001117"
    },
    {
        "col0": "Woodlawn Museum",
        "col1": "1824",
        "col2": "1969-12-23",
        "col3": "69000026"
    },
    {
        "col0": "Woodlawn Historic District",
        "col1": "1885",
        "col2": "1995-11-07",
        "col3": "95001250"
    },
    {
        "col0": "Woodlawn Historic District",
        "col1": "1880",
        "col2": "1979-03-26",
        "col3": "79000907"
    },
    {
        "col0": "Woodlawn Garden of Memories Cemetery",
        "col1": "1931",
        "col2": "2004-10-22",
        "col3": "4001174"
    },
    {
        "col0": "Woodlawn Farm",
        "col1": "1790",
        "col2": "2008-04-11",
        "col3": "8000277"
    },
    {
        "col0": "Woodlawn Farm",
        "col1": "1840",
        "col2": "2007-06-06",
        "col3": "7000146"
    },
    {
        "col0": "Woodlawn Cemetery",
        "col1": "1876",
        "col2": "1998-11-19",
        "col3": "98001396"
    },
    {
        "col0": "Woodlawn Cemetery",
        "col1": "1875",
        "col2": "2004-04-14",
        "col3": "4000305"
    },
    {
        "col0": "Woodlawn Cemetery",
        "col1": "1864",
        "col2": "2004-10-06",
        "col3": "4001117"
    },
    {
        "col0": "Woodlawn Cemetery",
        "col1": "1852",
        "col2": "2013-07-23",
        "col3": "13000535"
    },
    {
        "col0": "Woodlawn Baptist Church and Cemetery",
        "col1": "1927",
        "col2": "1996-12-02",
        "col3": "96001358"
    },
    {
        "col0": "Woodlawn Avenue Row",
        "col1": "1898",
        "col2": "1986-03-19",
        "col3": "86000690"
    },
    {
        "col0": "Woodlawn",
        "col1": "1800",
        "col2": "1970-02-26",
        "col3": "70000792, 11000836 (Boundary Increase)"
    },
    {
        "col0": "Woodlawn",
        "col1": "1815",
        "col2": "2005-05-26",
        "col3": "5000478"
    },
    {
        "col0": "Woodlawn",
        "col1": "1853",
        "col2": "1982-10-19",
        "col3": "82001863"
    },
    {
        "col0": "Woodlawn",
        "col1": "1822",
        "col2": "1978-11-21",
        "col3": "78002584"
    },
    {
        "col0": "Woodlawn",
        "col1": "1816",
        "col2": "1980-07-16",
        "col3": "80004187"
    },
    {
        "col0": "Woodlawn",
        "col1": "1820",
        "col2": "2000-03-24",
        "col3": "254"
    }
]