[
    {
        "col0": "Z. Nagy",
        "col1": "E. Kustarova",
        "col2": "M. Fejes",
        "col3": "G. Elek",
        "col4": "1986-6-10"
    },
    {
        "col0": "Z. Xun",
        "col1": "N. Linichuk",
        "col2": "Z. Yue",
        "col3": "H. Xintong",
        "col4": "1987-8-21"
    },
    {
        "col0": "Z. Hao",
        "col1": "L. Nichol",
        "col2": "Y. Xiaoyu",
        "col3": "Z. Dan",
        "col4": "1984-7-6"
    },
    {
        "col0": "Z. Donohue",
        "col1": "M. Dubreuil",
        "col2": "M. Hubbell",
        "col3": "P. Gilles",
        "col4": "1991-1-8"
    },
    {
        "col0": "Y. Kavaguti",
        "col1": "P. Tchernyshev",
        "col2": "A. Smirnov",
        "col3": "A. Markuntsov",
        "col4": "1981-11-20"
    },
    {
        "col0": "Y. Xiaoyu",
        "col1": "D. Wilson",
        "col2": "Z. Hao",
        "col3": "J. Yang",
        "col4": "1996-1-2"
    },
    {
        "col0": "V. James",
        "col1": "L. Haddad",
        "col2": "M. Cipres",
        "col3": "Y. Bonheur",
        "col4": "1987-9-27"
    },
    {
        "col0": "V. Zenkova",
        "col1": "A. Zhulin",
        "col2": "V. Sinitsin",
        "col3": "R. Zhiganshin",
        "col4": "1995-4-7"
    },
    {
        "col0": "T. Zahorski",
        "col1": "A. Zhulin",
        "col2": "J. Guerreiro",
        "col3": "A. Miart",
        "col4": "1994-8-16"
    },
    {
        "col0": "T. Volosozhar",
        "col1": "N. Morozov",
        "col2": "M. Trankov",
        "col3": "S. Morozov",
        "col4": "1986-5-22"
    },
    {
        "col0": "S. Mozgov",
        "col1": "E. Kustarova",
        "col2": "B. Popova",
        "col3": "A. Yanovskaya",
        "col4": "1995-3-10"
    },
    {
        "col0": "R. Zhiganshin",
        "col1": "A. Najarro",
        "col2": "E. Ilinykh",
        "col3": "V. Sinitsina",
        "col4": "1992-9-25"
    },
    {
        "col0": "R. L. Gac",
        "col1": "M. Dubreuil",
        "col2": "M. Lauriault",
        "col3": "E. Elizabeth",
        "col4": "1995-5-31"
    },
    {
        "col0": "R. Paxton",
        "col1": "K. Johnson",
        "col2": "E. Risseeuw",
        "col3": "T. Steele",
        "col4": "1983-10-20"
    },
    {
        "col0": "P. Gilles",
        "col1": "P. Poirier",
        "col2": "P. Poirier",
        "col3": "Z. Donohue",
        "col4": "1992-1-16"
    },
    {
        "col0": "P. Carron",
        "col1": "L. Jones",
        "col2": "L. Jones",
        "col3": "M. Jost",
        "col4": "1986-8-20"
    },
    {
        "col0": "P. Cheng",
        "col1": "L. Nichol",
        "col2": "J. Yang",
        "col3": "Z. Hao",
        "col4": "1997-4-23"
    },
    {
        "col0": "P. Poirier",
        "col1": "J. Razgulajevs",
        "col2": "P. Gilles",
        "col3": "V. Crone",
        "col4": "1991-11-6"
    },
    {
        "col0": "O. Japaridze",
        "col1": "E. Platov",
        "col2": "A. Telegina",
        "col3": "I. Tobias",
        "col4": "1987-12-23"
    },
    {
        "col0": "O. Hotarek",
        "col1": "M. Scali",
        "col2": "V. Marchei",
        "col3": "V. Havlickova",
        "col4": "1984-1-25"
    },
    {
        "col0": "N. Sorensen",
        "col1": "M. Dubreuil",
        "col2": "L. F. Beaudry",
        "col3": "K. Good",
        "col4": "1989-2-18"
    },
    {
        "col0": "N. Moroshkin",
        "col1": "I. Shpilband",
        "col2": "E. Kosigina",
        "col3": "V. Starygina",
        "col4": "1993-11-15"
    },
    {
        "col0": "N. Katsalapov",
        "col1": "N. Morozov",
        "col2": "V. Sinitsina",
        "col3": "E. Ilinykh",
        "col4": "1991-7-10"
    },
    {
        "col0": "N. Orford",
        "col1": "J. Razgulajevs",
        "col2": "A. Hill",
        "col3": "T. Williams",
        "col4": "1992-10-10"
    },
    {
        "col0": "N. Kaliszek",
        "col1": "S. Nowak-Trebacka",
        "col2": "M. Spodyriev",
        "col3": "M. Kaliszek",
        "col4": "1996-5-17"
    },
    {
        "col0": "N. Takahashi",
        "col1": "N. Morozov",
        "col2": "R. Shibata",
        "col3": "M. Tran",
        "col4": "1992-1-15"
    },
    {
        "col0": "M. Islam",
        "col1": "R. Haguenauer",
        "col2": "A. Paul",
        "col3": "J. Lenko",
        "col4": "1990-1-24"
    },
    {
        "col0": "M. Fei",
        "col1": "G. Sretenski",
        "col2": "G. Jiameimei",
        "col3": "W. Jiayue",
        "col4": "1985-1-23"
    },
    {
        "col0": "M. Trankov",
        "col1": "N. Morozov",
        "col2": "T. Volosozhar",
        "col3": "A. Ulanov",
        "col4": "1983-10-7"
    },
    {
        "col0": "M. Novak",
        "col1": "M. Staviski",
        "col2": "G. Kubova",
        "col3": "L. Mysliveckova",
        "col4": "1989-11-6"
    },
    {
        "col0": "M. Blackmer",
        "col1": "P. Camerlengo",
        "col2": "A. Aldridge",
        "col3": "B. Simpson",
        "col4": "1991-12-12"
    },
    {
        "col0": "M. Novak",
        "col1": "M. Staviski",
        "col2": "G. Kubova",
        "col3": "L. Mysliveckova",
        "col4": "1989-11-6"
    },
    {
        "col0": "M. Fabbri",
        "col1": "B. Fusar-Poli",
        "col2": "C. Guignard",
        "col3": "S. Berton",
        "col4": "1988-2-2"
    },
    {
        "col0": "M. Hubbell",
        "col1": "M. Dubreuil",
        "col2": "Z. Donohue",
        "col3": "K. Hubbell",
        "col4": "1991-2-24"
    },
    {
        "col0": "M. Chock",
        "col1": "I. Shpilband",
        "col2": "E. Bates",
        "col3": "G. Zuerlein",
        "col4": "1992-7-2"
    },
    {
        "col0": "M. Bent",
        "col1": "J. Razgulajevs",
        "col2": "D. Razgulajevs",
        "col3": "G. MacKeen",
        "col4": "1997-6-11"
    },
    {
        "col0": "L. Ilyushechkina",
        "col1": "D. Wilson",
        "col2": "D. Moscovitch",
        "col3": "N. Maisuradze",
        "col4": "1991-11-5"
    },
    {
        "col0": "L. Jones",
        "col1": "P. Carron",
        "col2": "P. Carron",
        "col3": "L. Rogers",
        "col4": "1988-8-1"
    },
    {
        "col0": "L. Bonacorsi",
        "col1": "M. Scali",
        "col2": "F. Fioretti",
        "col3": "T. Mager",
        "col4": "1993-1-17"
    },
    {
        "col0": "K. Navarro",
        "col1": "N. Linichuk",
        "col2": "B. Bommentre",
        "col3": "R. Shmalo",
        "col4": "1981-4-26"
    },
    {
        "col0": "K. Lorenz",
        "col1": "I. Shpilband",
        "col2": "J. Polizoakis",
        "col3": "Y. Kholoniuk",
        "col4": "1995-9-5"
    },
    {
        "col0": "J. Partanen",
        "col1": "M. Zueva",
        "col2": "C. Torn",
        "col3": "S. Aghai",
        "col4": "1991-7-15"
    },
    {
        "col0": "J. Seguin",
        "col1": "M. Dubreuil",
        "col2": "C. Bilodeau",
        "col3": "A. Evans",
        "col4": "1996-11-7"
    },
    {
        "col0": "J. Jacobsen",
        "col1": "R. Rocca",
        "col2": "A. Dobbs",
        "col3": "B. Butler",
        "col4": "1987-2-9"
    },
    {
        "col0": "J. Coughlin",
        "col1": "C. Dean",
        "col2": "C. Denney",
        "col3": "C. Yankowskas",
        "col4": "1985-12-1"
    },
    {
        "col0": "J. Yang",
        "col1": "D. Wilson",
        "col2": "P. Cheng",
        "col3": "Y. Xiaoyu",
        "col4": "1994-5-16"
    },
    {
        "col0": "J. Calalang",
        "col1": "P. Camerlengo",
        "col2": "Z. Sidhu",
        "col3": "D. O'Shea",
        "col4": "1995-2-24"
    }
]