[
    {
        "col0": "O'Donnell House",
        "col1": "F. P. Milburn",
        "col2": "9712",
        "col3": "1996-04-25"
    },
    {
        "col0": "O'Blenis House",
        "col1": "E. Pettersen",
        "col2": "16187",
        "col3": "1986-08-29"
    },
    {
        "col0": "Nut Grove",
        "col1": "A. J. Davis",
        "col2": "32374",
        "col3": "1974-07-30"
    },
    {
        "col0": "Noyes House",
        "col1": "E. Noyes",
        "col2": "24281",
        "col3": "2008-09-26"
    },
    {
        "col0": "Notleymere",
        "col1": "R. W. Gibson",
        "col2": "12545",
        "col3": "1991-07-15"
    },
    {
        "col0": "Norwich State Hospital",
        "col1": "C. &. Woodworth",
        "col2": "283279",
        "col3": "1988-01-22"
    },
    {
        "col0": "Northwest Davenport Turner Society Hall",
        "col1": "F. G. Clausen",
        "col2": "4046",
        "col3": "1979-07-10"
    },
    {
        "col0": "Northumberland Apartments",
        "col1": "H. Wardman",
        "col2": "1618",
        "col3": "1980-03-25"
    },
    {
        "col0": "Northside United Methodist Church",
        "col1": "S. Hannaford",
        "col2": "4046",
        "col3": "1980-03-03"
    },
    {
        "col0": "Northside Presbyterian Church",
        "col1": "R. H. Hunt",
        "col2": "8903",
        "col3": "1980-09-15"
    },
    {
        "col0": "Northfield Union Church",
        "col1": "Dow, Wheeler & Bodwell",
        "col2": "9307",
        "col3": "1984-03-15"
    },
    {
        "col0": "Northern Pacific Railway Depot",
        "col1": "C. Gilbert",
        "col2": "4046",
        "col3": "1975-02-13"
    },
    {
        "col0": "Northern Pacific Railway Depot",
        "col1": "R. &. Stem",
        "col2": "4046",
        "col3": "1977-09-19"
    },
    {
        "col0": "North Side Fargo High Style Residential Historic District",
        "col1": "Walter & George Hancock",
        "col2": "47348",
        "col3": "1987-04-07"
    },
    {
        "col0": "North Shore Sanitary District Tower",
        "col1": "S. A. Greeley",
        "col2": "1214",
        "col3": "1983-06-30"
    },
    {
        "col0": "North Rim Road, Black Canyon of the Gunnison National Park",
        "col1": "N. Branch",
        "col2": "934823",
        "col3": "2005-09-06"
    },
    {
        "col0": "North Liberty Park",
        "col1": "W. P. Administration",
        "col2": "28327",
        "col3": "2007-03-29"
    },
    {
        "col0": "North Jefferson Street Historic District",
        "col1": "E. Dunlap",
        "col2": "1294994",
        "col3": "2010-03-31"
    },
    {
        "col0": "North Inlet Trail",
        "col1": "N. P. Service",
        "col2": "140425",
        "col3": "2008-03-05"
    },
    {
        "col0": "North Casper Clubhouse",
        "col1": "G. a. Krusmark",
        "col2": "8093",
        "col3": "1994-02-18"
    },
    {
        "col0": "North Carolina Executive Mansion",
        "col1": "S. Sloan",
        "col2": "36421",
        "col3": "1970-02-26"
    },
    {
        "col0": "Norlin Quadrangle Historic District",
        "col1": "C. Klauder",
        "col2": "135569",
        "col3": "1980-03-27"
    },
    {
        "col0": "Nightingale-Brown House",
        "col1": "C. Ormsbee",
        "col2": "4046",
        "col3": "1989-06-29"
    },
    {
        "col0": "Niels Petersen House",
        "col1": "J. M. Creighton",
        "col2": "11735",
        "col3": "1978-01-05"
    },
    {
        "col0": "Nicollet County Courthouse and Jail",
        "col1": "E. P. Bassford",
        "col2": "8903",
        "col3": "2002-09-06"
    },
    {
        "col0": "Nicholson File Company Mill Complex",
        "col1": "W. &. Gould",
        "col2": "28327",
        "col3": "2005-08-22"
    },
    {
        "col0": "Newark Symphony Hall",
        "col1": "G. Associates",
        "col2": "4275",
        "col3": "1977-10-05"
    },
    {
        "col0": "Newark City Hall",
        "col1": "John H. & Wilson C. Ely",
        "col2": "8093",
        "col3": "1978-02-17"
    },
    {
        "col0": "New York Life Building",
        "col1": "C. Gilbert",
        "col2": "10117",
        "col3": "1978-06-02"
    },
    {
        "col0": "New Scotland Avenue",
        "col1": "L. Pilcher",
        "col2": "12140",
        "col3": "1994-01-28"
    },
    {
        "col0": "New Milford",
        "col1": "H. Railroad",
        "col2": "4046",
        "col3": "1984-03-01"
    },
    {
        "col0": "New London Customhouse",
        "col1": "R. Mills",
        "col2": "8093",
        "col3": "1970-10-15"
    },
    {
        "col0": "New Jersey Historical Society",
        "col1": "G. a. Betelle",
        "col2": "809",
        "col3": "1991-02-22"
    },
    {
        "col0": "New Jersey Bell Headquarters Building",
        "col1": "R. T. Walker",
        "col2": "4046",
        "col3": "2005-09-21"
    },
    {
        "col0": "New Imperial Hotel",
        "col1": "W. &. Lewis",
        "col2": "809",
        "col3": "2003-10-24"
    },
    {
        "col0": "New Haven County Courthouse",
        "col1": "W. H. Allen",
        "col2": "4856",
        "col3": "2003-05-16"
    },
    {
        "col0": "New Haven City Hall and County Courthouse",
        "col1": "H. Austin",
        "col2": "8093",
        "col3": "1975-09-09"
    },
    {
        "col0": "New Hampshire Apartments",
        "col1": "J. B. DeRemer",
        "col2": "4046",
        "col3": "1982-10-26"
    },
    {
        "col0": "New Castle and Frenchtown Railroad Right-of-Way",
        "col1": "J. R. Jr.",
        "col2": "0",
        "col3": "1976-09-01"
    },
    {
        "col0": "New Bedford Historic District",
        "col1": "R. Mills",
        "col2": "79318",
        "col3": "1966-11-13"
    },
    {
        "col0": "Nevada Governor's Mansion",
        "col1": "G. A. Ferris",
        "col2": "7284",
        "col3": "1976-10-22"
    },
    {
        "col0": "Nester House",
        "col1": "H. T. Lindeberg",
        "col2": "10117",
        "col3": "1984-04-09"
    },
    {
        "col0": "Naval Reserve Armory",
        "col1": "B. M. Priteca",
        "col2": "5746",
        "col3": "2009-07-08"
    },
    {
        "col0": "Naulakha",
        "col1": "H. R. Marshall",
        "col2": "44515",
        "col3": "1979-04-11"
    },
    {
        "col0": "National Park Seminary",
        "col1": "E. E. Holman",
        "col2": "93077",
        "col3": "1972-09-14"
    },
    {
        "col0": "National Museum of Women in the Arts",
        "col1": "W. B. Wood",
        "col2": "1214",
        "col3": "1987-02-18"
    },
    {
        "col0": "National Bank of Washington, Washington Branch",
        "col1": "J. G. Hill",
        "col2": "809",
        "col3": "1974-05-08"
    },
    {
        "col0": "Nathaniel Bacon School",
        "col1": "C. M. Robinson",
        "col2": "12545",
        "col3": "1992-08-24"
    },
    {
        "col0": "Nathan Clifford School",
        "col1": "J. C. Stevens",
        "col2": "1214",
        "col3": "2013-12-18"
    },
    {
        "col0": "Natchaug Forest Lumber Shed",
        "col1": "C. C. Corps",
        "col2": "2832",
        "col3": "1986-09-04"
    },
    {
        "col0": "Nashville Children's Museum",
        "col1": "A. Heiman",
        "col2": "16187",
        "col3": "1971-05-06"
    },
    {
        "col0": "Nashua Manufacturing Company Historic District",
        "col1": "A. Benjamin",
        "col2": "246858",
        "col3": "1987-09-11"
    },
    {
        "col0": "Naples Memorial Town Hall",
        "col1": "A. J. Warner & Company",
        "col2": "8903",
        "col3": "1996-05-13"
    },
    {
        "col0": "Napa County Courthouse Plaza",
        "col1": "W. H. Corlett",
        "col2": "5260",
        "col3": "1992-06-18"
    },
    {
        "col0": "Nampa Historic District",
        "col1": "T. &. Hummel",
        "col2": "12140",
        "col3": "1983-08-18"
    },
    {
        "col0": "Mystic Valley Parkway",
        "col1": "O. Brothers",
        "col2": "89030",
        "col3": "2006-01-18"
    },
    {
        "col0": "My Old Kentucky Home State Park",
        "col1": "J. Rowan",
        "col2": "951011",
        "col3": "1971-03-11"
    },
    {
        "col0": "Muskingum County Courthouse",
        "col1": "T. Townsend",
        "col2": "4046",
        "col3": "1973-07-16"
    },
    {
        "col0": "Murry Guggenheim House",
        "col1": "C. a. Hastings",
        "col2": "28327",
        "col3": "1978-03-28"
    },
    {
        "col0": "Murdock School",
        "col1": "H. M. Francis",
        "col2": "8093",
        "col3": "1988-01-28"
    },
    {
        "col0": "Munson Valley Historic District",
        "col1": "N. P. Service",
        "col2": "24281",
        "col3": "1988-12-01"
    },
    {
        "col0": "Munroe Building",
        "col1": "S. &. Stearns",
        "col2": "4856",
        "col3": "1989-09-20"
    },
    {
        "col0": "Municipal Group Historic District",
        "col1": "H. a. Richardson",
        "col2": "33386",
        "col3": "1987-11-10"
    },
    {
        "col0": "Municipal Building",
        "col1": "G. &. Sheffey",
        "col2": "2023",
        "col3": "1979-05-29"
    },
    {
        "col0": "Muhlenberg County Courthouse",
        "col1": "W. J. Dodd",
        "col2": "1618",
        "col3": "1978-12-22"
    },
    {
        "col0": "Mt. Zion Presbyterian Church",
        "col1": "W. &. Sompayrac",
        "col2": "20234",
        "col3": "2003-07-17"
    },
    {
        "col0": "Mrs. Isaac D. Adler House",
        "col1": "D. Adler",
        "col2": "12140",
        "col3": "2002-08-28"
    },
    {
        "col0": "Mrs. I. L. Crego House",
        "col1": "A. Russell",
        "col2": "6070",
        "col3": "2007-06-27"
    },
    {
        "col0": "Mrs. A. W. Gridley House",
        "col1": "F. L. Wright",
        "col2": "9307",
        "col3": "1993-02-03"
    },
    {
        "col0": "Mountrail County Courthouse",
        "col1": "B. &. Orth",
        "col2": "8498",
        "col3": "1978-12-22"
    },
    {
        "col0": "Mount Zion Memorial Church",
        "col1": "B. D. Price",
        "col2": "10117",
        "col3": "2007-11-01"
    },
    {
        "col0": "Mount Vernon Place United Methodist Church and Asbury House",
        "col1": "T. Dixon",
        "col2": "1618",
        "col3": "1971-09-17"
    },
    {
        "col0": "Mount Pleasant Armory",
        "col1": "W. W. Co.",
        "col2": "1618",
        "col3": "1989-12-22"
    },
    {
        "col0": "Mount Kisco Municipal Complex",
        "col1": "M. B. Schmidt",
        "col2": "0",
        "col3": "1997-03-09"
    },
    {
        "col0": "Mount Hood Masonic Temple",
        "col1": "S. &. Whitney",
        "col2": "2023",
        "col3": "2008-05-29"
    },
    {
        "col0": "Mount Feake Cemetery",
        "col1": "R. M. Copeland",
        "col2": "343982",
        "col3": "1989-09-28"
    },
    {
        "col0": "Mother of Sorrows Catholic Church",
        "col1": "W. P. Ginther",
        "col2": "4046",
        "col3": "1995-03-09"
    },
    {
        "col0": "Mosman House",
        "col1": "M. Fuller",
        "col2": "809",
        "col3": "1978-12-15"
    },
    {
        "col0": "Mosher House",
        "col1": "F. L. Wright",
        "col2": "4046",
        "col3": "1979-06-15"
    },
    {
        "col0": "Morrow County Courthouse",
        "col1": "E. M. Lazarus",
        "col2": "4046",
        "col3": "1985-02-28"
    },
    {
        "col0": "Morrison House",
        "col1": "S. Hannaford",
        "col2": "10117",
        "col3": "1973-04-03"
    },
    {
        "col0": "Morris Marks House",
        "col1": "W. H. Williams",
        "col2": "809",
        "col3": "1975-12-30"
    },
    {
        "col0": "Morris Arboretum",
        "col1": "W. Eyre",
        "col2": "708199",
        "col3": "1978-12-22"
    },
    {
        "col0": "Morgan Building",
        "col1": "D. &. Patterson",
        "col2": "2023",
        "col3": "1996-09-12"
    },
    {
        "col0": "Morgan-Gold House",
        "col1": "D. Morgan",
        "col2": "16187",
        "col3": "1985-07-08"
    },
    {
        "col0": "Moqui Ranger Station",
        "col1": "Architects of the United States Forest Service",
        "col2": "8093",
        "col3": "1993-06-10"
    },
    {
        "col0": "Montgomery Place",
        "col1": "A. J. Davis",
        "col2": "1756335",
        "col3": "1975-05-02"
    },
    {
        "col0": "Montgomery County Courthouse",
        "col1": "B. &. Benton",
        "col2": "4046",
        "col3": "1979-05-10"
    },
    {
        "col0": "Montgomery County Courthouse",
        "col1": "A. Blair",
        "col2": "6070",
        "col3": "1980-09-18"
    },
    {
        "col0": "Montgomery Building",
        "col1": "Lockwood, Greene & Co.",
        "col2": "6272",
        "col3": "2011-05-25"
    },
    {
        "col0": "Montezuma Fuller House",
        "col1": "M. Fuller",
        "col2": "404",
        "col3": "1978-12-15"
    },
    {
        "col0": "Monterey State Historic Park",
        "col1": "T. O. Larkin",
        "col2": "324962",
        "col3": "1970-04-15"
    },
    {
        "col0": "Montauk Manor",
        "col1": "S. &. Weaver",
        "col2": "48562",
        "col3": "1984-08-23"
    },
    {
        "col0": "Montauk Association Historic District",
        "col1": "F. L. Olmsted",
        "col2": "404685",
        "col3": "1976-10-22"
    },
    {
        "col0": "Montalvo Arts Center",
        "col1": "W. Curlett",
        "col2": "716293",
        "col3": "1978-05-01"
    },
    {
        "col0": "Monroe Residential Historic District",
        "col1": "W. &. Stern",
        "col2": "732481",
        "col3": "1988-01-06"
    },
    {
        "col0": "Monnett Memorial M. E. Chapel",
        "col1": "F. Packard",
        "col2": "9307",
        "col3": "1986-12-29"
    },
    {
        "col0": "Monjeau Lookout",
        "col1": "C. C. Corps",
        "col2": "3642",
        "col3": "1988-01-27"
    },
    {
        "col0": "Monastery of the Precious Blood",
        "col1": "J. Jacobberger",
        "col2": "9307",
        "col3": "1985-02-14"
    },
    {
        "col0": "Monastery of Our Lady of Charity",
        "col1": "Leo M. J. Dielmann",
        "col2": "27518",
        "col3": "1999-06-25"
    },
    {
        "col0": "Monaghan Mill",
        "col1": "Lockwood, Greene & Co.",
        "col2": "67987",
        "col3": "2005-10-04"
    },
    {
        "col0": "Modjeska House",
        "col1": "S. White",
        "col2": "56655",
        "col3": "1972-12-11"
    },
    {
        "col0": "Mistletoe Villa",
        "col1": "S. Sloan",
        "col2": "9955",
        "col3": "1978-09-10"
    },
    {
        "col0": "Missouri Theatre",
        "col1": "B. Brothers",
        "col2": "1214",
        "col3": "1979-06-06"
    },
    {
        "col0": "Missouri, Kansas, and Texas Railroad Depot",
        "col1": "M. Railroad",
        "col2": "1214",
        "col3": "1979-01-29"
    },
    {
        "col0": "Minterburn Mill",
        "col1": "C. R. Makepeace & Company",
        "col2": "20638",
        "col3": "1984-02-16"
    },
    {
        "col0": "Minnetrista Boulevard Historic District",
        "col1": "W. &. Mahurin",
        "col2": "36826",
        "col3": "2012-04-10"
    },
    {
        "col0": "Minnesota State Sanatorium for Consumptives",
        "col1": "Clarence H. Johnston, Sr.",
        "col2": "713056",
        "col3": "2001-07-25"
    },
    {
        "col0": "Minnesota State Public School for Dependent and Neglected Children",
        "col1": "W. Dunnell",
        "col2": "40063",
        "col3": "1975-05-12"
    },
    {
        "col0": "Minnesota Home School for Girls Historic District",
        "col1": "Clarence H. Johnston, Sr.",
        "col2": "335889",
        "col3": "1989-01-19"
    },
    {
        "col0": "Milwaukee County Dispensary and Emergency Hospital",
        "col1": "Van Ryn & DeGelleke",
        "col2": "22257",
        "col3": "1985-03-21"
    },
    {
        "col0": "Milton W. Smith House",
        "col1": "W. &. Lewis",
        "col2": "809",
        "col3": "1980-01-11"
    },
    {
        "col0": "Milton Railroad Station",
        "col1": "Wilson Brothers & Company",
        "col2": "2468",
        "col3": "2007-08-28"
    },
    {
        "col0": "Milton Armory",
        "col1": "W. W. Co.",
        "col2": "2023",
        "col3": "1991-07-12"
    },
    {
        "col0": "Millwood Historic District",
        "col1": "H. Whitehouse",
        "col2": "80937",
        "col3": "2001-02-02"
    },
    {
        "col0": "Miles City Main Post Office",
        "col1": "O. Wenderoth",
        "col2": "2023",
        "col3": "1986-03-14"
    },
    {
        "col0": "Migeon Avenue Historic District",
        "col1": "Frederick Law Olmsted, Jr.",
        "col2": "52609",
        "col3": "2002-09-06"
    },
    {
        "col0": "Midtown Woodward Historic District",
        "col1": "A. Kahn",
        "col2": "35207",
        "col3": "2008-11-26"
    },
    {
        "col0": "Middlesex Canal",
        "col1": "J. Sullivan",
        "col2": "991479",
        "col3": "1972-08-21"
    },
    {
        "col0": "Michigan Central Station",
        "col1": "W. a. Wetmore",
        "col2": "46451",
        "col3": "1975-04-16"
    },
    {
        "col0": "Michigan Central Railroad Chelsea Depot",
        "col1": "M. a. Rice",
        "col2": "3237",
        "col3": "1987-06-12"
    },
    {
        "col0": "Michigan Bell and Western Electric Warehouse",
        "col1": "SmithGroupJJR",
        "col2": "13759",
        "col3": "2009-12-08"
    },
    {
        "col0": "Mianus River Railroad Bridge",
        "col1": "A. B. Company",
        "col2": "4046",
        "col3": "1987-06-12"
    },
    {
        "col0": "Miantonomi Memorial Park",
        "col1": "McKim, Mead & White",
        "col2": "129499",
        "col3": "1969-06-23"
    },
    {
        "col0": "Metropolitan Theatre",
        "col1": "C. W. Bates",
        "col2": "1214",
        "col3": "1984-01-12"
    },
    {
        "col0": "Metropolitan Life Insurance Company Hall of Records",
        "col1": "D. E. Waid",
        "col2": "3925",
        "col3": "2014-09-03"
    },
    {
        "col0": "Methodist Episcopal Church",
        "col1": "J. A. Shannon",
        "col2": "1214",
        "col3": "2008-07-16"
    },
    {
        "col0": "Merrill Lock No. 6",
        "col1": "United States Army Corps of Engineers",
        "col2": "9833",
        "col3": "1980-09-04"
    },
    {
        "col0": "Merrick County Courthouse",
        "col1": "W. F. Gernandt",
        "col2": "6879",
        "col3": "1990-01-10"
    },
    {
        "col0": "Meridian City Hall",
        "col1": "P. Krouse",
        "col2": "4046",
        "col3": "1979-12-18"
    },
    {
        "col0": "Mercer County Courthouse",
        "col1": "C. Owsley",
        "col2": "9712",
        "col3": "1998-11-12"
    },
    {
        "col0": "Mercado de las Carnes",
        "col1": "R. Carmoega",
        "col2": "942",
        "col3": "1986-11-17"
    },
    {
        "col0": "Menominee County Courthouse",
        "col1": "G. P. Randall",
        "col2": "8093",
        "col3": "1975-03-07"
    },
    {
        "col0": "Menokin",
        "col1": "J. Ariss",
        "col2": "2387645",
        "col3": "1969-10-01"
    },
    {
        "col0": "Memorial Arch of Tilton",
        "col1": "Dow, Wheeler & Bodwell",
        "col2": "8093",
        "col3": "1980-05-19"
    },
    {
        "col0": "Medford Southern Pacific Railroad Passenger Depot",
        "col1": "S. P. Railroad",
        "col2": "2185",
        "col3": "1996-06-03"
    },
    {
        "col0": "Mechanic Institute",
        "col1": "M. &. Mayo",
        "col2": "1214",
        "col3": "1980-05-13"
    },
    {
        "col0": "Meadow Marsh",
        "col1": "F. H. Trimble",
        "col2": "48562",
        "col3": "1996-11-15"
    },
    {
        "col0": "McMaster School",
        "col1": "W. A. Edwards",
        "col2": "8093",
        "col3": "1997-07-25"
    },
    {
        "col0": "McLean County Courthouse",
        "col1": "H. Bros.",
        "col2": "8498",
        "col3": "1985-11-14"
    },
    {
        "col0": "McKinley Park School",
        "col1": "George A. Ferris and Son",
        "col2": "10926",
        "col3": "1985-09-16"
    },
    {
        "col0": "Mayslake Peabody Estate",
        "col1": "M. a. Fox",
        "col2": "352076",
        "col3": "1994-11-08"
    },
    {
        "col0": "Mayo Building",
        "col1": "G. Winkler",
        "col2": "4046",
        "col3": "2008-12-04"
    },
    {
        "col0": "Maynard Buehler House",
        "col1": "F. L. Wright",
        "col2": "371",
        "col3": "2006-12-12"
    },
    {
        "col0": "Maupin Section Foreman's House",
        "col1": "U. P. Railroad",
        "col2": "23067",
        "col3": "2006-11-29"
    },
    {
        "col0": "Maud and Belle Ainsworth House",
        "col1": "W. C. Knighton",
        "col2": "2670",
        "col3": "1986-02-27"
    }
]