[
    {
        "col0": "WEGM",
        "col1": "1890",
        "col2": "R&R",
        "col3": "WCTA-FM(1996-2001)"
    },
    {
        "col0": "WDVI",
        "col1": "37546",
        "col2": "R&R",
        "col3": "WVOR-FM (1963-2006)"
    },
    {
        "col0": "WDIN",
        "col1": "27954",
        "col2": "R&R",
        "col3": "WCHQ-FM(1978-1997)"
    },
    {
        "col0": "WDEZ",
        "col1": "70522",
        "col2": "R&R",
        "col3": "WRIG-FM"
    },
    {
        "col0": "WCZT",
        "col1": "39914",
        "col2": "R&R",
        "col3": "WFNN (1992-1998)"
    },
    {
        "col0": "WCMQ-FM",
        "col1": "61640",
        "col2": "R&R",
        "col3": "WHMS-FM (1969-1974)"
    },
    {
        "col0": "WCLU-FM",
        "col1": "61047",
        "col2": "R&R",
        "col3": "WLOC-FM (1979-1996)"
    },
    {
        "col0": "WBYT",
        "col1": "51723",
        "col2": "R&R",
        "col3": "WLTA (1991-1994)"
    },
    {
        "col0": "WBYR",
        "col1": "55659",
        "col2": "R&R",
        "col3": "WERT-FM (1979-1987)"
    },
    {
        "col0": "WBYA",
        "col1": "41105",
        "col2": "R&R",
        "col3": "WAYD (1999-2001)"
    },
    {
        "col0": "WBVX",
        "col1": "30191",
        "col2": "R&R",
        "col3": "WCAK (1994-1997)"
    },
    {
        "col0": "WBVR-FM",
        "col1": "71244",
        "col2": "R&R",
        "col3": "WAKQ (1976-1984)"
    },
    {
        "col0": "WBOW",
        "col1": "51153",
        "col2": "R&R",
        "col3": "WACF (1974-2006)"
    },
    {
        "col0": "WBOB",
        "col1": "53588",
        "col2": "R&R",
        "col3": "WBWL (1996-2010)"
    },
    {
        "col0": "WBGG-FM",
        "col1": "11965",
        "col2": "R&R",
        "col3": "WAXY (1971-1983)"
    },
    {
        "col0": "WAZZ",
        "col1": "72058",
        "col2": "R&R",
        "col3": "WFLB (2/18/48-3/01/97)"
    },
    {
        "col0": "WASN",
        "col1": "72100",
        "col2": "R&R",
        "col3": "WGFT"
    },
    {
        "col0": "WAMR-FM",
        "col1": "61658",
        "col2": "R&R",
        "col3": "WIGL (1974-1979)"
    },
    {
        "col0": "WAKY-FM",
        "col1": "70495",
        "col2": "R&R",
        "col3": "WAKY (2007-2014)"
    },
    {
        "col0": "WAJI",
        "col1": "59132",
        "col2": "R&R",
        "col3": "WFWQ (1982-1985)"
    },
    {
        "col0": "WAIX",
        "col1": "41582",
        "col2": "R&R",
        "col3": "WABY (2002-2014)"
    },
    {
        "col0": "WAFL",
        "col1": "53482",
        "col2": "R&R",
        "col3": "WAFL (1973-1981)"
    },
    {
        "col0": "WAAC",
        "col1": "72122",
        "col2": "R&R",
        "col3": "WGOV-FM (1978-1984)"
    },
    {
        "col0": "KZMZ",
        "col1": "63199",
        "col2": "R&R",
        "col3": "KALB-FM (1947-1979)"
    },
    {
        "col0": "KYSE",
        "col1": "39612",
        "col2": "R&R",
        "col3": "KAMA-FM (1991-1992)"
    },
    {
        "col0": "KXCA",
        "col1": "61593",
        "col2": "R&R",
        "col3": "KCCO (1956-1987)"
    },
    {
        "col0": "KWVE",
        "col1": "54760",
        "col2": "R&R",
        "col3": "KGDP (January 22, 1990 to November 2009)"
    },
    {
        "col0": "KWPW",
        "col1": "57377",
        "col2": "R&R",
        "col3": "KAND-FM (1985-1994)"
    },
    {
        "col0": "KWML",
        "col1": "63950",
        "col2": "R&R",
        "col3": "KGRT (02/2014-12/2014)"
    },
    {
        "col0": "KUSJ",
        "col1": "60803",
        "col2": "R&R",
        "col3": "KIXS(1987-1990)"
    },
    {
        "col0": "KTRC",
        "col1": "12970",
        "col2": "R&R",
        "col3": "KVSF (1992-2002)"
    },
    {
        "col0": "KTBB-FM",
        "col1": "17835",
        "col2": "R&R",
        "col3": "KWRW (?-2015)"
    },
    {
        "col0": "KSTT-FM",
        "col1": "42066",
        "col2": "R&R",
        "col3": "KIQO (?-2016)"
    },
    {
        "col0": "KSTE",
        "col1": "22883",
        "col2": "R&R",
        "col3": "KMCE (1987-1991)"
    },
    {
        "col0": "KSOF",
        "col1": "54560",
        "col2": "R&R",
        "col3": "KJOI (1990-1997)"
    },
    {
        "col0": "KSMA",
        "col1": "4123",
        "col2": "R&R",
        "col3": "KSMA (?-2007)"
    },
    {
        "col0": "KRZI",
        "col1": "87179",
        "col2": "R&R",
        "col3": "KAXY (1998-1999)"
    },
    {
        "col0": "KRXR",
        "col1": "2805",
        "col2": "R&R",
        "col3": "KIDI (1985-1986)"
    },
    {
        "col0": "KROM",
        "col1": "67071",
        "col2": "R&R",
        "col3": "KITY(1947-1990)"
    },
    {
        "col0": "KRMG-FM",
        "col1": "47102",
        "col2": "Nielsen Audio Quarterly Report",
        "col3": "KKCM (2005-2009)"
    },
    {
        "col0": "KRKR",
        "col1": "54707",
        "col2": "R&R",
        "col3": "KJUS (1985-1987)"
    },
    {
        "col0": "KRIV-FM",
        "col1": "27534",
        "col2": "R&R",
        "col3": "KHME (1991-2015)"
    },
    {
        "col0": "KRDO-FM",
        "col1": "50402",
        "col2": "R&R",
        "col3": "KBZE (1989-1991)"
    },
    {
        "col0": "KQRT",
        "col1": "51731",
        "col2": "R&R",
        "col3": "KRBO (1989-1996)"
    },
    {
        "col0": "KQNT",
        "col1": "60421",
        "col2": "R&R",
        "col3": "KAQQ (1986-2002)"
    },
    {
        "col0": "KPSI",
        "col1": "67355",
        "col2": "R&R",
        "col3": "KDES (1987-1994)"
    },
    {
        "col0": "KPLY",
        "col1": "50304",
        "col2": "R&R",
        "col3": "KHIT(1996-1998)"
    },
    {
        "col0": "KOYE",
        "col1": "70387",
        "col2": "R&R",
        "col3": "KLIS (?-2001)"
    },
    {
        "col0": "KOY",
        "col1": "63914",
        "col2": "R&R",
        "col3": "KAMJ (1990-1991)"
    },
    {
        "col0": "KOOI",
        "col1": "70740",
        "col2": "R&R",
        "col3": "KEBE-FM (1968-1975)"
    },
    {
        "col0": "KOND",
        "col1": "26266",
        "col2": "R&R",
        "col3": "KCML (1991-1993)"
    },
    {
        "col0": "KOAS",
        "col1": "25692",
        "col2": "R&R",
        "col3": "KBYE (2000-2001)"
    },
    {
        "col0": "KOAI",
        "col1": "16770",
        "col2": "Nielsen Audiohttp://ratings.radio-online.com/cgi-bin/rol.exe/arb057",
        "col3": "KFMR (1996-2005)"
    },
    {
        "col0": "KLOK-FM",
        "col1": "49100",
        "col2": "R&R",
        "col3": "KKHI-FM (1994-1994)"
    },
    {
        "col0": "KLNZ",
        "col1": "48738",
        "col2": "R&R",
        "col3": "KCWB (1993-1993, CP)"
    },
    {
        "col0": "KLMJ",
        "col1": "25914",
        "col2": "R&R",
        "col3": "KWGG(1982-1993)"
    },
    {
        "col0": "KLFX",
        "col1": "60090",
        "col2": "R&R",
        "col3": "KKFF (1993-1994)"
    },
    {
        "col0": "KKUS",
        "col1": "68651",
        "col2": "R&R",
        "col3": "KGKB (1989-1990)"
    },
    {
        "col0": "KKHB",
        "col1": "61580",
        "col2": "R&R",
        "col3": "KECA (1988-1993)"
    },
    {
        "col0": "KKCY",
        "col1": "52507",
        "col2": "R&R",
        "col3": "KKLU (1989-1990)"
    },
    {
        "col0": "KKCD",
        "col1": "74103",
        "col2": "R&R",
        "col3": "KKVU(1990-1991)"
    },
    {
        "col0": "KJMN",
        "col1": "10056",
        "col2": "R&R",
        "col3": "KADX (1984-1988)"
    },
    {
        "col0": "KIXW",
        "col1": "4",
        "col2": "R&R",
        "col3": "KQKL(1989-1991)"
    },
    {
        "col0": "KIBG",
        "col1": "83460",
        "col2": "R&R",
        "col3": "KSIL (1996-2004)"
    },
    {
        "col0": "KHTN",
        "col1": "20334",
        "col2": "R&R",
        "col3": "KLBS-FM (1978-1982)"
    },
    {
        "col0": "KHMY",
        "col1": "37122",
        "col2": "R&R",
        "col3": "KDGB (1998-2003)"
    },
    {
        "col0": "KHIT-FM",
        "col1": "51845",
        "col2": "R&R",
        "col3": "KJDN (1990-1992)"
    },
    {
        "col0": "KHHZ",
        "col1": "50709",
        "col2": "R&R",
        "col3": "KEWE (1979-1996)"
    },
    {
        "col0": "KFRO",
        "col1": "70455",
        "col2": "Radio-info",
        "col3": "KFRO (1935-Present)"
    },
    {
        "col0": "KEGA",
        "col1": "89255",
        "col2": "R&R",
        "col3": "KKIK (2003-2003)"
    },
    {
        "col0": "KECH-FM",
        "col1": "1163",
        "col2": "R&R",
        "col3": "KWRU(1988)"
    },
    {
        "col0": "KDVV",
        "col1": "62237",
        "col2": "R&R",
        "col3": "KTOP-FM (1960-1976)"
    },
    {
        "col0": "KCYY",
        "col1": "48718",
        "col2": "R&R",
        "col3": "KBER-FM (1966-1974)"
    },
    {
        "col0": "KCST-FM",
        "col1": "12139",
        "col2": "R&R",
        "col3": "KPVX (7/1992-11/1992)"
    },
    {
        "col0": "KCHJ-FM",
        "col1": "35108",
        "col2": "R&R",
        "col3": "KIWI (1963-2003)"
    },
    {
        "col0": "KCCY-FM",
        "col1": "40847",
        "col2": "R&R",
        "col3": "KCCY (1979-2012)"
    },
    {
        "col0": "KCBS",
        "col1": "9637",
        "col2": "Nielsen (San Francisco market)",
        "col3": "KQW (1921-1949)"
    },
    {
        "col0": "KBZS",
        "col1": "52074",
        "col2": "R&R",
        "col3": "KTLT(1984-2003)"
    },
    {
        "col0": "KBYN",
        "col1": "15005",
        "col2": "R&R",
        "col3": "DKBYN(1994-1995)"
    },
    {
        "col0": "KBRQ",
        "col1": "60805",
        "col2": "R&R",
        "col3": "KJNE(1983-1994)"
    },
    {
        "col0": "KBLS",
        "col1": "65598",
        "col2": "R&R",
        "col3": "KXDJ(1990-1991)"
    },
    {
        "col0": "KBKK",
        "col1": "86913",
        "col2": "R&R",
        "col3": "KBFU (1998-1998)"
    },
    {
        "col0": "KBGO",
        "col1": "33724",
        "col2": "R&R",
        "col3": "KCKR(1993-2003)"
    },
    {
        "col0": "KBCE",
        "col1": "67947",
        "col2": "R&R",
        "col3": "KFQM(1981-1982)"
    },
    {
        "col0": "KAMZ",
        "col1": "77643",
        "col2": "R&R",
        "col3": "KAWD (1997-2000)"
    },
    {
        "col0": "KAHL",
        "col1": "67070",
        "col2": "R&R",
        "col3": "KONJ (1993-1993)"
    }
]