[
    {
        "col0": "Pichidangui Airport",
        "col1": "Pichidangui",
        "col2": "SCDI",
        "col3": "29"
    },
    {
        "col0": "Pibor Airport",
        "col1": "South Sudan",
        "col2": "(Location of Pibor Airport in South Sudan)",
        "col3": "412"
    },
    {
        "col0": "Piarco International Airport",
        "col1": "Port of Spain",
        "col2": "TTPP",
        "col3": "17"
    },
    {
        "col0": "Phulbani Airstrip",
        "col1": "Phulbani",
        "col2": "VEPN",
        "col3": "529"
    },
    {
        "col0": "Phuket International Airport",
        "col1": "Thailand",
        "col2": "VTSP",
        "col3": "24"
    },
    {
        "col0": "Phu Cat Airport",
        "col1": "Qui NhAE!n",
        "col2": "VVPC",
        "col3": "24"
    },
    {
        "col0": "Phu Bai International Airport",
        "col1": "Hue",
        "col2": "(Location of airport in Vietnam)",
        "col3": "14"
    },
    {
        "col0": "Phoenix-Mesa Gateway Airport",
        "col1": "Phoenix metropolitan area",
        "col2": "KIWA",
        "col3": "421"
    },
    {
        "col0": "Phoenix Sky Harbor International Airport",
        "col1": "Phoenix metropolitan area",
        "col2": "KPHX",
        "col3": "345"
    },
    {
        "col0": "Phoenix Goodyear Airport",
        "col1": "Phoenix, Arizona",
        "col2": "KGYR",
        "col3": "295"
    },
    {
        "col0": "Phoenix Deer Valley Airport",
        "col1": "Phoenix, Arizona",
        "col2": "KDVT",
        "col3": "450"
    },
    {
        "col0": "Phoenix-Mesa Gateway Airport",
        "col1": "Phoenix metropolitan area",
        "col2": "KIWA",
        "col3": "421"
    },
    {
        "col0": "Phnom Penh International Airport",
        "col1": "Cambodia",
        "col2": "(Location of airport in Cambodia)",
        "col3": "12"
    },
    {
        "col0": "Phitsanulok Airport",
        "col1": "Thailand",
        "col2": "(Location of airport in Thailand)",
        "col3": "46"
    },
    {
        "col0": "Philip S. W. Goldson International Airport",
        "col1": "Belize City",
        "col2": "MZBZ",
        "col3": "5"
    },
    {
        "col0": "Philadelphia Municipal Airport",
        "col1": "Philadelphia, Mississippi",
        "col2": "KMPE",
        "col3": "139"
    }
]