[
    {
        "col0": "Roman Catholic Diocese of Matagalpa",
        "col1": "Roman Catholic Archdiocese of Managua",
        "col2": "Roman Catholic Archdiocese of Managua",
        "col3": "Roman Catholic Archdiocese of Managua",
        "col4": "Roman Catholic Archdiocese of Managua",
        "col5": "6794000000",
        "col6": "6794000000"
    },
    {
        "col0": "Roman Catholic Diocese of Massa Marittima-Piombino",
        "col1": "Roman Catholic Archdiocese of Siena-Colle di Val d'Elsa-Montalcino",
        "col2": "Roman Catholic Archdiocese of Siena-Colle di Val d'Elsa-Montalcino",
        "col3": "Roman Catholic Archdiocese of Siena-Colle di Val d'Elsa-Montalcino",
        "col4": "Roman Catholic Archdiocese of Siena-Colle di Val d'Elsa-Montalcino",
        "col5": "1200000000",
        "col6": "1200000000"
    },
    {
        "col0": "Roman Catholic Diocese of Massa Carrara-Pontremoli",
        "col1": "Roman Catholic Archdiocese of Pisa",
        "col2": "Roman Catholic Archdiocese of Pisa",
        "col3": "Roman Catholic Archdiocese of Pisa",
        "col4": "Roman Catholic Archdiocese of Pisa",
        "col5": "1186000000",
        "col6": "1186000000"
    },
    {
        "col0": "Roman Catholic Diocese of Masbate",
        "col1": "Roman Catholic Archdiocese of Caceres",
        "col2": "Roman Catholic Archdiocese of Caceres",
        "col3": "Roman Catholic Archdiocese of Caceres",
        "col4": "Roman Catholic Archdiocese of Caceres",
        "col5": "7000000000",
        "col6": "7000000000"
    },
    {
        "col0": "Roman Catholic Diocese of Masan",
        "col1": "Roman Catholic Archdiocese of Daegu",
        "col2": "Roman Catholic Archdiocese of Daegu",
        "col3": "Roman Catholic Archdiocese of Daegu",
        "col4": "Roman Catholic Archdiocese of Daegu",
        "col5": "9045000000",
        "col6": "9045000000"
    },
    {
        "col0": "Roman Catholic Diocese of Marilia",
        "col1": "Roman Catholic Archdiocese of Botucatu",
        "col2": "Roman Catholic Archdiocese of Botucatu",
        "col3": "Roman Catholic Archdiocese of Botucatu",
        "col4": "Roman Catholic Archdiocese of Botucatu",
        "col5": "11943000000",
        "col6": "11943000000"
    },
    {
        "col0": "Roman Catholic Diocese of Marquette",
        "col1": "Archdiocese of Detroit",
        "col2": "Archdiocese of Detroit",
        "col3": "Archdiocese of Detroit",
        "col4": "Archdiocese of Detroit",
        "col5": "42167596424",
        "col6": "42167596424"
    },
    {
        "col0": "Roman Catholic Diocese of Margarita",
        "col1": "Roman Catholic Archdiocese of Cumana",
        "col2": "Roman Catholic Archdiocese of Cumana",
        "col3": "Roman Catholic Archdiocese of Cumana",
        "col4": "Roman Catholic Archdiocese of Cumana",
        "col5": "1050000000",
        "col6": "1050000000"
    },
    {
        "col0": "Roman Catholic Diocese of Marbel",
        "col1": "Roman Catholic Archdiocese of Cotabato",
        "col2": "Roman Catholic Archdiocese of Cotabato",
        "col3": "Roman Catholic Archdiocese of Cotabato",
        "col4": "Roman Catholic Archdiocese of Cotabato",
        "col5": "10000000000",
        "col6": "10000000000"
    },
    {
        "col0": "Roman Catholic Diocese of Maracay",
        "col1": "Roman Catholic Archdiocese of Valencia en Venezuela",
        "col2": "Roman Catholic Archdiocese of Valencia en Venezuela",
        "col3": "Roman Catholic Archdiocese of Valencia en Venezuela",
        "col4": "Roman Catholic Archdiocese of Valencia en Venezuela",
        "col5": "7014000000",
        "col6": "7014000000"
    },
    {
        "col0": "Roman Catholic Diocese of Maraba",
        "col1": "Roman Catholic Archdiocese of Belem do Para",
        "col2": "Roman Catholic Archdiocese of Belem do Para",
        "col3": "Roman Catholic Archdiocese of Belem do Para",
        "col4": "Roman Catholic Archdiocese of Belem do Para",
        "col5": "81832000000",
        "col6": "81832000000"
    },
    {
        "col0": "Roman Catholic Diocese of Mar del Plata",
        "col1": "Roman Catholic Archdiocese of La Plata in Argentina",
        "col2": "Roman Catholic Archdiocese of La Plata in Argentina",
        "col3": "Roman Catholic Archdiocese of La Plata in Argentina",
        "col4": "Roman Catholic Archdiocese of La Plata in Argentina",
        "col5": "22895000000",
        "col6": "22895000000"
    },
    {
        "col0": "Roman Catholic Diocese of Marilia",
        "col1": "Roman Catholic Archdiocese of Botucatu",
        "col2": "Roman Catholic Archdiocese of Botucatu",
        "col3": "Roman Catholic Archdiocese of Botucatu",
        "col4": "Roman Catholic Archdiocese of Botucatu",
        "col5": "11943000000",
        "col6": "11943000000"
    },
    {
        "col0": "Roman Catholic Diocese of Mao-Monte Cristi",
        "col1": "Roman Catholic Archdiocese of Santiago de los Caballeros",
        "col2": "Roman Catholic Archdiocese of Santiago de los Caballeros",
        "col3": "Roman Catholic Archdiocese of Santiago de los Caballeros",
        "col4": "Roman Catholic Archdiocese of Santiago de los Caballeros",
        "col5": "4841000000",
        "col6": "4841000000"
    },
    {
        "col0": "Roman Catholic Diocese of Mantua",
        "col1": "Roman Catholic Archdiocese of Milan",
        "col2": "Roman Catholic Archdiocese of Milan",
        "col3": "Roman Catholic Archdiocese of Milan",
        "col4": "Roman Catholic Archdiocese of Milan",
        "col5": "2080000000",
        "col6": "2080000000"
    },
    {
        "col0": "Roman Catholic Diocese of Mansa",
        "col1": "Roman Catholic Archdiocese of Kasama",
        "col2": "Roman Catholic Archdiocese of Kasama",
        "col3": "Roman Catholic Archdiocese of Kasama",
        "col4": "Roman Catholic Archdiocese of Kasama",
        "col5": "44000000000",
        "col6": "44000000000"
    },
    {
        "col0": "Roman Catholic Diocese of Manokwari-Sorong",
        "col1": "Roman Catholic Archdiocese of Merauke",
        "col2": "Roman Catholic Archdiocese of Merauke",
        "col3": "Roman Catholic Archdiocese of Merauke",
        "col4": "Roman Catholic Archdiocese of Merauke",
        "col5": "111835000000",
        "col6": "111835000000"
    },
    {
        "col0": "Roman Catholic Diocese of Mannar",
        "col1": "Roman Catholic Archdiocese of Colombo",
        "col2": "Roman Catholic Archdiocese of Colombo",
        "col3": "Roman Catholic Archdiocese of Colombo",
        "col4": "Roman Catholic Archdiocese of Colombo",
        "col5": "3998000000",
        "col6": "3998000000"
    },
    {
        "col0": "Roman Catholic Diocese of Mangalore",
        "col1": "Roman Catholic Archdiocese of Bangalore",
        "col2": "Roman Catholic Archdiocese of Bangalore",
        "col3": "Roman Catholic Archdiocese of Bangalore",
        "col4": "Roman Catholic Archdiocese of Bangalore",
        "col5": "5924000000",
        "col6": "5924000000"
    },
    {
        "col0": "Roman Catholic Diocese of Mandeville",
        "col1": "Roman Catholic Archdiocese of Kingston in Jamaica",
        "col2": "Roman Catholic Archdiocese of Kingston in Jamaica",
        "col3": "Roman Catholic Archdiocese of Kingston in Jamaica",
        "col4": "Roman Catholic Archdiocese of Kingston in Jamaica",
        "col5": "3282000000",
        "col6": "3282000000"
    },
    {
        "col0": "Roman Catholic Diocese of Manchester",
        "col1": "Roman Catholic Archdiocese of Boston",
        "col2": "Roman Catholic Archdiocese of Boston",
        "col3": "Roman Catholic Archdiocese of Boston",
        "col4": "Roman Catholic Archdiocese of Boston",
        "col5": "24099839366",
        "col6": "24099839366"
    },
    {
        "col0": "Roman Catholic Diocese of Manado",
        "col1": "Roman Catholic Archdiocese of Makassar",
        "col2": "Roman Catholic Archdiocese of Makassar",
        "col3": "Roman Catholic Archdiocese of Makassar",
        "col4": "Roman Catholic Archdiocese of Makassar",
        "col5": "90000000000",
        "col6": "90000000000"
    },
    {
        "col0": "Roman Catholic Diocese of Malolos",
        "col1": "Roman Catholic Archdiocese of Manila",
        "col2": "Roman Catholic Archdiocese of Manila",
        "col3": "Roman Catholic Archdiocese of Manila",
        "col4": "Roman Catholic Archdiocese of Manila",
        "col5": "2672000000",
        "col6": "2672000000"
    },
    {
        "col0": "Roman Catholic Diocese of Maldonado-Punta del Este",
        "col1": "Roman Catholic Archdiocese of Montevideo",
        "col2": "Roman Catholic Archdiocese of Montevideo",
        "col3": "Roman Catholic Archdiocese of Montevideo",
        "col4": "Roman Catholic Archdiocese of Montevideo",
        "col5": "13000000000",
        "col6": "13000000000"
    },
    {
        "col0": "Roman Catholic Diocese of Malaybalay",
        "col1": "Roman Catholic Archdiocese of Cagayan de Oro",
        "col2": "Roman Catholic Archdiocese of Cagayan de Oro",
        "col3": "Roman Catholic Archdiocese of Cagayan de Oro",
        "col4": "Roman Catholic Archdiocese of Cagayan de Oro",
        "col5": "8293000000",
        "col6": "8293000000"
    },
    {
        "col0": "Roman Catholic Diocese of Malang",
        "col1": "Roman Catholic Archdiocese of Semarang",
        "col2": "Roman Catholic Archdiocese of Semarang",
        "col3": "Roman Catholic Archdiocese of Semarang",
        "col4": "Roman Catholic Archdiocese of Semarang",
        "col5": "24409000000",
        "col6": "24409000000"
    },
    {
        "col0": "Roman Catholic Diocese of Malacca-Johor",
        "col1": "Roman Catholic Archdiocese of Kuala Lumpur",
        "col2": "Roman Catholic Archdiocese of Kuala Lumpur",
        "col3": "Roman Catholic Archdiocese of Kuala Lumpur",
        "col4": "Roman Catholic Archdiocese of Kuala Lumpur",
        "col5": "20364000000",
        "col6": "20364000000"
    },
    {
        "col0": "Roman Catholic Diocese of Makurdi",
        "col1": "Roman Catholic Archdiocese of Abuja",
        "col2": "Roman Catholic Archdiocese of Abuja",
        "col3": "Roman Catholic Archdiocese of Abuja",
        "col4": "Roman Catholic Archdiocese of Abuja",
        "col5": "24461000000",
        "col6": "24461000000"
    },
    {
        "col0": "Roman Catholic Diocese of Majorca",
        "col1": "Roman Catholic Archdiocese of Valencia in Spain",
        "col2": "Roman Catholic Archdiocese of Valencia in Spain",
        "col3": "Roman Catholic Archdiocese of Valencia in Spain",
        "col4": "Roman Catholic Archdiocese of Valencia in Spain",
        "col5": "3604000000",
        "col6": "3604000000"
    },
    {
        "col0": "Roman Catholic Diocese of Maiduguri",
        "col1": "Roman Catholic Archdiocese of Jos",
        "col2": "Roman Catholic Archdiocese of Jos",
        "col3": "Roman Catholic Archdiocese of Jos",
        "col4": "Roman Catholic Archdiocese of Jos",
        "col5": "132000000000",
        "col6": "132000000000"
    },
    {
        "col0": "Roman Catholic Diocese of Magdeburg",
        "col1": "Roman Catholic Archdiocese of Paderborn",
        "col2": "Roman Catholic Archdiocese of Paderborn",
        "col3": "Roman Catholic Archdiocese of Paderborn",
        "col4": "Roman Catholic Archdiocese of Paderborn",
        "col5": "23000000000",
        "col6": "23000000000"
    },
    {
        "col0": "Roman Catholic Diocese of Magangue",
        "col1": "Roman Catholic Archdiocese of Cartagena",
        "col2": "Roman Catholic Archdiocese of Cartagena",
        "col3": "Roman Catholic Archdiocese of Cartagena",
        "col4": "Roman Catholic Archdiocese of Cartagena",
        "col5": "20165000000",
        "col6": "20165000000"
    },
    {
        "col0": "Roman Catholic Diocese of Madison",
        "col1": "Archdiocese of Milwaukee",
        "col2": "Archdiocese of Milwaukee",
        "col3": "Archdiocese of Milwaukee",
        "col4": "Archdiocese of Milwaukee",
        "col5": "20901204050",
        "col6": "20901204050"
    },
    {
        "col0": "Roman Catholic Diocese of Mackenzie-Fort Smith",
        "col1": "Roman Catholic Archdiocese of Grouard-McLennan",
        "col2": "Roman Catholic Archdiocese of Grouard-McLennan",
        "col3": "Roman Catholic Archdiocese of Grouard-McLennan",
        "col4": "Roman Catholic Archdiocese of Grouard-McLennan",
        "col5": "1523400000000",
        "col6": "1523400000000"
    },
    {
        "col0": "Roman Catholic Diocese of Machala",
        "col1": "Roman Catholic Archdiocese of Cuenca",
        "col2": "Roman Catholic Archdiocese of Cuenca",
        "col3": "Roman Catholic Archdiocese of Cuenca",
        "col4": "Roman Catholic Archdiocese of Cuenca",
        "col5": "5819000000",
        "col6": "5819000000"
    },
    {
        "col0": "Roman Catholic Diocese of Macerata-Tolentino-Recanati-Cingoli-Treia",
        "col1": "Roman Catholic Archdiocese of Fermo",
        "col2": "Roman Catholic Archdiocese of Fermo",
        "col3": "Roman Catholic Archdiocese of Fermo",
        "col4": "Roman Catholic Archdiocese of Fermo",
        "col5": "745000000",
        "col6": "745000000"
    },
    {
        "col0": "Roman Catholic Diocese of Macapa",
        "col1": "Roman Catholic Archdiocese of Belem do Para",
        "col2": "Roman Catholic Archdiocese of Belem do Para",
        "col3": "Roman Catholic Archdiocese of Belem do Para",
        "col4": "Roman Catholic Archdiocese of Belem do Para",
        "col5": "148000000000",
        "col6": "148000000000"
    },
    {
        "col0": "Roman Catholic Diocese of Maasin",
        "col1": "Roman Catholic Archdiocese of Cebu",
        "col2": "Roman Catholic Archdiocese of Cebu",
        "col3": "Roman Catholic Archdiocese of Cebu",
        "col4": "Roman Catholic Archdiocese of Cebu",
        "col5": "2505000000",
        "col6": "2505000000"
    },
    {
        "col0": "Roman Catholic Diocese of My Tho",
        "col1": "Roman Catholic Archdiocese of Ho Chi Minh city",
        "col2": "Roman Catholic Archdiocese of Ho Chi Minh city",
        "col3": "Roman Catholic Archdiocese of Ho Chi Minh city",
        "col4": "Roman Catholic Archdiocese of Ho Chi Minh city",
        "col5": "9262000000",
        "col6": "9262000000"
    },
    {
        "col0": "Roman Catholic Diocese of Munster",
        "col1": "Roman Catholic Archdiocese of Cologne",
        "col2": "Roman Catholic Archdiocese of Cologne",
        "col3": "Roman Catholic Archdiocese of Cologne",
        "col4": "Roman Catholic Archdiocese of Cologne",
        "col5": "15268000000",
        "col6": "15268000000"
    },
    {
        "col0": "Roman Catholic Diocese of Malaga-Soata",
        "col1": "Roman Catholic Archdiocese of Bucaramanga",
        "col2": "Roman Catholic Archdiocese of Bucaramanga",
        "col3": "Roman Catholic Archdiocese of Bucaramanga",
        "col4": "Roman Catholic Archdiocese of Bucaramanga",
        "col5": "7466000000",
        "col6": "7466000000"
    },
    {
        "col0": "Roman Catholic Diocese of Malaga",
        "col1": "Roman Catholic Archdiocese of Granada",
        "col2": "Roman Catholic Archdiocese of Granada",
        "col3": "Roman Catholic Archdiocese of Granada",
        "col4": "Roman Catholic Archdiocese of Granada",
        "col5": "7283000000",
        "col6": "7283000000"
    },
    {
        "col0": "Roman Catholic Diocese of Lang Son and Cao Bang",
        "col1": "Roman Catholic Archdiocese of Hanoi",
        "col2": "Roman Catholic Archdiocese of Hanoi",
        "col3": "Roman Catholic Archdiocese of Hanoi",
        "col4": "Roman Catholic Archdiocese of Hanoi",
        "col5": "17815000000",
        "col6": "17815000000"
    },
    {
        "col0": "Roman Catholic Diocese of Libano-Honda",
        "col1": "Roman Catholic Archdiocese of Ibague",
        "col2": "Roman Catholic Archdiocese of Ibague",
        "col3": "Roman Catholic Archdiocese of Ibague",
        "col4": "Roman Catholic Archdiocese of Ibague",
        "col5": "3477000000",
        "col6": "3477000000"
    },
    {
        "col0": "Roman Catholic Diocese of Lucon",
        "col1": "Roman Catholic Archdiocese of Rennes",
        "col2": "Roman Catholic Archdiocese of Rennes",
        "col3": "Roman Catholic Archdiocese of Rennes",
        "col4": "Roman Catholic Archdiocese of Rennes",
        "col5": "7015000000",
        "col6": "7015000000"
    },
    {
        "col0": "Roman Catholic Diocese of Luziania",
        "col1": "Roman Catholic Archdiocese of Brasilia",
        "col2": "Roman Catholic Archdiocese of Brasilia",
        "col3": "Roman Catholic Archdiocese of Brasilia",
        "col4": "Roman Catholic Archdiocese of Brasilia",
        "col5": "16480000000",
        "col6": "16480000000"
    },
    {
        "col0": "Roman Catholic Diocese of Luz",
        "col1": "Roman Catholic Archdiocese of Belo Horizonte",
        "col2": "Roman Catholic Archdiocese of Belo Horizonte",
        "col3": "Roman Catholic Archdiocese of Belo Horizonte",
        "col4": "Roman Catholic Archdiocese of Belo Horizonte",
        "col5": "32976000000",
        "col6": "32976000000"
    },
    {
        "col0": "Roman Catholic Diocese of Lutsk",
        "col1": "Roman Catholic Archdiocese of Lviv",
        "col2": "Roman Catholic Archdiocese of Lviv",
        "col3": "Roman Catholic Archdiocese of Lviv",
        "col4": "Roman Catholic Archdiocese of Lviv",
        "col5": "40300000000",
        "col6": "40300000000"
    },
    {
        "col0": "Roman Catholic Diocese of Lurin",
        "col1": "Roman Catholic Archdiocese of Lima",
        "col2": "Roman Catholic Archdiocese of Lima",
        "col3": "Roman Catholic Archdiocese of Lima",
        "col4": "Roman Catholic Archdiocese of Lima",
        "col5": "185000000",
        "col6": "185000000"
    },
    {
        "col0": "Roman Catholic Diocese of Luoyang",
        "col1": "Roman Catholic Archdiocese of Kaifeng",
        "col2": "Roman Catholic Archdiocese of Kaifeng",
        "col3": "Roman Catholic Archdiocese of Kaifeng",
        "col4": "Roman Catholic Archdiocese of Kaifeng",
        "col5": "25000000000",
        "col6": "25000000000"
    },
    {
        "col0": "Roman Catholic Diocese of Lugo",
        "col1": "Roman Catholic Archdiocese of Santiago de Compostela",
        "col2": "Roman Catholic Archdiocese of Santiago de Compostela",
        "col3": "Roman Catholic Archdiocese of Santiago de Compostela",
        "col4": "Roman Catholic Archdiocese of Santiago de Compostela",
        "col5": "7780000000",
        "col6": "7780000000"
    },
    {
        "col0": "Roman Catholic Diocese of Lucknow",
        "col1": "Roman Catholic Archdiocese of Agra",
        "col2": "Roman Catholic Archdiocese of Agra",
        "col3": "Roman Catholic Archdiocese of Agra",
        "col4": "Roman Catholic Archdiocese of Agra",
        "col5": "45125000000",
        "col6": "45125000000"
    },
    {
        "col0": "Roman Catholic Diocese of Lucera-Troia",
        "col1": "Roman Catholic Archdiocese of Foggia-Bovino",
        "col2": "Roman Catholic Archdiocese of Foggia-Bovino",
        "col3": "Roman Catholic Archdiocese of Foggia-Bovino",
        "col4": "Roman Catholic Archdiocese of Foggia-Bovino",
        "col5": "1337000000",
        "col6": "1337000000"
    },
    {
        "col0": "Roman Catholic Diocese of Lucena",
        "col1": "Roman Catholic Archdiocese of Lipa",
        "col2": "Roman Catholic Archdiocese of Lipa",
        "col3": "Roman Catholic Archdiocese of Lipa",
        "col4": "Roman Catholic Archdiocese of Lipa",
        "col5": "2334000000",
        "col6": "2334000000"
    },
    {
        "col0": "Roman Catholic Diocese of Lucon",
        "col1": "Roman Catholic Archdiocese of Rennes",
        "col2": "Roman Catholic Archdiocese of Rennes",
        "col3": "Roman Catholic Archdiocese of Rennes",
        "col4": "Roman Catholic Archdiocese of Rennes",
        "col5": "7015000000",
        "col6": "7015000000"
    },
    {
        "col0": "Roman Catholic Diocese of Los Teques",
        "col1": "Roman Catholic Archdiocese of Caracas",
        "col2": "Roman Catholic Archdiocese of Caracas",
        "col3": "Roman Catholic Archdiocese of Caracas",
        "col4": "Roman Catholic Archdiocese of Caracas",
        "col5": "2295000000",
        "col6": "2295000000"
    },
    {
        "col0": "Roman Catholic Diocese of Lorena",
        "col1": "Roman Catholic Archdiocese of Aparecida",
        "col2": "Roman Catholic Archdiocese of Aparecida",
        "col3": "Roman Catholic Archdiocese of Aparecida",
        "col4": "Roman Catholic Archdiocese of Aparecida",
        "col5": "5055000000",
        "col6": "5055000000"
    },
    {
        "col0": "Roman Catholic Diocese of Long Xuyen",
        "col1": "Roman Catholic Archdiocese of Ho Chi Minh city",
        "col2": "Roman Catholic Archdiocese of Ho Chi Minh city",
        "col3": "Roman Catholic Archdiocese of Ho Chi Minh city",
        "col4": "Roman Catholic Archdiocese of Ho Chi Minh city",
        "col5": "10243000000",
        "col6": "10243000000"
    },
    {
        "col0": "Roman Catholic Diocese of London, Ontario",
        "col1": "Ontario",
        "col2": "Ontario",
        "col3": "Ontario",
        "col4": "Ontario",
        "col5": "21349000000",
        "col6": "21349000000"
    },
    {
        "col0": "Roman Catholic Diocese of Lomas de Zamora",
        "col1": "Roman Catholic Archdiocese of Buenos Aires",
        "col2": "Roman Catholic Archdiocese of Buenos Aires",
        "col3": "Roman Catholic Archdiocese of Buenos Aires",
        "col4": "Roman Catholic Archdiocese of Buenos Aires",
        "col5": "1400000000",
        "col6": "1400000000"
    },
    {
        "col0": "Roman Catholic Diocese of Lokoja",
        "col1": "Roman Catholic Archdiocese of Abuja",
        "col2": "Roman Catholic Archdiocese of Abuja",
        "col3": "Roman Catholic Archdiocese of Abuja",
        "col4": "Roman Catholic Archdiocese of Abuja",
        "col5": "24750000000",
        "col6": "24750000000"
    },
    {
        "col0": "Roman Catholic Diocese of Loja",
        "col1": "Roman Catholic Archdiocese of Cuenca",
        "col2": "Roman Catholic Archdiocese of Cuenca",
        "col3": "Roman Catholic Archdiocese of Cuenca",
        "col4": "Roman Catholic Archdiocese of Cuenca",
        "col5": "11476000000",
        "col6": "11476000000"
    },
    {
        "col0": "Roman Catholic Diocese of Loikaw",
        "col1": "Roman Catholic Archdiocese of Taunggyi",
        "col2": "Roman Catholic Archdiocese of Taunggyi",
        "col3": "Roman Catholic Archdiocese of Taunggyi",
        "col4": "Roman Catholic Archdiocese of Taunggyi",
        "col5": "11670000000",
        "col6": "11670000000"
    },
    {
        "col0": "Roman Catholic Diocese of Lodi",
        "col1": "Roman Catholic Archdiocese of Milan",
        "col2": "Roman Catholic Archdiocese of Milan",
        "col3": "Roman Catholic Archdiocese of Milan",
        "col4": "Roman Catholic Archdiocese of Milan",
        "col5": "894000000",
        "col6": "894000000"
    },
    {
        "col0": "Roman Catholic Diocese of Locri-Gerace",
        "col1": "Roman Catholic Archdiocese of Reggio Calabria-Bova",
        "col2": "Roman Catholic Archdiocese of Reggio Calabria-Bova",
        "col3": "Roman Catholic Archdiocese of Reggio Calabria-Bova",
        "col4": "Roman Catholic Archdiocese of Reggio Calabria-Bova",
        "col5": "1248000000",
        "col6": "1248000000"
    },
    {
        "col0": "Roman Catholic Diocese of Lleida",
        "col1": "Roman Catholic Archdiocese of Tarragona",
        "col2": "Roman Catholic Archdiocese of Tarragona",
        "col3": "Roman Catholic Archdiocese of Tarragona",
        "col4": "Roman Catholic Archdiocese of Tarragona",
        "col5": "2887000000",
        "col6": "2887000000"
    },
    {
        "col0": "Roman Catholic Diocese of Liege",
        "col1": "Roman Catholic Archdiocese of Mechelen-Brussels",
        "col2": "Roman Catholic Archdiocese of Mechelen-Brussels",
        "col3": "Roman Catholic Archdiocese of Mechelen-Brussels",
        "col4": "Roman Catholic Archdiocese of Mechelen-Brussels",
        "col5": "3862000000",
        "col6": "3862000000"
    },
    {
        "col0": "Roman Catholic Diocese of Livramento de Nossa Senhora",
        "col1": "Roman Catholic Archdiocese of Vitoria da Conquista",
        "col2": "Roman Catholic Archdiocese of Vitoria da Conquista",
        "col3": "Roman Catholic Archdiocese of Vitoria da Conquista",
        "col4": "Roman Catholic Archdiocese of Vitoria da Conquista",
        "col5": "24890000000",
        "col6": "24890000000"
    },
    {
        "col0": "Roman Catholic Diocese of Livorno",
        "col1": "Roman Catholic Archdiocese of Pisa",
        "col2": "Roman Catholic Archdiocese of Pisa",
        "col3": "Roman Catholic Archdiocese of Pisa",
        "col4": "Roman Catholic Archdiocese of Pisa",
        "col5": "250000000",
        "col6": "250000000"
    },
    {
        "col0": "Roman Catholic Diocese of Lishui",
        "col1": "Roman Catholic Archdiocese of Hangzhou",
        "col2": "Roman Catholic Archdiocese of Hangzhou",
        "col3": "Roman Catholic Archdiocese of Hangzhou",
        "col4": "Roman Catholic Archdiocese of Hangzhou",
        "col5": "23484000000",
        "col6": "23484000000"
    },
    {
        "col0": "Roman Catholic Diocese of Linz",
        "col1": "Archdiocese of Vienna",
        "col2": "Archdiocese of Vienna",
        "col3": "Archdiocese of Vienna",
        "col4": "Archdiocese of Vienna",
        "col5": "11909000000",
        "col6": "11909000000"
    },
    {
        "col0": "Roman Catholic Diocese of Lins",
        "col1": "Roman Catholic Archdiocese of Botucatu",
        "col2": "Roman Catholic Archdiocese of Botucatu",
        "col3": "Roman Catholic Archdiocese of Botucatu",
        "col4": "Roman Catholic Archdiocese of Botucatu",
        "col5": "8429000000",
        "col6": "8429000000"
    },
    {
        "col0": "Roman Catholic Diocese of Lincoln",
        "col1": "Archdiocese of Omaha",
        "col2": "Archdiocese of Omaha",
        "col3": "Archdiocese of Omaha",
        "col4": "Archdiocese of Omaha",
        "col5": "61755676502",
        "col6": "61755676502"
    },
    {
        "col0": "Roman Catholic Diocese of Linares",
        "col1": "Roman Catholic Archdiocese of Monterrey",
        "col2": "Roman Catholic Archdiocese of Monterrey",
        "col3": "Roman Catholic Archdiocese of Monterrey",
        "col4": "Roman Catholic Archdiocese of Monterrey",
        "col5": "33465236373",
        "col6": "33465236373"
    },
    {
        "col0": "Roman Catholic Diocese of Linares",
        "col1": "Roman Catholic Archdiocese of Santiago de Chile",
        "col2": "Roman Catholic Archdiocese of Santiago de Chile",
        "col3": "Roman Catholic Archdiocese of Santiago de Chile",
        "col4": "Roman Catholic Archdiocese of Santiago de Chile",
        "col5": "15110000000",
        "col6": "15110000000"
    },
    {
        "col0": "Roman Catholic Diocese of Limon",
        "col1": "Roman Catholic Archdiocese of San Jose de Costa Rica",
        "col2": "Roman Catholic Archdiocese of San Jose de Costa Rica",
        "col3": "Roman Catholic Archdiocese of San Jose de Costa Rica",
        "col4": "Roman Catholic Archdiocese of San Jose de Costa Rica",
        "col5": "10835000000",
        "col6": "10835000000"
    },
    {
        "col0": "Roman Catholic Diocese of Limoges",
        "col1": "Roman Catholic Archdiocese of Poitiers",
        "col2": "Roman Catholic Archdiocese of Poitiers",
        "col3": "Roman Catholic Archdiocese of Poitiers",
        "col4": "Roman Catholic Archdiocese of Poitiers",
        "col5": "11085000000",
        "col6": "11085000000"
    },
    {
        "col0": "Roman Catholic Diocese of Limoeiro do Norte",
        "col1": "Roman Catholic Archdiocese of Fortaleza",
        "col2": "Roman Catholic Archdiocese of Fortaleza",
        "col3": "Roman Catholic Archdiocese of Fortaleza",
        "col4": "Roman Catholic Archdiocese of Fortaleza",
        "col5": "18316000000",
        "col6": "18316000000"
    },
    {
        "col0": "Roman Catholic Diocese of Limeira",
        "col1": "Roman Catholic Archdiocese of Campinas",
        "col2": "Roman Catholic Archdiocese of Campinas",
        "col3": "Roman Catholic Archdiocese of Campinas",
        "col4": "Roman Catholic Archdiocese of Campinas",
        "col5": "4958000000",
        "col6": "4958000000"
    },
    {
        "col0": "Roman Catholic Diocese of Limburg",
        "col1": "Roman Catholic Archdiocese of Cologne",
        "col2": "Roman Catholic Archdiocese of Cologne",
        "col3": "Roman Catholic Archdiocese of Cologne",
        "col4": "Roman Catholic Archdiocese of Cologne",
        "col5": "6182000000",
        "col6": "6182000000"
    },
    {
        "col0": "Roman Catholic Diocese of Limon",
        "col1": "Roman Catholic Archdiocese of San Jose de Costa Rica",
        "col2": "Roman Catholic Archdiocese of San Jose de Costa Rica",
        "col3": "Roman Catholic Archdiocese of San Jose de Costa Rica",
        "col4": "Roman Catholic Archdiocese of San Jose de Costa Rica",
        "col5": "10835000000",
        "col6": "10835000000"
    },
    {
        "col0": "Roman Catholic Diocese of Liepaja",
        "col1": "Roman Catholic Archdiocese of Riga",
        "col2": "Roman Catholic Archdiocese of Riga",
        "col3": "Roman Catholic Archdiocese of Riga",
        "col4": "Roman Catholic Archdiocese of Riga",
        "col5": "13210000000",
        "col6": "13210000000"
    },
    {
        "col0": "Roman Catholic Diocese of Libmanan",
        "col1": "Roman Catholic Archdiocese of Caceres",
        "col2": "Roman Catholic Archdiocese of Caceres",
        "col3": "Roman Catholic Archdiocese of Caceres",
        "col4": "Roman Catholic Archdiocese of Caceres",
        "col5": "1862000000",
        "col6": "1862000000"
    },
    {
        "col0": "Roman Catholic Diocese of Liege",
        "col1": "Roman Catholic Archdiocese of Mechelen-Brussels",
        "col2": "Roman Catholic Archdiocese of Mechelen-Brussels",
        "col3": "Roman Catholic Archdiocese of Mechelen-Brussels",
        "col4": "Roman Catholic Archdiocese of Mechelen-Brussels",
        "col5": "3862000000",
        "col6": "3862000000"
    },
    {
        "col0": "Roman Catholic Diocese of Leon in Spain",
        "col1": "Archdiocese of Oviedo",
        "col2": "Archdiocese of Oviedo",
        "col3": "Archdiocese of Oviedo",
        "col4": "Archdiocese of Oviedo",
        "col5": "9620000000",
        "col6": "9620000000"
    },
    {
        "col0": "Roman Catholic Diocese of Leon in Nicaragua",
        "col1": "Roman Catholic Archdiocese of Managua",
        "col2": "Roman Catholic Archdiocese of Managua",
        "col3": "Roman Catholic Archdiocese of Managua",
        "col4": "Roman Catholic Archdiocese of Managua",
        "col5": "9862000000",
        "col6": "9862000000"
    },
    {
        "col0": "Roman Catholic Diocese of Les Gonaives",
        "col1": "Roman Catholic Archdiocese of Cap-Haitien",
        "col2": "Roman Catholic Archdiocese of Cap-Haitien",
        "col3": "Roman Catholic Archdiocese of Cap-Haitien",
        "col4": "Roman Catholic Archdiocese of Cap-Haitien",
        "col5": "4831000000",
        "col6": "4831000000"
    },
    {
        "col0": "Roman Catholic Diocese of Les Cayes",
        "col1": "Roman Catholic Archdiocese of Port-au-Prince",
        "col2": "Roman Catholic Archdiocese of Port-au-Prince",
        "col3": "Roman Catholic Archdiocese of Port-au-Prince",
        "col4": "Roman Catholic Archdiocese of Port-au-Prince",
        "col5": "4649000000",
        "col6": "4649000000"
    },
    {
        "col0": "Roman Catholic Diocese of Leopoldina",
        "col1": "Roman Catholic Archdiocese of Juiz de Fora",
        "col2": "Roman Catholic Archdiocese of Juiz de Fora",
        "col3": "Roman Catholic Archdiocese of Juiz de Fora",
        "col4": "Roman Catholic Archdiocese of Juiz de Fora",
        "col5": "8491000000",
        "col6": "8491000000"
    },
    {
        "col0": "Roman Catholic Diocese of Leiria-Fatima",
        "col1": "Patriarchate of Lisbon",
        "col2": "Patriarchate of Lisbon",
        "col3": "Patriarchate of Lisbon",
        "col4": "Patriarchate of Lisbon",
        "col5": "1700000000",
        "col6": "1700000000"
    },
    {
        "col0": "Roman Catholic Diocese of Legnica",
        "col1": "Roman Catholic Archdiocese of Wroclaw",
        "col2": "Roman Catholic Archdiocese of Wroclaw",
        "col3": "Roman Catholic Archdiocese of Wroclaw",
        "col4": "Roman Catholic Archdiocese of Wroclaw",
        "col5": "8500000000",
        "col6": "8500000000"
    },
    {
        "col0": "Roman Catholic Diocese of Legazpi",
        "col1": "Roman Catholic Archdiocese of Caceres",
        "col2": "Roman Catholic Archdiocese of Caceres",
        "col3": "Roman Catholic Archdiocese of Caceres",
        "col4": "Roman Catholic Archdiocese of Caceres",
        "col5": "2552000000",
        "col6": "2552000000"
    },
    {
        "col0": "Roman Catholic Diocese of Leeds",
        "col1": "Roman Catholic Archdiocese of Liverpool",
        "col2": "Roman Catholic Archdiocese of Liverpool",
        "col3": "Roman Catholic Archdiocese of Liverpool",
        "col4": "Roman Catholic Archdiocese of Liverpool",
        "col5": "4075000000",
        "col6": "4075000000"
    },
    {
        "col0": "Roman Catholic Diocese of Le Puy-en-Velay",
        "col1": "Roman Catholic Archdiocese of Clermont",
        "col2": "Roman Catholic Archdiocese of Clermont",
        "col3": "Roman Catholic Archdiocese of Clermont",
        "col4": "Roman Catholic Archdiocese of Clermont",
        "col5": "5001000000",
        "col6": "5001000000"
    },
    {
        "col0": "Roman Catholic Diocese of Le Mans",
        "col1": "Roman Catholic Archdiocese of Rennes",
        "col2": "Roman Catholic Archdiocese of Rennes",
        "col3": "Roman Catholic Archdiocese of Rennes",
        "col4": "Roman Catholic Archdiocese of Rennes",
        "col5": "6244000000",
        "col6": "6244000000"
    },
    {
        "col0": "Roman Catholic Diocese of Le Havre",
        "col1": "Roman Catholic Archdiocese of Rouen",
        "col2": "Roman Catholic Archdiocese of Rouen",
        "col3": "Roman Catholic Archdiocese of Rouen",
        "col4": "Roman Catholic Archdiocese of Rouen",
        "col5": "1902000000",
        "col6": "1902000000"
    },
    {
        "col0": "Roman Catholic Diocese of Leon in Spain",
        "col1": "Archdiocese of Oviedo",
        "col2": "Archdiocese of Oviedo",
        "col3": "Archdiocese of Oviedo",
        "col4": "Archdiocese of Oviedo",
        "col5": "9620000000",
        "col6": "9620000000"
    },
    {
        "col0": "Roman Catholic Diocese of Leon in Nicaragua",
        "col1": "Roman Catholic Archdiocese of Managua",
        "col2": "Roman Catholic Archdiocese of Managua",
        "col3": "Roman Catholic Archdiocese of Managua",
        "col4": "Roman Catholic Archdiocese of Managua",
        "col5": "9862000000",
        "col6": "9862000000"
    },
    {
        "col0": "Roman Catholic Diocese of Laval",
        "col1": "Roman Catholic Archdiocese of Rennes",
        "col2": "Roman Catholic Archdiocese of Rennes",
        "col3": "Roman Catholic Archdiocese of Rennes",
        "col4": "Roman Catholic Archdiocese of Rennes",
        "col5": "5175000000",
        "col6": "5175000000"
    },
    {
        "col0": "Roman Catholic Diocese of Latina-Terracina-Sezze-Priverno",
        "col1": "Holy See",
        "col2": "Holy See",
        "col3": "Holy See",
        "col4": "Holy See",
        "col5": "1371000000",
        "col6": "1371000000"
    },
    {
        "col0": "Roman Catholic Diocese of Latacunga",
        "col1": "Roman Catholic Archdiocese of Quito",
        "col2": "Roman Catholic Archdiocese of Quito",
        "col3": "Roman Catholic Archdiocese of Quito",
        "col4": "Roman Catholic Archdiocese of Quito",
        "col5": "5093000000",
        "col6": "5093000000"
    },
    {
        "col0": "Roman Catholic Diocese of Lashio",
        "col1": "Roman Catholic Archdiocese of Mandalay",
        "col2": "Roman Catholic Archdiocese of Mandalay",
        "col3": "Roman Catholic Archdiocese of Mandalay",
        "col4": "Roman Catholic Archdiocese of Mandalay",
        "col5": "30000000000",
        "col6": "30000000000"
    },
    {
        "col0": "Roman Catholic Diocese of Las Vegas",
        "col1": "Roman Catholic Archdiocese of San Francisco",
        "col2": "Roman Catholic Archdiocese of San Francisco",
        "col3": "Roman Catholic Archdiocese of San Francisco",
        "col4": "Roman Catholic Archdiocese of San Francisco",
        "col5": "102791448123",
        "col6": "102791448123"
    },
    {
        "col0": "Roman Catholic Diocese of Las Cruces",
        "col1": "Roman Catholic Archdiocese of Santa Fe",
        "col2": "Roman Catholic Archdiocese of Santa Fe",
        "col3": "Roman Catholic Archdiocese of Santa Fe",
        "col4": "Roman Catholic Archdiocese of Santa Fe",
        "col5": "115210441112",
        "col6": "115210441112"
    },
    {
        "col0": "Roman Catholic Diocese of Larantuka",
        "col1": "Roman Catholic Archdiocese of Ende",
        "col2": "Roman Catholic Archdiocese of Ende",
        "col3": "Roman Catholic Archdiocese of Ende",
        "col4": "Roman Catholic Archdiocese of Ende",
        "col5": "4024000000",
        "col6": "4024000000"
    },
    {
        "col0": "Roman Catholic Diocese of Laohekou",
        "col1": "Roman Catholic Archdiocese of Hankou",
        "col2": "Roman Catholic Archdiocese of Hankou",
        "col3": "Roman Catholic Archdiocese of Hankou",
        "col4": "Roman Catholic Archdiocese of Hankou",
        "col5": "30000000000",
        "col6": "30000000000"
    },
    {
        "col0": "Roman Catholic Diocese of Laoag",
        "col1": "Archdiocese of Nueva Segovia",
        "col2": "Archdiocese of Nueva Segovia",
        "col3": "Archdiocese of Nueva Segovia",
        "col4": "Archdiocese of Nueva Segovia",
        "col5": "3386000000",
        "col6": "3386000000"
    },
    {
        "col0": "Roman Catholic Diocese of Lanusei",
        "col1": "Roman Catholic Archdiocese of Cagliari",
        "col2": "Roman Catholic Archdiocese of Cagliari",
        "col3": "Roman Catholic Archdiocese of Cagliari",
        "col4": "Roman Catholic Archdiocese of Cagliari",
        "col5": "2348000000",
        "col6": "2348000000"
    },
    {
        "col0": "Roman Catholic Diocese of Lansing",
        "col1": "Roman Catholic Archdiocese of Detroit",
        "col2": "Roman Catholic Archdiocese of Detroit",
        "col3": "Roman Catholic Archdiocese of Detroit",
        "col4": "Roman Catholic Archdiocese of Detroit",
        "col5": "16104546070",
        "col6": "16104546070"
    },
    {
        "col0": "Roman Catholic Diocese of Langres",
        "col1": "Roman Catholic Archdiocese of Reims",
        "col2": "Roman Catholic Archdiocese of Reims",
        "col3": "Roman Catholic Archdiocese of Reims",
        "col4": "Roman Catholic Archdiocese of Reims",
        "col5": "6250000000",
        "col6": "6250000000"
    },
    {
        "col0": "Roman Catholic Diocese of Lancaster",
        "col1": "Province of Liverpool",
        "col2": "Province of Liverpool",
        "col3": "Province of Liverpool",
        "col4": "Province of Liverpool",
        "col5": "2900000000",
        "col6": "2900000000"
    },
    {
        "col0": "Roman Catholic Diocese of Lamezia Terme",
        "col1": "Roman Catholic Archdiocese of Catanzaro-Squillace",
        "col2": "Roman Catholic Archdiocese of Catanzaro-Squillace",
        "col3": "Roman Catholic Archdiocese of Catanzaro-Squillace",
        "col4": "Roman Catholic Archdiocese of Catanzaro-Squillace",
        "col5": "915000000",
        "col6": "915000000"
    },
    {
        "col0": "Roman Catholic Diocese of Lamego",
        "col1": "Roman Catholic Archdiocese of Braga",
        "col2": "Roman Catholic Archdiocese of Braga",
        "col3": "Roman Catholic Archdiocese of Braga",
        "col4": "Roman Catholic Archdiocese of Braga",
        "col5": "2848000000",
        "col6": "2848000000"
    },
    {
        "col0": "Roman Catholic Diocese of Lages",
        "col1": "Roman Catholic Archdiocese of Florianopolis",
        "col2": "Roman Catholic Archdiocese of Florianopolis",
        "col3": "Roman Catholic Archdiocese of Florianopolis",
        "col4": "Roman Catholic Archdiocese of Florianopolis",
        "col5": "18417000000",
        "col6": "18417000000"
    },
    {
        "col0": "Roman Catholic Diocese of Lafia",
        "col1": "Roman Catholic Archdiocese of Abuja",
        "col2": "Roman Catholic Archdiocese of Abuja",
        "col3": "Roman Catholic Archdiocese of Abuja",
        "col4": "Roman Catholic Archdiocese of Abuja",
        "col5": "28500000000",
        "col6": "28500000000"
    },
    {
        "col0": "Roman Catholic Diocese of Lafayette in Louisiana",
        "col1": "Archdiocese of New Orleans",
        "col2": "Archdiocese of New Orleans",
        "col3": "Archdiocese of New Orleans",
        "col4": "Archdiocese of New Orleans",
        "col5": "14967541289",
        "col6": "14967541289"
    },
    {
        "col0": "Roman Catholic Diocese of Lafayette in Indiana",
        "col1": "Archdiocese of Indianapolis",
        "col2": "Archdiocese of Indianapolis",
        "col3": "Archdiocese of Indianapolis",
        "col4": "Archdiocese of Indianapolis",
        "col5": "25464763100",
        "col6": "25464763100"
    },
    {
        "col0": "Roman Catholic Diocese of La Vega",
        "col1": "Roman Catholic Archdiocese of Santiago de los Caballeros",
        "col2": "Roman Catholic Archdiocese of Santiago de los Caballeros",
        "col3": "Roman Catholic Archdiocese of Santiago de los Caballeros",
        "col4": "Roman Catholic Archdiocese of Santiago de los Caballeros",
        "col5": "4919000000",
        "col6": "4919000000"
    },
    {
        "col0": "Roman Catholic Diocese of La Spezia-Sarzana-Brugnato",
        "col1": "Roman Catholic Archdiocese of Genoa",
        "col2": "Roman Catholic Archdiocese of Genoa",
        "col3": "Roman Catholic Archdiocese of Genoa",
        "col4": "Roman Catholic Archdiocese of Genoa",
        "col5": "881000000",
        "col6": "881000000"
    },
    {
        "col0": "Roman Catholic Diocese of La Rochelle and Saintes",
        "col1": "Roman Catholic Archdiocese of Poitiers",
        "col2": "Roman Catholic Archdiocese of Poitiers",
        "col3": "Roman Catholic Archdiocese of Poitiers",
        "col4": "Roman Catholic Archdiocese of Poitiers",
        "col5": "6863000000",
        "col6": "6863000000"
    },
    {
        "col0": "Roman Catholic Diocese of La Rioja",
        "col1": "Roman Catholic Archdiocese of San Juan de Cuyo",
        "col2": "Roman Catholic Archdiocese of San Juan de Cuyo",
        "col3": "Roman Catholic Archdiocese of San Juan de Cuyo",
        "col4": "Roman Catholic Archdiocese of San Juan de Cuyo",
        "col5": "92100000000",
        "col6": "92100000000"
    },
    {
        "col0": "Roman Catholic Diocese of La Paz en la Baja California Sur",
        "col1": "Roman Catholic Archdiocese of Tijuana",
        "col2": "Roman Catholic Archdiocese of Tijuana",
        "col3": "Roman Catholic Archdiocese of Tijuana",
        "col4": "Roman Catholic Archdiocese of Tijuana",
        "col5": "73703291655",
        "col6": "73703291655"
    },
    {
        "col0": "Roman Catholic Diocese of La Guaira",
        "col1": "Roman Catholic Archdiocese of Caracas",
        "col2": "Roman Catholic Archdiocese of Caracas",
        "col3": "Roman Catholic Archdiocese of Caracas",
        "col4": "Roman Catholic Archdiocese of Caracas",
        "col5": "1497000000",
        "col6": "1497000000"
    },
    {
        "col0": "Roman Catholic Diocese of La Dorada-Guaduas",
        "col1": "Roman Catholic Archdiocese of Manizales",
        "col2": "Roman Catholic Archdiocese of Manizales",
        "col3": "Roman Catholic Archdiocese of Manizales",
        "col4": "Roman Catholic Archdiocese of Manizales",
        "col5": "8040000000",
        "col6": "8040000000"
    },
    {
        "col0": "Roman Catholic Diocese of La Crosse",
        "col1": "Roman Catholic Archdiocese of Milwaukee",
        "col2": "Roman Catholic Archdiocese of Milwaukee",
        "col3": "Roman Catholic Archdiocese of Milwaukee",
        "col4": "Roman Catholic Archdiocese of Milwaukee",
        "col5": "39051840727",
        "col6": "39051840727"
    },
    {
        "col0": "Roman Catholic Diocese of Lang Son and Cao Bang",
        "col1": "Roman Catholic Archdiocese of Hanoi",
        "col2": "Roman Catholic Archdiocese of Hanoi",
        "col3": "Roman Catholic Archdiocese of Hanoi",
        "col4": "Roman Catholic Archdiocese of Hanoi",
        "col5": "17815000000",
        "col6": "17815000000"
    },
    {
        "col0": "Roman Catholic Diocese of Libano-Honda",
        "col1": "Roman Catholic Archdiocese of Ibague",
        "col2": "Roman Catholic Archdiocese of Ibague",
        "col3": "Roman Catholic Archdiocese of Ibague",
        "col4": "Roman Catholic Archdiocese of Ibague",
        "col5": "3477000000",
        "col6": "3477000000"
    },
    {
        "col0": "Roman Catholic Diocese of Kyoto",
        "col1": "Roman Catholic Archdiocese of Osaka",
        "col2": "Roman Catholic Archdiocese of Osaka",
        "col3": "Roman Catholic Archdiocese of Osaka",
        "col4": "Roman Catholic Archdiocese of Osaka",
        "col5": "18095000000",
        "col6": "18095000000"
    },
    {
        "col0": "Roman Catholic Diocese of Kyiv-Zhytomyr",
        "col1": "Roman Catholic Archdiocese of Lviv",
        "col2": "Roman Catholic Archdiocese of Lviv",
        "col3": "Roman Catholic Archdiocese of Lviv",
        "col4": "Roman Catholic Archdiocese of Lviv",
        "col5": "222300000000",
        "col6": "222300000000"
    },
    {
        "col0": "Roman Catholic Diocese of Kuzhithurai",
        "col1": "Roman Catholic Archdiocese of Madurai",
        "col2": "Roman Catholic Archdiocese of Madurai",
        "col3": "Roman Catholic Archdiocese of Madurai",
        "col4": "Roman Catholic Archdiocese of Madurai",
        "col5": "915000000",
        "col6": "915000000"
    },
    {
        "col0": "Roman Catholic Diocese of Kurunegala",
        "col1": "Roman Catholic Archdiocese of Colombo",
        "col2": "Roman Catholic Archdiocese of Colombo",
        "col3": "Roman Catholic Archdiocese of Colombo",
        "col4": "Roman Catholic Archdiocese of Colombo",
        "col5": "4763000000",
        "col6": "4763000000"
    },
    {
        "col0": "Roman Catholic Diocese of Kurnool",
        "col1": "Roman Catholic Archdiocese of Hyderabad",
        "col2": "Roman Catholic Archdiocese of Hyderabad",
        "col3": "Roman Catholic Archdiocese of Hyderabad",
        "col4": "Roman Catholic Archdiocese of Hyderabad",
        "col5": "43000000000",
        "col6": "43000000000"
    },
    {
        "col0": "Roman Catholic Diocese of Kumbakonam",
        "col1": "Roman Catholic Archdiocese of Pondicherry and Cuddalore",
        "col2": "Roman Catholic Archdiocese of Pondicherry and Cuddalore",
        "col3": "Roman Catholic Archdiocese of Pondicherry and Cuddalore",
        "col4": "Roman Catholic Archdiocese of Pondicherry and Cuddalore",
        "col5": "7823000000",
        "col6": "7823000000"
    },
    {
        "col0": "Roman Catholic Diocese of Krk",
        "col1": "Archdiocese of Rijeka",
        "col2": "Archdiocese of Rijeka",
        "col3": "Archdiocese of Rijeka",
        "col4": "Archdiocese of Rijeka",
        "col5": "1119000000",
        "col6": "1119000000"
    },
    {
        "col0": "Roman Catholic Diocese of Krishnagar",
        "col1": "Roman Catholic Archdiocese of Calcutta",
        "col2": "Roman Catholic Archdiocese of Calcutta",
        "col3": "Roman Catholic Archdiocese of Calcutta",
        "col4": "Roman Catholic Archdiocese of Calcutta",
        "col5": "8640000000",
        "col6": "8640000000"
    },
    {
        "col0": "Roman Catholic Diocese of Kottar",
        "col1": "Roman Catholic Archdiocese of Madurai",
        "col2": "Roman Catholic Archdiocese of Madurai",
        "col3": "Roman Catholic Archdiocese of Madurai",
        "col4": "Roman Catholic Archdiocese of Madurai",
        "col5": "1665000000",
        "col6": "1665000000"
    },
    {
        "col0": "Roman Catholic Diocese of Kottapuram",
        "col1": "Roman Catholic Archdiocese of Verapoly",
        "col2": "Roman Catholic Archdiocese of Verapoly",
        "col3": "Roman Catholic Archdiocese of Verapoly",
        "col4": "Roman Catholic Archdiocese of Verapoly",
        "col5": "3000000000",
        "col6": "3000000000"
    },
    {
        "col0": "Roman Catholic Diocese of Kotor",
        "col1": "Roman Catholic Archdiocese of Split-Makarska",
        "col2": "Roman Catholic Archdiocese of Split-Makarska",
        "col3": "Roman Catholic Archdiocese of Split-Makarska",
        "col4": "Roman Catholic Archdiocese of Split-Makarska",
        "col5": "674000000",
        "col6": "674000000"
    },
    {
        "col0": "Roman Catholic Diocese of Koszalin-Kolobrzeg",
        "col1": "Roman Catholic Archdiocese of Szczecin-Kamien",
        "col2": "Roman Catholic Archdiocese of Szczecin-Kamien",
        "col3": "Roman Catholic Archdiocese of Szczecin-Kamien",
        "col4": "Roman Catholic Archdiocese of Szczecin-Kamien",
        "col5": "14640000000",
        "col6": "14640000000"
    },
    {
        "col0": "Roman Catholic Diocese of Koper",
        "col1": "Roman Catholic Archdiocese of Ljubljana",
        "col2": "Roman Catholic Archdiocese of Ljubljana",
        "col3": "Roman Catholic Archdiocese of Ljubljana",
        "col4": "Roman Catholic Archdiocese of Ljubljana",
        "col5": "4386000000",
        "col6": "4386000000"
    },
    {
        "col0": "Roman Catholic Diocese of Kondoa",
        "col1": "Roman Catholic Archdiocese of Dodoma",
        "col2": "Roman Catholic Archdiocese of Dodoma",
        "col3": "Roman Catholic Archdiocese of Dodoma",
        "col4": "Roman Catholic Archdiocese of Dodoma",
        "col5": "13210000000",
        "col6": "13210000000"
    },
    {
        "col0": "Roman Catholic Diocese of Kon Tum",
        "col1": "Roman Catholic Archdiocese of Hue",
        "col2": "Roman Catholic Archdiocese of Hue",
        "col3": "Roman Catholic Archdiocese of Hue",
        "col4": "Roman Catholic Archdiocese of Hue",
        "col5": "25728000000",
        "col6": "25728000000"
    },
    {
        "col0": "Roman Catholic Diocese of Kohima",
        "col1": "Roman Catholic Archdiocese of Imphal",
        "col2": "Roman Catholic Archdiocese of Imphal",
        "col3": "Roman Catholic Archdiocese of Imphal",
        "col4": "Roman Catholic Archdiocese of Imphal",
        "col5": "16579000000",
        "col6": "16579000000"
    },
    {
        "col0": "Roman Catholic Diocese of Koforidua",
        "col1": "Archdiocese of Accra",
        "col2": "Archdiocese of Accra",
        "col3": "Archdiocese of Accra",
        "col4": "Archdiocese of Accra",
        "col5": "18600000000",
        "col6": "18600000000"
    },
    {
        "col0": "Roman Catholic Diocese of Knoxville",
        "col1": "Archdiocese of Louisville",
        "col2": "Archdiocese of Louisville",
        "col3": "Archdiocese of Louisville",
        "col4": "Archdiocese of Louisville",
        "col5": "36886610667",
        "col6": "36886610667"
    },
    {
        "col0": "Roman Catholic Diocese of Kinkala",
        "col1": "Roman Catholic Archdiocese of Brazzaville",
        "col2": "Roman Catholic Archdiocese of Brazzaville",
        "col3": "Roman Catholic Archdiocese of Brazzaville",
        "col4": "Roman Catholic Archdiocese of Brazzaville",
        "col5": "22000000000",
        "col6": "22000000000"
    },
    {
        "col0": "Roman Catholic Diocese of Kingstown",
        "col1": "Roman Catholic Archdiocese of Castries",
        "col2": "Roman Catholic Archdiocese of Castries",
        "col3": "Roman Catholic Archdiocese of Castries",
        "col4": "Roman Catholic Archdiocese of Castries",
        "col5": "388000000",
        "col6": "388000000"
    },
    {
        "col0": "Roman Catholic Diocese of Kilmore",
        "col1": "Roman Catholic Archdiocese of Armagh",
        "col2": "Roman Catholic Archdiocese of Armagh",
        "col3": "Roman Catholic Archdiocese of Armagh",
        "col4": "Roman Catholic Archdiocese of Armagh",
        "col5": "2201489893",
        "col6": "2201489893"
    },
    {
        "col0": "Roman Catholic Diocese of Killala",
        "col1": "Roman Catholic Archdiocese of Tuam",
        "col2": "Roman Catholic Archdiocese of Tuam",
        "col3": "Roman Catholic Archdiocese of Tuam",
        "col4": "Roman Catholic Archdiocese of Tuam",
        "col5": "3752892771",
        "col6": "3752892771"
    },
    {
        "col0": "Roman Catholic Diocese of Kildare and Leighlin",
        "col1": "Roman Catholic Archdiocese of Dublin",
        "col2": "Roman Catholic Archdiocese of Dublin",
        "col3": "Roman Catholic Archdiocese of Dublin",
        "col4": "Roman Catholic Archdiocese of Dublin",
        "col5": "4164700881",
        "col6": "4164700881"
    },
    {
        "col0": "Roman Catholic Diocese of Kidapawan",
        "col1": "Roman Catholic Archdiocese of Cotabato",
        "col2": "Roman Catholic Archdiocese of Cotabato",
        "col3": "Roman Catholic Archdiocese of Cotabato",
        "col4": "Roman Catholic Archdiocese of Cotabato",
        "col5": "5199000000",
        "col6": "5199000000"
    },
    {
        "col0": "Roman Catholic Diocese of Kiayi",
        "col1": "Roman Catholic Archdiocese of Taipei",
        "col2": "Roman Catholic Archdiocese of Taipei",
        "col3": "Roman Catholic Archdiocese of Taipei",
        "col4": "Roman Catholic Archdiocese of Taipei",
        "col5": "3244000000",
        "col6": "3244000000"
    },
    {
        "col0": "Roman Catholic Diocese of Khunti",
        "col1": "Roman Catholic Archdiocese of Ranchi",
        "col2": "Roman Catholic Archdiocese of Ranchi",
        "col3": "Roman Catholic Archdiocese of Ranchi",
        "col4": "Roman Catholic Archdiocese of Ranchi",
        "col5": "3765000000",
        "col6": "3765000000"
    },
    {
        "col0": "Roman Catholic Diocese of Khulna",
        "col1": "Roman Catholic Archdiocese of Dhaka",
        "col2": "Roman Catholic Archdiocese of Dhaka",
        "col3": "Roman Catholic Archdiocese of Dhaka",
        "col4": "Roman Catholic Archdiocese of Dhaka",
        "col5": "25855000000",
        "col6": "25855000000"
    },
    {
        "col0": "Roman Catholic Diocese of Kharkiv-Zaporizhia",
        "col1": "Roman Catholic Archdiocese of Lviv",
        "col2": "Roman Catholic Archdiocese of Lviv",
        "col3": "Roman Catholic Archdiocese of Lviv",
        "col4": "Roman Catholic Archdiocese of Lviv",
        "col5": "196300000000",
        "col6": "196300000000"
    },
    {
        "col0": "Roman Catholic Diocese of Khandwa",
        "col1": "Roman Catholic Archdiocese of Bhopal",
        "col2": "Roman Catholic Archdiocese of Bhopal",
        "col3": "Roman Catholic Archdiocese of Bhopal",
        "col4": "Roman Catholic Archdiocese of Bhopal",
        "col5": "24000000000",
        "col6": "24000000000"
    },
    {
        "col0": "Roman Catholic Diocese of Khamman",
        "col1": "Roman Catholic Archdiocese of Hyderabad",
        "col2": "Roman Catholic Archdiocese of Hyderabad",
        "col3": "Roman Catholic Archdiocese of Hyderabad",
        "col4": "Roman Catholic Archdiocese of Hyderabad",
        "col5": "16029000000",
        "col6": "16029000000"
    },
    {
        "col0": "Roman Catholic Diocese of Ketapang",
        "col1": "Roman Catholic Archdiocese of Pontianak",
        "col2": "Roman Catholic Archdiocese of Pontianak",
        "col3": "Roman Catholic Archdiocese of Pontianak",
        "col4": "Roman Catholic Archdiocese of Pontianak",
        "col5": "34600000000",
        "col6": "34600000000"
    },
    {
        "col0": "Roman Catholic Diocese of Keningau",
        "col1": "Roman Catholic Archdiocese of Kota Kinabalu",
        "col2": "Roman Catholic Archdiocese of Kota Kinabalu",
        "col3": "Roman Catholic Archdiocese of Kota Kinabalu",
        "col4": "Roman Catholic Archdiocese of Kota Kinabalu",
        "col5": "18298000000",
        "col6": "18298000000"
    },
    {
        "col0": "Roman Catholic Diocese of Kengtung",
        "col1": "Roman Catholic Archdiocese of Taunggyi",
        "col2": "Roman Catholic Archdiocese of Taunggyi",
        "col3": "Roman Catholic Archdiocese of Taunggyi",
        "col4": "Roman Catholic Archdiocese of Taunggyi",
        "col5": "45856000000",
        "col6": "45856000000"
    },
    {
        "col0": "Roman Catholic Diocese of Katsina-Ala",
        "col1": "Roman Catholic Archdiocese of Abuja",
        "col2": "Roman Catholic Archdiocese of Abuja",
        "col3": "Roman Catholic Archdiocese of Abuja",
        "col4": "Roman Catholic Archdiocese of Abuja",
        "col5": "6465000000",
        "col6": "6465000000"
    },
    {
        "col0": "Roman Catholic Diocese of Karwar",
        "col1": "Roman Catholic Archdiocese of Bangalore",
        "col2": "Roman Catholic Archdiocese of Bangalore",
        "col3": "Roman Catholic Archdiocese of Bangalore",
        "col4": "Roman Catholic Archdiocese of Bangalore",
        "col5": "10277000000",
        "col6": "10277000000"
    },
    {
        "col0": "Roman Catholic Diocese of Karonga",
        "col1": "Roman Catholic Archdiocese of Lilongwe",
        "col2": "Roman Catholic Archdiocese of Lilongwe",
        "col3": "Roman Catholic Archdiocese of Lilongwe",
        "col4": "Roman Catholic Archdiocese of Lilongwe",
        "col5": "14000000000",
        "col6": "14000000000"
    },
    {
        "col0": "Roman Catholic Diocese of Karaganda",
        "col1": "Roman Catholic Archdiocese of Maria Santissima in Astana",
        "col2": "Roman Catholic Archdiocese of Maria Santissima in Astana",
        "col3": "Roman Catholic Archdiocese of Maria Santissima in Astana",
        "col4": "Roman Catholic Archdiocese of Maria Santissima in Astana",
        "col5": "711300000000",
        "col6": "711300000000"
    },
    {
        "col0": "Roman Catholic Diocese of Kaposvar",
        "col1": "Roman Catholic Archdiocese of Veszprem",
        "col2": "Roman Catholic Archdiocese of Veszprem",
        "col3": "Roman Catholic Archdiocese of Veszprem",
        "col4": "Roman Catholic Archdiocese of Veszprem",
        "col5": "6790000000",
        "col6": "6790000000"
    },
    {
        "col0": "Roman Catholic Diocese of Kaohsiung",
        "col1": "Roman Catholic Archdiocese of Taipei",
        "col2": "Roman Catholic Archdiocese of Taipei",
        "col3": "Roman Catholic Archdiocese of Taipei",
        "col4": "Roman Catholic Archdiocese of Taipei",
        "col5": "5723000000",
        "col6": "5723000000"
    },
    {
        "col0": "Roman Catholic Diocese of Kansas City-Saint Joseph",
        "col1": "Archdiocese of Saint Louis",
        "col2": "Archdiocese of Saint Louis",
        "col3": "Archdiocese of Saint Louis",
        "col4": "Archdiocese of Saint Louis",
        "col5": "15429000000",
        "col6": "15429000000"
    },
    {
        "col0": "Roman Catholic Diocese of Kano",
        "col1": "Roman Catholic Archdiocese of Kaduna",
        "col2": "Roman Catholic Archdiocese of Kaduna",
        "col3": "Roman Catholic Archdiocese of Kaduna",
        "col4": "Roman Catholic Archdiocese of Kaduna",
        "col5": "48400000000",
        "col6": "48400000000"
    },
    {
        "col0": "Roman Catholic Diocese of Kannur",
        "col1": "Roman Catholic Archdiocese of Verapoly",
        "col2": "Roman Catholic Archdiocese of Verapoly",
        "col3": "Roman Catholic Archdiocese of Verapoly",
        "col4": "Roman Catholic Archdiocese of Verapoly",
        "col5": "4988000000",
        "col6": "4988000000"
    },
    {
        "col0": "Roman Catholic Diocese of Kangding",
        "col1": "Roman Catholic Archdiocese of Chongqing",
        "col2": "Roman Catholic Archdiocese of Chongqing",
        "col3": "Roman Catholic Archdiocese of Chongqing",
        "col4": "Roman Catholic Archdiocese of Chongqing",
        "col5": "160000000000",
        "col6": "160000000000"
    },
    {
        "col0": "Roman Catholic Diocese of Kandy",
        "col1": "Roman Catholic Archdiocese of Colombo",
        "col2": "Roman Catholic Archdiocese of Colombo",
        "col3": "Roman Catholic Archdiocese of Colombo",
        "col4": "Roman Catholic Archdiocese of Colombo",
        "col5": "5753000000",
        "col6": "5753000000"
    },
    {
        "col0": "Roman Catholic Diocese of Kamyanets-Podilskyi",
        "col1": "Roman Catholic Archdiocese of Lviv",
        "col2": "Roman Catholic Archdiocese of Lviv",
        "col3": "Roman Catholic Archdiocese of Lviv",
        "col4": "Roman Catholic Archdiocese of Lviv",
        "col5": "47100000000",
        "col6": "47100000000"
    },
    {
        "col0": "Roman Catholic Diocese of Kamloops",
        "col1": "Metropolitan See",
        "col2": "Metropolitan See",
        "col3": "Metropolitan See",
        "col4": "Metropolitan See",
        "col5": "119000000000",
        "col6": "119000000000"
    },
    {
        "col0": "Roman Catholic Diocese of Kalookan",
        "col1": "Roman Catholic Archdiocese of Manila",
        "col2": "Roman Catholic Archdiocese of Manila",
        "col3": "Roman Catholic Archdiocese of Manila",
        "col4": "Roman Catholic Archdiocese of Manila",
        "col5": "55000000",
        "col6": "55000000"
    },
    {
        "col0": "Roman Catholic Diocese of Kalisz",
        "col1": "Roman Catholic Archdiocese of Poznan",
        "col2": "Roman Catholic Archdiocese of Poznan",
        "col3": "Roman Catholic Archdiocese of Poznan",
        "col4": "Roman Catholic Archdiocese of Poznan",
        "col5": "10800000000",
        "col6": "10800000000"
    },
    {
        "col0": "Roman Catholic Diocese of Kalibo",
        "col1": "Roman Catholic Archdiocese of Capiz",
        "col2": "Roman Catholic Archdiocese of Capiz",
        "col3": "Roman Catholic Archdiocese of Capiz",
        "col4": "Roman Catholic Archdiocese of Capiz",
        "col5": "2019000000",
        "col6": "2019000000"
    },
    {
        "col0": "Roman Catholic Diocese of Kalay",
        "col1": "Roman Catholic Archdiocese of Mandalay",
        "col2": "Roman Catholic Archdiocese of Mandalay",
        "col3": "Roman Catholic Archdiocese of Mandalay",
        "col4": "Roman Catholic Archdiocese of Mandalay",
        "col5": "22235000000",
        "col6": "22235000000"
    },
    {
        "col0": "Roman Catholic Diocese of Kalamazoo",
        "col1": "Archdiocese of Detroit",
        "col2": "Archdiocese of Detroit",
        "col3": "Archdiocese of Detroit",
        "col4": "Archdiocese of Detroit",
        "col5": "13822766544",
        "col6": "13822766544"
    },
    {
        "col0": "Roman Catholic Diocese of KaiA!iadorys",
        "col1": "Roman Catholic Archdiocese of Vilnius",
        "col2": "Roman Catholic Archdiocese of Vilnius",
        "col3": "Roman Catholic Archdiocese of Vilnius",
        "col4": "Roman Catholic Archdiocese of Vilnius",
        "col5": "6557000000",
        "col6": "6557000000"
    },
    {
        "col0": "Roman Catholic Diocese of Kagoshima",
        "col1": "Roman Catholic Archdiocese of Nagasaki",
        "col2": "Roman Catholic Archdiocese of Nagasaki",
        "col3": "Roman Catholic Archdiocese of Nagasaki",
        "col4": "Roman Catholic Archdiocese of Nagasaki",
        "col5": "9187000000",
        "col6": "9187000000"
    },
    {
        "col0": "Roman Catholic Diocese of Kafanchan",
        "col1": "Roman Catholic Archdiocese of Kaduna",
        "col2": "Roman Catholic Archdiocese of Kaduna",
        "col3": "Roman Catholic Archdiocese of Kaduna",
        "col4": "Roman Catholic Archdiocese of Kaduna",
        "col5": "11340000000",
        "col6": "11340000000"
    },
    {
        "col0": "Roman Catholic Diocese of Kabankalan",
        "col1": "Roman Catholic Archdiocese of Jaro",
        "col2": "Roman Catholic Archdiocese of Jaro",
        "col3": "Roman Catholic Archdiocese of Jaro",
        "col4": "Roman Catholic Archdiocese of Jaro",
        "col5": "3923700000",
        "col6": "3923700000"
    },
    {
        "col0": "Roman Catholic Diocese of Jeremie",
        "col1": "Roman Catholic Archdiocese of Port-au-Prince",
        "col2": "Roman Catholic Archdiocese of Port-au-Prince",
        "col3": "Roman Catholic Archdiocese of Port-au-Prince",
        "col4": "Roman Catholic Archdiocese of Port-au-Prince",
        "col5": "2146000000",
        "col6": "2146000000"
    },
    {
        "col0": "Roman Catholic Diocese of Juina",
        "col1": "Roman Catholic Archdiocese of Cuiaba",
        "col2": "Roman Catholic Archdiocese of Cuiaba",
        "col3": "Roman Catholic Archdiocese of Cuiaba",
        "col4": "Roman Catholic Archdiocese of Cuiaba",
        "col5": "129078000000",
        "col6": "129078000000"
    },
    {
        "col0": "Roman Catholic Diocese of Juticalpa",
        "col1": "Roman Catholic Archdiocese of Tegucigalpa",
        "col2": "Roman Catholic Archdiocese of Tegucigalpa",
        "col3": "Roman Catholic Archdiocese of Tegucigalpa",
        "col4": "Roman Catholic Archdiocese of Tegucigalpa",
        "col5": "24351000000",
        "col6": "24351000000"
    },
    {
        "col0": "Roman Catholic Diocese of Juneau",
        "col1": "Roman Catholic Archdiocese of Anchorage",
        "col2": "Roman Catholic Archdiocese of Anchorage",
        "col3": "Roman Catholic Archdiocese of Anchorage",
        "col4": "Roman Catholic Archdiocese of Anchorage",
        "col5": "97295493352",
        "col6": "97295493352"
    },
    {
        "col0": "Roman Catholic Diocese of Jundiai",
        "col1": "Roman Catholic Archdiocese of Sorocaba",
        "col2": "Roman Catholic Archdiocese of Sorocaba",
        "col3": "Roman Catholic Archdiocese of Sorocaba",
        "col4": "Roman Catholic Archdiocese of Sorocaba",
        "col5": "2262000000",
        "col6": "2262000000"
    },
    {
        "col0": "Roman Catholic Diocese of Jujuy",
        "col1": "Roman Catholic Archdiocese of Salta",
        "col2": "Roman Catholic Archdiocese of Salta",
        "col3": "Roman Catholic Archdiocese of Salta",
        "col4": "Roman Catholic Archdiocese of Salta",
        "col5": "20082000000",
        "col6": "20082000000"
    },
    {
        "col0": "Roman Catholic Diocese of Juigalpa",
        "col1": "Roman Catholic Archdiocese of Managua",
        "col2": "Roman Catholic Archdiocese of Managua",
        "col3": "Roman Catholic Archdiocese of Managua",
        "col4": "Roman Catholic Archdiocese of Managua",
        "col5": "12435000000",
        "col6": "12435000000"
    },
    {
        "col0": "Roman Catholic Diocese of Juazeiro",
        "col1": "Roman Catholic Archdiocese of Feira de Santana",
        "col2": "Roman Catholic Archdiocese of Feira de Santana",
        "col3": "Roman Catholic Archdiocese of Feira de Santana",
        "col4": "Roman Catholic Archdiocese of Feira de Santana",
        "col5": "56249000000",
        "col6": "56249000000"
    }
]