[
    {
        "col0": "Harpy Thyme",
        "col1": "Demons Don't Dream",
        "col2": "PS3551.N73 H37 1994",
        "col3": "0-312-85390-4"
    },
    {
        "col0": "Harpist in the Wind",
        "col1": "Heir of Sea and Fire",
        "col2": "PZ7.M19864 Har 1979",
        "col3": "0-689-30687-3"
    },
    {
        "col0": "Hardboiled & Hard Luck",
        "col1": "Goodbye Tsugumi",
        "col2": "PL865.O7138 H3313 2005",
        "col3": "0-8021-1799-6"
    },
    {
        "col0": "Hard to Be a God",
        "col1": "Far Rainbow",
        "col2": "PG3488.T73 T713",
        "col3": "0-8164-9121-6"
    },
    {
        "col0": "Hard Eight",
        "col1": "Seven Up",
        "col2": "PS3555.V2126 H37 2002b",
        "col3": "0-312-26585-9"
    },
    {
        "col0": "Hard Call",
        "col1": "Character Is Destiny",
        "col2": "CT105 .M395 2007",
        "col3": "978-0-446-58040-3"
    },
    {
        "col0": "Harbingers",
        "col1": "Infernal",
        "col2": "PS3573.I45695 H37 2006",
        "col3": "1-887368-84-1"
    },
    {
        "col0": "Hangfire",
        "col1": "TechnoKill",
        "col2": "CPB Box no. 1874 vol. 9",
        "col3": "0-345-43592-3"
    },
    {
        "col0": "Ham on Rye",
        "col1": "Women",
        "col2": "PS3552.U4 H3 1982",
        "col3": "0-87685-558-3"
    },
    {
        "col0": "Halo: Ghosts of Onyx",
        "col1": "Halo: First Strike",
        "col2": "PS3564.Y55 H35 2006",
        "col3": "0-7653-1568-8"
    },
    {
        "col0": "Halloween Rain",
        "col1": "Blackout",
        "col2": "CPB Box no. 1726 vol. 10",
        "col3": "0-671-01713-6"
    },
    {
        "col0": "Half a Crown",
        "col1": "Ha'penny",
        "col2": "PR6073.A448 H34 2008",
        "col3": "978-0-7653-1621-9"
    },
    {
        "col0": "Ha'penny",
        "col1": "Farthing",
        "col2": "PR6073.A448 H37 2007",
        "col3": "0-7653-1853-9"
    },
    {
        "col0": "HMS Surprise",
        "col1": "Post Captain",
        "col2": "PZ3.O1285 Hac PR6029.B55",
        "col3": "0-397-00998-4"
    },
    {
        "col0": "Guns, Germs, and Steel",
        "col1": "Why Is Sex Fun? The Evolution of Human Sexuality",
        "col2": "HM206 .D48 1997",
        "col3": "0-393-03891-2"
    },
    {
        "col0": "Guardian of the Horizon",
        "col1": "Children of the Storm",
        "col2": "PS3563.E747 G83 2004",
        "col3": "0-06-621471-8"
    },
    {
        "col0": "Gregor and the Prophecy of Bane",
        "col1": "Gregor the Overlander",
        "col2": "PZ7.C6837 Gre 2004",
        "col3": "0-439-65075-5"
    },
    {
        "col0": "Gregor and the Marks of Secret",
        "col1": "Gregor and the Curse of the Warmbloods",
        "col2": "PZ7.C6837 Gpk 2006",
        "col3": "0-439-79145-6"
    },
    {
        "col0": "Gregor and the Curse of the Warmbloods",
        "col1": "Gregor and the Prophecy of Bane",
        "col2": "PZ7.C6837 Gp 2005",
        "col3": "0-439-65623-0"
    },
    {
        "col0": "Great Sky River",
        "col1": "Across the Sea of Suns",
        "col2": "PS3552E542G7",
        "col3": "0-553-05238-1"
    },
    {
        "col0": "Grave Peril",
        "col1": "Fool Moon",
        "col2": "CPB Box no. 1840 vol. 10",
        "col3": "0-451-45844-3"
    },
    {
        "col0": "Grant Comes East",
        "col1": "Gettysburg: A Novel of the Civil War",
        "col2": "PS3557.I4945 G73 2004",
        "col3": "0-312-30937-6"
    },
    {
        "col0": "Grand Conspiracy",
        "col1": "Fugitive Prince",
        "col2": "PR6073.U78 G7 2000",
        "col3": "978-0-06-105219-4"
    },
    {
        "col0": "Grail Prince",
        "col1": "Queen of Camelot",
        "col2": "PS3613.C557 G73 2003",
        "col3": "0-345-45648-3"
    },
    {
        "col0": "Goodnight Moon",
        "col1": "The Runaway Bunny",
        "col2": "PZ7.B8163 Go 1997",
        "col3": "0-06-443017-0"
    },
    {
        "col0": "Goodbye Tsugumi",
        "col1": "Asleep",
        "col2": "PL865.O7138 T7613 2002",
        "col3": "0-8021-1638-8"
    },
    {
        "col0": "Good as Gold",
        "col1": "Something Happened",
        "col2": "PZ4.H47665 Go PS3558.E476",
        "col3": "0-671-22923-0"
    },
    {
        "col0": "Good Blonde & Others",
        "col1": "Atop an Underwood: Early Stories and Other Writings",
        "col2": "PS3521.E735 G6 1993",
        "col3": "0-912516-22-4"
    },
    {
        "col0": "Gone, Baby, Gone",
        "col1": "Sacred",
        "col2": "PS3562.E426 G66 1998",
        "col3": "978-0688153328"
    },
    {
        "col0": "Going, Going, Gone",
        "col1": "Random Acts of Senseless Violence",
        "col2": "PS3573.O575 G65 2000",
        "col3": "0-00-651105-8"
    },
    {
        "col0": "Godslayer",
        "col1": "Banewreaker",
        "col2": "PS3603.A74 G63 2005",
        "col3": "0-7653-1239-5"
    },
    {
        "col0": "Gods of Riverworld",
        "col1": "The Magic Labyrinth",
        "col2": "PS3556.A72 G6 1983",
        "col3": "0-399-12843-3"
    },
    {
        "col0": "God's Grace",
        "col1": "Dubin's Lives",
        "col2": "82-11880",
        "col3": "0-380-64519-X"
    },
    {
        "col0": "Go Ask Malice",
        "col1": "Carnival of Souls",
        "col2": "PS3612.E9375 G6 2006",
        "col3": "1-4169-1587-7"
    },
    {
        "col0": "Glass",
        "col1": "Crank",
        "col2": "PZ7.5.H67 Gla 2007",
        "col3": "978-1-4169-4090-6"
    },
    {
        "col0": "Giving: How Each of Us Can Change the World",
        "col1": "My Life",
        "col2": "HN18 .C477 2007",
        "col3": "978-0-307-26674-3"
    },
    {
        "col0": "Girls on Film",
        "col1": "The A-List",
        "col2": "PZ7.D3473 Gi 2004",
        "col3": "978-0-316-73475-2"
    },
    {
        "col0": "Girl in Landscape",
        "col1": "As She Climbed Across the Table",
        "col2": "PS3562.E8544 G5 1998",
        "col3": "0-385-48518-2"
    },
    {
        "col0": "Giggle, Giggle, Quack",
        "col1": "Click, Clack, Moo: Cows That Type",
        "col2": "PZ7.C88135 Gi 2002",
        "col3": "0-689-84506-5"
    },
    {
        "col0": "Ghoul Trouble",
        "col1": "Child of the Hunt",
        "col2": "CPB Box no. 2209 vol. 26",
        "col3": "0-7434-0042-9"
    },
    {
        "col0": "Genius Squad",
        "col1": "Evil Genius",
        "col2": "PZ7.J5754 Gen 2008",
        "col3": "978-0-15-205985-9"
    },
    {
        "col0": "Geis of the Gargoyle",
        "col1": "Harpy Thyme",
        "col2": "PS3551.N73 G35 1995",
        "col3": "0-312-85391-2"
    },
    {
        "col0": "Gears of War: Jacinto's Remnant",
        "col1": "Gears of War: Aspho Fields",
        "col2": "PR6120.R38 J33 2009",
        "col3": "978-0-345-49944-8"
    },
    {
        "col0": "Gathering Blue",
        "col1": "The Giver",
        "col2": "PZ7.L9673 Gat 2000",
        "col3": "0-618-05581-9"
    },
    {
        "col0": "Gather Together in My Name",
        "col1": "I Know Why the Caged Bird Sings",
        "col2": "PS3551.N464 Z464 1974",
        "col3": "0-394-48692-7"
    },
    {
        "col0": "Gateways",
        "col1": "The Haunted Air",
        "col2": "PS3573.I45695 G38 2003",
        "col3": "1-887368-67-1"
    },
    {
        "col0": "Gate of Ivory, Gate of Horn",
        "col1": "The Hollowing",
        "col2": "PR6058.O442 G37 1997",
        "col3": "978-0-451-45570-3"
    },
    {
        "col0": "Garment of Shadows",
        "col1": "Pirate King",
        "col2": "PS3561.I4813 G37 2012",
        "col3": "978-0-7490-1222-9"
    },
    {
        "col0": "Gargoyles",
        "col1": "Frost",
        "col2": "PT2662.E7 V413 2006",
        "col3": "978-1-4000-7755-7"
    },
    {
        "col0": "Gangsta Granny",
        "col1": "Billionaire Boy",
        "col2": "x",
        "col3": "978-0007371440"
    },
    {
        "col0": "Games Wizards Play",
        "col1": "A Wizard of Mars",
        "col2": "PZ7.D84915 Gam 2016",
        "col3": "978-0-54-741806-3"
    },
    {
        "col0": "Game Plan for Disaster",
        "col1": "Trapped At Sea",
        "col2": "PZ7.D644 Gam 1982",
        "col3": "0-671-42365-7"
    },
    {
        "col0": "Gai-Jin",
        "col1": "Tai-Pan",
        "col2": "PS3553.L365 G34 1993",
        "col3": "0-385-31016-1"
    },
    {
        "col0": "Futures Past",
        "col1": "Beyond Singularity",
        "col2": "CPB Box no. 2681 vol. 5",
        "col3": "978-0-441-01454-5"
    },
    {
        "col0": "Funeral Games",
        "col1": "The Persian Boy",
        "col2": "PR6035.E55 F8 1981",
        "col3": "0-394-52068-8"
    },
    {
        "col0": "Fudge-a-Mania",
        "col1": "Superfudge",
        "col2": "PZ7.B6265 Fu 1990",
        "col3": "0-525-44672-9"
    },
    {
        "col0": "Frostbite",
        "col1": "Vampire Academy",
        "col2": "PZ7.M478897 Fro 2008",
        "col3": "978-1-59514-175-0"
    },
    {
        "col0": "From the Place in the Valley Deep in the Forest",
        "col1": "The Cosmology of Bing",
        "col2": "PS3553.U319 F76 2001",
        "col3": "978-0-8023-1336-2"
    },
    {
        "col0": "Frog and Toad Together",
        "col1": "Frog and Toad Are Friends",
        "col2": "PZ10.3.L787 Fr",
        "col3": "9780060239602"
    },
    {
        "col0": "Frog and Toad All Year",
        "col1": "Frog and Toad Together",
        "col2": "PZ7.L7795 Fq3",
        "col3": "9780060239503"
    },
    {
        "col0": "Freedomnomics",
        "col1": "The Bias Against Guns",
        "col2": "HB95 .L68 2007",
        "col3": "978-1-59698-506-3"
    },
    {
        "col0": "Freedomland",
        "col1": "Clockers",
        "col2": "PS3566.R544 F74 1998",
        "col3": "0-7679-0024-3"
    },
    {
        "col0": "Free Trade Reimagined: The World Division of Labor and the Method of Economics",
        "col1": "The Self Awakened: Pragmatism Unbound",
        "col2": "HF1713.U42 2007",
        "col3": "9780691134291"
    },
    {
        "col0": "Freddy the Pilot",
        "col1": "Freddy Rides Again",
        "col2": "PZ7.B7994 Frt 2001",
        "col3": "0-14-230044-6"
    },
    {
        "col0": "Freddy the Magician",
        "col1": "Freddy the Pied Piper",
        "col2": "PZ7.B7994 Frk 2002",
        "col3": "1-58567-310-2"
    },
    {
        "col0": "Freddy and the Bean Home News",
        "col1": "Freddy and the Perilous Adventure",
        "col2": "PZ7.B7994 Foc 2002",
        "col3": "0-14-230088-8"
    },
    {
        "col0": "Freddy Goes Camping",
        "col1": "Freddy the Magician",
        "col2": "PZ7.B7994 Frb 1986",
        "col3": "0-394-97602-9"
    },
    {
        "col0": "Fragile Eternity",
        "col1": "Ink Exchange",
        "col2": "PZ7.M34788 Wi 2007",
        "col3": "978-0-06-121465-3"
    },
    {
        "col0": "Four to Score",
        "col1": "Three to Get Deadly",
        "col2": "PS3555.V2126 F6 1998",
        "col3": "0-312-18586-3"
    },
    {
        "col0": "Four Ways to Forgiveness",
        "col1": "The Word for World is Forest",
        "col2": "PS3562.E42 F68 1995",
        "col3": "0-06-105234-5"
    },
    {
        "col0": "Foundation and Chaos",
        "col1": "Forward the Foundation",
        "col2": "PS3552.E157 F65 1998",
        "col3": "978-0-06-105242-2"
    },
    {
        "col0": "Foundation's Triumph",
        "col1": "Foundation and Chaos",
        "col2": "CPB Box no. 1824 vol. 23",
        "col3": "978-0-06-105639-0"
    },
    {
        "col0": "Foundation's Edge",
        "col1": "Second Foundation",
        "col2": "PS3551.S5 F6 1982",
        "col3": "0-385-17725-9"
    },
    {
        "col0": "Fortune's Fool",
        "col1": "One Good Knight",
        "col2": "PS3562.A246 F675 2007",
        "col3": "978-0-373-80266-1"
    },
    {
        "col0": "Forging the Sword",
        "col1": "Rise of a Hero",
        "col2": "PZ7.B38894 For 2007",
        "col3": "0-689-85416-1"
    },
    {
        "col0": "Forever Peace",
        "col1": "The Forever War",
        "col2": "PS3558.A353 F6 1997",
        "col3": "0-441-00406-7"
    },
    {
        "col0": "Forever Odd",
        "col1": "Odd Thomas",
        "col2": "PS3561.O55 F66 2006b",
        "col3": "0-553-80416-2"
    },
    {
        "col0": "Forest",
        "col1": "Thursday's Child",
        "col2": "PR9619.3.H3345 F67 2001",
        "col3": "0-670-89920-8"
    },
    {
        "col0": "Ford County",
        "col1": "The Associate",
        "col2": "PS3557.R5355 F67 2009",
        "col3": "978-0-385-53245-7"
    },
    {
        "col0": "Forbidden Creatures",
        "col1": "The Dangerous World of Butterflies",
        "col2": "SK591 .L38 2010",
        "col3": "978-1-59921-926-4"
    },
    {
        "col0": "For Love of Evil",
        "col1": "Being a Green Mother",
        "col2": "PS3551.N73 F6 1988",
        "col3": "978-0-688-08211-6"
    },
    {
        "col0": "Fools Die",
        "col1": "The Godfather",
        "col2": "PZ4.P994 Fn 1978 PS3566.U9",
        "col3": "0-399-12244-3"
    },
    {
        "col0": "Fool Moon",
        "col1": "Storm Front",
        "col2": "CPB Box no. 1853 vol. 14",
        "col3": "0-451-45812-5"
    },
    {
        "col0": "Fool",
        "col1": "You Suck: A Love Story",
        "col2": "PS3563.O594 F65 2009",
        "col3": "978-0-06-059031-4"
    },
    {
        "col0": "Foley Is Good",
        "col1": "Have a Nice Day: A Tale of Blood and Sweatsocks",
        "col2": "GV1196.F64 A32 2001",
        "col3": "0-06-039300-9"
    },
    {
        "col0": "Fluke, or, I Know Why the Winged Whale Sings",
        "col1": "Lamb: The Gospel According to Biff, Christ's Childhood Pal",
        "col2": "PS3563.O594 F58 2003",
        "col3": "0-380-97841-5"
    },
    {
        "col0": "Flood Tide",
        "col1": "Shock Wave",
        "col2": "PS3553.U75 F58 1997",
        "col3": "0-684-80298-8"
    },
    {
        "col0": "Flinx in Flux",
        "col1": "The End of the Matter",
        "col2": "CPB Box no. 1744 vol. 10",
        "col3": "0-345-34363-8"
    },
    {
        "col0": "Flinx Transcendent",
        "col1": "Patrimony",
        "col2": "PS3556.O756 F575 2009",
        "col3": "978-0-345-49607-2"
    },
    {
        "col0": "Flinx's Folly",
        "col1": "Reunion",
        "col2": "PS3556.O756 F57 2003",
        "col3": "0-345-45038-8"
    },
    {
        "col0": "Flight of the Fire Thief",
        "col1": "The Fire Thief",
        "col2": "MLCS 2006/45860",
        "col3": "978-0-7534-5819-8"
    },
    {
        "col0": "Fleet of Worlds",
        "col1": "At the Core",
        "col2": "PS3564.I9 F57 2007",
        "col3": "0-7653-1825-3"
    },
    {
        "col0": "Flashman in the Great Game",
        "col1": "Flashman at the Charge",
        "col2": "PZ4.F8418 Fn PR6056.R287",
        "col3": "0-214-20120-1"
    },
    {
        "col0": "Flashman at the Charge",
        "col1": "Flash for Freedom!",
        "col2": "PZ4.F8418 Fm PR6056.R287",
        "col3": "978-0-214-66841-8"
    },
    {
        "col0": "Flashfire",
        "col1": "A World of Hurt",
        "col2": "PS3569.H4175 F57 2006",
        "col3": "0-345-46054-5"
    },
    {
        "col0": "Flash for Freedom!",
        "col1": "Royal Flash",
        "col2": "PZ4.F8418 Ro PR6056.R287",
        "col3": "978-0-257-65101-9"
    },
    {
        "col0": "Flash",
        "col1": "Archform: Beauty",
        "col2": "PS3563.O264 F58 2004",
        "col3": "0-7653-1128-3"
    },
    {
        "col0": "Flambards in Summer",
        "col1": "The Edge of the Cloud",
        "col2": "PZ7.P4483 Fm",
        "col3": "0-19-271312-4"
    },
    {
        "col0": "Flag in Exile",
        "col1": "Field of Dishonor",
        "col2": "PS3573.E217 F57 2001",
        "col3": "0-671-31980-9"
    },
    {
        "col0": "Five Hundred Years After",
        "col1": "The Phoenix Guards",
        "col2": "PS3552.R84 F58 1994",
        "col3": "0-312-85179-0"
    },
    {
        "col0": "Firstborn",
        "col1": "Sunstorm",
        "col2": "PR6005.L36 F57 2008",
        "col3": "978-0-345-49157-2"
    },
    {
        "col0": "First Love: A Gothic Tale",
        "col1": "Zombie",
        "col2": "PS3565.A8 F57 1996",
        "col3": "0-88001-457-1"
    },
    {
        "col0": "First King of Shannara",
        "col1": "The Measure of the Magic",
        "col2": "PS3552.R6596 F57 1996",
        "col3": "0-345-39652-9"
    },
    {
        "col0": "First Contact?",
        "col1": "Nearly Neptune",
        "col2": "PZ7.W1715 Fg",
        "col3": "0-571-09757-X"
    },
    {
        "col0": "Firestar's Quest",
        "col1": "The Darkest Hour",
        "col2": "PZ7.H916625 Firs 2007",
        "col3": "978-0-06-113164-6"
    },
    {
        "col0": "Firesong",
        "col1": "Slaves of the Mastery",
        "col2": "PZ7.N5548 Fir 2002",
        "col3": "0-7868-0571-4"
    },
    {
        "col0": "Fire Study",
        "col1": "Magic Study",
        "col2": "PS3619.N937 F57 2008",
        "col3": "978-0-7783-2534-5"
    },
    {
        "col0": "Fire: From a Journal of Love",
        "col1": "Incest: From a Journal of Love",
        "col2": "PS3527.I865 Z466 1995",
        "col3": "0-15-100088-3"
    },
    {
        "col0": "Fifty Degrees Below",
        "col1": "Forty Signs of Rain",
        "col2": "PS3568.O2893 F54 2005",
        "col3": "0-553-80312-3"
    },
    {
        "col0": "Fences and Windows",
        "col1": "No Logo",
        "col2": "JZ1318 .K575 2002",
        "col3": "978-0-312-30799-8"
    },
    {
        "col0": "Faun & Games",
        "col1": "Yon Ill Wind",
        "col2": "PS3551.N73 F38 1997",
        "col3": "0-312-86162-1"
    },
    {
        "col0": "Fathom Five",
        "col1": "The Machine Gunners",
        "col2": "Subclass PZ",
        "col3": "679801316"
    },
    {
        "col0": "Fathers and Crows",
        "col1": "The Ice-Shirt",
        "col2": "PS3572.O395 F38 1992",
        "col3": "0-670-84333-4"
    },
    {
        "col0": "Farewell Summer",
        "col1": "Dandelion Wine",
        "col2": "PS3503.R167 F45 2006",
        "col3": "0-06-113154-7"
    },
    {
        "col0": "Farewell, My Lovely",
        "col1": "The Big Sleep",
        "col2": "PS3505.H3224 F3 1988/1940",
        "col3": "0-394-75827-7"
    },
    {
        "col0": "Far Rainbow",
        "col1": "Escape Attempt",
        "col2": "PG3476.S78835 D33 1979",
        "col3": "0-02-615200-2"
    },
    {
        "col0": "Fantastic Voyage: Live Long Enough to Live Forever",
        "col1": "The 10% Solution for a Healthy Life",
        "col2": "RA776.75 .K875 2004",
        "col3": "1-57954-954-3"
    },
    {
        "col0": "Faith of the Fallen",
        "col1": "Soul of the Fire",
        "col2": "PS3557.O5826 F35 2000",
        "col3": "0-312-86786-7"
    },
    {
        "col0": "Fairest",
        "col1": "Ella Enchanted",
        "col2": "PZ8.L4793 Fa 2006",
        "col3": "0-06-073408-6"
    },
    {
        "col0": "Extinction",
        "col1": "Condemnation",
        "col2": "PS3619.M43 E98 2004",
        "col3": "0-7869-2989-8"
    },
    {
        "col0": "Extinction",
        "col1": "Yes",
        "col2": "PT2662.E7 A9513 1995",
        "col3": "978-0-394-57253-6"
    },
    {
        "col0": "Exile's Gate",
        "col1": "Fires of Azeroth",
        "col2": "CPB Box no. 1731 vol. 10",
        "col3": "0-88677-254-0"
    },
    {
        "col0": "Executive Orders",
        "col1": "Debt of Honor",
        "col2": "PS3553.L245 E9 1996",
        "col3": "0-399-14218-5"
    },
    {
        "col0": "Evil, Inc.",
        "col1": "Dead on Target",
        "col2": "CPB Box no. 1779 vol. 1",
        "col3": "0-671-62559-4"
    },
    {
        "col0": "Every Second Counts",
        "col1": "It's Not About the Bike: My Journey Back to Life",
        "col2": "GV1051.A76 A3 2003b",
        "col3": "0-385-50871-9"
    },
    {
        "col0": "Escape from Hell",
        "col1": "Inferno",
        "col2": "PS3564.I9 E83 2009",
        "col3": "978-0-7653-1632-5"
    },
    {
        "col0": "Escape from Fire Mountain",
        "col1": "Rodomonte's Revenge",
        "col2": "PZ7.P2843 Es 1995",
        "col3": "0-440-41025-8"
    },
    {
        "col0": "Escape Attempt",
        "col1": "Noon: 22nd Century",
        "col2": "PG3476.S78835 A23 1982",
        "col3": "0-02-615250-9"
    },
    {
        "col0": "Enna Burning",
        "col1": "The Goose Girl",
        "col2": "PZ8.H134 En 2004",
        "col3": "1-58234-889-8"
    },
    {
        "col0": "Engaging the Muslim World",
        "col1": "Juan Cole",
        "col2": "DS35.74.U6 C65 2009",
        "col3": "0-230-60754-3"
    },
    {
        "col0": "Ender in Exile",
        "col1": "Ender's Game",
        "col2": "PS3553.A655 E498 2008",
        "col3": "0-7653-0496-1"
    },
    {
        "col0": "End the Fed",
        "col1": "The Revolution: A Manifesto",
        "col2": "HG2563 .P384 2009",
        "col3": "978-0-446-54919-6"
    },
    {
        "col0": "Empire",
        "col1": "1876",
        "col2": "PS3543.I26 E4 2000",
        "col3": "978-0-375-70874-9"
    },
    {
        "col0": "Elvissey",
        "col1": "Terraplane",
        "col2": "PS3573.O575 E48 1997",
        "col3": "0-312-85202-9"
    },
    {
        "col0": "Elmer and the Dragon",
        "col1": "My Father's Dragon",
        "col2": "PZ7.G15 El 1987",
        "col3": "978-0-394-89049-4"
    },
    {
        "col0": "Elephants Can Remember",
        "col1": "The Golden Ball and Other Stories",
        "col2": "PZ3.C4637 El4 PR6005.H66",
        "col3": "0-00-231210-7"
    },
    {
        "col0": "Electronic Life",
        "col1": "Jasper Johns",
        "col2": "QA76.5 .C74 1983",
        "col3": "0-394-53406-9"
    },
    {
        "col0": "Eldest",
        "col1": "Eragon",
        "col2": "PZ7.P19535 El 2005",
        "col3": "0-375-82670-X"
    },
    {
        "col0": "Elbow Room",
        "col1": "The Mind's I",
        "col2": "BJ1461 .D426 1984",
        "col3": "0-262-04077-8"
    },
    {
        "col0": "Eight Skilled Gentlemen",
        "col1": "The Story of the Stone",
        "col2": "PS3558.U347 E37 1991",
        "col3": "0-385-41709-8"
    },
    {
        "col0": "Eight Little Piggies",
        "col1": "Bully for Brontosaurus",
        "col2": "QH45.5 .G7 1993",
        "col3": "0-393-03416-X"
    },
    {
        "col0": "Eden",
        "col1": "The Investigation",
        "col2": "PG7158.L39 E313 1989",
        "col3": "0-15-627806-5"
    },
    {
        "col0": "Ecotopia Emerging",
        "col1": "Ecotopia",
        "col2": "PS3553.A424 E3",
        "col3": "0-9604320-4-3"
    },
    {
        "col0": "Eclipse",
        "col1": "New Moon",
        "col2": "PZ7.M5717515 Ec 2007",
        "col3": "978-0-316-16020-9"
    },
    {
        "col0": "Echopraxia",
        "col1": "Blindsight",
        "col2": "PR9199.3.W386 E24 2014",
        "col3": "978-0765328038"
    },
    {
        "col0": "Ecce Homo",
        "col1": "The Antichrist",
        "col2": "B3316.N54 A3413 1992",
        "col3": "978-0140445152"
    },
    {
        "col0": "Eaters of the Dead",
        "col1": "The Great Train Robbery",
        "col2": "PZ4.C9178 Eat3 PS3553.R48",
        "col3": "0-394-49400-8"
    },
    {
        "col0": "Earthquake Weather",
        "col1": "Expiration Date",
        "col2": "PS3566.O95 L37 1992",
        "col3": "0-688-10732-X"
    },
    {
        "col0": "Earthfall",
        "col1": "The Ships of Earth",
        "col2": "PS3553.A655 E48 1995",
        "col3": "0-312-93039-9"
    },
    {
        "col0": "Earthborn",
        "col1": "Earthfall",
        "col2": "PS3553.A655 E47 1995",
        "col3": "0-312-93040-2"
    },
    {
        "col0": "Duty and Desire",
        "col1": "An Assembly Such as This",
        "col2": "PS3601.I33 D88 2006",
        "col3": "0-7432-9136-0"
    },
    {
        "col0": "Dune: The Machine Crusade",
        "col1": "Dune: The Butlerian Jihad",
        "col2": "PS3558.E617 D895 2003",
        "col3": "0-7653-0158-X"
    },
    {
        "col0": "Dune: The Battle of Corrin",
        "col1": "Dune: The Machine Crusade",
        "col2": "PS3558.E617 D88 2004",
        "col3": "0-7653-0159-8"
    },
    {
        "col0": "Dune: House Harkonnen",
        "col1": "Dune: House Atreides",
        "col2": "PS3558.E617 D87 2000",
        "col3": "0-553-11072-1"
    },
    {
        "col0": "Dune: House Corrino",
        "col1": "Dune: House Harkonnen",
        "col2": "PS3558.E617 D865 2001",
        "col3": "0-553-11084-5"
    },
    {
        "col0": "Dunc's Halloween",
        "col1": "Dunc Gets Tweaked",
        "col2": "MLC R CP01273",
        "col3": "0-440-40659-5"
    },
    {
        "col0": "Duck for President",
        "col1": "Giggle, Giggle, Quack",
        "col2": "PZ7.C88135 Du 2004",
        "col3": "0-689-86377-2"
    }
]