[
    {
        "col0": "I. F. Mayo",
        "col1": "London",
        "col2": "1843-12-10",
        "col3": "1914-5-13",
        "col4": "1843-12-10"
    },
    {
        "col0": "I. D. Hooson",
        "col1": "Rhosllannerchrugog",
        "col2": "1880-9-2",
        "col3": "1948-10-18",
        "col4": "1880-9-2"
    },
    {
        "col0": "I. Tree",
        "col1": "London",
        "col2": "1897-1-27",
        "col3": "1968-4-13",
        "col4": "1897-1-27"
    },
    {
        "col0": "I. Peate",
        "col1": "Llanbrynmair",
        "col2": "1901-2-27",
        "col3": "1982-10-19",
        "col4": "1901-2-27"
    },
    {
        "col0": "I. D. Ffraid",
        "col1": "Conwy County Borough",
        "col2": "1814-7-23",
        "col3": "1875-3-4",
        "col4": "1814-7-23"
    },
    {
        "col0": "G. Mechain",
        "col1": "Mechain",
        "col2": "1440-0-0",
        "col3": "1502-0-0",
        "col4": "1440-0-0"
    },
    {
        "col0": "F. W. Tancred",
        "col1": "New Zealand",
        "col2": "1874-2-21",
        "col3": "1925-11-25",
        "col4": "1874-2-21"
    },
    {
        "col0": "E. Williams",
        "col1": "Caernarfonshire",
        "col2": "1867-05-02",
        "col3": "1926-10-13",
        "col4": "1867-05-02"
    },
    {
        "col0": "E. John",
        "col1": "United Kingdom",
        "col2": "1883-11-27",
        "col3": "1917-02-28",
        "col4": "1883-11-27"
    },
    {
        "col0": "D. Thomas",
        "col1": "Llanwenog",
        "col2": "1828-6-4",
        "col3": "1909-3-9",
        "col4": "1828-6-4"
    },
    {
        "col0": "D. Richards",
        "col1": "Towyn",
        "col2": "1751-1-22",
        "col3": "1827-5-12",
        "col4": "1751-1-22"
    },
    {
        "col0": "C. Middleton",
        "col1": "Truro",
        "col2": "1926-6-10",
        "col3": "2015-11-29",
        "col4": "1926-6-10"
    },
    {
        "col0": "A. James",
        "col1": "Nantlle",
        "col2": "1677-0-0",
        "col3": "1749-8-25",
        "col4": "1677-0-0"
    }
]