[
    {
        "col0": "I. A. Sayfour",
        "col1": "Iraq",
        "col2": "Arbil",
        "col3": "1955-1-1"
    },
    {
        "col0": "G. Galan",
        "col1": "Italians",
        "col2": "Padua",
        "col3": "1956-09-10"
    },
    {
        "col0": "G. M. Spacca",
        "col1": "Italy",
        "col2": "Ancona",
        "col3": "1953-02-16"
    },
    {
        "col0": "F. Falcucci",
        "col1": "Italians",
        "col2": "Rome",
        "col3": "1926-03-22"
    },
    {
        "col0": "E. Montino",
        "col1": "Italians",
        "col2": "Rome",
        "col3": "1948-4-6"
    },
    {
        "col0": "C. Previti",
        "col1": "Italians",
        "col2": "Italy",
        "col3": "1934-10-21"
    },
    {
        "col0": "C. Marini",
        "col1": "Italians",
        "col2": "Perugia",
        "col3": "1967-09-25"
    },
    {
        "col0": "B. Mulroney",
        "col1": "Canadians",
        "col2": "Palm Beach, Florida",
        "col3": "1939-03-20"
    },
    {
        "col0": "A. Bassolino",
        "col1": "Italians",
        "col2": "Italy",
        "col3": "1947-03-20"
    },
    {
        "col0": "A. Papa",
        "col1": "Italians",
        "col2": "Campania",
        "col3": "1970-01-02"
    }
]