[
    {
        "col0": "P. Lund",
        "col1": "Rice Lake, Wisconsin",
        "col2": "Minneapolis",
        "col3": "Minnesota Golden Gophers football",
        "col4": "1913-04-08"
    },
    {
        "col0": "O. Pommerening",
        "col1": "Ann Arbor, Michigan",
        "col2": "West Bloomfield Township, Michigan",
        "col3": "Michigan Wolverines football",
        "col4": "1904-01-26"
    },
    {
        "col0": "O. Kuhn",
        "col1": "Nashville, Tennessee",
        "col2": "Tampa, Florida",
        "col3": "Notre Dame Fighting Irish football",
        "col4": "1898-08-14"
    },
    {
        "col0": "N. Caton",
        "col1": "River Falls, Alabama",
        "col2": "Birmingham, Alabama",
        "col3": "Auburn Tigers football",
        "col4": "1897-02-17"
    },
    {
        "col0": "N. Storter",
        "col1": "Everglades City, Florida",
        "col2": "Brownsville, Texas",
        "col3": "Florida Gators football",
        "col4": "1890-10-03"
    },
    {
        "col0": "L. McClung",
        "col1": "Knoxville, Tennessee",
        "col2": "London",
        "col3": "Yale Bulldogs football",
        "col4": "1870-03-26"
    },
    {
        "col0": "L. Kelley",
        "col1": "Conneaut, Ohio",
        "col2": "Hightstown, New Jersey",
        "col3": "Yale Bulldogs football",
        "col4": "1915-05-30"
    },
    {
        "col0": "L. Dupree",
        "col1": "Baker County, Florida",
        "col2": "Macclenny, Florida",
        "col3": "Florida Gators football",
        "col4": "1943-12-22"
    },
    {
        "col0": "L. Sarra",
        "col1": "Florida",
        "col2": "Jacksonville, Florida",
        "col3": "Florida Gators football",
        "col4": "1904-09-11"
    },
    {
        "col0": "J. DeWitt",
        "col1": "Phillipsburg, New Jersey",
        "col2": "New York City",
        "col3": "Princeton Tigers football",
        "col4": "1881-10-29"
    },
    {
        "col0": "J. Steele",
        "col1": "Tampa, Florida",
        "col2": "Hillsborough County, Florida",
        "col3": "Florida Gators football",
        "col4": "1909-12-11"
    },
    {
        "col0": "J. Berwanger",
        "col1": "Dubuque, Iowa",
        "col2": "Oak Brook, Illinois",
        "col3": "Chicago Maroons football",
        "col4": "1914-03-19"
    },
    {
        "col0": "J. P. Lee",
        "col1": "New York City",
        "col2": "Southampton, New York",
        "col3": "Columbia University",
        "col4": "1870-06-06"
    },
    {
        "col0": "H. D. Phillips",
        "col1": "Philadelphia",
        "col2": "Boone, North Carolina",
        "col3": "Sewanee Tigers football",
        "col4": "1882-01-16"
    },
    {
        "col0": "H. Dowling",
        "col1": "Savannah, Georgia",
        "col2": "Tallahassee, Florida",
        "col3": "Georgia Tech Yellow Jackets football",
        "col4": "1895-11-12"
    },
    {
        "col0": "G. Goldstein",
        "col1": "New Jersey",
        "col2": "Miami-Dade County, Florida",
        "col3": "Florida Gators football",
        "col4": "1904-07-17"
    },
    {
        "col0": "G. Gipp",
        "col1": "Michigan",
        "col2": "South Bend, Indiana",
        "col3": "Notre Dame Fighting Irish football",
        "col4": "1895-02-18"
    },
    {
        "col0": "G. Adee",
        "col1": "Stonington, Connecticut",
        "col2": "New York City",
        "col3": "Yale Bulldogs football",
        "col4": "1874-01-04"
    },
    {
        "col0": "F. Steketee",
        "col1": "Grand Rapids, Michigan",
        "col2": "Lansing, Michigan",
        "col3": "Michigan Wolverines football",
        "col4": "1900-04-26"
    },
    {
        "col0": "F. K. Ferguson",
        "col1": "San Marco",
        "col2": "Coral Gables, Florida",
        "col3": "Florida Gators football",
        "col4": "1919-06-21"
    },
    {
        "col0": "E. Hart",
        "col1": "Exeter, New Hampshire",
        "col2": "Toronto",
        "col3": "Princeton Tigers football",
        "col4": "1887-05-26"
    },
    {
        "col0": "E. Taylor",
        "col1": "Ashland, Kansas",
        "col2": "Gainesville, Florida",
        "col3": "Florida Gators football",
        "col4": "1891-02-02"
    },
    {
        "col0": "E. R. Moulton",
        "col1": "Mobile, Alabama",
        "col2": "Rome, Georgia",
        "col3": "Auburn Tigers football",
        "col4": "1900-04-21"
    },
    {
        "col0": "D. Blanchard",
        "col1": "South Carolina",
        "col2": "Bulverde, Texas",
        "col3": "North Carolina Tar Heels",
        "col4": "1924-12-11"
    },
    {
        "col0": "D. Kazmaier",
        "col1": "Maumee River",
        "col2": "Boston",
        "col3": "Princeton Tigers football",
        "col4": "1930-11-23"
    },
    {
        "col0": "D. V. Sickel",
        "col1": "Eatonton, Georgia",
        "col2": "Newport Beach, California",
        "col3": "Florida Gators football",
        "col4": "1907-11-29"
    },
    {
        "col0": "C. Frank",
        "col1": "St. Louis, Missouri",
        "col2": "Evanston, Illinois",
        "col3": "Yale Bulldogs football",
        "col4": "1915-09-13"
    },
    {
        "col0": "C. LaPradd",
        "col1": "St. Augustine, Florida",
        "col2": "Gainesville, Florida",
        "col3": "Florida Gators football",
        "col4": "1927-08-24"
    },
    {
        "col0": "C. Chadwick",
        "col1": "Brooklyn, New York",
        "col2": "Boston",
        "col3": "Yale Bulldogs football",
        "col4": "1874-11-19"
    },
    {
        "col0": "B. B. Edwards",
        "col1": "Lisle, New York",
        "col2": "Manhattan",
        "col3": "Princeton Tigers football",
        "col4": "1877-02-23"
    },
    {
        "col0": "A. Pew",
        "col1": "Damascus, Georgia",
        "col2": "Paris",
        "col3": "Georgia Bulldogs football",
        "col4": "1898-03-26"
    },
    {
        "col0": "A. Newton",
        "col1": "Camden, Arkansas",
        "col2": "Nashville, Tennessee",
        "col3": "Hendrix College",
        "col4": "1903-01-31"
    },
    {
        "col0": "A. Benbrook",
        "col1": "Chicago, Illinois",
        "col2": "Dallas",
        "col3": "Michigan Wolverines football",
        "col4": "1887-08-24"
    }
]