[
    {
        "col0": "Berwick, East Sussex",
        "col1": "Wealden",
        "col2": "57",
        "col3": "77248"
    },
    {
        "col0": "Beeston Regis",
        "col1": "North Norfolk",
        "col2": "389",
        "col3": "225308"
    },
    {
        "col0": "Beckley, East Sussex",
        "col1": "Rother",
        "col2": "44",
        "col3": "77248"
    },
    {
        "col0": "Battle, East Sussex",
        "col1": "Rother",
        "col2": "194",
        "col3": "77248"
    },
    {
        "col0": "Barton Turf",
        "col1": "North Norfolk",
        "col2": "44",
        "col3": "212433"
    },
    {
        "col0": "Barcombe",
        "col1": "Lewes",
        "col2": "81",
        "col3": "65983"
    },
    {
        "col0": "Ashburnham and Penhurst",
        "col1": "Rother",
        "col2": "16",
        "col3": "70811"
    },
    {
        "col0": "Arlington, East Sussex",
        "col1": "Wealden",
        "col2": "26",
        "col3": "75639"
    },
    {
        "col0": "Alfriston",
        "col1": "Wealden",
        "col2": "82",
        "col3": "78857"
    },
    {
        "col0": "Alciston",
        "col1": "Wealden",
        "col2": "16",
        "col3": "77248"
    }
]