[
    {
        "col0": "Allopurinol",
        "col1": "40279",
        "col2": "1H-pyrazolo[3,4-d]pyrimidin-4(2H)-one",
        "col3": "78",
        "col4": "2094"
    },
    {
        "col0": "Alfuzosin",
        "col1": "51141",
        "col2": "N-[3-[(4-Amino-6,7-dimethoxy-quinazolin-2-yl)- methyl-amino]propyl] tetrahydrofuran- 2-carboxamide",
        "col3": "49",
        "col4": "2092"
    },
    {
        "col0": "Alfentanil",
        "col1": "2569",
        "col2": "N-{1-[2-(4-ethyl-5-oxo-4,5-dihydro-1H-1,2,3,4-tetrazol-1-yl)ethyl]-4-(methoxymethyl)piperidin-4-yl}-N-phenylpropanamide",
        "col3": "100",
        "col4": "51263"
    },
    {
        "col0": "Alendronic acid",
        "col1": "2567",
        "col2": "sodium[4-amino-1-hydroxy-1-(hydroxy-oxido-phosphoryl)- butyl]phosphonic acid trihydrate",
        "col3": "0",
        "col4": "2088"
    },
    {
        "col0": "Aclidinium bromide",
        "col1": "65344",
        "col2": "[(8R)-1-(3-Phenoxypropyl)-1-azoniabicyclo[2.2.2]octan-8-yl] 2-hydroxy-2,2-dithiophen-2-ylacetate bromide",
        "col3": "30",
        "col4": "11519741"
    },
    {
        "col0": "Acitretin",
        "col1": "50173",
        "col2": "(2E,4E,6E,8E)-9-(4-methoxy-2,3,6-trimethylphenyl)-3,7-dimethylnona-2,4,6,8-tetraenoic acid",
        "col3": "60",
        "col4": "5284513"
    },
    {
        "col0": "Aciclovir",
        "col1": "2453",
        "col2": "2-Amino-1,9-dihydro-9-((2-hydroxyethoxy)methyl)-6H-purin-6-one",
        "col3": "15",
        "col4": "2022"
    },
    {
        "col0": "Acetylcysteine",
        "col1": "28939",
        "col2": "(2R)-2-acetamido-3-sulfanylpropanoic acid",
        "col3": "10",
        "col4": "581"
    },
    {
        "col0": "Acepromazine",
        "col1": "44932",
        "col2": "1-{10-[3-(Dimethylamino)propyl]-10H-phenothiazin-2-yl}ethanone",
        "col3": "6",
        "col4": "6077"
    },
    {
        "col0": "Acebutolol",
        "col1": "2379",
        "col2": "(RS)-N-{3-acetyl-4-[2-hydroxy-3-(propan-2-ylamino)propoxy]phenyl}butanamide",
        "col3": "40",
        "col4": "1978"
    },
    {
        "col0": "Acamprosate",
        "col1": "51042",
        "col2": "3-Acetamidopropane-1-sulfonic acid",
        "col3": "11",
        "col4": "155434"
    },
    {
        "col0": "Abacavir",
        "col1": "421707",
        "col2": "{(1S,4R)-4-[2-amino-6-(cyclopropylamino)-9H-purin-9-yl]cyclopent-2-en-1-yl}methanol",
        "col3": "83",
        "col4": "441300"
    }
]