[
    {
        "col0": "Sberbank Srbija",
        "col1": "Belgrade",
        "col2": "568",
        "col3": "66050000"
    },
    {
        "col0": "Saudi Readymix Concrete Company",
        "col1": "Saudi Arabia",
        "col2": "2900",
        "col3": "1400000000"
    },
    {
        "col0": "SatCon Technology Corporation",
        "col1": "Boston, Massachusetts",
        "col2": "246",
        "col3": "129"
    },
    {
        "col0": "Sasol",
        "col1": "Johannesburg",
        "col2": "30400",
        "col3": "21780000000"
    },
    {
        "col0": "SaskPower",
        "col1": "Regina, Saskatchewan",
        "col2": "3100",
        "col3": "1862"
    },
    {
        "col0": "Sarawak Energy",
        "col1": "Sarawak",
        "col2": "4200",
        "col3": "1553"
    },
    {
        "col0": "Saravana Bhavan",
        "col1": "Chennai",
        "col2": "8700",
        "col3": "450000000"
    },
    {
        "col0": "Saras S.p.A.",
        "col1": "Sarroch",
        "col2": "1812",
        "col3": "11230000000"
    },
    {
        "col0": "Sapiens International Corporation",
        "col1": "Holon",
        "col2": "1500",
        "col3": "185640000"
    },
    {
        "col0": "Sanrio",
        "col1": "Tokyo",
        "col2": "739",
        "col3": "74233"
    },
    {
        "col0": "Sanmina Corporation",
        "col1": "San Jose, California",
        "col2": "38417",
        "col3": "6215000000"
    },
    {
        "col0": "Samvardhana Motherson Peguform",
        "col1": "Botzingen",
        "col2": "10000",
        "col3": "2200000000"
    },
    {
        "col0": "Samson AG",
        "col1": "Frankfurt am Main",
        "col2": "4000",
        "col3": "621000000"
    },
    {
        "col0": "Salvatore Ferragamo S.p.A.",
        "col1": "Florence",
        "col2": "4033",
        "col3": "1152"
    },
    {
        "col0": "Salomon Group",
        "col1": "Epagny-Metz-Tessy",
        "col2": "2800",
        "col3": "683000000"
    },
    {
        "col0": "Salesforce Marketing Cloud",
        "col1": "Indianapolis, Indiana",
        "col2": "1800",
        "col3": "292300000"
    },
    {
        "col0": "Salavatnefteorgsintez",
        "col1": "Bashkortostan",
        "col2": "12500",
        "col3": "2400000000"
    },
    {
        "col0": "Saidal",
        "col1": "Annaba",
        "col2": "4300",
        "col3": "982000000"
    },
    {
        "col0": "Sage Group",
        "col1": "Newcastle upon Tyne",
        "col2": "13271",
        "col3": "1435"
    },
    {
        "col0": "Saft Groupe S.A.",
        "col1": "Bagnolet",
        "col2": "4100",
        "col3": "628700000"
    },
    {
        "col0": "Safran",
        "col1": "Paris",
        "col2": "70000",
        "col3": "17414000000"
    },
    {
        "col0": "Safilo",
        "col1": "Padua",
        "col2": "8108",
        "col3": "3080000000"
    }
]