[
    {
        "col0": "Prainha",
        "col1": "Pico Island",
        "col2": "0",
        "col3": "(+351) 292 XXX-XXXX"
    },
    {
        "col0": "Praia do Norte",
        "col1": "Faial Island",
        "col2": "0",
        "col3": "(+351) 292 XXX-XXXX"
    },
    {
        "col0": "Praia do Almoxarife",
        "col1": "Faial Island",
        "col2": "0",
        "col3": "(+351) 292 XXX-XXXX"
    },
    {
        "col0": "Praia da Vitoria",
        "col1": "Terceira Island",
        "col2": "0",
        "col3": "(+351) 292 XXX XXX"
    },
    {
        "col0": "Praia",
        "col1": "Graciosa Island",
        "col2": "0",
        "col3": "(+351) 292 XXX XXX"
    },
    {
        "col0": "Povoacao",
        "col1": "Sao Miguel Island",
        "col2": "0",
        "col3": "(+351) 292 XX XX XX"
    },
    {
        "col0": "Povoacao, Azores",
        "col1": "Sao Miguel Island",
        "col2": "0",
        "col3": "(+351) 296 XX XX XX"
    },
    {
        "col0": "Povoacao",
        "col1": "Sao Miguel Island",
        "col2": "0",
        "col3": "(+351) 292 XX XX XX"
    },
    {
        "col0": "Povoacao, Azores",
        "col1": "Sao Miguel Island",
        "col2": "0",
        "col3": "(+351) 296 XX XX XX"
    },
    {
        "col0": "Posto Santo",
        "col1": "Terceira Island",
        "col2": "153",
        "col3": "(+351) 292 XXX-XXXX"
    },
    {
        "col0": "Porto da Cruz",
        "col1": "Machico",
        "col2": "0",
        "col3": "(+351) 291 XXX XXX"
    },
    {
        "col0": "Porto Martins",
        "col1": "Terceira Island",
        "col2": "0",
        "col3": "(+351) 292 XXX-XXXX"
    },
    {
        "col0": "Porto",
        "col1": "Porto",
        "col2": "0",
        "col3": "(+351) 22"
    },
    {
        "col0": "Ponta do Pargo",
        "col1": "Calheta, Madeira",
        "col2": "0",
        "col3": "(+351) 291 XXX XXX"
    },
    {
        "col0": "Ponta Garca",
        "col1": "Sao Miguel Island",
        "col2": "0",
        "col3": "(+351) 292 XX XX XX"
    },
    {
        "col0": "Ponta Delgada, Santa Cruz das Flores",
        "col1": "Flores Island",
        "col2": "0",
        "col3": "(+351) 292 XXX-XXXX"
    },
    {
        "col0": "Ponta Delgada",
        "col1": "Sao Miguel Island",
        "col2": "0",
        "col3": "(+351) 292 XX XX XX"
    },
    {
        "col0": "Pilar da Bretanha",
        "col1": "Sao Miguel Island",
        "col2": "0",
        "col3": "(+351) 292 XX XX XX"
    },
    {
        "col0": "Piedade",
        "col1": "Pico Island",
        "col2": "0",
        "col3": "(+351) 292 XXX-XXXX"
    },
    {
        "col0": "Pico da Pedra",
        "col1": "Sao Miguel Island",
        "col2": "46",
        "col3": "(+351) 292 XXX-XXXX"
    },
    {
        "col0": "Philmont, New York",
        "col1": "Columbia County, New York",
        "col2": "85",
        "col3": "518"
    },
    {
        "col0": "Philipstown, New York",
        "col1": "Putnam County, New York",
        "col2": "0",
        "col3": "845"
    },
    {
        "col0": "Pedro Miguel",
        "col1": "Faial Island",
        "col2": "0",
        "col3": "(+351) 292 XXX-XXXX"
    },
    {
        "col0": "Pawling",
        "col1": "Dutchess County, New York",
        "col2": "128",
        "col3": "845"
    },
    {
        "col0": "Paul do Mar",
        "col1": "Calheta, Madeira",
        "col2": "0",
        "col3": "(+351) 291 XXX XXX"
    },
    {
        "col0": "Patterson, New York",
        "col1": "Putnam County, New York",
        "col2": "131",
        "col3": "845Exchange: 278"
    },
    {
        "col0": "Paese",
        "col1": "Province of Treviso",
        "col2": "12",
        "col3": "422"
    },
    {
        "col0": "Odalengo Piccolo",
        "col1": "Province of Alessandria",
        "col2": "134",
        "col3": "141"
    },
    {
        "col0": "Nossa Senhora dos Remedios",
        "col1": "Sao Miguel Island",
        "col2": "64",
        "col3": "(+351) 292 XXX-XXXX"
    },
    {
        "col0": "Nossa Senhora do Rosario",
        "col1": "Sao Miguel Island",
        "col2": "0",
        "col3": "(+351) 292 XXX-XXXX"
    },
    {
        "col0": "North Greenbush, New York",
        "col1": "Rensselaer County, New York",
        "col2": "0",
        "col3": "518"
    },
    {
        "col0": "Norte Pequeno",
        "col1": "Sao Jorge Island",
        "col2": "0",
        "col3": "(+351) 292 XXX-XXXX"
    },
    {
        "col0": "Norte Grande",
        "col1": "Sao Jorge Island",
        "col2": "0",
        "col3": "(+351) 292 XXX-XXXX"
    },
    {
        "col0": "Nordeste, Azores",
        "col1": "Sao Miguel Island",
        "col2": "0",
        "col3": "(+351) 292 XXX XXX"
    },
    {
        "col0": "New Paltz",
        "col1": "Ulster County, New York",
        "col2": "48",
        "col3": "845"
    },
    {
        "col0": "New Paltz, New York",
        "col1": "Ulster County, New York",
        "col2": "48",
        "col3": "845"
    },
    {
        "col0": "Nariz",
        "col1": "Aveiro",
        "col2": "0",
        "col3": "(+351) 234 XX XX XX"
    },
    {
        "col0": "Motteggiana",
        "col1": "Province of Mantua",
        "col2": "16",
        "col3": "376"
    },
    {
        "col0": "Mosteiro",
        "col1": "Flores Island",
        "col2": "0",
        "col3": "(+351) 292 XX XX XX"
    },
    {
        "col0": "Montijo",
        "col1": "Setubal District",
        "col2": "0",
        "col3": "(+351) 212 XX XX XX"
    },
    {
        "col0": "Montgomery",
        "col1": "Orange County, New York",
        "col2": "103",
        "col3": "845Exchange: 457"
    },
    {
        "col0": "Montgomery, New York",
        "col1": "Orange County, New York",
        "col2": "73",
        "col3": "845"
    },
    {
        "col0": "Monroe",
        "col1": "Orange County, New York",
        "col2": "164",
        "col3": "845"
    },
    {
        "col0": "Modra",
        "col1": "Pezinok District",
        "col2": "144",
        "col3": "+421-33"
    },
    {
        "col0": "Millbrook, New York",
        "col1": "Dutchess County, New York",
        "col2": "137",
        "col3": "845"
    },
    {
        "col0": "Menands, New York",
        "col1": "Albany County, New York",
        "col2": "0",
        "col3": "518"
    },
    {
        "col0": "Medina, New York",
        "col1": "Orleans County, New York",
        "col2": "138",
        "col3": "585"
    },
    {
        "col0": "Maybrook, New York",
        "col1": "Orange County, New York",
        "col2": "109",
        "col3": "845"
    },
    {
        "col0": "Matriz",
        "col1": "Faial Island",
        "col2": "0",
        "col3": "(+351) 292 XXX-XXXX"
    },
    {
        "col0": "Margaretville, New York",
        "col1": "Delaware County, New York",
        "col2": "390",
        "col3": "845Exchange: 586"
    },
    {
        "col0": "Manadas",
        "col1": "Sao Jorge Island",
        "col2": "0",
        "col3": "(+351) 292 XXX-XXXX"
    },
    {
        "col0": "Maia",
        "col1": "Sao Miguel Island",
        "col2": "0",
        "col3": "(+351) 292 XXX-XXXX"
    },
    {
        "col0": "Madeira",
        "col1": "Funchal",
        "col2": "0",
        "col3": "(+351) 291 XXX XXX"
    },
    {
        "col0": "Madalena do Mar",
        "col1": "Ponta do Sol",
        "col2": "0",
        "col3": "(+351) 291 XXX XXX"
    },
    {
        "col0": "Madalena",
        "col1": "Pico Island",
        "col2": "0",
        "col3": "(+351) XXX XX XX XX"
    },
    {
        "col0": "Madalena, Azores",
        "col1": "Pico Island",
        "col2": "0",
        "col3": "(+351) 292 XXX-XXXX"
    },
    {
        "col0": "Luz",
        "col1": "Graciosa Island",
        "col2": "0",
        "col3": "(+351) 292 XXX-XXXX"
    },
    {
        "col0": "Lusciano",
        "col1": "Province of Caserta",
        "col2": "0",
        "col3": "81"
    },
    {
        "col0": "Lomba da Maia",
        "col1": "Sao Miguel Island",
        "col2": "0",
        "col3": "(+351) 292 XXX-XXXX"
    }
]