[
    {
        "col0": "M. Kammen",
        "col1": "United States",
        "col2": "Ithaca, New York",
        "col3": "2013-11-29"
    },
    {
        "col0": "M. G. Fulton",
        "col1": "United States",
        "col2": "Roswell, New Mexico",
        "col3": "1955-02-12"
    },
    {
        "col0": "M. J. Klein",
        "col1": "United States",
        "col2": "Chapel Hill, North Carolina",
        "col3": "2009-3-28"
    },
    {
        "col0": "M. Jansen",
        "col1": "United States",
        "col2": "Princeton, New Jersey",
        "col3": "2000-12-10"
    },
    {
        "col0": "M. L. Starkey",
        "col1": "United States",
        "col2": "Saugus, Massachusetts",
        "col3": "1991-12-18"
    },
    {
        "col0": "M. K. Dziewanowski",
        "col1": "United States",
        "col2": "Milwaukee",
        "col3": "2005-2-18"
    },
    {
        "col0": "M. H. Winter",
        "col1": "United States",
        "col2": "Paris",
        "col3": "1981-12-15"
    },
    {
        "col0": "M. Leech",
        "col1": "United States",
        "col2": "New York City",
        "col3": "1974-2-24"
    },
    {
        "col0": "L. Nalbandian",
        "col1": "United States",
        "col2": "Newman, Illinois",
        "col3": "1974-12-2"
    },
    {
        "col0": "L. H. Haimson",
        "col1": "United States",
        "col2": "New York City",
        "col3": "2010-12-18"
    },
    {
        "col0": "L. D. White",
        "col1": "United States",
        "col2": "Chicago",
        "col3": "1958-2-23"
    },
    {
        "col0": "L. Wiener",
        "col1": "United States",
        "col2": "Belmont, Massachusetts",
        "col3": "1939-1-1"
    },
    {
        "col0": "L. B. Smith",
        "col1": "United States",
        "col2": "Greensboro, Vermont",
        "col3": "2013-9-8"
    },
    {
        "col0": "J. H. Smith",
        "col1": "United States",
        "col2": "Brooklyn",
        "col3": "1930-1-1"
    }
]