[
    {
        "col0": "Once Upon a Mattress",
        "col1": "J. Thompson",
        "col2": "Fairy tale",
        "col3": "M. Rodgers"
    },
    {
        "col0": "Once",
        "col1": "E. Walsh",
        "col2": "John Carney",
        "col3": "G. Hansard"
    },
    {
        "col0": "On the Twentieth Century",
        "col1": "A. Green",
        "col2": "Ben Hecht",
        "col3": "C. Coleman"
    },
    {
        "col0": "On the Town",
        "col1": "A. Green",
        "col2": "Leonard Bernstein",
        "col3": "L. Bernstein"
    },
    {
        "col0": "Oliver!",
        "col1": "L. Bart",
        "col2": "Charles Dickens",
        "col3": "L. Bart"
    },
    {
        "col0": "Oklahoma!",
        "col1": "O. H. II",
        "col2": "Green Grow the Lilacs",
        "col3": "R. Rodgers"
    },
    {
        "col0": "Oh, Captain!",
        "col1": "J. Ferrer",
        "col2": "The Captain's Paradise",
        "col3": "R. Evans"
    },
    {
        "col0": "Nymph Errant",
        "col1": "R. Brent",
        "col2": "James Laver",
        "col3": "C. Porter"
    },
    {
        "col0": "Notre-Dame de Paris",
        "col1": "L. Plamondon",
        "col2": "The Hunchback of Notre-Dame",
        "col3": "R. Cocciante"
    },
    {
        "col0": "Nine",
        "col1": "A. Kopit",
        "col2": "Federico Fellini",
        "col3": "M. Yeston"
    },
    {
        "col0": "Nightingale",
        "col1": "C. Strouse",
        "col2": "Hans Christian Andersen",
        "col3": "C. Strouse"
    },
    {
        "col0": "Nick & Nora",
        "col1": "A. Laurents",
        "col2": "Dashiell Hammett",
        "col3": "C. Strouse"
    },
    {
        "col0": "Newsies",
        "col1": "H. Fierstein",
        "col2": "1992 in film",
        "col3": "A. Menken"
    },
    {
        "col0": "New Girl in Town",
        "col1": "G. Abbott",
        "col2": "Eugene O'Neill",
        "col3": "B. Merrill"
    },
    {
        "col0": "Never Gonna Dance",
        "col1": "J. Hatcher",
        "col2": "Swing Time",
        "col3": "J. Kern"
    },
    {
        "col0": "Never Forget",
        "col1": "D. Brocklehurst",
        "col2": "Take That",
        "col3": "G. Barlow"
    },
    {
        "col0": "Natasha, Pierre & The Great Comet of 1812",
        "col1": "D. Malloy",
        "col2": "War and Peace",
        "col3": "D. Malloy"
    },
    {
        "col0": "My Maryland",
        "col1": "D. Donnelly",
        "col2": "Barbara Frietchie",
        "col3": "S. Romberg"
    },
    {
        "col0": "My Life with Albertine",
        "col1": "R. Nelson",
        "col2": "Albertine disparue",
        "col3": "R. I. Gordon"
    },
    {
        "col0": "My Favorite Year",
        "col1": "J. Dougherty",
        "col2": "My Favorite Year",
        "col3": "S. Flaherty"
    },
    {
        "col0": "My Fair Lady",
        "col1": "A. J. Lerner",
        "col2": "George Bernard Shaw",
        "col3": "F. Loewe"
    },
    {
        "col0": "Music Is",
        "col1": "G. Abbott",
        "col2": "Twelfth Night",
        "col3": "R. Adler"
    },
    {
        "col0": "Mrs Henderson Presents",
        "col1": "T. Johnson",
        "col2": "Mrs Henderson Presents",
        "col3": "G. Fenton"
    },
    {
        "col0": "Mozart, l'opera rock",
        "col1": "D. Attia",
        "col2": "Wolfgang Amadeus Mozart",
        "col3": "W. A. Mozart"
    },
    {
        "col0": "Mozart!",
        "col1": "M. Kunze",
        "col2": "Wolfgang Amadeus Mozart",
        "col3": "S. Levay"
    },
    {
        "col0": "Miss Saigon",
        "col1": "A. Boublil",
        "col2": "Opera",
        "col3": "C. Schonberg"
    },
    {
        "col0": "Miss Liberty",
        "col1": "R. E. Sherwood",
        "col2": "Statue of Liberty",
        "col3": "I. Berlin"
    },
    {
        "col0": "Minsky's",
        "col1": "B. Martin",
        "col2": "The Night They Raided Minsky's",
        "col3": "C. Strouse"
    },
    {
        "col0": "Minnie's Boys",
        "col1": "R. Fisher",
        "col2": "Marx Brothers",
        "col3": "L. Grossman"
    },
    {
        "col0": "Metropolis",
        "col1": "D. Hughes",
        "col2": "Metropolis",
        "col3": "J. Brooks"
    },
    {
        "col0": "Merrily We Roll Along",
        "col1": "G. Furth",
        "col2": "Moss Hart",
        "col3": "S. Sondheim"
    },
    {
        "col0": "Meet Me in St. Louis",
        "col1": "H. Wheeler",
        "col2": "Meet Me in St. Louis",
        "col3": "R. Blane"
    },
    {
        "col0": "Matilda the Musical",
        "col1": "D. Kelly",
        "col2": "Matilda",
        "col3": "T. Minchin"
    },
    {
        "col0": "Mary Poppins",
        "col1": "J. Fellowes",
        "col2": "Mary Poppins",
        "col3": "R. B. Sherman"
    },
    {
        "col0": "Marry Me a Little",
        "col1": "Revue",
        "col2": "Craig Lucas",
        "col3": "S. Sondheim"
    },
    {
        "col0": "Marie Christine",
        "col1": "M. J. LaChiusa",
        "col2": "Medea",
        "col3": "M. J. LaChiusa"
    },
    {
        "col0": "Marguerite",
        "col1": "A. Boublil",
        "col2": "La Dame aux Camelias",
        "col3": "M. Legrand"
    },
    {
        "col0": "Man of La Mancha",
        "col1": "D. Wasserman",
        "col2": "Don Quixote",
        "col3": "M. Leigh"
    },
    {
        "col0": "Mamma Mia!",
        "col1": "C. Johnson",
        "col2": "ABBA",
        "col3": "B. Andersson"
    },
    {
        "col0": "Mame",
        "col1": "J. Lawrence",
        "col2": "Auntie Mame",
        "col3": "J. Herman"
    },
    {
        "col0": "Make a Wish",
        "col1": "P. Sturges",
        "col2": "Preston Sturges",
        "col3": "H. Martin"
    },
    {
        "col0": "Maggie May",
        "col1": "A. Owen",
        "col2": "Sea shanty",
        "col3": "L. Bart"
    },
    {
        "col0": "Maggie Flynn",
        "col1": "H. Peretti",
        "col2": "New York Draft Riots",
        "col3": "H. Peretti"
    },
    {
        "col0": "Made in Dagenham",
        "col1": "R. Bean",
        "col2": "Made in Dagenham",
        "col3": "D. Arnold"
    },
    {
        "col0": "Lute Song",
        "col1": "S. Howard",
        "col2": "Gao Ming",
        "col3": "R. Scott"
    },
    {
        "col0": "Lucky Stiff",
        "col1": "L. Ahrens",
        "col2": "Mike Butterworth",
        "col3": "S. Flaherty"
    },
    {
        "col0": "Lovely Ladies, Kind Gentlemen",
        "col1": "J. Patrick",
        "col2": "The Teahouse of the August Moon",
        "col3": "S. Freeman"
    },
    {
        "col0": "Love Never Dies",
        "col1": "F. Forsyth",
        "col2": "Gaston Leroux",
        "col3": "A. L. Webber"
    },
    {
        "col0": "LoveMusik",
        "col1": "A. Uhry",
        "col2": "Kurt Weill",
        "col3": "K. Weill"
    },
    {
        "col0": "Love, Linda: The Life of Mrs. Cole Porter",
        "col1": "G. W. Friedman",
        "col2": "Cole Porter",
        "col3": "C. Porter"
    },
    {
        "col0": "Louisiana Purchase",
        "col1": "M. Ryskind",
        "col2": "Buddy De Sylva",
        "col3": "I. Berlin"
    },
    {
        "col0": "Lost in the Stars",
        "col1": "M. Anderson",
        "col2": "Alan Paton",
        "col3": "K. Weill"
    },
    {
        "col0": "Lorelei",
        "col1": "G. Parent",
        "col2": "Gentlemen Prefer Blondes",
        "col3": "J. Styne"
    },
    {
        "col0": "Lord of the Rings",
        "col1": "M. Warchus",
        "col2": "J. R. R. Tolkien",
        "col3": "Varttina"
    },
    {
        "col0": "Look to the Lilies",
        "col1": "L. Spigelgass",
        "col2": "William Edmund Barrett",
        "col3": "J. Styne"
    },
    {
        "col0": "Lolita, My Love",
        "col1": "A. J. Lerner",
        "col2": "Lolita",
        "col3": "J. Barry"
    },
    {
        "col0": "Little Women",
        "col1": "A. Knee",
        "col2": "Little Women",
        "col3": "J. Howland"
    },
    {
        "col0": "Little Tramp",
        "col1": "D. Pomeranz",
        "col2": "Charles Chaplin",
        "col3": "D. Pomeranz"
    },
    {
        "col0": "Little Shop of Horrors",
        "col1": "H. Ashman",
        "col2": "Roger Corman",
        "col3": "A. Menken"
    },
    {
        "col0": "Little Miss Sunshine",
        "col1": "J. Lapine",
        "col2": "Little Miss Sunshine",
        "col3": "W. Finn"
    },
    {
        "col0": "Little Me",
        "col1": "N. Simon",
        "col2": "Little Me",
        "col3": "C. Coleman"
    },
    {
        "col0": "Little Fish",
        "col1": "M. J. LaChiusa",
        "col2": "Deborah Eisenberg",
        "col3": "M. J. LaChiusa"
    },
    {
        "col0": "Li'l Abner",
        "col1": "M. Frank",
        "col2": "Li'l Abner",
        "col3": "G. D. Paul"
    },
    {
        "col0": "Let 'Em Eat Cake",
        "col1": "G. S. Kaufman",
        "col2": "Of Thee I Sing",
        "col3": "G. Gershwin"
    },
    {
        "col0": "Lestat",
        "col1": "L. Woolverton",
        "col2": "Anne Rice",
        "col3": "E. John"
    },
    {
        "col0": "Les Miserables",
        "col1": "T. Nunn",
        "col2": "Les Miserables",
        "col3": "C. Schonberg"
    },
    {
        "col0": "Lennon",
        "col1": "D. Scardino",
        "col2": "John Lennon",
        "col3": "J. Lennon"
    },
    {
        "col0": "Legs Diamond",
        "col1": "H. Fierstein",
        "col2": "The Rise and Fall of Legs Diamond",
        "col3": "P. Allen"
    },
    {
        "col0": "Legally Blonde",
        "col1": "H. Hach",
        "col2": "Amanda Brown",
        "col3": "L. O'Keefe"
    },
    {
        "col0": "Leave It to Jane",
        "col1": "P. G. Wodehouse",
        "col2": "George Ade",
        "col3": "J. Kern"
    },
    {
        "col0": "Leap of Faith",
        "col1": "G. Slater",
        "col2": "Leap of Faith",
        "col3": "A. Menken"
    },
    {
        "col0": "Leader of the Pack",
        "col1": "A. Beatts",
        "col2": "Ellie Greenwich",
        "col3": "E. Greenwich"
    },
    {
        "col0": "Lazarus",
        "col1": "E. Walsh",
        "col2": "The Man Who Fell to Earth",
        "col3": "D. Bowie"
    },
    {
        "col0": "La Cage aux Folles",
        "col1": "H. Fierstein",
        "col2": "La Cage aux Folles",
        "col3": "J. Herman"
    },
    {
        "col0": "Kurt Vonnegut's God Bless You, Mr. Rosewater",
        "col1": "H. Ashman",
        "col2": "Kurt Vonnegut",
        "col3": "A. Menken"
    },
    {
        "col0": "Kuifje - De Zonnetempel",
        "col1": "S. Gaaikema",
        "col2": "The Adventures of Tintin",
        "col3": "D. Brosse"
    },
    {
        "col0": "Kristina fran Duvemala",
        "col1": "B. Ulvaeus",
        "col2": "Bjorn Ulvaeus",
        "col3": "B. Andersson"
    },
    {
        "col0": "Knickerbocker Holiday",
        "col1": "M. Anderson",
        "col2": "Washington Irving",
        "col3": "K. Weill"
    },
    {
        "col0": "Kiss of the Spider Woman",
        "col1": "T. McNally",
        "col2": "Manuel Puig",
        "col3": "J. Kander"
    },
    {
        "col0": "Kiss Me, Kate",
        "col1": "Samuel and Bella Spewack",
        "col2": "William Shakespeare",
        "col3": "C. Porter"
    },
    {
        "col0": "Kismet",
        "col1": "L. Davis",
        "col2": "Edward Knoblock",
        "col3": "A. Borodin"
    },
    {
        "col0": "Kinky Boots",
        "col1": "H. Fierstein",
        "col2": "Kinky Boots",
        "col3": "C. Lauper"
    },
    {
        "col0": "King of Hearts",
        "col1": "J. Stein",
        "col2": "King of Hearts",
        "col3": "P. Link"
    },
    {
        "col0": "King Kong",
        "col1": "C. Lucas",
        "col2": "King Kong",
        "col3": "M. d. Vries"
    },
    {
        "col0": "King David",
        "col1": "T. Rice",
        "col2": "David",
        "col3": "A. Menken"
    },
    {
        "col0": "Kelly",
        "col1": "E. Lawrence",
        "col2": "Steve Brodie",
        "col3": "M. Charlap"
    },
    {
        "col0": "Kean",
        "col1": "P. Stone",
        "col2": "Edmund Kean",
        "col3": "R. Wright"
    },
    {
        "col0": "Juno",
        "col1": "J. Stein",
        "col2": "Sean O'Casey",
        "col3": "M. Blitzstein"
    },
    {
        "col0": "Jonah",
        "col1": "J. Romeril",
        "col2": "Louis Stone",
        "col3": "A. John"
    },
    {
        "col0": "Johnny Johnson",
        "col1": "P. Green",
        "col2": "Jaroslav HaA!ek",
        "col3": "K. Weill"
    },
    {
        "col0": "Johnny Baseball",
        "col1": "R. Dresser",
        "col2": "Boston Red Sox",
        "col3": "R. Reale"
    },
    {
        "col0": "John Henry",
        "col1": "R. Bradford",
        "col2": "John Henry",
        "col3": "J. Wolfe"
    },
    {
        "col0": "Jersey Boys",
        "col1": "M. Brickman",
        "col2": "The Four Seasons",
        "col3": "B. Gaudio"
    },
    {
        "col0": "Jerry Springer: The Opera",
        "col1": "S. Lee",
        "col2": "The Jerry Springer Show",
        "col3": "S. Lee"
    },
    {
        "col0": "Jennie",
        "col1": "A. Schulman",
        "col2": "Laurette Taylor",
        "col3": "A. Schwartz"
    },
    {
        "col0": "Jelly's Last Jam",
        "col1": "G. C. Wolfe",
        "col2": "Jelly Roll Morton",
        "col3": "J. R. Morton"
    },
    {
        "col0": "Jekyll & Hyde",
        "col1": "L. Bricusse",
        "col2": "Robert Louis Stevenson",
        "col3": "F. Wildhorn"
    },
    {
        "col0": "Jane Eyre",
        "col1": "J. Caird",
        "col2": "Jane Eyre",
        "col3": "P. Gordon"
    },
    {
        "col0": "James Joyce's The Dead",
        "col1": "R. Nelson",
        "col2": "James Joyce",
        "col3": "S. Davey"
    },
    {
        "col0": "It's a Bird...It's a Plane...It's Superman",
        "col1": "R. Benton",
        "col2": "Jerry Siegel",
        "col3": "C. Strouse"
    },
    {
        "col0": "Isabel's a Jezebel",
        "col1": "W. Dumaresq",
        "col2": "Grimm's Fairy Tales",
        "col3": "G. MacDermot"
    },
    {
        "col0": "Into the Woods",
        "col1": "J. Lapine",
        "col2": "Bruno Bettelheim",
        "col3": "S. Sondheim"
    },
    {
        "col0": "Inside U.S.A.",
        "col1": "M. Hart",
        "col2": "John Gunther",
        "col3": "A. Schwartz"
    },
    {
        "col0": "Illya Darling",
        "col1": "J. Dassin",
        "col2": "Jules Dassin",
        "col3": "M. Hadjidakis"
    },
    {
        "col0": "I Remember Mama",
        "col1": "T. Meehan",
        "col2": "Kathryn Forbes",
        "col3": "R. Rodgers"
    },
    {
        "col0": "I Do! I Do!",
        "col1": "T. Jones",
        "col2": "Jan de Hartog",
        "col3": "H. Schmidt"
    },
    {
        "col0": "I Can't Sing! The X Factor Musical",
        "col1": "H. Hill",
        "col2": "The X Factor",
        "col3": "S. Brown"
    },
    {
        "col0": "Hurt Locker",
        "col1": "T. Kushner",
        "col2": "The Hurt Locker",
        "col3": "Metallica"
    },
    {
        "col0": "How to Succeed in Business Without Really Trying",
        "col1": "A. Burrows",
        "col2": "How to Succeed in Business Without Really Trying",
        "col3": "F. Loesser"
    },
    {
        "col0": "House of Flowers",
        "col1": "T. Capote",
        "col2": "Truman Capote",
        "col3": "H. Arlen"
    },
    {
        "col0": "Honk!",
        "col1": "A. Drewe",
        "col2": "The Ugly Duckling",
        "col3": "G. Stiles"
    },
    {
        "col0": "Honeymoon in Vegas",
        "col1": "A. Bergman",
        "col2": "Honeymoon in Vegas",
        "col3": "J. R. Brown"
    },
    {
        "col0": "Home Sweet Homer",
        "col1": "R. Kibbee",
        "col2": "Homer",
        "col3": "M. Leigh"
    },
    {
        "col0": "Hollywood Pinafore",
        "col1": "G. S. Kaufman",
        "col2": "Gilbert and Sullivan",
        "col3": "A. Sullivan"
    },
    {
        "col0": "High Spirits",
        "col1": "H. Martin",
        "col2": "Blithe Spirit",
        "col3": "H. Martin"
    },
    {
        "col0": "High Society",
        "col1": "A. Kopit",
        "col2": "High Society",
        "col3": "C. Porter"
    },
    {
        "col0": "High Fidelity",
        "col1": "D. Lindsay-Abaire",
        "col2": "High Fidelity",
        "col3": "T. Kitt"
    }
]