[
    {
        "col0": "Yunnan bush rat",
        "col1": "Muridae",
        "col2": "iucn3.1",
        "col3": "DD"
    },
    {
        "col0": "Yunnan box turtle",
        "col1": "Geoemydidae",
        "col2": "iucn3.1",
        "col3": "CR"
    },
    {
        "col0": "Yungas tyrannulet",
        "col1": "Tyrannidae",
        "col2": "IUCN3.1",
        "col3": "VU"
    },
    {
        "col0": "Yungas tree frog",
        "col1": "Hylidae",
        "col2": "IUCN3.1",
        "col3": "LC"
    },
    {
        "col0": "Yungas tody-tyrant",
        "col1": "Tyrannidae",
        "col2": "IUCN3.1",
        "col3": "LC"
    },
    {
        "col0": "Yungas screech owl",
        "col1": "Strigidae",
        "col2": "IUCN3.1",
        "col3": "LC"
    },
    {
        "col0": "Yungas pygmy owl",
        "col1": "Strigidae",
        "col2": "IUCN3.1",
        "col3": "LC"
    },
    {
        "col0": "Yungas manakin",
        "col1": "Pipridae",
        "col2": "IUCN3.1",
        "col3": "LC"
    },
    {
        "col0": "Yungas dove",
        "col1": "Columbidae",
        "col2": "IUCN3.1",
        "col3": "LC"
    },
    {
        "col0": "Yungas antwren",
        "col1": "Thamnophilidae",
        "col2": "IUCN3.1",
        "col3": "LC"
    },
    {
        "col0": "Yuma myotis",
        "col1": "Vespertilionidae",
        "col2": "IUCN3.1",
        "col3": "LC"
    },
    {
        "col0": "Yulungshan vole",
        "col1": "Cricetidae",
        "col2": "IUCN3.1",
        "col3": "LC"
    },
    {
        "col0": "Yule Island tree frog",
        "col1": "Hylidae",
        "col2": "IUCN3.1",
        "col3": "LC"
    },
    {
        "col0": "Yucatan mushroomtongue salamander",
        "col1": "Plethodontidae",
        "col2": "IUCN3.1",
        "col3": "LC"
    },
    {
        "col0": "Yucatan yellow bat",
        "col1": "Vespertilionidae",
        "col2": "IUCN3.1",
        "col3": "LC"
    },
    {
        "col0": "Yucatan wren",
        "col1": "Troglodytidae",
        "col2": "IUCN3.1",
        "col3": "NT"
    },
    {
        "col0": "Yucatan woodpecker",
        "col1": "Picidae",
        "col2": "IUCN3.1",
        "col3": "LC"
    },
    {
        "col0": "Yucatan vireo",
        "col1": "Vireonidae",
        "col2": "IUCN3.1",
        "col3": "LC"
    },
    {
        "col0": "Yucatan squirrel",
        "col1": "Sciuridae",
        "col2": "iucn3.1",
        "col3": "LC"
    },
    {
        "col0": "Yucatan spider monkey",
        "col1": "Atelidae",
        "col2": "iucn3.1",
        "col3": "EN"
    },
    {
        "col0": "Yucatan small-eared shrew",
        "col1": "Soricidae",
        "col2": "IUCN3.1",
        "col3": "LC"
    },
    {
        "col0": "Yucatan poorwill",
        "col1": "Caprimulgidae",
        "col2": "IUCN3.1",
        "col3": "LC"
    },
    {
        "col0": "Yucatan nightjar",
        "col1": "Caprimulgidae",
        "col2": "IUCN3.1",
        "col3": "LC"
    },
    {
        "col0": "Yucatan jay",
        "col1": "Corvidae",
        "col2": "IUCN3.1",
        "col3": "LC"
    }
]