[
    {
        "col0": "Chateau de Mores",
        "col1": "State Historical Society of North Dakota",
        "col2": "1883",
        "col3": "519211"
    },
    {
        "col0": "Charles Sumner School",
        "col1": "District of Columbia Public Schools",
        "col2": "1872",
        "col3": "1214"
    },
    {
        "col0": "Charles Ives House",
        "col1": "Danbury Museum and Historical Society",
        "col2": "1780",
        "col3": "28327"
    },
    {
        "col0": "Charles A. Lindbergh State Park",
        "col1": "Minnesota Department of Natural Resources",
        "col2": "1906",
        "col3": "36421"
    },
    {
        "col0": "Central Library",
        "col1": "Multnomah County, Oregon",
        "col2": "1913",
        "col3": "4046"
    },
    {
        "col0": "Central Embarcadero Piers Historic District",
        "col1": "Port of San Francisco",
        "col2": "1918",
        "col3": "26709"
    },
    {
        "col0": "Cedar Guard Station No. 1019",
        "col1": "United States Forest Service",
        "col2": "1933",
        "col3": "40468"
    },
    {
        "col0": "Cathedral of the Madeleine",
        "col1": "Catholic Church",
        "col2": "1900",
        "col3": "4856"
    },
    {
        "col0": "Cathedral of San Carlos Borromeo",
        "col1": "Roman Catholic Church",
        "col2": "1794",
        "col3": "2023"
    },
    {
        "col0": "Castle Rock",
        "col1": "New York State Department of Environmental Conservation",
        "col2": "1881",
        "col3": "623215"
    },
    {
        "col0": "Castle Clinton",
        "col1": "National Park Service",
        "col2": "1808",
        "col3": "4046"
    },
    {
        "col0": "Cascade Locks Work Center",
        "col1": "United States Forest Service",
        "col2": "1936",
        "col3": "7689"
    },
    {
        "col0": "Casa Navarro State Historic Site",
        "col1": "Texas Historical Commission",
        "col2": "1855",
        "col3": "4046"
    },
    {
        "col0": "Carolina Inn",
        "col1": "University of North Carolina at Chapel Hill",
        "col2": "1923",
        "col3": "18210"
    },
    {
        "col0": "Carlisle Indian Industrial School",
        "col1": "United States Army",
        "col2": "1880",
        "col3": "99147"
    },
    {
        "col0": "Carl Sandburg Home National Historic Site",
        "col1": "National Park Service",
        "col2": "1945",
        "col3": "995526"
    },
    {
        "col0": "Cape Canaveral Air Force Station",
        "col1": "United States Department of Defense",
        "col2": "1950",
        "col3": "5362084"
    },
    {
        "col0": "Canonsburg Armory",
        "col1": "Pennsylvania Department of Military and Veterans Affairs",
        "col2": "1938",
        "col3": "2063"
    },
    {
        "col0": "Camp Pendleton",
        "col1": "Virginia National Guard",
        "col2": "1911",
        "col3": "1327368"
    },
    {
        "col0": "Camp Mabry",
        "col1": "State of Texas",
        "col2": "1892",
        "col3": "1517571"
    },
    {
        "col0": "Camp Butler National Cemetery",
        "col1": "U.S. Department of Veterans Affairs",
        "col2": "1865",
        "col3": "158636"
    },
    {
        "col0": "Camas Meadows Battle Sites",
        "col1": "Bureau of Land Management",
        "col2": "1877",
        "col3": "323748"
    },
    {
        "col0": "Calhoun Beach Club",
        "col1": "AIMCO",
        "col2": "1928",
        "col3": "8611"
    },
    {
        "col0": "Caguana Ceremonial Ball Courts Site",
        "col1": "Institute of Puerto Rican Culture",
        "col2": "1270",
        "col3": "28327"
    },
    {
        "col0": "Cabrillo National Monument",
        "col1": "National Park Service",
        "col2": "1542",
        "col3": "582342"
    },
    {
        "col0": "Bykenhulle",
        "col1": "Bed and breakfast",
        "col2": "1841",
        "col3": "23067"
    },
    {
        "col0": "Butte Falls Ranger Station",
        "col1": "United States Forest Service",
        "col2": "1935",
        "col3": "24685"
    },
    {
        "col0": "Bulow Plantation Ruins Historic State Park",
        "col1": "Florida Department of Environmental Protection",
        "col2": "1836",
        "col3": "441107"
    },
    {
        "col0": "Bull-Jackson House",
        "col1": "Orange County, New York",
        "col2": "1769",
        "col3": "764855"
    },
    {
        "col0": "Buffalo River State Park",
        "col1": "National Park Service",
        "col2": "1939",
        "col3": "141639"
    },
    {
        "col0": "Buffalo Bill Ranch",
        "col1": "Nebraska Game and Parks Commission",
        "col2": "1886",
        "col3": "101171"
    },
    {
        "col0": "Brumbaugh Homestead",
        "col1": "Federal architecture",
        "col2": "1804",
        "col3": "4046"
    },
    {
        "col0": "Bradford Old City Hall",
        "col1": "Bradford, Pennsylvania",
        "col2": "1897",
        "col3": "975"
    },
    {
        "col0": "Booker T. Washington National Monument",
        "col1": "National Park Service",
        "col2": "1856",
        "col3": "804515"
    },
    {
        "col0": "Bohemian National Cemetery",
        "col1": "Grand Lodge C.S.P.S. of Baltimore",
        "col2": "1884",
        "col3": "50221488"
    },
    {
        "col0": "Bocock-Isbell House",
        "col1": "National Park Service",
        "col2": "1850",
        "col3": "7284341"
    },
    {
        "col0": "Birch Bayh Federal Building and United States Courthouse",
        "col1": "General Services Administration",
        "col2": "1905",
        "col3": "15378"
    },
    {
        "col0": "Big Springs Ranger Station",
        "col1": "U.S. Forest Service",
        "col2": "1934",
        "col3": "8093"
    },
    {
        "col0": "Beverly National Cemetery",
        "col1": "United States Department of Veterans Affairs",
        "col2": "1864",
        "col3": "260617"
    },
    {
        "col0": "Berger Park",
        "col1": "Chicago Park District",
        "col2": "1906",
        "col3": "13516"
    },
    {
        "col0": "Bent's Old Fort National Historic Site",
        "col1": "National Park Service",
        "col2": "1833",
        "col3": "3233438"
    },
    {
        "col0": "Belvidere Historic District",
        "col1": "Federal architecture",
        "col2": "1833",
        "col3": "1311181"
    },
    {
        "col0": "Belle Ainsworth Jenkins Estate",
        "col1": "Tualatin Hills Park & Recreation District",
        "col2": "1880",
        "col3": "57453"
    },
    {
        "col0": "Bear Mountain Bridge Road",
        "col1": "New York State Department of Transportation",
        "col2": "1923",
        "col3": "72843"
    },
    {
        "col0": "Battleground National Cemetery",
        "col1": "National Park Service",
        "col2": "1864",
        "col3": "4046"
    },
    {
        "col0": "Battery Weed",
        "col1": "National Park Service",
        "col2": "1845",
        "col3": "4046"
    },
    {
        "col0": "Basilica of the National Shrine of the Little Flower",
        "col1": "Roman Catholic Church",
        "col2": "1931",
        "col3": "9712"
    },
    {
        "col0": "Basilica of St. Fidelis",
        "col1": "Roman Catholic Diocese of Salina",
        "col2": "1908",
        "col3": "12140"
    },
    {
        "col0": "Basilica of Saint Mary",
        "col1": "Roman Catholic Archdiocese of Saint Paul and Minneapolis",
        "col2": "1907",
        "col3": "10117"
    },
    {
        "col0": "Balsam Lake Mountain Fire Observation Station",
        "col1": "New York State Department of Environmental Conservation",
        "col2": "1930",
        "col3": "44110"
    },
    {
        "col0": "Balmville Tree",
        "col1": "New York State Department of Environmental Conservation",
        "col2": "1750",
        "col3": "8093"
    },
    {
        "col0": "Atwood-Higgins Historic District",
        "col1": "National Park Service",
        "col2": "1730",
        "col3": "97124"
    },
    {
        "col0": "Astor Home for Children",
        "col1": "Catholic Charities",
        "col2": "1914",
        "col3": "74462"
    },
    {
        "col0": "Ashcroft, Colorado",
        "col1": "United States Forest Service",
        "col2": "1879",
        "col3": "20234"
    },
    {
        "col0": "Ascension Episcopal Church",
        "col1": "Episcopal Diocese of Eastern Oregon",
        "col2": "1874",
        "col3": "8093"
    },
    {
        "col0": "Arnold-Park Log Home",
        "col1": "Oregon Parks and Recreation Department",
        "col2": "1907",
        "col3": "445"
    },
    {
        "col0": "Arnold Arboretum",
        "col1": "Harvard University",
        "col2": "1872",
        "col3": "1137166"
    },
    {
        "col0": "Arnold-Park Log Home",
        "col1": "Oregon Parks and Recreation Department",
        "col2": "1907",
        "col3": "445"
    },
    {
        "col0": "Arlington House, The Robert E. Lee Memorial",
        "col1": "National Park Service",
        "col2": "1803",
        "col3": "113635"
    },
    {
        "col0": "Arden",
        "col1": "Open Space Institute",
        "col2": "1886",
        "col3": "1821085"
    },
    {
        "col0": "Archer County Courthouse and Jail",
        "col1": "Archer County, Texas",
        "col2": "1891",
        "col3": "16187"
    },
    {
        "col0": "Appomattox Court House National Historical Park",
        "col1": "National Park Service",
        "col2": "1865",
        "col3": "7179123"
    },
    {
        "col0": "Apple River Fort",
        "col1": "Illinois Historic Preservation Agency",
        "col2": "1832",
        "col3": "2023"
    },
    {
        "col0": "Andrew Johnson Building",
        "col1": "Knox County, Tennessee",
        "col2": "1926",
        "col3": "1416"
    },
    {
        "col0": "Andrew Carnegie Mansion",
        "col1": "Smithsonian Institution",
        "col2": "1899",
        "col3": "4856"
    },
    {
        "col0": "Andersonville National Historic Site",
        "col1": "National Park Service",
        "col2": "1864",
        "col3": "2080084"
    },
    {
        "col0": "American Gothic House",
        "col1": "State Historical Society of Iowa",
        "col2": "1881",
        "col3": "46"
    },
    {
        "col0": "American Club",
        "col1": "Destination Kohler",
        "col2": "1924",
        "col3": "16187"
    },
    {
        "col0": "Alvarado Park",
        "col1": "East Bay Regional Park District",
        "col2": "1909",
        "col3": "171991"
    },
    {
        "col0": "Allenwood River Bridge",
        "col1": "Pennsylvania Department of Transportation",
        "col2": "1895",
        "col3": "3642"
    },
    {
        "col0": "Allen Centennial Gardens",
        "col1": "University of Wisconsin-Madison College of Agricultural and Life Sciences",
        "col2": "1896",
        "col3": "7689"
    },
    {
        "col0": "Allegheny River Lock and Dam No. 2",
        "col1": "U.S. Army Corps of Engineers",
        "col2": "1932",
        "col3": "35612"
    },
    {
        "col0": "Allegheny Portage Railroad",
        "col1": "National Park Service",
        "col2": "1831",
        "col3": "5244725"
    },
    {
        "col0": "All Saints Episcopal Church",
        "col1": "Episcopal Diocese of Western Louisiana",
        "col2": "1885",
        "col3": "1214"
    },
    {
        "col0": "Alexandria National Cemetery",
        "col1": "U.S. Department of Veterans Affairs",
        "col2": "1862",
        "col3": "22257"
    },
    {
        "col0": "Alderson Historic District",
        "col1": "Federal architecture",
        "col2": "1789",
        "col3": "562513"
    },
    {
        "col0": "Adams National Historical Park",
        "col1": "National Park Service",
        "col2": "1788",
        "col3": "34398"
    },
    {
        "col0": "Abraham Hall",
        "col1": "Maryland-National Capital Park and Planning Commission",
        "col2": "1889",
        "col3": "15782"
    },
    {
        "col0": "Abert Lake Petroglyphs",
        "col1": "Bureau of Land Management",
        "col2": "10",
        "col3": "4046"
    },
    {
        "col0": "23rd Regiment Armory",
        "col1": "New York State",
        "col2": "1891",
        "col3": "9307"
    },
    {
        "col0": "1841 Goshen Courthouse",
        "col1": "Orange County, New York",
        "col2": "1841",
        "col3": "4046"
    },
    {
        "col0": "14th Regiment Armory, Brooklyn",
        "col1": "New York City",
        "col2": "1891",
        "col3": "12140"
    },
    {
        "col0": "E>>Iolani Palace",
        "col1": "Hawaii",
        "col2": "1879",
        "col3": "42896"
    }
]