[
    {
        "col0": "Gastrotheca phalarosa",
        "col1": "Hemiphractidae",
        "col2": "DD",
        "col3": "IUCN3.1"
    },
    {
        "col0": "Gastrotheca pacchamama",
        "col1": "Hemiphractidae",
        "col2": "DD",
        "col3": "IUCN3.1"
    },
    {
        "col0": "Gastrotheca ovifera",
        "col1": "Hemiphractidae",
        "col2": "EN",
        "col3": "IUCN3.1"
    },
    {
        "col0": "Gastrotheca ossilaginis",
        "col1": "Hemiphractidae",
        "col2": "DD",
        "col3": "IUCN3.1"
    },
    {
        "col0": "Gastrotheca orophylax",
        "col1": "Hemiphractidae",
        "col2": "EN",
        "col3": "IUCN3.1"
    },
    {
        "col0": "Gastrotheca ochoai",
        "col1": "Hemiphractidae",
        "col2": "DD",
        "col3": "IUCN3.1"
    },
    {
        "col0": "Gastrotheca monticola",
        "col1": "Hemiphractidae",
        "col2": "LC",
        "col3": "IUCN3.1"
    },
    {
        "col0": "Gastrotheca longipes",
        "col1": "Hemiphractidae",
        "col2": "LC",
        "col3": "IUCN3.1"
    },
    {
        "col0": "Gastrotheca litonedis",
        "col1": "Hemiphractidae",
        "col2": "EN",
        "col3": "IUCN3.1"
    },
    {
        "col0": "Gastrotheca lauzuricae",
        "col1": "Hemiphractidae",
        "col2": "CR",
        "col3": "IUCN3.1"
    },
    {
        "col0": "Gastrotheca gracilis",
        "col1": "Hemiphractidae",
        "col2": "VU",
        "col3": "IUCN3.1"
    },
    {
        "col0": "Gastrotheca galeata",
        "col1": "Hemiphractidae",
        "col2": "DD",
        "col3": "IUCN3.1"
    },
    {
        "col0": "Gastrotheca excubitor",
        "col1": "Hemiphractidae",
        "col2": "VU",
        "col3": "IUCN3.1"
    },
    {
        "col0": "Gastrotheca espeletia",
        "col1": "Hemiphractidae",
        "col2": "EN",
        "col3": "IUCN3.1"
    },
    {
        "col0": "Gastrotheca dendronastes",
        "col1": "Hemiphractidae",
        "col2": "VU",
        "col3": "IUCN3.1"
    },
    {
        "col0": "Gastrotheca chrysosticta",
        "col1": "Hemiphractidae",
        "col2": "VU",
        "col3": "IUCN3.1"
    },
    {
        "col0": "Gastrotheca christiani",
        "col1": "Hemiphractidae",
        "col2": "EN",
        "col3": "IUCN3.1"
    },
    {
        "col0": "Gastrotheca aureomaculata",
        "col1": "Hemiphractidae",
        "col2": "NT",
        "col3": "IUCN3.1"
    },
    {
        "col0": "Gastrotheca argenteovirens",
        "col1": "Hemiphractidae",
        "col2": "LC",
        "col3": "IUCN3.1"
    },
    {
        "col0": "Gastrotheca angustifrons",
        "col1": "Hemiphractidae",
        "col2": "VU",
        "col3": "IUCN3.1"
    },
    {
        "col0": "Gastrotheca andaquiensis",
        "col1": "Hemiphractidae",
        "col2": "NT",
        "col3": "IUCN3.1"
    },
    {
        "col0": "Gastrophrynoides borneensis",
        "col1": "Microhylidae",
        "col2": "VU",
        "col3": "IUCN3.1"
    },
    {
        "col0": "Gastrophryne olivacea",
        "col1": "Microhylidae",
        "col2": "LC",
        "col3": "IUCN3.1"
    },
    {
        "col0": "Gastrophryne elegans",
        "col1": "Microhylidae",
        "col2": "LC",
        "col3": "IUCN3.1"
    },
    {
        "col0": "Gastric-brooding frog",
        "col1": "Myobatrachidae",
        "col2": "EX",
        "col3": "IUCN3.1"
    },
    {
        "col0": "Garman New Guinea tree frog",
        "col1": "Hylidae",
        "col2": "DD",
        "col3": "IUCN3.1"
    },
    {
        "col0": "Gardiner's Seychelles frog",
        "col1": "Sooglossidae",
        "col2": "VU",
        "col3": "IUCN3.1"
    },
    {
        "col0": "Garden slender salamander",
        "col1": "Lungless salamander",
        "col2": "LC",
        "col3": "IUCN3.1"
    },
    {
        "col0": "Gansi caecilian",
        "col1": "Ichthyophiidae",
        "col2": "DD",
        "col3": "IUCN3.1"
    },
    {
        "col0": "Gaboon caecilian",
        "col1": "Dermophiidae",
        "col2": "LC",
        "col3": "IUCN3.1"
    },
    {
        "col0": "Gabilan Mountains slender salamander",
        "col1": "Lungless salamander",
        "col2": "LC",
        "col3": "IUCN3.1"
    },
    {
        "col0": "Gunther's toadlet",
        "col1": "Myobatrachidae",
        "col2": "LC",
        "col3": "IUCN3.1"
    },
    {
        "col0": "Gomez's web-footed salamander",
        "col1": "Plethodontidae",
        "col2": "DD",
        "col3": "IUCN3.1"
    },
    {
        "col0": "Fungoid frog",
        "col1": "Ranidae",
        "col2": "LC",
        "col3": "IUCN3.1"
    },
    {
        "col0": "Fuller's caecilian",
        "col1": "Chikilidae",
        "col2": "DD",
        "col3": "IUCN3.1"
    },
    {
        "col0": "Fuente's Powakka tree frog",
        "col1": "Hylidae",
        "col2": "DD",
        "col3": "IUCN3.1"
    },
    {
        "col0": "Fry's frog",
        "col1": "Microhylidae",
        "col2": "LC",
        "col3": "IUCN3.1"
    },
    {
        "col0": "Frosted flatwoods salamander",
        "col1": "Ambystomatidae",
        "col2": "VU",
        "col3": "IUCN3.1"
    },
    {
        "col0": "Fringed tree frog",
        "col1": "Hylidae",
        "col2": "LC",
        "col3": "IUCN3.1"
    },
    {
        "col0": "Frigate Island caecilian",
        "col1": "Indotyphlidae",
        "col2": "LC",
        "col3": "IUCN3.1"
    },
    {
        "col0": "Freycinet's frog",
        "col1": "Hylidae",
        "col2": "VU",
        "col3": "IUCN3.1"
    },
    {
        "col0": "Fraser's clawed frog",
        "col1": "Pipidae",
        "col2": "LC",
        "col3": "IUCN3.1"
    },
    {
        "col0": "Franklin's climbing salamander",
        "col1": "Plethodontidae",
        "col2": "EN",
        "col3": "IUCN3.1"
    },
    {
        "col0": "Fourche Mountain salamander",
        "col1": "Plethodontidae",
        "col2": "VU",
        "col3": "IUCN3.1"
    },
    {
        "col0": "Florida bog frog",
        "col1": "Ranidae",
        "col2": "VU",
        "col3": "IUCN3.1"
    },
    {
        "col0": "Flood plain toadlet",
        "col1": "Myobatrachidae",
        "col2": "LC",
        "col3": "IUCN3.1"
    },
    {
        "col0": "Fletcher's frog",
        "col1": "Myobatrachidae",
        "col2": "LC",
        "col3": "IUCN3.1"
    },
    {
        "col0": "Fleay's barred frog",
        "col1": "Myobatrachidae",
        "col2": "EN",
        "col3": "IUCN3.1"
    },
    {
        "col0": "Flea-frog",
        "col1": "Brachycephalidae",
        "col2": "LC",
        "col3": "IUCN3.1"
    },
    {
        "col0": "Flat-headed frog",
        "col1": "Myobatrachidae",
        "col2": "LC",
        "col3": "IUCN3.1"
    },
    {
        "col0": "Fischer's clawed salamander",
        "col1": "Hynobiidae",
        "col2": "LC",
        "col3": "IUCN3.1"
    },
    {
        "col0": "Fire salamander",
        "col1": "Salamandridae",
        "col2": "LC",
        "col3": "IUCN3.1"
    },
    {
        "col0": "Fine-lined tree frog",
        "col1": "Hylidae",
        "col2": "LC",
        "col3": "IUCN3.1"
    },
    {
        "col0": "Finca Chibigui salamander",
        "col1": "Plethodontidae",
        "col2": "VU",
        "col3": "IUCN3.1"
    },
    {
        "col0": "Fejervarya frithii",
        "col1": "Ranidae",
        "col2": "DD",
        "col3": "IUCN3.1"
    },
    {
        "col0": "Fejervarya altilabris",
        "col1": "Ranidae",
        "col2": "DD",
        "col3": "IUCN3.1"
    },
    {
        "col0": "Fazil Lycian salamander",
        "col1": "Salamandridae",
        "col2": "EN",
        "col3": "IUCN3.1"
    },
    {
        "col0": "Fat toadlet",
        "col1": "Myobatrachidae",
        "col2": "LC",
        "col3": "IUCN3.1"
    },
    {
        "col0": "Faro Island tree frog",
        "col1": "Hylidae",
        "col2": "VU",
        "col3": "IUCN3.1"
    },
    {
        "col0": "False western froglet",
        "col1": "Myobatrachidae",
        "col2": "LC",
        "col3": "IUCN3.1"
    },
    {
        "col0": "Fairy tree frog",
        "col1": "Hylidae",
        "col2": "EN",
        "col3": "IUCN3.1"
    },
    {
        "col0": "Ezo salamander",
        "col1": "Asiatic salamander",
        "col2": "LC",
        "col3": "IUCN3.1"
    },
    {
        "col0": "Exerodonta xera",
        "col1": "Hylidae",
        "col2": "VU",
        "col3": "IUCN3.1"
    },
    {
        "col0": "Exerodonta sumichrasti",
        "col1": "Hylidae",
        "col2": "LC",
        "col3": "IUCN3.1"
    },
    {
        "col0": "Exerodonta smaragdina",
        "col1": "Hylidae",
        "col2": "LC",
        "col3": "IUCN3.1"
    },
    {
        "col0": "Exerodonta pinorum",
        "col1": "Hylidae",
        "col2": "VU",
        "col3": "IUCN3.1"
    },
    {
        "col0": "Exerodonta perkinsi",
        "col1": "Hylidae",
        "col2": "CR",
        "col3": "IUCN3.1"
    },
    {
        "col0": "Exerodonta melanomma",
        "col1": "Hylidae",
        "col2": "VU",
        "col3": "IUCN3.1"
    },
    {
        "col0": "Exerodonta juanitae",
        "col1": "Hylidae",
        "col2": "VU",
        "col3": "IUCN3.1"
    },
    {
        "col0": "Exerodonta chimalapa",
        "col1": "Hylidae",
        "col2": "EN",
        "col3": "IUCN3.1"
    },
    {
        "col0": "Exerodonta catracha",
        "col1": "Hylidae",
        "col2": "EN",
        "col3": "IUCN3.1"
    },
    {
        "col0": "Exerodonta bivocata",
        "col1": "Hylidae",
        "col2": "DD",
        "col3": "IUCN3.1"
    },
    {
        "col0": "Exerodonta abdivita",
        "col1": "Hylidae",
        "col2": "DD",
        "col3": "IUCN3.1"
    },
    {
        "col0": "Everett's tree frog",
        "col1": "Hylidae",
        "col2": "DD",
        "col3": "IUCN3.1"
    },
    {
        "col0": "Eurycea neotenes",
        "col1": "Lungless salamander",
        "col2": "VU",
        "col3": "IUCN3.1"
    },
    {
        "col0": "Eurycea longicauda",
        "col1": "Plethodontidae",
        "col2": "LC",
        "col3": "IUCN3.1"
    },
    {
        "col0": "European tree frog",
        "col1": "Hylidae",
        "col2": "LC",
        "col3": "IUCN3.1"
    },
    {
        "col0": "European green toad",
        "col1": "Bufonidae",
        "col2": "LC",
        "col3": "IUCN3.1"
    },
    {
        "col0": "European fire-bellied toad",
        "col1": "Bombinatoridae",
        "col2": "LC",
        "col3": "IUCN3.1"
    },
    {
        "col0": "Eungella torrent frog",
        "col1": "Myobatrachidae",
        "col2": "CR",
        "col3": "IUCN3.1"
    },
    {
        "col0": "Eungella tinker frog",
        "col1": "Myobatrachidae",
        "col2": "NT",
        "col3": "IUCN3.1"
    },
    {
        "col0": "Ethiopian snout-burrower",
        "col1": "Hemisotidae",
        "col2": "LC",
        "col3": "IUCN3.1"
    },
    {
        "col0": "Ethiopian banana frog",
        "col1": "Hyperoliidae",
        "col2": "VU",
        "col3": "IUCN3.1"
    },
    {
        "col0": "Eritrea clawed frog",
        "col1": "Pipidae",
        "col2": "LC",
        "col3": "IUCN3.1"
    },
    {
        "col0": "Epirus water frog",
        "col1": "Ranidae",
        "col2": "VU",
        "col3": "IUCN3.1"
    },
    {
        "col0": "Epipedobates machalilla",
        "col1": "Dendrobatidae",
        "col2": "NT",
        "col3": "IUCN3.1"
    },
    {
        "col0": "Epipedobates espinosai",
        "col1": "Dendrobatidae",
        "col2": "DD",
        "col3": "IUCN3.1"
    },
    {
        "col0": "Ensatina",
        "col1": "Lungless salamander",
        "col2": "LC",
        "col3": "IUCN3.1"
    },
    {
        "col0": "Engystomops guayaco",
        "col1": "Leptodactylidae",
        "col2": "DD",
        "col3": "IUCN3.1"
    },
    {
        "col0": "Engelhardt's climbing salamander",
        "col1": "Plethodontidae",
        "col2": "EN",
        "col3": "IUCN3.1"
    },
    {
        "col0": "Emerald poison frog",
        "col1": "Dendrobatidae",
        "col2": "DD",
        "col3": "IUCN3.1"
    },
    {
        "col0": "Emerald-eyed tree frog",
        "col1": "Hylidae",
        "col2": "LC",
        "col3": "IUCN3.1"
    },
    {
        "col0": "Eleutherodactylus verruculatus",
        "col1": "Eleutherodactylidae",
        "col2": "DD",
        "col3": "IUCN3.1"
    },
    {
        "col0": "Eleutherodactylus verrucipes",
        "col1": "Eleutherodactylidae",
        "col2": "VU",
        "col3": "IUCN3.1"
    },
    {
        "col0": "Eleutherodactylus teretistes",
        "col1": "Eleutherodactylidae",
        "col2": "DD",
        "col3": "IUCN3.1"
    },
    {
        "col0": "Eleutherodactylus saxatilis",
        "col1": "Eleutherodactylidae",
        "col2": "EN",
        "col3": "IUCN3.1"
    },
    {
        "col0": "Eleutherodactylus rufescens",
        "col1": "Eleutherodactylidae",
        "col2": "CR",
        "col3": "IUCN3.1"
    },
    {
        "col0": "Eleutherodactylus rubrimaculatus",
        "col1": "Eleutherodactylidae",
        "col2": "VU",
        "col3": "IUCN3.1"
    },
    {
        "col0": "Eleutherodactylus pipilans",
        "col1": "Eleutherodactylidae",
        "col2": "LC",
        "col3": "IUCN3.1"
    }
]