[
    {
        "col0": "M. Owen",
        "col1": "London",
        "col2": "1935-04-04",
        "col3": "Quarter-final (1974 World Championship)"
    },
    {
        "col0": "K. Kennerley",
        "col1": "Birmingham",
        "col2": "1913-12-27",
        "col3": "Last 24 (1974 World Championship)"
    },
    {
        "col0": "J. Pulman",
        "col1": "Northampton",
        "col2": "1923-12-12",
        "col3": "Semi-final (1977 World Championship)"
    },
    {
        "col0": "J. Dunning",
        "col1": "Morley, West Yorkshire",
        "col2": "1927-04-18",
        "col3": "Quarter-final (1974 World Championship)"
    },
    {
        "col0": "J. Bear",
        "col1": "British Columbia",
        "col2": "1944-08-08",
        "col3": "Last 32 (1982 World Championship)"
    },
    {
        "col0": "J. Barrie",
        "col1": "Norfolk",
        "col2": "1924-06-30",
        "col3": "Last 24 (twice)"
    },
    {
        "col0": "J. Karnehm",
        "col1": "Berkshire",
        "col2": "1917-06-18",
        "col3": "Last 24  (1977 World Snooker Championship)"
    },
    {
        "col0": "G. Chenier",
        "col1": "Canada",
        "col2": "1907-01-14",
        "col3": "Semi-Final (1950 World Championship)"
    },
    {
        "col0": "G. Owen",
        "col1": "Brisbane",
        "col2": "1929-1-1",
        "col3": "Quarter-final (1975 World Championship)"
    },
    {
        "col0": "F. Davis",
        "col1": "Denbighshire",
        "col2": "1913-08-14",
        "col3": "Semi-final (1974 World Championship,1978 World Championship)"
    },
    {
        "col0": "E. Charlton",
        "col1": "Palmerston North",
        "col2": "1929-10-31",
        "col3": "Final (1975 World Championship)"
    },
    {
        "col0": "B. Werbeniuk",
        "col1": "Vancouver",
        "col2": "1947-01-14",
        "col3": "(4 times)"
    },
    {
        "col0": "B. Bennett",
        "col1": "Southampton",
        "col2": "1931-08-31",
        "col3": "Last 16 (1974 World Championship)"
    }
]