[
    {
        "col0": "Drylands",
        "col1": "The Multiple Effects of Rainshadow",
        "col2": "PR9619.3.A75 D79 1999",
        "col3": "0-670-88619-X"
    },
    {
        "col0": "Drug of Choice",
        "col1": "The Venom Business",
        "col2": "PS3553.R48",
        "col3": "0-451-04116-X"
    },
    {
        "col0": "Drowned Wednesday",
        "col1": "Grim Tuesday",
        "col2": "PZ7.N647 Dr 2005",
        "col3": "0-439-70086-8"
    },
    {
        "col0": "Dress Your Family in Corduroy and Denim",
        "col1": "Me Talk Pretty One Day",
        "col2": "PS3569.E314 R47 2004",
        "col3": "0-316-14346-4"
    },
    {
        "col0": "Dreaming of Babylon: A Private Eye Novel 1942",
        "col1": "Sombrero Fallout: A Japanese Novel",
        "col2": "PZ4.B826 Dr PS3503.R2736",
        "col3": "0-440-02146-4"
    },
    {
        "col0": "Dread Mountain",
        "col1": "The Shifting Sands",
        "col2": "CPB Box no. 1857 vol. 22",
        "col3": "0-439-25327-6"
    },
    {
        "col0": "Drakon",
        "col1": "The Stone Dogs",
        "col2": "CPB Box no. 1849 vol. 5",
        "col3": "0-671-87711-9"
    },
    {
        "col0": "Dragonsong",
        "col1": "Dragonquest",
        "col2": "PZ7.M122834 Dr3",
        "col3": "978-0-689-30507-8"
    },
    {
        "col0": "Dragonsinger",
        "col1": "Dragonsong",
        "col2": "PZ7.M122834 Dp",
        "col3": "978-0-689-30570-2"
    },
    {
        "col0": "Dragonseye",
        "col1": "The Dolphins of Pern",
        "col2": "PS3563.A255 D77 1997",
        "col3": "978-0-593-03770-6"
    },
    {
        "col0": "Dragonsblood",
        "col1": "Dragon's Kin",
        "col2": "PS3613.C343 D73 2005",
        "col3": "978-0-345-44124-9"
    },
    {
        "col0": "Dragons of the Hourglass Mage",
        "col1": "Dragons of the Highlord Skies",
        "col2": "PS3573.E3978 D7535 2009",
        "col3": "978-0-7869-4916-8"
    },
    {
        "col0": "Dragons of the Highlord Skies",
        "col1": "Dragons of the Dwarven Depths",
        "col2": "PS3573.E3978 D753 2007",
        "col3": "978-0-7869-4333-3"
    },
    {
        "col0": "Dragons of Spring Dawning",
        "col1": "Dragons of Winter Night",
        "col2": "PS3573.E3978 D74 1985",
        "col3": "0-88038-175-2"
    },
    {
        "col0": "Dragons of Darkness",
        "col1": "Dragons of Light",
        "col2": "PS648.F3 D68",
        "col3": "0-441-16662-8"
    },
    {
        "col0": "Dragons in the Waters",
        "col1": "The Arm of the Starfish",
        "col2": "PZ7.L5385 Dr",
        "col3": "0-374-31868-9"
    },
    {
        "col0": "Dragonquest",
        "col1": "Dragonflight",
        "col2": "PS3563.A255 D76 x, 1971",
        "col3": "978-0-345-02245-5"
    },
    {
        "col0": "Dragonheart",
        "col1": "Dragon Harper",
        "col2": "PS3563.A25525 D73",
        "col3": "978-0-345-49114-5"
    },
    {
        "col0": "Dragongirl",
        "col1": "Dragonheart",
        "col2": "PS3563.A25525 D68",
        "col3": "978-0-345-49116-9"
    },
    {
        "col0": "Dragondrums",
        "col1": "The White Dragon",
        "col2": "PZ7.M122834 Dm",
        "col3": "978-0-689-30685-3"
    },
    {
        "col0": "Dragon and Phoenix",
        "col1": "The Last Dragonlord",
        "col2": "PS3552.E7745 L3 1998",
        "col3": "0-312-86429-9"
    },
    {
        "col0": "Dragon War",
        "col1": "Dragon Cauldron",
        "col2": "PZ7.Y44 Dqp 1992",
        "col3": "0-06-020302-1"
    },
    {
        "col0": "Dragon Steel",
        "col1": "Dragon of the Lost Sea",
        "col2": "PZ7.Y44 Dqn 1985",
        "col3": "0-06-026748-8"
    },
    {
        "col0": "Dragon Harper",
        "col1": "Dragon's Fire",
        "col2": "PS3563.A255 D73 2007",
        "col3": "978-0-345-48030-9"
    },
    {
        "col0": "Dragon Cauldron",
        "col1": "Dragon Steel",
        "col2": "PZ7.Y44 Do 1991",
        "col3": "0-06-026753-4"
    },
    {
        "col0": "Dragon",
        "col1": "Treasure",
        "col2": "PS3553.U75 D7 1990",
        "col3": "0-671-62619-1"
    },
    {
        "col0": "Dragon",
        "col1": "Orca",
        "col2": "PS3552.R84 D73 1998",
        "col3": "0-312-86692-5"
    },
    {
        "col0": "Dragon's Time",
        "col1": "Dragongirl",
        "col2": "PS3563.A255 D755",
        "col3": "978-0-345-50089-2"
    },
    {
        "col0": "Dragon's Kin",
        "col1": "The Skies of Pern",
        "col2": "PS3563.A255 D78 2003",
        "col3": "978-0-345-46198-8"
    },
    {
        "col0": "Dragon's Fire",
        "col1": "Dragonsblood",
        "col2": "PS3563.A255 D775 2006",
        "col3": "978-0-345-48028-6"
    },
    {
        "col0": "Dr. Seuss's Sleep Book",
        "col1": "The Sneetches and Other Stories",
        "col2": "PZ8.3.G276 Do",
        "col3": "978-0-394-80091-2"
    },
    {
        "col0": "Downtown Owl",
        "col1": "Chuck Klosterman IV: A Decade of Curious People and Dangerous Ideas",
        "col2": "PS3611.L67 D69 2008",
        "col3": "1-4165-4418-6"
    },
    {
        "col0": "Double Fudge",
        "col1": "Fudge-A-Mania",
        "col2": "PZ7.B6265 Do 2002",
        "col3": "0-525-46926-5"
    },
    {
        "col0": "Double Cross",
        "col1": "Cross",
        "col2": "PS3566.A822 D68 2007",
        "col3": "0-316-01505-9"
    },
    {
        "col0": "Doomed Queen Anne",
        "col1": "Beware, Princess Elizabeth",
        "col2": "PZ7.M5685 Do 2002",
        "col3": "0-15-216523-1"
    },
    {
        "col0": "Doctor Sax",
        "col1": "The Dharma Bums",
        "col2": "PS3521.E735 D63 1987",
        "col3": "0-8021-3049-6"
    },
    {
        "col0": "Doctor Fischer of Geneva",
        "col1": "The Human Factor",
        "col2": "PZ3.G8319 Do 1980b",
        "col3": "0-370-30316-4"
    },
    {
        "col0": "Divine Secrets of the Ya-Ya Sisterhood",
        "col1": "Little Altars Everywhere",
        "col2": "PS3573.E4937 D58 1996",
        "col3": "0-06-017328-9"
    },
    {
        "col0": "Divine Madness",
        "col1": "The Killing",
        "col2": "PZ7.M869647 Di 2006",
        "col3": "0-340-89434-2"
    },
    {
        "col0": "Divine Hammer",
        "col1": "Chosen of the Gods",
        "col2": "CPB Box no. 2067 vol. 10",
        "col3": "0-7869-2807-7"
    },
    {
        "col0": "Diuturnity's Dawn",
        "col1": "Dirge",
        "col2": "PS3556.O756 D58 2002",
        "col3": "0-345-41865-4"
    },
    {
        "col0": "Disordered Minds",
        "col1": "Fox Evil",
        "col2": "PR6073.A444 D57 2003",
        "col3": "1-4050-3416-5"
    },
    {
        "col0": "Disclosure",
        "col1": "Rising Sun",
        "col2": "PS3553.R48 D57 1994",
        "col3": "0-679-41945-4"
    },
    {
        "col0": "Dirge",
        "col1": "Phylogenesis",
        "col2": "PS3556.O756 D57 2000",
        "col3": "0-345-41864-6"
    },
    {
        "col0": "Diplomatic Immunity",
        "col1": "A Civil Campaign",
        "col2": "PS3552.U397 D57 2002",
        "col3": "0-7434-3533-8"
    },
    {
        "col0": "Dinosaur in a Haystack",
        "col1": "Eight Little Piggies",
        "col2": "QH366.2 .G659 1995",
        "col3": "0-517-70393-9"
    },
    {
        "col0": "Die Trying",
        "col1": "Killing Floor",
        "col2": "PS3553.H4838 D54 1998",
        "col3": "0-399-14379-3"
    },
    {
        "col0": "Dicey's Song",
        "col1": "Homecoming",
        "col2": "PZ7.V874 Di 1982",
        "col3": "0-689-30944-9"
    },
    {
        "col0": "Diary",
        "col1": "Lullaby",
        "col2": "PS3566.A4554 D53 2003",
        "col3": "0-385-50947-2"
    },
    {
        "col0": "Desirable Daughters",
        "col1": "Leave It to Me",
        "col2": "PR9499.3.M77 D47 2002",
        "col3": "0-7868-6598-9"
    },
    {
        "col0": "Designated Targets",
        "col1": "Weapons of Choice",
        "col2": "PR9619.3.B5136 D47 2005",
        "col3": "0-345-45714-5"
    },
    {
        "col0": "Desecration",
        "col1": "The Mark",
        "col2": "PS3562.A315 D47 2001",
        "col3": "0-8423-3226-X"
    },
    {
        "col0": "Dermaphoria",
        "col1": "The Contortionist's Handbook",
        "col2": "PS3603.L49 D47 2005",
        "col3": "1-931561-75-3"
    },
    {
        "col0": "Demon",
        "col1": "Wizard",
        "col2": "PS3572.A724 D4 1984",
        "col3": "0-399-12945-6"
    },
    {
        "col0": "Delirium",
        "col1": "Amnesia",
        "col2": "PR9199.3.C6435D45",
        "col3": "0-7868-6341-2"
    },
    {
        "col0": "Deep Water",
        "col1": "Obsidian Fate",
        "col2": "CPB Box no. 1911 vol. 10",
        "col3": "0-671-03919-9"
    },
    {
        "col0": "Deep Storm",
        "col1": "Death Match",
        "col2": "PS3553.H4839 D44 2007",
        "col3": "978-0-385-51550-4"
    },
    {
        "col0": "Deep Six",
        "col1": "Pacific Vortex!",
        "col2": "PS3553.U75 D4 1984",
        "col3": "0-671-50373-1"
    },
    {
        "col0": "Deep Fire Rising",
        "col1": "River of Ruin",
        "col2": "CPB Box no. 2189 vol. 6",
        "col3": "978-0-451-41118-1"
    },
    {
        "col0": "Debt of Honor",
        "col1": "The Sum of All Fears",
        "col2": "PS3553.L245 D43 1994",
        "col3": "0-399-13954-0"
    },
    {
        "col0": "Debt of Bones",
        "col1": "The First Confessor: The Legend of Magda Searus",
        "col2": "PS3557.O5826 D43 2001",
        "col3": "0-575-07256-3"
    },
    {
        "col0": "Death of an Outsider",
        "col1": "Death of a Cad",
        "col2": "PR6052.E196 D44 1988",
        "col3": "0-312-02188-7"
    },
    {
        "col0": "Death of a Whaler",
        "col1": "The Lambing Flat",
        "col2": "PR9619.4.N49 D43 2006",
        "col3": "1-74114-791-3"
    },
    {
        "col0": "Death of a Colonial",
        "col1": "Jack, Knave and Fool",
        "col2": "PS3553.O55314 D45 1999",
        "col3": "0-399-14564-8"
    },
    {
        "col0": "Death of a Cad",
        "col1": "Death of a Gossip",
        "col2": "PR6052.E196 D37 1987",
        "col3": "0-312-00118-5"
    },
    {
        "col0": "Death Masks",
        "col1": "Summer Knight",
        "col2": "CPB Box no. 2127 vol. 3",
        "col3": "0-451-45940-7"
    },
    {
        "col0": "Death Is a Lonely Business",
        "col1": "The Halloween Tree",
        "col2": "PS3503.R167 D3 1985",
        "col3": "0-394-54702-0"
    },
    {
        "col0": "Dealing: or the Berkeley-to-Boston Forty-Brick Lost-Bag Blues",
        "col1": "Drug of Choice",
        "col2": "PS3554.O83",
        "col3": "0-394-42168-X"
    },
    {
        "col0": "Dead and Alive",
        "col1": "City of Night",
        "col2": "PS3561.O55 D43 2009",
        "col3": "0-553-58790-0"
    },
    {
        "col0": "Dead Man's Walk",
        "col1": "Streets of Laredo",
        "col2": "PS3563.A319 D38 1995",
        "col3": "0-684-80753-X"
    },
    {
        "col0": "Dead Beat",
        "col1": "Blood Rites",
        "col2": "PS3602.U85 D43 2005",
        "col3": "0-451-46027-8"
    },
    {
        "col0": "Dayworld Rebel",
        "col1": "Dayworld",
        "col2": "PS3556.A72 D4 1987",
        "col3": "0-399-13230-9"
    },
    {
        "col0": "Days of Magic, Nights of War",
        "col1": "Abarat",
        "col2": "PZ7.B25046 Day 2004",
        "col3": "978-0-06-029170-9"
    },
    {
        "col0": "Darkness, Take My Hand",
        "col1": "A Drink Before the War",
        "col2": "PS3562.E426 D37 1996",
        "col3": "0-688-14380-6"
    },
    {
        "col0": "Dark Wraith of Shannara",
        "col1": "Indomitable",
        "col2": "PN6727.B7565 D37 2008",
        "col3": "978-0-345-49462-7"
    },
    {
        "col0": "Dark Thane",
        "col1": "The Lioness",
        "col2": "CPB Box no. 2280 vol. 8",
        "col3": "0-7869-2941-3"
    },
    {
        "col0": "Dark Magic",
        "col1": "Dark Gold",
        "col2": "CPB Box no. 1984 vol. 12",
        "col3": "0-505-52389-2"
    },
    {
        "col0": "Dark Fire",
        "col1": "Dark Challenge",
        "col2": "CPB Box no. 1841 vol. 13",
        "col3": "0-505-52447-3"
    },
    {
        "col0": "Dark Challenge",
        "col1": "Dark Magic",
        "col2": "CPB Box no. 1925 vol. 2",
        "col3": "0-505-52409-0"
    },
    {
        "col0": "Danse Macabre",
        "col1": "Micah",
        "col2": "PS3558.A443357 D36 2006",
        "col3": "0-425-20797-8"
    },
    {
        "col0": "Dangerous Games",
        "col1": "Futures Past",
        "col2": "PS648.S3 D36 2007",
        "col3": "978-0-441-01490-3"
    },
    {
        "col0": "Danger on Vampire Trail",
        "col1": "The Bombay Boomerang",
        "col2": "PZ7.D644 Dal",
        "col3": "0-448-08950-5"
    },
    {
        "col0": "Dancing the Dream",
        "col1": "Moonwalk",
        "col2": "ML420.J175 A3 1992",
        "col3": "978-0-385-42277-2"
    },
    {
        "col0": "Dance of Death",
        "col1": "Brimstone",
        "col2": "PS3566.R3982 D36 2005b",
        "col3": "0-446-57697-2"
    },
    {
        "col0": "Dance Dance Dance",
        "col1": "A Wild Sheep Chase",
        "col2": "PL856613 1994",
        "col3": "978-0099448761"
    },
    {
        "col0": "Damia's Children",
        "col1": "Damia",
        "col2": "PS3563.A255 D4 1993",
        "col3": "0-399-13817-X"
    },
    {
        "col0": "Daja's Book",
        "col1": "Tris's Book",
        "col2": "PZ7.P61464 Daj 1998",
        "col3": "0-590-55358-5"
    },
    {
        "col0": "Daisy-Head Mayzie",
        "col1": "Oh, the Places You'll Go!",
        "col2": "PZ8.3.G276 Dai 1994",
        "col3": "0-679-86712-0"
    },
    {
        "col0": "DSM-5",
        "col1": "DSM-IV-TR",
        "col2": "RC455.2.C4",
        "col3": "978-0-89042-554-1"
    },
    {
        "col0": "Cyclops",
        "col1": "Deep Six",
        "col2": "PS3553.U75 C9 1986",
        "col3": "0-671-50374-X"
    },
    {
        "col0": "Cycles of Time",
        "col1": "The Road to Reality: A Complete Guide to the Laws of the Universe",
        "col2": "QB991.C92 P46 2010",
        "col3": "978-0-224-08036-1"
    },
    {
        "col0": "Curtain",
        "col1": "Poirot's Early Cases",
        "col2": "PZ3.C4637 Cu PR6005.H66",
        "col3": "0-00-231619-6"
    },
    {
        "col0": "Cursor's Fury",
        "col1": "Academ's Fury",
        "col2": "PS3602.U85 C87 2006",
        "col3": "0-441-01434-8"
    },
    {
        "col0": "Cursed",
        "col1": "Monster Island",
        "col2": "CPB Box no. 2253 vol. 9",
        "col3": "0-689-86437-X"
    },
    {
        "col0": "Curse of the Blue Tattoo",
        "col1": "Bloody Jack",
        "col2": "PZ7.M57172 Bl 2004",
        "col3": "978-0-15-205115-0"
    },
    {
        "col0": "Currant Events",
        "col1": "Cube Route",
        "col2": "PS3551.N73 C87 2004",
        "col3": "0-7653-0407-4"
    },
    {
        "col0": "Curious Notions",
        "col1": "Gunpowder Empire",
        "col2": "PS3570.U76 C87 2004",
        "col3": "0-7653-0694-8"
    }
]