[
    {
        "col0": "S. Mustafa",
        "col1": "Bursa",
        "col2": "Manisa",
        "col3": "Konya",
        "col4": "S. t. Magnificent",
        "col5": "1553-10-06"
    },
    {
        "col0": "S. Korkut",
        "col1": "Bursa",
        "col2": "Ottoman Empire",
        "col3": "Emet",
        "col4": "B. II",
        "col5": "1513-3-13"
    },
    {
        "col0": "S. Cihangir",
        "col1": "Constantinople",
        "col2": "Ottoman Empire",
        "col3": "Aleppo",
        "col4": "H. Sultan",
        "col5": "1553-11-27"
    },
    {
        "col0": "S. Sultan",
        "col1": "Istanbul",
        "col2": "Ottoman Empire",
        "col3": "Istanbul",
        "col4": "S. I",
        "col5": "1572-1-1"
    },
    {
        "col0": "E. C. d'Orleans",
        "col1": "Nancy, France",
        "col2": "Chateau de Saint-Cloud",
        "col3": "Commercy",
        "col4": "Philippe I, Duke of Orleans",
        "col5": "1744-12-23"
    },
    {
        "col0": "Elisabeth Alexandrine de Bourbon",
        "col1": "France",
        "col2": "France",
        "col3": "France",
        "col4": "Louis III, Prince of Conde",
        "col5": "1765-04-15"
    },
    {
        "col0": "AEthelwulf",
        "col1": "Winchester Cathedral",
        "col2": "Aachen",
        "col3": "Wessex",
        "col4": "E. o. Wessex",
        "col5": "0858-01-13"
    },
    {
        "col0": "AEthelstan",
        "col1": "Malmesbury Abbey",
        "col2": "Kingdom of Wessex",
        "col3": "Gloucester",
        "col4": "Ecgwynn",
        "col5": "0939-10-27"
    },
    {
        "col0": "AE. o. Wessex",
        "col1": "Sherborne Abbey",
        "col2": "Wessex",
        "col3": "Sherborne",
        "col4": "AE. o. Wessex",
        "col5": "865-1-1"
    },
    {
        "col0": "AE. o. Wessex",
        "col1": "Sherborne Abbey",
        "col2": "Wessex, England",
        "col3": "Sherborne",
        "col4": "AE. o. Wessex",
        "col5": "0860-12-20"
    },
    {
        "col0": "Z. Bonaparte",
        "col1": "Santa Maria in Via Lata",
        "col2": "French First Republic",
        "col3": "Naples",
        "col4": "J. Bonaparte",
        "col5": "1854-08-08"
    },
    {
        "col0": "Zog I of Albania",
        "col1": "Albania",
        "col2": "Albania",
        "col3": "Suresnes",
        "col4": "X. P. Zogu",
        "col5": "1961-04-09"
    },
    {
        "col0": "Z. a. Talal",
        "col1": "Raghadan Palace",
        "col2": "Alexandria",
        "col3": "Lausanne",
        "col4": "Sharif",
        "col5": "1994-04-26"
    },
    {
        "col0": "Zeb-un-Nisa",
        "col1": "Sikandra, Agra",
        "col2": "Mughal Empire",
        "col3": "Delhi",
        "col4": "D. B. Begum",
        "col5": "1702-05-26"
    },
    {
        "col0": "Z. Bonaparte",
        "col1": "Santa Maria in Via Lata",
        "col2": "Paris",
        "col3": "Naples",
        "col4": "J. Bonaparte",
        "col5": "1854-08-08"
    },
    {
        "col0": "Yusuf Izzuddin Shah of Perak",
        "col1": "Makam Al-Ghufran",
        "col2": "British Malaya",
        "col3": "Federation of Malaya",
        "col4": "Abdul Jalil of Perak",
        "col5": "1963-01-04"
    },
    {
        "col0": "Y. o. Zvenigorod",
        "col1": "Moscow Kremlin",
        "col2": "Grand Duchy of Moscow",
        "col3": "Moscow",
        "col4": "D. Donskoy",
        "col5": "1434-06-05"
    },
    {
        "col0": "Y. P. Katsura",
        "col1": "Bunkyo, Tokyo",
        "col2": "Japan",
        "col3": "Japan",
        "col4": "T. P. Mikasa",
        "col5": "2014-06-08"
    },
    {
        "col0": "Y. Emperor",
        "col1": "China",
        "col2": "Beijing",
        "col3": "Beijing",
        "col4": "K. Emperor",
        "col5": "1735-10-08"
    },
    {
        "col0": "Y. Emperor",
        "col1": "Beijing",
        "col2": "Nanjing",
        "col3": "Ming dynasty",
        "col4": "H. Emperor",
        "col5": "1424-08-12"
    },
    {
        "col0": "Y. o. Aragon",
        "col1": "France",
        "col2": "Zaragoza",
        "col3": "France",
        "col4": "John I of Aragon",
        "col5": "1442-11-14"
    },
    {
        "col0": "Yolande Palaeologina of Montferrat",
        "col1": "Hautecombe Abbey",
        "col2": "Moncalvo",
        "col3": "Chambery",
        "col4": "Theodore I, Marquess of Montferrat",
        "col5": "1342-12-24"
    },
    {
        "col0": "Y. Kang",
        "col1": "Namyangju",
        "col2": "Seoul",
        "col3": "Korea",
        "col4": "G. o. Korea",
        "col5": "1955-08-15"
    },
    {
        "col0": "Y. P. Chichibu",
        "col1": "Bunkyo, Tokyo",
        "col2": "Tokyo",
        "col3": "Japan",
        "col4": "E. Teimei",
        "col5": "1953-01-04"
    },
    {
        "col0": "Yaropolk I of Kiev",
        "col1": "Kiev",
        "col2": "Kiev",
        "col3": "Kaniv",
        "col4": "Sviatoslav I of Kiev",
        "col5": "978-6-11"
    },
    {
        "col0": "Yahya Petra of Kelantan",
        "col1": "Malaysia",
        "col2": "British Malaya",
        "col3": "Malaysia",
        "col4": "Ibrahim IV of Kelantan",
        "col5": "1979-03-29"
    },
    {
        "col0": "X. Emperor",
        "col1": "Beijing",
        "col2": "Beijing",
        "col3": "Forbidden City",
        "col4": "H. Emperor",
        "col5": "1435-01-31"
    },
    {
        "col0": "X. Emperor",
        "col1": "Eastern Qing Tombs",
        "col2": "Beijing",
        "col3": "Chengde",
        "col4": "D. Emperor",
        "col5": "1861-08-22"
    },
    {
        "col0": "W. L. Sapieha",
        "col1": "Krasiczyn",
        "col2": "Krasiczyn",
        "col3": "Lviv",
        "col4": "A. S. Sapieha",
        "col5": "1920-04-29"
    },
    {
        "col0": "Wladyslaw I the Elbow-high",
        "col1": "Krakow",
        "col2": "Kujawy",
        "col3": "Krakow",
        "col4": "Casimir I of Kuyavia",
        "col5": "1333-03-02"
    },
    {
        "col0": "W. I. Herman",
        "col1": "Plock",
        "col2": "Krakow",
        "col3": "Plock",
        "col4": "Casimir I the Restorer",
        "col5": "1102-06-04"
    },
    {
        "col0": "W. I. Vasa",
        "col1": "Krakow",
        "col2": "Krakow",
        "col3": "Merkine",
        "col4": "Anne of Austria, Queen of Poland",
        "col5": "1648-05-20"
    },
    {
        "col0": "Wladyslaw II the Exile",
        "col1": "Pegau",
        "col2": "Krakow",
        "col3": "Altenburg",
        "col4": "B. I. Wrymouth",
        "col5": "1159-05-30"
    },
    {
        "col0": "W. I. Jagiello",
        "col1": "Wawel Cathedral",
        "col2": "Grand Duchy of Lithuania",
        "col3": "Kingdom of Poland",
        "col4": "Uliana Alexandrovna of Tver",
        "col5": "1434-06-01"
    },
    {
        "col0": "W. Zetian",
        "col1": "Qianling Mausoleum",
        "col2": "Tang dynasty",
        "col3": "Tang dynasty",
        "col4": "W. Shihuo",
        "col5": "0705-12-16"
    },
    {
        "col0": "W. t. Lion",
        "col1": "Arbroath Abbey",
        "col2": "Huntingdon",
        "col3": "Stirling",
        "col4": "A. d. Warenne",
        "col5": "1214-12-04"
    },
    {
        "col0": "W. t. Conqueror",
        "col1": "Abbaye-aux-Hommes",
        "col2": "Duchy of Normandy",
        "col3": "Normandy",
        "col4": "Herleva",
        "col5": "1087-09-09"
    },
    {
        "col0": "William Longsword, Count of Rouen",
        "col1": "Rouen Cathedral",
        "col2": "Bayeux",
        "col3": "Picquigny",
        "col4": "Rollo",
        "col5": "0942-12-17"
    },
    {
        "col0": "William I of the Netherlands",
        "col1": "Nieuwe Kerk",
        "col2": "Huis ten Bosch",
        "col3": "Kingdom of Prussia",
        "col4": "Wilhelmina of Prussia, Princess of Orange",
        "col5": "1843-12-12"
    },
    {
        "col0": "William I of Wurttemberg",
        "col1": "Wurttemberg Mausoleum",
        "col2": "Lubin",
        "col3": "Stuttgart",
        "col4": "Frederick I of Wurttemberg",
        "col5": "1864-06-25"
    },
    {
        "col0": "William IX, Count of Poitiers",
        "col1": "Berkshire",
        "col2": "France",
        "col3": "Wallingford Castle",
        "col4": "E. o. Aquitaine",
        "col5": "1156-11-1"
    },
    {
        "col0": "William IV of the United Kingdom",
        "col1": "Windsor, Berkshire",
        "col2": "Buckingham Palace",
        "col3": "Windsor Castle",
        "col4": "George III of the United Kingdom",
        "col5": "1837-06-20"
    },
    {
        "col0": "William IV, Grand Duke of Luxembourg",
        "col1": "Weilburg",
        "col2": "Wiesbaden",
        "col3": "Berg Castle",
        "col4": "Adolphe, Grand Duke of Luxembourg",
        "col5": "1912-02-25"
    },
    {
        "col0": "William II of England",
        "col1": "Winchester Cathedral",
        "col2": "Normandy",
        "col3": "New Forest",
        "col4": "M. o. Flanders",
        "col5": "1100-08-02"
    },
    {
        "col0": "William III of the Netherlands",
        "col1": "Delft",
        "col2": "Brussels",
        "col3": "Apeldoorn",
        "col4": "William II of the Netherlands",
        "col5": "1890-11-23"
    },
    {
        "col0": "William III of England",
        "col1": "Westminster Abbey",
        "col2": "The Hague",
        "col3": "Kensington",
        "col4": "Mary, Princess Royal and Princess of Orange",
        "col5": "1702-03-08"
    },
    {
        "col0": "William I, German Emperor",
        "col1": "Berlin",
        "col2": "Berlin",
        "col3": "German Empire",
        "col4": "Frederick William III of Prussia",
        "col5": "1888-03-09"
    },
    {
        "col0": "W. FitzEmpress",
        "col1": "Rouen Cathedral",
        "col2": "Normandy",
        "col3": "Rouen",
        "col4": "Geoffrey Plantagenet, Count of Anjou",
        "col5": "1164-01-30"
    },
    {
        "col0": "W. Clito",
        "col1": "Abbey of St. Bertin",
        "col2": "Normandy",
        "col3": "Saint-Omer",
        "col4": "R. Curthose",
        "col5": "1128-07-28"
    },
    {
        "col0": "William, Prince of Orange",
        "col1": "Delft",
        "col2": "The Hague",
        "col3": "Paris",
        "col4": "William III of the Netherlands",
        "col5": "1879-06-11"
    },
    {
        "col0": "William, Prince of Albania",
        "col1": "Bucharest",
        "col2": "Neuwied",
        "col3": "Kingdom of Romania",
        "col4": "Princess Marie of the Netherlands",
        "col5": "1945-04-18"
    },
    {
        "col0": "William, Duke of Nassau",
        "col1": "Weilburg",
        "col2": "House of Nassau-Weilburg",
        "col3": "Kingdom of Bavaria",
        "col4": "Frederick William, Prince of Nassau-Weilburg",
        "col5": "1839-08-20"
    },
    {
        "col0": "William, Duke of Julich-Cleves-Berg",
        "col1": "Dusseldorf",
        "col2": "Dusseldorf",
        "col3": "Dusseldorf",
        "col4": "M. o. Julich-Berg",
        "col5": "1592-01-05"
    },
    {
        "col0": "Wilhelmine of Prussia, Queen of the Netherlands",
        "col1": "Delft",
        "col2": "Potsdam",
        "col3": "The Hague",
        "col4": "Frederick William II of Prussia",
        "col5": "1837-10-12"
    },
    {
        "col0": "Wilhelmine Amalia of Brunswick-Luneburg",
        "col1": "Vienna",
        "col2": "Luneburg",
        "col3": "Vienna",
        "col4": "Benedicta Henrietta of the Palatinate",
        "col5": "1742-04-10"
    },
    {
        "col0": "Wilhelmina of the Netherlands",
        "col1": "Nieuwe Kerk",
        "col2": "The Hague",
        "col3": "Apeldoorn",
        "col4": "Emma of Waldeck and Pyrmont",
        "col5": "1962-11-28"
    },
    {
        "col0": "W. Kettler",
        "col1": "Jelgava Palace",
        "col2": "Duchy of Courland and Semigallia",
        "col3": "Kamien Pomorski",
        "col4": "G. Kettler",
        "col5": "1640-04-20"
    },
    {
        "col0": "Wilhelm, German Crown Prince",
        "col1": "Weimar Republic",
        "col2": "Potsdam",
        "col3": "Wurttemberg-Hohenzollern",
        "col4": "Wilhelm II, German Emperor",
        "col5": "1951-07-20"
    },
    {
        "col0": "W. Emperor",
        "col1": "Beijing",
        "col2": "Beijing",
        "col3": "Beijing",
        "col4": "L. Emperor",
        "col5": "1620-08-18"
    },
    {
        "col0": "W. L. Sapieha",
        "col1": "Krasiczyn",
        "col2": "Krasiczyn",
        "col3": "Lviv",
        "col4": "A. S. Sapieha",
        "col5": "1920-04-29"
    },
    {
        "col0": "Wladyslaw I the Elbow-high",
        "col1": "Krakow",
        "col2": "Kujawy",
        "col3": "Krakow",
        "col4": "Casimir I of Kuyavia",
        "col5": "1333-03-02"
    },
    {
        "col0": "W. I. Herman",
        "col1": "Plock",
        "col2": "Krakow",
        "col3": "Poland",
        "col4": "Casimir I the Restorer",
        "col5": "1102-06-04"
    },
    {
        "col0": "W. I. Vasa",
        "col1": "Krakow",
        "col2": "Krakow",
        "col3": "Polish-Lithuanian Commonwealth",
        "col4": "S. I. Vasa",
        "col5": "1648-05-20"
    },
    {
        "col0": "Wladyslaw II the Exile",
        "col1": "Pegau",
        "col2": "Krakow",
        "col3": "Holy Roman Empire",
        "col4": "B. I. Wrymouth",
        "col5": "1159-05-30"
    },
    {
        "col0": "W. I. Jagiello",
        "col1": "Wawel Cathedral",
        "col2": "Grand Duchy of Lithuania",
        "col3": "Kingdom of Poland",
        "col4": "Uliana Alexandrovna of Tver",
        "col5": "1434-06-01"
    },
    {
        "col0": "V. Nemanjic",
        "col1": "Moraca monastery",
        "col2": "Grand Principality of Serbia",
        "col3": "Duklja",
        "col4": "S. Nemanja",
        "col5": "1207-0-0"
    },
    {
        "col0": "Vladislaus II of Hungary",
        "col1": "Szekesfehervar",
        "col2": "Kingdom of Poland",
        "col3": "Kingdom of Hungary",
        "col4": "C. I. Jagiellon",
        "col5": "1516-03-13"
    },
    {
        "col0": "Vladislaus III, Duke of Bohemia",
        "col1": "Velehrad",
        "col2": "Prague",
        "col3": "Margraviate of Moravia",
        "col4": "J. o. Thuringia",
        "col5": "1222-08-12"
    },
    {
        "col0": "Vladislaus II, Duke of Bohemia",
        "col1": "Prague",
        "col2": "Bohemia",
        "col3": "Meerane",
        "col4": "Vladislaus I, Duke of Bohemia",
        "col5": "1174-01-18"
    },
    {
        "col0": "V. o. Novgorod",
        "col1": "Novgorod",
        "col2": "Veliky Novgorod",
        "col3": "Veliky Novgorod",
        "col4": "Y. t. Wise",
        "col5": "1052-10-04"
    },
    {
        "col0": "V. o. Hungary",
        "col1": "Province of Lleida",
        "col2": "Esztergom",
        "col3": "Huesca",
        "col4": "Andrew II of Hungary",
        "col5": "1253-1-1"
    },
    {
        "col0": "Vincenzo Gonzaga, Duke of Mantua",
        "col1": "Basilica of Sant'Andrea, Mantua",
        "col2": "Mantua",
        "col3": "Mantua",
        "col4": "Archduchess Eleanor of Austria",
        "col5": "1612-02-09"
    },
    {
        "col0": "Vincent de Bourbon, Count of Guingamp",
        "col1": "Dreux",
        "col2": "HA'tel de Toulouse",
        "col3": "Palace of Versailles",
        "col4": "Louis Jean Marie de Bourbon, Duke of Penthievre",
        "col5": "1752-03-14"
    },
    {
        "col0": "V. o. Baden",
        "col1": "Riddarholmen Church",
        "col2": "Karlsruhe",
        "col3": "Kingdom of Italy",
        "col4": "Princess Louise of Prussia",
        "col5": "1930-04-04"
    },
    {
        "col0": "V. K. Kekaulike",
        "col1": "Mauna Ala",
        "col2": "Hilo, Hawaii",
        "col3": "Honolulu",
        "col4": "K. Kekaulike",
        "col5": "1884-01-08"
    },
    {
        "col0": "V. Kamamalu",
        "col1": "Mauna Ala",
        "col2": "Honolulu",
        "col3": "Honolulu",
        "col4": "KA<<naE>>u",
        "col5": "1866-05-29"
    },
    {
        "col0": "V. P. Royal",
        "col1": "Potsdam",
        "col2": "Buckingham Palace",
        "col3": "German Empire",
        "col4": "A. P. Consort",
        "col5": "1901-08-05"
    },
    {
        "col0": "Victor Amadeus II of Sardinia",
        "col1": "Turin",
        "col2": "Turin",
        "col3": "Turin",
        "col4": "Charles Emmanuel II, Duke of Savoy",
        "col5": "1732-10-31"
    },
    {
        "col0": "Victor Amadeus III of Sardinia",
        "col1": "Turin",
        "col2": "Turin",
        "col3": "Turin",
        "col4": "Charles Emmanuel III of Sardinia",
        "col5": "1796-10-16"
    },
    {
        "col0": "Victor Amadeus II, Prince of Carignano",
        "col1": "Basilica of Superga",
        "col2": "Turin",
        "col3": "Turin",
        "col4": "Landgravine Christine of Hesse-Rotenburg",
        "col5": "1780-9-10"
    },
    {
        "col0": "Victor Amadeus, Prince of Piedmont",
        "col1": "Turin",
        "col2": "Turin",
        "col3": "Turin",
        "col4": "A. M. d'Orleans",
        "col5": "1715-03-22"
    },
    {
        "col0": "Vakhtang I of Iberia",
        "col1": "Mtskheta",
        "col2": "Kingdom of Iberia",
        "col3": "Kingdom of Iberia",
        "col4": "Mihrdat V of Iberia",
        "col5": "502-1-1"
    },
    {
        "col0": "U. o. Pagan",
        "col1": "Bagan",
        "col2": "Bagan",
        "col3": "Dala Township",
        "col4": "Kyaswa",
        "col5": "1256-05-06"
    },
    {
        "col0": "Ulrika Eleonora, Queen of Sweden",
        "col1": "Stockholm",
        "col2": "Stockholm Palace",
        "col3": "Stockholm",
        "col4": "Charles XI of Sweden",
        "col5": "1741-11-24"
    },
    {
        "col0": "U. o. Denmark",
        "col1": "Copenhagen",
        "col2": "Hillerod",
        "col3": "Swidnica",
        "col4": "Christian IV of Denmark",
        "col5": "1633-08-12"
    },
    {
        "col0": "U. o. Denmark",
        "col1": "Roskilde Cathedral",
        "col2": "Koldinghus",
        "col3": "Ruhn",
        "col4": "Frederick II of Denmark",
        "col5": "1624-03-27"
    },
    {
        "col0": "U. Wangchuck",
        "col1": "Kurjey Lhakhang",
        "col2": "Bumthang District",
        "col3": "Bumthang District",
        "col4": "Ashi",
        "col5": "1926-08-26"
    },
    {
        "col0": "T. Duc",
        "col1": "Tomb of Tu Duc",
        "col2": "Hue",
        "col3": "Hue",
        "col4": "T. Tri",
        "col5": "1883-07-17"
    },
    {
        "col0": "T. T. IV",
        "col1": "Mala'ekula",
        "col2": "Kingdom of Tonga",
        "col3": "Auckland",
        "col4": "T. Honourable",
        "col5": "2006-09-06"
    },
    {
        "col0": "T. Kurshiah",
        "col1": "Malaysia",
        "col2": "Negeri Sembilan",
        "col3": "Kuala Lumpur",
        "col4": "T. B. Burhanuddin",
        "col5": "1999-02-02"
    },
    {
        "col0": "Tuanku Ja'afar of Negeri Sembilan",
        "col1": "Malaysia",
        "col2": "British Malaya",
        "col3": "Malaysia",
        "col4": "Abdul Rahman of Negeri Sembilan",
        "col5": "2008-12-27"
    },
    {
        "col0": "T. Bahiyah",
        "col1": "Kedah Royal Mausoleum",
        "col2": "Seri Menanti",
        "col3": "Alor Setar",
        "col4": "Tuanku Abdul Rahman ibni Almarhum Tuanku Muhammad",
        "col5": "2003-08-26"
    },
    {
        "col0": "Tsarevna Xenia Borisovna of Russia",
        "col1": "Trinity Lavra of St. Sergius",
        "col2": "Moscow",
        "col3": "Vladimir, Russia",
        "col4": "B. Godunov",
        "col5": "1622-8-30"
    },
    {
        "col0": "Trajan",
        "col1": "Trajan's Column",
        "col2": "Italica",
        "col3": "Gazipasa",
        "col4": "M. U. Traianus",
        "col5": "0117-08-08"
    },
    {
        "col0": "T. Emperor",
        "col1": "China",
        "col2": "China",
        "col3": "Beijing",
        "col4": "X. Emperor",
        "col5": "1875-01-12"
    },
    {
        "col0": "Tiye",
        "col1": "Thebes, Egypt",
        "col2": "Akhmim",
        "col3": "Thebes, Egypt",
        "col4": "Tjuyu",
        "col5": "-1338-1-1"
    },
    {
        "col0": "Tiberius",
        "col1": "Mausoleum of Augustus",
        "col2": "Rome",
        "col3": "Italy",
        "col4": "Augustus",
        "col5": "37-3-16"
    },
    {
        "col0": "T. Emperor",
        "col1": "Beijing",
        "col2": "Beijing",
        "col3": "Beijing",
        "col4": "T. Emperor",
        "col5": "1627-09-30"
    },
    {
        "col0": "T. d. Beauharnais",
        "col1": "Ludwigsburg Palace",
        "col2": "Mantua",
        "col3": "Kingdom of Wurttemberg",
        "col4": "E. d. Beauharnais",
        "col5": "1857-04-01"
    },
    {
        "col0": "Thomas of Lancaster, 1st Duke of Clarence",
        "col1": "Canterbury Cathedral",
        "col2": "London",
        "col3": "France",
        "col4": "Henry IV of England",
        "col5": "1421-03-22"
    },
    {
        "col0": "Thomas Butler, 10th Earl of Ormond",
        "col1": "St Canice's Cathedral",
        "col2": "Earl of Ormond",
        "col3": "Ireland",
        "col4": "James Butler, 9th Earl of Ormond",
        "col5": "1614-11-22"
    },
    {
        "col0": "T. Min",
        "col1": "India",
        "col2": "Mandalay",
        "col3": "India",
        "col4": "M. Min",
        "col5": "1916-12-19"
    },
    {
        "col0": "T. o. Saxe-Hildburghausen",
        "col1": "Munich",
        "col2": "Saxe-Hildburghausen",
        "col3": "Kingdom of Bavaria",
        "col4": "Duchess Charlotte Georgine of Mecklenburg-Strelitz",
        "col5": "1854-10-26"
    },
    {
        "col0": "Theresa of Portugal, Countess of Flanders",
        "col1": "Aube",
        "col2": "Coimbra",
        "col3": "Flanders",
        "col4": "M. o. Savoy",
        "col5": "1218-05-06"
    },
    {
        "col0": "T. Min",
        "col1": "Amarapura",
        "col2": "Amarapura",
        "col3": "Amarapura",
        "col4": "T. Minsaw",
        "col5": "1846-11-17"
    },
    {
        "col0": "T. d. Beauharnais",
        "col1": "Ludwigsburg Palace",
        "col2": "Mantua",
        "col3": "Kingdom of Wurttemberg",
        "col4": "E. d. Beauharnais",
        "col5": "1857-04-01"
    },
    {
        "col0": "Teuhe",
        "col1": "Tahiti",
        "col2": "Huahine",
        "col3": "Tahiti",
        "col4": "T. II",
        "col5": "1891-08-21"
    },
    {
        "col0": "Teresa of Leon, Countess of Portugal",
        "col1": "Braga Cathedral",
        "col2": "Povoa de Lanhoso",
        "col3": "Galicia",
        "col4": "Alfonso VI of Leon and Castile",
        "col5": "1130-11-11"
    },
    {
        "col0": "Teresa Cristina of the Two Sicilies",
        "col1": "Cathedral of Petropolis",
        "col2": "Kingdom of the Two Sicilies",
        "col3": "Kingdom of Portugal and the Algarves",
        "col4": "Maria Isabella of Spain",
        "col5": "1889-12-28"
    },
    {
        "col0": "Teodosio, Prince of Brazil",
        "col1": "Royal Pantheon of the Braganza Dynasty",
        "col2": "Ducal Palace of Vila Vicosa",
        "col3": "Santa Maria de Belem",
        "col4": "John IV of Portugal",
        "col5": "1653-05-13"
    },
    {
        "col0": "Teodora of Bulgaria, Queen of Serbia",
        "col1": "Zvecan",
        "col2": "Bulgarian Empire",
        "col3": "Zvecan",
        "col4": "S. o. Bulgaria",
        "col5": "1322-01-06"
    },
    {
        "col0": "Teodosio, Prince of Brazil",
        "col1": "Royal Pantheon of the Braganza Dynasty",
        "col2": "Vila Vicosa",
        "col3": "Kingdom of Portugal",
        "col4": "L. d. Guzman",
        "col5": "1653-05-13"
    },
    {
        "col0": "Tengku Budriah of Perlis",
        "col1": "Arau",
        "col2": "Kuala Krai District",
        "col3": "Hospital Kuala Lumpur",
        "col4": "P. Kingdom",
        "col5": "2008-11-28"
    },
    {
        "col0": "T. A. Bariah",
        "col1": "Kuala Terengganu",
        "col2": "Federation of Malaya",
        "col3": "Malaysia",
        "col4": "H. o. Selangor",
        "col5": "2011-03-21"
    },
    {
        "col0": "T. A. Shah",
        "col1": "Sultan Mosque",
        "col2": "Kampong Glam",
        "col3": "Kampong Glam",
        "col4": "Sultan Ali of Johor",
        "col5": "1891-08-26"
    },
    {
        "col0": "Teimuraz II of Kakheti",
        "col1": "Astrakhan Kremlin",
        "col2": "Tbilisi",
        "col3": "Saint Petersburg",
        "col4": "Heraclius I of Kakheti",
        "col5": "1762-01-08"
    },
    {
        "col0": "T. VI",
        "col1": "Huahine",
        "col2": "Huahine",
        "col3": "Huahine",
        "col4": "Ari'imate",
        "col5": "1905-09-15"
    },
    {
        "col0": "T. o. Jordan",
        "col1": "Raghadan Palace",
        "col2": "Hejaz Vilayet",
        "col3": "Constantinople",
        "col4": "Abdullah I of Jordan",
        "col5": "1972-07-07"
    },
    {
        "col0": "Taj Bibi Bilqis Makani",
        "col1": "Sohagpur",
        "col2": "India",
        "col3": "India",
        "col4": "R. o. Marwar",
        "col5": "1619-04-18"
    },
    {
        "col0": "T. o. Joseon",
        "col1": "Royal Tombs of the Joseon Dynasty",
        "col2": "Yuan dynasty",
        "col3": "Seoul",
        "col4": "Y. Ja-chun",
        "col5": "1408-06-18"
    },
    {
        "col0": "T. O'Rourke",
        "col1": "County Mayo",
        "col2": "Ireland",
        "col3": "West Breifne",
        "col4": "B. O'Rourke",
        "col5": "1605-0-0"
    },
    {
        "col0": "Tabinshwehti",
        "col1": "Pantanaw",
        "col2": "Taungoo",
        "col3": "Pantanaw",
        "col4": "M. Nyo",
        "col5": "1550-04-30"
    },
    {
        "col0": "T. Duc",
        "col1": "Tomb of Tu Duc",
        "col2": "Hue",
        "col3": "Hue",
        "col4": "T. Tri",
        "col5": "1883-07-17"
    },
    {
        "col0": "T. T. IV",
        "col1": "Mala'ekula",
        "col2": "Kingdom of Tonga",
        "col3": "Auckland",
        "col4": "T. Honourable",
        "col5": "2006-09-06"
    },
    {
        "col0": "S. T. III",
        "col1": "Mala'ekula",
        "col2": "Royal Palace, Tonga",
        "col3": "Auckland",
        "col4": "L. Veiongo",
        "col5": "1965-12-16"
    },
    {
        "col0": "S. o. Normandy",
        "col1": "Dunfermline Abbey",
        "col2": "France",
        "col3": "Kenmore, Perth and Kinross",
        "col4": "Henry I of England",
        "col5": "1122-07-13"
    },
    {
        "col0": "Sweyn II of Denmark",
        "col1": "Roskilde Cathedral",
        "col2": "England",
        "col3": "Denmark",
        "col4": "E. Svendsdatter",
        "col5": "1074-04-28"
    },
    {
        "col0": "Sviatoslav II of Kiev",
        "col1": "Chernigov",
        "col2": "Kiev",
        "col3": "Kiev",
        "col4": "Y. t. Wise",
        "col5": "1076-12-27"
    },
    {
        "col0": "Suzanne Henriette of Lorraine",
        "col1": "Paris",
        "col2": "France",
        "col3": "France",
        "col4": "Charles III, Duke of Elbeuf",
        "col5": "1710-10-19"
    },
    {
        "col0": "Susanna Montgomery, Countess of Eglinton",
        "col1": "Kilwinning",
        "col2": "Culzean Castle",
        "col3": "Auchans Castle, Ayrshire",
        "col4": "K. baronets",
        "col5": "1780-03-18"
    },
    {
        "col0": "Supayalat",
        "col1": "Kandawmin Garden Mausolea",
        "col2": "Mandalay",
        "col3": "Yangon",
        "col4": "M. Min",
        "col5": "1925-11-24"
    },
    {
        "col0": "S. o. Korea",
        "col1": "Royal Tombs of the Joseon Dynasty",
        "col2": "Changdeokgung",
        "col3": "Keijo",
        "col4": "G. o. Korea",
        "col5": "1926-04-24"
    },
    {
        "col0": "S. Quan",
        "col1": "Purple Mountain",
        "col2": "Pizhou",
        "col3": "Jiankang",
        "col4": "L. Wu",
        "col5": "252-1-1"
    },
    {
        "col0": "S. Yahya",
        "col1": "Kotor",
        "col2": "Constantinople",
        "col3": "Kotor",
        "col4": "Komnenos",
        "col5": "1649-1-1"
    },
    {
        "col0": "S. M. Akbar",
        "col1": "Mashad",
        "col2": "Aurangabad, Maharashtra",
        "col3": "Persia",
        "col4": "Aurangzeb",
        "col5": "1706-03-31"
    },
    {
        "col0": "S. o. Joseon",
        "col1": "Goyang",
        "col2": "Korea",
        "col3": "Korea",
        "col4": "H. o. Joseon",
        "col5": "1720-7-13"
    },
    {
        "col0": "Stephen V of Hungary",
        "col1": "Budapest",
        "col2": "Buda",
        "col3": "Csepel Island",
        "col4": "Bela IV of Hungary",
        "col5": "1272-8-6"
    },
    {
        "col0": "Stephen II of Hungary",
        "col1": "Romania",
        "col2": "Szekesfehervar",
        "col3": "Szekesfehervar",
        "col4": "Coloman, King of Hungary",
        "col5": "1131-3-1"
    },
    {
        "col0": "Stephen III of Hungary",
        "col1": "Esztergom",
        "col2": "Budapest",
        "col3": "Kingdom of Hungary",
        "col4": "E. o. Kiev",
        "col5": "1172-3-4"
    },
    {
        "col0": "Stephen II, Ban of Bosnia",
        "col1": "Visoko, Bosnia and Herzegovina",
        "col2": "Bosnia",
        "col3": "Bosnia and Herzegovina",
        "col4": "E. o. Serbia",
        "col5": "1353-1-1"
    },
    {
        "col0": "S. Bathory",
        "col1": "Wawel Cathedral",
        "col2": "Simleu Silvaniei",
        "col3": "Belarus",
        "col4": "S. V. Bathory",
        "col5": "1586-12-12"
    },
    {
        "col0": "Stephen, King of England",
        "col1": "Kent",
        "col2": "Blois",
        "col3": "Dover",
        "col4": "A. o. Normandy",
        "col5": "1154-10-25"
    },
    {
        "col0": "S. o. Hohenzollern-Sigmaringen",
        "col1": "Royal Pantheon of the Braganza Dynasty",
        "col2": "Hohenzollern-Sigmaringen",
        "col3": "Kingdom of Portugal",
        "col4": "Charles Anthony, Prince of Hohenzollern",
        "col5": "1859-07-17"
    },
    {
        "col0": "S. Vladislav",
        "col1": "MileA!eva monastery",
        "col2": "RaA!ka",
        "col3": "Zeta",
        "col4": "E. Angelina",
        "col5": "1267-11-1"
    },
    {
        "col0": "S. Nemanja",
        "col1": "Studenica monastery",
        "col2": "Podgorica",
        "col3": "Hilandar",
        "col4": "Zavida",
        "col5": "1199-02-13"
    },
    {
        "col0": "S. Brankovic",
        "col1": "Kupinovo",
        "col2": "Belgrade",
        "col3": "Udine",
        "col4": "E. Kantakouzene",
        "col5": "1476-10-09"
    },
    {
        "col0": "S. Leszczynski",
        "col1": "France",
        "col2": "Lwow",
        "col3": "France",
        "col4": "A. Jablonowska",
        "col5": "1766-02-23"
    },
    {
        "col0": "S. A. Poniatowski",
        "col1": "St. John's Archcathedral",
        "col2": "Vowchyn",
        "col3": "Saint Petersburg",
        "col4": "S. Poniatowski",
        "col5": "1798-02-12"
    },
    {
        "col0": "S. Leszczynski",
        "col1": "Nancy, France",
        "col2": "Lviv",
        "col3": "France",
        "col4": "A. Jablonowska",
        "col5": "1766-02-23"
    },
    {
        "col0": "S. A. Poniatowski",
        "col1": "St. John's Archcathedral",
        "col2": "Voucyn",
        "col3": "Russian Empire",
        "col4": "K. Czartoryska",
        "col5": "1798-02-12"
    },
    {
        "col0": "S. o. Wurttemberg",
        "col1": "Delft",
        "col2": "Ludwigsburg Palace",
        "col3": "Netherlands",
        "col4": "William I of Wurttemberg",
        "col5": "1877-06-03"
    },
    {
        "col0": "S. o. Pomerania",
        "col1": "Schleswig Cathedral",
        "col2": "Szczecin",
        "col3": "Kiel",
        "col4": "Anna Jagiellon, Duchess of Pomerania",
        "col5": "1568-05-13"
    },
    {
        "col0": "Sophie Magdalene of Brandenburg-Kulmbach",
        "col1": "Roskilde Cathedral",
        "col2": "Lauf an der Pegnitz",
        "col3": "Christiansborg Palace",
        "col4": "Christian Heinrich, Margrave of Brandenburg-Bayreuth-Kulmbach",
        "col5": "1770-05-27"
    },
    {
        "col0": "S. o. Nassau",
        "col1": "Riddarholmen Church",
        "col2": "Biebrich Palace",
        "col3": "Stockholm",
        "col4": "Princess Pauline of Wurttemberg",
        "col5": "1913-12-30"
    },
    {
        "col0": "S. o. Lithuania",
        "col1": "Cathedral of the Archangel",
        "col2": "Trakai",
        "col3": "Moscow",
        "col4": "V. t. Great",
        "col5": "1453-10-27"
    },
    {
        "col0": "S. o. Hanover",
        "col1": "Electorate of Hanover",
        "col2": "The Hague",
        "col3": "Electorate of Hanover",
        "col4": "Frederick V, Elector Palatine",
        "col5": "1714-06-08"
    },
    {
        "col0": "S. o. Bavaria",
        "col1": "Bratislava",
        "col2": "Munich",
        "col3": "Bratislava",
        "col4": "C. o. Gorizia",
        "col5": "1428-11-04"
    },
    {
        "col0": "Sophia Magdalena of Denmark",
        "col1": "Riddarholmen Church",
        "col2": "Copenhagen",
        "col3": "Ulriksdal Palace",
        "col4": "Frederick V of Denmark",
        "col5": "1813-08-21"
    },
    {
        "col0": "Sophia Jagiellon, Duchess of Brunswick-Luneburg",
        "col1": "Wolfenbuttel",
        "col2": "Krakow",
        "col3": "Germany",
        "col4": "Sigismund I the Old",
        "col5": "1575-05-28"
    },
    {
        "col0": "S. Hatun",
        "col1": "Bursa",
        "col2": "Kahramanmaras Province",
        "col3": "Ottoman Empire",
        "col4": "B. o. Dulkadir",
        "col5": "1467-1-1"
    },
    {
        "col0": "Sister Margarita of Jesus",
        "col1": "Georgetown Visitation Monastery",
        "col2": "Mexico City",
        "col3": "Georgetown, Washington, D.C.",
        "col4": "A. d. Iturbide",
        "col5": "1828-10-02"
    },
    {
        "col0": "S. Monipong",
        "col1": "French Protectorate of Cambodia",
        "col2": "French Protectorate of Cambodia",
        "col3": "France",
        "col4": "S. Monivong",
        "col5": "1956-08-31"
    },
    {
        "col0": "S. o. Moscow",
        "col1": "Cathedral of the Archangel",
        "col2": "Grand Duchy of Moscow",
        "col3": "Grand Duchy of Moscow",
        "col4": "Ivan I of Moscow",
        "col5": "1353-04-27"
    },
    {
        "col0": "Sigismund I the Old",
        "col1": "Krakow",
        "col2": "Poland",
        "col3": "Krakow",
        "col4": "C. I. Jagiellon",
        "col5": "1548-04-01"
    },
    {
        "col0": "S. I. Augustus",
        "col1": "Krakow",
        "col2": "Krakow",
        "col3": "Poland",
        "col4": "Sigismund I the Old",
        "col5": "1572-07-07"
    }
]