[
    {
        "col0": "Scuttling of SMS Cormoran",
        "col1": "Pacific Ocean",
        "col2": "Asian and Pacific theatre of World War I",
        "col3": "Germans scuttle SMS Cormoran.",
        "col4": "1 auxiliary cruiser"
    },
    {
        "col0": "Scramogue ambush",
        "col1": "County Roscommon",
        "col2": "Irish War of Independence",
        "col3": "successful IRA ambush and getaway",
        "col4": "39"
    },
    {
        "col0": "Scotland in the Wars of the Three Kingdoms",
        "col1": "Scotland",
        "col2": "Wars of the Three Kingdoms",
        "col3": "CovenantersdefeatRoyalistsbut are themselves defeated by an EnglishParliamentarianconquest of Scotland in 1650-51.",
        "col4": "Fluctuating, 2 000-4 000 troops at any one time"
    },
    {
        "col0": "Schweinfurt-Regensburg mission",
        "col1": "Regensburg",
        "col2": "Operation Pointblank",
        "col3": "Allied victory",
        "col4": "191Spitfiresorties"
    },
    {
        "col0": "Sawyers Fight",
        "col1": "Wyoming",
        "col2": "Powder River Expedition",
        "col3": "standoff",
        "col4": "civilian surveyors"
    },
    {
        "col0": "Saudi-Rashidi War",
        "col1": "Arabia",
        "col2": "Unification of Saudi Arabia",
        "col3": "Emirate of Riyadh (Saudi Arabia) victory",
        "col4": "10,000-12,000"
    },
    {
        "col0": "Saudi conquest of Hejaz",
        "col1": "Kingdom of Hejaz",
        "col2": "Unification of Saudi Arabia",
        "col3": "Sultanate of NejdVictory",
        "col4": "5,000 men"
    },
    {
        "col0": "Saudi-Rashidi War",
        "col1": "Arabia",
        "col2": "Unification of Saudi Arabia",
        "col3": "Emirate of Riyadh (Saudi Arabia) victory",
        "col4": "10,000-12,000"
    },
    {
        "col0": "Sassnitz Campaign",
        "col1": "Province of Pomerania",
        "col2": "Seven Years' War",
        "col3": "Decisive Swedish Victory",
        "col4": "10,700+ in battle"
    },
    {
        "col0": "Sassanid reconquest of Yemen",
        "col1": "Yemen",
        "col2": "Ethiopian-Persian wars",
        "col3": "Decisive Sassanid victory",
        "col4": "4,000"
    },
    {
        "col0": "Sasanian conquest of Jerusalem",
        "col1": "Jerusalem",
        "col2": "Jewish revolt against Heraclius",
        "col3": "DecisiveSasanianvictory",
        "col4": "*20,000 or 26,000 Jewish rebels"
    },
    {
        "col0": "Saratoga campaign",
        "col1": "Upstate New York",
        "col2": "American Revolutionary War",
        "col3": "*France enters the war",
        "col4": "1,600 (St. Leger)"
    },
    {
        "col0": "Sanyuanli Incident",
        "col1": "Baiyun District, Guangzhou",
        "col2": "Battle of Canton",
        "col3": "Inconclusive",
        "col4": "20,000-30,000"
    },
    {
        "col0": "Santo Domingo Affair",
        "col1": "Caribbean Sea",
        "col2": "Banana Wars",
        "col3": "American victory",
        "col4": "1auxiliary cruiser"
    },
    {
        "col0": "Sanna's Post",
        "col1": "Bloemfontein",
        "col2": "Second Boer War",
        "col3": "Boer victory",
        "col4": "(1,600 distantly engaged)"
    },
    {
        "col0": "Sandside Chase",
        "col1": "Caithness",
        "col2": "Scottish clan",
        "col3": "Mackay victory",
        "col4": "Unknown"
    },
    {
        "col0": "San Juan Expedition",
        "col1": "Nicaragua",
        "col2": "Anglo-Spanish War",
        "col3": "Decisive Spanish victory",
        "col4": "1 transport"
    },
    {
        "col0": "San Felipe Incident",
        "col1": "Gulf of Mexico",
        "col2": "Texas Revolution",
        "col3": "Texan victory",
        "col4": "1 schooner"
    },
    {
        "col0": "Samu Incident",
        "col1": "West Bank",
        "col2": "The retribution operations",
        "col3": "Demolition of 40 to 120 houses in the town of Samu; rioting in West Bank against king ofJordan; increased tensions contributing to outbreak ofSix-Day War",
        "col4": "10 tanks"
    },
    {
        "col0": "Samoan crisis",
        "col1": "Pacific Ocean",
        "col2": "Samoan Civil War",
        "col3": "Both squadrons wrecked",
        "col4": "1gunboat200 marines"
    },
    {
        "col0": "Sambyeolcho Rebellion",
        "col1": "Jindo",
        "col2": "Mongol invasions of Korea",
        "col3": "*Destruction of theSambyeolchoarmy",
        "col4": "12000"
    },
    {
        "col0": "Samarrah Offensive",
        "col1": "Baghdad",
        "col2": "Mesopotamian Campaign",
        "col3": "British victory.",
        "col4": "10,000 (Khalil),15,000 (Ali Ishan)"
    },
    {
        "col0": "Salvadoran Civil War",
        "col1": "El Salvador",
        "col2": "Central American crisis",
        "col3": "*Dissolving of the Salvadoran military government by negotiated settlement",
        "col4": "(probably 10.000)"
    },
    {
        "col0": "Salamaua-Lae campaign",
        "col1": "Territory of New Guinea",
        "col2": "Pacific War",
        "col3": "Alliedvictory",
        "col4": "~10,000"
    },
    {
        "col0": "Salahuddin campaign",
        "col1": "Iraq",
        "col2": "Military intervention against ISIL",
        "col3": "*Dhuluiya offensive(Anti-ISIL victory)",
        "col4": "14,000+"
    },
    {
        "col0": "Saint-Domingue expedition",
        "col1": "Saint-Domingue",
        "col2": "Haitian Revolution",
        "col3": "French defeat",
        "col4": "16,000 soldiers"
    },
    {
        "col0": "Sacking of Osceola",
        "col1": "Osceola, Missouri",
        "col2": "American Civil War",
        "col3": "Unionvictory",
        "col4": "Kansas Brigade"
    },
    {
        "col0": "Sacking of Lawrence",
        "col1": "Douglas County, Kansas",
        "col2": "Bleeding Kansas",
        "col3": "Pro-slaveryvictory",
        "col4": "800"
    },
    {
        "col0": "Sack of Wexford",
        "col1": "Wexford",
        "col2": "Irish Confederate Wars",
        "col3": "English Parliamentarians take town and massacre the garrison.",
        "col4": "6,000"
    },
    {
        "col0": "Sack of Thessalonica",
        "col1": "Thessalonica",
        "col2": "Byzantine-Norman wars",
        "col3": "Norman victory; Thessalonica sacked",
        "col4": "200 ships"
    },
    {
        "col0": "Sack of Sandomierz",
        "col1": "Poland",
        "col2": "First Mongol invasion of Poland",
        "col3": "Capture and destruction of the city of Sandomierz",
        "col4": "unknown"
    },
    {
        "col0": "Sack of Rome",
        "col1": "Rome",
        "col2": "Fall of the Western Roman Empire",
        "col3": "Visigoth Victory",
        "col4": "Possibly 40,000 soldiers"
    },
    {
        "col0": "Sack of Rome",
        "col1": "Italy",
        "col2": "War of the League of Cognac",
        "col3": "Successful sack, despite horrendous losses for The ImperialLandsknechts",
        "col4": "189Swiss Guards"
    },
    {
        "col0": "Sack of Magdeburg",
        "col1": "Magdeburg",
        "col2": "Thirty Years' War",
        "col3": "Destruction of the city",
        "col4": "2,400"
    },
    {
        "col0": "Sack of Krakow",
        "col1": "Poland",
        "col2": "First Mongol invasion of Poland",
        "col3": "Capture and destruction of most of the city",
        "col4": "unknown"
    },
    {
        "col0": "Sack of Damietta",
        "col1": "Egypt",
        "col2": "Arab-Byzantine Wars",
        "col3": "Byzantine victory",
        "col4": "85 ships, 5,000 men"
    },
    {
        "col0": "Sack of Cashel",
        "col1": "County Tipperary",
        "col2": "Irish Confederate Wars",
        "col3": "English Parliamentarians take the town and massacre its garrison",
        "col4": "c.600 soldiers"
    },
    {
        "col0": "Sack of Baturyn",
        "col1": "Cossack Hetmanate",
        "col2": "Great Northern War",
        "col3": "Sack of the city by the Russian forces and extermination of its population",
        "col4": "~25,000"
    },
    {
        "col0": "Sack of Antwerp",
        "col1": "Antwerp",
        "col2": "Eighty Years' War",
        "col3": "Decline of Antwerp as commercial hub",
        "col4": "20,000 (civilians included)"
    },
    {
        "col0": "Sack of Amorium",
        "col1": "Amorium",
        "col2": "Arab-Byzantine Wars",
        "col3": "City taken and razed by theAbbasids",
        "col4": "80,000"
    },
    {
        "col0": "Saar Offensive",
        "col1": "Germany",
        "col2": "Phoney War",
        "col3": "French withdrawal",
        "col4": "2,400 tanks"
    },
    {
        "col0": "SY Quest incident",
        "col1": "Oman",
        "col2": "Operation Ocean Shield",
        "col3": "*Capture and arrest of pirates",
        "col4": "1aircraft carrier"
    },
    {
        "col0": "Son Tay Campaign",
        "col1": "Vietnam",
        "col2": "Tonkin Campaign",
        "col3": "French victory",
        "col4": "2,000 Chinese soldiers"
    },
    {
        "col0": "Rakoczi's War of Independence",
        "col1": "Kingdom of Hungary",
        "col2": "War of the Spanish Succession",
        "col3": "Austrian victory",
        "col4": "ca. 1,500 French soldiers"
    },
    {
        "col0": "Russo-Turkish War",
        "col1": "Balkans",
        "col2": "Great Eastern Crisis",
        "col3": "Treaty of San Stefano,Treaty of Berlin",
        "col4": "190 cannons"
    },
    {
        "col0": "Russo-Turkish War",
        "col1": "Balkans",
        "col2": "Russo-Turkish Wars",
        "col3": "Russian victory",
        "col4": "100,000"
    },
    {
        "col0": "Russo-Turkish War",
        "col1": "Azov",
        "col2": "Great Turkish War",
        "col3": "Pavlovskand Mius",
        "col4": "14,000 (Only Crimean front)"
    },
    {
        "col0": "Russo-Turkish War",
        "col1": "Azov",
        "col2": "Russo-Turkish War",
        "col3": "Ottoman commercial victory",
        "col4": "20,000Turks"
    },
    {
        "col0": "Russo-Swedish War",
        "col1": "Finland",
        "col2": "Second Northern War",
        "col3": "Status quo ante bellum",
        "col4": "42,000-45,000"
    },
    {
        "col0": "Russo-Persian War",
        "col1": "Iran",
        "col2": "Russo-Persian Wars",
        "col3": "Russian victory",
        "col4": "34,000"
    },
    {
        "col0": "Russo-Persian War",
        "col1": "Iran",
        "col2": "Napoleonic Wars",
        "col3": "Russian victory",
        "col4": "48,000 troops, 21,000 irregular cavalry"
    },
    {
        "col0": "Russo-Persian War",
        "col1": "South Caucasus",
        "col2": "Russo-Persian Wars",
        "col3": "Russian Victory",
        "col4": "Cossacks: 22,000"
    },
    {
        "col0": "Russo-Georgian War",
        "col1": "Abkhazia",
        "col2": "Abkhaz-Georgian conflict",
        "col3": "*Expulsion of ethnic Georgians from South Ossetiaand theKodori Gorge",
        "col4": "(About 70,000 soldiers)"
    },
    {
        "col0": "Russo-Circassian War",
        "col1": "Krasnodar Krai",
        "col2": "Caucasian War",
        "col3": "Russian victory, annexation of Circassia, mass expulsion",
        "col4": "150,000 - 200,000."
    },
    {
        "col0": "Russian military intervention in Syria",
        "col1": "Syria",
        "col2": "Syrian Civil War",
        "col3": "* Major pro-government strategic gains in Latakia, Palmyra and Aleppo theaters",
        "col4": "----"
    },
    {
        "col0": "Russian invasion of Manchuria",
        "col1": "China",
        "col2": "Boxer Rebellion",
        "col3": "Russian victory",
        "col4": "100,000 Russian Army soldiers andCossacks"
    }
]