[
    {
        "col0": "Tunica Municipal Airport",
        "col1": "Tunica, Mississippi",
        "col2": "KUTA",
        "col3": "59"
    },
    {
        "col0": "Tunggul Wulung Airport",
        "col1": "Dutch East Indies",
        "col2": "(Location of airport in Java)",
        "col3": "21"
    },
    {
        "col0": "Tumlingtar Airport",
        "col1": "Nepal",
        "col2": "(Location of airport in Nepal)",
        "col3": "518"
    },
    {
        "col0": "Tumbura Airport",
        "col1": "South Sudan",
        "col2": "(Location of Tumbura Airport in South Sudan)",
        "col3": "679"
    },
    {
        "col0": "Tulsa International Airport",
        "col1": "Tulsa, Oklahoma",
        "col2": "KTUL",
        "col3": "206"
    },
    {
        "col0": "Tullahoma Regional Airport",
        "col1": "Tullahoma, Tennessee",
        "col2": "KTHA",
        "col3": "330"
    },
    {
        "col0": "Tuli Lodge Airport",
        "col1": "Botswana",
        "col2": "FBTL",
        "col3": "624"
    },
    {
        "col0": "Tulcea Airport",
        "col1": "Tulcea",
        "col2": "LRTC",
        "col3": "60"
    },
    {
        "col0": "Tuguegarao Airport",
        "col1": "Tuguegarao",
        "col2": "RPUT",
        "col3": "21"
    },
    {
        "col0": "Tugdan Airport",
        "col1": "Alcantara, Romblon",
        "col2": "RPVU",
        "col3": "3"
    },
    {
        "col0": "Tucurui Airport",
        "col1": "Tucurui",
        "col2": "SBTU",
        "col3": "252"
    },
    {
        "col0": "Tucson International Airport",
        "col1": "Tucson, Arizona",
        "col2": "KTUS",
        "col3": "805"
    },
    {
        "col0": "Tubuai - Mataura Airport",
        "col1": "French Polynesia",
        "col2": "NTAT",
        "col3": "5"
    },
    {
        "col0": "Tsushima Airport",
        "col1": "Japan",
        "col2": "RJDT",
        "col3": "63"
    },
    {
        "col0": "Tsumkwe Airport",
        "col1": "Tsumkwe",
        "col2": "FYTK",
        "col3": "1152"
    },
    {
        "col0": "Tsletsi Airport",
        "col1": "Djelfa",
        "col2": "DAFI",
        "col3": "1143"
    },
    {
        "col0": "Tsiroanomandidy Airport",
        "col1": "Tsiroanomandidy",
        "col2": "FMMX",
        "col3": "846"
    },
    {
        "col0": "Tshaneni Airfield",
        "col1": "Tshaneni",
        "col2": "FDTS",
        "col3": "310"
    },
    {
        "col0": "Tshane Airport",
        "col1": "Tshane",
        "col2": "FBTE",
        "col3": "1127"
    },
    {
        "col0": "Tshabong Airport",
        "col1": "Botswana",
        "col2": "FBTS",
        "col3": "930"
    },
    {
        "col0": "Tsaratanana Airport",
        "col1": "Tsaratanana",
        "col2": "FMNT",
        "col3": "327"
    },
    {
        "col0": "Tres Lagoas Airport",
        "col1": "Tres Lagoas",
        "col2": "SBTG",
        "col3": "327"
    },
    {
        "col0": "Trunojoyo Airport",
        "col1": "Dutch East Indies",
        "col2": "(Location of the Airport in Java)",
        "col3": "3"
    },
    {
        "col0": "Truckee Tahoe Airport",
        "col1": "Truckee, California",
        "col2": "KTRK",
        "col3": "1798"
    },
    {
        "col0": "Troyes - Barberey Airport",
        "col1": "France",
        "col2": "LFQB",
        "col3": "118"
    },
    {
        "col0": "Troy Municipal Airport",
        "col1": "Troy, Alabama",
        "col2": "KTOI",
        "col3": "121"
    },
    {
        "col0": "Trondheim Airport, Vaernes",
        "col1": "Norway",
        "col2": "ENVA",
        "col3": "17"
    },
    {
        "col0": "Tromso Airport, Langnes",
        "col1": "Norway",
        "col2": "ENTC",
        "col3": "9"
    },
    {
        "col0": "Trompeteros Airport",
        "col1": "Trompeteros District",
        "col2": "SPDR",
        "col3": "127"
    },
    {
        "col0": "Troll Airfield",
        "col1": "Antarctica",
        "col2": "AT27",
        "col3": "1232"
    },
    {
        "col0": "Trivandrum International Airport",
        "col1": "Thiruvananthapuram district",
        "col2": "VOTV",
        "col3": "3"
    },
    {
        "col0": "Tripoli International Airport",
        "col1": "Tripoli",
        "col2": "HLLT",
        "col3": "80"
    },
    {
        "col0": "Trieste - Friuli Venezia Giulia Airport",
        "col1": "Trieste",
        "col2": "(Location of the airport in Italy)",
        "col3": "11"
    },
    {
        "col0": "Trier-Fohren Airport",
        "col1": "Germany",
        "col2": "(Location in Rhineland-Palatinate, Germany)",
        "col3": "202"
    },
    {
        "col0": "Tribhuvannagar Airport",
        "col1": "Dang, Nepal",
        "col2": "VNDG",
        "col3": "640"
    },
    {
        "col0": "Tribhuvan International Airport",
        "col1": "Kathmandu",
        "col2": "VNKT",
        "col3": "1338"
    },
    {
        "col0": "Triangle North Executive Airport",
        "col1": "Louisburg, North Carolina",
        "col2": "KLHZ",
        "col3": "112"
    },
    {
        "col0": "Tri-State Steuben County Airport",
        "col1": "Angola, Indiana",
        "col2": "KANQ",
        "col3": "303"
    },
    {
        "col0": "Tri-State Airport",
        "col1": "Huntington, West Virginia",
        "col2": "KHTS",
        "col3": "252"
    },
    {
        "col0": "Tri-County Regional Airport",
        "col1": "Lone Rock, Wisconsin",
        "col2": "KLNR",
        "col3": "218"
    },
    {
        "col0": "Tri-County Airport",
        "col1": "Ahoskie, North Carolina",
        "col2": "KASJ",
        "col3": "20"
    },
    {
        "col0": "Tri-City Airport",
        "col1": "Parsons, Kansas",
        "col2": "KPPF",
        "col3": "274"
    },
    {
        "col0": "Tri-Cities Regional Airport",
        "col1": "Tri-Cities, Tennessee",
        "col2": "KTRI",
        "col3": "462"
    },
    {
        "col0": "Tri-Cities Airport",
        "col1": "Tri-Cities, Washington",
        "col2": "KPSC",
        "col3": "124"
    },
    {
        "col0": "Tri-Cities Airport",
        "col1": "Endicott, New York",
        "col2": "KCZG",
        "col3": "253"
    },
    {
        "col0": "Treviso Airport",
        "col1": "Treviso",
        "col2": "(Location of airport in Italy)",
        "col3": "17"
    },
    {
        "col0": "Tres Arroyos Airport",
        "col1": "Tres Arroyos",
        "col2": "SAZH",
        "col3": "121"
    },
    {
        "col0": "Trencin Airport",
        "col1": "Slovakia",
        "col2": "LZTN",
        "col3": "206"
    },
    {
        "col0": "Trenton-Mercer Airport",
        "col1": "Trenton, New Jersey",
        "col2": "KTTN",
        "col3": "64"
    },
    {
        "col0": "Trenton Municipal Airport",
        "col1": "Trenton, Missouri",
        "col2": "KTRX",
        "col3": "230"
    },
    {
        "col0": "Trenton Aerodrome",
        "col1": "Nova Scotia",
        "col2": "CYTN",
        "col3": "97"
    },
    {
        "col0": "Trenton-Mercer Airport",
        "col1": "Trenton, New Jersey",
        "col2": "KTTN",
        "col3": "64"
    },
    {
        "col0": "Trent Lott International Airport",
        "col1": "Pascagoula, Mississippi",
        "col2": "KPQL",
        "col3": "5"
    },
    {
        "col0": "Trencin Airport",
        "col1": "Slovakia",
        "col2": "LZTN",
        "col3": "206"
    },
    {
        "col0": "Treinta y Tres Airport",
        "col1": "Treinta y Tres",
        "col2": "SUTR",
        "col3": "102"
    },
    {
        "col0": "Treasure Cay Airport",
        "col1": "Abaco Islands",
        "col2": "MYAT",
        "col3": "2"
    },
    {
        "col0": "Trausdorf Airport",
        "col1": "Trausdorf an der Wulka",
        "col2": "LOAT",
        "col3": "163"
    },
    {
        "col0": "Traiguen Quino La Colmena Airport",
        "col1": "Traiguen",
        "col2": "SCQC",
        "col3": "250"
    },
    {
        "col0": "Traiguen Airport",
        "col1": "Traiguen",
        "col2": "SCTR",
        "col3": "247"
    },
    {
        "col0": "Traiguen Quino La Colmena Airport",
        "col1": "Traiguen",
        "col2": "SCQC",
        "col3": "250"
    },
    {
        "col0": "Traiguen Airport",
        "col1": "Traiguen",
        "col2": "SCTR",
        "col3": "247"
    },
    {
        "col0": "Tradewind Airport",
        "col1": "Amarillo, Texas",
        "col2": "KTDW",
        "col3": "1112"
    },
    {
        "col0": "Tracy Municipal Airport",
        "col1": "Tracy, Minnesota",
        "col2": "KTKC",
        "col3": "408"
    },
    {
        "col0": "Tres Lagoas Airport",
        "col1": "Tres Lagoas",
        "col2": "SBTG",
        "col3": "327"
    },
    {
        "col0": "Tozeur-Nefta International Airport",
        "col1": "Nefta",
        "col2": "(Location of airport in Tunisia)",
        "col3": "87"
    },
    {
        "col0": "Townsville Airport",
        "col1": "Townsville",
        "col2": "YBTL",
        "col3": "5"
    },
    {
        "col0": "Toussaint Louverture International Airport",
        "col1": "Port-au-Prince",
        "col2": "MTPP",
        "col3": "33"
    },
    {
        "col0": "Tours Val de Loire Airport",
        "col1": "Tours",
        "col2": "LFOT",
        "col3": "108"
    },
    {
        "col0": "Toulouse-Blagnac Airport",
        "col1": "France",
        "col2": "LFBO",
        "col3": "151"
    },
    {
        "col0": "Toulouse - Lasbordes Airport",
        "col1": "France",
        "col2": "LFCL",
        "col3": "140"
    },
    {
        "col0": "Toulouse-Blagnac Airport",
        "col1": "France",
        "col2": "LFBO",
        "col3": "151"
    },
    {
        "col0": "Toulon-Hyeres Airport",
        "col1": "Toulon",
        "col2": "LFTH",
        "col3": "3"
    },
    {
        "col0": "Tougan Airport",
        "col1": "Tougan",
        "col2": "DFOT",
        "col3": "299"
    },
    {
        "col0": "Touat-Cheikh Sidi Mohamed Belkebir Airport",
        "col1": "Algeria",
        "col2": "(Location of airport in Algeria)",
        "col3": "280"
    },
    {
        "col0": "Tottori Airport",
        "col1": "Japan",
        "col2": "RJOR",
        "col3": "14"
    },
    {
        "col0": "Totegegie Airport",
        "col1": "French Polynesia",
        "col2": "NTGJ",
        "col3": "2"
    },
    {
        "col0": "Torrington Municipal Airport",
        "col1": "Torrington, Wyoming",
        "col2": "KTOR",
        "col3": "1282"
    },
    {
        "col0": "Torreon Airport",
        "col1": "Coelemu",
        "col2": "SCKT",
        "col3": "65"
    },
    {
        "col0": "Tororo Airport",
        "col1": "Tororo",
        "col2": "HUTO",
        "col3": "1188"
    },
    {
        "col0": "Toronto Pearson International Airport",
        "col1": "Greater Toronto Area",
        "col2": "CYYZ",
        "col3": "173"
    },
    {
        "col0": "Torit Airport",
        "col1": "South Sudan",
        "col2": "(Location of Torit Airport in South Sudan)",
        "col3": "615"
    },
    {
        "col0": "Toquepala Airport",
        "col1": "Toquepala mine",
        "col2": "SPTQ",
        "col3": "2601"
    },
    {
        "col0": "Topeka Regional Airport",
        "col1": "Topeka, Kansas",
        "col2": "KFOE",
        "col3": "328"
    },
    {
        "col0": "Tooele Valley Airport",
        "col1": "Tooele, Utah",
        "col2": "KTVY",
        "col3": "1317"
    },
    {
        "col0": "Tonopah Airport",
        "col1": "Tonopah, Nevada",
        "col2": "KTPH",
        "col3": "1655"
    }
]