[
    {
        "col0": "A. Artesiani",
        "col1": "Bologna",
        "col2": "Italian people",
        "col3": "2005-03-16"
    },
    {
        "col0": "A. S. Brown",
        "col1": "Belgium",
        "col2": "United Kingdom",
        "col3": "1958-5-19"
    },
    {
        "col0": "A. Birkin",
        "col1": "Isle of Man",
        "col2": "United Kingdom",
        "col3": "1927-06-07"
    },
    {
        "col0": "A. Bergamonti",
        "col1": "Riccione",
        "col2": "Italy",
        "col3": "1971-4-4"
    },
    {
        "col0": "A. Linden",
        "col1": "Pennsylvania",
        "col2": "United States",
        "col3": "1987-2-10"
    },
    {
        "col0": "A. Testut",
        "col1": "Lyon",
        "col2": "Monaco",
        "col3": "2005-9-24"
    },
    {
        "col0": "A. Antonelli",
        "col1": "Volokolamsky District",
        "col2": "Italy",
        "col3": "2013-07-21"
    },
    {
        "col0": "A. Testut",
        "col1": "Lyon",
        "col2": "Monaco",
        "col3": "2005-9-24"
    },
    {
        "col0": "A. Moore",
        "col1": "Albuquerque, New Mexico",
        "col2": "United States",
        "col3": "1972-11-9"
    },
    {
        "col0": "A. Perilli",
        "col1": "Netherlands",
        "col2": "Italy",
        "col3": "2004-09-05"
    },
    {
        "col0": "A. Inch",
        "col1": "Australia",
        "col2": "Australia",
        "col3": "1994-07-03"
    },
    {
        "col0": "A. Ascari",
        "col1": "Monza",
        "col2": "Italy",
        "col3": "1955-5-26"
    },
    {
        "col0": "A. Burns",
        "col1": "Toledo, Ohio",
        "col2": "United States",
        "col3": "1921-08-14"
    },
    {
        "col0": "A. Stacey",
        "col1": "Circuit de Spa-Francorchamps",
        "col2": "United Kingdom",
        "col3": "1960-6-19"
    },
    {
        "col0": "A. Keller",
        "col1": "Phoenix, Arizona",
        "col2": "United States",
        "col3": "1961-11-19"
    },
    {
        "col0": "A. Malik",
        "col1": "Kota Tinggi",
        "col2": "Malaysia",
        "col3": "2014-05-25"
    },
    {
        "col0": "A. Funk",
        "col1": "Austria",
        "col2": "Austria",
        "col3": "2010-01-27"
    },
    {
        "col0": "L. Romanek",
        "col1": "Wilcza, Silesian Voivodeship",
        "col2": "Poland",
        "col3": "2006-06-02"
    },
    {
        "col0": "E. Bayol",
        "col1": "La Ciotat",
        "col2": "France",
        "col3": "1995-5-25"
    }
]