[
    {
        "col0": "Swami Vivekananda Airport",
        "col1": "RPR",
        "col2": "2319",
        "col3": "06/24",
        "col4": "Asphalt"
    },
    {
        "col0": "Swakopmund Airport",
        "col1": "SWP",
        "col2": "963",
        "col3": "06/24",
        "col4": "Gravel"
    },
    {
        "col0": "Svolvaer Airport, Helle",
        "col1": "SVJ",
        "col2": "946",
        "col3": "01/19",
        "col4": "Asphalt"
    },
    {
        "col0": "Sviatoshyn Airfield",
        "col1": "NNN",
        "col2": "1799",
        "col3": "14/32",
        "col4": "Concrete"
    },
    {
        "col0": "Sveg Airport",
        "col1": "EVG",
        "col2": "1700",
        "col3": "09/27",
        "col4": "Asphalt"
    },
    {
        "col0": "Svalbard Airport, Longyear",
        "col1": "LYR",
        "col2": "2482",
        "col3": "10/28",
        "col4": "Asphalt"
    },
    {
        "col0": "Suzhou Guangfu Airport",
        "col1": "SZV",
        "col2": "2200",
        "col3": "18/36",
        "col4": "Concrete"
    },
    {
        "col0": "Suvarnabhumi Airport",
        "col1": "BKK",
        "col2": "3700",
        "col3": "01L/19R",
        "col4": "Asphalt"
    },
    {
        "col0": "Susanville Municipal Airport",
        "col1": "SVE",
        "col2": "664",
        "col3": "11/29",
        "col4": "Asphalt"
    },
    {
        "col0": "Surkhet Airport",
        "col1": "SKH",
        "col2": "1199",
        "col3": "09/27",
        "col4": "Asphalt"
    },
    {
        "col0": "Surigao Airport",
        "col1": "SUG",
        "col2": "1707",
        "col3": "18/36",
        "col4": "Concrete"
    },
    {
        "col0": "Surgut International Airport",
        "col1": "SGC",
        "col2": "2789",
        "col3": "07/25",
        "col4": "Asphalt"
    },
    {
        "col0": "Surat Thani Airport",
        "col1": "URT",
        "col2": "3000",
        "col3": "04/22",
        "col4": "Asphalt"
    },
    {
        "col0": "Surat Airport",
        "col1": "STV",
        "col2": "2250",
        "col3": "04/22",
        "col4": "Asphalt"
    },
    {
        "col0": "Sur Airport",
        "col1": "SUH",
        "col2": "624",
        "col3": "06/24",
        "col4": "Dirt"
    },
    {
        "col0": "Supadio Airport",
        "col1": "PNK",
        "col2": "2249",
        "col3": "15/33",
        "col4": "Asphalt"
    },
    {
        "col0": "Sunyani Airport",
        "col1": "NYI",
        "col2": "1288",
        "col3": "07/25",
        "col4": "Asphalt"
    },
    {
        "col0": "Suntar Airport",
        "col1": "SUY",
        "col2": "2000",
        "col3": "17/35",
        "col4": "Concrete"
    },
    {
        "col0": "Sunshine Coast Airport",
        "col1": "MCY",
        "col2": "650",
        "col3": "12/30",
        "col4": "Asphalt"
    },
    {
        "col0": "Sunriver Airport",
        "col1": "SUO",
        "col2": "1662",
        "col3": "18/36",
        "col4": "Asphalt"
    },
    {
        "col0": "Sunrise Dam Airport",
        "col1": "DSR",
        "col2": "1950",
        "col3": "08/26",
        "col4": "tarmac"
    },
    {
        "col0": "Sungam Ni Airport",
        "col1": "N/A",
        "col2": "899",
        "col3": "14/32",
        "col4": "Asphalt"
    },
    {
        "col0": "Sundsvall-Timra Airport",
        "col1": "SDL",
        "col2": "2090",
        "col3": "16/34",
        "col4": "Asphalt"
    },
    {
        "col0": "Sunan Shuofang International Airport",
        "col1": "WUX",
        "col2": "3200",
        "col3": "03/21",
        "col4": "Asphalt"
    },
    {
        "col0": "Sumy Airport",
        "col1": "UMY",
        "col2": "2499",
        "col3": "8/26",
        "col4": "Asphalt"
    },
    {
        "col0": "Sumter Airport",
        "col1": "SUM",
        "col2": "939",
        "col3": "14/32",
        "col4": "Asphalt"
    },
    {
        "col0": "Summit Airport",
        "col1": "UMM",
        "col2": "1170",
        "col3": "3/21",
        "col4": "Gravel"
    },
    {
        "col0": "Summerside Airport",
        "col1": "YSU",
        "col2": "2438",
        "col3": "06/24",
        "col4": "Asphalt"
    },
    {
        "col0": "Summer Beaver Airport",
        "col1": "SUR",
        "col2": "1069",
        "col3": "17/35",
        "col4": "Gravel"
    },
    {
        "col0": "Sumburgh Airport",
        "col1": "LSI",
        "col2": "1425",
        "col3": "09/27",
        "col4": "Asphalt"
    },
    {
        "col0": "Sumbe Airport",
        "col1": "NDD",
        "col2": "951",
        "col3": "05/23",
        "col4": "Asphalt"
    },
    {
        "col0": "Sumbawanga Airport",
        "col1": "SUT",
        "col2": "1428",
        "col3": "07/25",
        "col4": "GRE"
    },
    {
        "col0": "Sultan Thaha Airport",
        "col1": "DJB",
        "col2": "2399",
        "col3": "13/31",
        "col4": "Asphalt"
    },
    {
        "col0": "Sultan Syarif Kasim II International Airport",
        "col1": "PKU",
        "col2": "2",
        "col3": "18/36",
        "col4": "Asphalt"
    },
    {
        "col0": "Sultan Muhammad Salahudin Airport",
        "col1": "BMU",
        "col2": "1647",
        "col3": "13/31",
        "col4": "Asphalt"
    },
    {
        "col0": "Sultan Muhammad Kaharuddin III Airport",
        "col1": "SWQ",
        "col2": "1650",
        "col3": "14/32",
        "col4": "Asphalt"
    },
    {
        "col0": "Sultan Mahmud Badaruddin II International Airport",
        "col1": "PLM",
        "col2": "3000",
        "col3": "11/29",
        "col4": "Asphalt"
    },
    {
        "col0": "Sultan Mahmud Airport",
        "col1": "TGG",
        "col2": "4570",
        "col3": "04/22",
        "col4": "Asphalt"
    },
    {
        "col0": "Sultan Ismail Petra Airport",
        "col1": "KBR",
        "col2": "2400",
        "col3": "10/28",
        "col4": "Asphalt"
    },
    {
        "col0": "Sultan Iskandar Muda International Airport",
        "col1": "BTJ",
        "col2": "3000",
        "col3": "17/35",
        "col4": "Asphalt"
    },
    {
        "col0": "Sultan Hasanuddin International Airport",
        "col1": "UPG",
        "col2": "2499",
        "col3": "03/21",
        "col4": "Asphalt"
    },
    {
        "col0": "Sultan Haji Ahmad Shah Airport",
        "col1": "KUA",
        "col2": "2804",
        "col3": "18/36",
        "col4": "Asphalt"
    },
    {
        "col0": "Sultan Bantilan Airport",
        "col1": "TLI",
        "col2": "1950",
        "col3": "11/29",
        "col4": "Asphalt"
    },
    {
        "col0": "Sultan Babullah Airport",
        "col1": "TTE",
        "col2": "1976",
        "col3": "02/27",
        "col4": "Asphalt"
    },
    {
        "col0": "Sultan Azlan Shah Airport",
        "col1": "IPH",
        "col2": "2000",
        "col3": "04/22",
        "col4": "Asphalt"
    },
    {
        "col0": "Sultan Aji Muhammad Sulaiman Airport",
        "col1": "BPN",
        "col2": "2494",
        "col3": "07/25",
        "col4": "Asphalt"
    },
    {
        "col0": "Sultan Abdul Halim Airport",
        "col1": "AOR",
        "col2": "2745",
        "col3": "04/22",
        "col4": "Asphalt"
    },
    {
        "col0": "Sultan Abdul Aziz Shah Airport",
        "col1": "SZB",
        "col2": "3780",
        "col3": "15/33",
        "col4": "Asphalt"
    },
    {
        "col0": "Sulphur Springs Municipal Airport",
        "col1": "SLR",
        "col2": "1524",
        "col3": "1/19",
        "col4": "Concrete"
    },
    {
        "col0": "Sullivan County International Airport",
        "col1": "MSV",
        "col2": "1919",
        "col3": "15/33",
        "col4": "Asphalt"
    },
    {
        "col0": "Sullivan County Airport",
        "col1": "SIV",
        "col2": "1328",
        "col3": "18/36",
        "col4": "Asphalt"
    },
    {
        "col0": "Sulaimaniyah International Airport",
        "col1": "ISU",
        "col2": "3500",
        "col3": "13/31",
        "col4": "Concrete"
    },
    {
        "col0": "Sukkur Airport",
        "col1": "SKZ",
        "col2": "2743",
        "col3": "14/32",
        "col4": "Asphalt"
    },
    {
        "col0": "Sukhumi Babushara Airport",
        "col1": "SUI",
        "col2": "3661",
        "col3": "12/30",
        "col4": "Concrete"
    },
    {
        "col0": "Sukhothai Airport",
        "col1": "THS",
        "col2": "2100",
        "col3": "18/36",
        "col4": "Asphalt"
    },
    {
        "col0": "Sui Airport",
        "col1": "SUL",
        "col2": "1516",
        "col3": "01/19",
        "col4": "Asphalt"
    },
    {
        "col0": "Sugimanuru Airport",
        "col1": "RAQ",
        "col2": "749",
        "col3": "08/26",
        "col4": "Asphalt"
    },
    {
        "col0": "Sugar Land Regional Airport",
        "col1": "SGR",
        "col2": "2438",
        "col3": "17/35",
        "col4": "Concrete"
    },
    {
        "col0": "Sudbury Airport",
        "col1": "YSB",
        "col2": "1524",
        "col3": "04/22",
        "col4": "Asphalt"
    },
    {
        "col0": "Sucua Airport",
        "col1": "SUQ",
        "col2": "730",
        "col3": "06/24",
        "col4": "Asphalt/Gravel"
    },
    {
        "col0": "Suceava International Airport",
        "col1": "SCV",
        "col2": "2460",
        "col3": "16/34",
        "col4": "Asphalt"
    },
    {
        "col0": "Sucua Airport",
        "col1": "SUQ",
        "col2": "730",
        "col3": "06/24",
        "col4": "Asphalt/Gravel"
    },
    {
        "col0": "Suburban Airport",
        "col1": "none",
        "col2": "708",
        "col3": "3/21",
        "col4": "Asphalt"
    },
    {
        "col0": "Subic Bay International Airport",
        "col1": "SFS",
        "col2": "2728",
        "col3": "07/25",
        "col4": "Asphalt"
    },
    {
        "col0": "Suai Airport",
        "col1": "UAI",
        "col2": "1049",
        "col3": "16/34",
        "col4": "Bitumen"
    },
    {
        "col0": "Sua Pan Airport",
        "col1": "SXN",
        "col2": "1640",
        "col3": "11/29",
        "col4": "Asphalt"
    },
    {
        "col0": "Stykkisholmur Airport",
        "col1": "SYK",
        "col2": "1114",
        "col3": "07/25",
        "col4": "Asphalt"
    },
    {
        "col0": "Stuttgart Municipal Airport",
        "col1": "SGT",
        "col2": "1524",
        "col3": "18/36",
        "col4": "Asphalt"
    },
    {
        "col0": "Stuttgart Airport",
        "col1": "STR",
        "col2": "3345",
        "col3": "07/25",
        "col4": "Concrete"
    },
    {
        "col0": "Stroudsburg-Pocono Airport",
        "col1": "ESP",
        "col2": "940",
        "col3": "8/26",
        "col4": "Asphalt"
    },
    {
        "col0": "Stroud Municipal Airport",
        "col1": "SUD",
        "col2": "914",
        "col3": "18/36",
        "col4": "Asphalt"
    },
    {
        "col0": "Strother Field",
        "col1": "WLD",
        "col2": "956",
        "col3": "13/31",
        "col4": "Asphalt"
    },
    {
        "col0": "Stronsay Airport",
        "col1": "SOY",
        "col2": "404",
        "col3": "02/20",
        "col4": "Graded hardcore"
    },
    {
        "col0": "Strigino International Airport",
        "col1": "GOJ",
        "col2": "499",
        "col3": "06/24",
        "col4": "Asphalt"
    },
    {
        "col0": "Strezhevoy Airport",
        "col1": "SWT",
        "col2": "1997",
        "col3": "16/34",
        "col4": "Concrete"
    },
    {
        "col0": "Streaky Bay Airport",
        "col1": "KBY",
        "col2": "780",
        "col3": "05/23",
        "col4": "Asphalt"
    },
    {
        "col0": "Straubing Wallmuhle Airport",
        "col1": "RBM",
        "col2": "1349",
        "col3": "10/28",
        "col4": "Asphalt"
    },
    {
        "col0": "Strasbourg Airport",
        "col1": "SXB",
        "col2": "2399",
        "col3": "05/23",
        "col4": "Asphalt"
    },
    {
        "col0": "Stralsund-Barth Airport",
        "col1": "BBH",
        "col2": "1199",
        "col3": "09/27",
        "col4": "Asphalt"
    },
    {
        "col0": "Strahan Airport",
        "col1": "SRN",
        "col2": "1220",
        "col3": "18/36",
        "col4": "Asphalt"
    },
    {
        "col0": "Storuman Airport",
        "col1": "SQO",
        "col2": "2282",
        "col3": "15/33",
        "col4": "Asphalt"
    },
    {
        "col0": "Stornoway Airport",
        "col1": "SYY",
        "col2": "1000",
        "col3": "06/24",
        "col4": "Asphalt"
    },
    {
        "col0": "Storm Lake Municipal Airport",
        "col1": "SLB",
        "col2": "598",
        "col3": "06/24",
        "col4": "Concrete"
    },
    {
        "col0": "Stord Airport, Sorstokken",
        "col1": "SRP",
        "col2": "1459",
        "col3": "15/33",
        "col4": "Asphalt"
    },
    {
        "col0": "Stony River Airport",
        "col1": "SRV",
        "col2": "792",
        "col3": "18/36",
        "col4": "Gravel/Dirt"
    },
    {
        "col0": "Stony Rapids Airport",
        "col1": "YSF",
        "col2": "1539",
        "col3": "06/24",
        "col4": "Treated gravel"
    },
    {
        "col0": "Stokmarknes Airport, Skagen",
        "col1": "SKN",
        "col2": "918",
        "col3": "09/27",
        "col4": "Asphalt"
    },
    {
        "col0": "Stoelmans Eiland Airstrip",
        "col1": "SMZ",
        "col2": "500",
        "col3": "10/28",
        "col4": "grass"
    },
    {
        "col0": "Stockton Metropolitan Airport",
        "col1": "SCK",
        "col2": "1355",
        "col3": "11L/29R",
        "col4": "Asphalt"
    },
    {
        "col0": "Stockholm Vasteras Airport",
        "col1": "VST",
        "col2": "800",
        "col3": "01/19",
        "col4": "Asphalt"
    },
    {
        "col0": "Stockholm Skavsta Airport",
        "col1": "NYO",
        "col2": "2039",
        "col3": "08/26",
        "col4": "Asphalt"
    },
    {
        "col0": "Stockholm Bromma Airport",
        "col1": "BMA",
        "col2": "1667",
        "col3": "12/30",
        "col4": "Asphalt"
    }
]