[
    {
        "col0": "White Unicorn",
        "col1": "Dimension",
        "col2": "A. Stockdale",
        "col3": "Wolfmother"
    },
    {
        "col0": "White Trash Millionaire",
        "col1": "Blame It on the Boom Boom",
        "col2": "B. S. Cherry",
        "col3": "Black Stone Cherry"
    },
    {
        "col0": "White Summer and Green Bicycle, Red Hair with Black Guitar.",
        "col1": "Terminal Heaven's Rock",
        "col2": "S. Yamanaka",
        "col3": "The Pillows"
    },
    {
        "col0": "White Sky",
        "col1": "Diane Young",
        "col2": "V. Weekend",
        "col3": "Vampire Weekend"
    },
    {
        "col0": "White Shiny Street",
        "col1": "Matador",
        "col2": "A. Nakagawa",
        "col3": "Akinori Nakagawa"
    },
    {
        "col0": "White Room",
        "col1": "Cross Road Blues",
        "col2": "J. Bruce",
        "col3": "Cream"
    },
    {
        "col0": "White Riot",
        "col1": "Remote Control",
        "col2": "J. Strummer",
        "col3": "The Clash"
    },
    {
        "col0": "White Rabbit",
        "col1": "The Ballad of You and Me and Pooneil",
        "col2": "G. Slick",
        "col3": "Jefferson Airplane"
    },
    {
        "col0": "White Prayer",
        "col1": "Tsubasa",
        "col2": "A. Nine",
        "col3": "Alice Nine"
    },
    {
        "col0": "White People for Peace",
        "col1": "Thrash Unreal",
        "col2": "L. J. Grace",
        "col3": "Against Me!"
    },
    {
        "col0": "White Nights",
        "col1": "Speak Out Now",
        "col2": "D. McCracken",
        "col3": "Oh Land"
    },
    {
        "col0": "White Lines",
        "col1": "Out of My Mind",
        "col2": "M. Mel",
        "col3": "Duran Duran"
    },
    {
        "col0": "White Limozeen",
        "col1": "Love Is Strange",
        "col2": "D. Parton",
        "col3": "Dolly Parton"
    },
    {
        "col0": "White Limo",
        "col1": "Walk",
        "col2": "F. Fighters",
        "col3": "Foo Fighters"
    },
    {
        "col0": "White Lightning",
        "col1": "Who Shot Sam",
        "col2": "T. B. Bopper",
        "col3": "George Jones"
    },
    {
        "col0": "White Light/White Heat",
        "col1": "Blue Jean",
        "col2": "L. Reed",
        "col3": "David Bowie"
    },
    {
        "col0": "White Liar",
        "col1": "The House That Built Me",
        "col2": "M. Lambert",
        "col3": "Miranda Lambert"
    },
    {
        "col0": "White Knuckles",
        "col1": "All Is Not Lost",
        "col2": "D. Kulash",
        "col3": "OK Go"
    },
    {
        "col0": "White Knuckle Ride",
        "col1": "Blue Skies",
        "col2": "J. Kay",
        "col3": "Jamiroquai"
    },
    {
        "col0": "White Iverson",
        "col1": "Too Young",
        "col2": "A. Post",
        "col3": "Post Malone"
    },
    {
        "col0": "White Houses",
        "col1": "Ring of Fire",
        "col2": "E. Burdon",
        "col3": "Eric Burdon & the Animals"
    },
    {
        "col0": "White Horse",
        "col1": "You Belong with Me",
        "col2": "L. Rose",
        "col3": "Taylor Swift"
    },
    {
        "col0": "White Guilt",
        "col1": "Young Bloods",
        "col2": "M. Caughthran",
        "col3": "The Bronx"
    },
    {
        "col0": "White Fool",
        "col1": "The Hunter",
        "col2": "P. Brennan",
        "col3": "Clannad"
    },
    {
        "col0": "White Flag",
        "col1": "Life for Rent",
        "col2": "Dido",
        "col3": "Dido"
    },
    {
        "col0": "White Feather",
        "col1": "Far Away",
        "col2": "A. Stockdale",
        "col3": "Wolfmother"
    },
    {
        "col0": "White Crosses",
        "col1": "High Pressure Low",
        "col2": "L. J. Grace",
        "col3": "Against Me!"
    },
    {
        "col0": "White Collar Boy",
        "col1": "Write About Love",
        "col2": "S. Murdoch",
        "col3": "Belle & Sebastian"
    },
    {
        "col0": "White Christmas",
        "col1": "Moonlight Becomes You",
        "col2": "I. Berlin",
        "col3": "Bing Crosby"
    },
    {
        "col0": "White & Nerdy",
        "col1": "Canadian Idiot",
        "col2": "\". A. Yankovic",
        "col3": "\"Weird Al\" Yankovic"
    },
    {
        "col0": "White, White Dove",
        "col1": "Here Comes the Sun",
        "col2": "S. Harley",
        "col3": "Steve Harley & Cockney Rebel"
    },
    {
        "col0": "White, Discussion",
        "col1": "Lakini's Juice",
        "col2": "Live",
        "col3": "Live"
    },
    {
        "col0": "Whistlin' Dixie",
        "col1": "I'm All About It",
        "col2": "R. Houser",
        "col3": "Randy Houser"
    },
    {
        "col0": "Whistle",
        "col1": "Get Low",
        "col2": "F. Rida",
        "col3": "Flo Rida"
    },
    {
        "col0": "Whispers in the Dark",
        "col1": "The Older I Get",
        "col2": "J. Cooper",
        "col3": "Skillet"
    },
    {
        "col0": "Whispers in the Dark",
        "col1": "Babel",
        "col2": "M. Mumford",
        "col3": "Mumford & Sons"
    },
    {
        "col0": "Whispers",
        "col1": "Now That You're Gone",
        "col2": "P. Zizzo",
        "col3": "Corina"
    },
    {
        "col0": "Whispering Your Name",
        "col1": "Getting into Something",
        "col2": "J. Shear",
        "col3": "Alison Moyet"
    },
    {
        "col0": "Whisper Your Name",
        "col1": "Everytime You Cry",
        "col2": "A. Tierney",
        "col3": "Human Nature"
    },
    {
        "col0": "Whisper My Name",
        "col1": "This Is Me",
        "col2": "T. Bruce",
        "col3": "Randy Travis"
    },
    {
        "col0": "Whiskey in the Jar",
        "col1": "Die, Die My Darling",
        "col2": "B. Downey",
        "col3": "Metallica"
    },
    {
        "col0": "Whiskey Under the Bridge",
        "col1": "My Maria",
        "col2": "R. Dunn",
        "col3": "Brooks & Dunn"
    },
    {
        "col0": "Whiskey Lullaby",
        "col1": "Mud on the Tires",
        "col2": "B. Anderson",
        "col3": "Brad Paisley"
    },
    {
        "col0": "Whiskey Hangover",
        "col1": "Cryin' Like A Bitch",
        "col2": "S. Erna",
        "col3": "Godsmack"
    },
    {
        "col0": "Whiskey Girl",
        "col1": "Hey, Good Lookin'",
        "col2": "T. Keith",
        "col3": "Toby Keith"
    },
    {
        "col0": "Whiskey Bent and Hell Bound",
        "col1": "Women I've Never Had",
        "col2": "H. W. Jr.",
        "col3": "Hank Williams Jr."
    },
    {
        "col0": "Whiskey",
        "col1": "I Hope It Rains",
        "col2": "C. Gravitt",
        "col3": "Jana Kramer"
    },
    {
        "col0": "Whiplash",
        "col1": "For a While",
        "col2": "B. Runga",
        "col3": "Stellar"
    },
    {
        "col0": "Whiplash",
        "col1": "Jump in the Fire",
        "col2": "J. Hetfield",
        "col3": "Metallica"
    },
    {
        "col0": "Whip It!",
        "col1": "Trini Dem Girls",
        "col2": "C. Angelides",
        "col3": "LunchMoney Lewis"
    },
    {
        "col0": "While You Wait for the Others",
        "col1": "Sleeping Ute",
        "col2": "C. Bear",
        "col3": "Grizzly Bear"
    },
    {
        "col0": "While You're Out Looking for Sugar",
        "col1": "The High Road",
        "col2": "Holland-Dozier-Holland",
        "col3": "Joss Stone"
    },
    {
        "col0": "Whiketywhack",
        "col1": "Shine On",
        "col2": "Cutfather",
        "col3": "Christine Milton"
    },
    {
        "col0": "Which Face Should I Put On Tonight",
        "col1": "Wildflowers",
        "col2": "T. Thorney",
        "col3": "Cassandra Vasik"
    },
    {
        "col0": "Wherever You Will Go",
        "col1": "Adrienne",
        "col2": "A. Band",
        "col3": "Charlene Soraia"
    },
    {
        "col0": "Wherever You Go",
        "col1": "Summer's Comin'",
        "col2": "C. Black",
        "col3": "Clint Black"
    },
    {
        "col0": "Wherever You Are",
        "col1": "Love You",
        "col2": "J. Stover",
        "col3": "Jack Ingram"
    },
    {
        "col0": "Wherever Would I Be",
        "col1": "If You Need Me",
        "col2": "D. Warren",
        "col3": "Dusty Springfield"
    },
    {
        "col0": "Wherever I May Roam",
        "col1": "Sad but True",
        "col2": "J. Hetfield",
        "col3": "Metallica"
    },
    {
        "col0": "Wherever I Go",
        "col1": "Kids",
        "col2": "B. Kutzle",
        "col3": "OneRepublic"
    },
    {
        "col0": "Where the Wild Roses Grow",
        "col1": "Young Hunting",
        "col2": "N. Cave",
        "col3": "Kylie Minogue"
    },
    {
        "col0": "Where the Streets Have No Name",
        "col1": "Jealousy",
        "col2": "Bono",
        "col3": "Pet Shop Boys"
    },
    {
        "col0": "Where the Streets Have No Name",
        "col1": "In God's Country",
        "col2": "Bono",
        "col3": "U2"
    },
    {
        "col0": "Where the Stars and Stripes and the Eagle Fly",
        "col1": "If Her Lovin' Don't Kill Me",
        "col2": "A. Tippin",
        "col3": "Aaron Tippin"
    },
    {
        "col0": "Where the Lost Ones Go",
        "col1": "Running",
        "col2": "E. Lind",
        "col3": "Sarah Brightman"
    },
    {
        "col0": "Where the Hood At?",
        "col1": "Get It on the Floor",
        "col2": "DMX",
        "col3": "DMX"
    },
    {
        "col0": "Where the Green Grass Grows",
        "col1": "For a Little While",
        "col2": "C. Wiseman",
        "col3": "Tim McGraw"
    },
    {
        "col0": "Where the Boys Are",
        "col1": "Breakin' in a Brand New Broken Heart",
        "col2": "N. Sedaka",
        "col3": "Connie Francis"
    },
    {
        "col0": "Where the Blacktop Ends",
        "col1": "Somebody Like You",
        "col2": "S. Wariner",
        "col3": "Keith Urban"
    },
    {
        "col0": "Where Your Road Leads",
        "col1": "Powerful Thing",
        "col2": "D. Child",
        "col3": "Trisha Yearwood"
    },
    {
        "col0": "Where You Stand",
        "col1": "Moving",
        "col2": "F. Healy",
        "col3": "Travis"
    },
    {
        "col0": "Where You Lead",
        "col1": "Will You Love Me Tomorrow",
        "col2": "C. King",
        "col3": "Carole King"
    },
    {
        "col0": "Where You At",
        "col1": "If I Was Your Man",
        "col2": "S. Garrett",
        "col3": "Joe"
    },
    {
        "col0": "Where You At",
        "col1": "I Remember Me",
        "col2": "R. Kelly",
        "col3": "Jennifer Hudson"
    },
    {
        "col0": "Where You Are",
        "col1": "Treat You Like a Queen",
        "col2": "R. Patterson",
        "col3": "Rahsaan Patterson"
    },
    {
        "col0": "Where You Are",
        "col1": "I Think I'm in Love with You",
        "col2": "N. Lachey",
        "col3": "Jessica Simpson"
    },
    {
        "col0": "Where You Are",
        "col1": "Come On",
        "col2": "J. Yong-hwa",
        "col3": "CN Blue"
    },
    {
        "col0": "Where Ya At",
        "col1": "March Madness",
        "col2": "Drake",
        "col3": "Future"
    },
    {
        "col0": "Where Would You Be",
        "col1": "Practice Life",
        "col2": "R. Proctor",
        "col3": "Martina McBride"
    },
    {
        "col0": "Where Would We Be Now",
        "col1": "Like It's Her Birthday",
        "col2": "B. Martin",
        "col3": "Good Charlotte"
    },
    {
        "col0": "Where Were You",
        "col1": "Drive",
        "col2": "A. Jackson",
        "col3": "Alan Jackson"
    },
    {
        "col0": "Where Were You",
        "col1": "The Desert Is in Your Heart",
        "col2": "A. Hammond",
        "col3": "Bonnie Tyler"
    },
    {
        "col0": "Where We Belong",
        "col1": "For He's a Jolly Good Felon",
        "col2": "Lostprophets",
        "col3": "Lostprophets"
    },
    {
        "col0": "Where Them Girls At",
        "col1": "Little Bad Girl",
        "col2": "N. Minaj",
        "col3": "Nicki Minaj"
    },
    {
        "col0": "Where Love Used to Live",
        "col1": "My Woman's Good to Me",
        "col2": "B. Sherrill",
        "col3": "David Houston"
    },
    {
        "col0": "Where It's At",
        "col1": "Hell of a Night",
        "col2": "M. Jenkins",
        "col3": "Dustin Lynch"
    },
    {
        "col0": "Where Is the Love?",
        "col1": "Shut Up",
        "col2": "Apl.de.ap",
        "col3": "The Black Eyed Peas"
    },
    {
        "col0": "Where Is the Love",
        "col1": "River of Love",
        "col2": "R. MacDonald",
        "col3": "Rick Price"
    },
    {
        "col0": "Where Is My Mind?",
        "col1": "Cactus",
        "col2": "B. Francis",
        "col3": "Pixies"
    },
    {
        "col0": "Where I Stood",
        "col1": "Peachy",
        "col2": "M. Higgins",
        "col3": "Missy Higgins"
    },
    {
        "col0": "Where I Come From",
        "col1": "It's Alright to Be a Redneck",
        "col2": "A. Jackson",
        "col3": "Alan Jackson"
    },
    {
        "col0": "Where Have You Been",
        "col1": "Cockiness",
        "col2": "E. Dean",
        "col3": "Rihanna"
    },
    {
        "col0": "Where Have All the Cowboys Gone?",
        "col1": "I Don't Want to Wait",
        "col2": "P. Cole",
        "col3": "Paula Cole"
    },
    {
        "col0": "Where Has Love Gone?",
        "col1": "Across the Universe",
        "col2": "H. Johnson",
        "col3": "Holly Johnson"
    },
    {
        "col0": "Where Does the Good Times Go",
        "col1": "Sam's Place",
        "col2": "B. Owens",
        "col3": "Buck Owens"
    },
    {
        "col0": "Where Does My Heart Beat Now",
        "col1": "The Last to Know",
        "col2": "R. W. Johnson",
        "col3": "Celine Dion"
    },
    {
        "col0": "Where Do the Nights Go",
        "col1": "Old Folks",
        "col2": "M. Reid",
        "col3": "Ronnie Milsap"
    },
    {
        "col0": "Where Do You Go",
        "col1": "When I Die",
        "col2": "F. Reuther",
        "col3": "No Mercy"
    }
]