[
    {
        "col0": "Angiopoietin receptor",
        "col1": "21",
        "col2": "1",
        "col3": "7010",
        "col4": "NM_000459"
    },
    {
        "col0": "Angiopoietin",
        "col1": "22",
        "col2": "8",
        "col3": "284",
        "col4": "NM_001146"
    },
    {
        "col0": "Androgen-binding protein",
        "col1": "13",
        "col2": "17",
        "col3": "6462",
        "col4": "NM_001040"
    },
    {
        "col0": "Amyloid beta",
        "col1": "21",
        "col2": "21",
        "col3": "351",
        "col4": "NM_000484"
    },
    {
        "col0": "Amelogenin",
        "col1": "11",
        "col2": "X",
        "col3": "265",
        "col4": "NM_001142"
    },
    {
        "col0": "Alpha catenin",
        "col1": "12",
        "col2": "10",
        "col3": "1495",
        "col4": "NM_001903"
    },
    {
        "col0": "Alpha-N-acetylglucosaminidase",
        "col1": "11",
        "col2": "17",
        "col3": "4669",
        "col4": "NM_000263"
    },
    {
        "col0": "Alpha-2-Macroglobulin",
        "col1": "13",
        "col2": "12",
        "col3": "2",
        "col4": "NM_000014"
    },
    {
        "col0": "Alanine transaminase",
        "col1": "24",
        "col2": "8",
        "col3": "2875",
        "col4": "NM_005309"
    },
    {
        "col0": "Agouti signalling peptide",
        "col1": "11",
        "col2": "20",
        "col3": "434",
        "col4": "NM_001672"
    },
    {
        "col0": "Adrenocorticotropic hormone",
        "col1": "23",
        "col2": "2",
        "col3": "5443",
        "col4": "NM_000939"
    },
    {
        "col0": "Adenosylhomocysteinase",
        "col1": "11",
        "col2": "20",
        "col3": "191",
        "col4": "NM_000687"
    },
    {
        "col0": "Adenine nucleotide translocator",
        "col1": "24",
        "col2": "4",
        "col3": "291",
        "col4": "NM_001151"
    }
]