[
    {
        "col0": "2007 US Open",
        "col1": "R. Federer",
        "col2": "J. Knowle",
        "col3": "J. Knowle"
    },
    {
        "col0": "2007 Rogers Cup",
        "col1": "N. Djokovic",
        "col2": "A. Sugiyama",
        "col3": "N. Djokovic"
    },
    {
        "col0": "2007 Regions Morgan Keegan Championships and the Cellular South Cup",
        "col1": "T. Haas",
        "col2": "E. Butorac",
        "col3": "T. Haas"
    },
    {
        "col0": "2007 Pacific Life Open",
        "col1": "R. Nadal",
        "col2": "S. Stosur",
        "col3": "R. Nadal"
    },
    {
        "col0": "2007 Gastein Ladies",
        "col1": "F. Schiavone",
        "col2": "L. Hradecka",
        "col3": "F. Schiavone"
    },
    {
        "col0": "2007 Challenge Bell",
        "col1": "L. Davenport",
        "col2": "R. Kops-Jones",
        "col3": "L. Davenport"
    },
    {
        "col0": "2006 Western & Southern Financial Group Masters",
        "col1": "A. Roddick",
        "col2": "J. Bjorkman",
        "col3": "A. Roddick"
    },
    {
        "col0": "2006 Rogers Cup",
        "col1": "R. Federer",
        "col2": "B. Bryan",
        "col3": "B. Bryan"
    },
    {
        "col0": "2006 Regions Morgan Keegan Championships and the Cellular South Cup",
        "col1": "T. Haas",
        "col2": "I. Karlovic",
        "col3": "T. Haas"
    },
    {
        "col0": "2006 Hansol Korea Open",
        "col1": "E. Daniilidou",
        "col2": "P. Suarez",
        "col3": "E. Daniilidou"
    },
    {
        "col0": "2006 Challenge Bell",
        "col1": "M. Bartoli",
        "col2": "L. Granville",
        "col3": "M. Bartoli"
    },
    {
        "col0": "2005 Western & Southern Financial Group Masters",
        "col1": "R. Federer",
        "col2": "J. Bjorkman",
        "col3": "J. Bjorkman"
    },
    {
        "col0": "2005 Rogers Cup",
        "col1": "R. Nadal",
        "col2": "M. Navratilova",
        "col3": "K. Clijsters"
    },
    {
        "col0": "2005 Regions Morgan Keegan Championships and the Cellular South Cup",
        "col1": "K. Carlsen",
        "col2": "Y. Yoshida",
        "col3": "Y. Yoshida"
    },
    {
        "col0": "2005 Challenge Bell",
        "col1": "A. Frazier",
        "col2": "E. Vesnina",
        "col3": "E. Vesnina"
    },
    {
        "col0": "2005 Australian Open",
        "col1": "M. Safin",
        "col2": "S. Kuznetsova",
        "col3": "A. Molik"
    },
    {
        "col0": "2004 Western & Southern Financial Group Masters",
        "col1": "A. Agassi",
        "col2": "M. Knowles",
        "col3": "M. Knowles"
    },
    {
        "col0": "2004 Kroger St. Jude International and the Cellular South Cup",
        "col1": "J. Johansson",
        "col2": "B. Bryan",
        "col3": "B. Bryan"
    },
    {
        "col0": "2004 Challenge Bell",
        "col1": "M. Sucha",
        "col2": "M. E. Salerni",
        "col3": "M. E. Salerni"
    },
    {
        "col0": "2004 Canada Masters and the Rogers AT&T Cup",
        "col1": "R. Federer",
        "col2": "L. Paes",
        "col3": "A. Mauresmo"
    },
    {
        "col0": "2003 Dubai Tennis Championships and Duty Free Women's Open",
        "col1": "R. Federer",
        "col2": "D. Rikl",
        "col3": "L. Paes"
    },
    {
        "col0": "2003 Challenge Bell",
        "col1": "M. Sharapova",
        "col2": "S. Tiantian",
        "col3": "M. Sharapova"
    },
    {
        "col0": "2003 Canada Masters and the Rogers AT&T Cup",
        "col1": "A. Roddick",
        "col2": "M. Navratilova",
        "col3": "A. Roddick"
    },
    {
        "col0": "2002 US Open",
        "col1": "P. Sampras",
        "col2": "M. Bryan",
        "col3": "P. Suarez"
    },
    {
        "col0": "2002 Dubai Tennis Championships and Duty Free Women's Open",
        "col1": "F. Santoro",
        "col2": "D. Nestor",
        "col3": "A. Mauresmo"
    },
    {
        "col0": "2002 Challenge Bell",
        "col1": "E. Bovina",
        "col2": "S. Reeves",
        "col3": "E. Bovina"
    },
    {
        "col0": "2002 Canada Masters and the Rogers AT&T Cup",
        "col1": "G. Canas",
        "col2": "P. Suarez",
        "col3": "M. Bryan"
    },
    {
        "col0": "2001 Stuttgart Masters",
        "col1": "T. Haas",
        "col2": "M. Mirnyi",
        "col3": "M. Mirnyi"
    },
    {
        "col0": "2001 Dubai Tennis Championships and Duty Free Women's Open",
        "col1": "J. C. Ferrero",
        "col2": "C. Vis",
        "col3": "J. C. Ferrero"
    },
    {
        "col0": "2001 Challenge Bell",
        "col1": "M. Shaughnessy",
        "col2": "S. Reeves",
        "col3": "M. Shaughnessy"
    },
    {
        "col0": "2001 Canada Masters and the Rogers AT&T Cup",
        "col1": "A. Pavel",
        "col2": "J. Novak",
        "col3": "A. Pavel"
    },
    {
        "col0": "2000 WTA Madrid Open",
        "col1": "G. L. Garcia",
        "col2": "L. Raymond",
        "col3": "L. Raymond"
    },
    {
        "col0": "2000 Tennis Masters Cup and ATP Tour World Championships",
        "col1": "G. Kuerten",
        "col2": "D. Johnson",
        "col3": "G. Kuerten"
    },
    {
        "col0": "2000 Stuttgart Masters",
        "col1": "W. Ferreira",
        "col2": "J. Novak",
        "col3": "J. Novak"
    },
    {
        "col0": "2000 Challenge Bell",
        "col1": "C. Rubin",
        "col2": "M. Shaughnessy",
        "col3": "C. Rubin"
    },
    {
        "col0": "1999 Newsweek Champions Cup and the Evert Cup",
        "col1": "M. Philippoussis",
        "col2": "S. Stolle",
        "col3": "A. Kournikova"
    },
    {
        "col0": "1999 Challenge Bell",
        "col1": "J. Capriati",
        "col2": "A. Frazier",
        "col3": "J. Capriati"
    },
    {
        "col0": "1999 Australian Open",
        "col1": "Y. Kafelnikov",
        "col2": "A. Kournikova",
        "col3": "A. Kournikova"
    },
    {
        "col0": "1998 Newsweek Champions Cup and the State Farm Evert Cup",
        "col1": "M. Rios",
        "col2": "J. Bjorkman",
        "col3": "J. Bjorkman"
    },
    {
        "col0": "1998 Challenge Bell",
        "col1": "T. Snyder",
        "col2": "K. Po",
        "col3": "K. Po"
    },
    {
        "col0": "1997 Newsweek Champions Cup and the State Farm Evert Cup",
        "col1": "M. Chang",
        "col2": "L. Davenport",
        "col3": "L. Davenport"
    },
    {
        "col0": "1997 Challenge Bell",
        "col1": "B. Schultz-McCarthy",
        "col2": "L. Raymond",
        "col3": "L. Raymond"
    },
    {
        "col0": "1996 Salem Open Beijing and the Nokia Open",
        "col1": "G. Rusedski",
        "col2": "M. Damm",
        "col3": "M. Damm"
    },
    {
        "col0": "1996 Romanian Open",
        "col1": "A. Berasategui",
        "col2": "J. Tarango",
        "col3": "J. Tarango"
    },
    {
        "col0": "1996 Newsweek Champions Cup and the State Farm Evert Cup",
        "col1": "M. Chang",
        "col2": "C. Rubin",
        "col3": "C. Rubin"
    },
    {
        "col0": "1996 Continental Championships and the Wilkinson Lady Championships",
        "col1": "R. Reneberg",
        "col2": "L. Neiland",
        "col3": "L. Neiland"
    },
    {
        "col0": "1996 Challenge Bell",
        "col1": "L. Raymond",
        "col2": "B. Schultz-McCarthy",
        "col3": "D. Graham"
    },
    {
        "col0": "1995 Newsweek Champions Cup and the State Farm Evert Cup",
        "col1": "P. Sampras",
        "col2": "L. Davenport",
        "col3": "L. Davenport"
    },
    {
        "col0": "1995 Challenge Bell",
        "col1": "B. Schultz-McCarthy",
        "col2": "M. Bollegraf",
        "col3": "M. Bollegraf"
    },
    {
        "col0": "1994 Newsweek Champions Cup and the Evert Cup",
        "col1": "P. Sampras",
        "col2": "L. Davenport",
        "col3": "L. Davenport"
    },
    {
        "col0": "1994 Challenge Bell",
        "col1": "K. Maleeva",
        "col2": "N. Tauziat",
        "col3": "N. Tauziat"
    },
    {
        "col0": "1994 Canadian Open",
        "col1": "A. Agassi",
        "col2": "M. McGrath",
        "col3": "A. Agassi"
    },
    {
        "col0": "1993 Newsweek Champions Cup and the Matrix Essentials Evert Cup",
        "col1": "J. Courier",
        "col2": "G. Forget",
        "col3": "J. Courier"
    },
    {
        "col0": "1993 Challenge Bell",
        "col1": "N. Tauziat",
        "col2": "M. Bollegraf",
        "col3": "N. Tauziat"
    },
    {
        "col0": "1992 Newsweek Champions Cup and the Matrix Essentials Evert Cup",
        "col1": "M. Chang",
        "col2": "C. Kohde-Kilsch",
        "col3": "M. Chang"
    },
    {
        "col0": "1991 Newsweek Champions Cup and the Virginia Slims of Palm Springs",
        "col1": "J. Courier",
        "col2": "J. Sanchez",
        "col3": "M. Navratilova"
    },
    {
        "col0": "1991 French Open",
        "col1": "J. Courier",
        "col2": "H. Sukova",
        "col3": "J. Novotna"
    },
    {
        "col0": "1990 Volvo U.S. National Indoor",
        "col1": "M. Stich",
        "col2": "D. Cahill",
        "col3": "D. Cahill"
    },
    {
        "col0": "1990 Volvo San Francisco",
        "col1": "A. Agassi",
        "col2": "K. Jones",
        "col3": "K. Jones"
    },
    {
        "col0": "1990 Stella Artois Indoor",
        "col1": "I. Lendl",
        "col2": "D. Nargiso",
        "col3": "I. Lendl"
    },
    {
        "col0": "1990 SkyDome World Tennis Tournament",
        "col1": "I. Lendl",
        "col2": "D. Macpherson",
        "col3": "I. Lendl"
    },
    {
        "col0": "1990 Prudential-Bache Securities Classic",
        "col1": "B. Gilbert",
        "col2": "D. Pate",
        "col3": "B. Gilbert"
    },
    {
        "col0": "1990 Norstar Bank Hamlet Challenge Cup",
        "col1": "S. Edberg",
        "col2": "G. Forget",
        "col3": "S. Edberg"
    },
    {
        "col0": "1990 Newsweek Champions Cup and the Virginia Slims of Indian Wells",
        "col1": "S. Edberg",
        "col2": "B. Becker",
        "col3": "B. Becker"
    },
    {
        "col0": "1990 Holden NSW Open",
        "col1": "Y. Noah",
        "col2": "J. Novotna",
        "col3": "J. Novotna"
    },
    {
        "col0": "1990 Eurocard Classic",
        "col1": "B. Becker",
        "col2": "G. Forget",
        "col3": "G. Forget"
    },
    {
        "col0": "1990 Estoril Open",
        "col1": "E. Sanchez",
        "col2": "P. Tarabini",
        "col3": "P. Tarabini"
    },
    {
        "col0": "1990 Ebel U.S. Pro Indoor",
        "col1": "P. Sampras",
        "col2": "R. Leach",
        "col3": "P. Sampras"
    },
    {
        "col0": "1990 Belgian Indoor Championships",
        "col1": "B. Becker",
        "col2": "S. Zivojinovic",
        "col3": "B. Becker"
    },
    {
        "col0": "1990 Banespa Open",
        "col1": "L. Mattar",
        "col2": "S. Salumaa",
        "col3": "S. Salumaa"
    },
    {
        "col0": "1990 ABN World Tennis Tournament",
        "col1": "B. Gilbert",
        "col2": "L. Lavalle",
        "col3": "B. Gilbert"
    },
    {
        "col0": "1989 Newsweek Champions Cup and the Virginia Slims of Indian Wells",
        "col1": "M. Mecir",
        "col2": "H. Mandlikova",
        "col3": "B. Becker"
    },
    {
        "col0": "1989 Lorraine Open",
        "col1": "G. Forget",
        "col2": "U. Riglewski",
        "col3": "G. Forget"
    },
    {
        "col0": "1989 Hall of Fame Tennis Championships and the Virginia Slims of Newport",
        "col1": "J. Pugh",
        "col2": "L. McNeil",
        "col3": "J. Pugh"
    },
    {
        "col0": "1988 Hall of Fame Tennis Championships and the Virginia Slims of Newport",
        "col1": "W. Masur",
        "col2": "P. Lundgren",
        "col3": "P. Lundgren"
    },
    {
        "col0": "1987 Benson & Hedges Championships",
        "col1": "I. Lendl",
        "col2": "T. Smid",
        "col3": "T. Smid"
    },
    {
        "col0": "1986 Grand Prix German Open",
        "col1": "H. Leconte",
        "col2": "S. Casal",
        "col3": "H. Leconte"
    },
    {
        "col0": "1986 Benson & Hedges Championships",
        "col1": "Y. Noah",
        "col2": "J. McEnroe",
        "col3": "J. McEnroe"
    },
    {
        "col0": "1985 Grand Prix German Open",
        "col1": "M. Mecir",
        "col2": "H. Gildemeister",
        "col3": "M. Mecir"
    },
    {
        "col0": "1985 Benson & Hedges Championships",
        "col1": "I. Lendl",
        "col2": "A. Jarryd",
        "col3": "I. Lendl"
    },
    {
        "col0": "1980 Stockholm Open",
        "col1": "B. Borg",
        "col2": "P. McNamee",
        "col3": "H. Mandlikova"
    },
    {
        "col0": "1979 ABN World Tennis Tournament",
        "col1": "B. Borg",
        "col2": "J. McEnroe",
        "col3": "J. McEnroe"
    },
    {
        "col0": "1978 German Open",
        "col1": "G. Vilas",
        "col2": "T. Okker",
        "col3": "G. Vilas"
    },
    {
        "col0": "1977 German Open",
        "col1": "P. Bertolucci",
        "col2": "K. Meiler",
        "col3": "K. Meiler"
    },
    {
        "col0": "1976 German Open",
        "col1": "E. Dibbs",
        "col2": "I. Kloss",
        "col3": "I. Kloss"
    },
    {
        "col0": "1975 Grand Prix German Open",
        "col1": "M. Orantes",
        "col2": "M. Orantes",
        "col3": "M. Orantes"
    },
    {
        "col0": "1975 American Airlines Tennis Games",
        "col1": "J. Alexander",
        "col2": "R. Ramirez",
        "col3": "W. Brown"
    },
    {
        "col0": "1974 German Open",
        "col1": "E. Dibbs",
        "col2": "H. Pohmann",
        "col3": "H. Masthoff"
    },
    {
        "col0": "1974 American Airlines Tennis Games",
        "col1": "J. Newcombe",
        "col2": "C. Pasarell",
        "col3": "C. Pasarell"
    },
    {
        "col0": "1972 Grand Prix German Open",
        "col1": "M. Orantes",
        "col2": "I. Nastase",
        "col3": "M. Orantes"
    },
    {
        "col0": "1971 Grand Prix German Open",
        "col1": "A. Gimeno",
        "col2": "A. Gimeno",
        "col3": "B. J. King"
    },
    {
        "col0": "1970 German Open Championships",
        "col1": "T. Okker",
        "col2": "K. Melville",
        "col3": "T. Okker"
    },
    {
        "col0": "1969 German Open Championships",
        "col1": "T. Roche",
        "col2": "T. Okker",
        "col3": "T. Okker"
    },
    {
        "col0": "1968 German Open Championships",
        "col1": "J. Newcombe",
        "col2": "P. Walkden",
        "col3": "F. McMillan"
    }
]