[
    {
        "col0": "S. I. Vasa",
        "col1": "Krakow",
        "col2": "Gripsholm Castle",
        "col3": "Polish-Lithuanian Commonwealth",
        "col4": "John III of Sweden",
        "col5": "1632-04-30"
    },
    {
        "col0": "S. Casimir",
        "col1": "Wawel Cathedral",
        "col2": "Krakow",
        "col3": "Nevers",
        "col4": "Cecilia Renata of Austria",
        "col5": "1647-08-09"
    },
    {
        "col0": "Sigismund, Holy Roman Emperor",
        "col1": "Oradea",
        "col2": "Kingdom of Germany",
        "col3": "Kingdom of Bohemia",
        "col4": "Charles IV, Holy Roman Emperor",
        "col5": "1437-12-09"
    },
    {
        "col0": "S. o. Saxony",
        "col1": "Ratzeburg",
        "col2": "Freiberg, Saxony",
        "col3": "Buxtehude",
        "col4": "Henry IV, Duke of Saxony",
        "col5": "1592-07-18"
    },
    {
        "col0": "S. o. Cleves",
        "col1": "St. Peter und Paul, Weimar",
        "col2": "Dusseldorf",
        "col3": "Weimar",
        "col4": "M. o. Julich-Berg",
        "col5": "1554-02-21"
    },
    {
        "col0": "S. Emperor",
        "col1": "Eastern Qing Tombs",
        "col2": "Shenyang",
        "col3": "Shuntian Prefecture",
        "col4": "H. Taiji",
        "col5": "1661-02-05"
    },
    {
        "col0": "S. Sawbu",
        "col1": "Sanchaung Township",
        "col2": "Pegu",
        "col3": "Dagon Township",
        "col4": "Razadarit",
        "col5": "1471-0-0"
    },
    {
        "col0": "S. Higashikuni",
        "col1": "Bunkyo, Tokyo",
        "col2": "Tokyo",
        "col3": "Bunkyo",
        "col4": "E. Kojun",
        "col5": "1961-07-23"
    },
    {
        "col0": "S. A. II",
        "col1": "Delhi",
        "col2": "Old Delhi",
        "col3": "Delhi",
        "col4": "A. II",
        "col5": "1806-11-19"
    },
    {
        "col0": "S. P. Chichibu",
        "col1": "Bunkyo, Tokyo",
        "col2": "England",
        "col3": "Japan",
        "col4": "M. Tsuneo",
        "col5": "1995-08-25"
    },
    {
        "col0": "S. Sultan",
        "col1": "France",
        "col2": "Constantinople",
        "col3": "France",
        "col4": "A. I",
        "col5": "1931-09-15"
    },
    {
        "col0": "S. o. Portugal",
        "col1": "Jeronimos Monastery",
        "col2": "Ribeira Palace",
        "col3": "Ksar-el-Kebir",
        "col4": "Joao Manuel, Prince of Portugal",
        "col5": "1578-08-04"
    },
    {
        "col0": "S. N. Utama",
        "col1": "Fort Canning Hill",
        "col2": "Dutch East Indies",
        "col3": "Kingdom of Singapura",
        "col4": "S. Sapurba",
        "col5": "1347-0-0"
    },
    {
        "col0": "S. o. Majorca",
        "col1": "Cathedral of Perpignan",
        "col2": "Montpellier",
        "col3": "Formigueres",
        "col4": "James II of Majorca",
        "col5": "1324-09-04"
    },
    {
        "col0": "Sancho I of Portugal",
        "col1": "Coimbra",
        "col2": "Kingdom of Portugal",
        "col3": "Kingdom of Portugal",
        "col4": "Afonso I of Portugal",
        "col5": "1211-03-26"
    },
    {
        "col0": "Sancho II of Portugal",
        "col1": "Spain",
        "col2": "Kingdom of Portugal",
        "col3": "Toledo, Spain",
        "col4": "Urraca of Castile, Queen of Portugal",
        "col5": "1248-01-04"
    },
    {
        "col0": "S. o. Provence",
        "col1": "Gloucestershire",
        "col2": "Aix-en-Provence",
        "col3": "Hertfordshire",
        "col4": "Ramon Berenguer IV, Count of Provence",
        "col5": "1261-11-09"
    },
    {
        "col0": "S. o. Portugal",
        "col1": "Alcobaca",
        "col2": "Kingdom of Portugal",
        "col3": "Crown of Castile",
        "col4": "B. o. Castile",
        "col5": "1302-0-0"
    },
    {
        "col0": "S. o. Selangor",
        "col1": "Sultan Sulaiman Mosque",
        "col2": "British Malaya",
        "col3": "Kuala Lumpur",
        "col4": "H. o. Selangor",
        "col5": "2001-11-21"
    },
    {
        "col0": "Saint Margaret of Scotland",
        "col1": "Dunfermline Abbey",
        "col2": "Kingdom of Hungary",
        "col3": "Kingdom of Scotland",
        "col4": "Agatha, wife of Edward the Exile",
        "col5": "1093-11-16"
    },
    {
        "col0": "S. b. Taimur",
        "col1": "England",
        "col2": "Muscat, Oman",
        "col3": "London",
        "col4": "T. b. Feisal",
        "col5": "1972-10-19"
    },
    {
        "col0": "S. T. III",
        "col1": "Mala'ekula",
        "col2": "Tonga",
        "col3": "Auckland",
        "col4": "G. T. II",
        "col5": "1965-12-16"
    },
    {
        "col0": "R. S. Begum",
        "col1": "Kabul",
        "col2": "Kabul",
        "col3": "India",
        "col4": "H. Mirza",
        "col5": "1626-01-19"
    },
    {
        "col0": "Rupprecht, Crown Prince of Bavaria",
        "col1": "Theatine Church, Munich",
        "col2": "Kingdom of Bavaria",
        "col3": "Bavaria",
        "col4": "Maria Theresa of Austria-Este",
        "col5": "1955-08-02"
    },
    {
        "col0": "R. S. Sultan",
        "col1": "Asiyan Asri Cemetery",
        "col2": "Ortakoy",
        "col3": "Constantinople",
        "col4": "M. VI",
        "col5": "1971-08-26"
    },
    {
        "col0": "Rudolf I of Germany",
        "col1": "Speyer Cathedral",
        "col2": "Sasbach am Kaiserstuhl",
        "col3": "Speyer",
        "col4": "Albert IV, Count of Habsburg",
        "col5": "1291-07-15"
    },
    {
        "col0": "Rudolf II, Holy Roman Emperor",
        "col1": "Prague",
        "col2": "Vienna",
        "col3": "Kingdom of Bohemia",
        "col4": "Maximilian II, Holy Roman Emperor",
        "col5": "1612-01-20"
    },
    {
        "col0": "R. o. Kartli",
        "col1": "Iran",
        "col2": "Isfahan",
        "col3": "Qom",
        "col4": "David XI of Kartli",
        "col5": "1658-11-17"
    },
    {
        "col0": "R. Begum",
        "col1": "Roshanara Bagh",
        "col2": "Burhanpur",
        "col3": "Delhi",
        "col4": "M. Mahal",
        "col5": "1671-09-11"
    },
    {
        "col0": "Rory O'Donnell, 1st earl of Tyrconnell",
        "col1": "San Pietro in Montorio",
        "col2": "Republic of Ireland",
        "col3": "Italy",
        "col4": "I. Dubh",
        "col5": "1608-07-30"
    },
    {
        "col0": "R. t. Bruce",
        "col1": "Dunfermline Abbey",
        "col2": "Ayrshire",
        "col3": "Argyll",
        "col4": "Marjorie, Countess of Carrick",
        "col5": "1329-06-07"
    },
    {
        "col0": "Robert Stuart, Duke of Kintyre and Lorne",
        "col1": "Scotland",
        "col2": "Fife",
        "col3": "Scotland",
        "col4": "James I of England",
        "col5": "1602-05-27"
    },
    {
        "col0": "Robert II of Scotland",
        "col1": "Scone Abbey",
        "col2": "Paisley Abbey",
        "col3": "Ayrshire",
        "col4": "Walter Stewart, 6th High Steward of Scotland",
        "col5": "1390-04-19"
    },
    {
        "col0": "Robert II of France",
        "col1": "Saint Denis Basilica",
        "col2": "Orleans",
        "col3": "Melun",
        "col4": "Hugh Capet of France",
        "col5": "1031-07-20"
    },
    {
        "col0": "Robert III of Scotland",
        "col1": "Paisley Abbey",
        "col2": "Perth, Scotland",
        "col3": "Rothesay Castle",
        "col4": "Robert II of Scotland",
        "col5": "1406-04-04"
    },
    {
        "col0": "R. Curthose",
        "col1": "Gloucester Cathedral",
        "col2": "Kingdom of France",
        "col3": "Cardiff Castle",
        "col4": "M. o. Flanders",
        "col5": "1134-02-03"
    },
    {
        "col0": "R. o. Normandy",
        "col1": "Winchester Cathedral",
        "col2": "France",
        "col3": "New Forest",
        "col4": "W. t. Conqueror",
        "col5": "1081-0-0"
    },
    {
        "col0": "Richard I of England",
        "col1": "Fontevraud Abbey",
        "col2": "Kingdom of England",
        "col3": "Duchy of Aquitaine",
        "col4": "E. o. Aquitaine",
        "col5": "1199-04-06"
    },
    {
        "col0": "Richard II of England",
        "col1": "London",
        "col2": "Duchy of Aquitaine",
        "col3": "Yorkshire",
        "col4": "Edward, the Black Prince",
        "col5": "1400-02-14"
    },
    {
        "col0": "Richard, 1st Earl of Cornwall",
        "col1": "Hailes Abbey",
        "col2": "Winchester",
        "col3": "Berkhamsted",
        "col4": "I. o. Angouleme",
        "col5": "1272-04-02"
    },
    {
        "col0": "R. Sultan",
        "col1": "Yahya Efendi",
        "col2": "Constantinople",
        "col3": "Constantinople",
        "col4": "S. t. Magnificent",
        "col5": "1570-0-0"
    },
    {
        "col0": "Ranuccio II Farnese, Duke of Parma",
        "col1": "Parma",
        "col2": "Parma",
        "col3": "Parma",
        "col4": "O. Farnese",
        "col5": "1694-12-11"
    },
    {
        "col0": "Ralambo",
        "col1": "Twelve sacred hills of Imerina",
        "col2": "Twelve sacred hills of Imerina",
        "col3": "Twelve sacred hills of Imerina",
        "col4": "Andriamanelo",
        "col5": "1612-0-0"
    },
    {
        "col0": "R. A. Shah",
        "col1": "Makam Al-Ghufran",
        "col2": "Penang",
        "col3": "Bukit Damansara",
        "col4": "Azlan Shah of Perak",
        "col5": "2012-03-30"
    }
]