[
    {
        "col0": "Ukrainian Catholic Eparchy of Sambir-Drohobych",
        "col1": "Ukrainian Catholic Archeparchy of Lviv",
        "col2": "Ukrainian Catholic Archeparchy of Lviv",
        "col3": "Ukrainian Catholic Archeparchy of Lviv",
        "col4": "Ukrainian Catholic Archeparchy of Lviv",
        "col5": "6900000000",
        "col6": "6900000000"
    },
    {
        "col0": "Ukrainian Catholic Eparchy of Kolomyia - Chernivtsi",
        "col1": "Ukrainian Catholic Archeparchy of Ivano-Frankivsk",
        "col2": "Ukrainian Catholic Archeparchy of Ivano-Frankivsk",
        "col3": "Ukrainian Catholic Archeparchy of Ivano-Frankivsk",
        "col4": "Ukrainian Catholic Archeparchy of Ivano-Frankivsk",
        "col5": "14095000000",
        "col6": "14095000000"
    },
    {
        "col0": "Ukrainian Catholic Eparchy of Kamyanets-Podilskyi",
        "col1": "Ukrainian Catholic Archeparchy of Ternopil-Zboriv",
        "col2": "Ukrainian Catholic Archeparchy of Ternopil-Zboriv",
        "col3": "Ukrainian Catholic Archeparchy of Ternopil-Zboriv",
        "col4": "Ukrainian Catholic Archeparchy of Ternopil-Zboriv",
        "col5": "20645000000",
        "col6": "20645000000"
    },
    {
        "col0": "Territorial Prelature of Sao Felix do Araguaia",
        "col1": "Roman Catholic Archdiocese of Cuiaba",
        "col2": "Roman Catholic Archdiocese of Cuiaba",
        "col3": "Roman Catholic Archdiocese of Cuiaba",
        "col4": "Roman Catholic Archdiocese of Cuiaba",
        "col5": "150000000000",
        "col6": "150000000000"
    },
    {
        "col0": "Territorial Prelature of Jesus Maria del Nayar",
        "col1": "Roman Catholic Archdiocese of Guadalajara",
        "col2": "Roman Catholic Archdiocese of Guadalajara",
        "col3": "Roman Catholic Archdiocese of Guadalajara",
        "col4": "Roman Catholic Archdiocese of Guadalajara",
        "col5": "25008925193",
        "col6": "25008925193"
    },
    {
        "col0": "Territorial Prelature of Cancun-Chetumal",
        "col1": "Roman Catholic Archdiocese of Yucatan",
        "col2": "Roman Catholic Archdiocese of Yucatan",
        "col3": "Roman Catholic Archdiocese of Yucatan",
        "col4": "Roman Catholic Archdiocese of Yucatan",
        "col5": "50862186510",
        "col6": "50862186510"
    },
    {
        "col0": "Territorial Abbey of Montevergine",
        "col1": "Roman Catholic Archdiocese of Benevento",
        "col2": "Roman Catholic Archdiocese of Benevento",
        "col3": "Roman Catholic Archdiocese of Benevento",
        "col4": "Roman Catholic Archdiocese of Benevento",
        "col5": "48000000",
        "col6": "48000000"
    },
    {
        "col0": "Syro-Malankara Catholic Eparchy of Puthur",
        "col1": "Syro-Malankara Archdiocese of Tiruvalla",
        "col2": "Syro-Malankara Archdiocese of Tiruvalla",
        "col3": "Syro-Malankara Archdiocese of Tiruvalla",
        "col4": "Syro-Malankara Archdiocese of Tiruvalla",
        "col5": "51950000000",
        "col6": "51950000000"
    },
    {
        "col0": "Syro-Malankara Catholic Eparchy of Pathanamthitta",
        "col1": "Pathanamthitta",
        "col2": "Pathanamthitta",
        "col3": "Pathanamthitta",
        "col4": "Pathanamthitta",
        "col5": "2100000000",
        "col6": "2100000000"
    },
    {
        "col0": "Syro-Malankara Catholic Eparchy of Marthandom",
        "col1": "Syro-Malankara Catholic Major Archeparchy of Trivandrum",
        "col2": "Syro-Malankara Catholic Major Archeparchy of Trivandrum",
        "col3": "Syro-Malankara Catholic Major Archeparchy of Trivandrum",
        "col4": "Syro-Malankara Catholic Major Archeparchy of Trivandrum",
        "col5": "1664000000",
        "col6": "1664000000"
    },
    {
        "col0": "Syro-Malabar Eparchy of Palai",
        "col1": "Syro-Malabar Catholic Archeparchy of Changanassery",
        "col2": "Syro-Malabar Catholic Archeparchy of Changanassery",
        "col3": "Syro-Malabar Catholic Archeparchy of Changanassery",
        "col4": "Syro-Malabar Catholic Archeparchy of Changanassery",
        "col5": "2017000000",
        "col6": "2017000000"
    },
    {
        "col0": "Syro-Malabar Catholic Eparchy of Ujjain",
        "col1": "Roman Catholic Archdiocese of Bhopal",
        "col2": "Roman Catholic Archdiocese of Bhopal",
        "col3": "Roman Catholic Archdiocese of Bhopal",
        "col4": "Roman Catholic Archdiocese of Bhopal",
        "col5": "18225000000",
        "col6": "18225000000"
    },
    {
        "col0": "Syro-Malabar Catholic Eparchy of Thuckalay",
        "col1": "Syro-Malabar Catholic Archeparchy of Changanassery",
        "col2": "Syro-Malabar Catholic Archeparchy of Changanassery",
        "col3": "Syro-Malabar Catholic Archeparchy of Changanassery",
        "col4": "Syro-Malabar Catholic Archeparchy of Changanassery",
        "col5": "1794000000",
        "col6": "1794000000"
    },
    {
        "col0": "Syro-Malabar Catholic Eparchy of Satna",
        "col1": "Roman Catholic Archdiocese of Bhopal",
        "col2": "Roman Catholic Archdiocese of Bhopal",
        "col3": "Roman Catholic Archdiocese of Bhopal",
        "col4": "Roman Catholic Archdiocese of Bhopal",
        "col5": "45188000000",
        "col6": "45188000000"
    },
    {
        "col0": "Syro-Malabar Catholic Eparchy of Sagar",
        "col1": "Roman Catholic Archdiocese of Bhopal",
        "col2": "Roman Catholic Archdiocese of Bhopal",
        "col3": "Roman Catholic Archdiocese of Bhopal",
        "col4": "Roman Catholic Archdiocese of Bhopal",
        "col5": "39020000000",
        "col6": "39020000000"
    },
    {
        "col0": "Syro-Malabar Catholic Eparchy of Rajkot",
        "col1": "Roman Catholic Archdiocese of Gandhinagar",
        "col2": "Roman Catholic Archdiocese of Gandhinagar",
        "col3": "Roman Catholic Archdiocese of Gandhinagar",
        "col4": "Roman Catholic Archdiocese of Gandhinagar",
        "col5": "109950000000",
        "col6": "109950000000"
    },
    {
        "col0": "Syro-Malabar Catholic Eparchy of Kothamangalam",
        "col1": "Syro-Malabar Catholic Archdiocese of Ernakulam-Angamaly",
        "col2": "Syro-Malabar Catholic Archdiocese of Ernakulam-Angamaly",
        "col3": "Syro-Malabar Catholic Archdiocese of Ernakulam-Angamaly",
        "col4": "Syro-Malabar Catholic Archdiocese of Ernakulam-Angamaly",
        "col5": "4840000000",
        "col6": "4840000000"
    },
    {
        "col0": "Syro-Malabar Catholic Eparchy of Kanjirappally",
        "col1": "Syro-Malabar Catholic Archeparchy of Changanassery",
        "col2": "Syro-Malabar Catholic Archeparchy of Changanassery",
        "col3": "Syro-Malabar Catholic Archeparchy of Changanassery",
        "col4": "Syro-Malabar Catholic Archeparchy of Changanassery",
        "col5": "2017000000",
        "col6": "2017000000"
    },
    {
        "col0": "Syro-Malabar Catholic Eparchy of Jagdalpur",
        "col1": "Roman Catholic Archdiocese of Raipur",
        "col2": "Roman Catholic Archdiocese of Raipur",
        "col3": "Roman Catholic Archdiocese of Raipur",
        "col4": "Roman Catholic Archdiocese of Raipur",
        "col5": "39176000000",
        "col6": "39176000000"
    },
    {
        "col0": "Syro-Malabar Catholic Eparchy of Idukki",
        "col1": "Syro-Malabar Catholic Archdiocese of Ernakulam-Angamaly",
        "col2": "Syro-Malabar Catholic Archdiocese of Ernakulam-Angamaly",
        "col3": "Syro-Malabar Catholic Archdiocese of Ernakulam-Angamaly",
        "col4": "Syro-Malabar Catholic Archdiocese of Ernakulam-Angamaly",
        "col5": "3000000000",
        "col6": "3000000000"
    },
    {
        "col0": "Syro-Malabar Catholic Eparchy of Gorakhpur",
        "col1": "Roman Catholic Archdiocese of Agra",
        "col2": "Roman Catholic Archdiocese of Agra",
        "col3": "Roman Catholic Archdiocese of Agra",
        "col4": "Roman Catholic Archdiocese of Agra",
        "col5": "19070000000",
        "col6": "19070000000"
    },
    {
        "col0": "Syro-Malabar Catholic Eparchy of Chanda",
        "col1": "Roman Catholic Archdiocese of Nagpur",
        "col2": "Roman Catholic Archdiocese of Nagpur",
        "col3": "Roman Catholic Archdiocese of Nagpur",
        "col4": "Roman Catholic Archdiocese of Nagpur",
        "col5": "32233000000",
        "col6": "32233000000"
    },
    {
        "col0": "Syro-Malabar Catholic Eparchy of Bijnor",
        "col1": "Roman Catholic Archdiocese of Agra",
        "col2": "Roman Catholic Archdiocese of Agra",
        "col3": "Roman Catholic Archdiocese of Agra",
        "col4": "Roman Catholic Archdiocese of Agra",
        "col5": "30664000000",
        "col6": "30664000000"
    },
    {
        "col0": "Syro-Malabar Catholic Eparchy of Bhadravathi",
        "col1": "Syro-Malabar Catholic Archeparchy of Tellicherry",
        "col2": "Syro-Malabar Catholic Archeparchy of Tellicherry",
        "col3": "Syro-Malabar Catholic Archeparchy of Tellicherry",
        "col4": "Syro-Malabar Catholic Archeparchy of Tellicherry",
        "col5": "8465000000",
        "col6": "8465000000"
    },
    {
        "col0": "Syro-Malabar Catholic Eparchy of Belthangady",
        "col1": "Syro-Malabar Catholic Archeparchy of Tellicherry",
        "col2": "Syro-Malabar Catholic Archeparchy of Tellicherry",
        "col3": "Syro-Malabar Catholic Archeparchy of Tellicherry",
        "col4": "Syro-Malabar Catholic Archeparchy of Tellicherry",
        "col5": "12543000000",
        "col6": "12543000000"
    },
    {
        "col0": "Syro-Malabar Catholic Eparchy of Adilabad",
        "col1": "Roman Catholic Archdiocese of Hyderabad",
        "col2": "Roman Catholic Archdiocese of Hyderabad",
        "col3": "Roman Catholic Archdiocese of Hyderabad",
        "col4": "Roman Catholic Archdiocese of Hyderabad",
        "col5": "16210000000",
        "col6": "16210000000"
    },
    {
        "col0": "Syro-Malabar Catholic Archeparchy of Changanassery",
        "col1": "Changanassery",
        "col2": "Changanassery",
        "col3": "Changanassery",
        "col4": "Changanassery",
        "col5": "24595000000",
        "col6": "24595000000"
    },
    {
        "col0": "Suburbicarian Diocese of Porto e Santa Rufina",
        "col1": "Diocese of Rome",
        "col2": "Diocese of Rome",
        "col3": "Diocese of Rome",
        "col4": "Diocese of Rome",
        "col5": "2000000000",
        "col6": "2000000000"
    },
    {
        "col0": "Romanian Catholic Eparchy of Lugoj",
        "col1": "Greek Catholic Archdiocese of Fagaras and Alba Iulia",
        "col2": "Greek Catholic Archdiocese of Fagaras and Alba Iulia",
        "col3": "Greek Catholic Archdiocese of Fagaras and Alba Iulia",
        "col4": "Greek Catholic Archdiocese of Fagaras and Alba Iulia",
        "col5": "32710000000",
        "col6": "32710000000"
    },
    {
        "col0": "Roman Catholicism in Saint Helena",
        "col1": "Holy See",
        "col2": "Holy See",
        "col3": "Holy See",
        "col4": "Holy See",
        "col5": "308000000",
        "col6": "308000000"
    },
    {
        "col0": "Roman Catholic Territorial Prelature of Yauyos",
        "col1": "Roman Catholic Archdiocese of Lima",
        "col2": "Roman Catholic Archdiocese of Lima",
        "col3": "Roman Catholic Archdiocese of Lima",
        "col4": "Roman Catholic Archdiocese of Lima",
        "col5": "15516000000",
        "col6": "15516000000"
    },
    {
        "col0": "Roman Catholic Territorial Prelature of Xingu",
        "col1": "Roman Catholic Archdiocese of Belem do Para",
        "col2": "Roman Catholic Archdiocese of Belem do Para",
        "col3": "Roman Catholic Archdiocese of Belem do Para",
        "col4": "Roman Catholic Archdiocese of Belem do Para",
        "col5": "368092000000",
        "col6": "368092000000"
    },
    {
        "col0": "Roman Catholic Territorial Prelature of Tefe",
        "col1": "Roman Catholic Archdiocese of Manaus",
        "col2": "Roman Catholic Archdiocese of Manaus",
        "col3": "Roman Catholic Archdiocese of Manaus",
        "col4": "Roman Catholic Archdiocese of Manaus",
        "col5": "263835000000",
        "col6": "263835000000"
    },
    {
        "col0": "Roman Catholic Territorial Prelature of Schneidemuhl",
        "col1": "Eastern German Ecclesiastical Province",
        "col2": "Eastern German Ecclesiastical Province",
        "col3": "Eastern German Ecclesiastical Province",
        "col4": "Eastern German Ecclesiastical Province",
        "col5": "9601000000",
        "col6": "9601000000"
    },
    {
        "col0": "Roman Catholic Territorial Prelature of Marawi",
        "col1": "Roman Catholic Archdiocese of Ozamiz",
        "col2": "Roman Catholic Archdiocese of Ozamiz",
        "col3": "Roman Catholic Archdiocese of Ozamiz",
        "col4": "Roman Catholic Archdiocese of Ozamiz",
        "col5": "4587000000",
        "col6": "4587000000"
    },
    {
        "col0": "Roman Catholic Territorial Prelature of Marajo",
        "col1": "Roman Catholic Archdiocese of Belem do Para",
        "col2": "Roman Catholic Archdiocese of Belem do Para",
        "col3": "Roman Catholic Archdiocese of Belem do Para",
        "col4": "Roman Catholic Archdiocese of Belem do Para",
        "col5": "105000000000",
        "col6": "105000000000"
    },
    {
        "col0": "Roman Catholic Territorial Prelature of Labrea",
        "col1": "Roman Catholic Archdiocese of Porto Velho",
        "col2": "Roman Catholic Archdiocese of Porto Velho",
        "col3": "Roman Catholic Archdiocese of Porto Velho",
        "col4": "Roman Catholic Archdiocese of Porto Velho",
        "col5": "230240000000",
        "col6": "230240000000"
    },
    {
        "col0": "Roman Catholic Territorial Prelature of Loreto",
        "col1": "Roman Catholic Archdiocese of Ancona-Osimo",
        "col2": "Roman Catholic Archdiocese of Ancona-Osimo",
        "col3": "Roman Catholic Archdiocese of Ancona-Osimo",
        "col4": "Roman Catholic Archdiocese of Ancona-Osimo",
        "col5": "17000000",
        "col6": "17000000"
    },
    {
        "col0": "Roman Catholic Territorial Prelature of Labrea",
        "col1": "Roman Catholic Archdiocese of Porto Velho",
        "col2": "Roman Catholic Archdiocese of Porto Velho",
        "col3": "Roman Catholic Archdiocese of Porto Velho",
        "col4": "Roman Catholic Archdiocese of Porto Velho",
        "col5": "230240000000",
        "col6": "230240000000"
    },
    {
        "col0": "Roman Catholic Territorial Prelature of Itaituba",
        "col1": "Roman Catholic Archdiocese of Belem do Para",
        "col2": "Roman Catholic Archdiocese of Belem do Para",
        "col3": "Roman Catholic Archdiocese of Belem do Para",
        "col4": "Roman Catholic Archdiocese of Belem do Para",
        "col5": "175000000000",
        "col6": "175000000000"
    },
    {
        "col0": "Roman Catholic Territorial Prelature of Itacoatiara",
        "col1": "Roman Catholic Archdiocese of Manaus",
        "col2": "Roman Catholic Archdiocese of Manaus",
        "col3": "Roman Catholic Archdiocese of Manaus",
        "col4": "Roman Catholic Archdiocese of Manaus",
        "col5": "83012000000",
        "col6": "83012000000"
    },
    {
        "col0": "Roman Catholic Territorial Prelature of Infanta",
        "col1": "Roman Catholic Archdiocese of Lipa",
        "col2": "Roman Catholic Archdiocese of Lipa",
        "col3": "Roman Catholic Archdiocese of Lipa",
        "col4": "Roman Catholic Archdiocese of Lipa",
        "col5": "7189000000",
        "col6": "7189000000"
    },
    {
        "col0": "Roman Catholic Territorial Prelature of Illapel",
        "col1": "Roman Catholic Archdiocese of La Serena",
        "col2": "Roman Catholic Archdiocese of La Serena",
        "col3": "Roman Catholic Archdiocese of La Serena",
        "col4": "Roman Catholic Archdiocese of La Serena",
        "col5": "10350000000",
        "col6": "10350000000"
    },
    {
        "col0": "Roman Catholic Territorial Prelature of Humahuaca",
        "col1": "Roman Catholic Archdiocese of Salta",
        "col2": "Roman Catholic Archdiocese of Salta",
        "col3": "Roman Catholic Archdiocese of Salta",
        "col4": "Roman Catholic Archdiocese of Salta",
        "col5": "34000000000",
        "col6": "34000000000"
    },
    {
        "col0": "Roman Catholic Territorial Prelature of Esquel",
        "col1": "Roman Catholic Archdiocese of Bahia Blanca",
        "col2": "Roman Catholic Archdiocese of Bahia Blanca",
        "col3": "Roman Catholic Archdiocese of Bahia Blanca",
        "col4": "Roman Catholic Archdiocese of Bahia Blanca",
        "col5": "78074000000",
        "col6": "78074000000"
    },
    {
        "col0": "Roman Catholic Territorial Prelature of El Salto",
        "col1": "Roman Catholic Archdiocese of Durango",
        "col2": "Roman Catholic Archdiocese of Durango",
        "col3": "Roman Catholic Archdiocese of Durango",
        "col4": "Roman Catholic Archdiocese of Durango",
        "col5": "36013784674",
        "col6": "36013784674"
    },
    {
        "col0": "Roman Catholic Territorial Prelature of Dean Funes",
        "col1": "Roman Catholic Archdiocese of Cordoba",
        "col2": "Roman Catholic Archdiocese of Cordoba",
        "col3": "Roman Catholic Archdiocese of Cordoba",
        "col4": "Roman Catholic Archdiocese of Cordoba",
        "col5": "28700000000",
        "col6": "28700000000"
    },
    {
        "col0": "Roman Catholic Territorial Prelature of Cristalandia",
        "col1": "Roman Catholic Archdiocese of Palmas",
        "col2": "Roman Catholic Archdiocese of Palmas",
        "col3": "Roman Catholic Archdiocese of Palmas",
        "col4": "Roman Catholic Archdiocese of Palmas",
        "col5": "66365000000",
        "col6": "66365000000"
    },
    {
        "col0": "Roman Catholic Territorial Prelature of Corocoro",
        "col1": "Roman Catholic Archdiocese of La Paz",
        "col2": "Roman Catholic Archdiocese of La Paz",
        "col3": "Roman Catholic Archdiocese of La Paz",
        "col4": "Roman Catholic Archdiocese of La Paz",
        "col5": "28823000000",
        "col6": "28823000000"
    },
    {
        "col0": "Roman Catholic Territorial Prelature of Caraveli",
        "col1": "Roman Catholic Archdiocese of Ayacucho",
        "col2": "Roman Catholic Archdiocese of Ayacucho",
        "col3": "Roman Catholic Archdiocese of Ayacucho",
        "col4": "Roman Catholic Archdiocese of Ayacucho",
        "col5": "29229000000",
        "col6": "29229000000"
    },
    {
        "col0": "Roman Catholic Territorial Prelature of Cafayate",
        "col1": "Roman Catholic Archdiocese of Salta",
        "col2": "Roman Catholic Archdiocese of Salta",
        "col3": "Roman Catholic Archdiocese of Salta",
        "col4": "Roman Catholic Archdiocese of Salta",
        "col5": "40000000000",
        "col6": "40000000000"
    },
    {
        "col0": "Roman Catholic Territorial Prelature of Borba",
        "col1": "Roman Catholic Archdiocese of Manaus",
        "col2": "Roman Catholic Archdiocese of Manaus",
        "col3": "Roman Catholic Archdiocese of Manaus",
        "col4": "Roman Catholic Archdiocese of Manaus",
        "col5": "170000000000",
        "col6": "170000000000"
    },
    {
        "col0": "Roman Catholic Territorial Prelature of Bocas del Toro",
        "col1": "Roman Catholic Archdiocese of Panama",
        "col2": "Roman Catholic Archdiocese of Panama",
        "col3": "Roman Catholic Archdiocese of Panama",
        "col4": "Roman Catholic Archdiocese of Panama",
        "col5": "16671000000",
        "col6": "16671000000"
    },
    {
        "col0": "Roman Catholic Territorial Prelature of Batanes",
        "col1": "Roman Catholic Archdiocese of Tuguegarao",
        "col2": "Roman Catholic Archdiocese of Tuguegarao",
        "col3": "Roman Catholic Archdiocese of Tuguegarao",
        "col4": "Roman Catholic Archdiocese of Tuguegarao",
        "col5": "784000000",
        "col6": "784000000"
    },
    {
        "col0": "Roman Catholic Territorial Prelature of Ayaviri",
        "col1": "Roman Catholic Diocese of Puno",
        "col2": "Roman Catholic Diocese of Puno",
        "col3": "Roman Catholic Diocese of Puno",
        "col4": "Roman Catholic Diocese of Puno",
        "col5": "32083000000",
        "col6": "32083000000"
    },
    {
        "col0": "Roman Catholic Territorial Prelature of Aiquile",
        "col1": "Roman Catholic Archdiocese of Cochabamba",
        "col2": "Roman Catholic Archdiocese of Cochabamba",
        "col3": "Roman Catholic Archdiocese of Cochabamba",
        "col4": "Roman Catholic Archdiocese of Cochabamba",
        "col5": "23325000000",
        "col6": "23325000000"
    },
    {
        "col0": "Roman Catholic Suburbicarian Diocese of Sabina-Poggio Mirteto",
        "col1": "Diocese of Rome",
        "col2": "Diocese of Rome",
        "col3": "Diocese of Rome",
        "col4": "Diocese of Rome",
        "col5": "918000000",
        "col6": "918000000"
    },
    {
        "col0": "Roman Catholic Suburbicarian Diocese of Palestrina",
        "col1": "Diocese of Rome",
        "col2": "Diocese of Rome",
        "col3": "Diocese of Rome",
        "col4": "Diocese of Rome",
        "col5": "380000000",
        "col6": "380000000"
    },
    {
        "col0": "Roman Catholic Suburbicarian Diocese of Frascati",
        "col1": "Diocese of Rome",
        "col2": "Diocese of Rome",
        "col3": "Diocese of Rome",
        "col4": "Diocese of Rome",
        "col5": "168000000",
        "col6": "168000000"
    },
    {
        "col0": "Roman Catholic Suburbicarian Diocese of Albano",
        "col1": "Diocese of Rome",
        "col2": "Diocese of Rome",
        "col3": "Diocese of Rome",
        "col4": "Diocese of Rome",
        "col5": "661000000",
        "col6": "661000000"
    },
    {
        "col0": "Roman Catholic Diocese of A ibenik",
        "col1": "Roman Catholic Archdiocese of Split-Makarska",
        "col2": "Roman Catholic Archdiocese of Split-Makarska",
        "col3": "Roman Catholic Archdiocese of Split-Makarska",
        "col4": "Roman Catholic Archdiocese of Split-Makarska",
        "col5": "3246000000",
        "col6": "3246000000"
    },
    {
        "col0": "Roman Catholic Diocese of A iauliai",
        "col1": "Roman Catholic Archdiocese of Kaunas",
        "col2": "Roman Catholic Archdiocese of Kaunas",
        "col3": "Roman Catholic Archdiocese of Kaunas",
        "col4": "Roman Catholic Archdiocese of Kaunas",
        "col5": "7696000000",
        "col6": "7696000000"
    },
    {
        "col0": "Roman Catholic Diocese of Swidnica",
        "col1": "Roman Catholic Archdiocese of Wroclaw",
        "col2": "Roman Catholic Archdiocese of Wroclaw",
        "col3": "Roman Catholic Archdiocese of Wroclaw",
        "col4": "Roman Catholic Archdiocese of Wroclaw",
        "col5": "4500000000",
        "col6": "4500000000"
    },
    {
        "col0": "Roman Catholic Diocese of Lowicz",
        "col1": "Roman Catholic Archdiocese of Lodz",
        "col2": "Roman Catholic Archdiocese of Lodz",
        "col3": "Roman Catholic Archdiocese of Lodz",
        "col4": "Roman Catholic Archdiocese of Lodz",
        "col5": "5806000000",
        "col6": "5806000000"
    },
    {
        "col0": "Roman Catholic Diocese of Da Nang",
        "col1": "Roman Catholic Archdiocese of Hue",
        "col2": "Roman Catholic Archdiocese of Hue",
        "col3": "Roman Catholic Archdiocese of Hue",
        "col4": "Roman Catholic Archdiocese of Hue",
        "col5": "11690000000",
        "col6": "11690000000"
    },
    {
        "col0": "Roman Catholic Diocese of Da Lat",
        "col1": "Roman Catholic Archdiocese of Ho Chi Minh city",
        "col2": "Roman Catholic Archdiocese of Ho Chi Minh city",
        "col3": "Roman Catholic Archdiocese of Ho Chi Minh city",
        "col4": "Roman Catholic Archdiocese of Ho Chi Minh city",
        "col5": "9764000000",
        "col6": "9764000000"
    },
    {
        "col0": "Roman Catholic Diocese of Ceske Budejovice",
        "col1": "Roman Catholic Archdiocese of Prague",
        "col2": "Roman Catholic Archdiocese of Prague",
        "col3": "Roman Catholic Archdiocese of Prague",
        "col4": "Roman Catholic Archdiocese of Prague",
        "col5": "12500000000",
        "col6": "12500000000"
    },
    {
        "col0": "Roman Catholic Diocese of Obidos",
        "col1": "Roman Catholic Archdiocese of Belem do Para",
        "col2": "Roman Catholic Archdiocese of Belem do Para",
        "col3": "Roman Catholic Archdiocese of Belem do Para",
        "col4": "Roman Catholic Archdiocese of Belem do Para",
        "col5": "182960000000",
        "col6": "182960000000"
    },
    {
        "col0": "Roman Catholic Diocese of Evry-Corbeil-Essonnes",
        "col1": "Roman Catholic Archdiocese of Paris",
        "col2": "Roman Catholic Archdiocese of Paris",
        "col3": "Roman Catholic Archdiocese of Paris",
        "col4": "Roman Catholic Archdiocese of Paris",
        "col5": "1819000000",
        "col6": "1819000000"
    },
    {
        "col0": "Roman Catholic Diocese of Evreux",
        "col1": "Roman Catholic Archdiocese of Rouen",
        "col2": "Roman Catholic Archdiocese of Rouen",
        "col3": "Roman Catholic Archdiocese of Rouen",
        "col4": "Roman Catholic Archdiocese of Rouen",
        "col5": "6040000000",
        "col6": "6040000000"
    },
    {
        "col0": "Roman Catholic Diocese of Avila",
        "col1": "Roman Catholic Archdiocese of Valladolid",
        "col2": "Roman Catholic Archdiocese of Valladolid",
        "col3": "Roman Catholic Archdiocese of Valladolid",
        "col4": "Roman Catholic Archdiocese of Valladolid",
        "col5": "8048000000",
        "col6": "8048000000"
    },
    {
        "col0": "Roman Catholic Diocese of Ze Doca",
        "col1": "Roman Catholic Archdiocese of Sao Luis do Maranhao",
        "col2": "Roman Catholic Archdiocese of Sao Luis do Maranhao",
        "col3": "Roman Catholic Archdiocese of Sao Luis do Maranhao",
        "col4": "Roman Catholic Archdiocese of Sao Luis do Maranhao",
        "col5": "40000000000",
        "col6": "40000000000"
    },
    {
        "col0": "Roman Catholic Diocese of Zarate-Campana",
        "col1": "Roman Catholic Archdiocese of La Plata in Argentina",
        "col2": "Roman Catholic Archdiocese of La Plata in Argentina",
        "col3": "Roman Catholic Archdiocese of La Plata in Argentina",
        "col4": "Roman Catholic Archdiocese of La Plata in Argentina",
        "col5": "5903000000",
        "col6": "5903000000"
    },
    {
        "col0": "Roman Catholic Diocese of Zrenjanin",
        "col1": "Roman Catholic Archdiocese of Belgrade",
        "col2": "Roman Catholic Archdiocese of Belgrade",
        "col3": "Roman Catholic Archdiocese of Belgrade",
        "col4": "Roman Catholic Archdiocese of Belgrade",
        "col5": "9387000000",
        "col6": "9387000000"
    },
    {
        "col0": "Roman Catholic Diocese of Zipaquira",
        "col1": "Roman Catholic Archdiocese of Bogota",
        "col2": "Roman Catholic Archdiocese of Bogota",
        "col3": "Roman Catholic Archdiocese of Bogota",
        "col4": "Roman Catholic Archdiocese of Bogota",
        "col5": "7163000000",
        "col6": "7163000000"
    },
    {
        "col0": "Roman Catholic Diocese of Zielona Gora-Gorzow",
        "col1": "Roman Catholic Archdiocese of Szczecin-Kamien",
        "col2": "Roman Catholic Archdiocese of Szczecin-Kamien",
        "col3": "Roman Catholic Archdiocese of Szczecin-Kamien",
        "col4": "Roman Catholic Archdiocese of Szczecin-Kamien",
        "col5": "10805000000",
        "col6": "10805000000"
    },
    {
        "col0": "Roman Catholic Diocese of Zhumadian",
        "col1": "Roman Catholic Archdiocese of Kaifeng",
        "col2": "Roman Catholic Archdiocese of Kaifeng",
        "col3": "Roman Catholic Archdiocese of Kaifeng",
        "col4": "Roman Catholic Archdiocese of Kaifeng",
        "col5": "12700000000",
        "col6": "12700000000"
    },
    {
        "col0": "Roman Catholic Diocese of Zhoucun",
        "col1": "Roman Catholic Archdiocese of Jinan",
        "col2": "Roman Catholic Archdiocese of Jinan",
        "col3": "Roman Catholic Archdiocese of Jinan",
        "col4": "Roman Catholic Archdiocese of Jinan",
        "col5": "5000000000",
        "col6": "5000000000"
    },
    {
        "col0": "Roman Catholic Diocese of Zhengzhou",
        "col1": "Roman Catholic Archdiocese of Kaifeng",
        "col2": "Roman Catholic Archdiocese of Kaifeng",
        "col3": "Roman Catholic Archdiocese of Kaifeng",
        "col4": "Roman Catholic Archdiocese of Kaifeng",
        "col5": "18000000000",
        "col6": "18000000000"
    },
    {
        "col0": "Roman Catholic Diocese of Zaria",
        "col1": "Roman Catholic Archdiocese of Kaduna",
        "col2": "Roman Catholic Archdiocese of Kaduna",
        "col3": "Roman Catholic Archdiocese of Kaduna",
        "col4": "Roman Catholic Archdiocese of Kaduna",
        "col5": "18000000000",
        "col6": "18000000000"
    },
    {
        "col0": "Roman Catholic Diocese of Zamosc-Lubaczow",
        "col1": "Roman Catholic Archdiocese of Przemysl",
        "col2": "Roman Catholic Archdiocese of Przemysl",
        "col3": "Roman Catholic Archdiocese of Przemysl",
        "col4": "Roman Catholic Archdiocese of Przemysl",
        "col5": "8144000000",
        "col6": "8144000000"
    },
    {
        "col0": "Roman Catholic Diocese of Zamora in Mexico",
        "col1": "Roman Catholic Archdiocese of Morelia",
        "col2": "Roman Catholic Archdiocese of Morelia",
        "col3": "Roman Catholic Archdiocese of Morelia",
        "col4": "Roman Catholic Archdiocese of Morelia",
        "col5": "12004594891",
        "col6": "12004594891"
    },
    {
        "col0": "Roman Catholic Diocese of Zamosc-Lubaczow",
        "col1": "Roman Catholic Archdiocese of Przemysl",
        "col2": "Roman Catholic Archdiocese of Przemysl",
        "col3": "Roman Catholic Archdiocese of Przemysl",
        "col4": "Roman Catholic Archdiocese of Przemysl",
        "col5": "8144000000",
        "col6": "8144000000"
    },
    {
        "col0": "Roman Catholic Diocese of Zacatecoluca",
        "col1": "Roman Catholic Archdiocese of San Salvador",
        "col2": "Roman Catholic Archdiocese of San Salvador",
        "col3": "Roman Catholic Archdiocese of San Salvador",
        "col4": "Roman Catholic Archdiocese of San Salvador",
        "col5": "1536000000",
        "col6": "1536000000"
    },
    {
        "col0": "Roman Catholic Diocese of Zacatecas",
        "col1": "Roman Catholic Archdiocese of San Luis Potosi",
        "col2": "Roman Catholic Archdiocese of San Luis Potosi",
        "col3": "Roman Catholic Archdiocese of San Luis Potosi",
        "col4": "Roman Catholic Archdiocese of San Luis Potosi",
        "col5": "59020649058",
        "col6": "59020649058"
    },
    {
        "col0": "Roman Catholic Diocese of Zacapa y Santo Cristo de Esquipulas",
        "col1": "Roman Catholic Archdiocese of Guatemala",
        "col2": "Roman Catholic Archdiocese of Guatemala",
        "col3": "Roman Catholic Archdiocese of Guatemala",
        "col4": "Roman Catholic Archdiocese of Guatemala",
        "col5": "5598000000",
        "col6": "5598000000"
    },
    {
        "col0": "Roman Catholic Diocese of Ze Doca",
        "col1": "Roman Catholic Archdiocese of Sao Luis do Maranhao",
        "col2": "Roman Catholic Archdiocese of Sao Luis do Maranhao",
        "col3": "Roman Catholic Archdiocese of Sao Luis do Maranhao",
        "col4": "Roman Catholic Archdiocese of Sao Luis do Maranhao",
        "col5": "40000000000",
        "col6": "40000000000"
    },
    {
        "col0": "Roman Catholic Diocese of Zarate-Campana",
        "col1": "Roman Catholic Archdiocese of La Plata in Argentina",
        "col2": "Roman Catholic Archdiocese of La Plata in Argentina",
        "col3": "Roman Catholic Archdiocese of La Plata in Argentina",
        "col4": "Roman Catholic Archdiocese of La Plata in Argentina",
        "col5": "5903000000",
        "col6": "5903000000"
    },
    {
        "col0": "Roman Catholic Diocese of Youngstown",
        "col1": "Archdiocese of Cincinnati",
        "col2": "Archdiocese of Cincinnati",
        "col3": "Archdiocese of Cincinnati",
        "col4": "Archdiocese of Cincinnati",
        "col5": "8816319527",
        "col6": "8816319527"
    },
    {
        "col0": "Roman Catholic Diocese of Yoro",
        "col1": "Roman Catholic Archdiocese of Tegucigalpa",
        "col2": "Roman Catholic Archdiocese of Tegucigalpa",
        "col3": "Roman Catholic Archdiocese of Tegucigalpa",
        "col4": "Roman Catholic Archdiocese of Tegucigalpa",
        "col5": "7781000000",
        "col6": "7781000000"
    },
    {
        "col0": "Roman Catholic Diocese of Yopal",
        "col1": "Roman Catholic Archdiocese of Tunja",
        "col2": "Roman Catholic Archdiocese of Tunja",
        "col3": "Roman Catholic Archdiocese of Tunja",
        "col4": "Roman Catholic Archdiocese of Tunja",
        "col5": "17725000000",
        "col6": "17725000000"
    },
    {
        "col0": "Roman Catholic Diocese of Yola",
        "col1": "Roman Catholic Archdiocese of Jos",
        "col2": "Roman Catholic Archdiocese of Jos",
        "col3": "Roman Catholic Archdiocese of Jos",
        "col4": "Roman Catholic Archdiocese of Jos",
        "col5": "32296000000",
        "col6": "32296000000"
    },
    {
        "col0": "Roman Catholic Diocese of Yokohama",
        "col1": "Roman Catholic Archdiocese of Tokyo",
        "col2": "Roman Catholic Archdiocese of Tokyo",
        "col3": "Roman Catholic Archdiocese of Tokyo",
        "col4": "Roman Catholic Archdiocese of Tokyo",
        "col5": "28246000000",
        "col6": "28246000000"
    },
    {
        "col0": "Roman Catholic Diocese of Yizhou",
        "col1": "Roman Catholic Archdiocese of Jinan",
        "col2": "Roman Catholic Archdiocese of Jinan",
        "col3": "Roman Catholic Archdiocese of Jinan",
        "col4": "Roman Catholic Archdiocese of Jinan",
        "col5": "18000000000",
        "col6": "18000000000"
    },
    {
        "col0": "Roman Catholic Diocese of Yichang",
        "col1": "Roman Catholic Archdiocese of Hankou",
        "col2": "Roman Catholic Archdiocese of Hankou",
        "col3": "Roman Catholic Archdiocese of Hankou",
        "col4": "Roman Catholic Archdiocese of Hankou",
        "col5": "28000000000",
        "col6": "28000000000"
    },
    {
        "col0": "Roman Catholic Diocese of Yarmouth",
        "col1": "Nova Scotia",
        "col2": "Nova Scotia",
        "col3": "Nova Scotia",
        "col4": "Nova Scotia",
        "col5": "32150000000",
        "col6": "32150000000"
    },
    {
        "col0": "Roman Catholic Diocese of Yanzhou",
        "col1": "Roman Catholic Archdiocese of Jinan",
        "col2": "Roman Catholic Archdiocese of Jinan",
        "col3": "Roman Catholic Archdiocese of Jinan",
        "col4": "Roman Catholic Archdiocese of Jinan",
        "col5": "25000000000",
        "col6": "25000000000"
    },
    {
        "col0": "Roman Catholic Diocese of Yanggu",
        "col1": "Roman Catholic Archdiocese of Jinan",
        "col2": "Roman Catholic Archdiocese of Jinan",
        "col3": "Roman Catholic Archdiocese of Jinan",
        "col4": "Roman Catholic Archdiocese of Jinan",
        "col5": "3244000000",
        "col6": "3244000000"
    },
    {
        "col0": "Roman Catholic Diocese of Xuan Loc",
        "col1": "Roman Catholic Archdiocese of Ho Chi Minh city",
        "col2": "Roman Catholic Archdiocese of Ho Chi Minh city",
        "col3": "Roman Catholic Archdiocese of Ho Chi Minh city",
        "col4": "Roman Catholic Archdiocese of Ho Chi Minh city",
        "col5": "5965000000",
        "col6": "5965000000"
    },
    {
        "col0": "Roman Catholic Diocese of Xiwanzi",
        "col1": "Roman Catholic Archdiocese of Suiyuan",
        "col2": "Roman Catholic Archdiocese of Suiyuan",
        "col3": "Roman Catholic Archdiocese of Suiyuan",
        "col4": "Roman Catholic Archdiocese of Suiyuan",
        "col5": "250000000000",
        "col6": "250000000000"
    },
    {
        "col0": "Roman Catholic Diocese of Xinyang",
        "col1": "Roman Catholic Archdiocese of Kaifeng",
        "col2": "Roman Catholic Archdiocese of Kaifeng",
        "col3": "Roman Catholic Archdiocese of Kaifeng",
        "col4": "Roman Catholic Archdiocese of Kaifeng",
        "col5": "30000000000",
        "col6": "30000000000"
    },
    {
        "col0": "Roman Catholic Diocese of Xianxian",
        "col1": "Roman Catholic Archdiocese of Beijing",
        "col2": "Roman Catholic Archdiocese of Beijing",
        "col3": "Roman Catholic Archdiocese of Beijing",
        "col4": "Roman Catholic Archdiocese of Beijing",
        "col5": "8400000000",
        "col6": "8400000000"
    },
    {
        "col0": "Roman Catholic Diocese of Xiamen",
        "col1": "Roman Catholic Archdiocese of Fuzhou",
        "col2": "Roman Catholic Archdiocese of Fuzhou",
        "col3": "Roman Catholic Archdiocese of Fuzhou",
        "col4": "Roman Catholic Archdiocese of Fuzhou",
        "col5": "30000000000",
        "col6": "30000000000"
    },
    {
        "col0": "Roman Catholic Diocese of Wurzburg",
        "col1": "Roman Catholic Archdiocese of Bamberg",
        "col2": "Roman Catholic Archdiocese of Bamberg",
        "col3": "Roman Catholic Archdiocese of Bamberg",
        "col4": "Roman Catholic Archdiocese of Bamberg",
        "col5": "8532000000",
        "col6": "8532000000"
    },
    {
        "col0": "Roman Catholic Diocese of Wrexham",
        "col1": "Roman Catholic Archdiocese of Cardiff",
        "col2": "Roman Catholic Archdiocese of Cardiff",
        "col3": "Roman Catholic Archdiocese of Cardiff",
        "col4": "Roman Catholic Archdiocese of Cardiff",
        "col5": "8361000000",
        "col6": "8361000000"
    },
    {
        "col0": "Roman Catholic Diocese of Wonju",
        "col1": "Roman Catholic Archdiocese of Seoul",
        "col2": "Roman Catholic Archdiocese of Seoul",
        "col3": "Roman Catholic Archdiocese of Seoul",
        "col4": "Roman Catholic Archdiocese of Seoul",
        "col5": "8036000000",
        "col6": "8036000000"
    },
    {
        "col0": "Roman Catholic Diocese of Winona",
        "col1": "Archdiocese of Saint Paul and Minneapolis",
        "col2": "Archdiocese of Saint Paul and Minneapolis",
        "col3": "Archdiocese of Saint Paul and Minneapolis",
        "col4": "Archdiocese of Saint Paul and Minneapolis",
        "col5": "31810233971",
        "col6": "31810233971"
    },
    {
        "col0": "Roman Catholic Diocese of Wilmington",
        "col1": "Archdiocese of Baltimore",
        "col2": "Archdiocese of Baltimore",
        "col3": "Archdiocese of Baltimore",
        "col4": "Archdiocese of Baltimore",
        "col5": "5375000000",
        "col6": "5375000000"
    },
    {
        "col0": "Roman Catholic Diocese of Willemstad",
        "col1": "Roman Catholic Archdiocese of Port of Spain",
        "col2": "Roman Catholic Archdiocese of Port of Spain",
        "col3": "Roman Catholic Archdiocese of Port of Spain",
        "col4": "Roman Catholic Archdiocese of Port of Spain",
        "col5": "993000000",
        "col6": "993000000"
    },
    {
        "col0": "Roman Catholic Diocese of Wichita",
        "col1": "Archdiocese of Kansas City in Kansas",
        "col2": "Archdiocese of Kansas City in Kansas",
        "col3": "Archdiocese of Kansas City in Kansas",
        "col4": "Archdiocese of Kansas City in Kansas",
        "col5": "51854151957",
        "col6": "51854151957"
    },
    {
        "col0": "Roman Catholic Diocese of Wheeling-Charleston",
        "col1": "Archdiocese of Baltimore",
        "col2": "Archdiocese of Baltimore",
        "col3": "Archdiocese of Baltimore",
        "col4": "Archdiocese of Baltimore",
        "col5": "62778721806",
        "col6": "62778721806"
    },
    {
        "col0": "Roman Catholic Diocese of Weetebula",
        "col1": "Roman Catholic Archdiocese of Kupang",
        "col2": "Roman Catholic Archdiocese of Kupang",
        "col3": "Roman Catholic Archdiocese of Kupang",
        "col4": "Roman Catholic Archdiocese of Kupang",
        "col5": "11052000000",
        "col6": "11052000000"
    },
    {
        "col0": "Roman Catholic Diocese of Warri",
        "col1": "Roman Catholic Archdiocese of Benin City",
        "col2": "Roman Catholic Archdiocese of Benin City",
        "col3": "Roman Catholic Archdiocese of Benin City",
        "col4": "Roman Catholic Archdiocese of Benin City",
        "col5": "15000000000",
        "col6": "15000000000"
    },
    {
        "col0": "Roman Catholic Diocese of Warangal",
        "col1": "Roman Catholic Archdiocese of Hyderabad",
        "col2": "Roman Catholic Archdiocese of Hyderabad",
        "col3": "Roman Catholic Archdiocese of Hyderabad",
        "col4": "Roman Catholic Archdiocese of Hyderabad",
        "col5": "24702000000",
        "col6": "24702000000"
    },
    {
        "col0": "Roman Catholic Diocese of Wanxian",
        "col1": "Roman Catholic Archdiocese of Chongqing",
        "col2": "Roman Catholic Archdiocese of Chongqing",
        "col3": "Roman Catholic Archdiocese of Chongqing",
        "col4": "Roman Catholic Archdiocese of Chongqing",
        "col5": "20000000000",
        "col6": "20000000000"
    },
    {
        "col0": "Roman Catholic Diocese of Wallis et Futuna",
        "col1": "Roman Catholic Archdiocese of Noumea",
        "col2": "Roman Catholic Archdiocese of Noumea",
        "col3": "Roman Catholic Archdiocese of Noumea",
        "col4": "Roman Catholic Archdiocese of Noumea",
        "col5": "256000000",
        "col6": "256000000"
    },
    {
        "col0": "Roman Catholic Diocese of Wurzburg",
        "col1": "Roman Catholic Archdiocese of Bamberg",
        "col2": "Roman Catholic Archdiocese of Bamberg",
        "col3": "Roman Catholic Archdiocese of Bamberg",
        "col4": "Roman Catholic Archdiocese of Bamberg",
        "col5": "8532000000",
        "col6": "8532000000"
    },
    {
        "col0": "Roman Catholic Diocese of Vinh Long",
        "col1": "Roman Catholic Archdiocese of Ho Chi Minh city",
        "col2": "Roman Catholic Archdiocese of Ho Chi Minh city",
        "col3": "Roman Catholic Archdiocese of Ho Chi Minh city",
        "col4": "Roman Catholic Archdiocese of Ho Chi Minh city",
        "col5": "6772000000",
        "col6": "6772000000"
    },
    {
        "col0": "Roman Catholic Diocese of Velez",
        "col1": "Roman Catholic Archdiocese of Bucaramanga",
        "col2": "Roman Catholic Archdiocese of Bucaramanga",
        "col3": "Roman Catholic Archdiocese of Bucaramanga",
        "col4": "Roman Catholic Archdiocese of Bucaramanga",
        "col5": "4958000000",
        "col6": "4958000000"
    },
    {
        "col0": "Roman Catholic Diocese of Vac",
        "col1": "Roman Catholic Archdiocese of Eger",
        "col2": "Roman Catholic Archdiocese of Eger",
        "col3": "Roman Catholic Archdiocese of Eger",
        "col4": "Roman Catholic Archdiocese of Eger",
        "col5": "8800000000",
        "col6": "8800000000"
    },
    {
        "col0": "Roman Catholic Diocese of Volterra",
        "col1": "Roman Catholic Archdiocese of Pisa",
        "col2": "Roman Catholic Archdiocese of Pisa",
        "col3": "Roman Catholic Archdiocese of Pisa",
        "col4": "Roman Catholic Archdiocese of Pisa",
        "col5": "1743000000",
        "col6": "1743000000"
    },
    {
        "col0": "Roman Catholic Diocese of Viviers",
        "col1": "Roman Catholic Archdiocese of Lyon",
        "col2": "Roman Catholic Archdiocese of Lyon",
        "col3": "Roman Catholic Archdiocese of Lyon",
        "col4": "Roman Catholic Archdiocese of Lyon",
        "col5": "5556000000",
        "col6": "5556000000"
    },
    {
        "col0": "Roman Catholic Diocese of Vittorio Veneto",
        "col1": "Roman Catholic Archdiocese of Venice",
        "col2": "Roman Catholic Archdiocese of Venice",
        "col3": "Roman Catholic Archdiocese of Venice",
        "col4": "Roman Catholic Archdiocese of Venice",
        "col5": "1420000000",
        "col6": "1420000000"
    },
    {
        "col0": "Roman Catholic Diocese of Vitoria",
        "col1": "Roman Catholic Archdiocese of Burgos",
        "col2": "Roman Catholic Archdiocese of Burgos",
        "col3": "Roman Catholic Archdiocese of Burgos",
        "col4": "Roman Catholic Archdiocese of Burgos",
        "col5": "3282000000",
        "col6": "3282000000"
    },
    {
        "col0": "Roman Catholic Diocese of Viterbo",
        "col1": "Holy See",
        "col2": "Holy See",
        "col3": "Holy See",
        "col4": "Holy See",
        "col5": "2161000000",
        "col6": "2161000000"
    }
]