[
    {
        "col0": "A. Janssen",
        "col1": "Pope John Paul II",
        "col2": "Netherlands",
        "col3": "Saint Peter's Basilica",
        "col4": "2003-10-05"
    },
    {
        "col0": "A. Tadini",
        "col1": "P. B. XVI",
        "col2": "Brescia",
        "col3": "Vatican City",
        "col4": "2009-04-26"
    },
    {
        "col0": "A. M. Pucci",
        "col1": "P. J. XXIII",
        "col2": "Kingdom of Italy",
        "col3": "Saint Peter's Basilica",
        "col4": "1962-12-09"
    },
    {
        "col0": "A. o. Florence",
        "col1": "P. A. VI",
        "col2": "Florence",
        "col3": "Rome",
        "col4": "1523-05-31"
    },
    {
        "col0": "A. o. Padua",
        "col1": "P. G. IX",
        "col2": "Italy",
        "col3": "Italy",
        "col4": "1232-05-30"
    },
    {
        "col0": "A. M. Zaccaria",
        "col1": "P. L. XIII",
        "col2": "Cremona",
        "col3": "Rome",
        "col4": "1897-05-15"
    },
    {
        "col0": "A. t. Iberian",
        "col1": "List of members of the Holy Synod of the Romanian Orthodox Church",
        "col2": "Adrianople",
        "col3": "Bucharest",
        "col4": "1992-09-27"
    },
    {
        "col0": "A. Schaffer",
        "col1": "P. B. XVI",
        "col2": "Weimar Republic",
        "col3": "Vatican City",
        "col4": "2012-10-21"
    },
    {
        "col0": "Angela of the Cross",
        "col1": "Pope John Paul II",
        "col2": "Seville",
        "col3": "Madrid",
        "col4": "2003-05-04"
    },
    {
        "col0": "A. Merici",
        "col1": "P. P. VII",
        "col2": "Brescia",
        "col3": "Papal States",
        "col4": "1807-05-24"
    },
    {
        "col0": "A. Bessette",
        "col1": "P. B. XVI",
        "col2": "Montreal",
        "col3": "Vatican City",
        "col4": "2010-10-17"
    },
    {
        "col0": "A. Corsini",
        "col1": "P. U. VIII",
        "col2": "Republic of Florence",
        "col3": "Papal States",
        "col4": "1629-04-22"
    },
    {
        "col0": "A. Bobola",
        "col1": "P. P. XI",
        "col2": "Grand Duchy of Lithuania",
        "col3": "Vatican City",
        "col4": "1938-04-17"
    },
    {
        "col0": "A. Saguna",
        "col1": "List of members of the Holy Synod of the Romanian Orthodox Church",
        "col2": "Kingdom of Hungary",
        "col3": "Sibiu",
        "col4": "2011-10-29"
    },
    {
        "col0": "A. Rublev",
        "col1": "1988 Local Council of the Russian Orthodox Church",
        "col2": "Moscow",
        "col3": "Trinity-St. Sergius Lavra",
        "col4": "1988-06-06"
    },
    {
        "col0": "A. Saguna",
        "col1": "List of members of the Holy Synod of the Romanian Orthodox Church",
        "col2": "Kingdom of Hungary",
        "col3": "Sibiu",
        "col4": "2011-10-29"
    },
    {
        "col0": "A. Bessette",
        "col1": "P. B. XVI",
        "col2": "Montreal",
        "col3": "Vatican City",
        "col4": "2010-10-17"
    },
    {
        "col0": "A. Barlow",
        "col1": "P. P. VI",
        "col2": "Lancashire",
        "col3": "St. Peter's Basilica",
        "col4": "1970-10-25"
    },
    {
        "col0": "A. Ronconi",
        "col1": "P. Francis",
        "col2": "Papal States",
        "col3": "Vatican City",
        "col4": "2014-11-23"
    },
    {
        "col0": "A. Gonzaga",
        "col1": "P. B. XIII",
        "col2": "Rome",
        "col3": "Papal States",
        "col4": "1726-12-31"
    }
]