[
    {
        "col0": "Techno",
        "col1": "Ghettotech",
        "col2": "Hardcore techno",
        "col3": "Electro",
        "col4": "Alternative dance"
    },
    {
        "col0": "Swing music",
        "col1": "Electro swing",
        "col2": "Swing revival",
        "col3": "Jazz",
        "col4": "New jack swing"
    },
    {
        "col0": "Soul music",
        "col1": "Soul blues",
        "col2": "Smooth soul",
        "col3": "Gospel music",
        "col4": "Funk"
    },
    {
        "col0": "Rock music of West Bengal",
        "col1": "Folk rock",
        "col2": "Alternative rock",
        "col3": "Blues",
        "col4": "Bengali language"
    },
    {
        "col0": "Rock music",
        "col1": "Industrial rock",
        "col2": "Punk rock",
        "col3": "Rockabilly",
        "col4": "Synthpop"
    },
    {
        "col0": "Rock and roll",
        "col1": "Blues rock",
        "col2": "Rockabilly",
        "col3": "Blues",
        "col4": "Pop music"
    },
    {
        "col0": "Rhythm and blues",
        "col1": "Rock music",
        "col2": "Contemporary R&B",
        "col3": "Blues",
        "col4": "Disco"
    },
    {
        "col0": "Reggae",
        "col1": "Reggae fusion",
        "col2": "Lovers rock",
        "col3": "Jazz",
        "col4": "Dub music"
    },
    {
        "col0": "Punk rock",
        "col1": "2 Tone",
        "col2": "Hardcore punk",
        "col3": "Proto-punk",
        "col4": "Alternative rock"
    },
    {
        "col0": "Progressive rock",
        "col1": "Progressive metal",
        "col2": "Rock in Opposition",
        "col3": "Classical music",
        "col4": "New-age music"
    },
    {
        "col0": "Post-punk",
        "col1": "Post-hardcore",
        "col2": "Dance-punk",
        "col3": "Electronic music",
        "col4": "Alternative rock"
    },
    {
        "col0": "Post-hardcore",
        "col1": "Electronicore",
        "col2": "Emo",
        "col3": "Hardcore punk",
        "col4": "Blackgaze"
    },
    {
        "col0": "Outline of jazz",
        "col1": "Free funk",
        "col2": "Bebop",
        "col3": "Folk music",
        "col4": "Reggae"
    },
    {
        "col0": "Kroncong",
        "col1": "Pop music",
        "col2": "Koes Plus",
        "col3": "Portuguese music",
        "col4": "Langgam Jawa"
    },
    {
        "col0": "Jazz",
        "col1": "Indo jazz",
        "col2": "Swing music",
        "col3": "Classical music",
        "col4": "Hip hop music"
    },
    {
        "col0": "Italo disco",
        "col1": "Eurodance",
        "col2": "Spacesynth",
        "col3": "Disco",
        "col4": "Eurobeat"
    },
    {
        "col0": "Indie rock",
        "col1": "Alternative dance",
        "col2": "Post-punk revival",
        "col3": "Rock music",
        "col4": "Shoegazing"
    },
    {
        "col0": "House music",
        "col1": "Moombahton",
        "col2": "Funky house",
        "col3": "Boogie",
        "col4": "Dance-pop"
    },
    {
        "col0": "Hip hop music",
        "col1": "Industrial hip hop",
        "col2": "Conscious hip hop",
        "col3": "Disco",
        "col4": "Drum and bass"
    },
    {
        "col0": "Heavy metal music",
        "col1": "Sludge metal",
        "col2": "Traditional heavy metal",
        "col3": "Blues rock",
        "col4": "Grunge"
    }
]