[
    {
        "col0": "W. H. Spaulding",
        "col1": "Wisconsin",
        "col2": "Los Angeles",
        "col3": "1880-05-04",
        "col4": "1-0"
    },
    {
        "col0": "W. B. Woodson",
        "col1": "Fort Worth, Texas",
        "col2": "Dallas",
        "col3": "1903-02-24",
        "col4": "6-2-1"
    },
    {
        "col0": "S. Fulton",
        "col1": "Brosville, Virginia",
        "col2": "Farmville, Virginia",
        "col3": "1929-10-24",
        "col4": "0-2"
    },
    {
        "col0": "S. Stahley",
        "col1": "Lebanon, Pennsylvania",
        "col2": "Portland, Oregon",
        "col3": "1908-09-22",
        "col4": "1-1"
    },
    {
        "col0": "R. Graves",
        "col1": "Knoxville, Tennessee",
        "col2": "Clearwater, Florida",
        "col3": "1918-12-31",
        "col4": "4-1"
    },
    {
        "col0": "R. Sasse",
        "col1": "Wilmington, Delaware",
        "col2": "Rehoboth Beach, Delaware",
        "col3": "1889-07-19",
        "col4": "0-1"
    },
    {
        "col0": "P. Warner",
        "col1": "Springville, New York",
        "col2": "Palo Alto, California",
        "col3": "1871-04-05",
        "col4": "1-1-2"
    },
    {
        "col0": "M. Warmath",
        "col1": "Humboldt, Tennessee",
        "col2": "Bloomington, Minnesota",
        "col3": "1912-12-26",
        "col4": "1-1"
    },
    {
        "col0": "M. Huerta",
        "col1": "Tampa, Florida",
        "col2": "Tampa, Florida",
        "col3": "1924-10-31",
        "col4": "2-1"
    },
    {
        "col0": "L. Casanova",
        "col1": "Ferndale, California",
        "col2": "Eugene, Oregon",
        "col3": "1905-06-12",
        "col4": "2-2"
    },
    {
        "col0": "J. Vaught",
        "col1": "Texas",
        "col2": "Oxford, Mississippi",
        "col3": "1909-05-06",
        "col4": "10-8"
    },
    {
        "col0": "J. Pont",
        "col1": "Canton, Ohio",
        "col2": "Oxford, Ohio",
        "col3": "1927-11-13",
        "col4": "0-2"
    },
    {
        "col0": "J. Paterno",
        "col1": "Brooklyn",
        "col2": "Pennsylvania",
        "col3": "1926-12-21",
        "col4": "24-12-1"
    },
    {
        "col0": "J. Crowley",
        "col1": "Chicago",
        "col2": "Scranton, Pennsylvania",
        "col3": "1902-09-10",
        "col4": "1-1"
    },
    {
        "col0": "J. B. Wilson",
        "col1": "Buffalo, New York",
        "col2": "Clarence, New York",
        "col3": "1896-07-08",
        "col4": "0-1"
    },
    {
        "col0": "J. Pardee",
        "col1": "Exira, Iowa",
        "col2": "Denver",
        "col3": "1936-04-19",
        "col4": "0-1"
    },
    {
        "col0": "J. Elway",
        "col1": "Hoquiam, Washington",
        "col2": "Palm Springs, California",
        "col3": "1931-05-30",
        "col4": "0-2"
    },
    {
        "col0": "I. Armstrong",
        "col1": "Fort Madison, Iowa",
        "col2": "Corona del Mar, Newport Beach",
        "col3": "1895-06-08",
        "col4": "1-1"
    }
]