[
    {
        "col0": "King Kamehameha",
        "col1": "Kingmambo",
        "col2": "Mr Prospector",
        "col3": "Last Tycoon"
    },
    {
        "col0": "Kind",
        "col1": "Danehill",
        "col2": "Danzig",
        "col3": "Rainbow Quest"
    },
    {
        "col0": "Key to the Moon",
        "col1": "Wajima",
        "col2": "Bold Ruler",
        "col3": "Key to the Mint"
    },
    {
        "col0": "Key to the Mint",
        "col1": "Graustark",
        "col2": "Ribot",
        "col3": "Princequillo"
    },
    {
        "col0": "Key Change",
        "col1": "Darshaan",
        "col2": "Shirley Heights",
        "col3": "The Minstrel"
    },
    {
        "col0": "Kentucky Gold",
        "col1": "Raise A Native",
        "col2": "Native Dancer",
        "col3": "Nashua"
    },
    {
        "col0": "Kentucky",
        "col1": "Lexington",
        "col2": "Boston",
        "col3": "Glencoe I"
    },
    {
        "col0": "Kennedy Road",
        "col1": "Victoria Park",
        "col2": "Chop Chop",
        "col3": "Nearctic"
    },
    {
        "col0": "Kendal",
        "col1": "Bend Or",
        "col2": "Doncaster",
        "col3": "Macaroni"
    },
    {
        "col0": "Kelso",
        "col1": "Your Host",
        "col2": "Alibhai",
        "col3": "Count Fleet"
    },
    {
        "col0": "Keen Ice",
        "col1": "Curlin",
        "col2": "Smart Strike",
        "col3": "Awesome Again"
    },
    {
        "col0": "Kayf Tara",
        "col1": "Sadler's Wells",
        "col2": "Northern Dancer",
        "col3": "High Top"
    },
    {
        "col0": "Kauai King",
        "col1": "Native Dancer",
        "col2": "Polynesian",
        "col3": "Blenheim II"
    },
    {
        "col0": "Kalanisi",
        "col1": "Doyoun",
        "col2": "Mill Reef",
        "col3": "Green Dancer"
    },
    {
        "col0": "Kala Dancer",
        "col1": "Niniski",
        "col2": "Nijinsky",
        "col3": "Kalamoun"
    },
    {
        "col0": "Kahyasi",
        "col1": "Ile de Bourbon",
        "col2": "Nijinsky II",
        "col3": "Blushing Groom"
    },
    {
        "col0": "Just A Way",
        "col1": "Heart's Cry",
        "col2": "Sunday Silence",
        "col3": "Wild Again"
    },
    {
        "col0": "Jupiter Island",
        "col1": "St. Paddy",
        "col2": "Aureole",
        "col3": "Reform"
    },
    {
        "col0": "Judy the Beauty",
        "col1": "Ghostzapper",
        "col2": "Awesome Again",
        "col3": "Holy Bull"
    },
    {
        "col0": "Joshua Tree",
        "col1": "Montjeu",
        "col2": "Sadler's Wells",
        "col3": "Grand Lodge"
    },
    {
        "col0": "Johren",
        "col1": "Spearmint",
        "col2": "Carbine",
        "col3": "Meddler"
    },
    {
        "col0": "John F Kennedy",
        "col1": "Galileo",
        "col2": "Sadlers Wells",
        "col3": "Danehill"
    },
    {
        "col0": "Johar",
        "col1": "Gone West",
        "col2": "Mr. Prospector",
        "col3": "Lear Fan"
    },
    {
        "col0": "Jim French",
        "col1": "Graustark",
        "col2": "Ribot",
        "col3": "Tom Fool"
    },
    {
        "col0": "Jeune",
        "col1": "Kalaglow",
        "col2": "Kalamoun",
        "col3": "Green Dancer"
    },
    {
        "col0": "Jet Pilot",
        "col1": "Blenheim II",
        "col2": "Blandford",
        "col3": "Sir Gallahad III"
    },
    {
        "col0": "Jerry",
        "col1": "Smolensko",
        "col2": "Sorcerer",
        "col3": "Orville"
    },
    {
        "col0": "Jazil",
        "col1": "Seeking The Gold",
        "col2": "Mr. Prospector",
        "col3": "Deputy Minister"
    },
    {
        "col0": "Java Gold",
        "col1": "Key To The Mint",
        "col2": "Graustark",
        "col3": "Nijinsky II"
    },
    {
        "col0": "Jannette",
        "col1": "Lord Clifden",
        "col2": "Newminster",
        "col3": "Stockwell"
    },
    {
        "col0": "Jambalaya",
        "col1": "Langfuhr",
        "col2": "Danzig",
        "col3": "Vice Regent"
    },
    {
        "col0": "Jalil",
        "col1": "Storm Cat",
        "col2": "Storm Bird",
        "col3": "Rahy"
    },
    {
        "col0": "Jaipur",
        "col1": "Nasrullah",
        "col2": "Nearco",
        "col3": "Eight Thirty"
    },
    {
        "col0": "Jack Hobbs",
        "col1": "Halling",
        "col2": "Diesis",
        "col3": "Swain"
    },
    {
        "col0": "Jacinth",
        "col1": "Red God",
        "col2": "Nasrullah",
        "col3": "Right Royal"
    },
    {
        "col0": "Izzi Top",
        "col1": "Pivotal",
        "col2": "Polar Falcon",
        "col3": "Zafonic"
    },
    {
        "col0": "Ivanjica",
        "col1": "Sir Ivor",
        "col2": "Sir Gaylord",
        "col3": "Vieux Manoir"
    },
    {
        "col0": "Itsallgreektome",
        "col1": "Sovereign Dancer",
        "col2": "Northern Dancer",
        "col3": "Grey Dawn II"
    },
    {
        "col0": "Islington",
        "col1": "Sadler's Wells",
        "col2": "Northern Dancer",
        "col3": "Darshaan"
    },
    {
        "col0": "Island Sands",
        "col1": "Turtle Island",
        "col2": "Fairy King",
        "col3": "J. O. Tobin"
    },
    {
        "col0": "Iron Liege",
        "col1": "Bull Lea",
        "col2": "Bull Dog",
        "col3": "War Admiral"
    },
    {
        "col0": "Invincible Spirit",
        "col1": "Green Desert",
        "col2": "Danzig",
        "col3": "Kris"
    },
    {
        "col0": "Intrepidity",
        "col1": "Sadler's Wells",
        "col2": "Northern Dancer",
        "col3": "Bold Ruler"
    },
    {
        "col0": "Intersky Falcon",
        "col1": "Polar Falcon",
        "col2": "Nureyev",
        "col3": "Try My Best"
    },
    {
        "col0": "Intercontinental",
        "col1": "Danehill",
        "col2": "Danzig",
        "col3": "Kahyasi"
    },
    {
        "col0": "Intense Focus",
        "col1": "Giant's Causeway",
        "col2": "Storm Cat",
        "col3": "Danehill"
    },
    {
        "col0": "Intello",
        "col1": "Galileo",
        "col2": "Sadler's Wells",
        "col3": "Danehill"
    },
    {
        "col0": "Integral",
        "col1": "Dalakhani",
        "col2": "Darshaan",
        "col3": "Danehill"
    },
    {
        "col0": "Inside Information",
        "col1": "Private Account",
        "col2": "Damascus",
        "col3": "Key to the Mint"
    },
    {
        "col0": "Inish Glora",
        "col1": "Regal Classic",
        "col2": "Vice Regent",
        "col3": "Assert"
    },
    {
        "col0": "Informed Decision",
        "col1": "Monarchos",
        "col2": "Maria's Mon",
        "col3": "His Majesty"
    },
    {
        "col0": "Indiana",
        "col1": "Sayajirao",
        "col2": "Nearco",
        "col3": "Solario"
    },
    {
        "col0": "Indian Skimmer",
        "col1": "Storm Bird",
        "col2": "Northern Dancer",
        "col3": "Vaguely Noble"
    },
    {
        "col0": "Include",
        "col1": "Broad Brush",
        "col2": "Ack Ack",
        "col3": "Stop The Music"
    },
    {
        "col0": "In the Wings",
        "col1": "Sadler's Wells",
        "col2": "Northern Dancer",
        "col3": "Shirley Heights"
    },
    {
        "col0": "In Lingerie",
        "col1": "Empire Maker",
        "col2": "Unbridled",
        "col3": "Storm Cat"
    },
    {
        "col0": "Immortal Verse",
        "col1": "Pivotal",
        "col2": "Polar Falcon",
        "col3": "Sadler's Wells"
    },
    {
        "col0": "Imbros",
        "col1": "Polynesian",
        "col2": "Unbreakable",
        "col3": "Bull Dog"
    },
    {
        "col0": "Imagine",
        "col1": "Sadler's Wells",
        "col2": "Northern Dancer",
        "col3": "Master Derby"
    },
    {
        "col0": "Iktamal",
        "col1": "Danzig Connection",
        "col2": "Danzig",
        "col3": "Nijinsky"
    },
    {
        "col0": "Idaho",
        "col1": "Galileo",
        "col2": "Sadler's Wells",
        "col3": "Danehill"
    },
    {
        "col0": "Ice Water",
        "col1": "Nearctic",
        "col2": "Nearco",
        "col3": "Count Fleet"
    },
    {
        "col0": "Ice Box",
        "col1": "Pulpit",
        "col2": "A.P. Indy",
        "col3": "Tabasco Cat"
    },
    {
        "col0": "Ibn Khaldun",
        "col1": "Dubai Destination",
        "col2": "Kingmambo",
        "col3": "Sadler's Wells"
    },
    {
        "col0": "Ibn Bey",
        "col1": "Mill Reef",
        "col2": "Never Bend",
        "col3": "High Top"
    },
    {
        "col0": "I'll Have Another",
        "col1": "Flower Alley",
        "col2": "Distorted Humor",
        "col3": "Arch"
    },
    {
        "col0": "I'll Get Along",
        "col1": "Smile",
        "col2": "In Reality",
        "col3": "Foolish Pleasure"
    },
    {
        "col0": "Hycilla",
        "col1": "Hyperion",
        "col2": "Gainsborough",
        "col3": "Omar Khayyam"
    },
    {
        "col0": "Hot Snap",
        "col1": "Pivotal",
        "col2": "Polar Falcon",
        "col3": "Kingmambo"
    },
    {
        "col0": "Hot Dixie Chick",
        "col1": "Dixie Union",
        "col2": "Dixieland Band",
        "col3": "In Excess"
    },
    {
        "col0": "Horatio Nelson",
        "col1": "Danehill",
        "col2": "Danzig",
        "col3": "Sadler's Wells"
    },
    {
        "col0": "Hooray",
        "col1": "Invincible Spirit",
        "col2": "Green Desert",
        "col3": "Machiavellian"
    },
    {
        "col0": "Honour and Glory",
        "col1": "Relaunch",
        "col2": "In Reality",
        "col3": "Al Nasr"
    },
    {
        "col0": "Honor Code",
        "col1": "A.P. Indy",
        "col2": "Seattle Slew",
        "col3": "Storm Cat"
    },
    {
        "col0": "Homing",
        "col1": "Habitat",
        "col2": "Sir Gaylord",
        "col3": "St. Paddy"
    },
    {
        "col0": "Homecoming Queen",
        "col1": "Holy Roman Emperor",
        "col2": "Sadler's Wells",
        "col3": "Diesis"
    },
    {
        "col0": "Holy Roman Emperor",
        "col1": "Danehill",
        "col2": "Danzig",
        "col3": "Secretariat"
    },
    {
        "col0": "Hollywood Wildcat",
        "col1": "Kris S.",
        "col2": "Roberto",
        "col3": "Mr. Prospector"
    },
    {
        "col0": "Holiday",
        "col1": "Broomstick",
        "col2": "Ben Brush",
        "col3": "Meddler"
    },
    {
        "col0": "Holding Court",
        "col1": "Hernando",
        "col2": "Niniski",
        "col3": "Be My Guest"
    },
    {
        "col0": "Hold That Tiger",
        "col1": "Storm Cat",
        "col2": "Storm Bird",
        "col3": "Caveat"
    },
    {
        "col0": "Hoist The King",
        "col1": "Hoist The Flag",
        "col2": "Tom Rolfe",
        "col3": "Royal Charger"
    },
    {
        "col0": "Hoist The Flag",
        "col1": "Tom Rolfe",
        "col2": "Ribot",
        "col3": "War Admiral"
    },
    {
        "col0": "Hittite Glory",
        "col1": "Habitat",
        "col2": "Sir Gaylord",
        "col3": "Hethersett"
    },
    {
        "col0": "His Majesty",
        "col1": "Ribot",
        "col2": "Tenerani",
        "col3": "Alibhai"
    },
    {
        "col0": "Hippodamia",
        "col1": "Hail To Reason",
        "col2": "Turn-To",
        "col3": "Bald Eagle"
    },
    {
        "col0": "Hill Prince",
        "col1": "Princequillo",
        "col2": "Prince Rose",
        "col3": "Bubbling Over"
    },
    {
        "col0": "Hill Gail",
        "col1": "Bull Lea",
        "col2": "Bull Dog",
        "col3": "Blenheim II"
    },
    {
        "col0": "Hightail",
        "col1": "Mineshaft",
        "col2": "A.P. Indy",
        "col3": "Storm Cat"
    },
    {
        "col0": "Highland Reel",
        "col1": "Galileo",
        "col2": "Sadler's Wells",
        "col3": "Danehill"
    },
    {
        "col0": "High Voltage",
        "col1": "Ambiorix",
        "col2": "Tourbillon",
        "col3": "Menow"
    },
    {
        "col0": "High Top",
        "col1": "Derring-Do",
        "col2": "Darius",
        "col3": "Vimy"
    },
    {
        "col0": "High Quest",
        "col1": "Sir Gallahad III",
        "col2": "Teddy",
        "col3": "Fair Play"
    },
    {
        "col0": "High Chaparral",
        "col1": "Sadler's Wells",
        "col2": "Northern Dancer",
        "col3": "Darshaan"
    },
    {
        "col0": "Hidden Treasure",
        "col1": "Dark Star",
        "col2": "Royal Gem",
        "col3": "Bahram"
    },
    {
        "col0": "Hidden Lake",
        "col1": "Quiet American",
        "col2": "Fappiano",
        "col3": "Round Table"
    },
    {
        "col0": "Hernando",
        "col1": "Niniski",
        "col2": "Nijinsky",
        "col3": "Miswaki"
    },
    {
        "col0": "Henrythenavigator",
        "col1": "Kingmambo",
        "col2": "Mr. Prospector",
        "col3": "Sadler's Wells"
    },
    {
        "col0": "Heliopolis",
        "col1": "Hyperion",
        "col2": "Gainsborough",
        "col3": "Swynford"
    },
    {
        "col0": "Hector Protector",
        "col1": "Woodman",
        "col2": "Mr. Prospector",
        "col3": "Riverman"
    },
    {
        "col0": "Heart's Cry",
        "col1": "Sunday Silence",
        "col2": "Halo",
        "col3": "Tony Bin"
    },
    {
        "col0": "He's A Smoothie",
        "col1": "Round Table",
        "col2": "Princequillo",
        "col3": "Bahram"
    },
    {
        "col0": "Hawkbill",
        "col1": "Kitten's Joy",
        "col2": "El Prado",
        "col3": "Giant's Causeway"
    },
    {
        "col0": "Hatoof",
        "col1": "Irish River",
        "col2": "Riverman",
        "col3": "Lyphard"
    },
    {
        "col0": "Harzand",
        "col1": "Sea The Stars",
        "col2": "Cape Cross",
        "col3": "Xaar"
    },
    {
        "col0": "Harp Star",
        "col1": "Deep Impact",
        "col2": "Sunday Silence",
        "col3": "Falbrav"
    },
    {
        "col0": "Harlem Rocker",
        "col1": "Macho Uno",
        "col2": "Holy Bull",
        "col3": "Lit de Justice"
    },
    {
        "col0": "Hard Spun",
        "col1": "Danzig",
        "col2": "Northern Dancer",
        "col3": "Turkoman"
    },
    {
        "col0": "Harbour Law",
        "col1": "Lawman",
        "col2": "Invincible Spirit",
        "col3": "Pivotal"
    },
    {
        "col0": "Harbour",
        "col1": "Arctic Tern",
        "col2": "Sea-Bird",
        "col3": "Molvedo"
    },
    {
        "col0": "Harbinger",
        "col1": "Dansili",
        "col2": "Danehill",
        "col3": "Bering"
    },
    {
        "col0": "Harayir",
        "col1": "Gulch",
        "col2": "Mr. Prospector",
        "col3": "Shareef Dancer"
    }
]