[
    {
        "col0": "M. Jah",
        "col1": "Hyderabad, India",
        "col2": "Hyderabad, India",
        "col3": "Hyderabad, India",
        "col4": "Osman Ali Khan, Asaf Jah VII",
        "col5": "1987-09-15"
    },
    {
        "col0": "M. I. Subic",
        "col1": "Trogir Cathedral",
        "col2": "Dalmatia",
        "col3": "Trogir",
        "col4": "George II Subic of Bribir",
        "col5": "1348-5-1"
    },
    {
        "col0": "M. J. Bakht",
        "col1": "Benares",
        "col2": "Delhi",
        "col3": "Mughal Empire",
        "col4": "S. A. II",
        "col5": "1788-05-31"
    },
    {
        "col0": "Mir Akbar Ali Khan Sikander Jah, Asaf Jah III",
        "col1": "British Raj",
        "col2": "Telangana",
        "col3": "British Raj",
        "col4": "Ali Khan Asaf Jah II",
        "col5": "1829-05-21"
    },
    {
        "col0": "Minyekyawswa",
        "col1": "Twante",
        "col2": "Inwa",
        "col3": "Dala Township",
        "col4": "M. I",
        "col5": "1417-03-24"
    },
    {
        "col0": "M. Swa",
        "col1": "Kanbawzathadi Palace",
        "col2": "Bago, Burma",
        "col3": "Ayutthaya Kingdom",
        "col4": "N. Bayin",
        "col5": "1593-1-8"
    },
    {
        "col0": "M. Min",
        "col1": "Mandalay Palace",
        "col2": "Amarapura",
        "col3": "Mandalay",
        "col4": "B. name",
        "col5": "1878-10-01"
    },
    {
        "col0": "Min Sithu of Toungoo",
        "col1": "Toungoo dynasty",
        "col2": "Inwa",
        "col3": "Toungoo",
        "col4": "Min Hla Htut of Pyakaung",
        "col5": "1485-0-0"
    },
    {
        "col0": "M. Vukotic",
        "col1": "Cetinje Municipality",
        "col2": "Cetinje",
        "col3": "Antibes",
        "col4": "P. Vukotic",
        "col5": "1923-03-16"
    },
    {
        "col0": "Milan Obrenovic II, Prince of Serbia",
        "col1": "Belgrade",
        "col2": "Principality of Serbia",
        "col3": "Belgrade",
        "col4": "Milos Obrenovic I, Prince of Serbia",
        "col5": "1839-07-08"
    },
    {
        "col0": "Milan I of Serbia",
        "col1": "Kingdom of Serbia",
        "col2": "Marasesti",
        "col3": "Austria-Hungary",
        "col4": "M. Obrenovic",
        "col5": "1901-02-11"
    },
    {
        "col0": "M. Sultan",
        "col1": "Suleymaniye Mosque",
        "col2": "Constantinople",
        "col3": "Ottoman Empire",
        "col4": "S. t. Magnificent",
        "col5": "1578-01-25"
    },
    {
        "col0": "Miguel da Paz, Prince of Portugal",
        "col1": "Granada",
        "col2": "Zaragoza",
        "col3": "Granada",
        "col4": "Manuel I of Portugal",
        "col5": "1500-07-19"
    },
    {
        "col0": "M. o. Valois",
        "col1": "Ghent",
        "col2": "Paris",
        "col3": "Ghent",
        "col4": "Charles VI of France",
        "col5": "1422-07-08"
    },
    {
        "col0": "M. K. Wisniowiecki",
        "col1": "Wawel Cathedral",
        "col2": "Polish-Lithuanian Commonwealth",
        "col3": "Lwow",
        "col4": "J. Wisniowiecki",
        "col5": "1673-11-10"
    },
    {
        "col0": "M. o. Orleans",
        "col1": "Cathedral of la Almudena",
        "col2": "Madrid",
        "col3": "Madrid",
        "col4": "Infanta",
        "col5": "1878-06-26"
    },
    {
        "col0": "Mercedes, Princess of Asturias",
        "col1": "El Escorial",
        "col2": "Madrid",
        "col3": "Madrid",
        "col4": "Alfonso XII of Spain",
        "col5": "1904-10-17"
    },
    {
        "col0": "M. Tourhan",
        "col1": "Cairo",
        "col2": "Istanbul",
        "col3": "Cairo",
        "col4": "J. A. Hanimefendi",
        "col5": "1956-02-04"
    },
    {
        "col0": "M. Sultan",
        "col1": "France",
        "col2": "Ottoman Empire",
        "col3": "France",
        "col4": "A. I",
        "col5": "1928-01-07"
    },
    {
        "col0": "M. o. Sitawaka",
        "col1": "Kingdom of Sitawaka",
        "col2": "Sri Jayawardenepura Kotte",
        "col3": "Kingdom of Sitawaka",
        "col4": "Vijayabahu VII of Kotte",
        "col5": "1581-0-0"
    },
    {
        "col0": "M. o. Bavaria",
        "col1": "Theatine Church, Munich",
        "col2": "Nymphenburg Palace",
        "col3": "Munich",
        "col4": "Maximilian I Joseph of Bavaria",
        "col5": "1821-02-04"
    },
    {
        "col0": "Maximilian Maria, 7th Prince of Thurn and Taxis",
        "col1": "Saint Emmeram's Abbey",
        "col2": "Schloss Taxis",
        "col3": "Regensburg",
        "col4": "Duchess Helene in Bavaria",
        "col5": "1885-06-02"
    },
    {
        "col0": "Maximilian Karl, 6th Prince of Thurn and Taxis",
        "col1": "Regensburg",
        "col2": "Electorate of Bavaria",
        "col3": "Kingdom of Bavaria",
        "col4": "Karl Alexander, 5th Prince of Thurn and Taxis",
        "col5": "1871-1-1"
    },
    {
        "col0": "Maximilian I Joseph of Bavaria",
        "col1": "Theatinerkirche",
        "col2": "Schwetzingen",
        "col3": "Kingdom of Bavaria",
        "col4": "Countess Palatine Maria Franziska of Sulzbach",
        "col5": "1825-10-13"
    },
    {
        "col0": "Maximilian II of Bavaria",
        "col1": "Theatinerkirche",
        "col2": "Kingdom of Bavaria",
        "col3": "Kingdom of Bavaria",
        "col4": "Ludwig I, King of Bavaria",
        "col5": "1864-03-10"
    },
    {
        "col0": "Maximilian III Joseph, Elector of Bavaria",
        "col1": "Theatinerkirche",
        "col2": "Munich",
        "col3": "Munich",
        "col4": "Charles VII, Holy Roman Emperor",
        "col5": "1777-12-30"
    },
    {
        "col0": "Maximilian II, Holy Roman Emperor",
        "col1": "Prague",
        "col2": "Archduchy of Austria",
        "col3": "Regensburg",
        "col4": "Ferdinand I, Holy Roman Emperor",
        "col5": "1576-10-12"
    },
    {
        "col0": "Maximilian I, Holy Roman Emperor",
        "col1": "Wiener Neustadt",
        "col2": "Inner Austria",
        "col3": "Wels",
        "col4": "Eleanor of Portugal, Holy Roman Empress",
        "col5": "1519-01-12"
    },
    {
        "col0": "Maximilian Anton, Hereditary Prince of Thurn and Taxis",
        "col1": "Regensburg",
        "col2": "Kingdom of Bavaria",
        "col3": "Kingdom of Bavaria",
        "col4": "Maximilian Karl, 6th Prince of Thurn and Taxis",
        "col5": "1867-06-26"
    },
    {
        "col0": "Maximilian, Hereditary Prince of Saxony",
        "col1": "Katholische Hofkirche",
        "col2": "Dresden",
        "col3": "Dresden",
        "col4": "Maria Antonia Walpurgis of Bavaria",
        "col5": "1838-01-03"
    },
    {
        "col0": "M. d. Saxe",
        "col1": "Strasbourg",
        "col2": "Goslar",
        "col3": "Chateau de Chambord",
        "col4": "Maria Aurora of Konigsmarck",
        "col5": "1750-11-20"
    },
    {
        "col0": "M. o. Asturias",
        "col1": "Church of San Juan Apostol y Evangelista, Santianes de Pravia",
        "col2": "Asturias",
        "col3": "Asturias",
        "col4": "Alfonso I of Asturias",
        "col5": "788-1-1"
    },
    {
        "col0": "M. o. Wales",
        "col1": "Oslo",
        "col2": "London",
        "col3": "Sandringham House",
        "col4": "A. o. Denmark",
        "col5": "1938-11-20"
    },
    {
        "col0": "M. d. Medici",
        "col1": "Basilica of San Lorenzo, Florence",
        "col2": "Florence",
        "col3": "Grand Duchy of Tuscany",
        "col4": "Cosimo II de' Medici, Grand Duke of Tuscany",
        "col5": "1667-10-11"
    },
    {
        "col0": "M. Corvinus",
        "col1": "Szekesfehervar",
        "col2": "Kingdom of Hungary",
        "col3": "Holy Roman Empire",
        "col4": "J. Hunyadi",
        "col5": "1490-04-06"
    },
    {
        "col0": "M. o. Scotland",
        "col1": "Westminster Abbey",
        "col2": "Dunfermline",
        "col3": "Palace of Westminster",
        "col4": "Malcolm III of Scotland",
        "col5": "1118-05-01"
    },
    {
        "col0": "Matilda of Savoy, Queen of Portugal",
        "col1": "Portugal",
        "col2": "County of Savoy",
        "col3": "Kingdom of Portugal",
        "col4": "Amadeus III, Count of Savoy",
        "col5": "1157-11-4"
    },
    {
        "col0": "M. o. Flanders",
        "col1": "Normandy",
        "col2": "Bruges",
        "col3": "Rouen",
        "col4": "Adela of France, Countess of Flanders",
        "col5": "1083-11-02"
    },
    {
        "col0": "Matilda of England, Duchess of Saxony",
        "col1": "Lower Saxony",
        "col2": "Berkshire",
        "col3": "Lower Saxony",
        "col4": "E. o. Aquitaine",
        "col5": "1189-06-28"
    },
    {
        "col0": "M. o. Boulogne",
        "col1": "Faversham Abbey",
        "col2": "France",
        "col3": "Essex",
        "col4": "Eustace III, Count of Boulogne",
        "col5": "1152-05-03"
    },
    {
        "col0": "Maria Isabella of Spain",
        "col1": "Naples",
        "col2": "Spain",
        "col3": "Portici",
        "col4": "Maria Luisa of Parma",
        "col5": "1848-09-13"
    }
]