[
    {
        "col0": "V. Dandridge",
        "col1": "Cleveland",
        "col2": "http://dbpedia.org/resource/Stroke",
        "col3": "1921-04-22"
    },
    {
        "col0": "V. Blaine",
        "col1": "Newark, New Jersey",
        "col2": "http://dbpedia.org/resource/Congestive_heart_failure",
        "col3": "1921-11-21"
    },
    {
        "col0": "V. Scotti",
        "col1": "San Francisco",
        "col2": "http://dbpedia.org/resource/Lung_cancer",
        "col3": "1918-01-26"
    },
    {
        "col0": "V. Lisi",
        "col1": "Ancona",
        "col2": "http://dbpedia.org/resource/Cancer",
        "col3": "1936-11-08"
    },
    {
        "col0": "V. Weidler",
        "col1": "Eagle Rock, Los Angeles",
        "col2": "http://dbpedia.org/resource/Myocardial_infarction",
        "col3": "1927-03-21"
    },
    {
        "col0": "V. Rappe",
        "col1": "Chicago",
        "col2": "http://dbpedia.org/resource/Peritonitis",
        "col3": "1891-7-7"
    },
    {
        "col0": "V. L. Corbin",
        "col1": "Prescott, Arizona",
        "col2": "http://dbpedia.org/resource/Tuberculosis",
        "col3": "1910-12-05"
    },
    {
        "col0": "V. Gregg",
        "col1": "Harrisburg, Illinois",
        "col2": "http://dbpedia.org/resource/Lung_cancer",
        "col3": "1916-03-06"
    },
    {
        "col0": "V. Graham",
        "col1": "Chicago",
        "col2": "http://dbpedia.org/resource/Myocardial_infarction",
        "col3": "1912-07-04"
    },
    {
        "col0": "V. Fox",
        "col1": "United States",
        "col2": "http://dbpedia.org/resource/Cerebral_thrombosis",
        "col3": "1902-04-02"
    },
    {
        "col0": "V. Christine",
        "col1": "Iowa",
        "col2": "http://dbpedia.org/resource/Cardiovascular_disease",
        "col3": "1920-03-05"
    },
    {
        "col0": "V. Schiavelli",
        "col1": "Brooklyn, New York",
        "col2": "http://dbpedia.org/resource/Lung_Cancer",
        "col3": "1948-11-11"
    },
    {
        "col0": "V. Price",
        "col1": "St. Louis, Missouri",
        "col2": "http://dbpedia.org/resource/Lung_cancer",
        "col3": "1911-05-27"
    },
    {
        "col0": "V. Shaw",
        "col1": "Sydney",
        "col2": "http://dbpedia.org/resource/Emphysema",
        "col3": "1935-05-25"
    },
    {
        "col0": "V. Spinetti",
        "col1": "Wales",
        "col2": "http://dbpedia.org/resource/Prostate_cancer",
        "col3": "1929-09-02"
    },
    {
        "col0": "V. Mature",
        "col1": "Louisville, Kentucky",
        "col2": "http://dbpedia.org/resource/Leukemia",
        "col3": "1913-01-29"
    },
    {
        "col0": "V. French",
        "col1": "Santa Barbara, California",
        "col2": "http://dbpedia.org/resource/Lung_cancer",
        "col3": "1934-12-04"
    },
    {
        "col0": "V. Buono",
        "col1": "San Diego",
        "col2": "http://dbpedia.org/resource/Myocardial_infarction",
        "col3": "1938-02-03"
    },
    {
        "col0": "V. Tayback",
        "col1": "Brooklyn",
        "col2": "http://dbpedia.org/resource/Myocardial_infarction",
        "col3": "1930-01-06"
    },
    {
        "col0": "V. Morrow",
        "col1": "New York",
        "col2": "http://dbpedia.org/resource/Decapitation",
        "col3": "1929-02-14"
    },
    {
        "col0": "V. S. Murthy",
        "col1": "Andhra Pradesh",
        "col2": "http://dbpedia.org/resource/Pulmonary_hemorrhage",
        "col3": "1936-01-29"
    },
    {
        "col0": "V. Lake",
        "col1": "Brooklyn",
        "col2": "http://dbpedia.org/resource/Acute_renal_failure",
        "col3": "1922-11-14"
    },
    {
        "col0": "V. Dent",
        "col1": "San Jose, California",
        "col2": "http://dbpedia.org/resource/Myocardial_infarction",
        "col3": "1895-02-16"
    },
    {
        "col0": "V. Felton",
        "col1": "Salinas, California",
        "col2": "http://dbpedia.org/resource/Stroke",
        "col3": "1890-07-20"
    },
    {
        "col0": "V. Xtravaganza",
        "col1": "Jersey City, New Jersey",
        "col2": "http://dbpedia.org/resource/Strangulation",
        "col3": "1965-05-22"
    },
    {
        "col0": "V. Meader",
        "col1": "Waterville, Maine",
        "col2": "http://dbpedia.org/resource/Chronic_obstructive_pulmonary_disease",
        "col3": "1936-03-20"
    },
    {
        "col0": "Vanity",
        "col1": "Canada",
        "col2": "http://dbpedia.org/resource/Renal_failure",
        "col3": "1959-01-04"
    },
    {
        "col0": "V. Heflin",
        "col1": "Oklahoma",
        "col2": "http://dbpedia.org/resource/Myocardial_infarction",
        "col3": "1908-12-13"
    },
    {
        "col0": "V. Benguigui",
        "col1": "Algeria",
        "col2": "http://dbpedia.org/resource/Breast_cancer",
        "col3": "1961-07-08"
    },
    {
        "col0": "V. Priyomykhov",
        "col1": "Belogorsk, Amur Oblast",
        "col2": "http://dbpedia.org/resource/Brain_tumor",
        "col3": "1943-12-26"
    },
    {
        "col0": "V. Benguigui",
        "col1": "Algeria",
        "col2": "http://dbpedia.org/resource/Breast_cancer",
        "col3": "1961-07-08"
    },
    {
        "col0": "T. Power",
        "col1": "Cincinnati",
        "col2": "http://dbpedia.org/resource/Heart_attack",
        "col3": "1914-05-05"
    },
    {
        "col0": "T. Perez",
        "col1": "Philippines",
        "col2": "http://dbpedia.org/resource/Suicide",
        "col3": "1985-09-14"
    },
    {
        "col0": "T. McVey",
        "col1": "Bay City, Michigan",
        "col2": "http://dbpedia.org/resource/Leukemia",
        "col3": "1912-02-14"
    },
    {
        "col0": "T. Smith",
        "col1": "Pennsylvania",
        "col2": "http://dbpedia.org/resource/Laryngeal_cancer",
        "col3": "1935-4-24"
    },
    {
        "col0": "T. Donahue",
        "col1": "New York",
        "col2": "http://dbpedia.org/resource/Myocardial_infarction",
        "col3": "1936-01-27"
    },
    {
        "col0": "T. Coffin",
        "col1": "Utah",
        "col2": "http://dbpedia.org/resource/Lung_cancer",
        "col3": "1909-08-13"
    },
    {
        "col0": "T. Wilson",
        "col1": "Houston",
        "col2": "http://dbpedia.org/resource/Cerebral_hemorrhage",
        "col3": "1948-01-21"
    },
    {
        "col0": "T. Lehman",
        "col1": "California",
        "col2": "http://dbpedia.org/resource/Suicide_by_hanging",
        "col3": "1961-02-23"
    },
    {
        "col0": "T. Reed",
        "col1": "London",
        "col2": "http://dbpedia.org/resource/Liver_cancer",
        "col3": "1942-09-21"
    },
    {
        "col0": "T. Young",
        "col1": "New York",
        "col2": "http://dbpedia.org/resource/Lung_cancer",
        "col3": "1937-06-28"
    },
    {
        "col0": "T. Steedman",
        "col1": "Warwickshire",
        "col2": "http://dbpedia.org/resource/Alzheimer's_disease",
        "col3": "1927-08-21"
    },
    {
        "col0": "T. Jay",
        "col1": "England",
        "col2": "http://dbpedia.org/resource/Endoscopy",
        "col3": "1933-2-2"
    },
    {
        "col0": "T. Hancock",
        "col1": "Birmingham",
        "col2": "http://dbpedia.org/resource/Suicide",
        "col3": "1924-05-12"
    },
    {
        "col0": "T. Geiss",
        "col1": "New York",
        "col2": "http://dbpedia.org/resource/Fall_(accident)",
        "col3": "1924-11-16"
    },
    {
        "col0": "T. Curtis",
        "col1": "New York City",
        "col2": "http://dbpedia.org/resource/Cardiac_arrest",
        "col3": "1925-06-03"
    },
    {
        "col0": "T. Burton",
        "col1": "Flint, Michigan",
        "col2": "http://dbpedia.org/resource/Pneumonia",
        "col3": "1937-03-23"
    },
    {
        "col0": "T. Beckley",
        "col1": "England",
        "col2": "http://dbpedia.org/resource/Cancer",
        "col3": "1929-10-07"
    },
    {
        "col0": "T. Kawakami",
        "col1": "Tokyo",
        "col2": "http://dbpedia.org/resource/Ovarian_cancer",
        "col3": "1970-04-25"
    },
    {
        "col0": "T. Rettig",
        "col1": "New York",
        "col2": "http://dbpedia.org/resource/Myocardial_infarction",
        "col3": "1941-12-10"
    },
    {
        "col0": "T. Noonan",
        "col1": "Bellingham, Washington",
        "col2": "http://dbpedia.org/resource/Brain_tumor",
        "col3": "1921-04-29"
    },
    {
        "col0": "T. Leonetti",
        "col1": "New Jersey",
        "col2": "http://dbpedia.org/resource/Cancer",
        "col3": "1929-09-10"
    },
    {
        "col0": "T. Handley",
        "col1": "England",
        "col2": "http://dbpedia.org/resource/Cerebral_haemorrhage",
        "col3": "1892-01-17"
    },
    {
        "col0": "T. Cooper",
        "col1": "Glamorgan",
        "col2": "http://dbpedia.org/resource/Heart_attack",
        "col3": "1921-03-19"
    },
    {
        "col0": "T. Bond",
        "col1": "Dallas",
        "col2": "http://dbpedia.org/resource/Heart_disease",
        "col3": "1926-09-16"
    },
    {
        "col0": "T. Suzuki",
        "col1": "Aichi Prefecture",
        "col2": "http://dbpedia.org/resource/Myocardial_infarction",
        "col3": "1956-01-03"
    },
    {
        "col0": "T. Villard",
        "col1": "Waipahu, Hawaii",
        "col2": "http://dbpedia.org/resource/AIDS",
        "col3": "1953-11-19"
    },
    {
        "col0": "T. Tyler",
        "col1": "New York",
        "col2": "http://dbpedia.org/resource/Heart_failure",
        "col3": "1903-08-09"
    },
    {
        "col0": "T. Tully",
        "col1": "Colorado",
        "col2": "http://dbpedia.org/resource/Cancer",
        "col3": "1908-08-21"
    },
    {
        "col0": "T. Towles",
        "col1": "Chicago",
        "col2": "http://dbpedia.org/resource/Stroke",
        "col3": "1950-03-20"
    },
    {
        "col0": "T. Neal",
        "col1": "Evanston, Illinois",
        "col2": "http://dbpedia.org/resource/Heart_failure",
        "col3": "1914-01-28"
    },
    {
        "col0": "T. Keene",
        "col1": "Rochester, New York",
        "col2": "http://dbpedia.org/resource/Cancer",
        "col3": "1896-12-30"
    },
    {
        "col0": "T. Graeff",
        "col1": "Ray, Arizona",
        "col2": "http://dbpedia.org/resource/Carbon_monoxide_poisoning",
        "col3": "1929-09-12"
    },
    {
        "col0": "T. Conway",
        "col1": "Russian Empire",
        "col2": "http://dbpedia.org/resource/Cirrhosis",
        "col3": "1904-09-15"
    },
    {
        "col0": "T. Bosley",
        "col1": "Chicago",
        "col2": "http://dbpedia.org/resource/Lung_cancer",
        "col3": "1927-10-01"
    },
    {
        "col0": "T. Baker",
        "col1": "West Virginia",
        "col2": "http://dbpedia.org/resource/Drug_overdose",
        "col3": "1940-08-23"
    },
    {
        "col0": "T. Wiseman",
        "col1": "Honolulu",
        "col2": "http://dbpedia.org/resource/Embolism",
        "col3": "1965-09-26"
    },
    {
        "col0": "T. Treadwell",
        "col1": "Long Island",
        "col2": "http://dbpedia.org/resource/Bear_attack",
        "col3": "1957-04-29"
    },
    {
        "col0": "T. P. Murphy",
        "col1": "Hartford, Connecticut",
        "col2": "http://dbpedia.org/resource/AIDS",
        "col3": "1959-11-03"
    },
    {
        "col0": "T. Rooney",
        "col1": "Birmingham, Alabama",
        "col2": "http://dbpedia.org/resource/Dermatomyositis",
        "col3": "1947-01-04"
    },
    {
        "col0": "T. McIntire",
        "col1": "California",
        "col2": "http://dbpedia.org/resource/Congestive_heart_failure",
        "col3": "1944-07-19"
    },
    {
        "col0": "T. Holt",
        "col1": "Beverly Hills, California",
        "col2": "http://dbpedia.org/resource/Bone_cancer",
        "col3": "1919-02-05"
    },
    {
        "col0": "T. Prabhakar",
        "col1": "Bangalore",
        "col2": "http://dbpedia.org/resource/Jaundice",
        "col3": "1948-3-30"
    },
    {
        "col0": "T. Andrews",
        "col1": "Brooklyn",
        "col2": "http://dbpedia.org/resource/Cardiac_arrest",
        "col3": "1920-03-19"
    },
    {
        "col0": "T. Hall",
        "col1": "Boston",
        "col2": "http://dbpedia.org/resource/Myocardial_infarction",
        "col3": "1882-05-10"
    },
    {
        "col0": "T. Ravenscroft",
        "col1": "Norfolk, Nebraska",
        "col2": "http://dbpedia.org/resource/Prostate_cancer",
        "col3": "1914-02-06"
    },
    {
        "col0": "T. Hird",
        "col1": "Lancashire",
        "col2": "http://dbpedia.org/resource/Stroke",
        "col3": "1911-05-28"
    },
    {
        "col0": "T. Koppel",
        "col1": "Sweden",
        "col2": "http://dbpedia.org/resource/Cardiac_arrest",
        "col3": "1944-04-27"
    },
    {
        "col0": "T. F. Anderson",
        "col1": "Manitowoc, Wisconsin",
        "col2": "http://dbpedia.org/resource/Stroke",
        "col3": "1911-02-07"
    },
    {
        "col0": "T. Wilson",
        "col1": "New York",
        "col2": "http://dbpedia.org/resource/Stroke",
        "col3": "1943-12-10"
    }
]