[
    {
        "col0": "2005 Australian Open",
        "col1": "S. Williams",
        "col2": "W. Black",
        "col3": "M. Safin"
    },
    {
        "col0": "2004 Western & Southern Financial Group Masters",
        "col1": "L. Davenport",
        "col2": "J. Craybas",
        "col3": "A. Agassi"
    },
    {
        "col0": "2004 Kroger St. Jude International and the Cellular South Cup",
        "col1": "V. Zvonareva",
        "col2": "B. Bryan",
        "col3": "B. Bryan"
    },
    {
        "col0": "2004 Canada Masters and the Rogers AT&T Cup",
        "col1": "A. Mauresmo",
        "col2": "L. Paes",
        "col3": "A. Mauresmo"
    },
    {
        "col0": "2003 Dubai Tennis Championships and Duty Free Women's Open",
        "col1": "J. Henin",
        "col2": "L. Paes",
        "col3": "L. Paes"
    },
    {
        "col0": "2003 Canada Masters and the Rogers AT&T Cup",
        "col1": "J. Henin",
        "col2": "M. Navratilova",
        "col3": "A. Roddick"
    },
    {
        "col0": "2002 US Open",
        "col1": "S. Williams",
        "col2": "M. Bryan",
        "col3": "P. Suarez"
    },
    {
        "col0": "2002 Dubai Tennis Championships and Duty Free Women's Open",
        "col1": "A. Mauresmo",
        "col2": "B. Rittner",
        "col3": "M. Vento-Kabchi"
    },
    {
        "col0": "2002 Canada Masters and the Rogers AT&T Cup",
        "col1": "A. Mauresmo",
        "col2": "B. Bryan",
        "col3": "A. Mauresmo"
    },
    {
        "col0": "2001 Dubai Tennis Championships and Duty Free Women's Open",
        "col1": "M. Hingis",
        "col2": "C. Vis",
        "col3": "J. C. Ferrero"
    },
    {
        "col0": "2001 Canada Masters and the Rogers AT&T Cup",
        "col1": "S. Williams",
        "col2": "J. Novak",
        "col3": "A. Pavel"
    },
    {
        "col0": "1999 Newsweek Champions Cup and the Evert Cup",
        "col1": "S. Williams",
        "col2": "A. Kournikova",
        "col3": "A. Kournikova"
    },
    {
        "col0": "1999 Australian Open",
        "col1": "M. Hingis",
        "col2": "A. Kournikova",
        "col3": "A. Kournikova"
    },
    {
        "col0": "1998 Newsweek Champions Cup and the State Farm Evert Cup",
        "col1": "M. Hingis",
        "col2": "J. Bjorkman",
        "col3": "J. Bjorkman"
    },
    {
        "col0": "1997 Newsweek Champions Cup and the State Farm Evert Cup",
        "col1": "L. Davenport",
        "col2": "L. Davenport",
        "col3": "L. Davenport"
    },
    {
        "col0": "1996 Salem Open Beijing and the Nokia Open",
        "col1": "W. Shi-ting",
        "col2": "M. Damm",
        "col3": "M. Damm"
    },
    {
        "col0": "1996 Newsweek Champions Cup and the State Farm Evert Cup",
        "col1": "S. Graf",
        "col2": "C. Rubin",
        "col3": "C. Rubin"
    },
    {
        "col0": "1996 Continental Championships and the Wilkinson Lady Championships",
        "col1": "A. Huber",
        "col2": "L. Neiland",
        "col3": "L. Neiland"
    }
]