[
    {
        "col0": "761 Brendelia",
        "col1": "10",
        "col2": "1913-09-08",
        "col3": "456093988190",
        "col4": "400189263909"
    },
    {
        "col0": "760 Massinga",
        "col1": "7",
        "col2": "1913-08-28",
        "col3": "580454698103",
        "col4": "361772530713"
    },
    {
        "col0": "7604 Kridsadaporn",
        "col1": "13",
        "col2": "1995-08-31",
        "col3": "732826382602",
        "col4": "198266695572"
    },
    {
        "col0": "75 Eurydike",
        "col1": "8",
        "col2": "1862-09-22",
        "col3": "521874000000",
        "col4": "278028000000"
    },
    {
        "col0": "759 Vinifera",
        "col1": "10",
        "col2": "1913-08-26",
        "col3": "472370236522",
        "col4": "310759656805"
    },
    {
        "col0": "758 Mancunia",
        "col1": "8",
        "col2": "1912-05-18",
        "col3": "549084024617",
        "col4": "405125993642"
    },
    {
        "col0": "757 Portlandia",
        "col1": "10",
        "col2": "1908-09-30",
        "col3": "393846314191",
        "col4": "316279818233"
    },
    {
        "col0": "756 Lilliana",
        "col1": "9",
        "col2": "1908-04-26",
        "col3": "549009225681",
        "col4": "406771570220"
    },
    {
        "col0": "755 Quintilla",
        "col1": "9",
        "col2": "1908-04-06",
        "col3": "541260055979",
        "col4": "410197361459"
    },
    {
        "col0": "7553 Buie",
        "col1": "14",
        "col2": "1981-03-30",
        "col3": "410272160394",
        "col4": "305209575802"
    },
    {
        "col0": "754 Malabar",
        "col1": "9",
        "col2": "1906-08-22",
        "col3": "468151576568",
        "col4": "425396505122"
    },
    {
        "col0": "7548 Engstrom",
        "col1": "13",
        "col2": "1980-03-16",
        "col3": "545882630184",
        "col4": "395342292898"
    },
    {
        "col0": "7545 Smaklosa",
        "col1": "14",
        "col2": "1978-07-28",
        "col3": "417258380956",
        "col4": "259522386090"
    },
    {
        "col0": "753 Tiflis",
        "col1": "10",
        "col2": "1913-04-30",
        "col3": "425396505122",
        "col4": "271415416811"
    },
    {
        "col0": "752 Sulamitis",
        "col1": "10",
        "col2": "1913-04-30",
        "col3": "395372212473",
        "col4": "341337461576"
    },
    {
        "col0": "7529 Vagnozzi",
        "col1": "13",
        "col2": "1994-01-16",
        "col3": "410757470847",
        "col4": "324489674579"
    },
    {
        "col0": "7526 Ohtsuka",
        "col1": "13",
        "col2": "1993-01-02",
        "col3": "466625678287",
        "col4": "270876864476"
    },
    {
        "col0": "751 Faina",
        "col1": "8",
        "col2": "1913-04-28",
        "col3": "439937418154",
        "col4": "323146360499"
    },
    {
        "col0": "7517 Alisondoane",
        "col1": "13",
        "col2": "1989-01-03",
        "col3": "461554310470",
        "col4": "270502869799"
    },
    {
        "col0": "750 Oskar",
        "col1": "12",
        "col2": "1913-04-28",
        "col3": "412860203557",
        "col4": "318434027572"
    },
    {
        "col0": "7505 Furusho",
        "col1": "11",
        "col2": "1997-01-03",
        "col3": "544684351239",
        "col4": "244179628471"
    },
    {
        "col0": "74 Galatea",
        "col1": "8",
        "col2": "1862-08-29",
        "col3": "515376000000",
        "col4": "315937000000"
    },
    {
        "col0": "749 Malzovia",
        "col1": "11",
        "col2": "1913-04-05",
        "col3": "393741595682",
        "col4": "277414291426"
    },
    {
        "col0": "748 Simeisa",
        "col1": "9",
        "col2": "1913-03-14",
        "col3": "700821144868",
        "col4": "479341497296"
    },
    {
        "col0": "747 Winchester",
        "col1": "7",
        "col2": "1913-03-07",
        "col3": "601682635955",
        "col4": "296233703560"
    },
    {
        "col0": "7476 Ogilsbie",
        "col1": "11",
        "col2": "1993-04-14",
        "col3": "579048478118",
        "col4": "363537785588"
    },
    {
        "col0": "746 Marlu",
        "col1": "10",
        "col2": "1913-03-01",
        "col3": "575682526027",
        "col4": "353679285908"
    },
    {
        "col0": "745 Mauritia",
        "col1": "10",
        "col2": "1913-03-01",
        "col3": "507809972091",
        "col4": "468241335291"
    },
    {
        "col0": "74503 Madola",
        "col1": "15",
        "col2": "1999-02-23",
        "col3": "533900633609",
        "col4": "367757762003"
    },
    {
        "col0": "744 Aguntina",
        "col1": "10",
        "col2": "1913-02-26",
        "col3": "530369330992",
        "col4": "418170927967"
    },
    {
        "col0": "7449 Dollen",
        "col1": "14",
        "col2": "1949-08-21",
        "col3": "398031972855",
        "col4": "266838170761"
    },
    {
        "col0": "7440 Zavist",
        "col1": "13",
        "col2": "1995-03-01",
        "col3": "450947821438",
        "col4": "323251079008"
    },
    {
        "col0": "743 Eugenisis",
        "col1": "10",
        "col2": "1913-02-25",
        "col3": "442405783021",
        "col4": "393487279302"
    },
    {
        "col0": "742 Edisona",
        "col1": "9",
        "col2": "1913-02-23",
        "col3": "503815708943",
        "col4": "396957949902"
    },
    {
        "col0": "741 Botolphia",
        "col1": "10",
        "col2": "1913-02-10",
        "col3": "435853396284",
        "col4": "378096650364"
    },
    {
        "col0": "740 Cantabia",
        "col1": "9",
        "col2": "1913-02-10",
        "col3": "507017103376",
        "col4": "406083420015"
    },
    {
        "col0": "73 Klytia",
        "col1": "8",
        "col2": "1862-04-07",
        "col3": "415302000000",
        "col4": "382115000000"
    },
    {
        "col0": "739 Mandeville",
        "col1": "8",
        "col2": "1913-02-07",
        "col3": "468226375503",
        "col4": "350732207856"
    },
    {
        "col0": "738 Alagasta",
        "col1": "10",
        "col2": "1913-01-07",
        "col3": "479311577722",
        "col4": "429315969334"
    },
    {
        "col0": "7389 Michelcombes",
        "col1": "14",
        "col2": "1982-10-17",
        "col3": "414706211362",
        "col4": "262534000664"
    },
    {
        "col0": "7387 Malbil",
        "col1": "13",
        "col2": "1982-01-30",
        "col3": "422715112888",
        "col4": "310308379868"
    },
    {
        "col0": "7385 Aktsynovia",
        "col1": "13",
        "col2": "1981-10-22",
        "col3": "402567870053",
        "col4": "312569791040"
    },
    {
        "col0": "737 Arequipa",
        "col1": "8",
        "col2": "1912-12-07",
        "col3": "482423213433",
        "col4": "292643354663"
    },
    {
        "col0": "736 Harvard",
        "col1": "11",
        "col2": "1912-11-16",
        "col3": "383898055790",
        "col4": "274871127624"
    },
    {
        "col0": "7369 Gavrilin",
        "col1": "13",
        "col2": "1975-01-13",
        "col3": "467728094916",
        "col4": "241641221881"
    },
    {
        "col0": "735 Marghanna",
        "col1": "9",
        "col2": "1912-12-09",
        "col3": "539689278337",
        "col4": "276441905266"
    },
    {
        "col0": "734 Benda",
        "col1": "9",
        "col2": "1912-10-11",
        "col3": "517578713047",
        "col4": "423780848118"
    },
    {
        "col0": "7346 Boulanger",
        "col1": "12",
        "col2": "1993-02-20",
        "col3": "464946008355",
        "col4": "395454192106"
    },
    {
        "col0": "7345 Happer",
        "col1": "14",
        "col2": "1992-07-28",
        "col3": "485400719693",
        "col4": "247877927191"
    },
    {
        "col0": "733 Mocia",
        "col1": "9",
        "col2": "1912-09-16",
        "col3": "538507455158",
        "col4": "477830558802"
    },
    {
        "col0": "7336 Saunders",
        "col1": "18",
        "col2": "1989-09-06",
        "col3": "510951527375",
        "col4": "179053691440"
    },
    {
        "col0": "732 Tjilaki",
        "col1": "10",
        "col2": "1912-04-15",
        "col3": "383389423029",
        "col4": "351450277635"
    },
    {
        "col0": "731 Sorga",
        "col1": "9",
        "col2": "1912-04-15",
        "col3": "509515387817",
        "col4": "384316929828"
    },
    {
        "col0": "7317 Cabot",
        "col1": "14",
        "col2": "1940-03-12",
        "col3": "401411478513",
        "col4": "296114025263"
    },
    {
        "col0": "730 Athanasia",
        "col1": "13",
        "col2": "1912-04-10",
        "col3": "395252534176",
        "col4": "275978151867"
    },
    {
        "col0": "7307 Takei",
        "col1": "12",
        "col2": "1994-04-13",
        "col3": "445829075975",
        "col4": "373976590367"
    },
    {
        "col0": "72 Feronia",
        "col1": "8",
        "col2": "1861-05-29",
        "col3": "379895000000",
        "col4": "298159000000"
    },
    {
        "col0": "729 Watsonia",
        "col1": "9",
        "col2": "1912-02-09",
        "col3": "452832754608",
        "col4": "372753014423"
    },
    {
        "col0": "728 Leonisis",
        "col1": "13",
        "col2": "1912-02-16",
        "col3": "366649421298",
        "col4": "307588181946"
    },
    {
        "col0": "727 Nipponia",
        "col1": "9",
        "col2": "1912-02-11",
        "col3": "424528837472",
        "col4": "343237354534"
    },
    {
        "col0": "726 Joella",
        "col1": "10",
        "col2": "1911-11-22",
        "col3": "493343857994",
        "col4": "275065604856"
    },
    {
        "col0": "7268 Chigorin",
        "col1": "14",
        "col2": "1972-10-03",
        "col3": "402462882268",
        "col4": "274726331845"
    },
    {
        "col0": "7266 Trefftz",
        "col1": "14",
        "col2": "1973-09-29",
        "col3": "417251813609",
        "col4": "314588045833"
    },
    {
        "col0": "725 Amanda",
        "col1": "11",
        "col2": "1911-10-21",
        "col3": "469916831442",
        "col4": "300631880958"
    },
    {
        "col0": "724 Hapag",
        "col1": "13",
        "col2": "1911-10-21",
        "col3": "458891468372",
        "col4": "275873433357"
    },
    {
        "col0": "723 Hammonia",
        "col1": "10",
        "col2": "1911-10-21",
        "col3": "471831684187",
        "col4": "423721008970"
    },
    {
        "col0": "722 Frieda",
        "col1": "12",
        "col2": "1911-10-18",
        "col3": "371840467411",
        "col4": "277952843760"
    },
    {
        "col0": "7225 Huntress",
        "col1": "13",
        "col2": "1983-01-22",
        "col3": "421402241974",
        "col4": "278895310346"
    },
    {
        "col0": "721 Tabora",
        "col1": "9",
        "col2": "1911-10-18",
        "col3": "592721723500",
        "col4": "469557796553"
    },
    {
        "col0": "720 Bohlinia",
        "col1": "9",
        "col2": "1911-10-18",
        "col3": "439458704968",
        "col4": "424424118962"
    },
    {
        "col0": "7204 Ondrejov",
        "col1": "13",
        "col2": "1995-04-03",
        "col3": "447492110624",
        "col4": "350821966578"
    },
    {
        "col0": "71 Niobe",
        "col1": "7",
        "col2": "1861-08-13",
        "col3": "484945000000",
        "col4": "339408000000"
    },
    {
        "col0": "719 Albert",
        "col1": "15",
        "col2": "1911-10-03",
        "col3": "611017543087",
        "col4": "177647471456"
    },
    {
        "col0": "718 Erida",
        "col1": "9",
        "col2": "1911-09-29",
        "col3": "548515552708",
        "col4": "365781753648"
    },
    {
        "col0": "7187 Isobe",
        "col1": "14",
        "col2": "1992-01-30",
        "col3": "314798799314",
        "col4": "264877989861"
    },
    {
        "col0": "717 Wisibada",
        "col1": "11",
        "col2": "1911-08-26",
        "col3": "592781562648",
        "col4": "346363950031"
    }
]