[
    {
        "col0": "Kondoa kondorum",
        "col1": "Zonitidae",
        "col2": "DD",
        "col3": "IUCN2.3"
    },
    {
        "col0": "Knotty pebblesnail",
        "col1": "Hydrobiidae",
        "col2": "DD",
        "col3": "IUCN3.1"
    },
    {
        "col0": "Knobby rocksnail",
        "col1": "Cerithioidea",
        "col2": "DD",
        "col3": "IUCN2.3"
    },
    {
        "col0": "Knob mudalia",
        "col1": "Cerithioidea",
        "col2": "VU",
        "col3": "IUCN2.3"
    },
    {
        "col0": "Kingman springsnail",
        "col1": "Hydrobiidae",
        "col2": "VU",
        "col3": "iucn3.1"
    },
    {
        "col0": "Kimboraga yammerana",
        "col1": "Camaenidae",
        "col2": "VU",
        "col3": "IUCN2.3"
    },
    {
        "col0": "Kimboraga micromphala",
        "col1": "Camaenidae",
        "col2": "VU",
        "col3": "IUCN2.3"
    },
    {
        "col0": "Kimboraga koolanensis",
        "col1": "Camaenidae",
        "col2": "VU",
        "col3": "IUCN2.3"
    },
    {
        "col0": "Kimboraga exanimus",
        "col1": "Camaenidae",
        "col2": "EN",
        "col3": "IUCN2.3"
    },
    {
        "col0": "Kerry slug",
        "col1": "Arionoidea",
        "col2": "LR/lc",
        "col3": "IUCN2.3"
    },
    {
        "col0": "Kern shoulderband",
        "col1": "Helicoidea",
        "col2": "EN",
        "col3": "IUCN2.3"
    },
    {
        "col0": "Keeled sideband",
        "col1": "Helicoidea",
        "col2": "VU",
        "col3": "IUCN2.3"
    },
    {
        "col0": "Karok hesperion",
        "col1": "Helicoidea",
        "col2": "DD",
        "col3": "IUCN2.3"
    },
    {
        "col0": "Kanab ambersnail",
        "col1": "Succineidae",
        "col2": "CR",
        "col3": "IUCN2.3"
    },
    {
        "col0": "Kaliella hongkongensis",
        "col1": "Helicarionidae",
        "col2": "VU",
        "col3": "IUCN2.3"
    },
    {
        "col0": "Jokajdon tumidulus",
        "col1": "Charopidae",
        "col2": "DD",
        "col3": "IUCN2.3"
    },
    {
        "col0": "Jokajdon callizonus",
        "col1": "Charopidae",
        "col2": "DD",
        "col3": "IUCN2.3"
    },
    {
        "col0": "Jay's river snail",
        "col1": "Cerithioidea",
        "col2": "VU",
        "col3": "IUCN2.3"
    },
    {
        "col0": "Jardinella zeidlerorum",
        "col1": "Hydrobiidae",
        "col2": "EN",
        "col3": "IUCN3.1"
    },
    {
        "col0": "Jardinella thaanumi",
        "col1": "Hydrobiidae",
        "col2": "DD",
        "col3": "IUCN3.1"
    },
    {
        "col0": "Jardinella pallida",
        "col1": "Hydrobiidae",
        "col2": "EN",
        "col3": "IUCN2.3"
    },
    {
        "col0": "Jardinella jesswiseae",
        "col1": "Hydrobiidae",
        "col2": "EN",
        "col3": "IUCN2.3"
    },
    {
        "col0": "Jardinella isolata",
        "col1": "Hydrobiidae",
        "col2": "VU",
        "col3": "IUCN2.3"
    },
    {
        "col0": "Jardinella exigua",
        "col1": "Hydrobiidae",
        "col2": "EN",
        "col3": "IUCN3.1"
    },
    {
        "col0": "Jardinella eulo",
        "col1": "Hydrobiidae",
        "col2": "VU",
        "col3": "IUCN2.3"
    },
    {
        "col0": "Jardinella edgbastonensis",
        "col1": "Hydrobiidae",
        "col2": "VU",
        "col3": "IUCN2.3"
    },
    {
        "col0": "Jardinella corrugata",
        "col1": "Hydrobiidae",
        "col2": "VU",
        "col3": "IUCN2.3"
    },
    {
        "col0": "Jardinella coreena",
        "col1": "Hydrobiidae",
        "col2": "VU",
        "col3": "IUCN2.3"
    },
    {
        "col0": "Jardinella colmani",
        "col1": "Hydrobiidae",
        "col2": "CR",
        "col3": "IUCN2.3"
    },
    {
        "col0": "Jardinella carnarvonensis",
        "col1": "Hydrobiidae",
        "col2": "LC",
        "col3": "IUCN3.1"
    },
    {
        "col0": "Jardinella acuminata",
        "col1": "Hydrobiidae",
        "col2": "EN",
        "col3": "IUCN2.3"
    },
    {
        "col0": "Japonia striatula",
        "col1": "Cyclophoroidea",
        "col2": "DD",
        "col3": "IUCN2.3"
    },
    {
        "col0": "Japonia shigetai",
        "col1": "Cyclophoroidea",
        "col2": "DD",
        "col3": "IUCN2.3"
    },
    {
        "col0": "Japonia hispida",
        "col1": "Cyclophoroidea",
        "col2": "DD",
        "col3": "IUCN2.3"
    },
    {
        "col0": "James River spinymussel",
        "col1": "Unionidae",
        "col2": "CR",
        "col3": "IUCN2.3"
    },
    {
        "col0": "Jacksonena rudis",
        "col1": "Camaenidae",
        "col2": "LR/nt",
        "col3": "IUCN2.3"
    },
    {
        "col0": "Jacksonena delicata",
        "col1": "Camaenidae",
        "col2": "LR/nt",
        "col3": "IUCN2.3"
    },
    {
        "col0": "Jackson lake springsnail",
        "col1": "Hydrobiidae",
        "col2": "LC",
        "col3": "IUCN3.1"
    },
    {
        "col0": "Islamia trichoniana",
        "col1": "Hydrobiidae",
        "col2": "CR",
        "col3": "iucn3.1"
    },
    {
        "col0": "Islamia hadei",
        "col1": "Hydrobiidae",
        "col2": "CR",
        "col3": "iucn3.1"
    },
    {
        "col0": "Islamia graeca",
        "col1": "Hydrobiidae",
        "col2": "CR",
        "col3": "iucn3.1"
    },
    {
        "col0": "Islamia bendidis",
        "col1": "Hydrobiidae",
        "col2": "CR",
        "col3": "iucn3.1"
    },
    {
        "col0": "Iredaleoconcha caporaphe",
        "col1": "Helicarionidae",
        "col2": "VU",
        "col3": "IUCN2.3"
    },
    {
        "col0": "Intha umbilicalis",
        "col1": "Planorbidae",
        "col2": "LC",
        "col3": "IUCN3.1"
    },
    {
        "col0": "Interrupted rocksnail",
        "col1": "Cerithioidea",
        "col2": "EX",
        "col3": "IUCN2.3"
    }
]