[
    {
        "col0": "HMS Bristol",
        "col1": "1963-04-17",
        "col2": "16",
        "col3": "1973-03-31"
    },
    {
        "col0": "HMS Brisk",
        "col1": "1847-04-25",
        "col2": "10",
        "col3": "1853-05-24"
    },
    {
        "col0": "HMS Bridgewater",
        "col1": "1927-09-19",
        "col2": "10",
        "col3": "1929-03-14"
    },
    {
        "col0": "HMS Bramble",
        "col1": "1937-08-11",
        "col2": "10",
        "col3": "1939-06-22"
    },
    {
        "col0": "HMS Bramble",
        "col1": "1819-03-20",
        "col2": "7",
        "col3": "1824-06-21"
    },
    {
        "col0": "HMS Boreas",
        "col1": "1929-03-22",
        "col2": "9",
        "col3": "1944-03-25"
    },
    {
        "col0": "HMS Boadicea",
        "col1": "1795-04-30",
        "col2": "11",
        "col3": "1797-09-09"
    },
    {
        "col0": "HMS Bloodhound",
        "col1": "1844-01-16",
        "col2": "7",
        "col3": "1845-09-26"
    },
    {
        "col0": "HMS Blencathra",
        "col1": "1939-09-04",
        "col2": "9",
        "col3": "1940-12-14"
    },
    {
        "col0": "HMS Blean",
        "col1": "1940-07-28",
        "col2": "10",
        "col3": "1942-08-23"
    },
    {
        "col0": "HMS Blackpool",
        "col1": "1951-03-06",
        "col2": "12",
        "col3": "1958-08-14"
    },
    {
        "col0": "HMS Blackmore",
        "col1": "1940-12-20",
        "col2": "9",
        "col3": "1942-04-14"
    },
    {
        "col0": "HMS Black Eagle",
        "col1": "1831-01-28",
        "col2": "7",
        "col3": "1831-07-11"
    },
    {
        "col0": "HMS Bicester",
        "col1": "1939-12-12",
        "col2": "9",
        "col3": "1942-05-09"
    },
    {
        "col0": "HMS Bellwort",
        "col1": "1939-12-12",
        "col2": "10",
        "col3": "1941-11-20"
    },
    {
        "col0": "HMS Belfast",
        "col1": "1936-09-21",
        "col2": "19",
        "col3": "1939-08-05"
    },
    {
        "col0": "HMS Beagle",
        "col1": "1854-04-10",
        "col2": "7",
        "col3": "1854-09-03"
    },
    {
        "col0": "HMS Barracouta",
        "col1": "1847-04-25",
        "col2": "10",
        "col3": "1853-07-30"
    },
    {
        "col0": "HMS Bangor",
        "col1": "1939-07-12",
        "col2": "8",
        "col3": "1940-11-07"
    },
    {
        "col0": "HMS Badsworth",
        "col1": "1939-12-20",
        "col2": "9",
        "col3": "1941-08-18"
    },
    {
        "col0": "HMS Avon Vale",
        "col1": "1939-12-20",
        "col2": "9",
        "col3": "1941-02-17"
    },
    {
        "col0": "HMS Avenger",
        "col1": "1844-02-19",
        "col2": "11",
        "col3": "1846-06-21"
    },
    {
        "col0": "HMS Atherstone",
        "col1": "1939-03-21",
        "col2": "8",
        "col3": "1940-03-23"
    },
    {
        "col0": "HMS Arrow",
        "col1": "1928-03-06",
        "col2": "9",
        "col3": "1930-04-14"
    },
    {
        "col0": "HMS Arethusa",
        "col1": "1932-09-01",
        "col2": "15",
        "col3": "1935-05-23"
    },
    {
        "col0": "HMS Ardent",
        "col1": "1928-03-06",
        "col2": "9",
        "col3": "1930-04-14"
    },
    {
        "col0": "HMS Ardent",
        "col1": "1973-04-17",
        "col2": "12",
        "col3": "1977-10-13"
    },
    {
        "col0": "HMS Ardent",
        "col1": "1939-02-25",
        "col2": "9",
        "col3": "1842-09-16"
    },
    {
        "col0": "HMS Arabis",
        "col1": "1939-09-19",
        "col2": "10",
        "col3": "1940-04-05"
    },
    {
        "col0": "HMS Antrim",
        "col1": "1965-01-05",
        "col2": "16",
        "col3": "1970-07-14"
    },
    {
        "col0": "HMS Anthony",
        "col1": "1928-03-06",
        "col2": "9",
        "col3": "1930-02-14"
    },
    {
        "col0": "HMS Antelope",
        "col1": "1928-03-06",
        "col2": "9",
        "col3": "1930-03-20"
    },
    {
        "col0": "HMS Annan",
        "col1": "1942-12-26",
        "col2": "11",
        "col3": "1944-01-13"
    },
    {
        "col0": "HMS Andromache",
        "col1": "1830-10-29",
        "col2": "10",
        "col3": "1833-09-19"
    },
    {
        "col0": "HMS Amphion",
        "col1": "1828-05-13",
        "col2": "13",
        "col3": "1847-05-13"
    },
    {
        "col0": "HMS Ambuscade",
        "col1": "1924-06-12",
        "col2": "9",
        "col3": "1927-04-09"
    },
    {
        "col0": "HMS Amazon",
        "col1": "1924-07-16",
        "col2": "9",
        "col3": "1927-05-05"
    },
    {
        "col0": "HMS Algerine",
        "col1": "1940-11-15",
        "col2": "10",
        "col3": "1942-03-24"
    },
    {
        "col0": "HMS Alert",
        "col1": "1853-04-02",
        "col2": "9",
        "col3": "1858-01-21"
    },
    {
        "col0": "HMS Albrighton",
        "col1": "1940-07-04",
        "col2": "9",
        "col3": "1942-02-22"
    },
    {
        "col0": "HMS Albion",
        "col1": "1996-07-18",
        "col2": "28",
        "col3": "2003-06-19"
    },
    {
        "col0": "HMS Albacore",
        "col1": "1908-05-08",
        "col2": "6",
        "col3": "1909-03-27"
    },
    {
        "col0": "HMS Alacrity",
        "col1": "1806-01-14",
        "col2": "9",
        "col3": "1811-07-01"
    },
    {
        "col0": "HMS Afridi",
        "col1": "1936-03-10",
        "col2": "10",
        "col3": "1938-05-03"
    },
    {
        "col0": "HMS Adventure",
        "col1": "1921-07-18",
        "col2": "17",
        "col3": "1926-10-02"
    },
    {
        "col0": "HMS Adamant",
        "col1": "1939-03-01",
        "col2": "21",
        "col3": "1942-02-28"
    },
    {
        "col0": "HMS Actaeon",
        "col1": "1827-10-23",
        "col2": "10",
        "col3": "1831-04-16"
    },
    {
        "col0": "HMS Actaeon",
        "col1": "1771-11-05",
        "col2": "10",
        "col3": "1775-06-19"
    },
    {
        "col0": "HMS Acheron",
        "col1": "1928-05-29",
        "col2": "9",
        "col3": "1931-10-13"
    },
    {
        "col0": "HMS Acheron",
        "col1": "1837-09-15",
        "col2": "9",
        "col3": "1839-01-08"
    },
    {
        "col0": "HMS Achates",
        "col1": "1928-03-06",
        "col2": "9",
        "col3": "1930-03-27"
    },
    {
        "col0": "HMS Aberdeen",
        "col1": "1935-03-01",
        "col2": "10",
        "col3": "1936-09-17"
    },
    {
        "col0": "HMS Abercrombie",
        "col1": "1941-04-04",
        "col2": "27",
        "col3": "1943-05-05"
    },
    {
        "col0": "HMS Abeille",
        "col1": "1793-05-18",
        "col2": "6",
        "col3": "1793-11-12"
    },
    {
        "col0": "HMNZS Rotoiti",
        "col1": "1943-01-25",
        "col2": "11",
        "col3": "1949-05-07"
    },
    {
        "col0": "HMNZS Resolution",
        "col1": "1987-02-20",
        "col2": "13",
        "col3": "1989-09-29"
    },
    {
        "col0": "HMNZS Leander",
        "col1": "1930-02-18",
        "col2": "17",
        "col3": "1933-03-24"
    },
    {
        "col0": "HMNZS Hawea",
        "col1": "1943-01-25",
        "col2": "11",
        "col3": "1944-11-07"
    },
    {
        "col0": "HMIS Sutlej",
        "col1": "1939-09-08",
        "col2": "11",
        "col3": "1941-04-23"
    },
    {
        "col0": "HMIS Sind",
        "col1": "1941-12-08",
        "col2": "10",
        "col3": "1945-08-24"
    },
    {
        "col0": "HMIS Rohilkhand",
        "col1": "1939-12-20",
        "col2": "8",
        "col3": "1943-02-05"
    },
    {
        "col0": "HMIS Rajputana",
        "col1": "1940-08-24",
        "col2": "8",
        "col3": "1942-04-30"
    },
    {
        "col0": "HMIS Punjab",
        "col1": "1941-01-24",
        "col2": "9",
        "col3": "1942-03-20"
    },
    {
        "col0": "HMIS Oudh",
        "col1": "1940-10-14",
        "col2": "8",
        "col3": "1943-10-21"
    },
    {
        "col0": "HMIS Orissa",
        "col1": "1940-08-24",
        "col2": "8",
        "col3": "1942-03-14"
    },
    {
        "col0": "HMIS Narbada",
        "col1": "1940-08-19",
        "col2": "11",
        "col3": "1943-04-29"
    },
    {
        "col0": "HMIS Madras",
        "col1": "1940-09-24",
        "col2": "9",
        "col3": "1942-05-12"
    },
    {
        "col0": "HMIS Kumaon",
        "col1": "1939-12-20",
        "col2": "8",
        "col3": "1942-11-30"
    },
    {
        "col0": "HMIS Konkan",
        "col1": "1941-02-04",
        "col2": "8",
        "col3": "1942-06-12"
    },
    {
        "col0": "HMIS Kistna",
        "col1": "1941-09-10",
        "col2": "11",
        "col3": "1943-08-26"
    },
    {
        "col0": "HMIS Khyber",
        "col1": "1939-12-20",
        "col2": "8",
        "col3": "1942-08-12"
    },
    {
        "col0": "HMIS Kathiawar",
        "col1": "1939-12-20",
        "col2": "8",
        "col3": "1942-12-23"
    },
    {
        "col0": "HMIS Jumna",
        "col1": "1939-09-08",
        "col2": "11",
        "col3": "1941-05-13"
    },
    {
        "col0": "HMIS Hindustan",
        "col1": "1929-04-15",
        "col2": "10",
        "col3": "1930-10-10"
    },
    {
        "col0": "HMIS Gondwana",
        "col1": "1942-07-22",
        "col2": "10",
        "col3": "1945-05-15"
    },
    {
        "col0": "HMIS Godaveri",
        "col1": "1940-08-29",
        "col2": "11",
        "col3": "1943-06-28"
    },
    {
        "col0": "HMIS Deccan",
        "col1": "1942-02-12",
        "col2": "8",
        "col3": "1945-03-30"
    },
    {
        "col0": "HMIS Cauvery",
        "col1": "1941-09-10",
        "col2": "11",
        "col3": "1943-08-26"
    },
    {
        "col0": "HMIS Carnatic",
        "col1": "1939-12-20",
        "col2": "8",
        "col3": "1942-10-27"
    },
    {
        "col0": "HMIS Bihar",
        "col1": "1940-10-14",
        "col2": "8",
        "col3": "1944-02-27"
    },
    {
        "col0": "HMIS Bengal",
        "col1": "1940-09-24",
        "col2": "9",
        "col3": "1942-08-08"
    },
    {
        "col0": "HMIS Baluchistan",
        "col1": "1939-12-20",
        "col2": "8",
        "col3": "1942-10-28"
    },
    {
        "col0": "HMIS Assam",
        "col1": "1942-05-15",
        "col2": "10",
        "col3": "1945-02-19"
    },
    {
        "col0": "HMCS Ypres",
        "col1": "1917-02-02",
        "col2": "7",
        "col3": "1917-11-10"
    },
    {
        "col0": "HMCS Winnipeg",
        "col1": "1941-12-12",
        "col2": "10",
        "col3": "1943-07-29"
    },
    {
        "col0": "HMCS Windflower",
        "col1": "1940-01-22",
        "col2": "10",
        "col3": "1940-10-20"
    },
    {
        "col0": "HMCS Weyburn",
        "col1": "1940-02-01",
        "col2": "10",
        "col3": "1941-11-26"
    },
    {
        "col0": "HMCS Wetaskiwin",
        "col1": "1940-02-14",
        "col2": "10",
        "col3": "1940-12-17"
    },
    {
        "col0": "HMCS Wallaceburg",
        "col1": "1941-12-12",
        "col2": "10",
        "col3": "1943-11-18"
    },
    {
        "col0": "HMCS Vimy",
        "col1": "1917-02-02",
        "col2": "7",
        "col3": "1917-11-13"
    },
    {
        "col0": "HMCS Victoriaville",
        "col1": "1943-02-01",
        "col2": "11",
        "col3": "1944-11-11"
    },
    {
        "col0": "HMCS Trillium",
        "col1": "1940-01-20",
        "col2": "10",
        "col3": "1940-10-31"
    },
    {
        "col0": "HMCS Trail",
        "col1": "1940-02-14",
        "col2": "10",
        "col3": "1941-04-30"
    },
    {
        "col0": "HMCS Toronto",
        "col1": "1943-02-01",
        "col2": "11",
        "col3": "1944-05-06"
    },
    {
        "col0": "HMCS The Pas",
        "col1": "1940-02-01",
        "col2": "10",
        "col3": "1941-10-21"
    },
    {
        "col0": "HMCS Sussexvale",
        "col1": "1943-02-01",
        "col2": "11",
        "col3": "1944-11-29"
    },
    {
        "col0": "HMCS Summerside",
        "col1": "1940-01-23",
        "col2": "10",
        "col3": "1941-09-11"
    },
    {
        "col0": "HMCS Sudbury",
        "col1": "1940-02-07",
        "col2": "10",
        "col3": "1941-10-15"
    },
    {
        "col0": "HMCS Strathadam",
        "col1": "1943-02-01",
        "col2": "11",
        "col3": "1944-09-29"
    },
    {
        "col0": "HMCS Stone Town",
        "col1": "1943-02-01",
        "col2": "11",
        "col3": "1944-07-21"
    },
    {
        "col0": "HMCS Ste. Therese",
        "col1": "1943-02-01",
        "col2": "11",
        "col3": "1944-05-28"
    },
    {
        "col0": "HMCS St. Thomas",
        "col1": "1943-01-19",
        "col2": "10",
        "col3": "1944-05-04"
    },
    {
        "col0": "HMCS St. Stephen",
        "col1": "1943-02-01",
        "col2": "11",
        "col3": "1944-07-28"
    },
    {
        "col0": "HMCS St. Pierre",
        "col1": "1943-02-01",
        "col2": "11",
        "col3": "1944-08-28"
    },
    {
        "col0": "HMCS St. Julien",
        "col1": "1917-02-02",
        "col2": "7",
        "col3": "1917-11-13"
    },
    {
        "col0": "HMCS St. Eloi",
        "col1": "1917-02-02",
        "col2": "7",
        "col3": "1917-11-13"
    },
    {
        "col0": "HMCS Spikenard",
        "col1": "1940-01-22",
        "col2": "10",
        "col3": "1940-12-06"
    },
    {
        "col0": "HMCS Sorel",
        "col1": "1940-01-22",
        "col2": "10",
        "col3": "1941-08-19"
    },
    {
        "col0": "HMCS Snowberry",
        "col1": "1940-01-22",
        "col2": "10",
        "col3": "1940-11-26"
    },
    {
        "col0": "HMCS Skeena",
        "col1": "1928-03-06",
        "col2": "9",
        "col3": "1931-06-10"
    },
    {
        "col0": "HMCS Sioux",
        "col1": "1941-09-01",
        "col2": "10",
        "col3": "1944-02-21"
    },
    {
        "col0": "HMCS Sherbrooke",
        "col1": "1940-01-22",
        "col2": "10",
        "col3": "1941-06-05"
    },
    {
        "col0": "HMCS Shediac",
        "col1": "1940-01-22",
        "col2": "10",
        "col3": "1941-07-08"
    },
    {
        "col0": "HMCS Shawinigan",
        "col1": "1940-01-24",
        "col2": "10",
        "col3": "1941-09-19"
    },
    {
        "col0": "HMCS Sea Cliff",
        "col1": "1943-02-01",
        "col2": "11",
        "col3": "1944-09-26"
    },
    {
        "col0": "HMCS Saskatoon",
        "col1": "1940-01-20",
        "col2": "10",
        "col3": "1941-06-09"
    },
    {
        "col0": "HMCS Royal Mount",
        "col1": "1943-02-01",
        "col2": "11",
        "col3": "1944-08-25"
    },
    {
        "col0": "HMCS Rosthern",
        "col1": "1940-02-01",
        "col2": "10",
        "col3": "1941-06-17"
    },
    {
        "col0": "HMCS Rimouski",
        "col1": "1940-01-22",
        "col2": "10",
        "col3": "1941-04-26"
    },
    {
        "col0": "HMCS Quesnel",
        "col1": "1940-02-14",
        "col2": "10",
        "col3": "1941-05-23"
    },
    {
        "col0": "HMCS Provider",
        "col1": "1958-04-15",
        "col2": "23",
        "col3": "1963-09-28"
    },
    {
        "col0": "HMCS Protecteur",
        "col1": "1966-12-16",
        "col2": "23",
        "col3": "1969-08-30"
    },
    {
        "col0": "HMCS Prestonian",
        "col1": "1943-02-01",
        "col2": "11",
        "col3": "1944-09-13"
    },
    {
        "col0": "HMCS Prescott",
        "col1": "1940-02-07",
        "col2": "10",
        "col3": "1941-06-26"
    },
    {
        "col0": "HMCS Poundmaker",
        "col1": "1943-02-01",
        "col2": "11",
        "col3": "1944-09-17"
    },
    {
        "col0": "HMCS Pictou",
        "col1": "1940-01-22",
        "col2": "10",
        "col3": "1941-04-29"
    },
    {
        "col0": "HMCS Owen Sound",
        "col1": "1942-01-02",
        "col2": "10",
        "col3": "1943-11-17"
    }
]