[
    {
        "col0": "C. Green",
        "col1": "United States",
        "col2": "Winchester, Indiana",
        "col3": "0"
    },
    {
        "col0": "C. Scarborough",
        "col1": "United States",
        "col2": "Indianapolis",
        "col3": "0"
    },
    {
        "col0": "C. Forberg",
        "col1": "United States",
        "col2": "Brownsburg, Indiana",
        "col3": "0"
    },
    {
        "col0": "Carel Godin de Beaufort",
        "col1": "Netherlands",
        "col2": "Cologne",
        "col3": "0"
    },
    {
        "col0": "C. Niday",
        "col1": "United States",
        "col2": "Lancaster, California",
        "col3": "0"
    },
    {
        "col0": "B. Ball",
        "col1": "United States",
        "col2": "Phoenix, Arizona",
        "col3": "0"
    },
    {
        "col0": "B. Veith",
        "col1": "United States",
        "col2": "Santa Rosa, California",
        "col3": "0"
    },
    {
        "col0": "B. Scott",
        "col1": "United States",
        "col2": "Darlington, South Carolina",
        "col3": "0"
    },
    {
        "col0": "B. Garrett",
        "col1": "United States",
        "col2": "Glendale, California",
        "col3": "0"
    },
    {
        "col0": "B. Devore",
        "col1": "United States",
        "col2": "Indianapolis",
        "col3": "0"
    },
    {
        "col0": "B. Schindler",
        "col1": "United States",
        "col2": "Allentown, Pennsylvania",
        "col3": "0"
    },
    {
        "col0": "B. Homeier",
        "col1": "United States",
        "col2": "Houston",
        "col3": "0"
    },
    {
        "col0": "B. Levrett",
        "col1": "United States",
        "col2": "Reno, Nevada",
        "col3": "0"
    },
    {
        "col0": "A. Cross",
        "col1": "United States",
        "col2": "Indiana",
        "col3": "0"
    },
    {
        "col0": "A. Bisch",
        "col1": "United States",
        "col2": "Atlanta",
        "col3": "0"
    },
    {
        "col0": "A. S. Brown",
        "col1": "United Kingdom",
        "col2": "Belgium",
        "col3": "0"
    },
    {
        "col0": "A. Linden",
        "col1": "United States",
        "col2": "Pennsylvania",
        "col3": "0"
    },
    {
        "col0": "A. Testut",
        "col1": "Monaco",
        "col2": "Lyon",
        "col3": "0"
    },
    {
        "col0": "A. Ascari",
        "col1": "Italy",
        "col2": "Monza",
        "col3": "13"
    },
    {
        "col0": "A. Stacey",
        "col1": "United Kingdom",
        "col2": "Circuit de Spa-Francorchamps",
        "col3": "0"
    },
    {
        "col0": "A. Keller",
        "col1": "United States",
        "col2": "Phoenix, Arizona",
        "col3": "0"
    },
    {
        "col0": "E. Bayol",
        "col1": "France",
        "col2": "La Ciotat",
        "col3": "0"
    }
]