[
    {
        "col0": "Ksudach",
        "col1": "Kamchatka Peninsula",
        "col2": "Kamchatka Peninsula",
        "col3": "1907"
    },
    {
        "col0": "Kronotsky",
        "col1": "Kamchatka Peninsula",
        "col2": "Kamchatka Peninsula",
        "col3": "1923"
    },
    {
        "col0": "Krasheninnikov",
        "col1": "Kamchatka Peninsula",
        "col2": "Kamchatka Peninsula",
        "col3": "1550"
    },
    {
        "col0": "Krakatoa",
        "col1": "Dutch East Indies",
        "col2": "Dutch East Indies",
        "col3": "2014"
    },
    {
        "col0": "Krafla",
        "col1": "Iceland",
        "col2": "Iceland",
        "col3": "1984"
    },
    {
        "col0": "KoE>>olau Range",
        "col1": "Oahu",
        "col2": "Hawaii",
        "col3": "32"
    },
    {
        "col0": "Kostal Cone",
        "col1": "British Columbia",
        "col2": "British Columbia",
        "col3": "1550"
    },
    {
        "col0": "Kostakan",
        "col1": "Kamchatka Peninsula",
        "col2": "Kamchatka Peninsula",
        "col3": "1350"
    },
    {
        "col0": "Koshelev",
        "col1": "Kamchatka Peninsula",
        "col2": "Kamchatka Peninsula",
        "col3": "1690"
    },
    {
        "col0": "Koryaksky",
        "col1": "Kamchatka Peninsula",
        "col2": "Kamchatka Peninsula",
        "col3": "2008"
    },
    {
        "col0": "Korovin Volcano",
        "col1": "Alaska",
        "col2": "Alaska",
        "col3": "2006"
    },
    {
        "col0": "Kone",
        "col1": "Ethiopia",
        "col2": "Ethiopia",
        "col3": "1820"
    },
    {
        "col0": "Komarov",
        "col1": "Kamchatka Peninsula",
        "col2": "Kamchatka Peninsula",
        "col3": "950"
    },
    {
        "col0": "Kolokol Group",
        "col1": "Kuril Islands",
        "col2": "Kuril Islands",
        "col3": "1973"
    },
    {
        "col0": "Kohala",
        "col1": "Hawaii",
        "col2": "Hawaii",
        "col3": "120"
    },
    {
        "col0": "KoE>>olau Range",
        "col1": "Hawaii",
        "col2": "Hawaii",
        "col3": "32"
    },
    {
        "col0": "Klyuchevskaya Sopka",
        "col1": "Kamchatka Peninsula",
        "col2": "Kamchatka Peninsula",
        "col3": "2015"
    },
    {
        "col0": "Kizimen",
        "col1": "Kamchatka Peninsula",
        "col2": "Kamchatka Peninsula",
        "col3": "2010"
    },
    {
        "col0": "Kikhpinych",
        "col1": "Kamchatka Peninsula",
        "col2": "Kamchatka Peninsula",
        "col3": "1550"
    },
    {
        "col0": "Kiaraberes-Gagak",
        "col1": "Dutch East Indies",
        "col2": "Dutch East Indies",
        "col3": "1939"
    },
    {
        "col0": "Khodutka",
        "col1": "Kamchatka Peninsula",
        "col2": "Kamchatka Peninsula",
        "col3": "-300"
    },
    {
        "col0": "Khangar",
        "col1": "Kamchatka Peninsula",
        "col2": "Kamchatka Peninsula",
        "col3": "1500"
    },
    {
        "col0": "Keluo",
        "col1": "China",
        "col2": "China",
        "col3": "300"
    },
    {
        "col0": "Kelud",
        "col1": "Dutch East Indies",
        "col2": "East Java",
        "col3": "2014"
    },
    {
        "col0": "Kelimutu",
        "col1": "Dutch East Indies",
        "col2": "Ende Regency",
        "col3": "1968"
    },
    {
        "col0": "Kavachi",
        "col1": "Solomon Islands",
        "col2": "Solomon Islands",
        "col3": "2014"
    },
    {
        "col0": "Katla",
        "col1": "Iceland",
        "col2": "Iceland",
        "col3": "1918"
    },
    {
        "col0": "Kasatochi Island",
        "col1": "Alaska",
        "col2": "Alaska",
        "col3": "2008"
    },
    {
        "col0": "Karymsky",
        "col1": "Kamchatka Peninsula",
        "col2": "Russia",
        "col3": "2001"
    },
    {
        "col0": "Karymshina",
        "col1": "Kamchatka Peninsula",
        "col2": "Kamchatka Peninsula",
        "col3": "1"
    },
    {
        "col0": "Karpinsky Group",
        "col1": "Kuril Islands",
        "col2": "Kuril Islands",
        "col3": "1952"
    },
    {
        "col0": "Karkar Island",
        "col1": "Papua New Guinea",
        "col2": "Papua New Guinea",
        "col3": "2014"
    },
    {
        "col0": "Karangetang",
        "col1": "Dutch East Indies",
        "col2": "Dutch East Indies",
        "col3": "2015"
    },
    {
        "col0": "Kanlaon Volcano",
        "col1": "Philippines",
        "col2": "Philippines",
        "col3": "2016"
    },
    {
        "col0": "Kambalny",
        "col1": "Kamchatka Peninsula",
        "col2": "Kamchatka Peninsula",
        "col3": "1350"
    },
    {
        "col0": "Kaimondake volcano",
        "col1": "Japan",
        "col2": "Japan",
        "col3": "885"
    },
    {
        "col0": "KA<<lauea",
        "col1": "United States",
        "col2": "United States",
        "col3": "1983"
    },
    {
        "col0": "Jolnir",
        "col1": "Atlantic Ocean",
        "col2": "Atlantic Ocean",
        "col3": "1966"
    },
    {
        "col0": "Jornada del Muerto Volcano",
        "col1": "Socorro County, New Mexico",
        "col2": "Socorro County, New Mexico",
        "col3": "760"
    },
    {
        "col0": "Jordan Craters",
        "col1": "Oregon",
        "col2": "Oregon",
        "col3": "-1250"
    },
    {
        "col0": "Jabal al-Tair Island",
        "col1": "Yemen",
        "col2": "Yemen",
        "col3": "2007"
    },
    {
        "col0": "Jabal Yar",
        "col1": "Saudi Arabia",
        "col2": "Saudi Arabia",
        "col3": "1810"
    },
    {
        "col0": "JA volcano",
        "col1": "New Mexico",
        "col2": "New Mexico",
        "col3": "150"
    },
    {
        "col0": "Jolnir",
        "col1": "Atlantic Ocean",
        "col2": "Atlantic Ocean",
        "col3": "1966"
    },
    {
        "col0": "Izu-Tobu",
        "col1": "Shizuoka Prefecture",
        "col2": "Shizuoka Prefecture",
        "col3": "1989"
    },
    {
        "col0": "Izalco",
        "col1": "El Salvador",
        "col2": "El Salvador",
        "col3": "1966"
    },
    {
        "col0": "Isluga",
        "col1": "Chile",
        "col2": "Chile",
        "col3": "1913"
    },
    {
        "col0": "Island Park Caldera",
        "col1": "Idaho",
        "col2": "Idaho",
        "col3": "2"
    },
    {
        "col0": "Iskut-Unuk River Cones",
        "col1": "British Columbia",
        "col2": "British Columbia",
        "col3": "1800"
    },
    {
        "col0": "Ischia",
        "col1": "Italy",
        "col2": "Italy",
        "col3": "1302"
    },
    {
        "col0": "Irruputuncu",
        "col1": "Tarapaca Region",
        "col2": "Nor Lipez Province",
        "col3": "1995"
    },
    {
        "col0": "Irazu Volcano",
        "col1": "Costa Rica",
        "col2": "Costa Rica",
        "col3": "1994"
    },
    {
        "col0": "Inierie",
        "col1": "Flores",
        "col2": "Dutch East Indies",
        "col3": "-8050"
    },
    {
        "col0": "Inielika",
        "col1": "Dutch East Indies",
        "col2": "Dutch East Indies",
        "col3": "2001"
    },
    {
        "col0": "Indian Heaven",
        "col1": "Washington",
        "col2": "Washington",
        "col3": "-6250"
    },
    {
        "col0": "Imuruk Lake volcanic field",
        "col1": "Alaska",
        "col2": "Alaska",
        "col3": "300"
    },
    {
        "col0": "Imbabura Volcano",
        "col1": "Ecuador",
        "col2": "Ecuador",
        "col3": "-5550"
    },
    {
        "col0": "Ilyinsky",
        "col1": "Kamchatka Peninsula",
        "col2": "Kamchatka Peninsula",
        "col3": "1901"
    },
    {
        "col0": "Iliwerung",
        "col1": "Dutch East Indies",
        "col2": "Dutch East Indies",
        "col3": "1999"
    },
    {
        "col0": "Iliboleng",
        "col1": "Adonara",
        "col2": "Adonara",
        "col3": "1993"
    },
    {
        "col0": "Ichinsky",
        "col1": "Kamchatka Peninsula",
        "col2": "Kamchatka Peninsula",
        "col3": "1740"
    },
    {
        "col0": "Hverfjall",
        "col1": "Iceland",
        "col2": "Iceland",
        "col3": "2500"
    },
    {
        "col0": "Huequi",
        "col1": "Chile",
        "col2": "Chile",
        "col3": "1920"
    },
    {
        "col0": "Hudson Mountains",
        "col1": "Antarctica",
        "col2": "Antarctica",
        "col3": "-210"
    },
    {
        "col0": "Huaynaputina",
        "col1": "Viceroyalty of Peru",
        "col2": "Viceroyalty of Peru",
        "col3": "1600"
    },
    {
        "col0": "Huanquihue Group",
        "col1": "Argentina",
        "col2": "Argentina",
        "col3": "1750"
    },
    {
        "col0": "Hualalai",
        "col1": "Hawaii",
        "col2": "Hawaii",
        "col3": "1800"
    },
    {
        "col0": "Hornopiren",
        "col1": "Chile",
        "col2": "Chile",
        "col3": "1835"
    },
    {
        "col0": "Hoodoo Mountain",
        "col1": "British Columbia",
        "col2": "British Columbia",
        "col3": "-7050"
    },
    {
        "col0": "Hole-in-the-Ground",
        "col1": "Oregon",
        "col2": "Oregon",
        "col3": "50"
    },
    {
        "col0": "Hokkaido Koma-ga-take",
        "col1": "Hokkaido",
        "col2": "Hokkaido",
        "col3": "2000"
    },
    {
        "col0": "Hiuchi",
        "col1": "Honshu",
        "col2": "Honshu",
        "col3": "1544"
    },
    {
        "col0": "Henry's Fork Caldera",
        "col1": "Idaho",
        "col2": "United States",
        "col3": "1"
    },
    {
        "col0": "Hengill",
        "col1": "Iceland",
        "col2": "Iceland",
        "col3": "150"
    },
    {
        "col0": "Hell's Half Acre Lava Field",
        "col1": "Bonneville County, Idaho",
        "col2": "United States",
        "col3": "-3250"
    },
    {
        "col0": "Helgafell",
        "col1": "Iceland",
        "col2": "Iceland",
        "col3": "-3950"
    },
    {
        "col0": "Hekla",
        "col1": "Iceland",
        "col2": "Iceland",
        "col3": "2000"
    },
    {
        "col0": "Healy",
        "col1": "Kermadec Islands",
        "col2": "Kermadec Islands",
        "col3": "1360"
    },
    {
        "col0": "Hayes Volcano",
        "col1": "Matanuska-Susitna Borough, Alaska",
        "col2": "Matanuska-Susitna Borough, Alaska",
        "col3": "1200"
    },
    {
        "col0": "Harrat Rahat",
        "col1": "Saudi Arabia",
        "col2": "Saudi Arabia",
        "col3": "1256"
    },
    {
        "col0": "Harrat Khaybar",
        "col1": "Medina",
        "col2": "Medina",
        "col3": "650"
    },
    {
        "col0": "Harras of Dhamar",
        "col1": "Yemen",
        "col2": "Yemen",
        "col3": "1937"
    },
    {
        "col0": "Harra of Arhab",
        "col1": "Yemen",
        "col2": "Yemen",
        "col3": "-500"
    },
    {
        "col0": "Harra es-Sawad",
        "col1": "Yemen",
        "col2": "Yemen",
        "col3": "1253"
    },
    {
        "col0": "Hallasan",
        "col1": "Korea",
        "col2": "Korea",
        "col3": "1007"
    },
    {
        "col0": "Haleakala",
        "col1": "Hawaii",
        "col2": "Maui",
        "col3": "1480"
    },
    {
        "col0": "Hainan Volcanic Field",
        "col1": "Hainan",
        "col2": "Hainan",
        "col3": "1933"
    },
    {
        "col0": "Gunungapi Wetar",
        "col1": "Dutch East Indies",
        "col2": "Dutch East Indies",
        "col3": "1699"
    },
    {
        "col0": "Guishan Island",
        "col1": "Taiwan",
        "col2": "Yilan County, Taiwan",
        "col3": "1785"
    },
    {
        "col0": "Guallatiri",
        "col1": "Chile",
        "col2": "Chile",
        "col3": "1960"
    },
    {
        "col0": "Grimsvotn",
        "col1": "Austur-Skaftafellssysla",
        "col2": "Iceland",
        "col3": "2011"
    },
    {
        "col0": "Grozny Group",
        "col1": "Iturup",
        "col2": "Iturup",
        "col3": "2014"
    },
    {
        "col0": "Grimsvotn",
        "col1": "Austur-Skaftafellssysla",
        "col2": "Austur-Skaftafellssysla",
        "col3": "2011"
    },
    {
        "col0": "Goryashchaya Sopka",
        "col1": "Kuril Islands",
        "col2": "Kuril Islands",
        "col3": "1914"
    },
    {
        "col0": "Gorny Institute",
        "col1": "Kamchatka Peninsula",
        "col2": "Kamchatka Peninsula",
        "col3": "1250"
    },
    {
        "col0": "Gorely",
        "col1": "Kamchatka Peninsula",
        "col2": "Kamchatka Peninsula",
        "col3": "2010"
    },
    {
        "col0": "Golovnin",
        "col1": "Japan",
        "col2": "Japan",
        "col3": "1848"
    },
    {
        "col0": "Goat Rocks",
        "col1": "Washington",
        "col2": "Washington",
        "col3": "500"
    },
    {
        "col0": "Glen Coe",
        "col1": "Highland",
        "col2": "Highland",
        "col3": "420"
    },
    {
        "col0": "Glacier Peak",
        "col1": "Washington",
        "col2": "Washington",
        "col3": "1700"
    },
    {
        "col0": "Geureudong",
        "col1": "Dutch East Indies",
        "col2": "Indonesia",
        "col3": "1937"
    },
    {
        "col0": "Gegham mountains",
        "col1": "Armenia",
        "col2": "Armenia",
        "col3": "-1900"
    },
    {
        "col0": "Gareloi Volcano",
        "col1": "Alaska",
        "col2": "Alaska",
        "col3": "1989"
    },
    {
        "col0": "Garbuna Group",
        "col1": "Papua New Guinea",
        "col2": "Papua New Guinea",
        "col3": "2008"
    },
    {
        "col0": "Gamchen",
        "col1": "Kamchatka Peninsula",
        "col2": "Kamchatka Peninsula",
        "col3": "-550"
    },
    {
        "col0": "Gamalama",
        "col1": "Dutch East Indies",
        "col2": "Dutch East Indies",
        "col3": "2015"
    },
    {
        "col0": "Galunggung",
        "col1": "Dutch East Indies",
        "col2": "Dutch East Indies",
        "col3": "1982"
    },
    {
        "col0": "Galeras",
        "col1": "Colombia",
        "col2": "Colombia",
        "col3": "2008"
    },
    {
        "col0": "Fuss Peak",
        "col1": "Kuril Islands",
        "col2": "Kuril Islands",
        "col3": "2030"
    },
    {
        "col0": "Fukutoku-Okanoba",
        "col1": "Japan",
        "col2": "Volcano Islands",
        "col3": "2010"
    },
    {
        "col0": "Fueguino",
        "col1": "Chile",
        "col2": "Chile",
        "col3": "1820"
    },
    {
        "col0": "Fourpeaked Mountain",
        "col1": "Alaska",
        "col2": "Alaska",
        "col3": "2006"
    },
    {
        "col0": "Four Craters Lava Field",
        "col1": "Oregon",
        "col2": "Oregon",
        "col3": "50"
    },
    {
        "col0": "Flatiron",
        "col1": "British Columbia",
        "col2": "British Columbia",
        "col3": "200"
    },
    {
        "col0": "Fisher Caldera",
        "col1": "Alaska",
        "col2": "Alaska",
        "col3": "1830"
    },
    {
        "col0": "Fernandina Island",
        "col1": "Ecuador",
        "col2": "Ecuador",
        "col3": "2009"
    },
    {
        "col0": "Eyjafjallajokull",
        "col1": "Southern Region",
        "col2": "Iceland",
        "col3": "2010"
    },
    {
        "col0": "Eve Cone",
        "col1": "British Columbia",
        "col2": "British Columbia",
        "col3": "700"
    },
    {
        "col0": "Esjufjoll",
        "col1": "Iceland",
        "col2": "Iceland",
        "col3": "1927"
    },
    {
        "col0": "Erta Ale",
        "col1": "Ethiopia",
        "col2": "Afar Depression",
        "col3": "1967"
    },
    {
        "col0": "Emuruangogolak",
        "col1": "Kenya",
        "col2": "Kenya",
        "col3": "1910"
    },
    {
        "col0": "Eldgja",
        "col1": "Iceland",
        "col2": "Iceland",
        "col3": "934"
    },
    {
        "col0": "Eldfell",
        "col1": "Iceland",
        "col2": "Iceland",
        "col3": "1973"
    },
    {
        "col0": "El Jorullo",
        "col1": "Michoacan",
        "col2": "Mexico",
        "col3": "1759"
    },
    {
        "col0": "El Chichon",
        "col1": "Francisco Leon, Chiapas",
        "col2": "Francisco Leon, Chiapas",
        "col3": "1982"
    },
    {
        "col0": "Ebulobo",
        "col1": "Dutch East Indies",
        "col2": "Dutch East Indies",
        "col3": "1969"
    },
    {
        "col0": "Ebeko",
        "col1": "Kuril Islands",
        "col2": "Kuril Islands",
        "col3": "2010"
    },
    {
        "col0": "Dukono",
        "col1": "Dutch East Indies",
        "col2": "Dutch East Indies",
        "col3": "1933"
    },
    {
        "col0": "Dubbi Volcano",
        "col1": "Eritrea",
        "col2": "Eritrea",
        "col3": "1861"
    },
    {
        "col0": "Dragon Cone",
        "col1": "British Columbia",
        "col2": "British Columbia",
        "col3": "7560"
    },
    {
        "col0": "Dona Juana",
        "col1": "Colombia",
        "col2": "Colombia",
        "col3": "1897"
    },
    {
        "col0": "Dotsero",
        "col1": "United States",
        "col2": "United States",
        "col3": "-2200"
    },
    {
        "col0": "Dona Juana",
        "col1": "Colombia",
        "col2": "Colombia",
        "col3": "1897"
    },
    {
        "col0": "Diky Greben",
        "col1": "Kamchatka Peninsula",
        "col2": "Kamchatka Peninsula",
        "col3": "350"
    },
    {
        "col0": "Dieng Volcanic Complex",
        "col1": "Dutch East Indies",
        "col2": "Dutch East Indies",
        "col3": "2009"
    },
    {
        "col0": "Didicas Volcano",
        "col1": "Luzon Strait",
        "col2": "Luzon Strait",
        "col3": "1978"
    },
    {
        "col0": "Diamond Peak",
        "col1": "Oregon",
        "col2": "Oregon",
        "col3": "11"
    },
    {
        "col0": "Devil's Garden volcanic field",
        "col1": "Oregon",
        "col2": "Oregon",
        "col3": "50"
    },
    {
        "col0": "Descabezado Grande",
        "col1": "Chile",
        "col2": "Chile",
        "col3": "1933"
    },
    {
        "col0": "Dar-Alages",
        "col1": "Armenia",
        "col2": "Armenia",
        "col3": "-2000"
    },
    {
        "col0": "Dallol",
        "col1": "Ethiopia",
        "col2": "Ethiopia",
        "col3": "1926"
    },
    {
        "col0": "Dalaffilla",
        "col1": "Ethiopia",
        "col2": "Ethiopia",
        "col3": "2008"
    },
    {
        "col0": "Dakataua",
        "col1": "Papua New Guinea",
        "col2": "Papua New Guinea",
        "col3": "1895"
    },
    {
        "col0": "Dabbahu Volcano",
        "col1": "Afar Depression",
        "col2": "Afar Depression",
        "col3": "2005"
    },
    {
        "col0": "Cumbre Vieja",
        "col1": "Canary Islands",
        "col2": "Canary Islands",
        "col3": "1971"
    },
    {
        "col0": "Cumbal",
        "col1": "Colombia",
        "col2": "Colombia",
        "col3": "1926"
    },
    {
        "col0": "Cumbal",
        "col1": "Colombia",
        "col2": "Colombia",
        "col3": "1926"
    },
    {
        "col0": "Cuicocha",
        "col1": "Ecuador",
        "col2": "Ecuador",
        "col3": "650"
    },
    {
        "col0": "Crow Lagoon",
        "col1": "British Columbia",
        "col2": "British Columbia",
        "col3": "10"
    },
    {
        "col0": "Croscat",
        "col1": "Catalonia",
        "col2": "Catalonia",
        "col3": "11"
    },
    {
        "col0": "Cotopaxi",
        "col1": "Ecuador",
        "col2": "Ecuador",
        "col3": "2015"
    },
    {
        "col0": "Coso Volcanic Field",
        "col1": "California",
        "col2": "California",
        "col3": "39"
    },
    {
        "col0": "Cosiguina",
        "col1": "Nicaragua",
        "col2": "Nicaragua",
        "col3": "1859"
    },
    {
        "col0": "Corcovado Volcano",
        "col1": "Chile",
        "col2": "Chile",
        "col3": "-4920"
    },
    {
        "col0": "Coquihalla Mountain",
        "col1": "British Columbia",
        "col2": "British Columbia",
        "col3": "21"
    },
    {
        "col0": "Copahue",
        "col1": "Chile",
        "col2": "Chile",
        "col3": "2016"
    },
    {
        "col0": "Concepcion",
        "col1": "Rivas Department",
        "col2": "Nicaragua",
        "col3": "2015"
    },
    {
        "col0": "Colo",
        "col1": "Dutch East Indies",
        "col2": "Dutch East Indies",
        "col3": "1983"
    },
    {
        "col0": "Cofre de Perote",
        "col1": "Mexico",
        "col2": "Mexico",
        "col3": "1150"
    },
    {
        "col0": "Clinker Peak",
        "col1": "British Columbia",
        "col2": "British Columbia",
        "col3": "9"
    },
    {
        "col0": "Citerne",
        "col1": "France",
        "col2": "France",
        "col3": "370"
    },
    {
        "col0": "Cinnamon Butte",
        "col1": "Oregon",
        "col2": "Oregon",
        "col3": "6845"
    },
    {
        "col0": "Cinder Cone and the Fantastic Lava Beds",
        "col1": "California",
        "col2": "California",
        "col3": "1680"
    },
    {
        "col0": "Cima Dome & Volcanic Field National Natural Landmark",
        "col1": "Mojave Desert",
        "col2": "Mojave Desert",
        "col3": "10"
    },
    {
        "col0": "Chirip",
        "col1": "Iturup",
        "col2": "Iturup",
        "col3": "1860"
    },
    {
        "col0": "Chimborazo",
        "col1": "Ecuador",
        "col2": "Ecuador",
        "col3": "550"
    },
    {
        "col0": "Chiles",
        "col1": "Narino Department",
        "col2": "Carchi Province",
        "col3": "1936"
    },
    {
        "col0": "Chikurachki",
        "col1": "Kuril Islands",
        "col2": "Kuril Islands",
        "col3": "2016"
    },
    {
        "col0": "Cherpuk Group",
        "col1": "Kamchatka Peninsula",
        "col2": "Russia",
        "col3": "-4550"
    },
    {
        "col0": "ChaA(r)ne des Puys",
        "col1": "Auvergne-RhA'ne-Alpes",
        "col2": "France",
        "col3": "-4040"
    },
    {
        "col0": "Chato Volcano",
        "col1": "Costa Rica",
        "col2": "Costa Rica",
        "col3": "3500"
    },
    {
        "col0": "Chaos Crags",
        "col1": "California",
        "col2": "California",
        "col3": "980"
    },
    {
        "col0": "Chances Peak",
        "col1": "Caribbean",
        "col2": "Caribbean",
        "col3": "2009"
    },
    {
        "col0": "Chaiten",
        "col1": "Chile",
        "col2": "Chile",
        "col3": "2008"
    },
    {
        "col0": "Chacana",
        "col1": "Ecuador",
        "col2": "Ecuador",
        "col3": "1773"
    }
]