[
    {
        "col0": "Sharp snouted day frog",
        "col1": "Myobatrachidae",
        "col2": "CR",
        "col3": "IUCN3.1"
    },
    {
        "col0": "Shaping horned toad",
        "col1": "Megophryidae",
        "col2": "LC",
        "col3": "IUCN3.1"
    },
    {
        "col0": "Shadowy web-footed salamander",
        "col1": "Plethodontidae",
        "col2": "VU",
        "col3": "IUCN3.1"
    },
    {
        "col0": "Seychelles treefrog",
        "col1": "Hyperoliidae",
        "col2": "LC",
        "col3": "IUCN3.1"
    },
    {
        "col0": "Seychelles frog",
        "col1": "Sooglossidae",
        "col2": "EN",
        "col3": "IUCN3.1"
    },
    {
        "col0": "Serra Cantareira saddleback toad",
        "col1": "Brachycephalidae",
        "col2": "DD",
        "col3": "IUCN3.1"
    },
    {
        "col0": "Sequoyah slimy salamander",
        "col1": "Plethodontidae",
        "col2": "DD",
        "col3": "IUCN3.1"
    },
    {
        "col0": "Sequoia slender salamander",
        "col1": "Lungless salamander",
        "col2": "DD",
        "col3": "IUCN3.1"
    },
    {
        "col0": "Seoul frog",
        "col1": "Ranidae",
        "col2": "VU",
        "col3": "IUCN3.1"
    },
    {
        "col0": "Seal salamander",
        "col1": "Plethodontidae",
        "col2": "LC",
        "col3": "IUCN3.1"
    },
    {
        "col0": "Scutiger tuberculatus",
        "col1": "Megophryidae",
        "col2": "VU",
        "col3": "IUCN3.1"
    },
    {
        "col0": "Scutiger sikimmensis",
        "col1": "Megophryidae",
        "col2": "LC",
        "col3": "IUCN3.1"
    },
    {
        "col0": "Scutiger pingwuensis",
        "col1": "Megophryidae",
        "col2": "EN",
        "col3": "IUCN3.1"
    },
    {
        "col0": "Scutiger nyingchiensis",
        "col1": "Megophryidae",
        "col2": "LC",
        "col3": "IUCN3.1"
    },
    {
        "col0": "Scutiger ningshanensis",
        "col1": "Megophryidae",
        "col2": "EN",
        "col3": "IUCN3.1"
    },
    {
        "col0": "Scutiger nepalensis",
        "col1": "Megophryidae",
        "col2": "VU",
        "col3": "IUCN3.1"
    },
    {
        "col0": "Scutiger maculatus",
        "col1": "Megophryidae",
        "col2": "CR",
        "col3": "IUCN3.1"
    },
    {
        "col0": "Scutiger liupanensis",
        "col1": "Megophryidae",
        "col2": "VU",
        "col3": "IUCN3.1"
    },
    {
        "col0": "Scutiger jiulongensis",
        "col1": "Megophryidae",
        "col2": "DD",
        "col3": "IUCN3.1"
    },
    {
        "col0": "Scutiger gongshanensis",
        "col1": "Megophryidae",
        "col2": "VU",
        "col3": "IUCN3.1"
    },
    {
        "col0": "Scutiger glandulatus",
        "col1": "Megophryidae",
        "col2": "LC",
        "col3": "IUCN3.1"
    },
    {
        "col0": "Scutiger chintingensis",
        "col1": "Megophryidae",
        "col2": "EN",
        "col3": "IUCN3.1"
    },
    {
        "col0": "Scutiger bhutanensis",
        "col1": "Megophryidae",
        "col2": "DD",
        "col3": "IUCN3.1"
    },
    {
        "col0": "Scinax wandae",
        "col1": "Hylidae",
        "col2": "LC",
        "col3": "IUCN3.1"
    },
    {
        "col0": "Scinax v-signatus",
        "col1": "Hylidae",
        "col2": "LC",
        "col3": "IUCN3.1"
    },
    {
        "col0": "Scinax uruguayus",
        "col1": "Hylidae",
        "col2": "LC",
        "col3": "IUCN3.1"
    },
    {
        "col0": "Scinax trilineatus",
        "col1": "Hylidae",
        "col2": "LC",
        "col3": "IUCN3.1"
    },
    {
        "col0": "Scinax trapicheiroi",
        "col1": "Hylidae",
        "col2": "NT",
        "col3": "IUCN3.1"
    },
    {
        "col0": "Scinax sugillatus",
        "col1": "Hylidae",
        "col2": "LC",
        "col3": "IUCN3.1"
    },
    {
        "col0": "Scinax strigilatus",
        "col1": "Hylidae",
        "col2": "DD",
        "col3": "IUCN3.1"
    },
    {
        "col0": "Scinax staufferi",
        "col1": "Hylidae",
        "col2": "LC",
        "col3": "IUCN3.1"
    },
    {
        "col0": "Scinax squalirostris",
        "col1": "Hylidae",
        "col2": "LC",
        "col3": "IUCN3.1"
    },
    {
        "col0": "Scinax similis",
        "col1": "Hylidae",
        "col2": "LC",
        "col3": "IUCN3.1"
    },
    {
        "col0": "Scinax rostratus",
        "col1": "Hylidae",
        "col2": "LC",
        "col3": "IUCN3.1"
    },
    {
        "col0": "Scinax rizibilis",
        "col1": "Hylidae",
        "col2": "LC",
        "col3": "IUCN3.1"
    },
    {
        "col0": "Scinax ranki",
        "col1": "Hylidae",
        "col2": "DD",
        "col3": "IUCN3.1"
    },
    {
        "col0": "Scinax quinquefasciatus",
        "col1": "Hylidae",
        "col2": "LC",
        "col3": "IUCN3.1"
    },
    {
        "col0": "Scinax proboscideus",
        "col1": "Hylidae",
        "col2": "LC",
        "col3": "IUCN3.1"
    },
    {
        "col0": "Scinax pinima",
        "col1": "Hylidae",
        "col2": "DD",
        "col3": "IUCN3.1"
    },
    {
        "col0": "Scinax perpusillus",
        "col1": "Hylidae",
        "col2": "LC",
        "col3": "IUCN3.1"
    },
    {
        "col0": "Scinax perereca",
        "col1": "Hylidae",
        "col2": "LC",
        "col3": "IUCN3.1"
    },
    {
        "col0": "Scinax pedromedinae",
        "col1": "Hylidae",
        "col2": "LC",
        "col3": "IUCN3.1"
    },
    {
        "col0": "Scinax parkeri",
        "col1": "Hylidae",
        "col2": "LC",
        "col3": "IUCN3.1"
    },
    {
        "col0": "Scinax pachycrus",
        "col1": "Hylidae",
        "col2": "LC",
        "col3": "IUCN3.1"
    },
    {
        "col0": "Scinax oreites",
        "col1": "Hylidae",
        "col2": "NT",
        "col3": "IUCN3.1"
    },
    {
        "col0": "Scinax obtriangulatus",
        "col1": "Hylidae",
        "col2": "LC",
        "col3": "IUCN3.1"
    },
    {
        "col0": "Scinax nebulosus",
        "col1": "Hylidae",
        "col2": "LC",
        "col3": "IUCN3.1"
    },
    {
        "col0": "Scinax nasicus",
        "col1": "Hylidae",
        "col2": "LC",
        "col3": "IUCN3.1"
    },
    {
        "col0": "Scinax melloi",
        "col1": "Hylidae",
        "col2": "DD",
        "col3": "IUCN3.1"
    },
    {
        "col0": "Scinax maracaya",
        "col1": "Hylidae",
        "col2": "DD",
        "col3": "IUCN3.1"
    },
    {
        "col0": "Scinax machadoi",
        "col1": "Hylidae",
        "col2": "LC",
        "col3": "IUCN3.1"
    },
    {
        "col0": "Scinax luizotavioi",
        "col1": "Hylidae",
        "col2": "LC",
        "col3": "IUCN3.1"
    },
    {
        "col0": "Scinax longilineus",
        "col1": "Hylidae",
        "col2": "LC",
        "col3": "IUCN3.1"
    },
    {
        "col0": "Scinax littoreus",
        "col1": "Hylidae",
        "col2": "LC",
        "col3": "IUCN3.1"
    },
    {
        "col0": "Scinax littoralis",
        "col1": "Hylidae",
        "col2": "LC",
        "col3": "IUCN3.1"
    },
    {
        "col0": "Scinax lindsayi",
        "col1": "Hylidae",
        "col2": "LC",
        "col3": "IUCN3.1"
    },
    {
        "col0": "Scinax kennedyi",
        "col1": "Hylidae",
        "col2": "LC",
        "col3": "IUCN3.1"
    },
    {
        "col0": "Scinax kautskyi",
        "col1": "Hylidae",
        "col2": "DD",
        "col3": "IUCN3.1"
    },
    {
        "col0": "Scinax karenanneae",
        "col1": "Hylidae",
        "col2": "LC",
        "col3": "IUCN3.1"
    },
    {
        "col0": "Scinax jureia",
        "col1": "Hylidae",
        "col2": "DD",
        "col3": "IUCN3.1"
    },
    {
        "col0": "Scinax jolyi",
        "col1": "Hylidae",
        "col2": "DD",
        "col3": "IUCN3.1"
    },
    {
        "col0": "Scinax ictericus",
        "col1": "Hylidae",
        "col2": "LC",
        "col3": "IUCN3.1"
    },
    {
        "col0": "Scinax humilis",
        "col1": "Hylidae",
        "col2": "LC",
        "col3": "IUCN3.1"
    },
    {
        "col0": "Scinax hiemalis",
        "col1": "Hylidae",
        "col2": "LC",
        "col3": "IUCN3.1"
    },
    {
        "col0": "Scinax heyeri",
        "col1": "Hylidae",
        "col2": "DD",
        "col3": "IUCN3.1"
    },
    {
        "col0": "Scinax hayii",
        "col1": "Hylidae",
        "col2": "LC",
        "col3": "IUCN3.1"
    },
    {
        "col0": "Scinax granulatus",
        "col1": "Hylidae",
        "col2": "LC",
        "col3": "IUCN3.1"
    },
    {
        "col0": "Scinax garbei",
        "col1": "Hylidae",
        "col2": "LC",
        "col3": "IUCN3.1"
    },
    {
        "col0": "Scinax fuscovarius",
        "col1": "Hylidae",
        "col2": "LC",
        "col3": "IUCN3.1"
    },
    {
        "col0": "Scinax fuscomarginatus",
        "col1": "Hylidae",
        "col2": "LC",
        "col3": "IUCN3.1"
    },
    {
        "col0": "Scinax funereus",
        "col1": "Hylidae",
        "col2": "LC",
        "col3": "IUCN3.1"
    },
    {
        "col0": "Scinax flavoguttatus",
        "col1": "Hylidae",
        "col2": "LC",
        "col3": "IUCN3.1"
    },
    {
        "col0": "Scinax exiguus",
        "col1": "Hylidae",
        "col2": "LC",
        "col3": "IUCN3.1"
    },
    {
        "col0": "Scinax eurydice",
        "col1": "Hylidae",
        "col2": "LC",
        "col3": "IUCN3.1"
    },
    {
        "col0": "Scinax duartei",
        "col1": "Hylidae",
        "col2": "LC",
        "col3": "IUCN3.1"
    },
    {
        "col0": "Scinax danae",
        "col1": "Hylidae",
        "col2": "DD",
        "col3": "IUCN3.1"
    },
    {
        "col0": "Scinax cuspidatus",
        "col1": "Hylidae",
        "col2": "LC",
        "col3": "IUCN3.1"
    },
    {
        "col0": "Scinax curicica",
        "col1": "Hylidae",
        "col2": "DD",
        "col3": "IUCN3.1"
    },
    {
        "col0": "Scinax cruentommus",
        "col1": "Hylidae",
        "col2": "LC",
        "col3": "IUCN3.1"
    },
    {
        "col0": "Scinax crospedospilus",
        "col1": "Hylidae",
        "col2": "LC",
        "col3": "IUCN3.1"
    },
    {
        "col0": "Scinax constrictus",
        "col1": "Hylidae",
        "col2": "LC",
        "col3": "IUCN3.1"
    },
    {
        "col0": "Scinax chiquitanus",
        "col1": "Hylidae",
        "col2": "LC",
        "col3": "IUCN3.1"
    },
    {
        "col0": "Scinax centralis",
        "col1": "Hylidae",
        "col2": "LC",
        "col3": "IUCN3.1"
    },
    {
        "col0": "Scinax catharinae",
        "col1": "Hylidae",
        "col2": "LC",
        "col3": "IUCN3.1"
    },
    {
        "col0": "Scinax carnevallii",
        "col1": "Hylidae",
        "col2": "LC",
        "col3": "IUCN3.1"
    },
    {
        "col0": "Scinax cardosoi",
        "col1": "Hylidae",
        "col2": "LC",
        "col3": "IUCN3.1"
    },
    {
        "col0": "Scinax canastrensis",
        "col1": "Hylidae",
        "col2": "DD",
        "col3": "IUCN3.1"
    },
    {
        "col0": "Scinax caldarum",
        "col1": "Hylidae",
        "col2": "LC",
        "col3": "IUCN3.1"
    },
    {
        "col0": "Scinax brieni",
        "col1": "Hylidae",
        "col2": "LC",
        "col3": "IUCN3.1"
    },
    {
        "col0": "Scinax boulengeri",
        "col1": "Hylidae",
        "col2": "LC",
        "col3": "IUCN3.1"
    },
    {
        "col0": "Scinax boesemani",
        "col1": "Hylidae",
        "col2": "LC",
        "col3": "IUCN3.1"
    },
    {
        "col0": "Scinax blairi",
        "col1": "Hylidae",
        "col2": "LC",
        "col3": "IUCN3.1"
    }
]