[
    {
        "col0": "9 Metis",
        "col1": "8",
        "col2": "18282",
        "col3": "14 July 2004 (JD2453200.5)"
    },
    {
        "col0": "912 Maritima",
        "col1": "13",
        "col2": "4795200",
        "col3": "31 July 2016 (JD2457600.5)"
    },
    {
        "col0": "90482 Orcus",
        "col1": "19",
        "col2": "47476",
        "col3": "13 January 2016 (JD2457400.5)"
    },
    {
        "col0": "90377 Sedna",
        "col1": "20",
        "col2": "36982",
        "col3": "13 January 2016 (JD2457400.5)"
    },
    {
        "col0": "8 Flora",
        "col1": "7",
        "col2": "46051",
        "col3": "November 26, 2005 (JD2453700.5)"
    },
    {
        "col0": "89 Julia",
        "col1": "8",
        "col2": "7",
        "col3": "31 July 2016 (JD2457600.5)"
    },
    {
        "col0": "854 Frostia",
        "col1": "0",
        "col2": "135216",
        "col3": "31 July 2016 (JD2457600.5)"
    },
    {
        "col0": "828 Lindemannia",
        "col1": "10",
        "col2": "73872",
        "col3": "31 July 2016 (JD2457600.5)"
    },
    {
        "col0": "7 Iris",
        "col1": "6",
        "col2": "25703",
        "col3": "November 26, 2005 (JD2453700.5)"
    },
    {
        "col0": "7968 Elst-Pizarro",
        "col1": "17",
        "col2": "12495",
        "col3": "13 January 2016 (JD2457400.5)"
    },
    {
        "col0": "79360 Sila-Nunam",
        "col1": "21",
        "col2": "1080864",
        "col3": "13 January 2016 (JD2457400.5)"
    },
    {
        "col0": "792 Metcalfia",
        "col1": "10",
        "col2": "33012",
        "col3": "31 July 2016 (JD2457600.5)"
    },
    {
        "col0": "762 Pulcova",
        "col1": "11",
        "col2": "21020",
        "col3": "31 July 2016 (JD2457600.5)"
    },
    {
        "col0": "757 Portlandia",
        "col1": "12",
        "col2": "23701",
        "col3": "31 July 2016 (JD2457600.5)"
    },
    {
        "col0": "704 Interamnia",
        "col1": "9",
        "col2": "31417",
        "col3": "31 July 2016 (JD2457600.5)"
    },
    {
        "col0": "702 Alauda",
        "col1": "11",
        "col2": "30071",
        "col3": "31 July 2016 (JD2457600.5)"
    },
    {
        "col0": "6 Hebe",
        "col1": "7",
        "col2": "26187",
        "col3": "November 26, 2005 (JD2453700.5)"
    },
    {
        "col0": "68 Leto",
        "col1": "9",
        "col2": "53452",
        "col3": "31 July 2016 (JD2457600.5)"
    },
    {
        "col0": "65 Cybele",
        "col1": "10",
        "col2": "14547",
        "col3": "December 31, 2006 (JD2454100.5)"
    },
    {
        "col0": "624 Hektor",
        "col1": "13",
        "col2": "24917",
        "col3": "22 October 2004 (JD2453300.5)"
    },
    {
        "col0": "5 Astraea",
        "col1": "8",
        "col2": "60482",
        "col3": "December 9, 2014 (JD2457000.5)"
    },
    {
        "col0": "596 Scheila",
        "col1": "11",
        "col2": "57052",
        "col3": "31 July 2016 (JD2457600.5)"
    },
    {
        "col0": "5335 Damocles",
        "col1": "26",
        "col2": "36720",
        "col3": "13 January 2016 (JD2457400.5)"
    },
    {
        "col0": "532 Herculina",
        "col1": "8",
        "col2": "33858",
        "col3": "31 July 2016 (JD2457600.5)"
    },
    {
        "col0": "5144 Achates",
        "col1": "14",
        "col2": "21448",
        "col3": "13 January 2016 (JD2457400.5)"
    },
    {
        "col0": "511 Davida",
        "col1": "9",
        "col2": "18465",
        "col3": "August 27, 2011 (JD2455800.5)"
    },
    {
        "col0": "501 Urhixidur",
        "col1": "12",
        "col2": "47427",
        "col3": "31 July 2016 (JD2457600.5)"
    },
    {
        "col0": "50000 Quaoar",
        "col1": "19",
        "col2": "63643",
        "col3": "13 January 2016 (JD2457400.5)"
    },
    {
        "col0": "4 Vesta",
        "col1": "5",
        "col2": "19231",
        "col3": "2014-Dec-09 (JD2457000.5)"
    },
    {
        "col0": "493 Griseldis",
        "col1": "14",
        "col2": "186984",
        "col3": "31 July 2016 (JD2457600.5)"
    },
    {
        "col0": "471 Papagena",
        "col1": "9",
        "col2": "25606",
        "col3": "31 July 2016 (JD2457600.5)"
    },
    {
        "col0": "44 Nysa",
        "col1": "8",
        "col2": "0",
        "col3": "2008-05-14 (JD 2454600.5)"
    },
    {
        "col0": "43 Ariadne",
        "col1": "8",
        "col2": "20744",
        "col3": "November 26, 2005 (JD2453700.5)"
    },
    {
        "col0": "4179 Toutatis",
        "col1": "8",
        "col2": "633600",
        "col3": "13 January 2016 (JD2457400.5)"
    },
    {
        "col0": "40 Harmonia",
        "col1": "9",
        "col2": "32072",
        "col3": "December 31, 2006 (JD2454100.5)"
    },
    {
        "col0": "3 Juno",
        "col1": "7",
        "col2": "51910",
        "col3": "JD2457000.5 (9 December 2014)"
    },
    {
        "col0": "39 Laetitia",
        "col1": "8",
        "col2": "18498",
        "col3": "December 31, 2006 (JD2454100.5)"
    },
    {
        "col0": "38628 Huya",
        "col1": "19",
        "col2": "19008",
        "col3": "13 January 2016 (JD2457400.5)"
    },
    {
        "col0": "367943 Duende",
        "col1": "7",
        "col2": "32400",
        "col3": "(Uncertainty=0)"
    },
    {
        "col0": "3552 Don Quixote",
        "col1": "11",
        "col2": "27720",
        "col3": "13 January 2016 (JD2457400.5)"
    },
    {
        "col0": "323 Brucia",
        "col1": "11",
        "col2": "34066",
        "col3": "31 July 2016 (JD2457600.5)"
    }
]