[
    {
        "col0": "M. Natsume",
        "col1": "Tokyo",
        "col2": "http://dbpedia.org/resource/Leukemia",
        "col3": "1957-12-17"
    },
    {
        "col0": "M. Pera",
        "col1": "Rio de Janeiro",
        "col2": "http://dbpedia.org/resource/Lung_cancer",
        "col3": "1943-01-22"
    },
    {
        "col0": "M. Pickford",
        "col1": "Toronto",
        "col2": "http://dbpedia.org/resource/Cerebral_hemorrhage",
        "col3": "1892-04-08"
    },
    {
        "col0": "M. Nolan",
        "col1": "Louisville, Kentucky",
        "col2": "http://dbpedia.org/resource/Barbiturate_overdose",
        "col3": "1902-12-18"
    },
    {
        "col0": "M. Murphy",
        "col1": "Washington, D.C.",
        "col2": "http://dbpedia.org/resource/Cardiovascular_disease",
        "col3": "1931-01-26"
    },
    {
        "col0": "M. Millar",
        "col1": "West Riding of Yorkshire",
        "col2": "http://dbpedia.org/resource/Ovarian_cancer",
        "col3": "1936-07-26"
    },
    {
        "col0": "M. M. Minter",
        "col1": "Shreveport, Louisiana",
        "col2": "http://dbpedia.org/resource/Stroke",
        "col3": "1902-04-25"
    },
    {
        "col0": "M. Martin",
        "col1": "Texas",
        "col2": "http://dbpedia.org/resource/Colorectal_cancer",
        "col3": "1913-12-01"
    },
    {
        "col0": "M. Livingstone",
        "col1": "Seattle",
        "col2": "http://dbpedia.org/resource/Cardiovascular_disease",
        "col3": "1905-06-25"
    },
    {
        "col0": "M. Kornman",
        "col1": "Idaho Falls, Idaho",
        "col2": "http://dbpedia.org/resource/Cancer",
        "col3": "1915-12-27"
    },
    {
        "col0": "M. G. Canfield",
        "col1": "Rochester, New York",
        "col2": "http://dbpedia.org/resource/Lung_cancer",
        "col3": "1924-09-03"
    },
    {
        "col0": "M. Frann",
        "col1": "St. Louis, Missouri",
        "col2": "http://dbpedia.org/resource/Myocardial_infarction",
        "col3": "1943-02-27"
    },
    {
        "col0": "M. Fickett",
        "col1": "Buffalo, New York",
        "col2": "http://dbpedia.org/resource/Alzheimer's_disease",
        "col3": "1928-05-23"
    },
    {
        "col0": "M. E. Trainor",
        "col1": "California",
        "col2": "http://dbpedia.org/resource/Pancreatic_cancer",
        "col3": "1952-07-08"
    },
    {
        "col0": "M. Eaton",
        "col1": "Norfolk",
        "col2": "http://dbpedia.org/resource/Cirrhosis_of_the_liver",
        "col3": "1901-01-29"
    },
    {
        "col0": "M. D. Glynne",
        "col1": "Wales",
        "col2": "http://dbpedia.org/resource/Bronchopneumonia",
        "col3": "1895-02-19"
    },
    {
        "col0": "M. Castle",
        "col1": "Pampa, Texas",
        "col2": "http://dbpedia.org/resource/Lung_cancer",
        "col3": "1931-01-22"
    },
    {
        "col0": "M. Astor",
        "col1": "Quincy, Illinois",
        "col2": "http://dbpedia.org/resource/Respiratory_failure",
        "col3": "1906-05-03"
    },
    {
        "col0": "M. A. Mobley",
        "col1": "Mississippi",
        "col2": "http://dbpedia.org/resource/Breast_cancer",
        "col3": "1937-02-17"
    },
    {
        "col0": "M. A. Jackson",
        "col1": "Los Angeles",
        "col2": "http://dbpedia.org/resource/Myocardial_infarction",
        "col3": "1923-01-14"
    },
    {
        "col0": "M. Anderson",
        "col1": "Birmingham, Alabama",
        "col2": "http://dbpedia.org/resource/Natural_causes",
        "col3": "1918-04-03"
    },
    {
        "col0": "M. Miller",
        "col1": "St. Louis, Missouri",
        "col2": "http://dbpedia.org/resource/Heart_attack",
        "col3": "1913-07-18"
    },
    {
        "col0": "M. Ingels",
        "col1": "Brooklyn",
        "col2": "http://dbpedia.org/resource/Stroke",
        "col3": "1936-03-09"
    },
    {
        "col0": "M. Ritt",
        "col1": "New York City",
        "col2": "http://dbpedia.org/resource/Heart_disease",
        "col3": "1914-03-02"
    },
    {
        "col0": "M. Milner",
        "col1": "Detroit",
        "col2": "http://dbpedia.org/resource/Heart_failure",
        "col3": "1931-12-28"
    },
    {
        "col0": "M. Balsam",
        "col1": "New York",
        "col2": "http://dbpedia.org/resource/Stroke",
        "col3": "1914-11-4"
    },
    {
        "col0": "M. Vickers",
        "col1": "Ann Arbor, Michigan",
        "col2": "http://dbpedia.org/resource/Esophageal_cancer",
        "col3": "1925-05-28"
    },
    {
        "col0": "M. Sleeper",
        "col1": "Lake Bluff, Illinois",
        "col2": "http://dbpedia.org/resource/Heart_attack",
        "col3": "1910-06-24"
    },
    {
        "col0": "M. Raye",
        "col1": "Butte, Montana",
        "col2": "http://dbpedia.org/resource/Cardiovascular_disease",
        "col3": "1916-08-27"
    },
    {
        "col0": "M. Mansfield",
        "col1": "New York",
        "col2": "http://dbpedia.org/resource/Bacteremia",
        "col3": "1899-07-14"
    },
    {
        "col0": "M. Thompson",
        "col1": "Peoria, Illinois",
        "col2": "http://dbpedia.org/resource/Congestive_heart_failure",
        "col3": "1925-11-27"
    },
    {
        "col0": "M. Brando",
        "col1": "Nebraska",
        "col2": "http://dbpedia.org/resource/Respiratory_failure",
        "col3": "1924-04-03"
    },
    {
        "col0": "M. Venturini",
        "col1": "Illinois",
        "col2": "http://dbpedia.org/resource/Leukemia",
        "col3": "1961-01-10"
    },
    {
        "col0": "M. Speight",
        "col1": "Seisdon",
        "col2": "http://dbpedia.org/resource/Suicide_by_hanging",
        "col3": "1965-08-06"
    },
    {
        "col0": "M. McManus",
        "col1": "Scotland",
        "col2": "http://dbpedia.org/resource/Pneumonia",
        "col3": "1935-02-21"
    },
    {
        "col0": "M. Lenard",
        "col1": "Chicago",
        "col2": "http://dbpedia.org/resource/Multiple_myeloma",
        "col3": "1924-10-15"
    },
    {
        "col0": "M. Corbett",
        "col1": "London",
        "col2": "http://dbpedia.org/resource/Gastric_ulcer",
        "col3": "1912-05-12"
    },
    {
        "col0": "M. Goring",
        "col1": "England",
        "col2": "http://dbpedia.org/resource/Cancer",
        "col3": "1912-05-23"
    },
    {
        "col0": "M. Mack",
        "col1": "Mammoth, Utah",
        "col2": "http://dbpedia.org/resource/Heart_failure",
        "col3": "1902-04-08"
    },
    {
        "col0": "M. Hutton",
        "col1": "Battle Creek, Michigan",
        "col2": "http://dbpedia.org/resource/Cancer",
        "col3": "1919-03-10"
    },
    {
        "col0": "M. Davies",
        "col1": "Brooklyn",
        "col2": "http://dbpedia.org/resource/Stomach_cancer",
        "col3": "1897-01-03"
    },
    {
        "col0": "M. Montenegro",
        "col1": "Insular Government of the Philippine Islands",
        "col2": "http://dbpedia.org/resource/Heart_failure",
        "col3": "1928-07-25"
    },
    {
        "col0": "M. Monroe",
        "col1": "Los Angeles",
        "col2": "http://dbpedia.org/resource/Barbiturate_overdose",
        "col3": "1926-06-01"
    },
    {
        "col0": "M. Maxwell",
        "col1": "Clarinda, Iowa",
        "col2": "http://dbpedia.org/resource/Heart_attack",
        "col3": "1921-08-03"
    },
    {
        "col0": "M. Prevost",
        "col1": "Canada",
        "col2": "http://dbpedia.org/resource/Alcoholism",
        "col3": "1896-11-08"
    },
    {
        "col0": "M. Eline",
        "col1": "Milwaukee",
        "col2": "http://dbpedia.org/resource/Myocardial_infarction",
        "col3": "1902-02-27"
    },
    {
        "col0": "M. Curie",
        "col1": "Russian Empire",
        "col2": "http://dbpedia.org/resource/Aplastic_anemia",
        "col3": "1867-11-07"
    },
    {
        "col0": "M. Pascal",
        "col1": "Cambrai",
        "col2": "http://dbpedia.org/resource/Suicide",
        "col3": "1946-10-02"
    },
    {
        "col0": "M. Montez",
        "col1": "Dominican Republic",
        "col2": "http://dbpedia.org/resource/Drowning",
        "col3": "1912-06-06"
    },
    {
        "col0": "Maria Assumpcio Catala i Poch",
        "col1": "Barcelona",
        "col2": "http://dbpedia.org/resource/Natural_Causes",
        "col3": "1925-07-14"
    },
    {
        "col0": "M. Clark",
        "col1": "Ohio",
        "col2": "http://dbpedia.org/resource/Pneumonia",
        "col3": "1883-02-22"
    },
    {
        "col0": "M. Wright",
        "col1": "New York City",
        "col2": "http://dbpedia.org/resource/Heart_Failure",
        "col3": "1917-01-11"
    },
    {
        "col0": "M. Sullavan",
        "col1": "Norfolk, Virginia",
        "col2": "http://dbpedia.org/resource/Barbiturate_overdose",
        "col3": "1909-05-16"
    },
    {
        "col0": "M. Lindsay",
        "col1": "Dubuque, Iowa",
        "col2": "http://dbpedia.org/resource/Emphysema",
        "col3": "1910-09-19"
    },
    {
        "col0": "M. Leighton",
        "col1": "England",
        "col2": "http://dbpedia.org/resource/Multiple_sclerosis",
        "col3": "1922-02-26"
    },
    {
        "col0": "M. Hayes",
        "col1": "Baltimore",
        "col2": "http://dbpedia.org/resource/Hepatitis",
        "col3": "1916-12-05"
    },
    {
        "col0": "M. Hamilton",
        "col1": "Cleveland",
        "col2": "http://dbpedia.org/resource/Myocardial_infarction",
        "col3": "1902-12-09"
    },
    {
        "col0": "M. Gibson",
        "col1": "Colorado Springs, Colorado",
        "col2": "http://dbpedia.org/resource/Heart_attack",
        "col3": "1894-09-14"
    },
    {
        "col0": "M. Field",
        "col1": "Houston",
        "col2": "http://dbpedia.org/resource/Cancer",
        "col3": "1922-05-10"
    },
    {
        "col0": "M. Wallace",
        "col1": "Creston, Iowa",
        "col2": "http://dbpedia.org/resource/Breast_cancer",
        "col3": "1942-11-01"
    },
    {
        "col0": "M. Strassman",
        "col1": "New York City",
        "col2": "http://dbpedia.org/resource/Breast_cancer",
        "col3": "1948-04-28"
    },
    {
        "col0": "M. M. Jones",
        "col1": "Los Angeles",
        "col2": "http://dbpedia.org/resource/Pneumonia",
        "col3": "1924-08-01"
    },
    {
        "col0": "M. Bozzuffi",
        "col1": "French Third Republic",
        "col2": "http://dbpedia.org/resource/Stroke",
        "col3": "1928-10-28"
    },
    {
        "col0": "M. Aryan",
        "col1": "France",
        "col2": "http://dbpedia.org/resource/Cardiac_arrest",
        "col3": "1926-09-14"
    },
    {
        "col0": "M. Pera",
        "col1": "Rio de Janeiro",
        "col2": "http://dbpedia.org/resource/Lung_cancer",
        "col3": "1943-01-22"
    },
    {
        "col0": "M. Summers",
        "col1": "Huelva",
        "col2": "http://dbpedia.org/resource/Colorectal_cancer",
        "col3": "1935-03-26"
    },
    {
        "col0": "Manorama",
        "col1": "British India",
        "col2": "http://dbpedia.org/resource/Multiple_organ_failure",
        "col3": "1937-0-0"
    },
    {
        "col0": "M. Escobar",
        "col1": "Spain",
        "col2": "http://dbpedia.org/resource/Colon_Cancer",
        "col3": "1931-10-19"
    },
    {
        "col0": "M. d. Oliveira",
        "col1": "Kingdom of Portugal",
        "col2": "http://dbpedia.org/resource/Congestive_heart_failure",
        "col3": "1908-12-11"
    },
    {
        "col0": "Mandoza",
        "col1": "South Africa",
        "col2": "http://dbpedia.org/resource/Head_and_neck_cancer",
        "col3": "1978-01-17"
    },
    {
        "col0": "M. Throne",
        "col1": "New York City",
        "col2": "http://dbpedia.org/resource/Lung_cancer",
        "col3": "1928-12-01"
    },
    {
        "col0": "M. Powers",
        "col1": "San Francisco",
        "col2": "http://dbpedia.org/resource/Leukemia",
        "col3": "1931-12-20"
    },
    {
        "col0": "M. Fujita",
        "col1": "Japan",
        "col2": "http://dbpedia.org/resource/Aortic_aneurysm",
        "col3": "1933-04-13"
    },
    {
        "col0": "M. Iwamatsu",
        "col1": "Kobe",
        "col2": "http://dbpedia.org/resource/Esophageal_cancer",
        "col3": "1933-12-10"
    },
    {
        "col0": "M. Barrett",
        "col1": "Cleveland",
        "col2": "http://dbpedia.org/resource/Leukemia",
        "col3": "1932-02-23"
    },
    {
        "col0": "M. Norman",
        "col1": "Georgia",
        "col2": "http://dbpedia.org/resource/Lung_cancer",
        "col3": "1912-10-16"
    },
    {
        "col0": "M. McNamara",
        "col1": "New York",
        "col2": "http://dbpedia.org/resource/Suicide",
        "col3": "1928-06-18"
    },
    {
        "col0": "M. Questel",
        "col1": "New York City",
        "col2": "http://dbpedia.org/resource/Alzheimer's_Disease",
        "col3": "1908-09-13"
    },
    {
        "col0": "M. Busch",
        "col1": "Melbourne",
        "col2": "http://dbpedia.org/resource/Colon_cancer",
        "col3": "1891-06-18"
    },
    {
        "col0": "M. Maurin",
        "col1": "France",
        "col2": "http://dbpedia.org/resource/Death_by_natural_causes",
        "col3": "1915-09-24"
    },
    {
        "col0": "M. Rhue",
        "col1": "Washington, D.C.",
        "col2": "http://dbpedia.org/resource/Pneumonia",
        "col3": "1935-10-03"
    },
    {
        "col0": "M. Sinclair",
        "col1": "Kingston, Jamaica",
        "col2": "http://dbpedia.org/resource/Leukemia",
        "col3": "1938-04-28"
    },
    {
        "col0": "M. Blake",
        "col1": "Kansas",
        "col2": "http://dbpedia.org/resource/Myocardial_infarction",
        "col3": "1899-05-31"
    },
    {
        "col0": "M. Bellamy",
        "col1": "Hillsboro, Texas",
        "col2": "http://dbpedia.org/resource/Heart_failure",
        "col3": "1899-06-30"
    },
    {
        "col0": "M. Kahn",
        "col1": "Boston",
        "col2": "http://dbpedia.org/resource/Ovarian_cancer",
        "col3": "1942-09-29"
    },
    {
        "col0": "M. Blaustein",
        "col1": "Long Island",
        "col2": "http://dbpedia.org/resource/Acute_(medicine)",
        "col3": "1960-10-09"
    },
    {
        "col0": "M. Mohan",
        "col1": "Baghdad",
        "col2": "http://dbpedia.org/resource/Cirrhosis",
        "col3": "1924-06-25"
    },
    {
        "col0": "M. V. Buren",
        "col1": "Chicago",
        "col2": "http://dbpedia.org/resource/Pneumonia",
        "col3": "1878-07-17"
    },
    {
        "col0": "M. Normand",
        "col1": "Staten Island",
        "col2": "http://dbpedia.org/resource/Tuberculosis",
        "col3": "1892-11-09"
    },
    {
        "col0": "M. S. Viswanathan",
        "col1": "British India",
        "col2": "http://dbpedia.org/resource/Kidney_cancer",
        "col3": "1928-06-24"
    },
    {
        "col0": "M. Kenter",
        "col1": "Constantinople",
        "col2": "http://dbpedia.org/resource/Lung_cancer",
        "col3": "1932-09-09"
    },
    {
        "col0": "L. Orlova",
        "col1": "Russia",
        "col2": "http://dbpedia.org/resource/Pancreatic_Cancer",
        "col3": "1902-01-29"
    },
    {
        "col0": "L. Thigpen",
        "col1": "United States",
        "col2": "http://dbpedia.org/resource/Cerebral_hemorrhage",
        "col3": "1948-12-22"
    },
    {
        "col0": "L. Carver",
        "col1": "Birmingham, Alabama",
        "col2": "http://dbpedia.org/resource/Cancer",
        "col3": "1916-09-13"
    },
    {
        "col0": "L. Redgrave",
        "col1": "Marylebone",
        "col2": "http://dbpedia.org/resource/Breast_cancer",
        "col3": "1943-03-08"
    },
    {
        "col0": "L. Bari",
        "col1": "Roanoke, Virginia",
        "col2": "http://dbpedia.org/resource/Heart_attack",
        "col3": "1913-12-18"
    },
    {
        "col0": "L. Bellingham",
        "col1": "Montreal",
        "col2": "http://dbpedia.org/resource/Colorectal_cancer",
        "col3": "1948-05-31"
    },
    {
        "col0": "L. Talbot",
        "col1": "Pittsburgh",
        "col2": "http://dbpedia.org/resource/Congestive_heart_failure",
        "col3": "1902-02-08"
    },
    {
        "col0": "L. Tuttle",
        "col1": "Indiana",
        "col2": "http://dbpedia.org/resource/Cancer",
        "col3": "1907-08-29"
    },
    {
        "col0": "L. Velez",
        "col1": "Mexico",
        "col2": "http://dbpedia.org/resource/Suicide_methods",
        "col3": "1908-07-18"
    },
    {
        "col0": "L. Ontiveros",
        "col1": "El Paso, Texas",
        "col2": "http://dbpedia.org/resource/Liver_cancer",
        "col3": "1942-09-17"
    },
    {
        "col0": "L. Askew",
        "col1": "Macon, Georgia",
        "col2": "http://dbpedia.org/resource/Lung_cancer",
        "col3": "1932-03-26"
    },
    {
        "col0": "L. Rainer",
        "col1": "Dusseldorf",
        "col2": "http://dbpedia.org/resource/Pneumonia",
        "col3": "1910-01-12"
    },
    {
        "col0": "L. Donath",
        "col1": "Vienna",
        "col2": "http://dbpedia.org/resource/Leukemia",
        "col3": "1900-03-06"
    },
    {
        "col0": "L. Gordon",
        "col1": "Oxford",
        "col2": "http://dbpedia.org/resource/Suicide_by_hanging",
        "col3": "1980-05-22"
    },
    {
        "col0": "L. Ricksen",
        "col1": "Chicago",
        "col2": "http://dbpedia.org/resource/Tuberculosis",
        "col3": "1910-08-22"
    },
    {
        "col0": "L. L. Verne",
        "col1": "Nashville, Tennessee",
        "col2": "http://dbpedia.org/resource/Cancer",
        "col3": "1872-11-07"
    },
    {
        "col0": "L. Bliss",
        "col1": "New York City",
        "col2": "http://dbpedia.org/resource/Natural_causes",
        "col3": "1916-03-31"
    },
    {
        "col0": "L. Benson",
        "col1": "Alabama",
        "col2": "http://dbpedia.org/resource/Cancer",
        "col3": "1914-07-17"
    },
    {
        "col0": "L. Ball",
        "col1": "Jamestown, New York",
        "col2": "http://dbpedia.org/resource/Dissecting_aortic_aneurysm",
        "col3": "1911-08-06"
    },
    {
        "col0": "L. Salce",
        "col1": "Kingdom of Italy",
        "col2": "http://dbpedia.org/resource/Heart_attack",
        "col3": "1922-09-25"
    },
    {
        "col0": "L. Patten",
        "col1": "Long Beach, California",
        "col2": "http://dbpedia.org/resource/Respiratory_failure",
        "col3": "1938-07-06"
    },
    {
        "col0": "L. Anders",
        "col1": "New York",
        "col2": "http://dbpedia.org/resource/Breast_cancer",
        "col3": "1938-05-12"
    },
    {
        "col0": "L. Sherman",
        "col1": "California",
        "col2": "http://dbpedia.org/resource/Pneumonia",
        "col3": "1885-10-11"
    },
    {
        "col0": "L. Brooks",
        "col1": "Cherryvale, Kansas",
        "col2": "http://dbpedia.org/resource/Myocardial_infarction",
        "col3": "1906-11-14"
    },
    {
        "col0": "L. Beavers",
        "col1": "Cincinnati",
        "col2": "http://dbpedia.org/resource/Heart_attack",
        "col3": "1902-03-08"
    },
    {
        "col0": "L. J. Heydt",
        "col1": "New Jersey",
        "col2": "http://dbpedia.org/resource/Myocardial_infarction",
        "col3": "1903-04-17"
    },
    {
        "col0": "L. Edmonds",
        "col1": "Baton Rouge, Louisiana",
        "col2": "http://dbpedia.org/resource/Respiratory_failure",
        "col3": "1923-09-24"
    },
    {
        "col0": "L. Armstrong",
        "col1": "Louisiana",
        "col2": "http://dbpedia.org/resource/Heart_attack",
        "col3": "1901-08-04"
    },
    {
        "col0": "L. Beltran",
        "col1": "Manila",
        "col2": "http://dbpedia.org/resource/Heart_attack",
        "col3": "1936-04-04"
    },
    {
        "col0": "L. Tellegen",
        "col1": "Netherlands",
        "col2": "http://dbpedia.org/resource/Suicide",
        "col3": "1881-11-26"
    },
    {
        "col0": "L. Gish",
        "col1": "London",
        "col2": "http://dbpedia.org/resource/Cancer",
        "col3": "1967-05-27"
    },
    {
        "col0": "L. Costello",
        "col1": "Paterson, New Jersey",
        "col2": "http://dbpedia.org/resource/Myocardial_infarction",
        "col3": "1906-03-06"
    },
    {
        "col0": "L. Pickford",
        "col1": "Ontario",
        "col2": "http://dbpedia.org/resource/Myocardial_infarction",
        "col3": "1893-06-09"
    },
    {
        "col0": "L. Geller",
        "col1": "Oregon",
        "col2": "http://dbpedia.org/resource/Heart_failure",
        "col3": "1928-09-11"
    },
    {
        "col0": "L. Greene",
        "col1": "Ontario",
        "col2": "http://dbpedia.org/resource/Pneumonia",
        "col3": "1915-02-12"
    },
    {
        "col0": "L. Music",
        "col1": "Brooklyn",
        "col2": "http://dbpedia.org/resource/Osteosarcoma",
        "col3": "1937-05-02"
    },
    {
        "col0": "L. McCallister",
        "col1": "Los Angeles",
        "col2": "http://dbpedia.org/resource/Congestive_heart_failure",
        "col3": "1923-04-17"
    },
    {
        "col0": "L. C. Jr.",
        "col1": "Oklahoma City",
        "col2": "http://dbpedia.org/resource/Heart_failure",
        "col3": "1906-02-10"
    },
    {
        "col0": "L. Chaney",
        "col1": "Colorado Springs, Colorado",
        "col2": "http://dbpedia.org/resource/Hemorrhaging",
        "col3": "1883-04-01"
    },
    {
        "col0": "L. Wilson",
        "col1": "Pittsburgh",
        "col2": "http://dbpedia.org/resource/Pneumonia",
        "col3": "1894-06-28"
    },
    {
        "col0": "L. Nettleton",
        "col1": "Oak Park, Illinois",
        "col2": "http://dbpedia.org/resource/Lung_cancer",
        "col3": "1927-08-16"
    },
    {
        "col0": "L. Maxwell",
        "col1": "Ontario",
        "col2": "http://dbpedia.org/resource/Bowel_cancer",
        "col3": "1927-02-14"
    },
    {
        "col0": "L. January",
        "col1": "McAllen, Texas",
        "col2": "http://dbpedia.org/resource/Alzheimer's_disease",
        "col3": "1913-10-05"
    },
    {
        "col0": "L. Nolan",
        "col1": "San Francisco",
        "col2": "http://dbpedia.org/resource/Lung_cancer",
        "col3": "1902-08-11"
    },
    {
        "col0": "L. M. Kozloff",
        "col1": "Chicago, Illinois",
        "col2": "http://dbpedia.org/resource/Heart_failure",
        "col3": "1923-0-0"
    },
    {
        "col0": "L. Bochner",
        "col1": "Canada",
        "col2": "http://dbpedia.org/resource/Cancer",
        "col3": "1924-07-29"
    },
    {
        "col0": "L. Bacon",
        "col1": "San Jose, California",
        "col2": "http://dbpedia.org/resource/Cerebral_hemorrhage",
        "col3": "1889-12-04"
    },
    {
        "col0": "L. Scott",
        "col1": "Scranton, Pennsylvania",
        "col2": "http://dbpedia.org/resource/Congestive_heart_failure",
        "col3": "1922-09-29"
    },
    {
        "col0": "L. Grey",
        "col1": "California",
        "col2": "http://dbpedia.org/resource/Cancer",
        "col3": "1908-04-15"
    },
    {
        "col0": "L. Blount",
        "col1": "Fayetteville, Arkansas",
        "col2": "http://dbpedia.org/resource/Idiopathic_thrombocytopenic_purpura",
        "col3": "1957-07-01"
    },
    {
        "col0": "L. G. Wilson",
        "col1": "New York",
        "col2": "http://dbpedia.org/resource/Pneumonia",
        "col3": "1924-03-22"
    },
    {
        "col0": "L. Griffiths",
        "col1": "Canada",
        "col2": "http://dbpedia.org/resource/Breast_cancer",
        "col3": "1953-10-07"
    },
    {
        "col0": "L. Gary",
        "col1": "California",
        "col2": "http://dbpedia.org/resource/Brain_Cancer",
        "col3": "1944-11-04"
    },
    {
        "col0": "L. Christian",
        "col1": "Mexico",
        "col2": "http://dbpedia.org/resource/Colon_cancer",
        "col3": "1923-11-13"
    },
    {
        "col0": "L. Basquette",
        "col1": "San Mateo, California",
        "col2": "http://dbpedia.org/resource/Lymphoma",
        "col3": "1907-04-19"
    },
    {
        "col0": "L. Pons",
        "col1": "Draguignan",
        "col2": "http://dbpedia.org/resource/Pancreatic_cancer",
        "col3": "1898-04-12"
    },
    {
        "col0": "L. Randolph",
        "col1": "Knoxville, Tennessee",
        "col2": "http://dbpedia.org/resource/Cancer",
        "col3": "1898-12-14"
    },
    {
        "col0": "L. Gish",
        "col1": "Springfield, Ohio",
        "col2": "http://dbpedia.org/resource/Heart_failure",
        "col3": "1893-10-14"
    },
    {
        "col0": "L. Palmer",
        "col1": "Poznan",
        "col2": "http://dbpedia.org/resource/Cancer",
        "col3": "1914-05-24"
    },
    {
        "col0": "L. Lamarque",
        "col1": "Argentina",
        "col2": "http://dbpedia.org/resource/Heart_attack",
        "col3": "1908-11-24"
    },
    {
        "col0": "L. Goudsmit",
        "col1": "Belgium",
        "col2": "http://dbpedia.org/resource/Cardiovascular",
        "col3": "1913-03-15"
    },
    {
        "col0": "L. Barker",
        "col1": "New York",
        "col2": "http://dbpedia.org/resource/Heart_attack",
        "col3": "1919-05-08"
    },
    {
        "col0": "L. Thomas",
        "col1": "Flushing, Queens",
        "col2": "http://dbpedia.org/resource/Waldenstrom's_disease",
        "col3": "1913-11-25"
    },
    {
        "col0": "L. Collins",
        "col1": "Cheshire",
        "col2": "http://dbpedia.org/resource/Cancer",
        "col3": "1946-05-27"
    },
    {
        "col0": "L. Cody",
        "col1": "Berlin, New Hampshire",
        "col2": "http://dbpedia.org/resource/Myocardial_infarction",
        "col3": "1884-02-22"
    },
    {
        "col0": "L. Nielsen",
        "col1": "Regina, Saskatchewan",
        "col2": "http://dbpedia.org/resource/Pneumonia",
        "col3": "1926-02-11"
    },
    {
        "col0": "L. Crowther",
        "col1": "England",
        "col2": "http://dbpedia.org/resource/Heart_failure",
        "col3": "1933-02-06"
    },
    {
        "col0": "L. Carlson",
        "col1": "Mitchell, South Dakota",
        "col2": "http://dbpedia.org/resource/Cancer",
        "col3": "1933-02-24"
    },
    {
        "col0": "L. Gore",
        "col1": "Brooklyn",
        "col2": "http://dbpedia.org/resource/Lung_cancer",
        "col3": "1946-05-02"
    },
    {
        "col0": "L. Stokowski",
        "col1": "England",
        "col2": "http://dbpedia.org/resource/Heart_attack",
        "col3": "1882-04-18"
    },
    {
        "col0": "L. Cimino",
        "col1": "New York City",
        "col2": "http://dbpedia.org/resource/Chronic_obstructive_pulmonary_disease",
        "col3": "1917-11-04"
    },
    {
        "col0": "L. Stone",
        "col1": "Salem, Oregon",
        "col2": "http://dbpedia.org/resource/Cancer",
        "col3": "1923-11-03"
    },
    {
        "col0": "L. Nimoy",
        "col1": "Boston",
        "col2": "http://dbpedia.org/resource/Chronic_obstructive_pulmonary_disease",
        "col3": "1931-03-26"
    },
    {
        "col0": "L. Kibrick",
        "col1": "Minneapolis",
        "col2": "http://dbpedia.org/resource/Cancer",
        "col3": "1924-09-06"
    },
    {
        "col0": "L. Jackson",
        "col1": "Jacksonville, Florida",
        "col2": "http://dbpedia.org/resource/Alzheimer's_disease",
        "col3": "1928-02-07"
    },
    {
        "col0": "L. Penn",
        "col1": "Massachusetts",
        "col2": "http://dbpedia.org/resource/Lung_cancer",
        "col3": "1921-08-27"
    },
    {
        "col0": "L. McKern",
        "col1": "Australia",
        "col2": "http://dbpedia.org/resource/Diabetes_mellitus",
        "col3": "1920-03-16"
    },
    {
        "col0": "L. Gorcey",
        "col1": "New York City",
        "col2": "http://dbpedia.org/resource/Liver_failure",
        "col3": "1917-06-03"
    },
    {
        "col0": "L. G. Carroll",
        "col1": "England",
        "col2": "http://dbpedia.org/resource/Cancer",
        "col3": "1886-10-25"
    },
    {
        "col0": "L. Weinrib",
        "col1": "New York",
        "col2": "http://dbpedia.org/resource/Stroke",
        "col3": "1935-04-29"
    },
    {
        "col0": "L. Horne",
        "col1": "New York",
        "col2": "http://dbpedia.org/resource/Congestive_Heart_Failure",
        "col3": "1917-06-30"
    },
    {
        "col0": "L. Lesser",
        "col1": "York City F.C.",
        "col2": "http://dbpedia.org/resource/Cancer",
        "col3": "1922-12-03"
    },
    {
        "col0": "L. Carlson",
        "col1": "Alberta",
        "col2": "http://dbpedia.org/resource/Myocardial_infarction",
        "col3": "1937-09-02"
    },
    {
        "col0": "L. V. Cleef",
        "col1": "Somerville, New Jersey",
        "col2": "http://dbpedia.org/resource/Myocardial_infarction",
        "col3": "1925-01-09"
    },
    {
        "col0": "L. Strasberg",
        "col1": "Austrian Poland",
        "col2": "http://dbpedia.org/resource/Myocardial_infarction",
        "col3": "1901-11-17"
    },
    {
        "col0": "L. Remick",
        "col1": "Quincy, Massachusetts",
        "col2": "http://dbpedia.org/resource/Hepatocellular_carcinoma",
        "col3": "1935-12-14"
    },
    {
        "col0": "L. Philips",
        "col1": "New York City",
        "col2": "http://dbpedia.org/resource/Progressive_supranuclear_palsy",
        "col3": "1927-01-10"
    },
    {
        "col0": "L. Patterson",
        "col1": "British Columbia",
        "col2": "http://dbpedia.org/resource/Congestive_heart_failure",
        "col3": "1929-03-31"
    },
    {
        "col0": "L. Marvin",
        "col1": "New York",
        "col2": "http://dbpedia.org/resource/Myocardial_infarction",
        "col3": "1924-02-19"
    },
    {
        "col0": "L. J. Cobb",
        "col1": "New York City",
        "col2": "http://dbpedia.org/resource/Heart_attack",
        "col3": "1911-12-08"
    },
    {
        "col0": "L. H. Oswald",
        "col1": "Louisiana",
        "col2": "http://dbpedia.org/resource/Gunshot_wound",
        "col3": "1939-10-18"
    },
    {
        "col0": "L. Bowman",
        "col1": "Cincinnati",
        "col2": "http://dbpedia.org/resource/Myocardial_infarction",
        "col3": "1914-12-28"
    },
    {
        "col0": "L. Joy",
        "col1": "Louisiana",
        "col2": "http://dbpedia.org/resource/Anemia",
        "col3": "1893-11-07"
    },
    {
        "col0": "L. Mason",
        "col1": "Larimore, North Dakota",
        "col2": "http://dbpedia.org/resource/Myocardial_infarction",
        "col3": "1903-07-02"
    },
    {
        "col0": "L. Welk",
        "col1": "North Dakota",
        "col2": "http://dbpedia.org/resource/Bronchopneumonia",
        "col3": "1903-03-11"
    },
    {
        "col0": "L. Dobkin",
        "col1": "New York",
        "col2": "http://dbpedia.org/resource/Cardiovascular_disease",
        "col3": "1919-09-16"
    },
    {
        "col0": "L. Bartram",
        "col1": "St. Louis, Missouri",
        "col2": "http://dbpedia.org/resource/Pancreatic_cancer",
        "col3": "1958-05-16"
    },
    {
        "col0": "L. Harvey",
        "col1": "Lithuania",
        "col2": "http://dbpedia.org/resource/Stomach_cancer",
        "col3": "1928-10-01"
    },
    {
        "col0": "L. Bacall",
        "col1": "New York",
        "col2": "http://dbpedia.org/resource/Stroke",
        "col3": "1924-09-16"
    },
    {
        "col0": "L. Parks",
        "col1": "Olathe, Kansas",
        "col2": "http://dbpedia.org/resource/Myocardial_infarction",
        "col3": "1914-12-13"
    },
    {
        "col0": "L. Linville",
        "col1": "Ojai, California",
        "col2": "http://dbpedia.org/resource/Pneumonia",
        "col3": "1939-09-29"
    },
    {
        "col0": "L. Keating",
        "col1": "St. Paul, Minnesota",
        "col2": "http://dbpedia.org/resource/Leukemia",
        "col3": "1899-06-13"
    },
    {
        "col0": "L. Hovis",
        "col1": "United States",
        "col2": "http://dbpedia.org/resource/Esophageal_cancer",
        "col3": "1936-02-20"
    },
    {
        "col0": "L. Hagman",
        "col1": "Fort Worth, Texas",
        "col2": "http://dbpedia.org/resource/Leukemia",
        "col3": "1931-09-21"
    },
    {
        "col0": "L. Fine",
        "col1": "Pennsylvania",
        "col2": "http://dbpedia.org/resource/Stroke",
        "col3": "1902-10-05"
    },
    {
        "col0": "L. Drake",
        "col1": "Tulsa, Oklahoma",
        "col2": "http://dbpedia.org/resource/Polycythemia_vera",
        "col3": "1949-02-21"
    },
    {
        "col0": "L. Turner",
        "col1": "Idaho",
        "col2": "http://dbpedia.org/resource/Esophageal_cancer",
        "col3": "1921-02-08"
    },
    {
        "col0": "L. Morris",
        "col1": "England",
        "col2": "http://dbpedia.org/resource/Heart_attack",
        "col3": "1930-03-11"
    }
]