[
    {
        "col0": "Okanagan Falls Provincial Park",
        "col1": "British Columbia",
        "col2": "British Columbia",
        "col3": "British Columbia",
        "col4": "British Columbia"
    },
    {
        "col0": "Octopus Islands Marine Provincial Park",
        "col1": "British Columbia",
        "col2": "British Columbia",
        "col3": "British Columbia",
        "col4": "British Columbia"
    },
    {
        "col0": "Nuntsi Provincial Park",
        "col1": "British Columbia",
        "col2": "British Columbia",
        "col3": "British Columbia",
        "col4": "British Columbia"
    },
    {
        "col0": "Nuchatlitz Provincial Park",
        "col1": "British Columbia",
        "col2": "British Columbia",
        "col3": "British Columbia",
        "col4": "British Columbia"
    },
    {
        "col0": "North Thormanby Island",
        "col1": "British Columbia",
        "col2": "British Columbia",
        "col3": "British Columbia",
        "col4": "British Columbia"
    },
    {
        "col0": "North Thompson River Provincial Park",
        "col1": "British Columbia",
        "col2": "British Columbia",
        "col3": "British Columbia",
        "col4": "British Columbia"
    },
    {
        "col0": "North Thompson Oxbows Manteau Provincial Park",
        "col1": "British Columbia",
        "col2": "British Columbia",
        "col3": "British Columbia",
        "col4": "British Columbia"
    },
    {
        "col0": "North Thompson Oxbows Jensen Island Provincial Park",
        "col1": "British Columbia",
        "col2": "British Columbia",
        "col3": "British Columbia",
        "col4": "British Columbia"
    },
    {
        "col0": "North Thompson Oxbows East Provincial Park",
        "col1": "British Columbia",
        "col2": "British Columbia",
        "col3": "British Columbia",
        "col4": "British Columbia"
    },
    {
        "col0": "North Thompson Islands Provincial Park",
        "col1": "British Columbia",
        "col2": "British Columbia",
        "col3": "British Columbia",
        "col4": "British Columbia"
    },
    {
        "col0": "Nitinat River Provincial Park",
        "col1": "British Columbia",
        "col2": "British Columbia",
        "col3": "British Columbia",
        "col4": "British Columbia"
    },
    {
        "col0": "Niskonlith Lake Provincial Park",
        "col1": "British Columbia",
        "col2": "British Columbia",
        "col3": "British Columbia",
        "col4": "British Columbia"
    },
    {
        "col0": "Ningunsaw Provincial Park",
        "col1": "British Columbia",
        "col2": "British Columbia",
        "col3": "British Columbia",
        "col4": "British Columbia"
    },
    {
        "col0": "Nimpkish Lake Provincial Park",
        "col1": "British Columbia",
        "col2": "British Columbia",
        "col3": "British Columbia",
        "col4": "British Columbia"
    },
    {
        "col0": "Nilkitkwa Lake Provincial Park",
        "col1": "British Columbia",
        "col2": "British Columbia",
        "col3": "British Columbia",
        "col4": "British Columbia"
    },
    {
        "col0": "Nickel Plate Provincial Park",
        "col1": "British Columbia",
        "col2": "British Columbia",
        "col3": "British Columbia",
        "col4": "British Columbia"
    },
    {
        "col0": "Netalzul Meadows Provincial Park",
        "col1": "British Columbia",
        "col2": "British Columbia",
        "col3": "British Columbia",
        "col4": "British Columbia"
    },
    {
        "col0": "Nechako Canyon Protected Area",
        "col1": "British Columbia",
        "col2": "British Columbia",
        "col3": "British Columbia",
        "col4": "British Columbia"
    },
    {
        "col0": "Nazko Lake Provincial Park",
        "col1": "British Columbia",
        "col2": "British Columbia",
        "col3": "British Columbia",
        "col4": "British Columbia"
    },
    {
        "col0": "Nation Lakes Provincial Park",
        "col1": "British Columbia",
        "col2": "British Columbia",
        "col3": "British Columbia",
        "col4": "British Columbia"
    },
    {
        "col0": "Nancy Greene Provincial Park",
        "col1": "British Columbia",
        "col2": "British Columbia",
        "col3": "British Columbia",
        "col4": "British Columbia"
    },
    {
        "col0": "Nalbeelah Creek Wetlands Provincial Park",
        "col1": "British Columbia",
        "col2": "British Columbia",
        "col3": "British Columbia",
        "col4": "British Columbia"
    },
    {
        "col0": "Nahatlatch Provincial Park and Protected Area",
        "col1": "British Columbia",
        "col2": "British Columbia",
        "col3": "British Columbia",
        "col4": "British Columbia"
    },
    {
        "col0": "Musket Island Marine Provincial Park",
        "col1": "British Columbia",
        "col2": "British Columbia",
        "col3": "British Columbia",
        "col4": "British Columbia"
    },
    {
        "col0": "Muscovite Lakes Provincial Park",
        "col1": "British Columbia",
        "col2": "British Columbia",
        "col3": "British Columbia",
        "col4": "British Columbia"
    },
    {
        "col0": "Mudzenchoot Provincial Park",
        "col1": "British Columbia",
        "col2": "British Columbia",
        "col3": "British Columbia",
        "col4": "British Columbia"
    },
    {
        "col0": "Mud Lake Delta Provincial Park",
        "col1": "British Columbia",
        "col2": "British Columbia",
        "col3": "British Columbia",
        "col4": "British Columbia"
    },
    {
        "col0": "Moyie Lake Provincial Park",
        "col1": "British Columbia",
        "col2": "British Columbia",
        "col3": "British Columbia",
        "col4": "British Columbia"
    },
    {
        "col0": "Mountain View Park",
        "col1": "British Columbia",
        "col2": "British Columbia",
        "col3": "British Columbia",
        "col4": "British Columbia"
    },
    {
        "col0": "Mount Terry Fox Provincial Park",
        "col1": "British Columbia",
        "col2": "British Columbia",
        "col3": "British Columbia",
        "col4": "British Columbia"
    },
    {
        "col0": "Mount Savona Provincial Park",
        "col1": "British Columbia",
        "col2": "British Columbia",
        "col3": "British Columbia",
        "col4": "British Columbia"
    },
    {
        "col0": "Mount Richardson Provincial Park",
        "col1": "British Columbia",
        "col2": "British Columbia",
        "col3": "British Columbia",
        "col4": "British Columbia"
    },
    {
        "col0": "Mount Pope Provincial Park",
        "col1": "British Columbia",
        "col2": "British Columbia",
        "col3": "British Columbia",
        "col4": "British Columbia"
    },
    {
        "col0": "Mount Maxwell Provincial Park",
        "col1": "British Columbia",
        "col2": "British Columbia",
        "col3": "British Columbia",
        "col4": "British Columbia"
    },
    {
        "col0": "Mount Griffin Provincial Park",
        "col1": "British Columbia",
        "col2": "British Columbia",
        "col3": "British Columbia",
        "col4": "British Columbia"
    },
    {
        "col0": "Mount Fernie Provincial Park",
        "col1": "British Columbia",
        "col2": "British Columbia",
        "col3": "British Columbia",
        "col4": "British Columbia"
    },
    {
        "col0": "Mount Elphinstone Provincial Park",
        "col1": "British Columbia",
        "col2": "British Columbia",
        "col3": "British Columbia",
        "col4": "British Columbia"
    },
    {
        "col0": "Mount Edziza Provincial Park and Recreation Area",
        "col1": "British Columbia",
        "col2": "British Columbia",
        "col3": "British Columbia",
        "col4": "British Columbia"
    },
    {
        "col0": "Mount Blanchet Provincial Park",
        "col1": "British Columbia",
        "col2": "British Columbia",
        "col3": "British Columbia",
        "col4": "British Columbia"
    },
    {
        "col0": "Morton Lake Provincial Park",
        "col1": "British Columbia",
        "col2": "British Columbia",
        "col3": "British Columbia",
        "col4": "British Columbia"
    },
    {
        "col0": "Morrissey Provincial Park",
        "col1": "British Columbia",
        "col2": "British Columbia",
        "col3": "British Columbia",
        "col4": "British Columbia"
    },
    {
        "col0": "Morden Colliery Historic Provincial Park",
        "col1": "British Columbia",
        "col2": "British Columbia",
        "col3": "British Columbia",
        "col4": "British Columbia"
    },
    {
        "col0": "Moose Valley Provincial Park",
        "col1": "British Columbia",
        "col2": "British Columbia",
        "col3": "British Columbia",
        "col4": "British Columbia"
    },
    {
        "col0": "Monte Lake Provincial Park",
        "col1": "British Columbia",
        "col2": "British Columbia",
        "col3": "British Columbia",
        "col4": "British Columbia"
    },
    {
        "col0": "Monte Creek Provincial Park",
        "col1": "British Columbia",
        "col2": "British Columbia",
        "col3": "British Columbia",
        "col4": "British Columbia"
    },
    {
        "col0": "Montague Harbour Marine Provincial Park",
        "col1": "British Columbia",
        "col2": "British Columbia",
        "col3": "British Columbia",
        "col4": "British Columbia"
    },
    {
        "col0": "Monck Provincial Park",
        "col1": "British Columbia",
        "col2": "British Columbia",
        "col3": "British Columbia",
        "col4": "British Columbia"
    },
    {
        "col0": "Monashee Provincial Park",
        "col1": "British Columbia",
        "col2": "British Columbia",
        "col3": "British Columbia",
        "col4": "British Columbia"
    },
    {
        "col0": "Momich Lakes Provincial Park",
        "col1": "British Columbia",
        "col2": "British Columbia",
        "col3": "British Columbia",
        "col4": "British Columbia"
    },
    {
        "col0": "Moberly Lake Provincial Park",
        "col1": "British Columbia",
        "col2": "British Columbia",
        "col3": "British Columbia",
        "col4": "British Columbia"
    },
    {
        "col0": "Miracle Beach Provincial Park",
        "col1": "British Columbia",
        "col2": "British Columbia",
        "col3": "British Columbia",
        "col4": "British Columbia"
    },
    {
        "col0": "Milligan Hills Provincial Park",
        "col1": "British Columbia",
        "col2": "British Columbia",
        "col3": "British Columbia",
        "col4": "British Columbia"
    },
    {
        "col0": "Meziadin Lake Provincial Park",
        "col1": "British Columbia",
        "col2": "British Columbia",
        "col3": "British Columbia",
        "col4": "British Columbia"
    },
    {
        "col0": "Memory Island Provincial Park",
        "col1": "British Columbia",
        "col2": "British Columbia",
        "col3": "British Columbia",
        "col4": "British Columbia"
    },
    {
        "col0": "Mehatl Creek Provincial Park",
        "col1": "British Columbia",
        "col2": "British Columbia",
        "col3": "British Columbia",
        "col4": "British Columbia"
    },
    {
        "col0": "McDonald Creek Provincial Park",
        "col1": "British Columbia",
        "col2": "British Columbia",
        "col3": "British Columbia",
        "col4": "British Columbia"
    },
    {
        "col0": "McConnell Lake Provincial Park",
        "col1": "British Columbia",
        "col2": "British Columbia",
        "col3": "British Columbia",
        "col4": "British Columbia"
    },
    {
        "col0": "Marble River Provincial Park",
        "col1": "British Columbia",
        "col2": "British Columbia",
        "col3": "British Columbia",
        "col4": "British Columbia"
    },
    {
        "col0": "Marble Range Provincial Park",
        "col1": "British Columbia",
        "col2": "British Columbia",
        "col3": "British Columbia",
        "col4": "British Columbia"
    },
    {
        "col0": "Marble Canyon Provincial Park",
        "col1": "British Columbia",
        "col2": "British Columbia",
        "col3": "British Columbia",
        "col4": "British Columbia"
    },
    {
        "col0": "Maquinna Marine Provincial Park",
        "col1": "British Columbia",
        "col2": "British Columbia",
        "col3": "British Columbia",
        "col4": "British Columbia"
    },
    {
        "col0": "Malaspina Provincial Park",
        "col1": "British Columbia",
        "col2": "British Columbia",
        "col3": "British Columbia",
        "col4": "British Columbia"
    },
    {
        "col0": "Main Lake Provincial Park",
        "col1": "British Columbia",
        "col2": "British Columbia",
        "col3": "British Columbia",
        "col4": "British Columbia"
    },
    {
        "col0": "Mabel Lake Provincial Park",
        "col1": "British Columbia",
        "col2": "British Columbia",
        "col3": "British Columbia",
        "col4": "British Columbia"
    },
    {
        "col0": "Lower Nimpkish Provincial Park",
        "col1": "British Columbia",
        "col2": "British Columbia",
        "col3": "British Columbia",
        "col4": "British Columbia"
    },
    {
        "col0": "Lowe Inlet Marine Provincial Park",
        "col1": "British Columbia",
        "col2": "British Columbia",
        "col3": "British Columbia",
        "col4": "British Columbia"
    },
    {
        "col0": "Loveland Bay Provincial Park",
        "col1": "British Columbia",
        "col2": "British Columbia",
        "col3": "British Columbia",
        "col4": "British Columbia"
    },
    {
        "col0": "Lockhart Creek Provincial Park",
        "col1": "British Columbia",
        "col2": "British Columbia",
        "col3": "British Columbia",
        "col4": "British Columbia"
    },
    {
        "col0": "Little River Nature Park",
        "col1": "British Columbia",
        "col2": "British Columbia",
        "col3": "British Columbia",
        "col4": "British Columbia"
    },
    {
        "col0": "Little Andrews Bay Marine Provincial Park",
        "col1": "British Columbia",
        "col2": "British Columbia",
        "col3": "British Columbia",
        "col4": "British Columbia"
    },
    {
        "col0": "Liard River Corridor Provincial Park and Protected Area",
        "col1": "British Columbia",
        "col2": "British Columbia",
        "col3": "British Columbia",
        "col4": "British Columbia"
    },
    {
        "col0": "Lazo Wildlife Park",
        "col1": "British Columbia",
        "col2": "British Columbia",
        "col3": "British Columbia",
        "col4": "British Columbia"
    },
    {
        "col0": "Lawn Point Provincial Park",
        "col1": "British Columbia",
        "col2": "British Columbia",
        "col3": "British Columbia",
        "col4": "British Columbia"
    },
    {
        "col0": "Lava Forks Provincial Park",
        "col1": "British Columbia",
        "col2": "British Columbia",
        "col3": "British Columbia",
        "col4": "British Columbia"
    },
    {
        "col0": "Lanz and Cox Islands Provincial Park",
        "col1": "British Columbia",
        "col2": "British Columbia",
        "col3": "British Columbia",
        "col4": "British Columbia"
    },
    {
        "col0": "Lakelse Lake Wetlands Provincial Park",
        "col1": "British Columbia",
        "col2": "British Columbia",
        "col3": "British Columbia",
        "col4": "British Columbia"
    },
    {
        "col0": "Lac La Hache Provincial Park",
        "col1": "British Columbia",
        "col2": "British Columbia",
        "col3": "British Columbia",
        "col4": "British Columbia"
    },
    {
        "col0": "Kwadacha Wilderness Provincial Park",
        "col1": "British Columbia",
        "col2": "British Columbia",
        "col3": "British Columbia",
        "col4": "British Columbia"
    },
    {
        "col0": "Kotcho Lake Village Provincial Park",
        "col1": "British Columbia",
        "col2": "British Columbia",
        "col3": "British Columbia",
        "col4": "British Columbia"
    },
    {
        "col0": "Kootenay Lake Provincial Park",
        "col1": "British Columbia",
        "col2": "British Columbia",
        "col3": "British Columbia",
        "col4": "British Columbia"
    },
    {
        "col0": "Koksilah River Provincial Park",
        "col1": "British Columbia",
        "col2": "British Columbia",
        "col3": "British Columbia",
        "col4": "British Columbia"
    },
    {
        "col0": "Kluskoil Lake Provincial Park",
        "col1": "British Columbia",
        "col2": "British Columbia",
        "col3": "British Columbia",
        "col4": "British Columbia"
    },
    {
        "col0": "Kleanza Creek Provincial Park",
        "col1": "British Columbia",
        "col2": "British Columbia",
        "col3": "British Columbia",
        "col4": "British Columbia"
    },
    {
        "col0": "Kitwanga Mountain Provincial Park",
        "col1": "British Columbia",
        "col2": "British Columbia",
        "col3": "British Columbia",
        "col4": "British Columbia"
    },
    {
        "col0": "Kitsumkalum Provincial Park",
        "col1": "British Columbia",
        "col2": "British Columbia",
        "col3": "British Columbia",
        "col4": "British Columbia"
    },
    {
        "col0": "Kitson Island Marine Provincial Park",
        "col1": "British Columbia",
        "col2": "British Columbia",
        "col3": "British Columbia",
        "col4": "British Columbia"
    },
    {
        "col0": "Kitimat River Provincial Park",
        "col1": "British Columbia",
        "col2": "British Columbia",
        "col3": "British Columbia",
        "col4": "British Columbia"
    },
    {
        "col0": "Kiskatinaw Provincial Park",
        "col1": "British Columbia",
        "col2": "British Columbia",
        "col3": "British Columbia",
        "col4": "British Columbia"
    },
    {
        "col0": "Kingfisher Creek Provincial Park",
        "col1": "British Columbia",
        "col2": "British Columbia",
        "col3": "British Columbia",
        "col4": "British Columbia"
    },
    {
        "col0": "King George VI Provincial Park",
        "col1": "British Columbia",
        "col2": "British Columbia",
        "col3": "British Columbia",
        "col4": "British Columbia"
    },
    {
        "col0": "Kinaskan Lake Provincial Park",
        "col1": "British Columbia",
        "col2": "British Columbia",
        "col3": "British Columbia",
        "col4": "British Columbia"
    },
    {
        "col0": "Kin Beach Provincial Park",
        "col1": "British Columbia",
        "col2": "British Columbia",
        "col3": "British Columbia",
        "col4": "British Columbia"
    },
    {
        "col0": "Kickininee Provincial Park",
        "col1": "British Columbia",
        "col2": "British Columbia",
        "col3": "British Columbia",
        "col4": "British Columbia"
    },
    {
        "col0": "Kianuko Provincial Park",
        "col1": "British Columbia",
        "col2": "British Columbia",
        "col3": "British Columbia",
        "col4": "British Columbia"
    },
    {
        "col0": "Keremeos Columns Provincial Park",
        "col1": "British Columbia",
        "col2": "British Columbia",
        "col3": "British Columbia",
        "col4": "British Columbia"
    },
    {
        "col0": "Kennedy River Bog Provincial Park",
        "col1": "British Columbia",
        "col2": "British Columbia",
        "col3": "British Columbia",
        "col4": "British Columbia"
    },
    {
        "col0": "Kennedy Lake Provincial Park",
        "col1": "British Columbia",
        "col2": "British Columbia",
        "col3": "British Columbia",
        "col4": "British Columbia"
    },
    {
        "col0": "Kenna Cartwright Park",
        "col1": "British Columbia",
        "col2": "British Columbia",
        "col3": "British Columbia",
        "col4": "British Columbia"
    },
    {
        "col0": "Kekuli Bay Provincial Park",
        "col1": "British Columbia",
        "col2": "British Columbia",
        "col3": "British Columbia",
        "col4": "British Columbia"
    },
    {
        "col0": "Kanaka Creek Regional Park",
        "col1": "British Columbia",
        "col2": "British Columbia",
        "col3": "British Columbia",
        "col4": "British Columbia"
    },
    {
        "col0": "Kalamalka Lake Provincial Park and Protected Area",
        "col1": "British Columbia",
        "col2": "British Columbia",
        "col3": "British Columbia",
        "col4": "British Columbia"
    },
    {
        "col0": "Kakwa Provincial Park and Protected Area",
        "col1": "British Columbia",
        "col2": "British Columbia",
        "col3": "British Columbia",
        "col4": "British Columbia"
    },
    {
        "col0": "Juniper Beach Provincial Park",
        "col1": "British Columbia",
        "col2": "British Columbia",
        "col3": "British Columbia",
        "col4": "British Columbia"
    }
]