[
    {
        "col0": "Youth Hostels Association",
        "col1": "Matlock, Derbyshire",
        "col2": "Individuals and community groups",
        "col3": "1930-04-10"
    },
    {
        "col0": "Young Women",
        "col1": "United States",
        "col2": "1 million+ young women aged 12-18",
        "col3": "1869-11-18"
    },
    {
        "col0": "Young Mizo Association",
        "col1": "Aizawl",
        "col2": "Any Mizoabove 14 years",
        "col3": "1935-06-15"
    },
    {
        "col0": "Worldwide Communion of Catholic Apostolic Churches",
        "col1": "United States",
        "col2": "4,000,000",
        "col3": "2008-08-17"
    },
    {
        "col0": "World Union for Progressive Judaism",
        "col1": "Jerusalem",
        "col2": "~1.8 million",
        "col3": "1926-07-10"
    },
    {
        "col0": "World Mahjong Organization",
        "col1": "Haidian District",
        "col2": "12 national organizations",
        "col3": "2005-10-30"
    },
    {
        "col0": "World DanceSport Federation",
        "col1": "Sant Cugat del Valles",
        "col2": "90 national member bodies",
        "col3": "1957-05-12"
    },
    {
        "col0": "World Confederation of Billiard Sports",
        "col1": "Belgium",
        "col2": "148 national associations",
        "col3": "1992-01-25"
    },
    {
        "col0": "World Association for Waterborne Transport Infrastructure",
        "col1": "Brussels, Belgium",
        "col2": "2,100",
        "col3": "1885-05-25"
    },
    {
        "col0": "White Stag Leadership Development Program",
        "col1": "California",
        "col2": "600",
        "col3": "1959-06-08"
    },
    {
        "col0": "West Asian Football Federation",
        "col1": "Amman",
        "col2": "[[#Member Associations",
        "col3": "2001-05-15"
    },
    {
        "col0": "West Asian Billiards & Snooker Federation",
        "col1": "Riyadh",
        "col2": "[[#Member_Associations",
        "col3": "2010-06-02"
    },
    {
        "col0": "West African Development Bank",
        "col1": "Togo",
        "col2": "8 countries",
        "col3": "1973-11-14"
    },
    {
        "col0": "Warsaw Pact",
        "col1": "Moscow",
        "col2": "Albania(withdrew in 1968)",
        "col3": "1955-05-14"
    },
    {
        "col0": "United States Submarine Veterans, Inc.",
        "col1": "Silverdale, WA",
        "col2": "Over 13,000",
        "col3": "1963-10-12"
    },
    {
        "col0": "United States Golf Association",
        "col1": "Far Hills, New Jersey",
        "col2": "700,000",
        "col3": "1894-12-22"
    },
    {
        "col0": "United States Equestrian Federation",
        "col1": "Kentucky",
        "col2": "over 90,000",
        "col3": "1917-01-20"
    },
    {
        "col0": "United Nurses Association",
        "col1": "India",
        "col2": "4,79,000 nurses",
        "col3": "2011-11-16"
    },
    {
        "col0": "United Nationalities Federal Council",
        "col1": "Thailand",
        "col2": "11 opposition groups",
        "col3": "2011-02-16"
    },
    {
        "col0": "The Philippine Order of Narnians",
        "col1": "Makati City",
        "col2": "Initially by joining the group'smailing list",
        "col3": "2003-07-31"
    },
    {
        "col0": "The Airline Cooperative",
        "col1": "Zurich",
        "col2": "147 International Airlines (2015)",
        "col3": "2012-07-01"
    },
    {
        "col0": "Teatown Lake Reservation",
        "col1": "Ossining",
        "col2": "New York-New Jersey Trail Conference,Land Trust Alliance, Federated Conservationists of Westchester County, Association of Nature Center Administrators, and Environmental Consortium of Hudson Valley Colleges and Universities",
        "col3": "1969-06-20"
    },
    {
        "col0": "TAKM",
        "col1": "Ankara",
        "col2": "Azerbaijan",
        "col3": "2013-01-25"
    },
    {
        "col0": "Syrian Turkmen Assembly",
        "col1": "Constantinople",
        "col2": "(39 in administrative board)",
        "col3": "2012-12-15"
    },
    {
        "col0": "Syrian National Council",
        "col1": "Constantinople",
        "col2": "((Since 1 November 2012))",
        "col3": "2011-08-23"
    },
    {
        "col0": "Swedish Academy for Children's Books",
        "col1": "Sweden",
        "col2": "18",
        "col3": "1989-05-26"
    },
    {
        "col0": "Swedish Academy",
        "col1": "Stockholm",
        "col2": "18 members",
        "col3": "1786-03-20"
    },
    {
        "col0": "Sunday School",
        "col1": "United States",
        "col2": "12 million; ages 12 and older",
        "col3": "1867-11-11"
    },
    {
        "col0": "St John Ambulance Australia Cadets",
        "col1": "Australia",
        "col2": "4,000",
        "col3": "1925-12-09"
    },
    {
        "col0": "Southeast Asia Treaty Organization",
        "col1": "Bangkok",
        "col2": "States protected by SEATO",
        "col3": "1954-09-08"
    },
    {
        "col0": "South East Europe Media Organisation",
        "col1": "Croatia",
        "col2": ">1000 individuals, >100 media outlets",
        "col3": "2000-10-01"
    },
    {
        "col0": "South Atlantic Peace and Cooperation Zone",
        "col1": "Brazil",
        "col2": "24 member states",
        "col3": "1986-10-27"
    },
    {
        "col0": "Society for Ethnomusicology",
        "col1": "Indiana",
        "col2": "2,500",
        "col3": "1955-11-18"
    },
    {
        "col0": "Senkom Mitra Polri",
        "col1": "Dutch East Indies",
        "col2": "2 million",
        "col3": "2004-01-01"
    },
    {
        "col0": "Scientists and Engineers for America",
        "col1": "Washington, D.C.",
        "col2": "7,100",
        "col3": "2006-09-27"
    },
    {
        "col0": "Science Council of Japan",
        "col1": "Tokyo",
        "col2": "210",
        "col3": "1949-01-20"
    },
    {
        "col0": "Sardar Vallabhbhai Patel National Police Academy",
        "col1": "New Delhi",
        "col2": "Indian Police Serviceofficers",
        "col3": "1948-09-15"
    },
    {
        "col0": "Safe Schools Coalition Australia",
        "col1": "Melbourne",
        "col2": "545",
        "col3": "2010-10-21"
    },
    {
        "col0": "Royal Swedish Academy of Sciences",
        "col1": "Stockholm",
        "col2": "175 Foreign members",
        "col3": "1739-06-02"
    },
    {
        "col0": "Royal Photographic Society",
        "col1": "Bath, Somerset",
        "col2": "11,300",
        "col3": "1853-01-20"
    },
    {
        "col0": "Relief Society",
        "col1": "United States",
        "col2": "6 million women in over 170 countries",
        "col3": "1842-03-17"
    },
    {
        "col0": "Rehbar Development Foundation",
        "col1": "Islamabad",
        "col2": "20,004 members (in 3 districts)",
        "col3": "2003-09-24"
    },
    {
        "col0": "Radio, Electrical and Television Retailers' Association",
        "col1": "Bedford",
        "col2": "c.1400 audio, electrical and television retailers (c.2,300 retail outlets)",
        "col3": "1942-06-05"
    },
    {
        "col0": "QConnect",
        "col1": "Brisbane",
        "col2": "Private operators",
        "col3": "2007-12-20"
    },
    {
        "col0": "Python Software Foundation",
        "col1": "Delaware",
        "col2": "244",
        "col3": "2001-03-06"
    },
    {
        "col0": "Prosvjeta",
        "col1": "Zagreb",
        "col2": "2",
        "col3": "1996-01-26"
    },
    {
        "col0": "Professional Association for Childcare and Early Years",
        "col1": "London",
        "col2": "35,000",
        "col3": "2013-03-18"
    },
    {
        "col0": "Primary",
        "col1": "United States",
        "col2": "1.1 million children aged 3-11",
        "col3": "1878-08-11"
    },
    {
        "col0": "Preparatory Commission for the Comprehensive Nuclear-Test-Ban Treaty Organization",
        "col1": "Austria",
        "col2": "183member states",
        "col3": "1996-11-19"
    },
    {
        "col0": "Pompey Supporters Trust",
        "col1": "Portsmouth",
        "col2": "2,300",
        "col3": "2009-12-23"
    },
    {
        "col0": "Pirate Parties International",
        "col1": "Brussels, Belgium",
        "col2": "Pirate parties and affiliated associations",
        "col3": "2010-04-18"
    },
    {
        "col0": "Philosophy Sharing Foundation",
        "col1": "Valletta",
        "col2": "app. 100",
        "col3": "2012-05-21"
    },
    {
        "col0": "Philodemic Society",
        "col1": "Healy Hall",
        "col2": "90",
        "col3": "1830-09-25"
    },
    {
        "col0": "Philippine Red Cross",
        "col1": "Manila",
        "col2": "International Federation of Red Cross and Red Crescent Societies (IFRC),International Red Cross and Red Crescent Movement",
        "col3": "1917-12-04"
    },
    {
        "col0": "Pennsylvania Interscholastic Athletic Association",
        "col1": "Mechanicsburg, Pennsylvania",
        "col2": "1,452 schools",
        "col3": "1913-12-29"
    },
    {
        "col0": "Pennsylvania Bar Association",
        "col1": "Harrisburg",
        "col2": "Pennsylvania-licensed lawyers",
        "col3": "1895-07-01"
    },
    {
        "col0": "Paulist Fathers",
        "col1": "Manhattan",
        "col2": "Roman Catholic Priests",
        "col3": "1858-07-07"
    },
    {
        "col0": "Palatine Forest Club",
        "col1": "Neustadt an der Weinstrasse",
        "col2": "ca. 30,000",
        "col3": "1902-11-27"
    },
    {
        "col0": "Pakistan Cave Research & Caving Federation",
        "col1": "Pakistan",
        "col2": "member of UIS (Union International Speleology)",
        "col3": "1997-08-14"
    },
    {
        "col0": "PIAA football records",
        "col1": "Mechanicsburg, PA",
        "col2": "1,452 schools",
        "col3": "1913-12-29"
    },
    {
        "col0": "Organisation for the Prohibition of Chemical Weapons",
        "col1": "Netherlands",
        "col2": "192member states",
        "col3": "1997-04-29"
    },
    {
        "col0": "Order of Attorneys of Brazil",
        "col1": "Brasilia",
        "col2": "847,921 (2013)",
        "col3": "1930-11-18"
    },
    {
        "col0": "Operation Gladio",
        "col1": "Italy",
        "col2": "622 (only in Italy)",
        "col3": "1956-11-26"
    },
    {
        "col0": "Oceania Football Confederation",
        "col1": "Auckland",
        "col2": "14 member associations (11 full)",
        "col3": "1966-11-15"
    },
    {
        "col0": "Oceania Athletics Association",
        "col1": "Australia",
        "col2": "20 member + 2 associate member federations",
        "col3": "1969-08-21"
    },
    {
        "col0": "ONE Campaign",
        "col1": "Washington, D.C.",
        "col2": "Over 7 million",
        "col3": "2004-05-16"
    }
]