[
    {
        "col0": "Xenogears",
        "col1": "Hiromichi Tanaka",
        "col2": "M. Kato",
        "col3": "Y. Honne",
        "col4": "Y. Mitsuda"
    },
    {
        "col0": "Vagrant Story",
        "col1": "Yasumi Matsuno",
        "col2": "Y. Matsuno",
        "col3": "A. Yoshida",
        "col4": "H. Sakimoto"
    },
    {
        "col0": "Unlimited Saga",
        "col1": "Akitoshi Kawazu",
        "col2": "A. Kawazu",
        "col3": "Y. Naora",
        "col4": "M. Hamauzu"
    },
    {
        "col0": "Sword of Mana",
        "col1": "Koichi Ishii",
        "col2": "Y. Kitase",
        "col3": "S. Kameoka",
        "col4": "K. Ito"
    },
    {
        "col0": "Super Metroid",
        "col1": "Makoto Kano",
        "col2": "Y. Sakamoto",
        "col3": "H. Kimura",
        "col4": "K. Yamamoto"
    },
    {
        "col0": "Stonekeep",
        "col1": "Brian Fargo",
        "col2": "P. Oliphant",
        "col3": "L. Boyarsky",
        "col4": "R. Band"
    },
    {
        "col0": "Sonic Lost World",
        "col1": "Takashi Iizuka",
        "col2": "K. Pontac",
        "col3": "Y. Uekawa",
        "col4": "T. Eguchi"
    },
    {
        "col0": "Shadow the Hedgehog",
        "col1": "Yuji Naka",
        "col2": "T. Iizuka",
        "col3": "K. Hoshino",
        "col4": "J. Senoue"
    },
    {
        "col0": "Pokemon Yellow",
        "col1": "Shigeru Miyamoto",
        "col2": "S. Tajiri",
        "col3": "K. Sugimori",
        "col4": "J. Masuda"
    },
    {
        "col0": "Pokemon Red and Blue",
        "col1": "Shigeru Miyamoto",
        "col2": "S. Tajiri",
        "col3": "K. Sugimori",
        "col4": "J. Masuda"
    },
    {
        "col0": "Pokemon Yellow",
        "col1": "Shigeru Miyamoto",
        "col2": "S. Tajiri",
        "col3": "K. Sugimori",
        "col4": "J. Masuda"
    },
    {
        "col0": "Pokemon Red and Blue",
        "col1": "Shigeru Miyamoto",
        "col2": "S. Tajiri",
        "col3": "K. Sugimori",
        "col4": "J. Masuda"
    },
    {
        "col0": "Parasite Eve",
        "col1": "Hironobu Sakaguchi",
        "col2": "T. Tokita",
        "col3": "T. Nomura",
        "col4": "Y. Shimomura"
    },
    {
        "col0": "Onimusha 2: Samurai's Destiny",
        "col1": "Keiji Inafune",
        "col2": "N. Sugimura",
        "col3": "K. Amemiya",
        "col4": "T. Iwashiro"
    },
    {
        "col0": "Onimusha: Warlords",
        "col1": "Keiji Inafune",
        "col2": "N. Sugimura",
        "col3": "S. Sato",
        "col4": "T. Niigaki"
    },
    {
        "col0": "Metroid",
        "col1": "Gunpei Yokoi",
        "col2": "M. Kano",
        "col3": "H. Kiyotake",
        "col4": "H. Tanaka"
    },
    {
        "col0": "Metal Gear Solid V: The Phantom Pain",
        "col1": "Hideo Kojima",
        "col2": "H. Kojima",
        "col3": "Y. Shinkawa",
        "col4": "J. Burnett"
    },
    {
        "col0": "Metal Gear Solid V: Ground Zeroes",
        "col1": "Hideo Kojima",
        "col2": "H. Kojima",
        "col3": "Y. Shinkawa",
        "col4": "H. Gregson-Williams"
    },
    {
        "col0": "Metal Gear Solid 4: Guns of the Patriots",
        "col1": "Hideo Kojima",
        "col2": "H. Kojima",
        "col3": "Y. Shinkawa",
        "col4": "H. Gregson-Williams"
    },
    {
        "col0": "Metal Gear Solid 3: Snake Eater",
        "col1": "Hideo Kojima",
        "col2": "H. Kojima",
        "col3": "Y. Shinkawa",
        "col4": "H. Gregson-Williams"
    },
    {
        "col0": "Metal Gear Solid 2: Sons of Liberty",
        "col1": "Hideo Kojima",
        "col2": "H. Kojima",
        "col3": "Y. Shinkawa",
        "col4": "H. Gregson-Williams"
    },
    {
        "col0": "Metal Gear Solid: Portable Ops",
        "col1": "Hideo Kojima",
        "col2": "G. Mikumo",
        "col3": "A. Wood",
        "col4": "N. Hibino"
    },
    {
        "col0": "Lightning Returns: Final Fantasy XIII",
        "col1": "Yoshinori Kitase",
        "col2": "D. Watanabe",
        "col3": "I. Kamikokuryo",
        "col4": "M. Hamauzu"
    },
    {
        "col0": "Grand Theft Auto V",
        "col1": "Leslie Benzies",
        "col2": "D. Houser",
        "col3": "A. Garbut",
        "col4": "T. Dream"
    },
    {
        "col0": "Gears of War 2",
        "col1": "Rod Fergusson",
        "col2": "J. Ortega",
        "col3": "C. Perna",
        "col4": "S. Jablonsky"
    },
    {
        "col0": "Front Mission",
        "col1": "Shinji Hashimoto",
        "col2": "T. Tsuchida",
        "col3": "Y. Amano",
        "col4": "N. Matsueda"
    },
    {
        "col0": "Final Fantasy XV",
        "col1": "Shinji Hashimoto",
        "col2": "K. Nojima",
        "col3": "Y. Naora",
        "col4": "Y. Shimomura"
    },
    {
        "col0": "Final Fantasy XIII-2",
        "col1": "Yoshinori Kitase",
        "col2": "D. Watanabe",
        "col3": "I. Kamikokuryo",
        "col4": "M. Hamauzu"
    },
    {
        "col0": "Final Fantasy XIII",
        "col1": "Yoshinori Kitase",
        "col2": "D. Watanabe",
        "col3": "I. Kamikokuryo",
        "col4": "M. Hamauzu"
    },
    {
        "col0": "Final Fantasy X/X-2 HD Remaster",
        "col1": "Yoshinori Kitase",
        "col2": "K. Nojima",
        "col3": "S. Takai",
        "col4": "N. Uematsu"
    },
    {
        "col0": "Final Fantasy X-2",
        "col1": "Yoshinori Kitase",
        "col2": "D. Watanabe",
        "col3": "S. Takai",
        "col4": "T. Eguchi"
    },
    {
        "col0": "Final Fantasy X",
        "col1": "Yoshinori Kitase",
        "col2": "D. Watanabe",
        "col3": "Y. Naora",
        "col4": "N. Uematsu"
    }
]