[
    {
        "col0": "The Horse with My Name",
        "col1": "Driving Big Davie",
        "col2": "Shooting Sean",
        "col3": "PR6052.A773 H67 2003"
    },
    {
        "col0": "The Horse and His Boy",
        "col1": "The Magician's Nephew",
        "col2": "The Silver Chair",
        "col3": "PZ7.L58474 Ho"
    },
    {
        "col0": "The Honorary Consul",
        "col1": "The Human Factor",
        "col2": "Travels with My Aunt",
        "col3": "PR6013.R44 H6"
    },
    {
        "col0": "The Holder of the World",
        "col1": "Leave It to Me",
        "col2": "Jasmine",
        "col3": "PR9499.3.M77 H65 1993"
    },
    {
        "col0": "The History of Love",
        "col1": "Great House",
        "col2": "Man Walks Into a Room",
        "col3": "PS3611.R38 H57 2005"
    },
    {
        "col0": "The Hippopotamus Pool",
        "col1": "Seeing a Large Cat",
        "col2": "The Snake, the Crocodile, and the Dog",
        "col3": "PS3563.E747 H54 1996"
    },
    {
        "col0": "The Hidden Family",
        "col1": "The Clan Corporate",
        "col2": "The Family Trade",
        "col3": "PR6119.T79 H53 2005"
    },
    {
        "col0": "The Hidden Assassins",
        "col1": "The Ignorance of Blood",
        "col2": "The Silent and the Damned",
        "col3": "PR6073.I474 H53 2006"
    },
    {
        "col0": "The Heroin Diaries: A Year in the Life of a Shattered Rock Star",
        "col1": "This Is Gonna Hurt",
        "col2": "The Dirt",
        "col3": "ML419.S614 A3 2007"
    },
    {
        "col0": "The Hawkline Monster: A Gothic Western",
        "col1": "Willard and His Bowling Trophies: A Perverse Mystery",
        "col2": "The Abortion: An Historical Romance 1966",
        "col3": "PZ4.B826 Haw PS3503.R2736"
    },
    {
        "col0": "The Haunted Air",
        "col1": "Gateways",
        "col2": "Hosts",
        "col3": "PS3573.I45695 H38 2002"
    },
    {
        "col0": "The Harrowing of Gwynedd",
        "col1": "King Javan's Year",
        "col2": "The Quest for Saint Camber",
        "col3": "PS3561.U69 H4 1989"
    },
    {
        "col0": "The Harpole Report",
        "col1": "How Steeple Sinderby Wanderers Won the F.A. Cup",
        "col2": "A Season in Sinji",
        "col3": "PZ4.C3118 Har PR6053.A694"
    },
    {
        "col0": "The Harlequin Tea Set",
        "col1": "While the Light Lasts and Other Stories",
        "col2": "Problem at Pollensa Bay and Other Stories",
        "col3": "PR6005.H66 H34 1997"
    },
    {
        "col0": "The Harlequin",
        "col1": "Blood Noir",
        "col2": "Danse Macabre",
        "col3": "PS3558.A443357 H37 2007"
    },
    {
        "col0": "The Hard Way",
        "col1": "Bad Luck and Trouble",
        "col2": "One Shot",
        "col3": "PS3553.H4838 H37 2006"
    },
    {
        "col0": "The Happy Return",
        "col1": "A Ship of the Line",
        "col2": "Hornblower and the Atropos",
        "col3": "PZ3.F75956 Hap PR6011.O56"
    },
    {
        "col0": "The Hand of Zei",
        "col1": "The Hostage of Zir",
        "col2": "Finished",
        "col3": "PS3507.E2344 H3 1981"
    },
    {
        "col0": "The Hand of Oberon",
        "col1": "The Courts of Chaos",
        "col2": "Sign of the Unicorn",
        "col3": "PZ4.Z456 Han PS3576.E43"
    },
    {
        "col0": "The Gypsy Morph",
        "col1": "Bearers of the Black Staff",
        "col2": "The Elves of Cintra",
        "col3": "PS3552.R6596 G97 2008"
    },
    {
        "col0": "The Guns of Avalon",
        "col1": "Sign of the Unicorn",
        "col2": "Nine Princes in Amber",
        "col3": "PZ4.Z456 Gu PS3576.E43"
    },
    {
        "col0": "The Guardian of Isis",
        "col1": "The Isis Pedlar",
        "col2": "The Keeper of the Isis Light",
        "col3": "\"in process\" (first ed.,); PZ7.H87364 Gu 1982 (first U.S. ed.,81-10837)"
    },
    {
        "col0": "The Gryphon's Skull",
        "col1": "The Sacred Land",
        "col2": "Over the Wine Dark Sea",
        "col3": "PS3570.U758 G79 2002"
    },
    {
        "col0": "The Grey King",
        "col1": "Silver on the Tree",
        "col2": "Greenwitch",
        "col3": "PZ7.C7878 Gt3"
    },
    {
        "col0": "The Great War: Breakthroughs",
        "col1": "American Empire: Blood and Iron",
        "col2": "The Great War: Walk in Hell",
        "col3": "PS3570.U76 G743 2000"
    },
    {
        "col0": "The Great War: American Front",
        "col1": "The Great War: Walk in Hell",
        "col2": "How Few Remain",
        "col3": "PS3570.U76 G74 1998"
    },
    {
        "col0": "The Great Train Robbery",
        "col1": "Eaters of the Dead",
        "col2": "The Terminal Man",
        "col3": "PZ4.C9178 Gr PS3553.R48"
    },
    {
        "col0": "The Great Santini",
        "col1": "The Lords of Discipline",
        "col2": "The Water Is Wide",
        "col3": "PS3553.O5198 G74 2006"
    },
    {
        "col0": "The Great Hunt",
        "col1": "The Dragon Reborn",
        "col2": "The Eye of the World",
        "col3": "PS3560.O7617 G74 1990"
    },
    {
        "col0": "The Great Cow Race",
        "col1": "Eyes of the Storm",
        "col2": "Out from Boneville",
        "col3": "PN6727.S546 B66 1995"
    },
    {
        "col0": "The Graveyard Game",
        "col1": "The Life of the World to Come",
        "col2": "Mendoza in Hollywood",
        "col3": "PS3552.A4313 G73 2001"
    },
    {
        "col0": "The Golden One",
        "col1": "Children of the Storm",
        "col2": "Lord of the Silent",
        "col3": "PS3563.E747 G65 2002"
    },
    {
        "col0": "The Golden Oecumene",
        "col1": "The Golden Transcendence",
        "col2": "The Golden Age",
        "col3": "PS3623.R54 G65 2002"
    },
    {
        "col0": "The Godfather Returns",
        "col1": "The Godfather's Revenge",
        "col2": "The Sicilian",
        "col3": "PS3573.I528 G64 2004b"
    },
    {
        "col0": "The God Delusion",
        "col1": "The Greatest Show on Earth: The Evidence for Evolution",
        "col2": "The Ancestor's Tale",
        "col3": "BL2775.3 .D39 2006"
    },
    {
        "col0": "The Gladiator",
        "col1": "The Valley-Westside War",
        "col2": "The Disunited States of America",
        "col3": "PS3570.U76 G56 2007"
    },
    {
        "col0": "The Gift of Speed",
        "col1": "The Time We Have Taken",
        "col2": "The Art of the Engine Driver",
        "col3": "PR9619.3.C382 G54 2004"
    },
    {
        "col0": "The Ghost War",
        "col1": "The Silent Man: A Thriller",
        "col2": "The Faithful Spy",
        "col3": "PS3602.E75146 G48 2008"
    },
    {
        "col0": "The Genetical Theory of Natural Selection",
        "col1": "The Design of Experiments",
        "col2": "Statistical Methods for Research Workers",
        "col3": "QH366 .F5"
    },
    {
        "col0": "The Garden of Rama",
        "col1": "Rama Revealed",
        "col2": "Rama II",
        "col3": "PR6005.L36 G37 1991b"
    },
    {
        "col0": "The Garden Book",
        "col1": "The Bath Fugues",
        "col2": "Shanghai Dancing",
        "col3": "PR9619.3.C3922 G37 2005"
    },
    {
        "col0": "The Game",
        "col1": "Locked Rooms",
        "col2": "Justice Hall",
        "col3": "PS3561.I4813 G36 2004"
    },
    {
        "col0": "The Further Chronicles of Conan",
        "col1": "Sagas of Conan",
        "col2": "The Conan Chronicles",
        "col3": "PS3560.O7617 A6 1999"
    },
    {
        "col0": "The Fourth K",
        "col1": "The Last Don",
        "col2": "The Sicilian",
        "col3": "PS3566.U9 F68 1990"
    },
    {
        "col0": "The Fourth Hand",
        "col1": "Until I Find You",
        "col2": "A Widow for One Year",
        "col3": "PS3559.R8 F68 2001b"
    },
    {
        "col0": "The Four-Story Mistake",
        "col1": "Then There Were Five",
        "col2": "The Saturdays",
        "col3": "PZ7.E724 Fo"
    },
    {
        "col0": "The Four-Headed Dragon",
        "col1": "The Infinity Clue",
        "col2": "Submarine Caper",
        "col3": "PZ7.D644 Fu"
    },
    {
        "col0": "The Fortune of War",
        "col1": "The Surgeon's Mate",
        "col2": "Desolation Island",
        "col3": "PZ3.O1285 Fo PR6029.B55"
    },
    {
        "col0": "The Forest House",
        "col1": "Lady of Avalon",
        "col2": "Ancestors of Avalon",
        "col3": "PS3552.R228 F67 1994"
    },
    {
        "col0": "The Flamingo's Smile",
        "col1": "Bully for Brontosaurus",
        "col2": "Hen's Teeth and Horse's Toes",
        "col3": "QH81 .G673 1985"
    },
    {
        "col0": "The Flaming Arrow",
        "col1": "Thin Air",
        "col2": "Rough Trails",
        "col3": "CPB Box no. 2018 vol. 7"
    },
    {
        "col0": "The First Four Years",
        "col1": "On the Way Home",
        "col2": "These Happy Golden Years",
        "col3": "PZ7.W6461 Fi"
    },
    {
        "col0": "The Fires of Merlin",
        "col1": "The Mirror of Merlin",
        "col2": "The Seven Songs of Merlin",
        "col3": "PZ7.B27567 Fi 1998"
    },
    {
        "col0": "The Fires of Heaven",
        "col1": "Lord of Chaos",
        "col2": "The Shadow Rising",
        "col3": "PS3560.O7617 F57 1993"
    },
    {
        "col0": "The Firebird Rocket",
        "col1": "The Sting of the Scorpion",
        "col2": "The Jungle Pyramid",
        "col3": "PZ7.D644 Fh"
    },
    {
        "col0": "The Fiery Cross",
        "col1": "A Breath of Snow and Ashes",
        "col2": "Drums of Autumn",
        "col3": "PS3557.A22 F54 2001"
    },
    {
        "col0": "The Far Side Gallery 4",
        "col1": "The Far Side Gallery 5",
        "col2": "The Far Side Gallery 3",
        "col3": "NC1429.L32 A4 1993b"
    },
    {
        "col0": "The Far Side Gallery 3",
        "col1": "The Far Side Gallery 4",
        "col2": "The Far Side Gallery 2",
        "col3": "NC1429.L32 A4 1988a"
    },
    {
        "col0": "The Far Side Gallery 2",
        "col1": "The Far Side Gallery 3",
        "col2": "The Far Side Gallery",
        "col3": "NC1429.L32 A4 1986a"
    },
    {
        "col0": "The Familiar",
        "col1": "The Journey",
        "col2": "Back to Before",
        "col3": "CPB Box no. 1880 vol. 25"
    },
    {
        "col0": "The Fall of Hyperion",
        "col1": "Endymion",
        "col2": "Hyperion",
        "col3": "PS3569.I47292 F35 1990"
    },
    {
        "col0": "The Fall of Colossus",
        "col1": "Colossus and the Crab",
        "col2": "Colossus",
        "col3": "PZ4.J752 Fal3 PR6060.O496"
    },
    {
        "col0": "The Falcon at the Portal",
        "col1": "He Shall Thunder in the Sky",
        "col2": "The Ape Who Guards the Balance",
        "col3": "PS3563.E747 F3 1999"
    },
    {
        "col0": "The Fabric of the Cosmos",
        "col1": "Icarus at the Edge of Time",
        "col2": "The Elegant Universe: Superstrings, Hidden Dimensions, and the Quest for the Ultimate Theory",
        "col3": "QB982 .G74 2004"
    },
    {
        "col0": "The Eye of the World",
        "col1": "The Great Hunt",
        "col2": "New Spring",
        "col3": "PS3560.O7617 E94 1990"
    },
    {
        "col0": "The Extended Phenotype",
        "col1": "The Blind Watchmaker",
        "col2": "The Selfish Gene",
        "col3": "QH375 .D38 1983"
    },
    {
        "col0": "The Escape",
        "col1": "The Warning",
        "col2": "The Unknown",
        "col3": "CPB Box no. 1858 vol. 35"
    },
    {
        "col0": "The Ersatz Elevator",
        "col1": "The Vile Village",
        "col2": "The Austere Academy",
        "col3": "PZ7.S6795 Er 2001"
    },
    {
        "col0": "The English Assassin: A Romance of Entropy",
        "col1": "The Condition of Muzak",
        "col2": "A Cure for Cancer",
        "col3": "PZ4.M8185 En3 PR6063.O59"
    },
    {
        "col0": "The Enemy",
        "col1": "One Shot",
        "col2": "Persuader",
        "col3": "PS3553.H4838 E54 2004"
    },
    {
        "col0": "The Enchanted Type-Writer",
        "col1": "Mr. Munchausen",
        "col2": "Pursuit of the House-Boat",
        "col3": "PZ3.B224 E PS1064.B3"
    },
    {
        "col0": "The Emerald Wand of Oz",
        "col1": "Trouble Under Oz",
        "col2": "The Hidden Prince of Oz",
        "col3": "PZ7.S65933 Em 2005"
    },
    {
        "col0": "The Elves of Cintra",
        "col1": "The Gypsy Morph",
        "col2": "Armageddon's Children",
        "col3": "PS3552.R6596 E48 2007"
    },
    {
        "col0": "The Elfstones of Shannara",
        "col1": "The Wishsong of Shannara",
        "col2": "The Sword of Shannara",
        "col3": "PS3552.R6596 E5 1982"
    },
    {
        "col0": "The Elf Queen of Shannara",
        "col1": "The Talismans of Shannara",
        "col2": "The Druid of Shannara",
        "col3": "PS3552.R6596 E48 1992"
    },
    {
        "col0": "The Edge of the Cloud",
        "col1": "Flambards in Summer",
        "col2": "Flambards",
        "col3": "PZ7.P4483 Ed"
    },
    {
        "col0": "The Duchess of Windsor",
        "col1": "Loved Ones",
        "col2": "A Life of Contrasts",
        "col3": "DA581.W5 M67 1980"
    },
    {
        "col0": "The Druid of Shannara",
        "col1": "The Elf Queen of Shannara",
        "col2": "The Scions of Shannara",
        "col3": "PS3552.R6596 D7 1991"
    },
    {
        "col0": "The Drowning Pool",
        "col1": "The Way Some People Die",
        "col2": "The Moving Target",
        "col3": "PS3525.I486 D75 1996"
    },
    {
        "col0": "The Dragon Reborn",
        "col1": "The Shadow Rising",
        "col2": "The Great Hunt",
        "col3": "PS3560.O7617 D7 1991"
    },
    {
        "col0": "The Dragon Knight",
        "col1": "The Dragon on the Border",
        "col2": "The Dragon and The George",
        "col3": "PS3554.I328 D7 1990"
    },
    {
        "col0": "The Double Jinx Mystery",
        "col1": "Mystery of the Glowing Eye",
        "col2": "The Secret of Mirror Bay",
        "col3": "PZ7.K23 Nan no. 50"
    },
    {
        "col0": "The Dolphins of Pern",
        "col1": "Dragonseye",
        "col2": "The Chronicles of Pern: First Fall",
        "col3": "PS3563.A255 D65 1994"
    },
    {
        "col0": "The Diversion",
        "col1": "The Ultimate",
        "col2": "The Return",
        "col3": "CPB Box no. 1857 vol. 27"
    },
    {
        "col0": "The Disunited States of America",
        "col1": "The Gladiator",
        "col2": "In High Places",
        "col3": "PS3570.U76 D58 2006"
    },
    {
        "col0": "The Discovery",
        "col1": "The Threat",
        "col2": "The Departure",
        "col3": "CPB Box no. 1776 vol. 31"
    },
    {
        "col0": "The Dharma Bums",
        "col1": "Doctor Sax",
        "col2": "The Subterraneans",
        "col3": "PS3521.E735 D48 1990"
    },
    {
        "col0": "The Devil's Feather",
        "col1": "Chickenfeed",
        "col2": "Disordered Minds",
        "col3": "PR6073.A444 D48 2005"
    },
    {
        "col0": "The Demon Apostle",
        "col1": "Mortalis",
        "col2": "The Demon Spirit",
        "col3": "PS3569.A462345 D45 1999"
    },
    {
        "col0": "The Demon-Haunted World",
        "col1": "Billions and Billions",
        "col2": "Pale Blue Dot",
        "col3": "Q175 .S215 1995"
    },
    {
        "col0": "The Deeds of the Disturber",
        "col1": "The Last Camel Died at Noon",
        "col2": "Lion in the Valley",
        "col3": "PS3563.E747 D4 1988"
    },
    {
        "col0": "The Decision",
        "col1": "In the Time of Dinosaurs",
        "col2": "The Underground",
        "col3": "CPB Box no. 1765 vol. 8"
    },
    {
        "col0": "The Death of Sleep",
        "col1": "Generation Warriors",
        "col2": "Sassinak",
        "col3": "CPB Box no. 620 vol. 11 (Copyright Paperback Collection)"
    },
    {
        "col0": "The Day of the Scorpion",
        "col1": "The Towers of Silence",
        "col2": "The Jewel in the Crown",
        "col3": "PZ4.S428 Day PR6069.C596"
    },
    {
        "col0": "The Daughters of Cain",
        "col1": "Death is Now My Neighbour",
        "col2": "The Way Through the Woods",
        "col3": "PR6054.E96 D38 1994"
    },
    {
        "col0": "The Darkest Hour",
        "col1": "Midnight",
        "col2": "A Dangerous Path",
        "col3": "PZ7.H916625 Dar 2004"
    },
    {
        "col0": "The Dark Room",
        "col1": "Malgudi Days",
        "col2": "The Bachelor of Arts",
        "col3": "PR9499.3.N3 D37 1981"
    },
    {
        "col0": "The Dark Design",
        "col1": "The Magic Labyrinth",
        "col2": "The Fabulous Riverboat",
        "col3": "PZ4.F234 Dar3 PS3556.A72"
    },
    {
        "col0": "The Dark Cry of the Moon",
        "col1": "The Long Night of the Grave",
        "col2": "The Soft Whisper of the Dead",
        "col3": "PS3557.R265 D37 1985"
    },
    {
        "col0": "The Damagers",
        "col1": "The Dominators",
        "col2": "The Threateners",
        "col3": "MLC R CP00978"
    },
    {
        "col0": "The Da Vinci Code",
        "col1": "The Lost Symbol",
        "col2": "Angels & Demons",
        "col3": "PS3552.R685434 D3 2003"
    }
]