[
    {
        "col0": "Dockwise Vanguard",
        "col1": "2013-02-01",
        "col2": "2011-12-22",
        "col3": "2012-10-07"
    },
    {
        "col0": "Disney Dream",
        "col1": "2010-12-09",
        "col2": "2009-08-19",
        "col3": "2010-10-30"
    },
    {
        "col0": "Dahlonega",
        "col1": "1964-08-04",
        "col2": "1963-11-04",
        "col3": "1964-03-23"
    },
    {
        "col0": "Chinese cruiser Ning Hai",
        "col1": "1938-05-04",
        "col2": "1931-02-20",
        "col3": "1931-10-10"
    },
    {
        "col0": "Chinese cruiser Jiyuan",
        "col1": "1895-03-16",
        "col2": "1880-01-31",
        "col3": "1883-11-02"
    },
    {
        "col0": "Chilean destroyer Ministro Portales",
        "col1": "1974-01-08",
        "col2": "1944-01-31",
        "col3": "1944-09-30"
    },
    {
        "col0": "Chilean battleship Almirante Latorre",
        "col1": "1914-09-09",
        "col2": "1911-11-27",
        "col3": "1913-11-27"
    },
    {
        "col0": "ChikyA<<",
        "col1": "2005-07-29",
        "col2": "2001-04-25",
        "col3": "2002-01-18"
    },
    {
        "col0": "Chesaning",
        "col1": "1964-06-16",
        "col2": "1963-07-17",
        "col3": "1964-02-05"
    },
    {
        "col0": "Cheraw",
        "col1": "1970-01-29",
        "col2": "1969-03-12",
        "col3": "1969-09-20"
    },
    {
        "col0": "Celebrity Eclipse",
        "col1": "2010-04-15",
        "col2": "2009-01-23",
        "col3": "2010-02-28"
    },
    {
        "col0": "Carnival Vista",
        "col1": "2016-04-28",
        "col2": "2014-10-14",
        "col3": "2015-06-25"
    },
    {
        "col0": "Carnival Dream",
        "col1": "2009-09-12",
        "col2": "2008-02-04",
        "col3": "2008-10-24"
    },
    {
        "col0": "Canonchet",
        "col1": "1973-09-23",
        "col2": "1973-02-07",
        "col3": "1973-07-10"
    },
    {
        "col0": "Campti",
        "col1": "1972-12-22",
        "col2": "1972-05-21",
        "col3": "1972-11-04"
    },
    {
        "col0": "CGS Tajuddin",
        "col1": "2016-08-05",
        "col2": "1989-10-16",
        "col3": "1990-09-15"
    },
    {
        "col0": "CGS Syed Nazrul",
        "col1": "2016-08-05",
        "col2": "1985-03-11",
        "col3": "1986-04-03"
    },
    {
        "col0": "Brazilian aircraft carrier Minas Gerais",
        "col1": "1956-12-14",
        "col2": "1942-11-16",
        "col3": "1944-02-23"
    },
    {
        "col0": "Belgian frigate Louise-Marie",
        "col1": "2005-12-22",
        "col2": "1985-11-06",
        "col3": "1989-01-21"
    },
    {
        "col0": "Belgian frigate Leopold I",
        "col1": "2005-12-22",
        "col2": "1985-02-26",
        "col3": "1988-04-20"
    },
    {
        "col0": "BRP Sultan Kudarat",
        "col1": "1961-11-29",
        "col2": "1942-12-02",
        "col3": "1943-05-18"
    },
    {
        "col0": "BRP Rajah Lakandula",
        "col1": "1971-02-13",
        "col2": "1943-01-27",
        "col3": "1943-04-16"
    },
    {
        "col0": "BRP Rajah Humabon",
        "col1": "1978-12-23",
        "col2": "1943-01-14",
        "col3": "1943-05-27"
    },
    {
        "col0": "BRP Pangasinan",
        "col1": "1948-07-02",
        "col2": "1942-10-28",
        "col3": "1943-04-24"
    },
    {
        "col0": "BRP Miguel Malvar",
        "col1": "1966-07-11",
        "col2": "1943-10-28",
        "col3": "1944-03-01"
    },
    {
        "col0": "BRP Magat Salamat",
        "col1": "1962-04-17",
        "col2": "1943-11-14",
        "col3": "1944-03-19"
    },
    {
        "col0": "BRP Iloilo",
        "col1": "1948-07-02",
        "col2": "1942-12-16",
        "col3": "1943-08-03"
    },
    {
        "col0": "BRP Gregorio del Pilar",
        "col1": "1976-04-05",
        "col2": "1943-02-01",
        "col3": "1943-07-10"
    },
    {
        "col0": "BRP Gregorio Velasquez",
        "col1": "1969-08-01",
        "col2": "1967-07-12",
        "col3": "1968-07-10"
    },
    {
        "col0": "BRP Diego Silang",
        "col1": "1976-04-05",
        "col2": "1943-06-06",
        "col3": "1944-01-15"
    },
    {
        "col0": "BRP Datu Sikatuna",
        "col1": "1976-09-13",
        "col2": "1942-11-30",
        "col3": "1943-05-27"
    }
]