[
    {
        "col0": "Workers' Communist Party",
        "col1": "Communism",
        "col2": "M. Ferrando",
        "col3": "2006",
        "col4": "2006-06-18"
    },
    {
        "col0": "Unity Party",
        "col1": "Decentralization",
        "col2": "J. Ono",
        "col3": "2013",
        "col4": "2013-12-18"
    },
    {
        "col0": "United Malays National Organisation",
        "col1": "Conservatism",
        "col2": "Tengku Adnan Tengku Mansor",
        "col3": "1946",
        "col4": "1946-05-11"
    },
    {
        "col0": "United Democratic Movement",
        "col1": "Social democracy",
        "col2": "B. Msomi",
        "col3": "1997",
        "col4": "1997-09-27"
    },
    {
        "col0": "Union Solidarity and Development Party",
        "col1": "Nationalism",
        "col2": "T. N. Win",
        "col3": "2010",
        "col4": "2010-06-02"
    },
    {
        "col0": "Tomorrow Party of Japan",
        "col1": "Environmentalism",
        "col2": "T. Iida",
        "col3": "2012",
        "col4": "2012-11-28"
    },
    {
        "col0": "The Workers' Party",
        "col1": "Democratic socialism",
        "col2": "L. T. Khiang",
        "col3": "1957",
        "col4": "1957-11-03"
    },
    {
        "col0": "Tax Cuts Japan",
        "col1": "Decentralization",
        "col2": "S. Kamei",
        "col3": "2012",
        "col4": "2012-11-22"
    },
    {
        "col0": "Tamil National People's Front",
        "col1": "Sri Lankan Tamil Nationalism",
        "col2": "S. Kajendren",
        "col3": "2010",
        "col4": "2010-02-28"
    },
    {
        "col0": "Tamil National Liberation Alliance",
        "col1": "Sri Lankan Tamil Nationalism",
        "col2": "M. K. Shivajilingam",
        "col3": "2010",
        "col4": "2010-02-22"
    },
    {
        "col0": "Tamil National Alliance",
        "col1": "Federalism",
        "col2": "M. Senathirajah",
        "col3": "2001",
        "col4": "2001-10-20"
    },
    {
        "col0": "Syed Ata-ul-Muhaimin Bukhari",
        "col1": "Pakistani nationalism",
        "col2": "Abdul Latif Khalid Cheema",
        "col3": "1929",
        "col4": "1929-12-29"
    },
    {
        "col0": "Sunrise Party",
        "col1": "National conservatism",
        "col2": "H. Sonoda",
        "col3": "2010",
        "col4": "2010-04-10"
    },
    {
        "col0": "Sri Lanka Freedom Party",
        "col1": "Social democracy",
        "col2": "D. Dissanayake",
        "col3": "1951",
        "col4": "1951-09-02"
    },
    {
        "col0": "Sortu",
        "col1": "Feminism",
        "col2": "A. Otegi",
        "col3": "2011",
        "col4": "2011-02-09"
    },
    {
        "col0": "Socialists' Party of Catalonia",
        "col1": "Social democracy",
        "col2": "M. Iceta",
        "col3": "1978",
        "col4": "1978-07-16"
    },
    {
        "col0": "Socialist Party of Catalonia-Regroupment",
        "col1": "Catalanism",
        "col2": "Josep Pallach i CarolA ",
        "col3": "1976",
        "col4": "1976-05-20"
    },
    {
        "col0": "Socialist Party of Catalonia-Congress",
        "col1": "Catalanism",
        "col2": "J. Reventos",
        "col3": "1976",
        "col4": "1976-11-01"
    },
    {
        "col0": "Socialist Party",
        "col1": "Social democracy",
        "col2": "A. Costa",
        "col3": "1973",
        "col4": "1973-04-19"
    },
    {
        "col0": "Singapore People's Party",
        "col1": "Liberalism",
        "col2": "C. S. Tong",
        "col3": "1994",
        "col4": "1994-11-21"
    },
    {
        "col0": "Singapore Democratic Party",
        "col1": "Social liberalism",
        "col2": "C. S. Juan",
        "col3": "1980",
        "col4": "1980-08-06"
    },
    {
        "col0": "Scottish Labour Party",
        "col1": "Nationalisation",
        "col2": "K. Hardie",
        "col3": "1888",
        "col4": "1888-08-25"
    },
    {
        "col0": "SWAPO",
        "col1": "Social democracy",
        "col2": "N. Mbumba",
        "col3": "1960",
        "col4": "1960-04-19"
    },
    {
        "col0": "Revolutionary Front for an Independent East Timor",
        "col1": "Democratic socialism",
        "col2": "M. Alkatiri",
        "col3": "1974",
        "col4": "1974-09-11"
    },
    {
        "col0": "Republican People's Party",
        "col1": "Kemalism",
        "col2": "K. O. Sindir",
        "col3": "1919",
        "col4": "1919-09-07"
    },
    {
        "col0": "Republican Left of Catalonia",
        "col1": "Democratic socialism",
        "col2": "M. Rovira",
        "col3": "1931",
        "col4": "1931-03-19"
    },
    {
        "col0": "Progressive Party",
        "col1": "Conservatism",
        "col2": "T. C. Cheng",
        "col3": "1947",
        "col4": "1947-08-25"
    },
    {
        "col0": "Portuguese Communist Party",
        "col1": "Communism",
        "col2": "J. d. Sousa",
        "col3": "1921",
        "col4": "1921-03-06"
    },
    {
        "col0": "Polisario Front",
        "col1": "Democratic socialism",
        "col2": "B. Ghali",
        "col3": "1973",
        "col4": "1973-05-10"
    },
    {
        "col0": "People's Party",
        "col1": "Christian democracy",
        "col2": "Maria Dolores de Cospedal",
        "col3": "1989",
        "col4": "1989-01-20"
    },
    {
        "col0": "People's Justice Party",
        "col1": "Social liberalism",
        "col2": "R. Ramli",
        "col3": "1999",
        "col4": "1999-04-04"
    },
    {
        "col0": "Party for Japanese Kokoro",
        "col1": "Japanese nationalism",
        "col2": "M. Nakano",
        "col3": "2014",
        "col4": "2014-08-01"
    },
    {
        "col0": "Parti Melayu Semangat 46",
        "col1": "Conservatism",
        "col2": "S. Kamaruddin",
        "col3": "1989",
        "col4": "1989-06-03"
    },
    {
        "col0": "Parti Gerakan Rakyat Malaysia",
        "col1": "Liberalism",
        "col2": "L. T. Meng",
        "col3": "1968",
        "col4": "1968-03-24"
    },
    {
        "col0": "Pakistan Peoples Party",
        "col1": "Populism",
        "col2": "L. Khosa",
        "col3": "1967",
        "col4": "1967-11-30"
    },
    {
        "col0": "Pakistan Muslim League",
        "col1": "Pakistani nationalism",
        "col2": "M. H. Syed",
        "col3": "2002",
        "col4": "2002-07-20"
    },
    {
        "col0": "Osaka Restoration Association",
        "col1": "Neoliberalism",
        "col2": "I. Matsui",
        "col3": "2010",
        "col4": "2010-04-19"
    },
    {
        "col0": "National Rally for Democracy",
        "col1": "Liberalism",
        "col2": "A. Ouyahia",
        "col3": "1997",
        "col4": "1997-02-21"
    },
    {
        "col0": "National Democratic Congress",
        "col1": "Social democracy",
        "col2": "J. Asiedu-Nketia",
        "col3": "1992",
        "col4": "1992-07-28"
    },
    {
        "col0": "Militant Socialist Movement",
        "col1": "Democratic socialism",
        "col2": "N. Bodha",
        "col3": "1983",
        "col4": "1983-04-08"
    }
]