[
    {
        "col0": "Another Day",
        "col1": "George Kirgo",
        "col2": "H. Summers",
        "col3": "1978-04-29"
    },
    {
        "col0": "Anne of Green Gables: The Continuing Story",
        "col1": "Kevin Sullivan",
        "col2": "J. Crombie",
        "col3": "2000-07-30"
    },
    {
        "col0": "Anna and the King",
        "col1": "Bill Idelson",
        "col2": "Y. Brynner",
        "col3": "1972-12-31"
    },
    {
        "col0": "Anna Liza",
        "col1": "GMA Network",
        "col2": "J. Vega",
        "col3": "1985-05-10"
    },
    {
        "col0": "Angry Boys",
        "col1": "Chris Lilley",
        "col2": "C. Lilley",
        "col3": "2011-07-27"
    },
    {
        "col0": "Angels in America",
        "col1": "Celia D. Costas",
        "col2": "A. Pacino",
        "col3": "2003-12-14"
    },
    {
        "col0": "Angela's Eyes",
        "col1": "Cathy Schulman",
        "col2": "A. Spencer",
        "col3": "2006-09-10"
    },
    {
        "col0": "Ang Yaman ni Lola",
        "col1": "GMA News and Public Affairs",
        "col2": "S. Cruz",
        "col3": "2011-01-21"
    },
    {
        "col0": "Ang Iibigin Ay Ikaw",
        "col1": "GMA Entertainment TV Group",
        "col2": "R. Gomez",
        "col3": "2003-04-11"
    },
    {
        "col0": "Ang Babaeng Hinugot sa Aking Tadyang",
        "col1": "GMA Entertainment TV Group",
        "col2": "D. Dantes",
        "col3": "2009-05-29"
    },
    {
        "col0": "Andres de Saya",
        "col1": "GMA Network",
        "col2": "C. Montano",
        "col3": "2011-08-21"
    },
    {
        "col0": "An Idiot Abroad",
        "col1": "Luke Campbell",
        "col2": "R. Gervais",
        "col3": "2012-12-14"
    },
    {
        "col0": "An Englishman's Castle",
        "col1": "Innes Lloyd",
        "col2": "I. Blair",
        "col3": "1978-06-19"
    },
    {
        "col0": "American Inventor",
        "col1": "Simon Cowell",
        "col2": "G. Foreman",
        "col3": "2007-08-01"
    },
    {
        "col0": "American Hot Rod",
        "col1": "Mike Rowe",
        "col2": "B. Coddington",
        "col3": "2008-03-30"
    },
    {
        "col0": "American Gothic",
        "col1": "David Eick",
        "col2": "S. Paulson",
        "col3": "1996-07-11"
    },
    {
        "col0": "Amen",
        "col1": "Peter Noah",
        "col2": "E. Raven",
        "col3": "1991-05-11"
    },
    {
        "col0": "Amber",
        "col1": "Paul Duane",
        "col2": "D. Herlihy",
        "col3": "2014-01-22"
    },
    {
        "col0": "Always and Ever",
        "col1": "Chong Wai-kin",
        "col2": "B. Au-yeung",
        "col3": "2013-09-22"
    },
    {
        "col0": "Alvida",
        "col1": "Humayun Saeed",
        "col2": "N. Waqar",
        "col3": "2015-06-24"
    },
    {
        "col0": "Alphas",
        "col1": "Nick Copus",
        "col2": "D. Strathairn",
        "col3": "2012-10-22"
    },
    {
        "col0": "Aloha Paradise",
        "col1": "Lew Gallo",
        "col2": "D. Reynolds",
        "col3": "1981-04-22"
    },
    {
        "col0": "Alma rebelde",
        "col1": "Ignacio Sada Madero",
        "col2": "A. Arambula",
        "col3": "1999-11-19"
    },
    {
        "col0": "Alma de hierro",
        "col1": "Roberto Gomez Fernandez",
        "col2": "L. Guarinos",
        "col3": "2009-08-28"
    },
    {
        "col0": "Ally McBeal",
        "col1": "Mike Listo",
        "col2": "C. Flockhart",
        "col3": "2002-05-20"
    },
    {
        "col0": "All in the Method",
        "col1": "Rich Keeble",
        "col2": "R. Keeble",
        "col3": "2013-06-22"
    },
    {
        "col0": "All at No 20",
        "col1": "Thames Television",
        "col2": "L. Jacobs",
        "col3": "1987-12-01"
    },
    {
        "col0": "All Our Saturdays",
        "col1": "ITV Yorkshire",
        "col2": "D. Dors",
        "col3": "1973-03-21"
    },
    {
        "col0": "All Creatures Great and Small",
        "col1": "Bill Sellars",
        "col2": "M. Scott",
        "col3": "1990-12-24"
    },
    {
        "col0": "All About the Andersons",
        "col1": "Faye Oshima Belyeu",
        "col2": "R. Ryan",
        "col3": "2004-02-12"
    },
    {
        "col0": "Alice Bungisngis and her Wonder Walis",
        "col1": "Wilma Galvante",
        "col2": "B. Binene",
        "col3": "2012-06-08"
    },
    {
        "col0": "Alias Smith and Jones",
        "col1": "Glen A. Larson",
        "col2": "P. Duel",
        "col3": "1973-01-13"
    },
    {
        "col0": "Alias",
        "col1": "Jennifer Garner",
        "col2": "M. George",
        "col3": "2006-05-22"
    },
    {
        "col0": "Alfresco",
        "col1": "ITV Granada",
        "col2": "E. Thompson",
        "col3": "1984-06-02"
    },
    {
        "col0": "Alexander the Greatest",
        "col1": "Associated Television",
        "col2": "S. Tafler",
        "col3": "1972-05-31"
    },
    {
        "col0": "Alex Haley's Queen",
        "col1": "David L. Wolper",
        "col2": "T. Daly",
        "col3": "1993-02-18"
    },
    {
        "col0": "Alcock and Gander",
        "col1": "Thames Television",
        "col2": "J. Cater",
        "col3": "1972-07-10"
    },
    {
        "col0": "Alcatraz",
        "col1": "Robert Hull",
        "col2": "J. Garcia",
        "col3": "2012-03-26"
    },
    {
        "col0": "Albert and Victoria",
        "col1": "ITV Yorkshire",
        "col2": "P. Markham",
        "col3": "1971-09-17"
    },
    {
        "col0": "Alaigal",
        "col1": "Ananda Vikatan",
        "col2": "M. N. Nambiar",
        "col3": "2003-05-28"
    },
    {
        "col0": "Aks",
        "col1": "Humayun Saeed",
        "col2": "R. Sheikh",
        "col3": "2011-05-26"
    },
    {
        "col0": "Akbari Asghari",
        "col1": "Humayun Saeed",
        "col2": "S. Baloch",
        "col3": "2011-11-10"
    },
    {
        "col0": "Ajeeb Daastaan Hai Ye",
        "col1": "Ekta Kapoor",
        "col2": "Ajeeb Daastaan Hai Ye",
        "col3": "2015-03-06"
    },
    {
        "col0": "Aim in Life",
        "col1": "Masud Sezan",
        "col2": "M. Karim",
        "col3": "2009-01-15"
    },
    {
        "col0": "Aik Thi Misaal",
        "col1": "Momina Duraid",
        "col2": "Z. Qayyum",
        "col3": "2016-01-12"
    },
    {
        "col0": "Agatha Christie's Marple",
        "col1": "WGBH-TV",
        "col2": "G. McEwan",
        "col3": "2013-12-29"
    }
]