[
    {
        "col0": "2 Pallas",
        "col1": "4",
        "col2": "1802-03-28",
        "col3": "76354753205280",
        "col4": "318734227115"
    },
    {
        "col0": "29 Amphitrite",
        "col1": "5",
        "col2": "1854-03-01",
        "col3": "409809000000",
        "col4": "354398000000"
    },
    {
        "col0": "299 Thora",
        "col1": "11",
        "col2": "1890-10-06",
        "col3": "386692544015",
        "col4": "341479579553"
    },
    {
        "col0": "2997 Cabrera",
        "col1": "12",
        "col2": "1974-06-17",
        "col3": "458068680083",
        "col4": "306496117490"
    },
    {
        "col0": "2995 Taratuta",
        "col1": "12",
        "col2": "1978-08-31",
        "col3": "444455273849",
        "col4": "338360463949"
    },
    {
        "col0": "298 Baptistina",
        "col1": "11",
        "col2": "1890-09-09",
        "col3": "371077518271",
        "col4": "306301640258"
    },
    {
        "col0": "2985 Shakespeare",
        "col1": "12",
        "col2": "1983-10-12",
        "col3": "445233182777",
        "col4": "406696771285"
    },
    {
        "col0": "2984 Chaucer",
        "col1": "13",
        "col2": "1981-12-30",
        "col3": "419248032636",
        "col4": "319870167130"
    },
    {
        "col0": "2981 Chagall",
        "col1": "12",
        "col2": "1981-03-02",
        "col3": "551851585225",
        "col4": "390794517629"
    },
    {
        "col0": "2980 Cameron",
        "col1": "13",
        "col2": "1981-03-02",
        "col3": "453790180981",
        "col4": "314424804637"
    },
    {
        "col0": "297 Caecilia",
        "col1": "9",
        "col2": "1890-09-09",
        "col3": "540781342793",
        "col4": "405664545977"
    },
    {
        "col0": "296 Phaetusa",
        "col1": "12",
        "col2": "1890-08-19",
        "col3": "386963316160",
        "col4": "279785417676"
    },
    {
        "col0": "295 Theresia",
        "col1": "10",
        "col2": "1890-08-17",
        "col3": "490022785264",
        "col4": "346259231522"
    },
    {
        "col0": "2959 Scholl",
        "col1": "11",
        "col2": "1983-09-04",
        "col3": "752522168982",
        "col4": "427610553608"
    },
    {
        "col0": "2956 Yeomans",
        "col1": "12",
        "col2": "1982-04-28",
        "col3": "451084239736",
        "col4": "376414736464"
    },
    {
        "col0": "294 Felicia",
        "col1": "10",
        "col2": "1890-07-15",
        "col3": "583790730619",
        "col4": "360701409959"
    },
    {
        "col0": "2942 Cordie",
        "col1": "13",
        "col2": "1932-01-29",
        "col3": "386486098953",
        "col4": "283473005189"
    },
    {
        "col0": "2940 Bacon",
        "col1": "14",
        "col2": "1960-09-24",
        "col3": "514347399040",
        "col4": "318299389488"
    },
    {
        "col0": "293 Brasilia",
        "col1": "9",
        "col2": "1890-05-20",
        "col3": "473581979274",
        "col4": "382069969810"
    },
    {
        "col0": "2939 Coconino",
        "col1": "12",
        "col2": "1982-02-21",
        "col3": "424947711510",
        "col4": "304940299634"
    },
    {
        "col0": "2937 Gibbs",
        "col1": "13",
        "col2": "1980-06-14",
        "col3": "452369105928",
        "col4": "241775874925"
    },
    {
        "col0": "2934 Aristophanes",
        "col1": "11",
        "col2": "1960-09-25",
        "col3": "498145949643",
        "col4": "450110073362"
    },
    {
        "col0": "292 Ludovica",
        "col1": "9",
        "col2": "1890-04-25",
        "col3": "391425820643",
        "col4": "365488541821"
    },
    {
        "col0": "29292 Conniewalker",
        "col1": "13",
        "col2": "1993-05-24",
        "col3": "421207764742",
        "col4": "281408554573"
    },
    {
        "col0": "2927 Alamosa",
        "col1": "12",
        "col2": "1981-10-05",
        "col3": "442719938549",
        "col4": "314664161230"
    },
    {
        "col0": "2920 Automedon",
        "col1": "8",
        "col2": "1981-05-03",
        "col3": "784097791550",
        "col4": "744210511286"
    },
    {
        "col0": "291 Alice",
        "col1": "11",
        "col2": "1890-04-25",
        "col3": "363118911550",
        "col4": "301635682671"
    },
    {
        "col0": "290 Bruna",
        "col1": "11",
        "col2": "1890-03-20",
        "col3": "439644206327",
        "col4": "259719855279"
    },
    {
        "col0": "2906 Caltech",
        "col1": "10",
        "col2": "1983-01-13",
        "col3": "524819249989",
        "col4": "422509266218"
    },
    {
        "col0": "2905 Plaskett",
        "col1": "12",
        "col2": "1982-01-24",
        "col3": "459162659392",
        "col4": "379777128125"
    },
    {
        "col0": "2903 Zhuhai",
        "col1": "11",
        "col2": "1981-10-23",
        "col3": "405991073249",
        "col4": "360757942994"
    },
    {
        "col0": "28 Bellona",
        "col1": "7",
        "col2": "1854-03-01",
        "col3": "477240000000",
        "col4": "353977000000"
    },
    {
        "col0": "289 Nenetta",
        "col1": "9",
        "col2": "1890-03-10",
        "col3": "517759726471",
        "col4": "342071987121"
    },
    {
        "col0": "2895 Memnon",
        "col1": "10",
        "col2": "1981-01-10",
        "col3": "822952846507",
        "col4": "743995090352"
    },
    {
        "col0": "2892 Filipenko",
        "col1": "10",
        "col2": "1983-01-13",
        "col3": "572391372872",
        "col4": "376911835228"
    },
    {
        "col0": "288 Glauke",
        "col1": "9",
        "col2": "1890-02-20",
        "col3": "497689676138",
        "col4": "328554323524"
    },
    {
        "col0": "287 Nephthys",
        "col1": "8",
        "col2": "1889-08-25",
        "col3": "360231672645",
        "col4": "343796850570"
    },
    {
        "col0": "2874 Jim Young",
        "col1": "12",
        "col2": "1982-10-13",
        "col3": "380801379866",
        "col4": "290803300853"
    },
    {
        "col0": "286 Iclea",
        "col1": "9",
        "col2": "1889-08-03",
        "col3": "491768592415",
        "col4": "464124401889"
    },
    {
        "col0": "2867 A teins",
        "col1": "12",
        "col2": "1969-11-04",
        "col3": "405021275133",
        "col4": "302129355644"
    },
    {
        "col0": "2865 Laurel",
        "col1": "11",
        "col2": "1935-07-31",
        "col3": "409972964653",
        "col4": "356192530136"
    },
    {
        "col0": "2862 Vavilov",
        "col1": "12",
        "col2": "1977-05-15",
        "col3": "367141164459",
        "col4": "291537153208"
    },
    {
        "col0": "285 Regina",
        "col1": "10",
        "col2": "1889-08-03",
        "col3": "556698556235",
        "col4": "365826633009"
    },
    {
        "col0": "284 Amalia",
        "col1": "10",
        "col2": "1889-05-29",
        "col3": "431024377018",
        "col4": "274708065945"
    },
    {
        "col0": "28439 Miguelreyes",
        "col1": "14",
        "col2": "2000-01-03",
        "col3": "452413880570",
        "col4": "374787545464"
    },
    {
        "col0": "283 Emma",
        "col1": "8",
        "col2": "1889-02-08",
        "col3": "523145249816",
        "col4": "388468270740"
    },
    {
        "col0": "2839 Annette",
        "col1": "12",
        "col2": "1929-10-05",
        "col3": "381145454969",
        "col4": "281991986269"
    },
    {
        "col0": "2830 Greenwich",
        "col1": "12",
        "col2": "1980-04-14",
        "col3": "428927014871",
        "col4": "282725015835"
    },
    {
        "col0": "282 Clorinde",
        "col1": "10",
        "col2": "1889-01-28",
        "col3": "378208848767",
        "col4": "321740140514"
    },
    {
        "col0": "2826 Ahti",
        "col1": "10",
        "col2": "1939-10-18",
        "col3": "504533778722",
        "col4": "459355221771"
    },
    {
        "col0": "281 Lucretia",
        "col1": "12",
        "col2": "1888-10-31",
        "col3": "370628724659",
        "col4": "283968174141"
    },
    {
        "col0": "2815 Soma",
        "col1": "12",
        "col2": "1982-09-15",
        "col3": "390644919758",
        "col4": "277429251213"
    },
    {
        "col0": "280 Philia",
        "col1": "10",
        "col2": "1888-10-29",
        "col3": "487888023650",
        "col4": "393123756476"
    },
    {
        "col0": "2807 Karl Marx",
        "col1": "12",
        "col2": "1969-10-15",
        "col3": "493493455865",
        "col4": "343162555598"
    },
    {
        "col0": "27 Euterpe",
        "col1": "7",
        "col2": "1853-11-08",
        "col3": "411552000000",
        "col4": "290966000000"
    },
    {
        "col0": "279 Thule",
        "col1": "8",
        "col2": "1888-10-25",
        "col3": "667473984314",
        "col4": "633811172254"
    },
    {
        "col0": "2797 Teucer",
        "col1": "8",
        "col2": "1981-06-04",
        "col3": "830682568486",
        "col4": "695995117559"
    },
    {
        "col0": "278 Paulina",
        "col1": "9",
        "col2": "1888-05-16",
        "col3": "466667565691",
        "col4": "357675045035"
    },
    {
        "col0": "277 Elvira",
        "col1": "9",
        "col2": "1888-05-03",
        "col3": "470952048708",
        "col4": "391994292552"
    },
    {
        "col0": "276 Adelheid",
        "col1": "8",
        "col2": "1888-04-17",
        "col3": "498126501920",
        "col4": "434584806340"
    },
    {
        "col0": "275 Sapientia",
        "col1": "8",
        "col2": "1888-04-15",
        "col3": "482144961393",
        "col4": "346699049262"
    },
    {
        "col0": "2759 Idomeneus",
        "col1": "10",
        "col2": "1980-04-14",
        "col3": "826757120359",
        "col4": "723516637832"
    },
    {
        "col0": "2754 Efimov",
        "col1": "13",
        "col2": "1966-08-13",
        "col3": "410885511664",
        "col4": "255587962090"
    },
    {
        "col0": "2752 Wu Chien-Shiung",
        "col1": "11",
        "col2": "1965-09-20",
        "col3": "502109081474",
        "col4": "402245875596"
    },
    {
        "col0": "2751 Campbell",
        "col1": "13",
        "col2": "1962-09-07",
        "col3": "422389587921",
        "col4": "297834400776"
    },
    {
        "col0": "274 Philagoria",
        "col1": "10",
        "col2": "1888-04-03",
        "col3": "509854974983",
        "col4": "400735296137"
    },
    {
        "col0": "2747 Cesky Krumlov",
        "col1": "11",
        "col2": "1980-02-19",
        "col3": "523039035328",
        "col4": "404288245566"
    },
    {
        "col0": "274301 Wikipedia",
        "col1": "16",
        "col2": "2008-08-25",
        "col3": "408696894816",
        "col4": "303777924179"
    },
    {
        "col0": "2741 Valdivia",
        "col1": "11",
        "col2": "1975-12-01",
        "col3": "461084393639",
        "col4": "319387175445"
    },
    {
        "col0": "273 Atropos",
        "col1": "10",
        "col2": "1888-03-08",
        "col3": "415762402249",
        "col4": "300836830041"
    },
    {
        "col0": "2730 Barks",
        "col1": "11",
        "col2": "1981-08-30",
        "col3": "459804015383",
        "col4": "354322556752"
    },
    {
        "col0": "272 Antonia",
        "col1": "10",
        "col2": "1888-02-04",
        "col3": "426787765320",
        "col4": "404391468097"
    },
    {
        "col0": "27270 Guidotti",
        "col1": "14",
        "col2": "2000-01-02",
        "col3": "389358378070",
        "col4": "342638963051"
    },
    {
        "col0": "2726 Kotelnikov",
        "col1": "12",
        "col2": "1979-09-22",
        "col3": "459759360419",
        "col4": "395637509336"
    },
    {
        "col0": "271 Penthesilea",
        "col1": "9",
        "col2": "1887-10-13",
        "col3": "495872062009",
        "col4": "402769827179"
    },
    {
        "col0": "270 Anahita",
        "col1": "8",
        "col2": "1887-10-08",
        "col3": "378333015000",
        "col4": "279628339912"
    },
    {
        "col0": "2709 Sagan",
        "col1": "13",
        "col2": "1982-03-21",
        "col3": "351210921042",
        "col4": "305703248775"
    },
    {
        "col0": "26 Proserpina",
        "col1": "7",
        "col2": "1853-05-05",
        "col3": "431898000000",
        "col4": "362816000000"
    },
    {
        "col0": "269 Justitia",
        "col1": "9",
        "col2": "1887-09-21",
        "col3": "474938831962",
        "col4": "307498423223"
    },
    {
        "col0": "2697 Albina",
        "col1": "10",
        "col2": "1969-10-09",
        "col3": "575158933480",
        "col4": "490621176747"
    },
    {
        "col0": "2696 Magion",
        "col1": "12",
        "col2": "1980-04-16",
        "col3": "408395185830",
        "col4": "324679843392"
    },
    {
        "col0": "2691 Sersic",
        "col1": "13",
        "col2": "1974-05-18",
        "col3": "373545883137",
        "col4": "298028878008"
    },
    {
        "col0": "268 Adorea",
        "col1": "8",
        "col2": "1887-06-08",
        "col3": "525799116042",
        "col4": "399174990346"
    },
    {
        "col0": "2685 Masursky",
        "col1": "12",
        "col2": "1981-05-03",
        "col3": "426494553493",
        "col4": "342250008587"
    },
    {
        "col0": "26858 Misterrogers",
        "col1": "12",
        "col2": "1993-03-21",
        "col3": "470724659944",
        "col4": "229976806627"
    },
    {
        "col0": "267 Tirza",
        "col1": "10",
        "col2": "1887-05-27",
        "col3": "455933918468",
        "col4": "374208601705"
    },
    {
        "col0": "2678 Aavasaksa",
        "col1": "12",
        "col2": "1938-02-24",
        "col3": "367337571503",
        "col4": "308874723634"
    },
    {
        "col0": "2675 Tolkien",
        "col1": "12",
        "col2": "1982-04-14",
        "col3": "364824327276",
        "col4": "297176170145"
    },
    {
        "col0": "2674 Pandarus",
        "col1": "9",
        "col2": "1982-01-27",
        "col3": "827553549503",
        "col4": "722614323315"
    },
    {
        "col0": "266 Aline",
        "col1": "8",
        "col2": "1887-05-17",
        "col3": "485039680191",
        "col4": "353887226949"
    },
    {
        "col0": "2661 Bydzovsky",
        "col1": "11",
        "col2": "1982-03-23",
        "col3": "495408308610",
        "col4": "410077683162"
    },
    {
        "col0": "265 Anna",
        "col1": "11",
        "col2": "1887-02-25",
        "col3": "458774782033",
        "col4": "265383630664"
    },
    {
        "col0": "2658 Gingerich",
        "col1": "12",
        "col2": "1980-02-13",
        "col3": "591539152332",
        "col4": "326091778015"
    },
    {
        "col0": "264 Libussa",
        "col1": "8",
        "col2": "1886-12-22",
        "col3": "475706269038",
        "col4": "361091860402"
    },
    {
        "col0": "2648 Owa",
        "col1": "12",
        "col2": "1980-11-08",
        "col3": "395427563685",
        "col4": "277839149378"
    },
    {
        "col0": "2644 Victor Jara",
        "col1": "13",
        "col2": "1973-09-22",
        "col3": "378476973031",
        "col4": "270748210307"
    },
    {
        "col0": "263 Dresda",
        "col1": "10",
        "col2": "1886-11-03",
        "col3": "465123715665",
        "col4": "399254277217"
    },
    {
        "col0": "2637 Bobrovnikoff",
        "col1": "13",
        "col2": "1919-09-22",
        "col3": "416690522399",
        "col4": "258311391327"
    },
    {
        "col0": "262 Valda",
        "col1": "11",
        "col2": "1886-11-03",
        "col3": "463379404493",
        "col4": "300070888943"
    },
    {
        "col0": "2629 Rudra",
        "col1": "15",
        "col2": "1980-09-13",
        "col3": "319988902960",
        "col4": "200678946277"
    },
    {
        "col0": "2623 Zech",
        "col1": "13",
        "col2": "1919-09-22",
        "col3": "416555270964",
        "col4": "258430321634"
    },
    {
        "col0": "261 Prymno",
        "col1": "9",
        "col2": "1886-10-31",
        "col3": "380059374428",
        "col4": "317650134729"
    },
    {
        "col0": "2613 Plzen",
        "col1": "11",
        "col2": "1979-08-30",
        "col3": "475676349464",
        "col4": "434028302261"
    },
    {
        "col0": "260 Huberta",
        "col1": "8",
        "col2": "1886-10-03",
        "col3": "574494718934",
        "col4": "455889039107"
    },
    {
        "col0": "2608 Seneca",
        "col1": "17",
        "col2": "1978-02-17",
        "col3": "591452790930",
        "col4": "161342703052"
    },
    {
        "col0": "26074 Carlwirtz",
        "col1": "14",
        "col2": "1977-10-08",
        "col3": "295009409546",
        "col4": "246841991856"
    },
    {
        "col0": "2606 Odessa",
        "col1": "11",
        "col2": "1976-04-01",
        "col3": "521891619660",
        "col4": "303637302181"
    },
    {
        "col0": "25 Phocaea",
        "col1": "7",
        "col2": "1853-04-06",
        "col3": "450716000000",
        "col4": "267314000000"
    },
    {
        "col0": "259 Aletheia",
        "col1": "7",
        "col2": "1886-06-28",
        "col3": "528873352285",
        "col4": "409105297003"
    },
    {
        "col0": "25924 Douglasadams",
        "col1": "15",
        "col2": "2001-02-19",
        "col3": "421477040910",
        "col4": "301230272441"
    },
    {
        "col0": "2591 Dworetsky",
        "col1": "11",
        "col2": "1949-08-02",
        "col3": "457963961573",
        "col4": "421237684317"
    },
    {
        "col0": "2590 Mourao",
        "col1": "12",
        "col2": "1980-05-22",
        "col3": "391841702724",
        "col4": "308919602995"
    },
    {
        "col0": "258 Tyche",
        "col1": "8",
        "col2": "1886-05-04",
        "col3": "471412810149",
        "col4": "311732042964"
    },
    {
        "col0": "257 Silesia",
        "col1": "9",
        "col2": "1886-04-05",
        "col3": "518640857929",
        "col4": "414550659496"
    },
    {
        "col0": "2578 Saint-Exupery",
        "col1": "11",
        "col2": "1975-11-02",
        "col3": "492580908853",
        "col4": "405305511087"
    },
    {
        "col0": "2577 Litva",
        "col1": "13",
        "col2": "1975-03-12",
        "col3": "324133706445",
        "col4": "245684583050"
    },
    {
        "col0": "2575 Bulgaria",
        "col1": "12",
        "col2": "1970-08-04",
        "col3": "376522880764",
        "col4": "293780298480"
    },
    {
        "col0": "2572 Annschnell",
        "col1": "13",
        "col2": "1950-02-17",
        "col3": "410287120181",
        "col4": "305000138783"
    },
    {
        "col0": "2571 Geisei",
        "col1": "12",
        "col2": "1981-10-23",
        "col3": "398169692655",
        "col4": "268797454073"
    },
    {
        "col0": "256 Walpurga",
        "col1": "9",
        "col2": "1886-04-03",
        "col3": "478653347091",
        "col4": "418850102300"
    },
    {
        "col0": "255 Oppavia",
        "col1": "10",
        "col2": "1886-03-31",
        "col3": "442609236125",
        "col4": "378994237588"
    },
    {
        "col0": "2554 Skiff",
        "col1": "12",
        "col2": "1980-07-17",
        "col3": "387862399363",
        "col4": "289382121082"
    },
    {
        "col0": "254 Augusta",
        "col1": "12",
        "col2": "1886-03-31",
        "col3": "368205239153",
        "col4": "288439654496"
    },
    {
        "col0": "2542 Calpurnia",
        "col1": "11",
        "col2": "1980-02-11",
        "col3": "503067719589",
        "col4": "433953503326"
    },
    {
        "col0": "253 Mathilde",
        "col1": "10",
        "col2": "1885-11-12",
        "col3": "501157969628",
        "col4": "291232676662"
    },
    {
        "col0": "2537 Gilmore",
        "col1": "12",
        "col2": "1951-09-04",
        "col3": "465772970424",
        "col4": "328980677456"
    },
    {
        "col0": "2531 Cambridge",
        "col1": "10",
        "col2": "1980-06-11",
        "col3": "475571630955",
        "col4": "424274521092"
    },
    {
        "col0": "252 Clementina",
        "col1": "9",
        "col2": "1885-10-11",
        "col3": "505491205095",
        "col4": "439745932880"
    },
    {
        "col0": "251 Sophia",
        "col1": "9",
        "col2": "1885-10-04",
        "col3": "509296974925",
        "col4": "417448370252"
    },
    {
        "col0": "2518 Rutllant",
        "col1": "13",
        "col2": "1974-03-22",
        "col3": "405066154494",
        "col4": "285657134101"
    },
    {
        "col0": "25143 Itokawa",
        "col1": "19",
        "col2": "1998-09-26",
        "col3": "253568390836",
        "col4": "142566770777"
    },
    {
        "col0": "2513 Baetsle",
        "col1": "13",
        "col2": "1950-09-19",
        "col3": "404063848760",
        "col4": "279957455227"
    },
    {
        "col0": "25109 Hofving",
        "col1": "15",
        "col2": "1998-09-14",
        "col3": "424415591884",
        "col4": "301982600133"
    },
    {
        "col0": "25108 Bostrom",
        "col1": "14",
        "col2": "1998-09-14",
        "col3": "458992880768",
        "col4": "329344753794"
    },
    {
        "col0": "250 Bettina",
        "col1": "7",
        "col2": "1885-09-03",
        "col3": "533421127554",
        "col4": "408776181687"
    },
    {
        "col0": "25088 Yoshimura",
        "col1": "15",
        "col2": "1998-09-14",
        "col3": "429228649057",
        "col4": "345176576772"
    },
    {
        "col0": "2500 Alascattalo",
        "col1": "12",
        "col2": "1926-04-02",
        "col3": "368489475108",
        "col4": "301933382433"
    },
    {
        "col0": "25000 Astrometria",
        "col1": "12",
        "col2": "1998-07-28",
        "col3": "519463646218",
        "col4": "427356237228"
    },
    {
        "col0": "24 Themis",
        "col1": "7",
        "col2": "1853-04-05",
        "col3": "529400000000",
        "col4": "406756610433"
    },
    {
        "col0": "249 Ilse",
        "col1": "11",
        "col2": "1885-08-16",
        "col3": "433011036741",
        "col4": "278240071672"
    },
    {
        "col0": "24988 Alainmilsztajn",
        "col1": "14",
        "col2": "1998-06-19",
        "col3": "410930391025",
        "col4": "308695206189"
    },
    {
        "col0": "2490 Bussolini",
        "col1": "11",
        "col2": "1976-01-03",
        "col3": "442345943872",
        "col4": "338210866078"
    },
    {
        "col0": "248 Lameia",
        "col1": "10",
        "col2": "1885-06-05",
        "col3": "394295107803",
        "col4": "345059456599"
    },
    {
        "col0": "2486 Metsahovi",
        "col1": "12",
        "col2": "1939-03-22",
        "col3": "366484863640",
        "col4": "312240675725"
    },
    {
        "col0": "2483 Guinevere",
        "col1": "10",
        "col2": "1928-08-17",
        "col3": "759503662251",
        "col4": "429050253596"
    },
    {
        "col0": "24827 Maryphil",
        "col1": "13",
        "col2": "1995-09-02",
        "col3": "432562243129",
        "col4": "269051770453"
    },
    {
        "col0": "247 Eukrate",
        "col1": "8",
        "col2": "1885-03-14",
        "col3": "509919302068",
        "col4": "310834455740"
    },
    {
        "col0": "2478 Tokai",
        "col1": "12",
        "col2": "1981-05-04",
        "col3": "355609098440",
        "col4": "310280943618"
    },
    {
        "col0": "246 Asporina",
        "col1": "8",
        "col2": "1885-03-06",
        "col3": "447209370649",
        "col4": "358687822619"
    },
    {
        "col0": "24626 Astrowizard",
        "col1": "14",
        "col2": "1980-10-09",
        "col3": "532542269984",
        "col4": "296383555747"
    },
    {
        "col0": "245 Vera",
        "col1": "7",
        "col2": "1885-02-06",
        "col3": "554409708814",
        "col4": "374606532041"
    },
    {
        "col0": "2456 Palamedes",
        "col1": "9",
        "col2": "1966-01-30",
        "col3": "823959640177",
        "col4": "710836722311"
    },
    {
        "col0": "244 Sita",
        "col1": "11",
        "col2": "1884-10-14",
        "col3": "369980965879",
        "col4": "280542382902"
    },
    {
        "col0": "2449 Kenos",
        "col1": "14",
        "col2": "1978-04-08",
        "col3": "333618211448",
        "col4": "237486619736"
    },
    {
        "col0": "2443 Tomeileen",
        "col1": "10",
        "col2": "1906-01-24",
        "col3": "476708006300",
        "col4": "423206197818"
    },
    {
        "col0": "2442 Corbett",
        "col1": "12",
        "col2": "1980-10-03",
        "col3": "399022400518",
        "col4": "315427110370"
    },
    {
        "col0": "243 Ida",
        "col1": "9",
        "col2": "1884-09-29",
        "col3": "445652056815",
        "col4": "410346959330"
    },
    {
        "col0": "2436 Hatshepsut",
        "col1": "12",
        "col2": "1960-09-24",
        "col3": "522874477670",
        "col4": "428672698490"
    },
    {
        "col0": "2433 Sootiyo",
        "col1": "11",
        "col2": "1981-04-05",
        "col3": "476439298605",
        "col4": "303519119863"
    },
    {
        "col0": "2430 Bruce Helin",
        "col1": "11",
        "col2": "1977-11-08",
        "col3": "429166371464",
        "col4": "277578849083"
    },
    {
        "col0": "242 Kriemhild",
        "col1": "9",
        "col2": "1884-09-22",
        "col3": "479251738574",
        "col4": "377053953205"
    },
    {
        "col0": "2429 Schurer",
        "col1": "12",
        "col2": "1977-10-12",
        "col3": "423466692590",
        "col4": "346259231522"
    },
    {
        "col0": "24260 Krivan",
        "col1": "12",
        "col2": "1999-12-13",
        "col3": "438680796040",
        "col4": "338195906291"
    },
    {
        "col0": "2423 Ibarruri",
        "col1": "13",
        "col2": "1972-07-14",
        "col3": "420100740499",
        "col4": "234793858063"
    },
    {
        "col0": "2420 Ciurlionis",
        "col1": "12",
        "col2": "1975-10-03",
        "col3": "434088141410",
        "col4": "331912795722"
    },
    {
        "col0": "241 Germania",
        "col1": "7",
        "col2": "1884-09-12",
        "col3": "502635381743",
        "col4": "409483779616"
    },
    {
        "col0": "24105 Broughton",
        "col1": "13",
        "col2": "1999-11-09",
        "col3": "364555051108",
        "col4": "335817300147"
    }
]