[
    {
        "col0": "Tuber cinereum",
        "col1": "189",
        "col2": "12827470",
        "col3": "A08.186.211.730.385.357.352.870",
        "col4": "376",
        "col5": "813"
    },
    {
        "col0": "Trigeminal nerve nuclei",
        "col1": "187",
        "col2": "12583834",
        "col3": "A08.186.211.132.931",
        "col4": "1008020136",
        "col5": "787"
    },
    {
        "col0": "Trigeminal motor nucleus",
        "col1": "187",
        "col2": "12581906",
        "col3": "A08.186.211.132.931",
        "col4": "551",
        "col5": "787"
    },
    {
        "col0": "Substantia innominata",
        "col1": "189",
        "col2": "12766814",
        "col3": "A08.186.211.577.820",
        "col4": "256",
        "col5": "837"
    },
    {
        "col0": "Spinal trigeminal nucleus",
        "col1": "187",
        "col2": "12583463",
        "col3": "A08.186.211.132.931.920",
        "col4": "1015266456",
        "col5": "787"
    },
    {
        "col0": "Rhombic lip",
        "col1": "187",
        "col2": "12529123",
        "col3": "A08.186.211.132.810.428",
        "col4": "534",
        "col5": "785"
    },
    {
        "col0": "Rhinencephalon",
        "col1": "189",
        "col2": "12708360",
        "col3": "A08.186.211.577.699",
        "col4": "241",
        "col5": "826"
    },
    {
        "col0": "Reticular formation",
        "col1": "187",
        "col2": "12374790",
        "col3": "A08.186.211.132.772",
        "col4": "225",
        "col5": "784"
    },
    {
        "col0": "Red nucleus",
        "col1": "188",
        "col2": "12583247",
        "col3": "A08.186.211.132.659.822.642",
        "col4": "496",
        "col5": "802"
    },
    {
        "col0": "Principal sensory nucleus of trigeminal nerve",
        "col1": "187",
        "col2": "12582704",
        "col3": "A08.186.211.132.931",
        "col4": "552",
        "col5": "787"
    },
    {
        "col0": "Pituitary stalk",
        "col1": "189",
        "col2": "12451615",
        "col3": "A06.407.747",
        "col4": "388",
        "col5": "813"
    },
    {
        "col0": "Periaqueductal gray",
        "col1": "188",
        "col2": "12766787",
        "col3": "A08.186.211.132.659.822.595",
        "col4": "501",
        "col5": "806"
    }
]