[
    {
        "col0": "Clinical and Applied Thrombosis-Hemostasis",
        "col1": "Sage Publications",
        "col2": "1995",
        "col3": "1076-0296",
        "col4": "CATHF9",
        "col5": "30373737"
    },
    {
        "col0": "Clinical Therapeutics",
        "col1": "Elsevier",
        "col2": "1979",
        "col3": "0149-2918",
        "col4": "CLTHDG",
        "col5": "43029633"
    },
    {
        "col0": "Clinical Science",
        "col1": "Portland Press",
        "col2": "1909",
        "col3": "0143-5221",
        "col4": "CSCIAE",
        "col5": "4596879"
    },
    {
        "col0": "Clinical Research in Cardiology",
        "col1": "Springer Science+Business Media",
        "col2": "1909",
        "col3": "1861-0684",
        "col4": "CRCLCI",
        "col5": "229931581"
    },
    {
        "col0": "Clinical Rehabilitation",
        "col1": "SAGE Publications",
        "col2": "1987",
        "col3": "0269-2155",
        "col4": "CEHAEN",
        "col5": "42417606"
    },
    {
        "col0": "Clinical Proteomics",
        "col1": "Humana Press",
        "col2": "2004",
        "col3": "1542-6416",
        "col4": "CPLRCX",
        "col5": "51088619"
    },
    {
        "col0": "Clinical Pharmacology & Therapeutics",
        "col1": "Wiley-Blackwell",
        "col2": "1960",
        "col3": "0009-9236",
        "col4": "CLPTAT",
        "col5": "1554939"
    },
    {
        "col0": "Clinical Pediatrics",
        "col1": "SAGE Publications",
        "col2": "1962",
        "col3": "0009-9228",
        "col4": "CPEDAM",
        "col5": "879341"
    },
    {
        "col0": "Clinical Orthopaedics and Related Research",
        "col1": "Springer Science+Business Media",
        "col2": "1953",
        "col3": "0009-921X",
        "col4": "CORTBR",
        "col5": "1554937"
    },
    {
        "col0": "Clinical Obstetrics and Gynecology",
        "col1": "Lippincott Williams & Wilkins",
        "col2": "1958",
        "col3": "0009-9201",
        "col4": "COGYAK",
        "col5": "1784397"
    },
    {
        "col0": "Clinical Neurophysiology",
        "col1": "Elsevier",
        "col2": "1949",
        "col3": "1388-2457",
        "col4": "CNEUFU",
        "col5": "40618487"
    },
    {
        "col0": "Clinical Microbiology and Infection",
        "col1": "Elsevier",
        "col2": "1995",
        "col3": "1198-743X",
        "col4": "CMINFM",
        "col5": "223755103"
    },
    {
        "col0": "Clinical Microbiology Reviews",
        "col1": "American Society for Microbiology",
        "col2": "1988",
        "col3": "0893-8512",
        "col4": "CMIREX",
        "col5": "38839512"
    },
    {
        "col0": "Clinical Medicine",
        "col1": "Royal College of Physicians",
        "col2": "1966",
        "col3": "1470-2118",
        "col4": "CMLUBK",
        "col5": "61312884"
    },
    {
        "col0": "Clinical Leukemia",
        "col1": "CIG Media Group",
        "col2": "2006",
        "col3": "1931-6925",
        "col4": "CLLEAW",
        "col5": "226240251"
    },
    {
        "col0": "Clinical Interventions in Aging",
        "col1": "Dove Medical Press",
        "col2": "2006",
        "col3": "1176-9092",
        "col4": "CIALBC",
        "col5": "317918656"
    },
    {
        "col0": "Clinical Infectious Diseases",
        "col1": "Oxford University Press",
        "col2": "1979",
        "col3": "1058-4838",
        "col4": "CIDIEL",
        "col5": "24308833"
    },
    {
        "col0": "Clinical Genetics",
        "col1": "Wiley-Blackwell",
        "col2": "1970",
        "col3": "0009-9163",
        "col4": "CLGNAY",
        "col5": "1554932"
    },
    {
        "col0": "Clinical Gastroenterology and Hepatology",
        "col1": "Elsevier",
        "col2": "2003",
        "col3": "1542-3565",
        "col4": "CGHLAW",
        "col5": "51173884"
    },
    {
        "col0": "Clinical Child Psychology and Psychiatry",
        "col1": "SAGE Publications",
        "col2": "1996",
        "col3": "1359-1045",
        "col4": "CCPPFR",
        "col5": "41383796"
    },
    {
        "col0": "Clinical Chemistry and Laboratory Medicine",
        "col1": "Walter de Gruyter",
        "col2": "1963",
        "col3": "1434-6621",
        "col4": "CCLMFW",
        "col5": "475036853"
    },
    {
        "col0": "Clinical Chemistry",
        "col1": "American Association for Clinical Chemistry",
        "col2": "1955",
        "col3": "0009-9147",
        "col4": "CLCHAU",
        "col5": "1554929"
    },
    {
        "col0": "Clinical Cardiology",
        "col1": "John Wiley & Sons",
        "col2": "1978",
        "col3": "0160-9289",
        "col4": "CLCADC",
        "col5": "848831055"
    },
    {
        "col0": "Clinical Cancer Research",
        "col1": "American Association for Cancer Research",
        "col2": "1995",
        "col3": "1078-0432",
        "col4": "CCREF",
        "col5": "30960261"
    },
    {
        "col0": "Clinical Anatomy",
        "col1": "John Wiley & Sons",
        "col2": "1988",
        "col3": "0897-3806",
        "col4": "CLANE8",
        "col5": "17469528"
    },
    {
        "col0": "Clinica Chimica Acta",
        "col1": "Elsevier",
        "col2": "1956",
        "col3": "0009-8981",
        "col4": "CCATAR",
        "col5": "2259463"
    },
    {
        "col0": "Climatic Change",
        "col1": "Springer Science+Business Media",
        "col2": "1978",
        "col3": "0165-0009",
        "col4": "CLCHDX",
        "col5": "300183508"
    },
    {
        "col0": "Climate Dynamics",
        "col1": "Springer Science+Business Media",
        "col2": "1986",
        "col3": "0930-7575",
        "col4": "CLDYEM",
        "col5": "609893843"
    },
    {
        "col0": "Circulation Research",
        "col1": "Lippincott Williams & Wilkins",
        "col2": "1953",
        "col3": "0009-7330",
        "col4": "CIRUAL",
        "col5": "856122"
    },
    {
        "col0": "Chronobiology International",
        "col1": "Informa",
        "col2": "1984",
        "col3": "0742-0528",
        "col4": "CHBIE4",
        "col5": "779677044"
    },
    {
        "col0": "Chinese Medical Journal",
        "col1": "Chinese Medical Association",
        "col2": "1887",
        "col3": "0366-6999",
        "col4": "CMDJAS",
        "col5": "476629088"
    },
    {
        "col0": "Chinese Chemical Letters",
        "col1": "Elsevier",
        "col2": "1990",
        "col3": "1001-8417",
        "col4": "CCLEE7",
        "col5": "41953115"
    },
    {
        "col0": "Chimica Oggi - Chemistry Today",
        "col1": "Tekno Scienze Publisher",
        "col2": "1983",
        "col3": "0392-839X",
        "col4": "CHOGDS",
        "col5": "859566286"
    },
    {
        "col0": "Child Development",
        "col1": "Wiley-Blackwell",
        "col2": "1930",
        "col3": "0009-3920",
        "col4": "CHDEAW",
        "col5": "641792335"
    },
    {
        "col0": "Child Abuse Review",
        "col1": "Wiley-Blackwell",
        "col2": "1992",
        "col3": "0952-9136",
        "col4": "CABEEB",
        "col5": "225105359"
    },
    {
        "col0": "Child: Care, Health and Development",
        "col1": "Wiley-Blackwell",
        "col2": "1975",
        "col3": "0305-1862",
        "col4": "CCHDDH",
        "col5": "260171769"
    },
    {
        "col0": "Chest",
        "col1": "American College of Chest Physicians",
        "col2": "1935",
        "col3": "0012-3692",
        "col4": "CHETBF",
        "col5": "1554067"
    },
    {
        "col0": "Chemotherapy",
        "col1": "Karger Publishers",
        "col2": "1960",
        "col3": "0009-3157",
        "col4": "CHTHBK",
        "col5": "848525325"
    },
    {
        "col0": "Chemistry of Natural Compounds",
        "col1": "Springer Science+Business Media",
        "col2": "1965",
        "col3": "0009-3130",
        "col4": "CHNCA8",
        "col5": "300183478"
    },
    {
        "col0": "Chemistry Letters",
        "col1": "Chemical Society of Japan",
        "col2": "1972",
        "col3": "0366-7022",
        "col4": "CMLTAG",
        "col5": "801836827"
    },
    {
        "col0": "Chemistry Education Research and Practice",
        "col1": "Royal Society of Chemistry",
        "col2": "2000",
        "col3": "1109-4028",
        "col4": "CERPCE",
        "col5": "613094024"
    },
    {
        "col0": "Chemistry: A European Journal",
        "col1": "Wiley-VCH",
        "col2": "1995",
        "col3": "0947-6539",
        "col4": "CEUJED",
        "col5": "32677914"
    },
    {
        "col0": "Chemische Berichte",
        "col1": "John Wiley & Sons",
        "col2": "1868",
        "col3": "0009-2940",
        "col4": "BDCGAS",
        "col5": "36290071"
    },
    {
        "col0": "Chemical Society Reviews",
        "col1": "Royal Society of Chemistry",
        "col2": "1971",
        "col3": "0306-0012",
        "col4": "CSRVBR",
        "col5": "191709218"
    },
    {
        "col0": "Chemical Science",
        "col1": "Royal Society of Chemistry",
        "col2": "2010",
        "col3": "2041-6520",
        "col4": "CSHCCN",
        "col5": "648957145"
    },
    {
        "col0": "Chemical Reviews",
        "col1": "American Chemical Society",
        "col2": "1924",
        "col3": "0009-2665",
        "col4": "CHREAY",
        "col5": "473768321"
    },
    {
        "col0": "Chemical Engineering Science",
        "col1": "Elsevier",
        "col2": "1951",
        "col3": "0009-2509",
        "col4": "CESCAC",
        "col5": "781521624"
    },
    {
        "col0": "Chemical Communications",
        "col1": "Royal Society of Chemistry",
        "col2": "1989",
        "col3": "1359-7345",
        "col4": "CHCOFS",
        "col5": "869930135"
    },
    {
        "col0": "Chemical & Engineering News",
        "col1": "American Chemical Society",
        "col2": "1923",
        "col3": "0009-2347",
        "col4": "CENEAR",
        "col5": "567617114"
    },
    {
        "col0": "ChemSusChem",
        "col1": "Wiley-VCH",
        "col2": "2008",
        "col3": "1864-5631",
        "col4": "CHEMIZ",
        "col5": "441722712"
    },
    {
        "col0": "ChemPlusChem",
        "col1": "Wiley-VCH",
        "col2": "1929",
        "col3": "0010-0765",
        "col4": "CCCCAK",
        "col5": "1564026"
    },
    {
        "col0": "ChemPhysChem",
        "col1": "Wiley-VCH",
        "col2": "2000",
        "col3": "1439-4235",
        "col4": "CPCHFT",
        "col5": "45745048"
    },
    {
        "col0": "Chelonian Conservation and Biology",
        "col1": "Allen Press",
        "col2": "1993",
        "col3": "1071-8443",
        "col4": "CCOBED",
        "col5": "298955857"
    },
    {
        "col0": "Chaos",
        "col1": "American Institute of Physics",
        "col2": "1991",
        "col3": "1054-1500",
        "col4": "CHAOEH",
        "col5": "35131011"
    },
    {
        "col0": "Cephalalgia",
        "col1": "Sage Publications",
        "col2": "1981",
        "col3": "0333-1024",
        "col4": "CEPHDF",
        "col5": "904498743"
    },
    {
        "col0": "Central Asiatic Journal",
        "col1": "Harrassowitz Verlag",
        "col2": "1955",
        "col3": "0008-9192",
        "col4": "CAJOFE",
        "col5": "1553665"
    },
    {
        "col0": "Cellular and Molecular Life Sciences",
        "col1": "Springer Science+Business Media",
        "col2": "1945",
        "col3": "1420-682X",
        "col4": "CMLSFI",
        "col5": "610389347"
    },
    {
        "col0": "Cellular Signalling",
        "col1": "Elsevier",
        "col2": "1989",
        "col3": "0898-6568",
        "col4": "CESIEY",
        "col5": "17868798"
    },
    {
        "col0": "Cell Research",
        "col1": "Nature Publishing Group",
        "col2": "1990",
        "col3": "1001-0602",
        "col4": "CREEB6",
        "col5": "52535380"
    },
    {
        "col0": "Cell Cycle",
        "col1": "Landes Bioscience",
        "col2": "2002",
        "col3": "1538-4101",
        "col4": "CCEYAS",
        "col5": "48778167"
    },
    {
        "col0": "Cell Calcium",
        "col1": "Elsevier",
        "col2": "1980",
        "col3": "0143-4160",
        "col4": "CECADV",
        "col5": "237360462"
    },
    {
        "col0": "Cell Biology International",
        "col1": "Portland Press",
        "col2": "1977",
        "col3": "1065-6995",
        "col4": "CBIIEV",
        "col5": "26684328"
    },
    {
        "col0": "Cell Biochemistry and Biophysics",
        "col1": "Springer Science+Business Media",
        "col2": "1979",
        "col3": "1085-9195",
        "col4": "CBBIFV",
        "col5": "49728714"
    },
    {
        "col0": "Cell Biochemistry & Function",
        "col1": "Wiley-Blackwell",
        "col2": "1983",
        "col3": "0263-6484",
        "col4": "CBFUDH",
        "col5": "9500510"
    },
    {
        "col0": "Cell",
        "col1": "Cell Press",
        "col2": "1974",
        "col3": "0092-8674",
        "col4": "CELLB5",
        "col5": "1792038"
    },
    {
        "col0": "Celestial Mechanics and Dynamical Astronomy",
        "col1": "Springer Science+Business Media",
        "col2": "1969",
        "col3": "0923-2958",
        "col4": "CLMCAV",
        "col5": "263607824"
    },
    {
        "col0": "Catalysis Science & Technology",
        "col1": "Royal Society of Chemistry",
        "col2": "2011",
        "col3": "2044-4753",
        "col4": "CSTAGD",
        "col5": "703389810"
    },
    {
        "col0": "Cataloging & Classification Quarterly",
        "col1": "Taylor and Francis",
        "col2": "1980",
        "col3": "0163-9374",
        "col4": "CCQUDB",
        "col5": "4538259"
    },
    {
        "col0": "Cardiology in Review",
        "col1": "Lippincott Williams & Wilkins",
        "col2": "1993",
        "col3": "1061-5377",
        "col4": "CRVIE4",
        "col5": "48798132"
    },
    {
        "col0": "Cardiology",
        "col1": "Karger",
        "col2": "1937",
        "col3": "0008-6312",
        "col4": "CAGYAO",
        "col5": "2064881"
    },
    {
        "col0": "CardioVascular and Interventional Radiology",
        "col1": "Springer Science+Business Media",
        "col2": "1978",
        "col3": "0174-1551",
        "col4": "CARADG",
        "col5": "6118549"
    },
    {
        "col0": "Carcinogenesis",
        "col1": "Oxford University Press",
        "col2": "1980",
        "col3": "0143-3334",
        "col4": "CRNGDP",
        "col5": "6123551"
    },
    {
        "col0": "Carbohydrate Research",
        "col1": "Elsevier",
        "col2": "1965",
        "col3": "0008-6215",
        "col4": "CRBRAT",
        "col5": "1553338"
    },
    {
        "col0": "Cancer Science",
        "col1": "Wiley-Blackwell",
        "col2": "1907",
        "col3": "1347-9032",
        "col4": "CSACCM",
        "col5": "183261143"
    },
    {
        "col0": "Cancer Research",
        "col1": "American Association for Cancer Research",
        "col2": "1916",
        "col3": "0008-5472",
        "col4": "CNREA8",
        "col5": "1553285"
    },
    {
        "col0": "Cancer Letters",
        "col1": "Elsevier",
        "col2": "1975",
        "col3": "0304-3835",
        "col4": "CALEDQ",
        "col5": "1874893"
    },
    {
        "col0": "Cancer Immunology, Immunotherapy",
        "col1": "Springer Science+Business Media",
        "col2": "1976",
        "col3": "0340-7004",
        "col4": "CIIMDN",
        "col5": "643627785"
    },
    {
        "col0": "Cancer Epidemiology, Biomarkers & Prevention",
        "col1": "American Association for Cancer Research",
        "col2": "1991",
        "col3": "1055-9965",
        "col4": "CEBPE4",
        "col5": "23441645"
    },
    {
        "col0": "Cancer Chemotherapy and Pharmacology",
        "col1": "Springer Science+Business Media",
        "col2": "1978",
        "col3": "0344-5704",
        "col4": "CCPHDZ",
        "col5": "4084336"
    },
    {
        "col0": "Cancer Cell",
        "col1": "Cell Press",
        "col2": "2002",
        "col3": "1535-6108",
        "col4": "CCAECI",
        "col5": "49209210"
    },
    {
        "col0": "Cancer Causes & Control",
        "col1": "Springer Science+Business Media",
        "col2": "1990",
        "col3": "0957-5243",
        "col4": "CCCNEN",
        "col5": "22459434"
    },
    {
        "col0": "Cancer",
        "col1": "Wiley-Blackwell",
        "col2": "1948",
        "col3": "0008-543X",
        "col4": "CANCAR",
        "col5": "1553275"
    },
    {
        "col0": "Canadian Psychology",
        "col1": "American Psychological Association",
        "col2": "1950",
        "col3": "0708-5591",
        "col4": "CPSGD2",
        "col5": "301564818"
    },
    {
        "col0": "Canadian Journal of Zoology",
        "col1": "NRC Research Press",
        "col2": "1951",
        "col3": "0008-4301",
        "col4": "CJZOAG",
        "col5": "39737158"
    },
    {
        "col0": "Canadian Journal of Public Health",
        "col1": "Canadian Public Health Association",
        "col2": "1910",
        "col3": "0319-2652",
        "col4": "CJPEA4",
        "col5": "1553158"
    },
    {
        "col0": "Canadian Journal of Physiology and Pharmacology",
        "col1": "NRC Research Press",
        "col2": "1964",
        "col3": "0008-4212",
        "col4": "CJPPA3",
        "col5": "1553154"
    },
    {
        "col0": "Canadian Journal of Physics",
        "col1": "NRC Research Press",
        "col2": "1951",
        "col3": "0008-4204",
        "col4": "CJPHAD",
        "col5": "39083389"
    },
    {
        "col0": "Canadian Journal of Microbiology",
        "col1": "NRC Research Press",
        "col2": "1954",
        "col3": "0008-4166",
        "col4": "CJMIAZ",
        "col5": "767963354"
    },
    {
        "col0": "Canadian Journal of Law and Society",
        "col1": "Cambridge University Press",
        "col2": "1986",
        "col3": "0829-3201",
        "col4": "CJLSEU",
        "col5": "60623766"
    },
    {
        "col0": "Canadian Journal of Information and Library Science",
        "col1": "University of Toronto Press",
        "col2": "1976",
        "col3": "1195-096X",
        "col4": "CJISEF",
        "col5": "613405304"
    },
    {
        "col0": "Canadian Journal of Earth Sciences",
        "col1": "NRC Research Press",
        "col2": "1963",
        "col3": "1480-3313",
        "col4": "CJESAP",
        "col5": "818994372"
    },
    {
        "col0": "Canadian Journal of Chemistry",
        "col1": "NRC Research Press",
        "col2": "1951",
        "col3": "0008-4042",
        "col4": "CJCHAG",
        "col5": "2248672"
    },
    {
        "col0": "Canadian Journal of Behavioural Science",
        "col1": "American Psychological Association",
        "col2": "1969",
        "col3": "0008-400X",
        "col4": "CJBSAA",
        "col5": "1553131"
    },
    {
        "col0": "Calcified Tissue International",
        "col1": "Springer Science+Business Media",
        "col2": "1967",
        "col3": "0171-967X",
        "col4": "CTINDZ",
        "col5": "42787226"
    },
    {
        "col0": "CA",
        "col1": "Wiley-Blackwell",
        "col2": "1950",
        "col3": "0007-9235",
        "col4": "CAMCAM",
        "col5": "1044790"
    },
    {
        "col0": "Business Information Review",
        "col1": "Sage Publications",
        "col2": "1984",
        "col3": "0266-3821",
        "col4": "BIREEY",
        "col5": "12266742"
    },
    {
        "col0": "Business Ethics: A European Review",
        "col1": "John Wiley & Sons",
        "col2": "1992",
        "col3": "0962-8770",
        "col4": "BUETFV",
        "col5": "535480842"
    },
    {
        "col0": "Bulletins of American Paleontology",
        "col1": "Paleontological Research Institution",
        "col2": "1895",
        "col3": "0007-5779",
        "col4": "BAPLAJ",
        "col5": "1537796"
    },
    {
        "col0": "Bulletin of the World Health Organization",
        "col1": "World Health Organization",
        "col2": "1947",
        "col3": "0042-9686",
        "col4": "BWHOA6",
        "col5": "1588496"
    },
    {
        "col0": "Bulletin of the Seismological Society of America",
        "col1": "Seismological Society of America",
        "col2": "1911",
        "col3": "0037-1106",
        "col4": "BSSAAP",
        "col5": "1604335"
    },
    {
        "col0": "Bulletin of the Atomic Scientists",
        "col1": "Taylor and Francis",
        "col2": "1945",
        "col3": "0096-3402",
        "col4": "BASIAP",
        "col5": "470268256"
    }
]