[
    {
        "col0": "Cricothyroid muscle",
        "col1": "External laryngeal nerve",
        "col2": "236",
        "col3": "1081",
        "col4": "m_22",
        "col5": "12548712"
    },
    {
        "col0": "Cremaster muscle",
        "col1": "Genital branch of genitofemoral nerve",
        "col2": "118",
        "col3": "414",
        "col4": "m_22",
        "col5": "12548678"
    },
    {
        "col0": "Corrugator supercilii muscle",
        "col1": "Facial nerve",
        "col2": "106",
        "col3": "381",
        "col4": "m_22",
        "col5": "12548671"
    },
    {
        "col0": "Coracobrachialis muscle",
        "col1": "Musculocutaneous nerve",
        "col2": "124",
        "col3": "443",
        "col4": "m_22",
        "col5": "12548663"
    },
    {
        "col0": "Coccygeus muscle",
        "col1": "Pudendal nerve",
        "col2": "119",
        "col3": "424",
        "col4": "m_22",
        "col5": "12548603"
    },
    {
        "col0": "Ciliary muscle",
        "col1": "Oculomotor nerve",
        "col2": "225",
        "col3": "1011",
        "col4": "m_22",
        "col5": "12548589"
    },
    {
        "col0": "Bulbospongiosus muscle",
        "col1": "Pudendal nerve",
        "col2": "120",
        "col3": "428",
        "col4": "m_22",
        "col5": "12548543"
    },
    {
        "col0": "Buccinator muscle",
        "col1": "Buccal branch of the facial nerve",
        "col2": "108",
        "col3": "384",
        "col4": "m_22",
        "col5": "12548520"
    },
    {
        "col0": "Brachioradialis",
        "col1": "Radial nerve",
        "col2": "125",
        "col3": "451",
        "col4": "m_22",
        "col5": "12548506"
    },
    {
        "col0": "Brachialis muscle",
        "col1": "Musculocutaneous nerve",
        "col2": "124",
        "col3": "444",
        "col4": "m_22",
        "col5": "12548498"
    },
    {
        "col0": "Biceps femoris muscle",
        "col1": "Common fibular nerve",
        "col2": "128",
        "col3": "478",
        "col4": "m_22",
        "col5": "12548483"
    },
    {
        "col0": "Aryepiglottic muscle",
        "col1": "Inferior laryngeal nerve",
        "col2": "236",
        "col3": "1082",
        "col4": "p_07",
        "col5": "12616305"
    },
    {
        "col0": "Articularis genus muscle",
        "col1": "Femoral nerve",
        "col2": "128",
        "col3": "471",
        "col4": "m_22",
        "col5": "12548413"
    },
    {
        "col0": "Articularis cubiti muscle",
        "col1": "Radial nerve",
        "col2": "124",
        "col3": "445",
        "col4": "m_22",
        "col5": "12548404"
    },
    {
        "col0": "Antitragicus",
        "col1": "Facial nerve",
        "col2": "229",
        "col3": "1035",
        "col4": "m_22",
        "col5": "12548383"
    },
    {
        "col0": "Anterior auricular muscle",
        "col1": "Temporal branches of the facial nerve",
        "col2": "229",
        "col3": "1035",
        "col4": "m_22",
        "col5": "12548449"
    },
    {
        "col0": "Anconeus muscle",
        "col1": "Radial nerve",
        "col2": "125",
        "col3": "454",
        "col4": "m_22",
        "col5": "12548375"
    },
    {
        "col0": "Adductor magnus muscle",
        "col1": "Tibial nerve",
        "col2": "128",
        "col3": "473",
        "col4": "m_22",
        "col5": "12548349"
    },
    {
        "col0": "Adductor hallucis muscle",
        "col1": "Lateral plantar nerve",
        "col2": "131",
        "col3": "493",
        "col4": "m_22",
        "col5": "12548332"
    },
    {
        "col0": "Abductor pollicis longus muscle",
        "col1": "Deep branch of radial nerve",
        "col2": "125",
        "col3": "455",
        "col4": "m_22",
        "col5": "12548315"
    },
    {
        "col0": "Abductor hallucis muscle",
        "col1": "Medial plantar nerve",
        "col2": "131",
        "col3": "491",
        "col4": "m_22",
        "col5": "12548299"
    },
    {
        "col0": "Abductor digiti minimi muscle of hand",
        "col1": "Deep branch of ulnar nerve",
        "col2": "126",
        "col3": "463",
        "col4": "m_22",
        "col5": "12548273"
    },
    {
        "col0": "Abductor digiti minimi muscle of foot",
        "col1": "Lateral plantar nerve",
        "col2": "131",
        "col3": "492",
        "col4": "m_22",
        "col5": "12548282"
    },
    {
        "col0": "Abdominal external oblique muscle",
        "col1": "Subcostal nerve",
        "col2": "118",
        "col3": "409",
        "col4": "m_22",
        "col5": "12549865"
    }
]