[
    {
        "col0": "The Cutting Edge",
        "col1": "Upland Outlaws",
        "col2": "Emperor and Clown",
        "col3": "PR9199.3.D847 C88 1992"
    },
    {
        "col0": "The Curse of the Pharaohs",
        "col1": "The Mummy Case",
        "col2": "Crocodile on the Sandbank",
        "col3": "PS3563.E747 C8"
    },
    {
        "col0": "The Crystal City",
        "col1": "Master Alvin",
        "col2": "Heartfire",
        "col3": "PS3553.A655 C79 2003"
    },
    {
        "col0": "The Crossing",
        "col1": "Cities of the Plain",
        "col2": "All the Pretty Horses",
        "col3": "PS3563.C337 C7 1994"
    },
    {
        "col0": "The Crooked Banister",
        "col1": "The Secret of Mirror Bay",
        "col2": "The Mysterious Mannequin",
        "col3": "PZ7.K23 Cr"
    },
    {
        "col0": "The Crimson Gold",
        "col1": "The Yellow Silk",
        "col2": "The Black Bouquet",
        "col3": "CPB Box no. 2280 vol. 15"
    },
    {
        "col0": "The Creators",
        "col1": "The Seekers",
        "col2": "The Discoverers",
        "col3": "CB69 .B65 1992"
    },
    {
        "col0": "The Covenant of the Crown",
        "col1": "The Prometheus Design",
        "col2": "The Klingon Gambit",
        "col3": "CPB Box no. 2483 vol. 19"
    },
    {
        "col0": "The Courts of Chaos",
        "col1": "Trumps of Doom",
        "col2": "The Hand of Oberon",
        "col3": "PZ4.Z456 Co PS3576.E43"
    },
    {
        "col0": "The Coronation",
        "col1": "She Lover of Death",
        "col2": "The State Counsellor",
        "col3": "PG3478.K78 K67 2000"
    },
    {
        "col0": "The Confusion",
        "col1": "The System of the World",
        "col2": "Quicksilver",
        "col3": "PS3569.T3868 C55 2004"
    },
    {
        "col0": "The Concrete Blonde",
        "col1": "The Last Coyote",
        "col2": "The Black Ice",
        "col3": "PS3553.O51165 C65 1994"
    },
    {
        "col0": "The Commodore",
        "col1": "The Yellow Admiral",
        "col2": "The Wine-Dark Sea",
        "col3": "PR6029.B55 C66 1995"
    },
    {
        "col0": "The Color of Death",
        "col1": "Smuggler's Moon",
        "col2": "Death of a Colonial",
        "col3": "PS3553.O55314 C65 2000"
    },
    {
        "col0": "The Cold Moon",
        "col1": "The Broken Window",
        "col2": "The Twelfth Card",
        "col3": "PS3554.E1755 B76 2006"
    }
]