[
    {
        "col0": "Meiringen-Innertkirchen railway",
        "col1": "Innertkirchen",
        "col2": "Meiringen",
        "col3": "4990"
    },
    {
        "col0": "Meiringen-Reichenbach-Aareschlucht tramway",
        "col1": "Aare Gorge",
        "col2": "Meiringen",
        "col3": "2773"
    },
    {
        "col0": "Meiringen-Innertkirchen railway",
        "col1": "Innertkirchen",
        "col2": "Meiringen",
        "col3": "4990"
    },
    {
        "col0": "Meckesheim-Neckarelz railway",
        "col1": "Neckarelz",
        "col2": "Meckesheim",
        "col3": "19100"
    },
    {
        "col0": "Mayumbe line",
        "col1": "Tshela",
        "col2": "Boma, Democratic Republic of the Congo",
        "col3": "140000"
    },
    {
        "col0": "Mascouche line",
        "col1": "Mascouche",
        "col2": "Central Station",
        "col3": "52000"
    },
    {
        "col0": "Martinborough Branch",
        "col1": "Martinborough",
        "col2": "Featherston Railway Station",
        "col3": "18507"
    },
    {
        "col0": "Martina Franca-Lecce railway",
        "col1": "Lecce",
        "col2": "Martina Franca",
        "col3": "103000"
    },
    {
        "col0": "Marston Vale Line",
        "col1": "Bletchley, Milton Keynes",
        "col2": "Bedford, England",
        "col3": "38624"
    },
    {
        "col0": "Marseille-Ventimiglia railway",
        "col1": "Ventimiglia railway station",
        "col2": "Gare de Marseille-Saint-Charles",
        "col3": "259000"
    },
    {
        "col0": "Marmifera",
        "col1": "Marina di Carrara",
        "col2": "Colonnata",
        "col3": "16500"
    },
    {
        "col0": "Marmaray",
        "col1": "Ayrilik Cesmesi railway station",
        "col2": "Halkali railway station",
        "col3": "13600"
    },
    {
        "col0": "Market-Frankford Line",
        "col1": "Frankford Transportation Center",
        "col2": "69th Street Transportation Center",
        "col3": "20760"
    },
    {
        "col0": "Marble Bar Railway",
        "col1": "Marble Bar, Western Australia",
        "col2": "Port Hedland, Western Australia",
        "col3": "184000"
    },
    {
        "col0": "Mantes-la-Jolie-Cherbourg railway",
        "col1": "Gare de Cherbourg",
        "col2": "Gare de Mantes-la-Jolie",
        "col3": "313000"
    }
]