[
    {
        "col0": "Cariboo River Provincial Park",
        "col1": "British Columbia",
        "col2": "British Columbia",
        "col3": "British Columbia",
        "col4": "British Columbia"
    },
    {
        "col0": "Cariboo Mountains Provincial Park",
        "col1": "British Columbia",
        "col2": "British Columbia",
        "col3": "British Columbia",
        "col4": "British Columbia"
    },
    {
        "col0": "Canim Beach Provincial Park",
        "col1": "British Columbia",
        "col2": "British Columbia",
        "col3": "British Columbia",
        "col4": "British Columbia"
    },
    {
        "col0": "Canal Flats Provincial Park",
        "col1": "British Columbia",
        "col2": "British Columbia",
        "col3": "British Columbia",
        "col4": "British Columbia"
    },
    {
        "col0": "Callaghan Lake Provincial Park",
        "col1": "British Columbia",
        "col2": "British Columbia",
        "col3": "British Columbia",
        "col4": "British Columbia"
    },
    {
        "col0": "Call Lake Provincial Park",
        "col1": "British Columbia",
        "col2": "British Columbia",
        "col3": "British Columbia",
        "col4": "British Columbia"
    },
    {
        "col0": "Butler Ridge Provincial Park",
        "col1": "British Columbia",
        "col2": "British Columbia",
        "col3": "British Columbia",
        "col4": "British Columbia"
    },
    {
        "col0": "Buse Lake Protected Area",
        "col1": "British Columbia",
        "col2": "British Columbia",
        "col3": "British Columbia",
        "col4": "British Columbia"
    },
    {
        "col0": "Burns Lake Park",
        "col1": "British Columbia",
        "col2": "British Columbia",
        "col3": "British Columbia",
        "col4": "British Columbia"
    },
    {
        "col0": "Burgoyne Bay Provincial Park",
        "col1": "British Columbia",
        "col2": "British Columbia",
        "col3": "British Columbia",
        "col4": "British Columbia"
    },
    {
        "col0": "Burges James Gadsden Provincial Park",
        "col1": "British Columbia",
        "col2": "British Columbia",
        "col3": "British Columbia",
        "col4": "British Columbia"
    },
    {
        "col0": "Bull Canyon Provincial Park",
        "col1": "British Columbia",
        "col2": "British Columbia",
        "col3": "British Columbia",
        "col4": "British Columbia"
    },
    {
        "col0": "Bulkley Junction Provincial Park",
        "col1": "British Columbia",
        "col2": "British Columbia",
        "col3": "British Columbia",
        "col4": "British Columbia"
    },
    {
        "col0": "Bugaboo Provincial Park",
        "col1": "British Columbia",
        "col2": "British Columbia",
        "col3": "British Columbia",
        "col4": "British Columbia"
    },
    {
        "col0": "Buckinghorse River Wayside Provincial Park",
        "col1": "British Columbia",
        "col2": "British Columbia",
        "col3": "British Columbia",
        "col4": "British Columbia"
    },
    {
        "col0": "Buccaneer Bay Provincial Park",
        "col1": "British Columbia",
        "col2": "British Columbia",
        "col3": "British Columbia",
        "col4": "British Columbia"
    },
    {
        "col0": "Broughton Archipelago Provincial Park",
        "col1": "British Columbia",
        "col2": "British Columbia",
        "col3": "British Columbia",
        "col4": "British Columbia"
    },
    {
        "col0": "Bridge River Delta Provincial Park",
        "col1": "British Columbia",
        "col2": "British Columbia",
        "col3": "British Columbia",
        "col4": "British Columbia"
    },
    {
        "col0": "Bridge Lake Provincial Park",
        "col1": "British Columbia",
        "col2": "British Columbia",
        "col3": "British Columbia",
        "col4": "British Columbia"
    },
    {
        "col0": "Bridal Veil Falls Provincial Park",
        "col1": "British Columbia",
        "col2": "British Columbia",
        "col3": "British Columbia",
        "col4": "British Columbia"
    },
    {
        "col0": "Brackendale Eagles Provincial Park",
        "col1": "British Columbia",
        "col2": "British Columbia",
        "col3": "British Columbia",
        "col4": "British Columbia"
    },
    {
        "col0": "Boyle Point Provincial Park and Protected Area",
        "col1": "British Columbia",
        "col2": "British Columbia",
        "col3": "British Columbia",
        "col4": "British Columbia"
    },
    {
        "col0": "Boya Lake Provincial Park",
        "col1": "British Columbia",
        "col2": "British Columbia",
        "col3": "British Columbia",
        "col4": "British Columbia"
    },
    {
        "col0": "Boundary Creek Provincial Park",
        "col1": "British Columbia",
        "col2": "British Columbia",
        "col3": "British Columbia",
        "col4": "British Columbia"
    },
    {
        "col0": "Boulder Creek Provincial Park",
        "col1": "British Columbia",
        "col2": "British Columbia",
        "col3": "British Columbia",
        "col4": "British Columbia"
    },
    {
        "col0": "Border Lake Provincial Park",
        "col1": "British Columbia",
        "col2": "British Columbia",
        "col3": "British Columbia",
        "col4": "British Columbia"
    },
    {
        "col0": "Bonaparte Provincial Park",
        "col1": "British Columbia",
        "col2": "British Columbia",
        "col3": "British Columbia",
        "col4": "British Columbia"
    },
    {
        "col0": "Bodega Ridge Provincial Park",
        "col1": "British Columbia",
        "col2": "British Columbia",
        "col3": "British Columbia",
        "col4": "British Columbia"
    },
    {
        "col0": "Bocock Peak Provincial Park",
        "col1": "British Columbia",
        "col2": "British Columbia",
        "col3": "British Columbia",
        "col4": "British Columbia"
    },
    {
        "col0": "Bobtail Mountain Provincial Park",
        "col1": "British Columbia",
        "col2": "British Columbia",
        "col3": "British Columbia",
        "col4": "British Columbia"
    },
    {
        "col0": "Blue River Pine Provincial Park",
        "col1": "British Columbia",
        "col2": "British Columbia",
        "col3": "British Columbia",
        "col4": "British Columbia"
    },
    {
        "col0": "Blue River Black Spruce Provincial Park",
        "col1": "British Columbia",
        "col2": "British Columbia",
        "col3": "British Columbia",
        "col4": "British Columbia"
    }
]