[
    {
        "col0": "Zodiac",
        "col1": "B. Jensen",
        "col2": "283",
        "col3": "813/.54 19"
    },
    {
        "col0": "Zandru's Forge",
        "col1": "R. Kukalis",
        "col2": "462",
        "col3": "813/.54 22"
    },
    {
        "col0": "Yon Ill Wind",
        "col1": "D. K. Sweet",
        "col2": "314",
        "col3": "813/.54 20"
    },
    {
        "col0": "Xone of Contention",
        "col1": "D. K. Sweet",
        "col2": "304",
        "col3": "813/.54 21"
    },
    {
        "col0": "World Soul",
        "col1": "R. M. Powers",
        "col2": "178",
        "col3": "891.7/3/44"
    },
    {
        "col0": "Wizardborn",
        "col1": "D. K. Sweet",
        "col2": "428",
        "col3": "813/.54 21"
    },
    {
        "col0": "Winterdance: The Fine Madness of Running the Iditarod",
        "col1": "G. Paulsen",
        "col2": "272",
        "col3": "798.8/092 B 20"
    },
    {
        "col0": "Winter Rose",
        "col1": "K. Y. Craft",
        "col2": "262",
        "col3": "813/.54 20"
    },
    {
        "col0": "Winter Reckoning",
        "col1": "J. J. Muth",
        "col2": "253",
        "col3": "813/.54 19"
    },
    {
        "col0": "Why Is This Night Different From All Other Nights?",
        "col1": "Seth",
        "col2": "304",
        "col3": "Fic21"
    },
    {
        "col0": "Who Made Stevie Crye?",
        "col1": "G. Tutor",
        "col2": "309",
        "col3": "813/.54 19"
    },
    {
        "col0": "Who Could That Be at This Hour?",
        "col1": "Seth",
        "col2": "258",
        "col3": "Fic21"
    },
    {
        "col0": "Whistle",
        "col1": "P. Bacon",
        "col2": "457",
        "col3": "813/.5/4"
    },
    {
        "col0": "Where Men Win Glory",
        "col1": "J. Krakauer",
        "col2": "416",
        "col3": "796"
    },
    {
        "col0": "Where Late the Sweet Birds Sang",
        "col1": "M. C. Escher",
        "col2": "207",
        "col3": "813/.5/4"
    },
    {
        "col0": "When True Night Falls",
        "col1": "M. Whelan",
        "col2": "553",
        "col3": "813/.54 20"
    },
    {
        "col0": "When Did You See Her Last?",
        "col1": "Seth",
        "col2": "288",
        "col3": "Fic21"
    },
    {
        "col0": "When Darkness Falls",
        "col1": "T. Lockwood",
        "col2": "602",
        "col3": "813/.54 22"
    },
    {
        "col0": "What Is the What",
        "col1": "R. Sumpter",
        "col2": "475",
        "col3": "813/.6 22"
    },
    {
        "col0": "Wednesday Is Indigo Blue",
        "col1": "M. Louis",
        "col2": "30911",
        "col3": "612.8/233 22"
    },
    {
        "col0": "Wedge: The Secret War between the FBI and CIA",
        "col1": "Hardcover",
        "col2": "592",
        "col3": "327.1273/009/045 20"
    },
    {
        "col0": "We Can Build You",
        "col1": "J. Schoenherr",
        "col2": "206",
        "col3": "813/.54 20"
    },
    {
        "col0": "We",
        "col1": "A. Rodchenko",
        "col2": "226",
        "col3": "891.73/42 20"
    },
    {
        "col0": "War of the Worlds: New Millennium",
        "col1": "J. Bell",
        "col2": "332",
        "col3": "813/.54 22"
    },
    {
        "col0": "Ute av verden",
        "col1": "J. Sturges",
        "col2": "699",
        "col3": "839.82374 839.82 839.82s 839.823[S]"
    },
    {
        "col0": "Up in a Heaval",
        "col1": "D. K. Sweet",
        "col2": "339",
        "col3": "813/.54 21"
    },
    {
        "col0": "Typewriter in the Sky",
        "col1": "D. Kyle",
        "col2": "256",
        "col3": "813/.52 22"
    },
    {
        "col0": "Turn Coat",
        "col1": "C. McGrath",
        "col2": "545",
        "col3": "813/.6 22"
    },
    {
        "col0": "Tripoint",
        "col1": "S. Youll",
        "col2": "377",
        "col3": "813/.54 20"
    },
    {
        "col0": "Treasure",
        "col1": "P. Bacon",
        "col2": "539",
        "col3": "813/.54 19"
    },
    {
        "col0": "Tomorrow",
        "col1": "G. Images",
        "col2": "248",
        "col3": "823/.914 22"
    },
    {
        "col0": "To Sail Beyond the Sunset",
        "col1": "B. Vallejo",
        "col2": "416",
        "col3": "813/.54 19"
    },
    {
        "col0": "To Green Angel Tower",
        "col1": "M. Whelan",
        "col2": "1104",
        "col3": "813/.54 20"
    },
    {
        "col0": "Titus Groan",
        "col1": "M. Peake",
        "col2": "438",
        "col3": "823"
    },
    {
        "col0": "Timeline",
        "col1": "C. Kidd",
        "col2": "464",
        "col3": "883/.88 21"
    },
    {
        "col0": "Time and Chance: an Autobiography",
        "col1": "F. K. Freas",
        "col2": "444",
        "col3": "813/.52 B 21"
    },
    {
        "col0": "Time After Time",
        "col1": "F. Marcellino",
        "col2": "372",
        "col3": "813"
    },
    {
        "col0": "Tiassa",
        "col1": "S. Hickman",
        "col2": "335",
        "col3": "813/.54"
    },
    {
        "col0": "The Zanzibar Cat",
        "col1": "J. C. Christensen",
        "col2": "244",
        "col3": "813/.54 19"
    },
    {
        "col0": "The Yellow Admiral",
        "col1": "G. Hunt",
        "col2": "282",
        "col3": "823/.914 20"
    },
    {
        "col0": "The Year's Best Science Fiction: Fifth Annual Collection",
        "col1": "A. Gutierrez",
        "col2": "678",
        "col3": "813"
    },
    {
        "col0": "The Wyvern's Spur",
        "col1": "C. Caldwell",
        "col2": "313",
        "col3": "813/.54 20"
    },
    {
        "col0": "The Wyrmling Horde",
        "col1": "D. K. Sweet",
        "col2": "320",
        "col3": "813'.54"
    },
    {
        "col0": "The World Turned Upside Down",
        "col1": "T. Kidd",
        "col2": "743",
        "col3": "813"
    },
    {
        "col0": "The Word for World Is Forest",
        "col1": "R. M. Powers",
        "col2": "189",
        "col3": "813/.5/4"
    },
    {
        "col0": "The Wonderful Story of Henry Sugar and Six More",
        "col1": "Q. Blake",
        "col2": "225",
        "col3": "[Fic]21"
    },
    {
        "col0": "The Wishsong of Shannara",
        "col1": "D. K. Sweet",
        "col2": "467",
        "col3": "813/.54 19"
    },
    {
        "col0": "The Wine-Dark Sea",
        "col1": "G. Hunt",
        "col2": "261",
        "col3": "823/.914 20"
    },
    {
        "col0": "The Wind from a Burning Woman",
        "col1": "V. D. Fate",
        "col2": "270",
        "col3": "813/.54 19"
    },
    {
        "col0": "The Wide Window",
        "col1": "B. Helquist",
        "col2": "214",
        "col3": "Fic21"
    },
    {
        "col0": "The White Dragon",
        "col1": "M. Whelan",
        "col2": "497",
        "col3": "813/.5/4"
    },
    {
        "col0": "The War of the Flowers",
        "col1": "M. Whelan",
        "col2": "704",
        "col3": "813/.54 22"
    },
    {
        "col0": "The War Hound and the World's Pain",
        "col1": "R. Morrill",
        "col2": "239",
        "col3": "823/.914 19"
    },
    {
        "col0": "The Wall: Growing Up Behind the Iron Curtain",
        "col1": "P. Sis",
        "col2": "56",
        "col3": "943.704092 B 22"
    },
    {
        "col0": "The Unbeheaded King",
        "col1": "D. K. Sweet",
        "col2": "185",
        "col3": "813/.52 19"
    },
    {
        "col0": "The Twenty-Seventh City",
        "col1": "F. Marcellino",
        "col2": "517",
        "col3": "813/.54 19"
    },
    {
        "col0": "The Tin Drum",
        "col1": "G. Grass",
        "col2": "576",
        "col3": "833"
    },
    {
        "col0": "The Thirteen Gun Salute",
        "col1": "G. Hunt",
        "col2": "319",
        "col3": "823/.914 20"
    },
    {
        "col0": "The Third Grave",
        "col1": "S. E. Fabian",
        "col2": "184",
        "col3": "813/.54 19"
    },
    {
        "col0": "The Terminal Man",
        "col1": "P. Bacon",
        "col2": "247",
        "col3": "813/.5/4"
    },
    {
        "col0": "The Talismans of Shannara",
        "col1": "K. Parkinson",
        "col2": "453",
        "col3": "813/.54 20"
    },
    {
        "col0": "The Tale of the Body Thief",
        "col1": "C. Kidd",
        "col2": "448",
        "col3": "813/.54 20"
    },
    {
        "col0": "The Summer Tree",
        "col1": "M. Odom",
        "col2": "383",
        "col3": "813/.54 19"
    },
    {
        "col0": "The Sum of All Men",
        "col1": "D. K. Sweet",
        "col2": "479",
        "col3": "813/.54 21"
    },
    {
        "col0": "The Story of the Stone",
        "col1": "M. Harrison",
        "col2": "236",
        "col3": "813/.54 19"
    },
    {
        "col0": "The Stinky Cheese Man and Other Fairly Stupid Tales",
        "col1": "L. Smith",
        "col2": "56",
        "col3": "[E]20"
    },
    {
        "col0": "The Starry Rift",
        "col1": "D. Archer",
        "col2": "250",
        "col3": "813"
    },
    {
        "col0": "The Songs of Distant Earth",
        "col1": "M. Whelan",
        "col2": "256",
        "col3": "823/.914 19"
    },
    {
        "col0": "The Snow Queen",
        "col1": "Leo and Diane Dillon",
        "col2": "471",
        "col3": "813/.5/4"
    },
    {
        "col0": "The Slippery Slope",
        "col1": "B. Helquist",
        "col2": "337",
        "col3": "Fic22"
    },
    {
        "col0": "The Slater Field Guide to Australian Birds",
        "col1": "P. Slater",
        "col2": "344",
        "col3": "598"
    },
    {
        "col0": "The Sky People",
        "col1": "G. Manchess",
        "col2": "304",
        "col3": "813/.54 22"
    },
    {
        "col0": "The Shiva Option",
        "col1": "D. B. Mattingly",
        "col2": "753",
        "col3": "813/.54 21"
    },
    {
        "col0": "The Shepherd",
        "col1": "C. Foss",
        "col2": "54",
        "col3": "823/.9/14"
    },
    {
        "col0": "The Shadow of the Torturer",
        "col1": "D. Maitz",
        "col2": "303",
        "col3": "813/.5/4 19"
    },
    {
        "col0": "The Shadow of Saganami",
        "col1": "D. B. Mattingly",
        "col2": "736",
        "col3": "813/.54 22"
    },
    {
        "col0": "The Shadow Rising",
        "col1": "D. K. Sweet",
        "col2": "704",
        "col3": "813/.54 20"
    },
    {
        "col0": "The Seven Hills",
        "col1": "S. Grimando",
        "col2": "368",
        "col3": "813/.54 22"
    },
    {
        "col0": "The Secrets of Harry Bright",
        "col1": "P. Bacon",
        "col2": "345",
        "col3": "813/.54 19"
    },
    {
        "col0": "The Sea Hunters: True Adventures with Famous Shipwrecks",
        "col1": "P. Bacon",
        "col2": "364",
        "col3": "v930.1/028/04 21"
    },
    {
        "col0": "The Sea, the Sea",
        "col1": "Hokusai",
        "col2": "502",
        "col3": "823/.9/14"
    },
    {
        "col0": "The Ringworld Throne",
        "col1": "B. Shaw",
        "col2": "424",
        "col3": "813/.54 20"
    },
    {
        "col0": "The Reptile Room",
        "col1": "B. Helquist",
        "col2": "190",
        "col3": "Fic21"
    },
    {
        "col0": "The Renegades of Pern",
        "col1": "M. Whelan",
        "col2": "384",
        "col3": "813/.54 20"
    },
    {
        "col0": "The Regime",
        "col1": "T. H. Publishers",
        "col2": "391",
        "col3": "813/.54 22"
    },
    {
        "col0": "The Redwall Cookbook",
        "col1": "C. Denise",
        "col2": "96",
        "col3": "641.5 22"
    },
    {
        "col0": "The Quest for Saint Camber",
        "col1": "D. K. Sweet",
        "col2": "435",
        "col3": "813/.54 19"
    },
    {
        "col0": "The Quantum Rose",
        "col1": "J. Bell",
        "col2": "382",
        "col3": "813/.54 21"
    },
    {
        "col0": "The Purple Pterodactyls",
        "col1": "V. Vaca",
        "col2": "228",
        "col3": "919.8/9 19"
    },
    {
        "col0": "The Prophet",
        "col1": "K. Gibran",
        "col2": "107",
        "col3": "811"
    },
    {
        "col0": "The Prize in the Game",
        "col1": "J. P. Targete",
        "col2": "256",
        "col3": "823/.92 21"
    },
    {
        "col0": "The Plague Dogs",
        "col1": "A. Wainwright",
        "col2": "461",
        "col3": "823/.9/14"
    },
    {
        "col0": "The Pillars of Creation",
        "col1": "K. Parkinson",
        "col2": "557",
        "col3": "813/.54 21"
    },
    {
        "col0": "The Path of Daggers",
        "col1": "D. K. Sweet",
        "col2": "604",
        "col3": "813/.54 21"
    },
    {
        "col0": "The Outpost",
        "col1": "B. Warner",
        "col2": "383",
        "col3": "813/.54 21"
    },
    {
        "col0": "The Nutmeg of Consolation",
        "col1": "G. Hunt",
        "col2": "316",
        "col3": "823/.914 20"
    },
    {
        "col0": "The Namesake",
        "col1": "P. Lardy",
        "col2": "291",
        "col3": "813/.54 21"
    },
    {
        "col0": "The Mysteries of Pittsburgh",
        "col1": "P. Bacon",
        "col2": "297",
        "col3": "813/.54 19"
    },
    {
        "col0": "The Moon Goddess and the Son",
        "col1": "D. B. Mattingly",
        "col2": "409",
        "col3": "813/.54 19"
    },
    {
        "col0": "The Metatemporal Detective",
        "col1": "J. Picacio",
        "col2": "327",
        "col3": "823/.914 22"
    },
    {
        "col0": "The Masterharper of Pern",
        "col1": "G. Brom",
        "col2": "431",
        "col3": "813/.54 21"
    },
    {
        "col0": "The Manchurian Candidate",
        "col1": "B. Krigstein",
        "col2": "311",
        "col3": "813/.54 21"
    },
    {
        "col0": "The Mageborn Traitor",
        "col1": "M. Whelan",
        "col2": "626",
        "col3": "813/.54 21"
    },
    {
        "col0": "The Lost World",
        "col1": "C. Kidd",
        "col2": "430",
        "col3": "813/.54 20"
    },
    {
        "col0": "The Lord of the Rings: A Reader's Companion",
        "col1": "J. R. R. Tolkien",
        "col2": "894",
        "col3": "823/.912 22"
    },
    {
        "col0": "The Looming Tower",
        "col1": "C. Kidd",
        "col2": "480",
        "col3": "973.931 22"
    },
    {
        "col0": "The Long Night of the Grave",
        "col1": "J. Bauman",
        "col2": "187",
        "col3": "813/.54 19"
    },
    {
        "col0": "The Logia of Yeshua",
        "col1": "H. Memling",
        "col2": "67",
        "col3": "226/.05209 21"
    },
    {
        "col0": "The Little Friend",
        "col1": "C. Kidd",
        "col2": "576",
        "col3": "813/.54 21"
    },
    {
        "col0": "The Life of the World to Come",
        "col1": "P. Youll",
        "col2": "336",
        "col3": "813/.54 22"
    },
    {
        "col0": "The Letter of Marque",
        "col1": "G. Hunt",
        "col2": "284",
        "col3": "823/.914 20"
    },
    {
        "col0": "The Legend of Huma",
        "col1": "J. Easley",
        "col2": "384",
        "col3": "813/.54 19"
    },
    {
        "col0": "The Last Dive",
        "col1": "W. Skiles",
        "col2": "356",
        "col3": "363.14, 797.23"
    },
    {
        "col0": "The Last Adventurer",
        "col1": "N. Dameron",
        "col2": "279",
        "col3": "823/.912 B 19"
    },
    {
        "col0": "The Lair of Bones",
        "col1": "D. K. Sweet",
        "col2": "464",
        "col3": "813/.54 21"
    },
    {
        "col0": "The Known World",
        "col1": "E. Welty",
        "col2": "400",
        "col3": "813/.54 21"
    },
    {
        "col0": "The Knight",
        "col1": "G. Manchess",
        "col2": "432",
        "col3": "813/.54 22"
    },
    {
        "col0": "The King Must Die",
        "col1": "E. Carle",
        "col2": "352",
        "col3": "823/.912 19"
    },
    {
        "col0": "The King's Peace",
        "col1": "J. Bell",
        "col2": "416",
        "col3": "823/.92 21"
    },
    {
        "col0": "The King's Name",
        "col1": "J. Bell",
        "col2": "368",
        "col3": "823/.92 21"
    },
    {
        "col0": "The King's Justice",
        "col1": "D. K. Sweet",
        "col2": "337",
        "col3": "813/.54 19"
    },
    {
        "col0": "The King's Buccaneer",
        "col1": "D. Maitz",
        "col2": "465",
        "col3": "813/.54 20"
    },
    {
        "col0": "The Icarus Hunt",
        "col1": "P. Youll",
        "col2": "368",
        "col3": "813/.54 21"
    },
    {
        "col0": "The House of the Wolf",
        "col1": "S. E. Fabian",
        "col2": "298",
        "col3": "823/.914 19"
    },
    {
        "col0": "The Horror at Oakdeene and Others",
        "col1": "S. E. Fabian",
        "col2": "229",
        "col3": "823/.9/14"
    },
    {
        "col0": "The Honorable Barbarian",
        "col1": "D. K. Sweet",
        "col2": "240",
        "col3": "813/.52 19"
    },
    {
        "col0": "The Hidden Family",
        "col1": "P. Youll",
        "col2": "303",
        "col3": "813/.6 22"
    },
    {
        "col0": "The Heralds",
        "col1": "J. Lawrence",
        "col2": "191",
        "col3": "823/.9/14"
    },
    {
        "col0": "The Hand of Zei",
        "col1": "K. Freas",
        "col2": "276",
        "col3": "813/.52 19"
    },
    {
        "col0": "The Hammer of God",
        "col1": "P. Mennim",
        "col2": "226",
        "col3": "823/.914 20"
    },
    {
        "col0": "The Great Hunt",
        "col1": "D. K. Sweet",
        "col2": "600",
        "col3": "813/.54 20"
    },
    {
        "col0": "The Great Cow Race",
        "col1": "J. Smith",
        "col2": "132",
        "col3": "741.5/973 20"
    },
    {
        "col0": "The Grapes of Wrath",
        "col1": "Berta and Elmer Hader",
        "col2": "464",
        "col3": "813"
    },
    {
        "col0": "The Good Apprentice",
        "col1": "T. Phillips",
        "col2": "522",
        "col3": "823/.914 19"
    },
    {
        "col0": "The Golden Key",
        "col1": "M. Whelan",
        "col2": "784",
        "col3": "813/.54 21"
    },
    {
        "col0": "The Goblin Mirror",
        "col1": "D. A. Cherry",
        "col2": "331",
        "col3": "813/.54 20"
    },
    {
        "col0": "The Giant Jam Sandwich",
        "col1": "J. V. Lord",
        "col2": "32",
        "col3": "[E]22"
    },
    {
        "col0": "The Ghosts of the Heaviside Layer, and Other Fantasms",
        "col1": "T. Kirk",
        "col2": "354",
        "col3": "828.91209 19"
    },
    {
        "col0": "The General's Wife",
        "col1": "T. Canty",
        "col2": "128",
        "col3": "813/.54 19"
    },
    {
        "col0": "The Gene Wars universe",
        "col1": "B. Eggleton",
        "col2": "390",
        "col3": "813/.54 21"
    },
    {
        "col0": "The Further Chronicles of Conan",
        "col1": "G. Ruddell",
        "col2": "509",
        "col3": "813/.54 21"
    },
    {
        "col0": "The Fires of Heaven",
        "col1": "D. K. Sweet",
        "col2": "704",
        "col3": "813/.54 20"
    },
    {
        "col0": "The Final Unfinished Voyage of Jack Aubrey",
        "col1": "G. Hunt",
        "col2": "144",
        "col3": "823/.914 22"
    },
    {
        "col0": "The Farewell Symphony",
        "col1": "C. Kidd",
        "col2": "413",
        "col3": "813/.54 21"
    },
    {
        "col0": "The Far Shore of Time",
        "col1": "J. Harris",
        "col2": "317",
        "col3": "813/.54 21"
    },
    {
        "col0": "The Family Trade",
        "col1": "P. Youll",
        "col2": "303",
        "col3": "813/.6 22"
    },
    {
        "col0": "The Fall of Neskaya",
        "col1": "R. Kukalis",
        "col2": "431",
        "col3": "813/.54 21"
    },
    {
        "col0": "The Fall of Hyperion",
        "col1": "G. Ruddell",
        "col2": "517",
        "col3": "813/.54 20"
    },
    {
        "col0": "The Eye of the World",
        "col1": "D. K. Sweet",
        "col2": "685",
        "col3": "813/.54 20"
    },
    {
        "col0": "The Ersatz Elevator",
        "col1": "B. Helquist",
        "col2": "259",
        "col3": "Fic21"
    },
    {
        "col0": "The Elfstones of Shannara",
        "col1": "D. K. Sweet",
        "col2": "576",
        "col3": "813/.54 19"
    },
    {
        "col0": "The Elf Queen of Shannara",
        "col1": "K. Parkinson",
        "col2": "368",
        "col3": "813/.54 20"
    },
    {
        "col0": "The Ego and Its Own",
        "col1": "C. Harper",
        "col2": "370",
        "col3": "302.5/4 20"
    },
    {
        "col0": "The Edible Woman",
        "col1": "C. Pachter",
        "col2": "281",
        "col3": "813/.5/4"
    },
    {
        "col0": "The EBCC Atlas of European Breeding Birds",
        "col1": "D. Nurney",
        "col2": "903",
        "col3": "598.094 21"
    },
    {
        "col0": "The Druid of Shannara",
        "col1": "K. Parkinson",
        "col2": "423",
        "col3": "813/.54 20"
    },
    {
        "col0": "The Dragons of Eden",
        "col1": "D. Davis",
        "col2": "263",
        "col3": "153"
    },
    {
        "col0": "The Dragonbone Chair",
        "col1": "M. Whelan",
        "col2": "672",
        "col3": "813/.54 20"
    },
    {
        "col0": "The Dragon Reborn",
        "col1": "D. K. Sweet",
        "col2": "624",
        "col3": "813/.54 20"
    },
    {
        "col0": "The Dragon Knight",
        "col1": "B. Vallejo",
        "col2": "409",
        "col3": "813/.54 20"
    },
    {
        "col0": "The Double Hook",
        "col1": "F. Newfeld",
        "col2": "127",
        "col3": "C813.54"
    },
    {
        "col0": "The Dolphins of Pern",
        "col1": "R. Morrill",
        "col2": "340",
        "col3": "813/.54 20"
    },
    {
        "col0": "The Divine Invasion",
        "col1": "R. Morrill",
        "col2": "239",
        "col3": "813/.54 19"
    },
    {
        "col0": "The Discomfort Zone",
        "col1": "McCall's",
        "col2": "195",
        "col3": "813/.54 B 22"
    },
    {
        "col0": "The Diamond Age",
        "col1": "B. Jensen",
        "col2": "455",
        "col3": "813/.54 20"
    },
    {
        "col0": "The Descent",
        "col1": "R. Berry",
        "col2": "572",
        "col3": "813/.54 21"
    },
    {
        "col0": "The Demon Awakens",
        "col1": "A. Pollock",
        "col2": "624",
        "col3": "813/.54 21"
    },
    {
        "col0": "The Demon Apostle",
        "col1": "A. Pollock",
        "col2": "544",
        "col3": "813/.54 21"
    },
    {
        "col0": "The Deed of Paksenarrion",
        "col1": "K. Parkinson",
        "col2": "1024",
        "col3": "813/.54 22"
    },
    {
        "col0": "The Cutting Edge",
        "col1": "J. Burns",
        "col2": "388",
        "col3": "813/.54 20"
    }
]