[
    {
        "col0": "Laguna Caldera",
        "col1": "Philippines",
        "col2": "Philippines",
        "col3": "743"
    },
    {
        "col0": "Koytendag Range",
        "col1": "Turkmenistan",
        "col2": "Turkmenistan",
        "col3": "3139"
    },
    {
        "col0": "Kittatinny Mountain",
        "col1": "New Jersey",
        "col2": "New Jersey",
        "col3": "549"
    },
    {
        "col0": "Kabir Kuh",
        "col1": "Ilam Province",
        "col2": "Ilam Province",
        "col3": "3050"
    },
    {
        "col0": "Koytendag Range",
        "col1": "Turkmenistan",
        "col2": "Turkmenistan",
        "col3": "3139"
    },
    {
        "col0": "Hyblaean Mountains",
        "col1": "Italy",
        "col2": "Italy",
        "col3": "986"
    },
    {
        "col0": "Hochkonig",
        "col1": "Austria",
        "col2": "Austria",
        "col3": "2941"
    },
    {
        "col0": "Hira Mountains",
        "col1": "Honshu",
        "col2": "Honshu",
        "col3": "1214"
    },
    {
        "col0": "Hahnenkamm",
        "col1": "Bavaria",
        "col2": "Bavaria",
        "col3": "656"
    },
    {
        "col0": "Guilleries",
        "col1": "Catalonia",
        "col2": "Catalonia",
        "col3": "1202"
    },
    {
        "col0": "Garraf Massif",
        "col1": "Catalonia",
        "col2": "Catalonia",
        "col3": "657"
    },
    {
        "col0": "Esjan",
        "col1": "Iceland",
        "col2": "Iceland",
        "col3": "914"
    },
    {
        "col0": "Elk Range",
        "col1": "British Columbia",
        "col2": "British Columbia",
        "col3": "2941"
    },
    {
        "col0": "Driftwood Range",
        "col1": "British Columbia",
        "col2": "British Columbia",
        "col3": "2027"
    },
    {
        "col0": "Cuilcagh",
        "col1": "Ireland",
        "col2": "Ireland",
        "col3": "665"
    },
    {
        "col0": "Crowsnest Range",
        "col1": "British Columbia",
        "col2": "British Columbia",
        "col3": "2812"
    },
    {
        "col0": "Comeragh Mountains",
        "col1": "Ireland",
        "col2": "Ireland",
        "col3": "792"
    },
    {
        "col0": "Clinch Mountain",
        "col1": "Tennessee",
        "col2": "Tennessee",
        "col3": "1429"
    },
    {
        "col0": "Clark Range",
        "col1": "British Columbia",
        "col2": "British Columbia",
        "col3": "2982"
    },
    {
        "col0": "Chota Nagpur Plateau",
        "col1": "Ranchi",
        "col2": "Ranchi",
        "col3": "620"
    },
    {
        "col0": "ChaA(r)ne des Puys",
        "col1": "France",
        "col2": "France",
        "col3": "1464"
    },
    {
        "col0": "Cerro de la Neblina",
        "col1": "Brazil",
        "col2": "Brazil",
        "col3": "2994"
    },
    {
        "col0": "Cassiar Mountains",
        "col1": "British Columbia",
        "col2": "British Columbia",
        "col3": "2748"
    },
    {
        "col0": "Cadair Idris",
        "col1": "Gwynedd",
        "col2": "Gwynedd",
        "col3": "893"
    },
    {
        "col0": "Cabeco Gordo",
        "col1": "Azores",
        "col2": "Azores",
        "col3": "1043"
    },
    {
        "col0": "Boso Hill Range",
        "col1": "Honshu",
        "col2": "Honshu",
        "col3": "408"
    },
    {
        "col0": "Big Bend Ranges",
        "col1": "British Columbia",
        "col2": "British Columbia",
        "col3": "3519"
    },
    {
        "col0": "Ben Lomond",
        "col1": "Australia",
        "col2": "Australia",
        "col3": "1572"
    },
    {
        "col0": "Belknap Mountains",
        "col1": "United States",
        "col2": "United States",
        "col3": "726"
    },
    {
        "col0": "Beaverfoot Range",
        "col1": "British Columbia",
        "col2": "British Columbia",
        "col3": "2722"
    },
    {
        "col0": "Ball Range",
        "col1": "British Columbia",
        "col2": "British Columbia",
        "col3": "3311"
    },
    {
        "col0": "Bait Range",
        "col1": "British Columbia",
        "col2": "British Columbia",
        "col3": "2286"
    },
    {
        "col0": "Boso Hill Range",
        "col1": "Honshu",
        "col2": "Honshu",
        "col3": "408"
    },
    {
        "col0": "Atna Range",
        "col1": "British Columbia",
        "col2": "British Columbia",
        "col3": "2588"
    },
    {
        "col0": "Aran Fawddwy",
        "col1": "UK",
        "col2": "UK",
        "col3": "905"
    },
    {
        "col0": "Annieopsquotch Mountains",
        "col1": "Newfoundland and Labrador",
        "col2": "Newfoundland and Labrador",
        "col3": "687"
    },
    {
        "col0": "Andia",
        "col1": "Spain",
        "col2": "Spain",
        "col3": "1493"
    },
    {
        "col0": "Alagalla Mountain Range",
        "col1": "Sri Lanka",
        "col2": "Sri Lanka",
        "col3": "1140"
    },
    {
        "col0": "Oraefajokull",
        "col1": "Iceland",
        "col2": "Iceland",
        "col3": "2109"
    }
]