[
    {
        "col0": "Mantidactylus ambohimitombi",
        "col1": "Mantellidae",
        "col2": "DD",
        "col3": "IUCN3.1"
    },
    {
        "col0": "Mantidactylus alutus",
        "col1": "Mantellidae",
        "col2": "LC",
        "col3": "iucn3.1"
    },
    {
        "col0": "Mantidactylus albofrenatus",
        "col1": "Mantellidae",
        "col2": "DD",
        "col3": "IUCN3.1"
    },
    {
        "col0": "Mantidactylus aerumnalis",
        "col1": "Mantellidae",
        "col2": "LC",
        "col3": "iucn3.1"
    },
    {
        "col0": "Mantella ebenaui",
        "col1": "Mantellidae",
        "col2": "LC",
        "col3": "IUCN3.1"
    },
    {
        "col0": "Mantella baroni",
        "col1": "Mantellidae",
        "col2": "LC",
        "col3": "IUCN3.1"
    },
    {
        "col0": "Manaus slender-legged tree frog",
        "col1": "Hylidae",
        "col2": "LC",
        "col3": "IUCN3.1"
    },
    {
        "col0": "Maldonada redbelly toad",
        "col1": "Bufonidae",
        "col2": "NT",
        "col3": "IUCN3.1"
    },
    {
        "col0": "Malayan flying frog",
        "col1": "Rhacophoridae",
        "col2": "LC",
        "col3": "iucn3.1"
    },
    {
        "col0": "Malatgan River caecilian",
        "col1": "Ichthyophiidae",
        "col2": "DD",
        "col3": "IUCN3.1"
    },
    {
        "col0": "Malabar tree toad",
        "col1": "Bufonidae",
        "col2": "EN",
        "col3": "IUCN3.1"
    },
    {
        "col0": "Malabar tailed caecilian",
        "col1": "Ichthyophiidae",
        "col2": "DD",
        "col3": "IUCN3.1"
    },
    {
        "col0": "Malabar gliding frog",
        "col1": "Rhacophoridae",
        "col2": "LC",
        "col3": "iucn3.1"
    },
    {
        "col0": "Malabar caecilian",
        "col1": "Ichthyophiidae",
        "col2": "DD",
        "col3": "IUCN3.1"
    },
    {
        "col0": "Makumuno Assumbo caecilian",
        "col1": "Indotyphlidae",
        "col2": "DD",
        "col3": "IUCN3.1"
    },
    {
        "col0": "Main's frog",
        "col1": "Hylidae",
        "col2": "LC",
        "col3": "IUCN3.1"
    },
    {
        "col0": "Mahogany tree frog",
        "col1": "Hylidae",
        "col2": "LC",
        "col3": "IUCN3.1"
    },
    {
        "col0": "Magnificent web-footed salamander",
        "col1": "Plethodontidae",
        "col2": "EN",
        "col3": "IUCN3.1"
    },
    {
        "col0": "Magnificent tree frog",
        "col1": "Hylidae",
        "col2": "LC",
        "col3": "IUCN3.1"
    },
    {
        "col0": "Magnificent brood frog",
        "col1": "Myobatrachidae",
        "col2": "EN",
        "col3": "IUCN3.1"
    },
    {
        "col0": "Madecassophryne truebae",
        "col1": "Microhylidae",
        "col2": "EN",
        "col3": "IUCN3.1"
    },
    {
        "col0": "Madang big-eyed tree frog",
        "col1": "Hylidae",
        "col2": "LC",
        "col3": "IUCN3.1"
    },
    {
        "col0": "Madagascan mantella",
        "col1": "Mantellidae",
        "col2": "VU",
        "col3": "IUCN3.1"
    },
    {
        "col0": "Macedonian crested newt",
        "col1": "Salamandridae",
        "col2": "NE",
        "col3": "iucn3.1"
    },
    {
        "col0": "Mabee's salamander",
        "col1": "Ambystomatidae",
        "col2": "LC",
        "col3": "IUCN3.1"
    },
    {
        "col0": "Muller's platanna",
        "col1": "Pipidae",
        "col2": "LC",
        "col3": "IUCN3.1"
    },
    {
        "col0": "Lynch's Colombian tree frog",
        "col1": "Hylidae",
        "col2": "EN",
        "col3": "IUCN3.1"
    },
    {
        "col0": "Luzon narrow-mouthed frog",
        "col1": "Microhylidae",
        "col2": "VU",
        "col3": "IUCN3.1"
    },
    {
        "col0": "Lutz's poison frog",
        "col1": "Dendrobatidae",
        "col2": "LC",
        "col3": "IUCN3.1"
    },
    {
        "col0": "Lutz's lime tree frog",
        "col1": "Hylidae",
        "col2": "LC",
        "col3": "IUCN3.1"
    },
    {
        "col0": "Luschan's salamander",
        "col1": "Salamandridae",
        "col2": "EN",
        "col3": "IUCN3.1"
    },
    {
        "col0": "Lozano's salamander",
        "col1": "Plethodontidae",
        "col2": "DD",
        "col3": "IUCN3.1"
    },
    {
        "col0": "Lowland leopard frog",
        "col1": "True frog",
        "col2": "LC",
        "col3": "IUCN3.1"
    },
    {
        "col0": "Lowland burrowing tree frog",
        "col1": "Hylidae",
        "col2": "LC",
        "col3": "IUCN3.1"
    },
    {
        "col0": "Lower Andes tree frog",
        "col1": "Hylidae",
        "col2": "DD",
        "col3": "IUCN3.1"
    },
    {
        "col0": "Loveridge's tree frog",
        "col1": "Hylidae",
        "col2": "DD",
        "col3": "IUCN3.1"
    },
    {
        "col0": "Loveridge's frog",
        "col1": "Myobatrachidae",
        "col2": "EN",
        "col3": "IUCN3.1"
    },
    {
        "col0": "Lovely poison frog",
        "col1": "Dendrobatidae",
        "col2": "LC",
        "col3": "IUCN3.1"
    },
    {
        "col0": "Louisiana slimy salamander",
        "col1": "Plethodontidae",
        "col2": "LC",
        "col3": "IUCN3.1"
    },
    {
        "col0": "Loud big-eyed tree frog",
        "col1": "Hylidae",
        "col2": "VU",
        "col3": "IUCN3.1"
    },
    {
        "col0": "Longest climbing salamander",
        "col1": "Plethodontidae",
        "col2": "CR",
        "col3": "IUCN3.1"
    },
    {
        "col0": "Longdong stream salamander",
        "col1": "Hynobiidae",
        "col2": "EN",
        "col3": "IUCN3.1"
    },
    {
        "col0": "Long-toed salamander",
        "col1": "Ambystomatidae",
        "col2": "LC",
        "col3": "IUCN3.1"
    },
    {
        "col0": "Long-thumbed frog",
        "col1": "Myobatrachidae",
        "col2": "LC",
        "col3": "IUCN3.1"
    },
    {
        "col0": "Long-snouted frog",
        "col1": "Hylidae",
        "col2": "LC",
        "col3": "IUCN3.1"
    },
    {
        "col0": "Long-snout torrent frog",
        "col1": "True frog",
        "col2": "LC",
        "col3": "IUCN3.1"
    },
    {
        "col0": "Long-nosed horned frog",
        "col1": "Megophryidae",
        "col2": "LC",
        "col3": "IUCN3.1"
    },
    {
        "col0": "Long-legged wood frog",
        "col1": "Ranidae",
        "col2": "LC",
        "col3": "IUCN3.1"
    },
    {
        "col0": "Long-footed frog",
        "col1": "Hylidae",
        "col2": "LC",
        "col3": "IUCN3.1"
    },
    {
        "col0": "Lomami screeching frog",
        "col1": "Arthroleptidae",
        "col2": "DD",
        "col3": "IUCN3.1"
    },
    {
        "col0": "Locust coqui",
        "col1": "Eleutherodactylidae",
        "col2": "CR",
        "col3": "IUCN3.1"
    },
    {
        "col0": "Littlejohn's tree frog",
        "col1": "Hylidae",
        "col2": "LC",
        "col3": "IUCN3.1"
    },
    {
        "col0": "Littlejohn's toadlet",
        "col1": "Myobatrachidae",
        "col2": "LC",
        "col3": "IUCN3.1"
    },
    {
        "col0": "Little grass frog",
        "col1": "Hylidae",
        "col2": "LC",
        "col3": "IUCN3.1"
    },
    {
        "col0": "Litoria spinifera",
        "col1": "Hylidae",
        "col2": "LC",
        "col3": "IUCN3.1"
    },
    {
        "col0": "Litoria spartacus",
        "col1": "Hylidae",
        "col2": "DD",
        "col3": "IUCN3.1"
    },
    {
        "col0": "Litoria singadanae",
        "col1": "Hylidae",
        "col2": "DD",
        "col3": "IUCN3.1"
    },
    {
        "col0": "Litoria rubrops",
        "col1": "Hylidae",
        "col2": "DD",
        "col3": "IUCN3.1"
    },
    {
        "col0": "Litoria purpureolata",
        "col1": "Hylidae",
        "col2": "DD",
        "col3": "IUCN3.1"
    },
    {
        "col0": "Litoria pronimia",
        "col1": "Hylidae",
        "col2": "LC",
        "col3": "IUCN3.1"
    },
    {
        "col0": "Litoria ollauro",
        "col1": "Hylidae",
        "col2": "DD",
        "col3": "IUCN3.1"
    },
    {
        "col0": "Litoria mucro",
        "col1": "Hylidae",
        "col2": "DD",
        "col3": "IUCN3.1"
    },
    {
        "col0": "Litoria majikthise",
        "col1": "Hylidae",
        "col2": "DD",
        "col3": "IUCN3.1"
    },
    {
        "col0": "Litoria macki",
        "col1": "Hylidae",
        "col2": "DD",
        "col3": "IUCN3.1"
    },
    {
        "col0": "Litoria kumae",
        "col1": "Hylidae",
        "col2": "DD",
        "col3": "IUCN3.1"
    },
    {
        "col0": "Litoria jungguy",
        "col1": "Hylidae",
        "col2": "NT",
        "col3": "IUCN3.1"
    },
    {
        "col0": "Litoria havina",
        "col1": "Hylidae",
        "col2": "LC",
        "col3": "IUCN3.1"
    },
    {
        "col0": "Litoria exophthalmia",
        "col1": "Hylidae",
        "col2": "LC",
        "col3": "IUCN3.1"
    },
    {
        "col0": "Litoria elkeae",
        "col1": "Hylidae",
        "col2": "DD",
        "col3": "IUCN3.1"
    },
    {
        "col0": "Litoria chloris",
        "col1": "Hylidae",
        "col2": "LC",
        "col3": "IUCN3.1"
    },
    {
        "col0": "Litoria castanea",
        "col1": "Hylidae",
        "col2": "CR",
        "col3": "IUCN3.1"
    },
    {
        "col0": "Litoria auae",
        "col1": "Hylidae",
        "col2": "LC",
        "col3": "IUCN3.1"
    },
    {
        "col0": "Lithobates clamitans",
        "col1": "Ranidae",
        "col2": "LC",
        "col3": "IUCN3.1"
    },
    {
        "col0": "Liophryne similis",
        "col1": "Microhylidae",
        "col2": "DD",
        "col3": "IUCN3.1"
    },
    {
        "col0": "Liophryne schlaginhaufeni",
        "col1": "Microhylidae",
        "col2": "LC",
        "col3": "IUCN3.1"
    },
    {
        "col0": "Liophryne rubra",
        "col1": "Microhylidae",
        "col2": "DD",
        "col3": "IUCN3.1"
    },
    {
        "col0": "Liophryne rhododactyla",
        "col1": "Microhylidae",
        "col2": "DD",
        "col3": "IUCN3.1"
    },
    {
        "col0": "Liophryne dentata",
        "col1": "Microhylidae",
        "col2": "LC",
        "col3": "IUCN3.1"
    },
    {
        "col0": "Liophryne allisoni",
        "col1": "Microhylidae",
        "col2": "DD",
        "col3": "IUCN3.1"
    },
    {
        "col0": "Linhares lime tree frog",
        "col1": "Hylidae",
        "col2": "LC",
        "col3": "IUCN3.1"
    },
    {
        "col0": "Lined tree frog",
        "col1": "Hylidae",
        "col2": "VU",
        "col3": "IUCN3.1"
    },
    {
        "col0": "Linda's tree frog",
        "col1": "Hylidae",
        "col2": "VU",
        "col3": "IUCN3.1"
    },
    {
        "col0": "Lincoln's climbing salamander",
        "col1": "Plethodontidae",
        "col2": "NT",
        "col3": "IUCN3.1"
    },
    {
        "col0": "Limnonectes khasianus",
        "col1": "Dicroglossidae",
        "col2": "DD",
        "col3": "IUCN3.1"
    },
    {
        "col0": "Limnonectes kenepaiensis",
        "col1": "Dicroglossidae",
        "col2": "DD",
        "col3": "IUCN3.1"
    },
    {
        "col0": "Limnonectes ibanorum",
        "col1": "Dicroglossidae",
        "col2": "NT",
        "col3": "IUCN3.1"
    },
    {
        "col0": "Limnonectes heinrichi",
        "col1": "Dicroglossidae",
        "col2": "VU",
        "col3": "IUCN3.1"
    },
    {
        "col0": "Limnodynastes dumerilii",
        "col1": "Myobatrachidae",
        "col2": "LC",
        "col3": "IUCN3.1"
    },
    {
        "col0": "Limestone salamander",
        "col1": "Plethodontidae",
        "col2": "VU",
        "col3": "IUCN3.1"
    },
    {
        "col0": "Lichuan bell toad",
        "col1": "Bombinatoridae",
        "col2": "VU",
        "col3": "IUCN3.1"
    },
    {
        "col0": "Leyte tree frog",
        "col1": "Rhacophoridae",
        "col2": "VU",
        "col3": "IUCN3.1"
    },
    {
        "col0": "Levant water frog",
        "col1": "Ranidae",
        "col2": "LC",
        "col3": "IUCN3.1"
    },
    {
        "col0": "Lesueur's frog",
        "col1": "Hylidae",
        "col2": "LC",
        "col3": "IUCN3.1"
    },
    {
        "col0": "Lesser slender salamander",
        "col1": "Lungless salamander",
        "col2": "DD",
        "col3": "IUCN3.1"
    },
    {
        "col0": "Lesser siren",
        "col1": "Sirenidae",
        "col2": "LC",
        "col3": "IUCN3.1"
    },
    {
        "col0": "Leptolalax alpinus",
        "col1": "Megophryidae",
        "col2": "EN",
        "col3": "IUCN3.1"
    },
    {
        "col0": "Leptodactylus ventrimaculatus",
        "col1": "Leptodactylidae",
        "col2": "LC",
        "col3": "iucn3.1"
    },
    {
        "col0": "Leptodactylus tapiti",
        "col1": "Leptodactylidae",
        "col2": "DD",
        "col3": "IUCN3.1"
    },
    {
        "col0": "Leptodactylus syphax",
        "col1": "Leptodactylidae",
        "col2": "LC",
        "col3": "iucn3.1"
    },
    {
        "col0": "Leptodactylus stenodema",
        "col1": "Leptodactylidae",
        "col2": "LC",
        "col3": "iucn3.1"
    },
    {
        "col0": "Leptodactylus spixi",
        "col1": "Leptodactylidae",
        "col2": "LC",
        "col3": "iucn3.1"
    },
    {
        "col0": "Leptodactylus silvanimbus",
        "col1": "Leptodactylidae",
        "col2": "CR",
        "col3": "IUCN3.1"
    },
    {
        "col0": "Leptodactylus sabanensis",
        "col1": "Leptodactylidae",
        "col2": "LC",
        "col3": "IUCN3.1"
    },
    {
        "col0": "Leptodactylus rugosus",
        "col1": "Leptodactylidae",
        "col2": "LC",
        "col3": "IUCN3.1"
    },
    {
        "col0": "Leptodactylus riveroi",
        "col1": "Leptodactylidae",
        "col2": "LC",
        "col3": "IUCN3.1"
    },
    {
        "col0": "Leptodactylus rhodostima",
        "col1": "Leptodactylidae",
        "col2": "DD",
        "col3": "IUCN3.1"
    },
    {
        "col0": "Leptodactylus rhodonotus",
        "col1": "Leptodactylidae",
        "col2": "LC",
        "col3": "iucn3.1"
    },
    {
        "col0": "Leptodactylus pustulatus",
        "col1": "Leptodactylidae",
        "col2": "LC",
        "col3": "iucn3.1"
    },
    {
        "col0": "Leptodactylus poecilochilus",
        "col1": "Leptodactylidae",
        "col2": "LC",
        "col3": "iucn3.1"
    },
    {
        "col0": "Leptodactylus plaumanni",
        "col1": "Leptodactylidae",
        "col2": "LC",
        "col3": "iucn3.1"
    },
    {
        "col0": "Leptodactylus notoaktites",
        "col1": "Leptodactylidae",
        "col2": "LC",
        "col3": "iucn3.1"
    },
    {
        "col0": "Leptodactylus mystacinus",
        "col1": "Leptodactylidae",
        "col2": "LC",
        "col3": "IUCN3.1"
    },
    {
        "col0": "Leptodactylus mystaceus",
        "col1": "Leptodactylidae",
        "col2": "LC",
        "col3": "IUCN3.1"
    },
    {
        "col0": "Leptodactylus myersi",
        "col1": "Leptodactylidae",
        "col2": "LC",
        "col3": "IUCN3.1"
    },
    {
        "col0": "Leptodactylus melanonotus",
        "col1": "Leptodactylidae",
        "col2": "LC",
        "col3": "iucn3.1"
    },
    {
        "col0": "Leptodactylus marmoratus",
        "col1": "Leptodactylidae",
        "col2": "LC",
        "col3": "IUCN3.1"
    },
    {
        "col0": "Leptodactylus marambaiae",
        "col1": "Leptodactylidae",
        "col2": "LC",
        "col3": "iucn3.1"
    },
    {
        "col0": "Leptodactylus magistris",
        "col1": "Leptodactylidae",
        "col2": "CR",
        "col3": "IUCN3.1"
    },
    {
        "col0": "Leptodactylus longirostris",
        "col1": "Leptodactylidae",
        "col2": "LC",
        "col3": "IUCN3.1"
    },
    {
        "col0": "Leptodactylus lithonaetes",
        "col1": "Leptodactylidae",
        "col2": "LC",
        "col3": "IUCN3.1"
    },
    {
        "col0": "Leptodactylus latrans",
        "col1": "Leptodactylidae",
        "col2": "LC",
        "col3": "iucn3.1"
    },
    {
        "col0": "Leptodactylus laticeps",
        "col1": "Leptodactylidae",
        "col2": "NT",
        "col3": "IUCN3.1"
    },
    {
        "col0": "Leptodactylus labyrinthicus",
        "col1": "Leptodactylidae",
        "col2": "LC",
        "col3": "IUCN3.1"
    },
    {
        "col0": "Leptodactylus labrosus",
        "col1": "Leptodactylidae",
        "col2": "LC",
        "col3": "iucn3.1"
    },
    {
        "col0": "Leptodactylus knudseni",
        "col1": "Leptodactylidae",
        "col2": "LC",
        "col3": "IUCN3.1"
    },
    {
        "col0": "Leptodactylus jolyi",
        "col1": "Leptodactylidae",
        "col2": "LC",
        "col3": "iucn3.1"
    },
    {
        "col0": "Leptodactylus hylodes",
        "col1": "Leptodactylidae",
        "col2": "DD",
        "col3": "IUCN3.1"
    },
    {
        "col0": "Leptodactylus hallowelli",
        "col1": "Leptodactylidae",
        "col2": "DD",
        "col3": "IUCN3.1"
    },
    {
        "col0": "Leptodactylus gracilis",
        "col1": "Leptodactylidae",
        "col2": "LC",
        "col3": "iucn3.1"
    },
    {
        "col0": "Leptodactylus fuscus",
        "col1": "Leptodactylidae",
        "col2": "LC",
        "col3": "iucn3.1"
    },
    {
        "col0": "Leptodactylus furnarius",
        "col1": "Leptodactylidae",
        "col2": "LC",
        "col3": "iucn3.1"
    },
    {
        "col0": "Leptodactylus flavopictus",
        "col1": "Leptodactylidae",
        "col2": "LC",
        "col3": "iucn3.1"
    },
    {
        "col0": "Leptodactylus fallax",
        "col1": "Leptodactylidae",
        "col2": "CR",
        "col3": "IUCN3.1"
    },
    {
        "col0": "Leptodactylus elenae",
        "col1": "Leptodactylidae",
        "col2": "LC",
        "col3": "iucn3.1"
    },
    {
        "col0": "Leptodactylus didymus",
        "col1": "Leptodactylidae",
        "col2": "LC",
        "col3": "iucn3.1"
    },
    {
        "col0": "Leptodactylus cunicularius",
        "col1": "Leptodactylidae",
        "col2": "LC",
        "col3": "iucn3.1"
    },
    {
        "col0": "Leptodactylus chaquensis",
        "col1": "Leptodactylidae",
        "col2": "LC",
        "col3": "iucn3.1"
    },
    {
        "col0": "Leptodactylus camaquara",
        "col1": "Leptodactylidae",
        "col2": "DD",
        "col3": "IUCN3.1"
    },
    {
        "col0": "Leptodactylus bufonius",
        "col1": "Leptodactylidae",
        "col2": "LC",
        "col3": "iucn3.1"
    },
    {
        "col0": "Leptodactylus bolivianus",
        "col1": "Leptodactylidae",
        "col2": "LC",
        "col3": "IUCN3.1"
    },
    {
        "col0": "Leptobrachium xanthospilum",
        "col1": "Megophryidae",
        "col2": "DD",
        "col3": "IUCN3.1"
    },
    {
        "col0": "Leptobrachium pullum",
        "col1": "Megophryidae",
        "col2": "DD",
        "col3": "IUCN3.1"
    },
    {
        "col0": "Leptobrachium nigrops",
        "col1": "Megophryidae",
        "col2": "LC",
        "col3": "IUCN3.1"
    },
    {
        "col0": "Leptobrachium montanum",
        "col1": "Megophryidae",
        "col2": "LC",
        "col3": "IUCN3.1"
    },
    {
        "col0": "Leptobrachium leucops",
        "col1": "Megophryidae",
        "col2": "NE",
        "col3": "IUCN3.1"
    },
    {
        "col0": "Leptobrachium huashen",
        "col1": "Megophryidae",
        "col2": "LC",
        "col3": "IUCN3.1"
    },
    {
        "col0": "Leptobrachium gunungense",
        "col1": "Megophryidae",
        "col2": "VU",
        "col3": "IUCN3.1"
    },
    {
        "col0": "Leptobrachium chapaense",
        "col1": "Megophryidae",
        "col2": "LC",
        "col3": "IUCN3.1"
    },
    {
        "col0": "Leptobrachium buchardi",
        "col1": "Megophryidae",
        "col2": "DD",
        "col3": "IUCN3.1"
    },
    {
        "col0": "Leptobrachium banae",
        "col1": "Megophryidae",
        "col2": "VU",
        "col3": "IUCN3.1"
    },
    {
        "col0": "Leptobrachium abbotti",
        "col1": "Megophryidae",
        "col2": "LC",
        "col3": "IUCN3.1"
    },
    {
        "col0": "Leora's stream salamander",
        "col1": "Ambystomatidae",
        "col2": "CR",
        "col3": "IUCN3.1"
    },
    {
        "col0": "Leopard tree frog",
        "col1": "Hylidae",
        "col2": "LC",
        "col3": "IUCN3.1"
    },
    {
        "col0": "Lema tree frog",
        "col1": "Hylidae",
        "col2": "LC",
        "col3": "IUCN3.1"
    },
    {
        "col0": "Legler's stream frog",
        "col1": "Hylidae",
        "col2": "EN",
        "col3": "IUCN3.1"
    },
    {
        "col0": "Lechriodus platyceps",
        "col1": "Myobatrachidae",
        "col2": "LC",
        "col3": "IUCN3.1"
    },
    {
        "col0": "Lechriodus melanopyga",
        "col1": "Myobatrachidae",
        "col2": "LC",
        "col3": "IUCN3.1"
    },
    {
        "col0": "Lechriodus aganoposis",
        "col1": "Myobatrachidae",
        "col2": "LC",
        "col3": "IUCN3.1"
    },
    {
        "col0": "Leaf green tree frog",
        "col1": "Tree frog",
        "col2": "LC",
        "col3": "IUCN3.1"
    },
    {
        "col0": "Larut Hills caecilian",
        "col1": "Ichthyophiidae",
        "col2": "DD",
        "col3": "IUCN3.1"
    },
    {
        "col0": "Largen's clawed frog",
        "col1": "Pipidae",
        "col2": "EN",
        "col3": "IUCN3.1"
    },
    {
        "col0": "Large toadlet",
        "col1": "Myobatrachidae",
        "col2": "LC",
        "col3": "IUCN3.1"
    },
    {
        "col0": "Large-spined bell toad",
        "col1": "Bombinatoridae",
        "col2": "VU",
        "col3": "IUCN3.1"
    },
    {
        "col0": "Larch Mountain salamander",
        "col1": "Plethodontidae",
        "col2": "NT",
        "col3": "IUCN3.1"
    },
    {
        "col0": "Laos warty newt",
        "col1": "Salamandridae",
        "col2": "EN",
        "col3": "IUCN3.1"
    }
]