[
    {
        "col0": "G. Marker",
        "col1": "Ontario",
        "col2": "National Hockey League",
        "col3": "1997-10-07"
    },
    {
        "col0": "G. Kyle",
        "col1": "Missouri",
        "col2": "Boston Bruins",
        "col3": "1996-11-17"
    },
    {
        "col0": "G. Giesebrecht",
        "col1": "Canada",
        "col2": "Detroit Red Wings",
        "col3": "2006-12-27"
    },
    {
        "col0": "G. Forslund",
        "col1": "Canada",
        "col2": "Ottawa Senators",
        "col3": "1962-08-04"
    },
    {
        "col0": "G. Bodnar",
        "col1": "Canada",
        "col2": "Boston Bruins",
        "col3": "2005-07-01"
    },
    {
        "col0": "G. Worsley",
        "col1": "Canada",
        "col2": "New York Rangers",
        "col3": "2007-01-26"
    },
    {
        "col0": "G. Forrester",
        "col1": "Montana",
        "col2": "Montreal Shamrocks",
        "col3": "1932-11-08"
    },
    {
        "col0": "G. Parks",
        "col1": "Alberta",
        "col2": "New York Islanders",
        "col3": "2015-06-16"
    },
    {
        "col0": "G. Warwick",
        "col1": "Edmonton",
        "col2": "Boston Bruins",
        "col3": "1999-09-27"
    },
    {
        "col0": "G. Drinkwater",
        "col1": "Canada",
        "col2": "Montreal Victorias",
        "col3": "1946-09-27"
    },
    {
        "col0": "G. Roberts",
        "col1": "California",
        "col2": "Montreal Wanderers",
        "col3": "1966-09-01"
    },
    {
        "col0": "G. Poirier",
        "col1": "Canada",
        "col2": "Montreal Canadiens",
        "col3": "1972-05-25"
    },
    {
        "col0": "G. Henry",
        "col1": "Canada",
        "col2": "Boston Bruins",
        "col3": "1972-10-03"
    },
    {
        "col0": "G. Haidy",
        "col1": "Canada",
        "col2": "Detroit Red Wings",
        "col3": "2004-10-04"
    },
    {
        "col0": "G. Buttrey",
        "col1": "Alberta",
        "col2": "Chicago Blackhawks",
        "col3": "2012-01-03"
    },
    {
        "col0": "G. Howe",
        "col1": "Sylvania, Ohio",
        "col2": "National Hockey League",
        "col3": "2016-06-10"
    },
    {
        "col0": "G. Drillon",
        "col1": "Canada",
        "col2": "Montreal Canadiens",
        "col3": "1986-09-23"
    },
    {
        "col0": "G. Byers",
        "col1": "British Columbia",
        "col2": "Boston Bruins",
        "col3": "2001-11-02"
    },
    {
        "col0": "G. Bell",
        "col1": "Canada",
        "col2": "New York Rangers",
        "col3": "1980-11-03"
    },
    {
        "col0": "G. Strate",
        "col1": "Alberta",
        "col2": "Detroit Red Wings",
        "col3": "2012-09-05"
    },
    {
        "col0": "G. Spence",
        "col1": "Canada",
        "col2": "Toronto St. Patricks",
        "col3": "1984-11-21"
    },
    {
        "col0": "G. Reid",
        "col1": "Canada",
        "col2": "New York Americans",
        "col3": "1994-11-12"
    },
    {
        "col0": "G. Redahl",
        "col1": "Canada",
        "col2": "Boston Bruins",
        "col3": "2011-06-22"
    },
    {
        "col0": "G. Pennell",
        "col1": "Manitoba",
        "col2": "Buffalo Bisons",
        "col3": "2015-09-13"
    },
    {
        "col0": "G. Hannigan",
        "col1": "Pennsylvania",
        "col2": "Toronto Maple Leafs",
        "col3": "1966-11-16"
    },
    {
        "col0": "G. Fraser",
        "col1": "Canada",
        "col2": "National Hockey League",
        "col3": "1964-10-01"
    },
    {
        "col0": "G. Fashoway",
        "col1": "Oregon",
        "col2": "Chicago Black Hawks",
        "col3": "2012-05-01"
    },
    {
        "col0": "G. Brydson",
        "col1": "Canada",
        "col2": "Toronto Maple Leafs",
        "col3": "2001-02-04"
    },
    {
        "col0": "G. Smith",
        "col1": "Canada",
        "col2": "Toronto St. Pats",
        "col3": "1949-10-06"
    },
    {
        "col0": "G. Sonmor",
        "col1": "Canada",
        "col2": "National Hockey League",
        "col3": "2015-12-14"
    },
    {
        "col0": "G. Smith",
        "col1": "Canada",
        "col2": "Chicago Blackhawks",
        "col3": "1999-03-30"
    },
    {
        "col0": "G. Skov",
        "col1": "Florida",
        "col2": "Detroit Red Wings",
        "col3": "2013-09-10"
    },
    {
        "col0": "G. Harmon",
        "col1": "Canada",
        "col2": "Montreal Canadiens",
        "col3": "2007-03-09"
    },
    {
        "col0": "G. Tremblay",
        "col1": "Canada",
        "col2": "Montreal Canadiens",
        "col3": "2014-11-26"
    },
    {
        "col0": "G. Mayer",
        "col1": "Rhode Island",
        "col2": "Toronto Maple Leafs",
        "col3": "2015-09-29"
    },
    {
        "col0": "G. Dube",
        "col1": "Canada",
        "col2": "Montreal Canadiens",
        "col3": "2016-09-29"
    },
    {
        "col0": "G. Bilodeau",
        "col1": "Alabama",
        "col2": "National Hockey League",
        "col3": "2008-08-12"
    },
    {
        "col0": "G. Hutchinson",
        "col1": "England",
        "col2": "Streatham Redskins",
        "col3": "1996-12-30"
    },
    {
        "col0": "G. Agazzi",
        "col1": "Italy",
        "col2": "HC Milano",
        "col3": "1995-09-26"
    },
    {
        "col0": "G. Reid",
        "col1": "Canada",
        "col2": "Detroit Red Wings",
        "col3": "1971-03-26"
    },
    {
        "col0": "G. Melnyk",
        "col1": "Edmonton",
        "col2": "Chicago Blackhawks",
        "col3": "2001-06-14"
    },
    {
        "col0": "G. McNeil",
        "col1": "Canada",
        "col2": "American Hockey League",
        "col3": "2004-06-17"
    },
    {
        "col0": "G. Geran",
        "col1": "Brooklyn",
        "col2": "Boston Bruins",
        "col3": "1981-09-08"
    },
    {
        "col0": "G. Ehman",
        "col1": "Saskatoon",
        "col2": "Boston Bruins",
        "col3": "2006-03-21"
    },
    {
        "col0": "G. Davey",
        "col1": "Florida",
        "col2": "ZSC Lions",
        "col3": "1977-02-12"
    },
    {
        "col0": "G. Brisson",
        "col1": "United States",
        "col2": "Montreal Canadiens",
        "col3": "2013-01-16"
    },
    {
        "col0": "G. Gagnon",
        "col1": "Canada",
        "col2": "Chicago Blackhawks",
        "col3": "2014-10-26"
    },
    {
        "col0": "G. Munro",
        "col1": "Canada",
        "col2": "Montreal Maroons",
        "col3": "1968-01-28"
    },
    {
        "col0": "G. Heffernan",
        "col1": "California",
        "col2": "Montreal Canadiens",
        "col3": "2007-01-16"
    },
    {
        "col0": "G. Vezina",
        "col1": "Canada",
        "col2": "Montreal Canadiens",
        "col3": "1926-03-27"
    },
    {
        "col0": "G. Treherne",
        "col1": "San Francisco County, California",
        "col2": "New Westminster Royals",
        "col3": "1964-08-15"
    },
    {
        "col0": "G. Rochon",
        "col1": "Cochrane, Ontario",
        "col2": "New Westminster Royals",
        "col3": "1932-08-18"
    },
    {
        "col0": "G. Richardson",
        "col1": "Belgium",
        "col2": "Queen's University",
        "col3": "1916-02-09"
    },
    {
        "col0": "G. Prodgers",
        "col1": "Canada",
        "col2": "Montreal Canadiens",
        "col3": "1935-10-25"
    },
    {
        "col0": "G. Owen",
        "col1": "Milton, Massachusetts",
        "col2": "Boston Bruins",
        "col3": "1986-03-04"
    },
    {
        "col0": "G. O'Grady",
        "col1": "Canada",
        "col2": "Montreal Wanderers",
        "col3": "1974-07-25"
    },
    {
        "col0": "G. Morrison",
        "col1": "New York",
        "col2": "St. Louis Blues",
        "col3": "2008-11-12"
    },
    {
        "col0": "G. McNeil",
        "col1": "Pennsylvania",
        "col2": "Dundee Tigers",
        "col3": "1997-12-24"
    },
    {
        "col0": "G. McNamara",
        "col1": "Florida",
        "col2": "Toronto Blueshirts",
        "col3": "1952-03-10"
    },
    {
        "col0": "G. Hay",
        "col1": "Canada",
        "col2": "Chicago Blackhawks",
        "col3": "1975-07-13"
    },
    {
        "col0": "G. Hainsworth",
        "col1": "Canada",
        "col2": "Montreal Canadiens",
        "col3": "1950-10-09"
    },
    {
        "col0": "G. Grigor",
        "col1": "Canada",
        "col2": "Chicago Blackhawks",
        "col3": "1979-10-07"
    },
    {
        "col0": "G. Gee",
        "col1": "Detroit",
        "col2": "Chicago Blackhawks",
        "col3": "1972-01-14"
    },
    {
        "col0": "G. Gardner",
        "col1": "Florida",
        "col2": "Detroit Red Wings",
        "col3": "2006-11-06"
    },
    {
        "col0": "G. Cochrane",
        "col1": "Canada",
        "col2": "Berlin Dutchmen",
        "col3": "1952-04-15"
    },
    {
        "col0": "G. Carey",
        "col1": "Canada",
        "col2": "Hamilton Tigers",
        "col3": "1974-12-31"
    },
    {
        "col0": "G. Brown",
        "col1": "Quebec",
        "col2": "National Hockey League",
        "col3": "1972-01-23"
    },
    {
        "col0": "G. Blair",
        "col1": "Canada",
        "col2": "Toronto Maple Leafs",
        "col3": "2010-07-09"
    },
    {
        "col0": "G. Allen",
        "col1": "Alberta",
        "col2": "Chicago Blackhawks",
        "col3": "2000-03-27"
    },
    {
        "col0": "G. Abel",
        "col1": "Canada",
        "col2": "Edmonton Mercurys",
        "col3": "1996-04-16"
    },
    {
        "col0": "G. Abbott",
        "col1": "Ontario",
        "col2": "Boston Bruins",
        "col3": "1996-12-31"
    },
    {
        "col0": "G. Churilov",
        "col1": "Russia",
        "col2": "Lokomotiv Yaroslavl",
        "col3": "2011-09-07"
    },
    {
        "col0": "G. Carrigan",
        "col1": "Texas",
        "col2": "Detroit Red Wings",
        "col3": "1945-03-15"
    },
    {
        "col0": "G. Myhre",
        "col1": "Spain",
        "col2": "Hasle-Loren IL",
        "col3": "2016-07-22"
    },
    {
        "col0": "G. Duchesne",
        "col1": "Canada",
        "col2": "San Jose Sharks",
        "col3": "2007-04-16"
    },
    {
        "col0": "G. Stewart",
        "col1": "Canada",
        "col2": "Chicago Blackhawks",
        "col3": "2010-11-18"
    },
    {
        "col0": "G. Leroux",
        "col1": "Quebec",
        "col2": "Montreal Canadiens",
        "col3": "1988-08-29"
    },
    {
        "col0": "G. Sittler",
        "col1": "British Columbia",
        "col2": "World Hockey Association",
        "col3": "2015-02-24"
    },
    {
        "col0": "G. Lupul",
        "col1": "British Columbia",
        "col2": "Vancouver Canucks",
        "col3": "2007-07-18"
    },
    {
        "col0": "G. Bergman",
        "col1": "Detroit",
        "col2": "Quebec Aces",
        "col3": "2000-12-08"
    },
    {
        "col0": "G. Edmundson",
        "col1": "Newport Beach, California",
        "col2": "Montreal Canadiens",
        "col3": "2016-09-20"
    },
    {
        "col0": "G. Bauman",
        "col1": "Alberta",
        "col2": "National Hockey League",
        "col3": "2006-10-16"
    },
    {
        "col0": "G. Sixsmith",
        "col1": "Canada",
        "col2": "Pittsburgh Lyceum",
        "col3": "1967-03-12"
    },
    {
        "col0": "G. Bailey",
        "col1": "New York",
        "col2": "National Hockey League",
        "col3": "2001-09-11"
    },
    {
        "col0": "G. Scott",
        "col1": "California",
        "col2": "Montreal Maroons",
        "col3": "1977-06-09"
    },
    {
        "col0": "G. Duchesne",
        "col1": "Canada",
        "col2": "San Jose Sharks",
        "col3": "2007-04-16"
    },
    {
        "col0": "G. Ocskay",
        "col1": "Budapest",
        "col2": "Alba Volan Szekesfehervar",
        "col3": "2009-03-25"
    },
    {
        "col0": "G. Boroczi",
        "col1": "Budapest",
        "col2": "Ujpesti TE",
        "col3": "1991-05-02"
    },
    {
        "col0": "F. Oduya",
        "col1": "Austria",
        "col2": "Edinburgh Capitals",
        "col3": "2011-1-1"
    },
    {
        "col0": "F. Whitcroft",
        "col1": "Canada",
        "col2": "Edmonton Eskimos",
        "col3": "1931-08-09"
    },
    {
        "col0": "F. Speck",
        "col1": "Canada",
        "col2": "Detroit Red Wings",
        "col3": "2011-02-10"
    },
    {
        "col0": "F. Shero",
        "col1": "New Jersey",
        "col2": "New York Rangers",
        "col3": "1990-11-24"
    },
    {
        "col0": "F. Scanlan",
        "col1": "California",
        "col2": "Winnipeg Victorias",
        "col3": "1950-11-11"
    },
    {
        "col0": "F. Povey",
        "col1": "Canada",
        "col2": "Montreal Canadiens",
        "col3": "1969-0-0"
    },
    {
        "col0": "F. Lake",
        "col1": "Canada",
        "col2": "Ottawa Senators",
        "col3": "1937-12-01"
    },
    {
        "col0": "F. Gordon",
        "col1": "Arkansas",
        "col2": "Boston Bruins",
        "col3": "1985-11-26"
    },
    {
        "col0": "F. Glover",
        "col1": "California",
        "col2": "Chicago Blackhawks",
        "col3": "2001-04-16"
    },
    {
        "col0": "F. Dunsmore",
        "col1": "Canada",
        "col2": "Winnipeg Maroons",
        "col3": "2014-05-13"
    },
    {
        "col0": "F. Doherty",
        "col1": "Canada",
        "col2": "Montreal Canadiens",
        "col3": "1961-02-12"
    },
    {
        "col0": "F. Burchell",
        "col1": "Canada",
        "col2": "National Hockey League",
        "col3": "1998-06-04"
    },
    {
        "col0": "F. Schussler",
        "col1": "Soviet Union",
        "col2": "EK Engelmann Wien",
        "col3": "1942-08-29"
    },
    {
        "col0": "F. Switzer",
        "col1": "Ohio",
        "col2": "Pittsburgh Keystones",
        "col3": "1970-03-28"
    },
    {
        "col0": "F. Steele",
        "col1": "Florida",
        "col2": "Detroit Red Wings",
        "col3": "1992-12-03"
    },
    {
        "col0": "F. Sheppard",
        "col1": "Canada",
        "col2": "Detroit Red Wings",
        "col3": "1996-02-20"
    },
    {
        "col0": "F. Peters",
        "col1": "Boston",
        "col2": "New York Rangers",
        "col3": "1973-07-17"
    },
    {
        "col0": "F. Patrick",
        "col1": "British Columbia",
        "col2": "Montreal Victorias",
        "col3": "1960-06-29"
    },
    {
        "col0": "F. Nighbor",
        "col1": "Canada",
        "col2": "Toronto Maple Leafs",
        "col3": "1966-04-13"
    },
    {
        "col0": "F. McGee",
        "col1": "France",
        "col2": "Ottawa Senators",
        "col3": "1916-09-16"
    },
    {
        "col0": "F. McCool",
        "col1": "Canada",
        "col2": "Toronto Maple Leafs",
        "col3": "1973-05-20"
    },
    {
        "col0": "F. Mathers",
        "col1": "Pennsylvania",
        "col2": "National Hockey League",
        "col3": "2005-02-09"
    },
    {
        "col0": "F. King",
        "col1": "Vernon, British Columbia",
        "col2": "Montreal Canadiens",
        "col3": "2004-09-25"
    },
    {
        "col0": "F. Ingram",
        "col1": "Oklahoma",
        "col2": "National Hockey League",
        "col3": "1985-04-15"
    },
    {
        "col0": "F. Glass",
        "col1": "Canada",
        "col2": "Montreal Canadiens",
        "col3": "1965-03-02"
    },
    {
        "col0": "F. Fredrickson",
        "col1": "Canada",
        "col2": "Boston Bruins",
        "col3": "1979-05-28"
    },
    {
        "col0": "F. Foyston",
        "col1": "Seattle",
        "col2": "Detroit Red Wings",
        "col3": "1966-01-19"
    },
    {
        "col0": "F. Finnigan",
        "col1": "Canada",
        "col2": "Toronto Maple Leafs",
        "col3": "1991-12-25"
    },
    {
        "col0": "F. Eddolls",
        "col1": "Canada",
        "col2": "Montreal Canadiens",
        "col3": "1961-08-13"
    },
    {
        "col0": "F. Collins",
        "col1": "Canada",
        "col2": "Toronto National Sea Fleas",
        "col3": "1940-11-09"
    },
    {
        "col0": "F. Brophy",
        "col1": "Quebec",
        "col2": "Quebec Bulldogs",
        "col3": "1930-06-29"
    },
    {
        "col0": "F. Brimsek",
        "col1": "Minnesota",
        "col2": "Boston Bruins",
        "col3": "1998-11-11"
    },
    {
        "col0": "F. Boucher",
        "col1": "Canada",
        "col2": "New York Rangers",
        "col3": "1977-12-12"
    },
    {
        "col0": "F. Bennett",
        "col1": "Canada",
        "col2": "Detroit Red Wings",
        "col3": "1996-06-22"
    },
    {
        "col0": "F. Bathgate",
        "col1": "Canada",
        "col2": "New York Rangers",
        "col3": "2015-02-21"
    },
    {
        "col0": "F. Sullivan",
        "col1": "Canada",
        "col2": "Edmonton Mercurys",
        "col3": "2007-01-05"
    },
    {
        "col0": "F. Kane",
        "col1": "Texas",
        "col2": "Detroit Red Wings",
        "col3": "2016-03-29"
    },
    {
        "col0": "F. Martin",
        "col1": "Seattle",
        "col2": "Edmonton Eskimos",
        "col3": "1923-12-09"
    },
    {
        "col0": "F. Curry",
        "col1": "Canada",
        "col2": "Montreal Canadiens",
        "col3": "2006-09-16"
    },
    {
        "col0": "F. Mackell",
        "col1": "Canada",
        "col2": "Boston Bruins",
        "col3": "2015-10-19"
    },
    {
        "col0": "F. Hollett",
        "col1": "Canada",
        "col2": "Boston Bruins",
        "col3": "1999-04-20"
    },
    {
        "col0": "F. Purpur",
        "col1": "United States",
        "col2": "Chicago Blackhawks",
        "col3": "2001-02-21"
    },
    {
        "col0": "F. Flaman",
        "col1": "Massachusetts",
        "col2": "Boston Bruins",
        "col3": "2012-06-22"
    },
    {
        "col0": "F. Rivard",
        "col1": "Canada",
        "col2": "Minnesota North Stars",
        "col3": "1993-07-31"
    },
    {
        "col0": "F. Gillie",
        "col1": "Canada",
        "col2": "Detroit Red Wings",
        "col3": "1972-10-07"
    },
    {
        "col0": "E. Dumart",
        "col1": "Ontario",
        "col2": "Berlin Dutchmen",
        "col3": "1954-7-0"
    },
    {
        "col0": "E. McGowan",
        "col1": "New York",
        "col2": "Vancouver Maroons",
        "col3": "1982-5-0"
    },
    {
        "col0": "E. Payan",
        "col1": "Canada",
        "col2": "Montreal Canadiens",
        "col3": "1971-04-27"
    },
    {
        "col0": "E. Russell",
        "col1": "Canada",
        "col2": "Montreal Hockey Club",
        "col3": "1963-02-23"
    },
    {
        "col0": "E. Roche",
        "col1": "Canada",
        "col2": "Montreal Canadiens",
        "col3": "1988-01-02"
    },
    {
        "col0": "E. Parkes",
        "col1": "Canada",
        "col2": "Montreal Maroons",
        "col3": "1948-07-07"
    },
    {
        "col0": "E. McLea",
        "col1": "Canada",
        "col2": "Montreal Victorias",
        "col3": "1931-06-17"
    },
    {
        "col0": "E. Liffiton",
        "col1": "Canada",
        "col2": "National Hockey Association",
        "col3": "1949-01-23"
    },
    {
        "col0": "E. Laforce",
        "col1": "Canada",
        "col2": "Montreal Canadiens",
        "col3": "2009-10-18"
    },
    {
        "col0": "E. Dickens",
        "col1": "Canada",
        "col2": "Chicago Blackhawks",
        "col3": "1985-09-27"
    },
    {
        "col0": "E. Collett",
        "col1": "Toronto",
        "col2": "Toronto Granites",
        "col3": "1951-12-21"
    },
    {
        "col0": "E. Anderson",
        "col1": "Calgary",
        "col2": "Edmonton Eskimos",
        "col3": "1977-01-18"
    },
    {
        "col0": "E. Aljancic",
        "col1": "Ljubljana",
        "col2": "HDD Olimpija Ljubljana",
        "col3": "2006-11-19"
    },
    {
        "col0": "E. Laine",
        "col1": "Finland",
        "col2": "HC Davos",
        "col3": "2009-08-22"
    },
    {
        "col0": "E. Prentice",
        "col1": "Alberta",
        "col2": "Toronto Maple Leafs",
        "col3": "2002-12-08"
    },
    {
        "col0": "E. Paterson",
        "col1": "Alberta",
        "col2": "Edmonton Mercurys",
        "col3": "2014-01-14"
    },
    {
        "col0": "E. Sclisizzi",
        "col1": "Canada",
        "col2": "Chicago Blackhawks",
        "col3": "2012-06-27"
    },
    {
        "col0": "E. Bergman",
        "col1": "Stockholm",
        "col2": "Nacka HK",
        "col3": "1975-04-13"
    },
    {
        "col0": "E. Morris",
        "col1": "Canada",
        "col2": "New York Rangers",
        "col3": "2000-02-06"
    },
    {
        "col0": "E. Romnes",
        "col1": "Colorado",
        "col2": "Chicago Blackhawks",
        "col3": "1984-07-21"
    },
    {
        "col0": "E. Vasko",
        "col1": "Maywood, Illinois",
        "col2": "National Hockey League",
        "col3": "1998-10-30"
    },
    {
        "col0": "E. Piper",
        "col1": "Alberta",
        "col2": "Saskatoon Quakers",
        "col3": "1974-02-12"
    },
    {
        "col0": "E. Lach",
        "col1": "Canada",
        "col2": "Montreal Canadiens",
        "col3": "2015-04-04"
    },
    {
        "col0": "E. Pringle",
        "col1": "Canada",
        "col2": "New York Americans",
        "col3": "1990-10-03"
    },
    {
        "col0": "E. O'Brien",
        "col1": "Canada",
        "col2": "Boston Bruins",
        "col3": "2011-11-27"
    },
    {
        "col0": "E. Maatta",
        "col1": "Sweden",
        "col2": "Sodertalje SK",
        "col3": "2011-05-07"
    },
    {
        "col0": "E. Heller",
        "col1": "Canada",
        "col2": "National Hockey League",
        "col3": "1980-06-15"
    },
    {
        "col0": "E. Slowinski",
        "col1": "New York",
        "col2": "New York Rangers",
        "col3": "1999-08-21"
    },
    {
        "col0": "E. Laprade",
        "col1": "Canada",
        "col2": "New York Rangers",
        "col3": "2014-04-28"
    },
    {
        "col0": "E. Dey",
        "col1": "Canada",
        "col2": "National Hockey Association",
        "col3": "1912-02-13"
    },
    {
        "col0": "E. Brenchley",
        "col1": "Canada",
        "col2": "Hershey Bears",
        "col3": "1975-03-13"
    },
    {
        "col0": "E. Wiseman",
        "col1": "Red Deer, Alberta",
        "col2": "Boston Bruins",
        "col3": "1977-05-06"
    },
    {
        "col0": "E. Shore",
        "col1": "Massachusetts",
        "col2": "Boston Bruins",
        "col3": "1985-03-16"
    },
    {
        "col0": "E. Ouellette",
        "col1": "Canada",
        "col2": "Chicago Black Hawks",
        "col3": "1975-08-22"
    },
    {
        "col0": "E. Oatman",
        "col1": "Minneapolis",
        "col2": "Quebec Bulldogs",
        "col3": "1973-11-05"
    },
    {
        "col0": "E. McCalmon",
        "col1": "Calgary",
        "col2": "Chicago Blackhawks",
        "col3": "1987-04-23"
    },
    {
        "col0": "E. Mazur",
        "col1": "Canada",
        "col2": "Chicago Blackhawks",
        "col3": "1995-07-03"
    },
    {
        "col0": "E. Kachur",
        "col1": "Canada",
        "col2": "Chicago Blackhawks",
        "col3": "2014-12-16"
    },
    {
        "col0": "E. Giroux",
        "col1": "Canada",
        "col2": "Toronto Marlboros",
        "col3": "1930-05-26"
    },
    {
        "col0": "E. Gerard",
        "col1": "Canada",
        "col2": "Ottawa Senators",
        "col3": "1937-08-07"
    },
    {
        "col0": "E. Carpenter",
        "col1": "Canada",
        "col2": "Quebec Bulldogs",
        "col3": "1963-04-30"
    },
    {
        "col0": "E. Barry",
        "col1": "Massachusetts",
        "col2": "Boston Bruins",
        "col3": "2016-02-12"
    },
    {
        "col0": "E. Millaire",
        "col1": "Canada",
        "col2": "Montreal Canadiens",
        "col3": "1950-11-16"
    },
    {
        "col0": "E. Longfellow",
        "col1": "Canada",
        "col2": "Toronto Tecumsehs",
        "col3": "1959-10-15"
    },
    {
        "col0": "E. Litzenberger",
        "col1": "Canada",
        "col2": "Chicago Blackhawks",
        "col3": "2010-11-01"
    },
    {
        "col0": "E. Kullman",
        "col1": "Canada",
        "col2": "New York Rangers",
        "col3": "1997-03-15"
    },
    {
        "col0": "E. Kea",
        "col1": "Ontario",
        "col2": "Atlanta Flames",
        "col3": "1999-08-31"
    },
    {
        "col0": "E. Hoekstra",
        "col1": "Canada",
        "col2": "Philadelphia Flyers",
        "col3": "2011-11-10"
    },
    {
        "col0": "E. Healey",
        "col1": "South Bend, Indiana",
        "col2": "Chicago Bears",
        "col3": "1978-12-9"
    },
    {
        "col0": "E. Harrison",
        "col1": "Brantford",
        "col2": "Boston Bruins",
        "col3": "2012-02-10"
    }
]