[
    {
        "col0": "A Storm of Swords",
        "col1": "A Feast for Crows",
        "col2": "A Clash of Kings",
        "col3": "PS3563.A7239 S7 2000"
    },
    {
        "col0": "A Spectacle of Corruption",
        "col1": "The Devil's Company",
        "col2": "A Conspiracy of Paper",
        "col3": "PS3562.17814S64 2004"
    },
    {
        "col0": "A Son of the Circus",
        "col1": "A Widow for One Year",
        "col2": "A Prayer for Owen Meany",
        "col3": "PS3559.R8 S64 1994"
    },
    {
        "col0": "A Small Town in Germany",
        "col1": "The Naive and Sentimental Lover",
        "col2": "The Looking-Glass War",
        "col3": "PZ4.L4526 Sm PR6062.E33"
    },
    {
        "col0": "A Slipping-Down Life",
        "col1": "The Clock Winder",
        "col2": "The Tin Can Tree",
        "col3": "PZ4.T979 Sl PS3570.Y45 (76098663 )"
    },
    {
        "col0": "A Sleeping Life",
        "col1": "Put on by Cunning",
        "col2": "Shake Hands Forever",
        "col3": "PZ4.R4132 Sl 1978b PR6068.E63"
    },
    {
        "col0": "A Ship of the Line",
        "col1": "Flying Colours",
        "col2": "The Happy Return",
        "col3": "PZ3.F75956 Shi2 PR6011.O56"
    },
    {
        "col0": "A Scourge of Screamers",
        "col1": "The Infinite Man",
        "col2": "Simulacron 3",
        "col3": "PS3557.A42 S36 1968"
    },
    {
        "col0": "A Ring of Endless Light",
        "col1": "Troubling a Star",
        "col2": "The Young Unicorns",
        "col3": "PZ7.L5385 Ri 1980"
    },
    {
        "col0": "A Pretext for War",
        "col1": "The Shadow Factory",
        "col2": "Body of Secrets",
        "col3": "DS79.76 .B36 2005"
    },
    {
        "col0": "A Place in England",
        "col1": "Kingdom Come",
        "col2": "The Hired Man",
        "col3": "PZ4.B8125 Pl PR6052.R263"
    },
    {
        "col0": "A Pinch of Snuff",
        "col1": "A Killing Kindness",
        "col2": "An April Shroud",
        "col3": "PZ4.H64856 Pi PR6058.I448"
    },
    {
        "col0": "A Perfect Spy",
        "col1": "The Russia House",
        "col2": "The Little Drummer Girl",
        "col3": "PR6062.E33 P47 1986"
    },
    {
        "col0": "A Pattern Language",
        "col1": "The Oregon Experiment",
        "col2": "The Timeless Way of Building",
        "col3": "HT166.A6147"
    },
    {
        "col0": "A Mysterious Affair of Style",
        "col1": "And Then There Was No One",
        "col2": "The Act of Roger Murgatroyd",
        "col3": "PR6051.D287 M97 2007"
    },
    {
        "col0": "A Mortal Flower",
        "col1": "Birdless Summer",
        "col2": "The Crippled Tree",
        "col3": "PR6015.A4674 M6 1966a"
    },
    {
        "col0": "A Month in the Country",
        "col1": "The Battle of Pollocks Crossing",
        "col2": "How Steeple Sinderby Wanderers Won the F.A. Cup",
        "col3": "PR6053.A694 M6"
    },
    {
        "col0": "A Meeting at Corvallis",
        "col1": "The Sunrise Lands",
        "col2": "The Protector's War",
        "col3": "PS3569.T543 M44 2006"
    },
    {
        "col0": "A Loyal Character Dancer",
        "col1": "When Red Is Black",
        "col2": "Death of a Red Heroine",
        "col3": "PS3553.H537 L69 2002"
    },
    {
        "col0": "A Long Long Way",
        "col1": "The Secret Scripture",
        "col2": "Annie Dunne",
        "col3": "PR6052.A729 L66 2005"
    },
    {
        "col0": "A Letter of Mary",
        "col1": "The Moor",
        "col2": "A Monstrous Regiment of Women",
        "col3": "PS3561.I4813 L47 1997"
    },
    {
        "col0": "A Knight of the Word",
        "col1": "Angel Fire East",
        "col2": "Running with the Demon",
        "col3": "PS3552.R6596 K65 1998"
    },
    {
        "col0": "A House Like a Lotus",
        "col1": "An Acceptable Time",
        "col2": "Dragons in the Waters",
        "col3": "PZ7.L5385 Ho 1984"
    },
    {
        "col0": "A History of the World in 10 1/2  Chapters",
        "col1": "Talking It Over",
        "col2": "Staring at the Sun",
        "col3": "PR6052.A6657"
    },
    {
        "col0": "A Guilty Thing Surprised",
        "col1": "No More Dying Then",
        "col2": "The Best Man to Die",
        "col3": "PZ4.R4132 Gu PR6068.E63"
    },
    {
        "col0": "A Graveyard for Lunatics",
        "col1": "Let's All Kill Constance",
        "col2": "Death Is a Lonely Business",
        "col3": "PS3503.R167 G74 1990"
    },
    {
        "col0": "A Glastonbury Romance",
        "col1": "Weymouth Sands",
        "col2": "Wolf Solent",
        "col3": "PR6031.O867"
    },
    {
        "col0": "A Gift of Dragons",
        "col1": "Dragon's Kin",
        "col2": "The Skies of Pern",
        "col3": "PS3563.A255 G54 2002"
    },
    {
        "col0": "A Fortress of Grey Ice",
        "col1": "A Sword from Red Ice",
        "col2": "A Cavern of Black Ice",
        "col3": "PS3560.O4874 F67 2003"
    },
    {
        "col0": "A Fire in the Sun",
        "col1": "The Exile Kiss",
        "col2": "When Gravity Fails",
        "col3": "PS3555.F4 F5 1989"
    },
    {
        "col0": "A Feast for Crows",
        "col1": "A Dance with Dragons",
        "col2": "A Storm of Swords",
        "col3": "PS3563.A7239 F39 2005"
    },
    {
        "col0": "A Family Affair",
        "col1": "Death Times Three",
        "col2": "Please Pass the Guilt",
        "col3": "PZ3.S8894 Fam PS3537.T733"
    },
    {
        "col0": "A Division of the Spoils",
        "col1": "Staying On",
        "col2": "The Towers of Silence",
        "col3": "PZ4.S428 Di PR6069.C596"
    },
    {
        "col0": "A Dirty Job",
        "col1": "You Suck: A Love Story",
        "col2": "The Stupidest Angel",
        "col3": "PS3563.O594 D57 2006"
    },
    {
        "col0": "A Devil's Chaplain",
        "col1": "The Ancestor's Tale",
        "col2": "Unweaving the Rainbow",
        "col3": "QH366.2 .D373 2003"
    },
    {
        "col0": "A Deepness in the Sky",
        "col1": "The Children of the Sky",
        "col2": "A Fire Upon the Deep",
        "col3": "PS3572.I534 D44 1999"
    },
    {
        "col0": "A Darkness More Than Night",
        "col1": "City of Bones",
        "col2": "Angels Flight",
        "col3": "PS3553.O51165 D37 2001"
    },
    {
        "col0": "A Dance with Dragons",
        "col1": "The Winds of Winter",
        "col2": "A Feast for Crows",
        "col3": "PS3563.A7239 D36 2011"
    },
    {
        "col0": "A Cure for Cancer",
        "col1": "The English Assassin: A Romance of Entropy",
        "col2": "The Final Programme",
        "col3": "PZ4.M8185 Cu PR6063.O59"
    },
    {
        "col0": "A Crown of Swords",
        "col1": "The Path of Daggers",
        "col2": "Lord of Chaos",
        "col3": "PS3560.O7617 C76 1996"
    },
    {
        "col0": "A Clash of Kings",
        "col1": "A Storm of Swords",
        "col2": "A Game of Thrones",
        "col3": "PS3563.A7239 C58 1999"
    },
    {
        "col0": "A Certain Justice",
        "col1": "Death in Holy Orders",
        "col2": "Original Sin",
        "col3": "PR6060.A467 C45 1997c"
    },
    {
        "col0": "A Catskill Eagle",
        "col1": "Taming a Sea Horse",
        "col2": "Valediction",
        "col3": "PS3566.A686 C3 1985"
    },
    {
        "col0": "A Case of Need",
        "col1": "Zero Cool",
        "col2": "Easy Go",
        "col3": "PS3553.R48"
    }
]