[
    {
        "col0": "Miele",
        "col1": "Gutersloh",
        "col2": "18",
        "col3": "4000000000"
    },
    {
        "col0": "Midlands Co-operative Society",
        "col1": "Lichfield",
        "col2": "7500",
        "col3": "670"
    },
    {
        "col0": "Midea",
        "col1": "Guangdong",
        "col2": "100000",
        "col3": "22170000000"
    },
    {
        "col0": "MidMichigan Health",
        "col1": "Michigan",
        "col2": "5050",
        "col3": "1100000000"
    },
    {
        "col0": "Microsemi",
        "col1": "Aliso Viejo, California",
        "col2": "4800",
        "col3": "1245"
    },
    {
        "col0": "Micronas",
        "col1": "Zurich",
        "col2": "893",
        "col3": "168"
    },
    {
        "col0": "Micron Technology",
        "col1": "Boise, Idaho",
        "col2": "30000",
        "col3": "16358000000"
    },
    {
        "col0": "Microgen",
        "col1": "Moscow",
        "col2": "6000",
        "col3": "5100000000"
    },
    {
        "col0": "Micro Center",
        "col1": "Ohio",
        "col2": "2500",
        "col3": "1840000000"
    },
    {
        "col0": "Micro-Star International",
        "col1": "Taiwan",
        "col2": "13500",
        "col3": "2700000000"
    },
    {
        "col0": "Michelin",
        "col1": "Clermont-Ferrand",
        "col2": "111200",
        "col3": "21470000000"
    },
    {
        "col0": "MiTAC Holdings",
        "col1": "Taiwan",
        "col2": "7000",
        "col3": "4206000000"
    },
    {
        "col0": "Mexican Restaurants, Inc.",
        "col1": "Houston, Texas",
        "col2": "2877",
        "col3": "82264000"
    },
    {
        "col0": "Metsa Wood",
        "col1": "Espoo",
        "col2": "3000",
        "col3": "904"
    },
    {
        "col0": "Metsa Tissue",
        "col1": "Espoo",
        "col2": "2800",
        "col3": "1000"
    },
    {
        "col0": "Metsa Board",
        "col1": "Espoo",
        "col2": "4540",
        "col3": "2605000000"
    },
    {
        "col0": "Metso",
        "col1": "Helsinki",
        "col2": "12000",
        "col3": "2977"
    },
    {
        "col0": "Metsa Wood",
        "col1": "Espoo",
        "col2": "3000",
        "col3": "904"
    },
    {
        "col0": "Metsa Tissue",
        "col1": "Espoo",
        "col2": "2800",
        "col3": "1000"
    },
    {
        "col0": "Metsa Board",
        "col1": "Espoo",
        "col2": "4540",
        "col3": "2605000000"
    },
    {
        "col0": "Metro AG",
        "col1": "Dusseldorf",
        "col2": "226895",
        "col3": "59219000000"
    },
    {
        "col0": "Metka",
        "col1": "Athens",
        "col2": "670",
        "col3": "1383000000"
    },
    {
        "col0": "Meteksan Savunma",
        "col1": "Ankara",
        "col2": "220",
        "col3": "110000000"
    },
    {
        "col0": "Metaswitch",
        "col1": "London",
        "col2": "700",
        "col3": "156000000"
    },
    {
        "col0": "Meru Networks",
        "col1": "Sunnyvale, CA",
        "col2": "403",
        "col3": "90500000"
    },
    {
        "col0": "Merlin Entertainments",
        "col1": "Poole",
        "col2": "28000",
        "col3": "1278000000"
    },
    {
        "col0": "Meridian Energy",
        "col1": "Wellington",
        "col2": "866",
        "col3": "2375"
    },
    {
        "col0": "Mercury Energy",
        "col1": "Auckland",
        "col2": "800",
        "col3": "1564"
    },
    {
        "col0": "Merck Millipore",
        "col1": "Billerica, Massachusetts",
        "col2": "10000",
        "col3": "991000000"
    },
    {
        "col0": "Memex Technology Limited",
        "col1": "East Kilbride",
        "col2": "110",
        "col3": "5113497"
    },
    {
        "col0": "Meizu",
        "col1": "Guangdong",
        "col2": "3000",
        "col3": "451500000"
    },
    {
        "col0": "Meituan.com",
        "col1": "Beijing",
        "col2": "19000",
        "col3": "6420000000"
    },
    {
        "col0": "Meisei Electric",
        "col1": "Isesaki, Gunma",
        "col2": "351",
        "col3": "59900000"
    },
    {
        "col0": "Medochemie",
        "col1": "Limassol",
        "col2": "1250",
        "col3": "500000000"
    },
    {
        "col0": "Mednax",
        "col1": "Sunrise, Florida",
        "col2": "8800",
        "col3": "2"
    },
    {
        "col0": "Mediterranean Shipping Company",
        "col1": "Geneva",
        "col2": "28000",
        "col3": "28190000000"
    },
    {
        "col0": "Medifast",
        "col1": "Maryland",
        "col2": "808",
        "col3": "285300000"
    },
    {
        "col0": "Medidata Solutions",
        "col1": "New York, New York",
        "col2": "1300",
        "col3": "392500000"
    },
    {
        "col0": "Mediaset Espana Comunicacion",
        "col1": "Madrid",
        "col2": "2",
        "col3": "957890000"
    }
]