[
    {
        "col0": "Crowded House",
        "col1": "Rainbow Quest",
        "col2": "Blushing Groom",
        "col3": "Woodman"
    },
    {
        "col0": "Creole Maid",
        "col1": "Pharamond II",
        "col2": "Phalaris",
        "col3": "Man o' War"
    },
    {
        "col0": "Cravat",
        "col1": "Sickle",
        "col2": "Phalaris",
        "col3": "Man o' War"
    },
    {
        "col0": "Court Martial",
        "col1": "Fair Trial",
        "col2": "Fairway",
        "col3": "Hurry On"
    },
    {
        "col0": "Counterpoint",
        "col1": "Count Fleet",
        "col2": "Reigh Count",
        "col3": "Sickle"
    },
    {
        "col0": "Count Turf",
        "col1": "Count Fleet",
        "col2": "Reigh Count",
        "col3": "Pompey"
    },
    {
        "col0": "Cotherstone",
        "col1": "Touchstone",
        "col2": "Camel",
        "col3": "Whisker"
    },
    {
        "col0": "Cosmic Bomb",
        "col1": "Pharamond II",
        "col2": "Phalaris",
        "col3": "Blue Larkspur"
    },
    {
        "col0": "Corporate Report",
        "col1": "Private Account",
        "col2": "Damascus",
        "col3": "Key to the Mint"
    },
    {
        "col0": "Coronation",
        "col1": "Djebel",
        "col2": "Tourbillon",
        "col3": "Tourbillon"
    },
    {
        "col0": "Coronation",
        "col1": "Sir Hercules",
        "col2": "Whalebone",
        "col3": "Rubens"
    },
    {
        "col0": "Coronado's Quest",
        "col1": "Forty Niner",
        "col2": "Mr. Prospector",
        "col3": "Damascus"
    },
    {
        "col0": "Corinthian",
        "col1": "Pulpit",
        "col2": "A.P. Indy",
        "col3": "Easy Goer"
    },
    {
        "col0": "Corinne",
        "col1": "Waxy",
        "col2": "Potoooooooo",
        "col3": "Beningbrough"
    },
    {
        "col0": "Coretta",
        "col1": "Caerleon II",
        "col2": "Nijinsky II",
        "col3": "Shirley Heights"
    },
    {
        "col0": "Cool Reception",
        "col1": "Nearctic",
        "col2": "Nearco",
        "col3": "Windfields"
    },
    {
        "col0": "Conveyance",
        "col1": "Indian Charlie",
        "col2": "In Excess",
        "col3": "Holy Bull"
    },
    {
        "col0": "Conniver",
        "col1": "Discovery",
        "col2": "Display",
        "col3": "Challenger"
    },
    {
        "col0": "Connaught Bridge",
        "col1": "Connaught",
        "col2": "St. Paddy",
        "col3": "Crepello"
    },
    {
        "col0": "Conduit",
        "col1": "Dalakhani",
        "col2": "Darshaan",
        "col3": "Sadler's Wells"
    },
    {
        "col0": "Comtesse de Loir",
        "col1": "Val de Loir",
        "col2": "Vieux Manoir",
        "col3": "Princequillo"
    },
    {
        "col0": "Compton Admiral",
        "col1": "Suave Dancer",
        "col2": "Green Dancer",
        "col3": "Mtoto"
    },
    {
        "col0": "Commentator",
        "col1": "Distorted Humor",
        "col2": "Forty Niner",
        "col3": "Storm Bird"
    },
    {
        "col0": "Commendable",
        "col1": "Gone West",
        "col2": "Mr. Prospector",
        "col3": "In Reality"
    },
    {
        "col0": "Commander in Chief",
        "col1": "Dancing Brave",
        "col2": "Lyphard",
        "col3": "Roberto"
    },
    {
        "col0": "Combat",
        "col1": "Big Game",
        "col2": "Bahram",
        "col3": "Mieuxce"
    },
    {
        "col0": "Colstar",
        "col1": "Opening Verse",
        "col2": "The Minstrel",
        "col3": "Risen Star"
    },
    {
        "col0": "Colonial Affair",
        "col1": "Pleasant Colony",
        "col2": "His Majesty",
        "col3": "Nijinsky II"
    },
    {
        "col0": "Collier Bay",
        "col1": "Green Desert",
        "col2": "Danzig",
        "col3": "High Top"
    },
    {
        "col0": "Cole Harden",
        "col1": "Westerner",
        "col2": "Danehill",
        "col3": "Alphabatim"
    },
    {
        "col0": "Cockney Rebel",
        "col1": "Val Royal",
        "col2": "Royal Academy",
        "col3": "Known Fact"
    },
    {
        "col0": "Cobweb",
        "col1": "Phantom",
        "col2": "Walton",
        "col3": "Soothsayer"
    },
    {
        "col0": "Coastal",
        "col1": "Majestic Prince",
        "col2": "Raise A Native",
        "col3": "Buckpasser"
    },
    {
        "col0": "Coaltown",
        "col1": "Bull Lea",
        "col2": "Bull Dog",
        "col3": "Blenheim II"
    },
    {
        "col0": "Cloth of Stars",
        "col1": "Sea The Stars",
        "col2": "Cape Cross",
        "col3": "Kingmambo"
    },
    {
        "col0": "Cloonlara",
        "col1": "Sir Ivor",
        "col2": "Sir Gaylord",
        "col3": "Baldric"
    },
    {
        "col0": "Cleopatra",
        "col1": "Corcyra",
        "col2": "Polymelus",
        "col3": "Gallinule"
    },
    {
        "col0": "Classic Empire",
        "col1": "Pioneerof the Nile",
        "col2": "Empire Maker",
        "col3": "Cat Thief"
    },
    {
        "col0": "Citation",
        "col1": "Bull Lea",
        "col2": "Bull Dog",
        "col3": "Hyperion"
    },
    {
        "col0": "Cigar",
        "col1": "Palace Music",
        "col2": "The Minstrel",
        "col3": "Seattle Slew"
    },
    {
        "col0": "Cicero",
        "col1": "Cyllene",
        "col2": "Bona Vista",
        "col3": "Ayrshire"
    },
    {
        "col0": "Churchill",
        "col1": "Galileo",
        "col2": "Sadler's Wells",
        "col3": "Storm Cat"
    },
    {
        "col0": "Christmas Past",
        "col1": "Grey Dawn II",
        "col2": "Herbager",
        "col3": "Bold Ruler"
    },
    {
        "col0": "Chompion",
        "col1": "Tompion",
        "col2": "Tom Fool",
        "col3": "Mahmoud"
    },
    {
        "col0": "Chilukki",
        "col1": "Cherokee Run",
        "col2": "Runaway Groom",
        "col3": "Damascus"
    },
    {
        "col0": "Chief's Crown",
        "col1": "Danzig",
        "col2": "Northern Dancer",
        "col3": "Secretariat"
    },
    {
        "col0": "Chester House",
        "col1": "Mr. Prospector",
        "col2": "Raise a Native",
        "col3": "El Gran Senor"
    },
    {
        "col0": "Cherry Lass",
        "col1": "Isinglass",
        "col2": "Isonomy",
        "col3": "Macaroni"
    },
    {
        "col0": "Cherokee Rose",
        "col1": "Dancing Brave",
        "col2": "Lyphard",
        "col3": "Secretariat"
    },
    {
        "col0": "Chateaugay",
        "col1": "Swaps",
        "col2": "Khaled",
        "col3": "Polynesian"
    },
    {
        "col0": "Charm Spirit",
        "col1": "Invincible Spirit",
        "col2": "Green Desert",
        "col3": "Montjeu"
    },
    {
        "col0": "Champs Elysees",
        "col1": "Danehill",
        "col2": "Danzig",
        "col3": "Kahyasi"
    },
    {
        "col0": "Champion",
        "col1": "Potoooooooo",
        "col2": "Eclipse",
        "col3": "Highflyer"
    },
    {
        "col0": "Chamossaire",
        "col1": "Precipitation",
        "col2": "Hurry On",
        "col3": "Cameronian"
    },
    {
        "col0": "Challenge Me",
        "col1": "Challenger",
        "col2": "Swynford",
        "col3": "Bull Dog"
    },
    {
        "col0": "Challedon",
        "col1": "Challenger",
        "col2": "Swynford",
        "col3": "Sir Gallahad III"
    },
    {
        "col0": "Cellini",
        "col1": "Round Table",
        "col2": "Princequillo",
        "col3": "Bold Ruler"
    },
    {
        "col0": "Celestial Storm",
        "col1": "Roberto",
        "col2": "Hail to Reason",
        "col3": "Ribot"
    },
    {
        "col0": "Cedric",
        "col1": "Phantom",
        "col2": "Walton",
        "col3": "Walton"
    },
    {
        "col0": "Cat Thief",
        "col1": "Storm Cat",
        "col2": "Storm Bird",
        "col3": "Alydar"
    },
    {
        "col0": "Casual Look",
        "col1": "Red Ransom",
        "col2": "Roberto",
        "col3": "Manila"
    },
    {
        "col0": "Casino Drive",
        "col1": "Mineshaft",
        "col2": "A. P. Indy",
        "col3": "Deputy Minister"
    },
    {
        "col0": "Cash Run",
        "col1": "Seeking the Gold",
        "col2": "Mr. Prospector",
        "col3": "Pleasant Colony"
    },
    {
        "col0": "Carry On Katie",
        "col1": "Fasliyev",
        "col2": "Nureyev",
        "col3": "Woodman"
    },
    {
        "col0": "Carrozza",
        "col1": "Dante",
        "col2": "Nearco",
        "col3": "Hyperion"
    },
    {
        "col0": "Carnegie",
        "col1": "Sadler's Wells",
        "col2": "Northern Dancer",
        "col3": "Riverman"
    },
    {
        "col0": "Caressing",
        "col1": "Honour and Glory",
        "col2": "Relaunch",
        "col3": "Majestic Prince"
    },
    {
        "col0": "Caracolero",
        "col1": "Graustark",
        "col2": "Ribot",
        "col3": "Prince John"
    },
    {
        "col0": "Captain Sweet",
        "col1": "Fastnet Rock",
        "col2": "Danehill",
        "col3": "Lake Coniston"
    },
    {
        "col0": "Captain's Gig",
        "col1": "Turn-To",
        "col2": "Royal Charger",
        "col3": "Ambiorix"
    },
    {
        "col0": "Capote",
        "col1": "Seattle Slew",
        "col2": "Bold Reasoning",
        "col3": "Bald Eagle"
    },
    {
        "col0": "Cape Verdi",
        "col1": "Caerleon",
        "col2": "Nijinsky II",
        "col3": "Sagace"
    },
    {
        "col0": "Cape Cross",
        "col1": "Green Desert",
        "col2": "Danzig",
        "col3": "Ahonoora"
    },
    {
        "col0": "Capades",
        "col1": "Overskate",
        "col2": "Nodouble",
        "col3": "Damascus"
    },
    {
        "col0": "Cannonade",
        "col1": "Bold Bidder",
        "col2": "Bold Ruler",
        "col3": "Ribot"
    },
    {
        "col0": "Candy Stripes",
        "col1": "Blushing Groom",
        "col2": "Red God",
        "col3": "Lyphard"
    },
    {
        "col0": "Cameronian",
        "col1": "Pharos",
        "col2": "Phalaris",
        "col3": "Gainsborough"
    },
    {
        "col0": "Camelot",
        "col1": "Montjeu",
        "col2": "Sadler's Wells",
        "col3": "Kingmambo"
    },
    {
        "col0": "Camel",
        "col1": "Whalebone",
        "col2": "Waxy",
        "col3": "Selim"
    },
    {
        "col0": "Cambremer",
        "col1": "Chamossaire",
        "col2": "Precipitation",
        "col3": "Easton"
    },
    {
        "col0": "Cam Fella",
        "col1": "Most Happy Fella",
        "col2": "Meadow Skipper",
        "col3": "Bret Hanover"
    },
    {
        "col0": "Caerleon",
        "col1": "Nijinsky II",
        "col2": "Northern Dancer",
        "col3": "Round Table"
    },
    {
        "col0": "Cacique",
        "col1": "Danehill",
        "col2": "Danzig",
        "col3": "Kahyasi"
    },
    {
        "col0": "Byword",
        "col1": "Peintre Celebre",
        "col2": "Nureyev",
        "col3": "Woodman"
    },
    {
        "col0": "Busybody",
        "col1": "Petrarch",
        "col2": "Lord Clifden",
        "col3": "Macaroni"
    },
    {
        "col0": "Buskin",
        "col1": "Hamburg",
        "col2": "Hanover",
        "col3": "Meddler"
    },
    {
        "col0": "Busher",
        "col1": "War Admiral",
        "col2": "Man o' War",
        "col3": "Bubbling Over"
    },
    {
        "col0": "Busanda",
        "col1": "War Admiral",
        "col2": "Man o' War",
        "col3": "Blue Larkspur"
    },
    {
        "col0": "Buoy",
        "col1": "Aureole",
        "col2": "Hyperion",
        "col3": "Ribot"
    },
    {
        "col0": "Bullish Luck",
        "col1": "Royal Academy",
        "col2": "Nijinsky II",
        "col3": "Alysheba"
    },
    {
        "col0": "Bull Page",
        "col1": "Bull Lea",
        "col2": "Bull Dog",
        "col3": "Blue Larkspur"
    },
    {
        "col0": "Bull Lea",
        "col1": "Bull Dog",
        "col2": "Teddy",
        "col3": "Ballot"
    },
    {
        "col0": "Bull Dog",
        "col1": "Teddy",
        "col2": "Ajax",
        "col3": "Spearmint"
    },
    {
        "col0": "Buena Vista",
        "col1": "Special Week",
        "col2": "Sunday Silence",
        "col3": "Caerleon"
    },
    {
        "col0": "Buddy's Saint",
        "col1": "Saint Liam",
        "col2": "Saint Ballado",
        "col3": "Blushing John"
    },
    {
        "col0": "Buckpasser",
        "col1": "Tom Fool",
        "col2": "Menow",
        "col3": "War Admiral"
    },
    {
        "col0": "Bucephalus",
        "col1": "Regulus",
        "col2": "Godolphin Arabian",
        "col3": "Partner"
    },
    {
        "col0": "Bubble Gum Fellow",
        "col1": "Sunday Silence",
        "col2": "Halo",
        "col3": "Lyphard"
    },
    {
        "col0": "Bryan G.",
        "col1": "Blenheim",
        "col2": "Blandford",
        "col3": "Pompey"
    },
    {
        "col0": "Brown Panther",
        "col1": "Shirocco",
        "col2": "Monsun",
        "col3": "Unfuwain"
    },
    {
        "col0": "Broomspun",
        "col1": "Broomstick",
        "col2": "Ben Brush",
        "col3": "Rock Sand"
    },
    {
        "col0": "Briseis",
        "col1": "Beningbrough",
        "col2": "King Fergus",
        "col3": "Sir Peter Teazle"
    },
    {
        "col0": "Brief Truce",
        "col1": "Irish River",
        "col2": "Riverman",
        "col3": "Northern Dancer"
    },
    {
        "col0": "Brian Boru",
        "col1": "Sadler's Wells",
        "col2": "Northern Dancer",
        "col3": "Alleged"
    },
    {
        "col0": "Brian's Time",
        "col1": "Roberto",
        "col2": "Hail to Reason",
        "col3": "Graustark"
    },
    {
        "col0": "Brass Hat",
        "col1": "Prized",
        "col2": "Kris S.",
        "col3": "Dixie Brass"
    },
    {
        "col0": "Bowling Brook",
        "col1": "Ayrshire",
        "col2": "Hampton",
        "col3": "Tom Ochiltree"
    },
    {
        "col0": "Bowl of Flowers",
        "col1": "Sailor II",
        "col2": "Eight Thirty",
        "col3": "Alibhai"
    },
    {
        "col0": "Bowl Game",
        "col1": "Tom Rolfe",
        "col2": "Ribot",
        "col3": "Round Table"
    },
    {
        "col0": "Boucher",
        "col1": "Ribot",
        "col2": "Tenerani",
        "col3": "Nasrullah"
    },
    {
        "col0": "Bostonian",
        "col1": "Broomstick",
        "col2": "Ben Brush",
        "col3": "Peter Pan I"
    },
    {
        "col0": "Boston Harbor",
        "col1": "Capote",
        "col2": "Seattle Slew",
        "col3": "Vice Regent"
    },
    {
        "col0": "Bosra Sham",
        "col1": "Woodman",
        "col2": "Mr. Prospector",
        "col3": "Riverman"
    },
    {
        "col0": "Borrego",
        "col1": "El Prado",
        "col2": "Sadler's Wells",
        "col3": "Strike the Gold"
    },
    {
        "col0": "Bondi Beach",
        "col1": "Galileo",
        "col2": "Sadler's Wells",
        "col3": "Danehill"
    },
    {
        "col0": "Bona Vista",
        "col1": "Bend Or",
        "col2": "Doncaster",
        "col3": "Macaroni"
    },
    {
        "col0": "Bollin Eric",
        "col1": "Shaamit",
        "col2": "Mtoto",
        "col3": "Alleged"
    },
    {
        "col0": "Boldnesian",
        "col1": "Bold Ruler",
        "col2": "Nasrullah",
        "col3": "Polynesian"
    },
    {
        "col0": "Bold Ruler",
        "col1": "Nasrullah",
        "col2": "Nearco",
        "col3": "Discovery"
    },
    {
        "col0": "Bold Reasoning",
        "col1": "Boldnesian",
        "col2": "Bold Ruler",
        "col3": "Hail To Reason"
    },
    {
        "col0": "Bold Lad",
        "col1": "Bold Ruler",
        "col2": "Nasrullah",
        "col3": "Princequillo"
    },
    {
        "col0": "Bodemeister",
        "col1": "Empire Maker",
        "col2": "Unbridled",
        "col3": "Storm Cat"
    },
    {
        "col0": "Bobs Worth",
        "col1": "Bob Back",
        "col2": "Roberto",
        "col3": "King's Theatre"
    },
    {
        "col0": "Bobby's Kitten",
        "col1": "Kitten's Joy",
        "col2": "El Prado",
        "col3": "Forestry"
    },
    {
        "col0": "Bob and John",
        "col1": "Seeking The Gold",
        "col2": "Mr. Prospector",
        "col3": "Deputy Minister"
    }
]