[
    {
        "col0": "John Tristan, Count of Valois",
        "col1": "Basilica of St Denis",
        "col2": "Egypt",
        "col3": "Tunis",
        "col4": "Louis IX of France",
        "col5": "1270-08-03"
    },
    {
        "col0": "J. S. Zapolya",
        "col1": "Gyulafehervar",
        "col2": "Buda",
        "col3": "Alba Iulia",
        "col4": "I. Jagiellon",
        "col5": "1571-03-14"
    },
    {
        "col0": "J. S. Vasa",
        "col1": "Poland",
        "col2": "Warsaw",
        "col3": "Poland",
        "col4": "John II Casimir Vasa",
        "col5": "1652-02-20"
    },
    {
        "col0": "John I of Portugal",
        "col1": "Monastery of Batalha",
        "col2": "Kingdom of Portugal",
        "col3": "Kingdom of Portugal",
        "col4": "Peter I of Portugal",
        "col5": "1433-08-14"
    },
    {
        "col0": "J. I. Albert",
        "col1": "Krakow",
        "col2": "Poland",
        "col3": "Poland",
        "col4": "E. o. Austria",
        "col5": "1501-06-17"
    },
    {
        "col0": "John II of Portugal",
        "col1": "Monastery of Batalha",
        "col2": "Kingdom of Portugal",
        "col3": "Alvor",
        "col4": "Afonso V of Portugal",
        "col5": "1495-10-25"
    },
    {
        "col0": "John II Casimir Vasa",
        "col1": "Krakow",
        "col2": "Krakow",
        "col3": "France",
        "col4": "C. o. Austria",
        "col5": "1672-12-16"
    },
    {
        "col0": "John III of Sweden",
        "col1": "Uppsala Cathedral",
        "col2": "Stegeborg Castle",
        "col3": "Stockholm",
        "col4": "M. Leijonhufvud",
        "col5": "1592-11-17"
    },
    {
        "col0": "John III of Portugal",
        "col1": "Jeronimos Monastery",
        "col2": "Castle of Sao Jorge",
        "col3": "Lisbon",
        "col4": "Manuel I of Portugal",
        "col5": "1557-06-11"
    },
    {
        "col0": "J. I. Sobieski",
        "col1": "Krakow",
        "col2": "Olesko",
        "col3": "Wilanow",
        "col4": "J. Sobieski",
        "col5": "1696-06-17"
    },
    {
        "col0": "J. Hunyadi",
        "col1": "Kingdom of Hungary",
        "col2": "Hunedoara",
        "col3": "Kingdom of Hungary",
        "col4": "Voyk",
        "col5": "1456-08-11"
    },
    {
        "col0": "John Henry, Margrave of Moravia",
        "col1": "Church of St. Thomas",
        "col2": "Prague",
        "col3": "Brno",
        "col4": "J. o. Bohemia",
        "col5": "1375-11-12"
    },
    {
        "col0": "John George IV, Elector of Saxony",
        "col1": "Freiberg Cathedral",
        "col2": "Dresden",
        "col3": "Dresden",
        "col4": "John George III, Elector of Saxony",
        "col5": "1694-04-27"
    },
    {
        "col0": "John George III, Elector of Saxony",
        "col1": "Cathedral of Freiberg",
        "col2": "Dresden",
        "col3": "Tubingen",
        "col4": "John George II, Elector of Saxony",
        "col5": "1691-09-12"
    },
    {
        "col0": "John George II, Elector of Saxony",
        "col1": "Cathedral of Freiberg",
        "col2": "Dresden",
        "col3": "Tubingen",
        "col4": "John George I, Elector of Saxony",
        "col5": "1680-08-22"
    },
    {
        "col0": "John, King of England",
        "col1": "Worcester Cathedral",
        "col2": "Oxford",
        "col3": "Nottinghamshire",
        "col4": "E. o. Aquitaine",
        "col5": "1216-10-19"
    },
    {
        "col0": "John, Duke of Valencia de Campos",
        "col1": "Salamanca",
        "col2": "Coimbra District",
        "col3": "Crown of Castile",
        "col4": "I. d. Castro",
        "col5": "1397-1-1"
    },
    {
        "col0": "Johannes, 11th Prince of Thurn and Taxis",
        "col1": "Bavaria",
        "col2": "Weimar Republic",
        "col3": "Germany",
        "col4": "Karl August, 10th Prince of Thurn and Taxis",
        "col5": "1990-12-14"
    },
    {
        "col0": "Johann Wilhelm, Elector Palatine",
        "col1": "St. Andreas, Dusseldorf",
        "col2": "Dusseldorf",
        "col3": "Dusseldorf",
        "col4": "Landgravine Elisabeth Amalie of Hesse-Darmstadt",
        "col5": "1716-06-08"
    },
    {
        "col0": "Johann I Joseph, Prince of Liechtenstein",
        "col1": "Brno",
        "col2": "Vienna",
        "col3": "Vienna",
        "col4": "Franz Joseph I, Prince of Liechtenstein",
        "col5": "1836-04-20"
    },
    {
        "col0": "Johann II, Prince of Liechtenstein",
        "col1": "Vranov",
        "col2": "Lednice",
        "col3": "Czechoslovakia",
        "col4": "Aloys II, Prince of Liechtenstein",
        "col5": "1929-02-11"
    },
    {
        "col0": "Johann Georg, Chevalier de Saxe",
        "col1": "Dresden",
        "col2": "Dresden",
        "col3": "Dresden",
        "col4": "Augustus II of Poland",
        "col5": "1774-02-25"
    },
    {
        "col0": "J. o. Bourbon",
        "col1": "Basilique Saint-Denis",
        "col2": "Vincennes",
        "col3": "Paris",
        "col4": "Peter I, Duke of Bourbon",
        "col5": "1378-02-06"
    },
    {
        "col0": "J. o. Bavaria",
        "col1": "Prague Castle",
        "col2": "The Hague",
        "col3": "Prague",
        "col4": "Albert I, Duke of Bavaria",
        "col5": "1386-12-31"
    },
    {
        "col0": "Joanna of Aragon, Countess of Ampurias",
        "col1": "Poblet Monastery",
        "col2": "Barcelona",
        "col3": "Castellon de la Plana",
        "col4": "M. o. Navarre",
        "col5": "1385-0-0"
    },
    {
        "col0": "Joanna I of Naples",
        "col1": "Santa Chiara",
        "col2": "Naples",
        "col3": "Muro Lucano",
        "col4": "Charles, Duke of Calabria",
        "col5": "1382-07-27"
    },
    {
        "col0": "Joanna II of Naples",
        "col1": "Naples",
        "col2": "Zadar",
        "col3": "Italy",
        "col4": "M. o. Durazzo",
        "col5": "1435-02-02"
    },
    {
        "col0": "Joanna, Princess of Portugal",
        "col1": "Aveiro, Portugal",
        "col2": "Lisbon",
        "col3": "Portugal",
        "col4": "Afonso V of Portugal",
        "col5": "1490-05-12"
    },
    {
        "col0": "Joan of the Tower",
        "col1": "Christ Church Greyfriars",
        "col2": "Tower of London",
        "col3": "Hertfordshire",
        "col4": "I. o. France",
        "col5": "1362-09-07"
    },
    {
        "col0": "J. o. Portugal",
        "col1": "Madrid",
        "col2": "Almada",
        "col3": "Madrid",
        "col4": "E. o. Portugal",
        "col5": "1475-12-12"
    },
    {
        "col0": "Joan of Navarre, Queen of England",
        "col1": "Canterbury Cathedral",
        "col2": "Pamplona",
        "col3": "Greater London",
        "col4": "Charles II of Navarre",
        "col5": "1437-06-10"
    },
    {
        "col0": "J. o. Kent",
        "col1": "England",
        "col2": "England",
        "col3": "England",
        "col4": "Edmund of Woodstock, 1st Earl of Kent",
        "col5": "1385-08-07"
    },
    {
        "col0": "Joan of France, Duchess of Brittany",
        "col1": "Vannes Cathedral",
        "col2": "Kingdom of France",
        "col3": "Duchy of Brittany",
        "col4": "Charles VI of France",
        "col5": "1433-09-27"
    },
    {
        "col0": "J. o. England",
        "col1": "France",
        "col2": "Tower of London",
        "col3": "Guyenne",
        "col4": "P. o. Hainault",
        "col5": "1348-07-01"
    },
    {
        "col0": "Joan of England, Queen of Sicily",
        "col1": "Fontevrault Abbey",
        "col2": "Anjou",
        "col3": "Rouen",
        "col4": "E. o. Aquitaine",
        "col5": "1199-09-04"
    },
    {
        "col0": "J. o. Acre",
        "col1": "Suffolk",
        "col2": "Acre, Israel",
        "col3": "Suffolk",
        "col4": "Edward I of England",
        "col5": "1307-04-23"
    },
    {
        "col0": "Joan I of Navarre",
        "col1": "Paris, France",
        "col2": "Bar-sur-Seine",
        "col3": "Chateau de Vincennes",
        "col4": "B. o. Artois",
        "col5": "1305-04-02"
    },
    {
        "col0": "Joao Manuel, Prince of Portugal",
        "col1": "Jeronimos Monastery",
        "col2": "Evora",
        "col3": "Lisbon",
        "col4": "John III of Portugal",
        "col5": "1554-01-02"
    },
    {
        "col0": "Joao, Prince of Brazil",
        "col1": "Kingdom of Portugal",
        "col2": "Kingdom of Portugal",
        "col3": "Kingdom of Portugal",
        "col4": "Maria Sophia of Neuburg",
        "col5": "1688-09-17"
    },
    {
        "col0": "J. D. Wangchuck",
        "col1": "Kurjey Lhakhang",
        "col2": "Thimphu",
        "col3": "Kenya",
        "col4": "J. Wangchuck",
        "col5": "1972-07-21"
    },
    {
        "col0": "J. Emperor",
        "col1": "Western Qing Tombs",
        "col2": "Beijing",
        "col3": "Hebei",
        "col4": "Q. Emperor",
        "col5": "1820-09-02"
    },
    {
        "col0": "J. Emperor",
        "col1": "Beijing",
        "col2": "Hubei",
        "col3": "Beijing",
        "col4": "Z. Youyuan",
        "col5": "1567-01-23"
    },
    {
        "col0": "J. d'Albret",
        "col1": "VendA'me",
        "col2": "Saint-Germain-en-Laye",
        "col3": "Paris",
        "col4": "Henry II of Navarre",
        "col5": "1572-06-09"
    },
    {
        "col0": "Jean Marie, Duke of Chateauvillain",
        "col1": "Chapelle royale de Dreux",
        "col2": "Paris",
        "col3": "France",
        "col4": "Louis Jean Marie de Bourbon, Duke of Penthievre",
        "col5": "1755-05-19"
    },
    {
        "col0": "Jean Gaston, Duke of Valois",
        "col1": "Basilica of St Denis",
        "col2": "Luxembourg Palace",
        "col3": "Luxembourg Palace",
        "col4": "Gaston, Duke of Orleans",
        "col5": "1652-08-10"
    },
    {
        "col0": "James V of Scotland",
        "col1": "Holyrood Abbey",
        "col2": "Kingdom of Scotland",
        "col3": "Kingdom of Scotland",
        "col4": "James IV of Scotland",
        "col5": "1542-12-14"
    },
    {
        "col0": "James VI and I",
        "col1": "Westminster Abbey",
        "col2": "Edinburgh",
        "col3": "Kingdom of England",
        "col4": "Mary, Queen of Scots",
        "col5": "1625-03-27"
    },
    {
        "col0": "James Stuart, Duke of Cambridge",
        "col1": "Westminster Abbey",
        "col2": "St James's Palace",
        "col3": "Richmond Palace",
        "col4": "James II of England",
        "col5": "1667-06-20"
    },
    {
        "col0": "J. Kanehoa",
        "col1": "Pohukaina Tomb",
        "col2": "Hawaii",
        "col3": "Honolulu",
        "col4": "J. Young",
        "col5": "1851-10-01"
    },
    {
        "col0": "James II of Scotland",
        "col1": "Holyrood Abbey",
        "col2": "Holyrood Abbey",
        "col3": "Roxburgh",
        "col4": "James I of Scotland",
        "col5": "1460-08-03"
    },
    {
        "col0": "James III of Scotland",
        "col1": "Cambuskenneth Abbey",
        "col2": "Stirling Castle",
        "col3": "Stirling",
        "col4": "James II of Scotland",
        "col5": "1488-06-11"
    },
    {
        "col0": "James Francis Edward Stuart",
        "col1": "Vatican City",
        "col2": "St James's Palace",
        "col3": "Papal States",
        "col4": "James II of England",
        "col5": "1766-01-01"
    },
    {
        "col0": "J. Mirza",
        "col1": "Natore",
        "col2": "Bengal",
        "col3": "East Pakistan",
        "col4": "M. Zafar",
        "col5": "1975-5-1"
    },
    {
        "col0": "Jahangir",
        "col1": "Lahore",
        "col2": "Mughal Empire",
        "col3": "Jammu and Kashmir",
        "col4": "Akbar",
        "col5": "1627-10-28"
    },
    {
        "col0": "J. Shah",
        "col1": "Humayun's Tomb",
        "col2": "Mughal Empire",
        "col3": "Delhi",
        "col4": "B. S. I",
        "col5": "1713-02-12"
    },
    {
        "col0": "Jacqueline, Countess of Hainaut",
        "col1": "Holland",
        "col2": "The Hague",
        "col3": "Leiden",
        "col4": "M. o. Burgundy",
        "col5": "1436-10-08"
    },
    {
        "col0": "J. Kettler",
        "col1": "Jelgava Palace",
        "col2": "KuldA<<ga",
        "col3": "Jelgava",
        "col4": "Duchess Sophie of Prussia",
        "col5": "1682-01-01"
    },
    {
        "col0": "Jacob Dircksz de Graeff",
        "col1": "Amsterdam",
        "col2": "Government of Amsterdam",
        "col3": "Amsterdam",
        "col4": "D. J. Graeff",
        "col5": "1638-10-06"
    },
    {
        "col0": "Ivan I of Moscow",
        "col1": "Cathedral of the Archangel",
        "col2": "Grand Duchy of Moscow",
        "col3": "Grand Duchy of Moscow",
        "col4": "D. o. Moscow",
        "col5": "1340-03-31"
    },
    {
        "col0": "Ivan II of Moscow",
        "col1": "Cathedral of the Archangel Michael",
        "col2": "Grand Duchy of Moscow",
        "col3": "Grand Duchy of Moscow",
        "col4": "Ivan I of Moscow",
        "col5": "1359-11-13"
    },
    {
        "col0": "Ivan III of Russia",
        "col1": "Moscow",
        "col2": "Grand Duchy of Moscow",
        "col3": "Moscow",
        "col4": "Vasily II of Russia",
        "col5": "1505-10-27"
    },
    {
        "col0": "I. o. Johor",
        "col1": "Johor",
        "col2": "Unfederated Malay States",
        "col3": "Malaysia",
        "col4": "I. o. Johor",
        "col5": "1981-05-10"
    },
    {
        "col0": "Ismail Nasiruddin of Terengganu",
        "col1": "Terengganu",
        "col2": "Terengganu",
        "col3": "Malaysia",
        "col4": "Sultan Zainal Abidin III",
        "col5": "1970-9-20"
    },
    {
        "col0": "I. o. Perak",
        "col1": "British Malaya",
        "col2": "Federated Malay States",
        "col3": "British Malaya",
        "col4": "Idris Shah I of Perak",
        "col5": "1938-08-14"
    },
    {
        "col0": "I. o. France",
        "col1": "Clare of Assisi",
        "col2": "Paris",
        "col3": "Kingdom of France",
        "col4": "Louis VIII of France",
        "col5": "1270-02-23"
    },
    {
        "col0": "I. o. Portugal",
        "col1": "El Escorial",
        "col2": "Lisbon",
        "col3": "Toledo, Spain",
        "col4": "Manuel I of Portugal",
        "col5": "1539-05-01"
    },
    {
        "col0": "I. o. Mar",
        "col1": "Paisley Abbey",
        "col2": "Kildrummy Castle",
        "col3": "Scotland",
        "col4": "Domhnall I, Earl of Mar",
        "col5": "1296-1-1"
    },
    {
        "col0": "I. o. France",
        "col1": "Christ Church Greyfriars",
        "col2": "Paris",
        "col3": "Norfolk",
        "col4": "Philip IV of France",
        "col5": "1358-08-22"
    },
    {
        "col0": "I. o. England",
        "col1": "Andria Cathedral",
        "col2": "Gloucester",
        "col3": "Apulia",
        "col4": "I. o. Angouleme",
        "col5": "1241-12-01"
    },
    {
        "col0": "Isabella of Castile, Duchess of York",
        "col1": "Hertfordshire",
        "col2": "Kingdom of Castile",
        "col3": "Kings Langley",
        "col4": "P. o. Castile",
        "col5": "1392-12-23"
    },
    {
        "col0": "Isabella of Aragon, Queen of France",
        "col1": "Basilica of St Denis",
        "col2": "Cosenza",
        "col3": "Cosenza",
        "col4": "James I of Aragon",
        "col5": "1271-1-28"
    },
    {
        "col0": "Isabella d'Este, Duchess of Parma",
        "col1": "Parma",
        "col2": "Modena",
        "col3": "Parma",
        "col4": "Francesco I d'Este, Duke of Modena",
        "col5": "1666-08-21"
    },
    {
        "col0": "I. Jagiellon",
        "col1": "St. Michael's Cathedral, Alba Iulia",
        "col2": "Krakow",
        "col3": "Transylvania",
        "col4": "Sigismund I the Old",
        "col5": "1559-09-15"
    },
    {
        "col0": "Isabella II of Jerusalem",
        "col1": "Andria Cathedral",
        "col2": "Acre, Israel",
        "col3": "Italy",
        "col4": "J. o. Brienne",
        "col5": "1228-4-25"
    },
    {
        "col0": "Isabella, Princess of Asturias",
        "col1": "Royal Palace of La Granja de San Ildefonso",
        "col2": "Madrid",
        "col3": "French Third Republic",
        "col4": "Francis of Assisi de Bourbon",
        "col5": "1931-04-22"
    },
    {
        "col0": "I. Marshal",
        "col1": "Gloucestershire",
        "col2": "Wales",
        "col3": "Hertfordshire",
        "col4": "William Marshal, 1st Earl of Pembroke",
        "col5": "1240-01-17"
    },
    {
        "col0": "Isabel Luisa, Princess of Beira",
        "col1": "Royal Pantheon of the Braganza Dynasty",
        "col2": "Lisbon",
        "col3": "Kingdom of Portugal",
        "col4": "Maria Francisca of Savoy",
        "col5": "1690-10-2"
    },
    {
        "col0": "Isabel II of Spain",
        "col1": "Mid-nineteenth century Spain",
        "col2": "Mid-nineteenth century Spain",
        "col3": "French Third Republic",
        "col4": "Ferdinand VII of Spain",
        "col5": "1904-04-10"
    },
    {
        "col0": "Isabel, Princess Imperial of Brazil",
        "col1": "Petropolis",
        "col2": "Paco de Sao Cristovao",
        "col3": "French Third Republic",
        "col4": "Pedro II of Brazil",
        "col5": "1921-11-14"
    },
    {
        "col0": "I. Yusupova",
        "col1": "Sainte-Genevieve-des-Bois Russian Cemetery",
        "col2": "Russian Empire",
        "col3": "France",
        "col4": "F. Yusupov",
        "col5": "1983-08-30"
    },
    {
        "col0": "I. D. Laskarina",
        "col1": "Tarnovo",
        "col2": "Empire of Nicaea",
        "col3": "Veliko Tarnovo",
        "col4": "T. I. Laskaris",
        "col5": "1268-0-0"
    },
    {
        "col0": "I. o. Sweden",
        "col1": "Roskilde Cathedral",
        "col2": "Sweden",
        "col3": "Fredensborg",
        "col4": "Princess Margaret of Connaught",
        "col5": "2000-11-07"
    },
    {
        "col0": "Ingeborg Magnusdotter of Sweden",
        "col1": "St. Bendt's Church",
        "col2": "Sweden",
        "col3": "Roskilde",
        "col4": "Magnus III of Sweden",
        "col5": "1319-08-15"
    },
    {
        "col0": "Infante Philip, Duke of Calabria",
        "col1": "Naples",
        "col2": "Portici",
        "col3": "Portici",
        "col4": "Charles III of Spain",
        "col5": "1777-09-19"
    },
    {
        "col0": "Infante Jaime, Duke of Segovia",
        "col1": "San Lorenzo de El Escorial",
        "col2": "Province of Segovia",
        "col3": "Canton of St. Gallen",
        "col4": "Victoria Eugenie of Battenberg",
        "col5": "1975-03-20"
    },
    {
        "col0": "Infante Gonzalo of Spain",
        "col1": "El Escorial",
        "col2": "Madrid",
        "col3": "First Republic of Austria",
        "col4": "Victoria Eugenie of Battenberg",
        "col5": "1934-08-13"
    },
    {
        "col0": "Infante Gabriel of Spain",
        "col1": "El Escorial",
        "col2": "Kingdom of Naples",
        "col3": "Spain",
        "col4": "Charles III of Spain",
        "col5": "1788-11-23"
    },
    {
        "col0": "Infante Francisco Javier of Spain",
        "col1": "Spain",
        "col2": "Kingdom of Naples",
        "col3": "Spain",
        "col4": "Charles III of Spain",
        "col5": "1771-04-10"
    },
    {
        "col0": "Infante Fernando of Bourbon and Braganza",
        "col1": "Trieste",
        "col2": "Spain",
        "col3": "Eichfeld",
        "col4": "Infante Carlos, Count of Molina",
        "col5": "1861-01-02"
    },
    {
        "col0": "Infante Carlos, Duke of Calabria",
        "col1": "El Escorial",
        "col2": "Lausanne",
        "col3": "Retuerta del Bullaque",
        "col4": "Infante Alfonso, Duke of Calabria",
        "col5": "2015-10-05"
    },
    {
        "col0": "Infante Carlos, Count of Montemolin",
        "col1": "Trieste Cathedral",
        "col2": "Madrid",
        "col3": "Austrian Empire",
        "col4": "Infante Carlos, Count of Molina",
        "col5": "1861-01-13"
    },
    {
        "col0": "Infante Carlos, Count of Molina",
        "col1": "Trieste Cathedral",
        "col2": "Aranjuez",
        "col3": "Austrian Empire",
        "col4": "Maria Luisa of Parma",
        "col5": "1855-03-10"
    },
    {
        "col0": "Infante Antonio Pascual of Spain",
        "col1": "Spain",
        "col2": "Caserta",
        "col3": "Spain",
        "col4": "Charles III of Spain",
        "col5": "1817-04-20"
    },
    {
        "col0": "Infante Antonio, Duke of Galliera",
        "col1": "El Escorial",
        "col2": "Seville",
        "col3": "France",
        "col4": "Antoine d'Orleans, Duke of Montpensier",
        "col5": "1930-12-24"
    },
    {
        "col0": "Infante Alfonso Carlos, Duke of San Jaime",
        "col1": "Attnang-Puchheim",
        "col2": "London",
        "col3": "Vienna",
        "col4": "Juan, Count of Montizon",
        "col5": "1936-09-29"
    },
    {
        "col0": "Infanta Maria Amalia of Spain",
        "col1": "El Escorial",
        "col2": "Madrid",
        "col3": "Madrid",
        "col4": "Charles IV of Spain",
        "col5": "1798-07-22"
    },
    {
        "col0": "Infanta Marie Anne of Portugal",
        "col1": "Luxembourg",
        "col2": "Bronnbach",
        "col3": "New York",
        "col4": "Princess Adelaide of Lowenstein-Wertheim-Rosenberg",
        "col5": "1942-07-31"
    },
    {
        "col0": "Infanta Maria das Neves of Portugal",
        "col1": "Attnang-Puchheim",
        "col2": "Kleinheubach",
        "col3": "Nazi Germany",
        "col4": "Miguel I of Portugal",
        "col5": "1941-02-14"
    },
    {
        "col0": "Infanta Maria Teresa of Spain",
        "col1": "El Escorial",
        "col2": "Madrid",
        "col3": "Madrid",
        "col4": "Alfonso XII of Spain",
        "col5": "1912-09-23"
    },
    {
        "col0": "Infanta Maria Teresa Rafaela of Spain",
        "col1": "Basilica of St Denis",
        "col2": "Royal Alcazar of Madrid",
        "col3": "Fontainebleau",
        "col4": "Philip V of Spain",
        "col5": "1746-07-22"
    },
    {
        "col0": "Infanta Maria Josefa of Spain",
        "col1": "Spain",
        "col2": "Gaeta",
        "col3": "Spain",
        "col4": "Charles III of Spain",
        "col5": "1801-12-08"
    },
    {
        "col0": "Infanta Maria Doroteia of Portugal",
        "col1": "Royal Pantheon of the Braganza Dynasty",
        "col2": "Kingdom of Portugal",
        "col3": "Kingdom of Portugal",
        "col4": "Joseph I of Portugal",
        "col5": "1771-01-14"
    },
    {
        "col0": "Infanta Maria Cristina of Spain",
        "col1": "San Lorenzo de El Escorial",
        "col2": "Madrid",
        "col3": "Madrid",
        "col4": "Infante Francisco de Paula of Spain",
        "col5": "1902-01-19"
    },
    {
        "col0": "Infanta Maria Cristina of Spain",
        "col1": "Italy",
        "col2": "Madrid",
        "col3": "Madrid",
        "col4": "Victoria Eugenie of Battenberg",
        "col5": "1996-12-23"
    },
    {
        "col0": "Infanta Maria Ana Francisca of Portugal",
        "col1": "Royal Pantheon of the Braganza Dynasty",
        "col2": "Kingdom of Portugal",
        "col3": "Colonial Brazil",
        "col4": "Mariana Victoria of Spain",
        "col5": "1813-05-16"
    },
    {
        "col0": "Infanta Maria Amalia of Spain",
        "col1": "El Escorial",
        "col2": "Madrid",
        "col3": "Madrid",
        "col4": "Charles IV of Spain",
        "col5": "1798-07-22"
    },
    {
        "col0": "Infanta Luisa Fernanda, Duchess of Montpensier",
        "col1": "Spain",
        "col2": "Madrid",
        "col3": "Spain",
        "col4": "Ferdinand VII of Spain",
        "col5": "1897-02-02"
    },
    {
        "col0": "Infanta Francisca Josefa of Portugal",
        "col1": "Royal Pantheon of the Braganza Dynasty",
        "col2": "Kingdom of Portugal",
        "col3": "Kingdom of Portugal",
        "col4": "Maria Sophia of Neuburg",
        "col5": "1736-07-15"
    },
    {
        "col0": "Infanta Eulalia of Spain",
        "col1": "El Escorial",
        "col2": "Madrid",
        "col3": "Irun",
        "col4": "Francis of Assisi de Bourbon",
        "col5": "1958-03-08"
    },
    {
        "col0": "Infanta Branca, Lady of Guadalajara",
        "col1": "Coimbra",
        "col2": "Kingdom of Portugal",
        "col3": "Crown of Castile",
        "col4": "D. o. Aragon",
        "col5": "1240-11-17"
    },
    {
        "col0": "Infanta Benedita of Portugal",
        "col1": "Royal Pantheon of the Braganza Dynasty",
        "col2": "Lisbon",
        "col3": "Lisbon",
        "col4": "Infanta Mariana Victoria of Spain",
        "col5": "1829-08-18"
    },
    {
        "col0": "I. H. Selassie",
        "col1": "Holy Trinity Cathedral",
        "col2": "Shire, Ethiopia",
        "col3": "Addis Ababa",
        "col4": "Ethiopian aristocratic and court titles",
        "col5": "1980-08-15"
    },
    {
        "col0": "I. Zrinyi",
        "col1": "KoA!ice",
        "col2": "Ozalj",
        "col3": "Nicomedia",
        "col4": "P. Zrinski",
        "col5": "1703-02-18"
    },
    {
        "col0": "Idris Shah II of Perak",
        "col1": "Malaysia",
        "col2": "British Malaya",
        "col3": "Lumut, Perak",
        "col4": "I. o. Perak",
        "col5": "1984-01-31"
    },
    {
        "col0": "I. Saud",
        "col1": "Riyadh",
        "col2": "Riyadh",
        "col3": "Saudi Arabia",
        "col4": "Abdul Rahman bin Faisal",
        "col5": "1953-11-09"
    },
    {
        "col0": "H. o. Jordan",
        "col1": "Raghadan Palace",
        "col2": "Amman",
        "col3": "Amman",
        "col4": "T. o. Jordan",
        "col5": "1999-02-07"
    },
    {
        "col0": "Humayun",
        "col1": "Delhi",
        "col2": "Kabul",
        "col3": "Delhi",
        "col4": "Babur",
        "col5": "1556-01-27"
    },
    {
        "col0": "Huisheng",
        "col1": "Shimonoseki",
        "col2": "Manchukuo",
        "col3": "Mount Amagi",
        "col4": "H. Saga",
        "col5": "1957-12-04"
    },
    {
        "col0": "H. R. O'Donnell",
        "col1": "Franciscan",
        "col2": "Lifford",
        "col3": "Valladolid",
        "col4": "Aodh mac Maghnusa O Domhnaill",
        "col5": "1602-09-10"
    },
    {
        "col0": "Hsinbyushin",
        "col1": "Inwa",
        "col2": "Shwebo",
        "col3": "Inwa",
        "col4": "Alaungpaya",
        "col5": "1776-06-10"
    },
    {
        "col0": "H. d. Beauharnais",
        "col1": "July Monarchy",
        "col2": "Kingdom of France",
        "col3": "Arenenberg",
        "col4": "J. d. Beauharnais",
        "col5": "1837-10-05"
    },
    {
        "col0": "Honore V, Prince of Monaco",
        "col1": "Saint Nicholas Cathedral, Monaco",
        "col2": "Kingdom of France",
        "col3": "July Monarchy",
        "col4": "Honore IV, Prince of Monaco",
        "col5": "1841-10-02"
    },
    {
        "col0": "Honore IV, Prince of Monaco",
        "col1": "Saint Nicholas Cathedral, Monaco",
        "col2": "Paris",
        "col3": "Paris",
        "col4": "Honore III, Prince of Monaco",
        "col5": "1819-02-16"
    },
    {
        "col0": "Honore II, Prince of Monaco",
        "col1": "Saint Nicholas Cathedral, Monaco",
        "col2": "Monaco",
        "col3": "Monaco",
        "col4": "Hercule, Lord of Monaco",
        "col5": "1662-01-10"
    },
    {
        "col0": "Honore V, Prince of Monaco",
        "col1": "Saint Nicholas Cathedral, Monaco",
        "col2": "Kingdom of France",
        "col3": "July Monarchy",
        "col4": "L. d'Aumont",
        "col5": "1841-10-02"
    },
    {
        "col0": "Honore IV, Prince of Monaco",
        "col1": "Saint Nicholas Cathedral, Monaco",
        "col2": "Paris",
        "col3": "Paris",
        "col4": "Honore III, Prince of Monaco",
        "col5": "1819-02-16"
    },
    {
        "col0": "Honore II, Prince of Monaco",
        "col1": "Saint Nicholas Cathedral, Monaco",
        "col2": "Monaco",
        "col3": "Monaco",
        "col4": "Hercule, Lord of Monaco",
        "col5": "1662-01-10"
    },
    {
        "col0": "H. Emperor",
        "col1": "Beijing",
        "col2": "Beijing",
        "col3": "Beijing",
        "col4": "Y. Emperor",
        "col5": "1425-05-29"
    },
    {
        "col0": "H. o. Portugal",
        "col1": "Coimbra",
        "col2": "Viseu",
        "col3": "County of Portugal",
        "col4": "Henry, Count of Portugal",
        "col5": "1185-12-06"
    },
    {
        "col0": "H. Mirza",
        "col1": "Gardens of Babur",
        "col2": "Afghanistan",
        "col3": "Afghanistan",
        "col4": "Babur",
        "col5": "1551-11-20"
    },
    {
        "col0": "Hermine Reuss of Greiz",
        "col1": "Antique Temple",
        "col2": "Principality of Reuss-Greiz",
        "col3": "Frankfurt",
        "col4": "Heinrich XXII, Prince Reuss of Greiz",
        "col5": "1947-08-07"
    },
    {
        "col0": "H. t. Lion",
        "col1": "Brunswick Cathedral",
        "col2": "Ravensburg",
        "col3": "Braunschweig",
        "col4": "Henry II, Duke of Saxony",
        "col5": "1195-08-06"
    },
    {
        "col0": "H. t. Fowler",
        "col1": "Quedlinburg Abbey",
        "col2": "Germany",
        "col3": "Memleben",
        "col4": "Hedwiga",
        "col5": "0936-07-02"
    },
    {
        "col0": "H. t. Bearded",
        "col1": "Sanctuary of St. Jadwiga in Trzebnica",
        "col2": "Duchy of Silesia",
        "col3": "Krosno Odrzanskie",
        "col4": "Boleslaw I the Tall",
        "col5": "1238-03-19"
    },
    {
        "col0": "H. o. Almain",
        "col1": "Hailes Abbey",
        "col2": "Haughley Castle",
        "col3": "Italy",
        "col4": "I. Marshal",
        "col5": "1271-03-13"
    },
    {
        "col0": "H. W. Muloki",
        "col1": "Uganda",
        "col2": "Kamuli District",
        "col3": "Kampala",
        "col4": "E. T. Wako",
        "col5": "2008-09-01"
    },
    {
        "col0": "Henry V of England",
        "col1": "Kingdom of England",
        "col2": "Monmouth Castle",
        "col3": "France in the Middle Ages",
        "col4": "Henry IV of England",
        "col5": "1422-08-31"
    },
    {
        "col0": "Henry VI of England",
        "col1": "Windsor Castle",
        "col2": "Windsor Castle",
        "col3": "London",
        "col4": "Henry V of England",
        "col5": "1471-5-21"
    },
    {
        "col0": "Henry VII of England",
        "col1": "Westminster Abbey",
        "col2": "Pembroke Castle",
        "col3": "Richmond Palace",
        "col4": "Edmund Tudor, 1st Earl of Richmond",
        "col5": "1509-04-21"
    },
    {
        "col0": "Henry VII, Holy Roman Emperor",
        "col1": "Duomo di Pisa",
        "col2": "Valenciennes",
        "col3": "Kingdom of Italy",
        "col4": "B. d'Avesnes",
        "col5": "1313-08-24"
    },
    {
        "col0": "Henry VI, Holy Roman Emperor",
        "col1": "Palermo",
        "col2": "Nijmegen",
        "col3": "Messina",
        "col4": "Frederick I, Holy Roman Emperor",
        "col5": "1197-09-28"
    },
    {
        "col0": "Henry V, Holy Roman Emperor",
        "col1": "Speyer Cathedral",
        "col2": "Duchy of Saxony",
        "col3": "Utrecht",
        "col4": "Henry IV, Holy Roman Emperor",
        "col5": "1125-05-23"
    },
    {
        "col0": "Henry Stuart, Duke of Gloucester",
        "col1": "London",
        "col2": "Surrey",
        "col3": "London",
        "col4": "Charles I of England",
        "col5": "1660-09-13"
    },
    {
        "col0": "Henry I of France",
        "col1": "Paris",
        "col2": "Reims",
        "col3": "Vitry-aux-Loges",
        "col4": "C. o. Arles",
        "col5": "1060-08-04"
    },
    {
        "col0": "Henry I of England",
        "col1": "Reading Abbey",
        "col2": "Yorkshire",
        "col3": "Duchy of Normandy",
        "col4": "M. o. Flanders",
        "col5": "1135-12-01"
    },
    {
        "col0": "Henry IV of England",
        "col1": "Kent",
        "col2": "Kingdom of England",
        "col3": "Westminster Palace",
        "col4": "B. o. Lancaster",
        "col5": "1413-03-20"
    },
    {
        "col0": "Henry IV, Holy Roman Emperor",
        "col1": "Speyer Cathedral",
        "col2": "Duchy of Saxony",
        "col3": "Liege",
        "col4": "Henry III, Holy Roman Emperor",
        "col5": "1106-08-07"
    },
    {
        "col0": "Henry II the Pious",
        "col1": "Wroclaw",
        "col2": "Krakow",
        "col3": "Legnickie Pole",
        "col4": "Henry I the Bearded",
        "col5": "1241-04-09"
    },
    {
        "col0": "Henry II of England",
        "col1": "Fontevraud Abbey",
        "col2": "Le Mans",
        "col3": "Chateau de Chinon",
        "col4": "Geoffrey Plantagenet, Count of Anjou",
        "col5": "1189-07-06"
    },
    {
        "col0": "Henry III of France",
        "col1": "Saint Denis Basilica",
        "col2": "Chateau de Fontainebleau",
        "col3": "Kingdom of France",
        "col4": "C. d. Medici",
        "col5": "1589-08-02"
    },
    {
        "col0": "Henry III of England",
        "col1": "Westminster Abbey",
        "col2": "Winchester",
        "col3": "Westminster",
        "col4": "John, King of England",
        "col5": "1272-11-16"
    },
    {
        "col0": "Henry I, Margrave of the Saxon Ostmark",
        "col1": "Meissen",
        "col2": "Grimma",
        "col3": "Emden",
        "col4": "Dedo II of Wettin",
        "col5": "1103-1-1"
    },
    {
        "col0": "Henry",
        "col1": "Calabria",
        "col2": "Palermo",
        "col3": "Calabria",
        "col4": "C. o. Aragon",
        "col5": "1242-02-12"
    },
    {
        "col0": "Henry, Duke of Saxe-Romhild",
        "col1": "Romhild",
        "col2": "Gotha",
        "col3": "Romhild",
        "col4": "Ernst I, Duke of Saxe-Coburg-Altenburg",
        "col5": "1710-05-13"
    },
    {
        "col0": "Henry, Count of Portugal",
        "col1": "County of Portugal",
        "col2": "Dijon",
        "col3": "Astorga, Spain",
        "col4": "Henry, son of Robert I of Burgundy",
        "col5": "1112-05-12"
    },
    {
        "col0": "H. o. England",
        "col1": "France",
        "col2": "Exeter",
        "col3": "Saint-Cloud",
        "col4": "Charles I of England",
        "col5": "1670-06-30"
    },
    {
        "col0": "Henrietta Maria of France",
        "col1": "Basilica of St Denis",
        "col2": "Louvre",
        "col3": "Colombes",
        "col4": "Henry IV of France",
        "col5": "1669-09-10"
    },
    {
        "col0": "Henri d'Orleans, Duke of Aumale",
        "col1": "Dreux",
        "col2": "Palais Royal",
        "col3": "Sicily",
        "col4": "Maria Amalia of Naples and Sicily",
        "col5": "1897-05-07"
    },
    {
        "col0": "Henri, Count of Chambord",
        "col1": "Kostanjevica Monastery",
        "col2": "Paris",
        "col3": "Schloss Frohsdorf",
        "col4": "Charles Ferdinand, Duke of Berry",
        "col5": "1883-08-24"
    },
    {
        "col0": "H. o. Moscow",
        "col1": "Cathedral of the Theotokos, Vilnius",
        "col2": "Moscow",
        "col3": "Braslaw",
        "col4": "Ivan III of Russia",
        "col5": "1513-01-20"
    },
    {
        "col0": "H. Palaiologina",
        "col1": "Nicosia",
        "col2": "Mistras",
        "col3": "Cyprus",
        "col4": "T. I. Palaiologos",
        "col5": "1458-04-11"
    },
    {
        "col0": "H. o. Denmark",
        "col1": "Freiberg, Saxony",
        "col2": "Hillerod",
        "col3": "Prettin",
        "col4": "S. o. Mecklenburg-Gustrow",
        "col5": "1641-11-26"
    },
    {
        "col0": "Hedvig Sophia of Sweden",
        "col1": "Sweden",
        "col2": "Stockholm",
        "col3": "Stockholm",
        "col4": "Charles XI of Sweden",
        "col5": "1708-12-22"
    },
    {
        "col0": "H. Sultan",
        "col1": "Constantinople",
        "col2": "Ottoman Empire",
        "col3": "Ottoman Empire",
        "col4": "S. I",
        "col5": "1538-1-1"
    },
    {
        "col0": "H. Sultan",
        "col1": "Yavuz Selim Mosque",
        "col2": "Ottoman Empire",
        "col3": "Beirut",
        "col4": "S. Kadinefendi",
        "col5": "1938-03-13"
    },
    {
        "col0": "Hassan I of Morocco",
        "col1": "Morocco",
        "col2": "Morocco",
        "col3": "Marrakech",
        "col4": "Mohammed IV of Morocco",
        "col5": "1894-06-07"
    },
    {
        "col0": "Hassan II of Morocco",
        "col1": "Morocco",
        "col2": "Rabat",
        "col3": "Morocco",
        "col4": "Mohammed V of Morocco",
        "col5": "1999-07-23"
    },
    {
        "col0": "Hashim Jalilul Alam Aqamaddin",
        "col1": "Kubah Makam Di Raja",
        "col2": "Bandar Seri Begawan",
        "col3": "Bandar Seri Begawan",
        "col4": "Omar Ali Saifuddin II",
        "col5": "1906-1-1"
    },
    {
        "col0": "H. al-Rashid",
        "col1": "Imam Reza Mosque",
        "col2": "Rey, Iran",
        "col3": "Greater Khorasan",
        "col4": "Al-Mahdi",
        "col5": "0809-03-24"
    },
    {
        "col0": "Harthacnut",
        "col1": "Winchester Cathedral",
        "col2": "England",
        "col3": "London Borough of Lambeth",
        "col4": "C. t. Great",
        "col5": "1042-6-8"
    }
]