[
    {
        "col0": "Castle of Santa Maria da Feira",
        "col1": "Aveiro",
        "col2": "Aveiro",
        "col3": "Aveiro",
        "col4": "Aveiro",
        "col5": "174"
    },
    {
        "col0": "Castle of Pombal",
        "col1": "Leiria",
        "col2": "Leiria",
        "col3": "Leiria",
        "col4": "Leiria",
        "col5": "115"
    },
    {
        "col0": "Castle of Montalvao",
        "col1": "Portalegre",
        "col2": "Portalegre",
        "col3": "Portalegre",
        "col4": "Portalegre",
        "col5": "330"
    },
    {
        "col0": "Castle of Faria",
        "col1": "Braga",
        "col2": "Braga",
        "col3": "Braga",
        "col4": "Braga",
        "col5": "225"
    },
    {
        "col0": "Castle of Evoramonte",
        "col1": "Evora",
        "col2": "Evora",
        "col3": "Evora",
        "col4": "Evora",
        "col5": "469"
    },
    {
        "col0": "Castle of D. Chica",
        "col1": "Braga",
        "col2": "Braga",
        "col3": "Braga",
        "col4": "Braga",
        "col5": "106"
    },
    {
        "col0": "Castle of Castro Marim",
        "col1": "Faro",
        "col2": "Faro",
        "col3": "Faro",
        "col4": "Faro",
        "col5": "41"
    },
    {
        "col0": "Castle of Carrazeda de Ansiaes",
        "col1": "Braganca",
        "col2": "Braganca",
        "col3": "Braganca",
        "col4": "Braganca",
        "col5": "795"
    },
    {
        "col0": "Castle of Belver",
        "col1": "Portalegre",
        "col2": "Portalegre",
        "col3": "Portalegre",
        "col4": "Portalegre",
        "col5": "148"
    },
    {
        "col0": "Castle of Amieira do Tejo",
        "col1": "Portalegre",
        "col2": "Portalegre",
        "col3": "Portalegre",
        "col4": "Portalegre",
        "col5": "214"
    },
    {
        "col0": "Castle of Alvor",
        "col1": "Faro",
        "col2": "Faro",
        "col3": "Faro",
        "col4": "Faro",
        "col5": "19"
    },
    {
        "col0": "Castle of Almourol",
        "col1": "Lisbon",
        "col2": "Lisbon",
        "col3": "Lisbon",
        "col4": "Lisbon",
        "col5": "18"
    },
    {
        "col0": "Castle of Aljezur",
        "col1": "Faro",
        "col2": "Faro",
        "col3": "Faro",
        "col4": "Faro",
        "col5": "49"
    },
    {
        "col0": "Castle of Algoso",
        "col1": "Braganca",
        "col2": "Braganca",
        "col3": "Braganca",
        "col4": "Braganca",
        "col5": "658"
    },
    {
        "col0": "Castle of Alcoutim",
        "col1": "Faro",
        "col2": "Faro",
        "col3": "Faro",
        "col4": "Faro",
        "col5": "66"
    },
    {
        "col0": "Castle of Alcoutim",
        "col1": "Faro",
        "col2": "Faro",
        "col3": "Faro",
        "col4": "Faro",
        "col5": "24"
    },
    {
        "col0": "Blatnica Castle",
        "col1": "Martin District",
        "col2": "Martin District",
        "col3": "Martin District",
        "col4": "Martin District",
        "col5": "600"
    }
]