[
    {
        "col0": "N. J. Currie",
        "col1": "United States",
        "col2": "Wilmington, Delaware",
        "col3": "Nancy Jane Decker",
        "col4": "1958-12-29"
    },
    {
        "col0": "M. P. Anderson",
        "col1": "United States",
        "col2": "United States",
        "col3": "Michael Phillip Anderson",
        "col4": "1959-12-25"
    },
    {
        "col0": "M. J. Massimino",
        "col1": "United States",
        "col2": "New York City",
        "col3": "Michael James Massimino",
        "col4": "1962-08-19"
    },
    {
        "col0": "M. J. Adams",
        "col1": "United States",
        "col2": "California",
        "col3": "Michael James Adams",
        "col4": "1930-05-05"
    },
    {
        "col0": "M. Fincke",
        "col1": "United States",
        "col2": "Pittsburgh",
        "col3": "Edward Michael Fincke",
        "col4": "1967-03-14"
    },
    {
        "col0": "J. M. Acaba",
        "col1": "United States",
        "col2": "Inglewood, California",
        "col3": "Joseph Michael Acaba",
        "col4": "1967-05-17"
    },
    {
        "col0": "J. A. Walker",
        "col1": "United States",
        "col2": "Washington, Pennsylvania",
        "col3": "Joseph Albert Walker",
        "col4": "1921-02-20"
    },
    {
        "col0": "J. Young",
        "col1": "United States",
        "col2": "California",
        "col3": "John Watts Young",
        "col4": "1930-09-24"
    },
    {
        "col0": "Joe F. Edwards Jr.",
        "col1": "United States",
        "col2": "Richmond, Virginia",
        "col3": "Joe Frank Edwards Jr.",
        "col4": "1958-02-03"
    },
    {
        "col0": "J. Ashby",
        "col1": "United States",
        "col2": "Dallas",
        "col3": "Jeffrey Shears Ashby",
        "col4": "1954-06-16"
    },
    {
        "col0": "J. C. Buckey",
        "col1": "United States",
        "col2": "New York",
        "col3": "Jay Clark Buckey, Jr.",
        "col4": "1956-06-06"
    }
]