[
    {
        "col0": "Operation Zipper",
        "col1": "British Malaya",
        "col2": "Second World War",
        "col3": "* Establishment ofBritish Military Administration",
        "col4": "1 battleship"
    },
    {
        "col0": "Operation Zarb-e-Azb",
        "col1": "North Waziristan",
        "col2": "War in North-West Pakistan",
        "col3": "(as of October 2016)",
        "col4": "*20,000-30,000"
    },
    {
        "col0": "Operation Zalzala",
        "col1": "Pakistan",
        "col2": "War in North-West Pakistan",
        "col3": "*Failure to killQari Hussain",
        "col4": "10-15,000 (possible)"
    },
    {
        "col0": "Operation Yevusi",
        "col1": "Jerusalem",
        "col2": "1947-1948 Civil War in Mandatory Palestine",
        "col3": "Incomplete due to ceasefire imposed by British army.",
        "col4": "Two brigades"
    },
    {
        "col0": "Operation Wunderland",
        "col1": "Northern Sea Route",
        "col2": "Arctic warfare",
        "col3": "German victory",
        "col4": "1 x heavy cruiser"
    },
    {
        "col0": "Operation Winter Storm",
        "col1": "Volgograd",
        "col2": "Battle of Stalingrad",
        "col3": "* Axis failure to rescue6th Armyin Stalingrad pocket",
        "col4": "(On 23 December)"
    },
    {
        "col0": "Operation Winter '94",
        "col1": "Bosnia and Herzegovina",
        "col2": "Bosnian War",
        "col3": "Croatian victory",
        "col4": "2,000-3,000 soldiers (HVO)"
    },
    {
        "col0": "Operation Windsor",
        "col1": "Normandy",
        "col2": "Battle for Caen",
        "col3": "Allied victory",
        "col4": "1 Flak Battery"
    },
    {
        "col0": "Operation White",
        "col1": "Mediterranean Sea",
        "col2": "Battle of the Mediterranean",
        "col3": "Italian victory",
        "col4": "1 battlecruiser"
    },
    {
        "col0": "Operation Whirlwind",
        "col1": "Croatia",
        "col2": "Croatian War of Independence",
        "col3": "Croatiantactical defeat",
        "col4": "unknown"
    },
    {
        "col0": "Operation Whalers",
        "col1": "Afghanistan",
        "col2": "War in Afghanistan",
        "col3": "American Victory",
        "col4": "40 to 60, distributed in groups throughout the battlespace"
    },
    {
        "col0": "Operation Weserubung",
        "col1": "Denmark",
        "col2": "Norwegian Campaign",
        "col3": "* Occupation of Denmark and Norway",
        "col4": "* 1 artillery battalion"
    },
    {
        "col0": "Operation Wellhit",
        "col1": "Boulogne-sur-Mer",
        "col2": "World War II",
        "col3": "Allied victory",
        "col4": "10,000"
    },
    {
        "col0": "Operation Vrbas '92",
        "col1": "Bosnia and Herzegovina",
        "col2": "Bosnian War",
        "col3": "* Exodus of non-Serb civilians from Jajce",
        "col4": "3,400-5,500 troops"
    },
    {
        "col0": "Operation Virginia Ridge",
        "col1": "Quang Tri Province",
        "col2": "Vietnam War",
        "col3": "U.S. victory",
        "col4": "27th Regiment"
    },
    {
        "col0": "Operation Viking Hammer",
        "col1": "Ba'athist Iraq",
        "col2": "2003 invasion of Iraq",
        "col3": "Coalition victory",
        "col4": "600-800 fighters"
    },
    {
        "col0": "Operation Vigorous",
        "col1": "Malta",
        "col2": "Battle of the Mediterranean",
        "col3": "Axis victory",
        "col4": "1 auxiliary ship"
    },
    {
        "col0": "Operation Vigilant Sentinel",
        "col1": "Persian Gulf",
        "col2": "Iraq Disarmament Crisis",
        "col3": "Withdrawal of Iraqi forces from Kuwaiti border",
        "col4": "20,000+"
    },
    {
        "col0": "Operation Veritable",
        "col1": "Klever Reichswald",
        "col2": "World War II",
        "col3": "Allied victory",
        "col4": "200,000"
    },
    {
        "col0": "Operation Verano",
        "col1": "Cuba",
        "col2": "Cuban Revolution",
        "col3": "Rebel victory; rebels respond with counter-offensive",
        "col4": "14 battalions (12,000 men)"
    },
    {
        "col0": "Operation Vengeance",
        "col1": "Asiatic-Pacific Theater",
        "col2": "Pacific War",
        "col3": "Admiral Yamamoto killed",
        "col4": "16 P-38Gfighter aircraft"
    },
    {
        "col0": "Operation Varsity",
        "col1": "Germany",
        "col2": "Operation Plunder",
        "col3": "Allied victory",
        "col4": "16,870ref|6th Airborne landed 7,220 men, 17th Airborne landed 9,650 men.|group=\"Note\""
    },
    {
        "col0": "Operation Vantage",
        "col1": "Kuwait",
        "col2": "Kuwait",
        "col3": "IraqrecognisedKuwaitin 1963",
        "col4": "*Kuwait 25th Commando Brigade"
    },
    {
        "col0": "Operation Vaksince",
        "col1": "Kumanovo Municipality",
        "col2": "Insurgency in the Republic of Macedonia",
        "col3": "* Macedonian forces continue counterinsurgency campaign:",
        "col4": "military: n/a"
    },
    {
        "col0": "Operation Uzice",
        "col1": "Serbia",
        "col2": "World War II in Yugoslavia",
        "col3": "PartisanandChetnikretreat and heavy losses; breakup and conflict between the two movements",
        "col4": "100th Panzer Brigade(one battalion)"
    },
    {
        "col0": "Operation Utah",
        "col1": "South Vietnam",
        "col2": "Vietnam War",
        "col3": "U.S./ARVN victory",
        "col4": "*1st Airborne Battalion"
    },
    {
        "col0": "Operation Uranus",
        "col1": "Volgograd",
        "col2": "Battle of Stalingrad",
        "col3": "Decisive Soviet victory",
        "col4": "1,143,500 personnel (including reserve)"
    },
    {
        "col0": "Operation Unified Protector",
        "col1": "Libya",
        "col2": "2011 military intervention in Libya",
        "col3": "* No-fly zone established over Libya",
        "col4": "See deployed forces"
    },
    {
        "col0": "Operation Undergo",
        "col1": "Calais",
        "col2": "Western Front",
        "col3": "Allied victory",
        "col4": "7,500 in Calais"
    },
    {
        "col0": "Operation Una",
        "col1": "Bosnia and Herzegovina",
        "col2": "Bosnian War",
        "col3": "*Croatian armyoperation aborted",
        "col4": "6,400 troops"
    },
    {
        "col0": "Operation UNICORD",
        "col1": "Biafra",
        "col2": "Nigerian Civil War",
        "col3": "Nigerian victory",
        "col4": "unknown"
    },
    {
        "col0": "Operation U-Go",
        "col1": "British Raj",
        "col2": "Burma Campaign",
        "col3": "Decisive British victory",
        "col4": "1 tank brigade"
    },
    {
        "col0": "Operation Tungsten",
        "col1": "Kafjorden",
        "col2": "World War II",
        "col3": "Inconclusive",
        "col4": "1 battleship"
    },
    {
        "col0": "Operation Trio",
        "col1": "Bosnia",
        "col2": "World War II in Yugoslavia",
        "col3": "See theAftermathsection",
        "col4": "around 4,000 men"
    },
    {
        "col0": "Operation Trikora",
        "col1": "Western New Guinea",
        "col2": "Cold War",
        "col3": "Indonesian victory,New York Agreement, Western New Guinea ceded to the United Nations",
        "col4": "10,000 Soldiers"
    },
    {
        "col0": "Operation Trident",
        "col1": "Arabian Sea",
        "col2": "Indo-Pakistani War of 1971",
        "col3": "Partial naval blockade on Pakistan;",
        "col4": "2anti-submarineArnala class corvettes"
    },
    {
        "col0": "Operation Traira",
        "col1": "Taraira River",
        "col2": "War on Drugs",
        "col3": "*Operation in response theBrazilian Armed Forceswith support from the Colombian government.",
        "col4": "*17px1st Infantry Battalion of Jungles"
    },
    {
        "col0": "Operation Tractable",
        "col1": "Falaise, Calvados",
        "col2": "Operation Overlord",
        "col3": "Allied victory",
        "col4": "1 Armoured Brigade"
    },
    {
        "col0": "Operation Totalize",
        "col1": "Normandy",
        "col2": "Operation Overlord",
        "col3": "Allied victory",
        "col4": "1 SS Panzer division,"
    },
    {
        "col0": "Operation Torch",
        "col1": "French Algeria",
        "col2": "North African Campaign",
        "col3": "* Anglo-American occupation of Morocco and Algeria",
        "col4": "**10 other warships"
    },
    {
        "col0": "Operation Tonga",
        "col1": "Caen",
        "col2": "Normandy landings",
        "col3": "Allied tactical victory",
        "col4": "8,500 men"
    },
    {
        "col0": "Operation Together Forward",
        "col1": "Baghdad",
        "col2": "Iraq War",
        "col3": "Insurgent victory(Coalition operations are unsuccessful in securing Baghdad)",
        "col4": "15,000"
    },
    {
        "col0": "Operation Tiger Claw",
        "col1": "Calabar",
        "col2": "Nigerian Civil War",
        "col3": "Nigerian victory",
        "col4": "unknown"
    },
    {
        "col0": "Operation Tiger",
        "col1": "Croatia",
        "col2": "Croatian War of Independence",
        "col3": "Croatian Army(HV) victory",
        "col4": "1,475 soldiers"
    },
    {
        "col0": "Operation Tiderace",
        "col1": "Singapore",
        "col2": "World War II",
        "col3": "*Establishment ofBritish Military Administration",
        "col4": "1 destroyer"
    },
    {
        "col0": "Operation Tidal Wave",
        "col1": "Romania",
        "col2": "Eastern Front",
        "col3": "Axis victory",
        "col4": "177B-24s(162 over the target)"
    },
    {
        "col0": "Operation Thunderbolt",
        "col1": "Han River",
        "col2": "Korean War",
        "col3": "United Nations victory",
        "col4": "94,147"
    },
    {
        "col0": "Operation Texas",
        "col1": "Quang Ngai Province",
        "col2": "Vietnam War",
        "col3": "U.S./ARVN victory",
        "col4": "21st Regiment"
    },
    {
        "col0": "Operation Terminal",
        "col1": "Algeria",
        "col2": "World War II",
        "col3": "Vichy French victory",
        "col4": "2 destroyers"
    },
    {
        "col0": "Operation Ten-Go",
        "col1": "Japan",
        "col2": "Battle of Okinawa",
        "col3": "* Destruction of the Japanese flagship.",
        "col4": "1 battleship"
    },
    {
        "col0": "Operation Teardrop",
        "col1": "Atlantic Ocean",
        "col2": "Battle of the Atlantic",
        "col3": "Allied victory",
        "col4": "11submarines"
    },
    {
        "col0": "Operation Taylor Common",
        "col1": "Quang Nam Province",
        "col2": "Vietnam War",
        "col3": "U.S. and South Vietnamese victory",
        "col4": "1st Battalion 3rd Marines"
    },
    {
        "col0": "Operation Tarnegol",
        "col1": "Cyprus",
        "col2": "Suez Crisis",
        "col3": "Partial Israeli success",
        "col4": "1 Gloster Meteor NF. 13"
    },
    {
        "col0": "Operation Tar Heels",
        "col1": "Laghman Province",
        "col2": "War in Afghanistan",
        "col3": "*American victory",
        "col4": "30 US Marines"
    },
    {
        "col0": "Operation Tanne Ost",
        "col1": "Gulf of Finland",
        "col2": "Lapland War",
        "col3": "Finnish victory",
        "col4": "1,612"
    },
    {
        "col0": "Operation Tan No. 2",
        "col1": "Pacific",
        "col2": "Pacific War",
        "col3": "Inconclusive",
        "col4": "15aircraft carriers"
    },
    {
        "col0": "Operation Tailwind",
        "col1": "Laos",
        "col2": "Vietnam War",
        "col3": "U.S.-South Vietnamese victory",
        "col4": "110Montagnards"
    },
    {
        "col0": "Operation Tail-Wind",
        "col1": "Owerri",
        "col2": "Nigerian Civil War",
        "col3": "Nigerian victory,Capitulationof Biafra",
        "col4": "unknown"
    },
    {
        "col0": "Operation Swift",
        "col1": "South Vietnam",
        "col2": "Vietnam War",
        "col3": "US victory",
        "col4": "1st Battalion 5th Marines"
    },
    {
        "col0": "Operation Swath-10",
        "col1": "Croatia",
        "col2": "Croatian War of Independence",
        "col3": "Croatian victory",
        "col4": "1,750 troops"
    },
    {
        "col0": "Operation Swarmer",
        "col1": "Iraq",
        "col2": "Post-invasion Iraq, 2003-present",
        "col3": "Indecisive",
        "col4": "200 Vehicles"
    },
    {
        "col0": "Operation Summer Rains",
        "col1": "Negev",
        "col2": "Gaza-Israel conflict",
        "col3": "*End of Hamas rocketfire into Israel until May 2007 (though continued attacks by other groups)",
        "col4": "3,000"
    },
    {
        "col0": "Operation Summer '95",
        "col1": "Bosnia and Herzegovina",
        "col2": "Bosnian War",
        "col3": "HVandHVOvictory",
        "col4": "5,500 troops"
    },
    {
        "col0": "Operation Sultan 10",
        "col1": "Iraq",
        "col2": "Iran-Iraq War",
        "col3": "Iranian victory",
        "col4": "2F-14 Tomcatfighters"
    },
    {
        "col0": "Operation Strike of the Sword",
        "col1": "Afghanistan",
        "col2": "War in Afghanistan",
        "col3": "Partial strategic coalition victory, stalemate continues in some areas, particularly the Nawzad district",
        "col4": "4,000 (USMC)"
    },
    {
        "col0": "Operation Storm-333",
        "col1": "Kabul",
        "col2": "Soviet-Afghan War",
        "col3": "*Installment of pro-SovietsocialistBabrak Karmal",
        "col4": "2200"
    },
    {
        "col0": "Operation Storm",
        "col1": "Croatia",
        "col2": "Bosnian War",
        "col3": "*AP Western Bosniaabolished",
        "col4": "AP Western Bosnia: 4,000-5,000 soldiers"
    },
    {
        "col0": "Operation Stone Age",
        "col1": "Malta",
        "col2": "Battle of the Mediterranean",
        "col3": "British victory",
        "col4": "10 destroyers"
    },
    {
        "col0": "Operation Steel",
        "col1": "Iraqi Kurdistan",
        "col2": "Kurdish-Turkish conflict",
        "col3": "*Insurgency is still active",
        "col4": "2,400-2,800"
    },
    {
        "col0": "Operation Starlite",
        "col1": "South Vietnam",
        "col2": "Vietnam War",
        "col3": "Both sides claim victory",
        "col4": "1,500"
    },
    {
        "col0": "Operation Stampede 3",
        "col1": "Baghdad",
        "col2": "Iraq War",
        "col3": "Successful Allied raid",
        "col4": "Not Reported"
    },
    {
        "col0": "Operation Spring Awakening",
        "col1": "Hungary",
        "col2": "Eastern Front",
        "col3": "Soviet victory",
        "col4": "431,000 men (initially)"
    },
    {
        "col0": "Operation Spring",
        "col1": "Caen",
        "col2": "Operation Overlord",
        "col3": "Allied strategic victory",
        "col4": "1 Armoured Brigade"
    },
    {
        "col0": "Operation Southern Watch",
        "col1": "Ba'athist Iraq",
        "col2": "Iraqi no-fly zones",
        "col3": "Ended withInvasion of Iraq",
        "col4": "5,000"
    },
    {
        "col0": "Operation Southern Move",
        "col1": "Bosnia and Herzegovina",
        "col2": "Bosnian War",
        "col3": "*City ofBanja Lukathreatened",
        "col4": "11,000-12,000 troops"
    },
    {
        "col0": "Operation Southeast Croatia",
        "col1": "Bosnia",
        "col2": "World War II in Yugoslavia",
        "col3": "Partisanwithdrawal",
        "col4": "2,000 troops"
    },
    {
        "col0": "Operation Source",
        "col1": "Norway",
        "col2": "World War II",
        "col3": "Allied success",
        "col4": "2 battleships, 1 heavy cruiser"
    },
    {
        "col0": "Operation Sonnenblume",
        "col1": "Libya",
        "col2": "Western Desert Campaign",
        "col3": "Axis victory",
        "col4": "* 1 armoured brigade (understrength)"
    },
    {
        "col0": "Operation Solstice",
        "col1": "Nazi Germany",
        "col2": "Eastern Front of World War II",
        "col3": "German operational failure,Soviet victory",
        "col4": "1st Belorussian Front"
    },
    {
        "col0": "Operation Skorpion",
        "col1": "Egypt",
        "col2": "Western Desert Campaign",
        "col3": "Axis victory",
        "col4": "Infantry battalion and supporting arms"
    },
    {
        "col0": "Operation Sirat-e-Mustaqeem",
        "col1": "Khyber Agency",
        "col2": "War in North-West Pakistan",
        "col3": "*Destruction ofLeIcommand and training centers",
        "col4": "Unknown"
    },
    {
        "col0": "Operation Sinbad",
        "col1": "Iraq",
        "col2": "Iraq War",
        "col3": "Partial stabilisation of Basra, eventual British troop withdrawal",
        "col4": "5,300"
    },
    {
        "col0": "Operation Silver Fox",
        "col1": "Lapland",
        "col2": "Continuation War",
        "col3": "Soviet victory",
        "col4": "*104th Rifle Division"
    },
    {
        "col0": "Operation Silver Buckle",
        "col1": "Tchepone",
        "col2": "Vietnam War",
        "col3": "Royalist attack repulsed; however, at least six North Vietnamese battalions diverted fromOperation Lam Son 719",
        "col4": "Regimental-size"
    },
    {
        "col0": "Operation Shurta Nasir",
        "col1": "Iraq",
        "col2": "Iraq War",
        "col3": "Decisive Coalition Victory",
        "col4": "8 U.S. troops, 18 IraqiSWATs; about 1,000 U.S. troops encircling"
    },
    {
        "col0": "Operation Shoter",
        "col1": "Ayn Ghazal",
        "col2": "1948 Arab-Israeli War",
        "col3": "Israeli victory, depopulation of the Little Triangle",
        "col4": "Reinforced battalion"
    },
    {
        "col0": "Operation Sharp and Smooth",
        "col1": "Lebanon",
        "col2": "2006 Lebanon War",
        "col3": "Unknown if mission objective was achieved",
        "col4": "200 commandos fromShaldagandSayeret Matkalunits"
    },
    {
        "col0": "Operation Shahi Tandar",
        "col1": "Afghanistan",
        "col2": "War in Afghanistan",
        "col3": "Coalition victory",
        "col4": "700-1000"
    },
    {
        "col0": "Operation Serval",
        "col1": "Mali",
        "col2": "War on Terror",
        "col3": "*All major cities controlled by French and Malian troops.",
        "col4": "* 500 fighters (MOJWA)"
    },
    {
        "col0": "Operation Seiljag",
        "col1": "Angola",
        "col2": "South African Border War",
        "col3": "Indecisive",
        "col4": "1BosvarkMRAP"
    },
    {
        "col0": "Operation Searchlight",
        "col1": "East Pakistan",
        "col2": "Bangladesh Liberation War",
        "col3": "* Organization of Bengali popular resistance",
        "col4": "1 armored regiment (75M24 Chaffeetanks)."
    },
    {
        "col0": "Operation Scylla",
        "col1": "Strait of Messina",
        "col2": "Battle of the Mediterranean",
        "col3": "Italian victory",
        "col4": "1 light cruiser"
    },
    {
        "col0": "Operation Scorpion",
        "col1": "Iraq",
        "col2": "Post-invasion Iraq, 2003-present",
        "col3": "Indecisive",
        "col4": "Unknown"
    },
    {
        "col0": "Operation Scorched Earth",
        "col1": "Saudi Arabia",
        "col2": "Shia insurgency in Yemen",
        "col3": "Indecisive; Ceasefire after rebels accepted the government's truce conditions.",
        "col4": "100,000-150,000 Houthi rebels"
    },
    {
        "col0": "Operation Sayasila",
        "col1": "Laos",
        "col2": "Vietnam War",
        "col3": "Pyrrhic victoryforKingdom of Laos",
        "col4": "1,100"
    },
    {
        "col0": "Operation Sana",
        "col1": "Bosnia and Herzegovina",
        "col2": "Bosnian War",
        "col3": "* ARBiH captures towns ofBosanska Krupa,Bosanski Petrovac,Kljuc,Kulen Vakuf,Otoka, andSanski Most",
        "col4": "15,000 (initially)"
    },
    {
        "col0": "Operation Samen-ol-A'emeh",
        "col1": "Iran",
        "col2": "Iran-Iraq War",
        "col3": "*Iraqi siege of Abadan is broken",
        "col4": "15,000 troops inside Abadan, 20-30,000 troops outside"
    },
    {
        "col0": "Operation Safe Teach",
        "col1": "Iraq",
        "col2": "Iraq War",
        "col3": "security for Iraqi school children",
        "col4": "Unknown"
    },
    {
        "col0": "Operation Saber Guardian",
        "col1": "Iraq",
        "col2": "Iraq War",
        "col3": "Coalition victory",
        "col4": "Not Reported"
    },
    {
        "col0": "Operation Rosselsprung",
        "col1": "Bosnia",
        "col2": "World War II in Yugoslavia",
        "col3": "See theAftermathsection",
        "col4": "17,000"
    },
    {
        "col0": "Operation Rock Avalanche",
        "col1": "Afghanistan",
        "col2": "War in Afghanistan",
        "col3": "US minor tactical victory",
        "col4": "100+"
    },
    {
        "col0": "Operation Robin",
        "col1": "South Vietnam",
        "col2": "Vietnam War",
        "col3": "U.S. victory",
        "col4": "*102nd Infantry Regiment"
    },
    {
        "col0": "Operation Roast",
        "col1": "Valli di Comacchio",
        "col2": "Spring 1945 offensive in Italy",
        "col3": "British victory",
        "col4": "1,200 men"
    },
    {
        "col0": "Operation Riviresa",
        "col1": "Sri Lanka",
        "col2": "Sri Lankan Civil War",
        "col3": "Sri Lankan Military victory",
        "col4": "20,000"
    },
    {
        "col0": "Operation Ring",
        "col1": "Shusha",
        "col2": "Nagorno-Karabakh War",
        "col3": "Deportation of thousands of Armenians from the region",
        "col4": "Unknown"
    },
    {
        "col0": "Operation Rimon 20",
        "col1": "Suez Canal",
        "col2": "War of Attrition",
        "col3": "Israeli victory",
        "col4": "12 Mirage IIICs"
    },
    {
        "col0": "Operation Rimau",
        "col1": "Dutch East Indies",
        "col2": "Japanese occupation of Singapore",
        "col3": "Japanese victory",
        "col4": "1junk"
    },
    {
        "col0": "Operation Rhino",
        "col1": "Afghanistan",
        "col2": "War in Afghanistan",
        "col3": "U.S.victory",
        "col4": "200 Army Rangers"
    },
    {
        "col0": "Operation Rentier",
        "col1": "Finland",
        "col2": "Operation Silver Fox",
        "col3": "German victory",
        "col4": "27,500 men"
    },
    {
        "col0": "Operation Red Wings",
        "col1": "Kunar Province",
        "col2": "War in Afghanistan",
        "col3": "* Insurgent forces return three weeks later and are subsequently eliminated duringOperation Whalers, in August 2005.",
        "col4": "12Navy SEALs"
    },
    {
        "col0": "Operation Red Dawn",
        "col1": "Iraq",
        "col2": "Iraq War",
        "col3": "United States victory: Capture and arrest of formerIraqi presidentSaddam Hussein",
        "col4": "3"
    },
    {
        "col0": "Operation Red Dagger",
        "col1": "Afghanistan",
        "col2": "War in Afghanistan",
        "col3": "Coalition victory",
        "col4": "ANA: ?"
    },
    {
        "col0": "Operation Ramadan",
        "col1": "Iraq",
        "col2": "Iran-Iraq War",
        "col3": "* Limited tactical Iranian victory",
        "col4": "100,000+ troops"
    },
    {
        "col0": "Operation Rajiv",
        "col1": "Siachen",
        "col2": "Siachen Conflict",
        "col3": "Indian victory",
        "col4": "62"
    },
    {
        "col0": "Operation Rah-e-Nijat",
        "col1": "Pakistan",
        "col2": "War in North-West Pakistan",
        "col3": "Decisive Pakistani victory",
        "col4": "1,500 foreign fighters"
    },
    {
        "col0": "Operation Rosselsprung",
        "col1": "Bosnia",
        "col2": "World War II in Yugoslavia",
        "col3": "See theAftermathsection",
        "col4": "17,000"
    },
    {
        "col0": "Operation Quyet Thang 202",
        "col1": "Quang Ngai",
        "col2": "Vietnam War",
        "col3": "South Vietnamese-American victory",
        "col4": "1,000"
    }
]