[
    {
        "col0": "HMS Proserpine",
        "col1": "1777-05-14",
        "col2": "10",
        "col3": "1777-07-25"
    },
    {
        "col0": "HMS Prince of Wales",
        "col1": "1936-07-29",
        "col2": "31",
        "col3": "1941-01-19"
    },
    {
        "col0": "HMS Porpoise",
        "col1": "1931-06-11",
        "col2": "8",
        "col3": "1933-03-11"
    },
    {
        "col0": "HMS Poneke",
        "col1": "1882-08-26",
        "col2": "2",
        "col3": "1883-09-18"
    },
    {
        "col0": "HMS Plumper",
        "col1": "1847-04-25",
        "col2": "8",
        "col3": "1848-12-17"
    },
    {
        "col0": "HMS Plumper",
        "col1": "1804-01-09",
        "col2": "6",
        "col3": "1805-08-30"
    },
    {
        "col0": "HMS Plover",
        "col1": "1936-07-21",
        "col2": "10",
        "col3": "1937-09-24"
    },
    {
        "col0": "HMS Pioneer",
        "col1": "1855-04-18",
        "col2": "9",
        "col3": "1856-05-31"
    },
    {
        "col0": "HMS Phoenix",
        "col1": "1928-02-07",
        "col2": "9",
        "col3": "1931-02-03"
    },
    {
        "col0": "HMS Phoenix",
        "col1": "1831-01-12",
        "col2": "9",
        "col3": "1834-01-07"
    },
    {
        "col0": "HMS Peterel",
        "col1": "1836-04-14",
        "col2": "9",
        "col3": "1838-10-03"
    },
    {
        "col0": "HMS Persian",
        "col1": "1835-12-31",
        "col2": "10",
        "col3": "1840-02-23"
    },
    {
        "col0": "HMS Penzance",
        "col1": "1929-04-04",
        "col2": "10",
        "col3": "1931-01-15"
    },
    {
        "col0": "HMS Penylan",
        "col1": "1940-08-23",
        "col2": "10",
        "col3": "1942-08-25"
    },
    {
        "col0": "HMS Penn",
        "col1": "1939-10-20",
        "col2": "10",
        "col3": "1942-02-10"
    },
    {
        "col0": "HMS Penguin",
        "col1": "1836-04-14",
        "col2": "9",
        "col3": "1838-07-24"
    },
    {
        "col0": "HMS Pathfinder",
        "col1": "1939-10-02",
        "col2": "10",
        "col3": "1942-04-13"
    },
    {
        "col0": "HMS Pandora",
        "col1": "1928-02-07",
        "col2": "8",
        "col3": "1930-06-30"
    },
    {
        "col0": "HMS Pandora",
        "col1": "1831-12-11",
        "col2": "8",
        "col3": "1836-06-01"
    },
    {
        "col0": "HMS P311",
        "col1": "1931-06-11",
        "col2": "7",
        "col3": "1942-08-07"
    },
    {
        "col0": "HMS P222",
        "col1": "1943-04-07",
        "col2": "7",
        "col3": "1942-03-04"
    },
    {
        "col0": "HMS Owen",
        "col1": "1943-05-02",
        "col2": "11",
        "col3": "1949-08-02"
    },
    {
        "col0": "HMS Otus",
        "col1": "1926-12-02",
        "col2": "9",
        "col3": "1929-07-05"
    },
    {
        "col0": "HMS Otter",
        "col1": "1802-11-27",
        "col2": "8",
        "col3": "1805-05-19"
    },
    {
        "col0": "HMS Oswald",
        "col1": "1926-12-02",
        "col2": "9",
        "col3": "1929-05-01"
    }
]