[
    {
        "col0": "Woodlawn Theatre",
        "col1": "J. Eberson",
        "col2": "2006",
        "col3": "Community theatre"
    },
    {
        "col0": "Warner Theatre",
        "col1": "C. H. Crane",
        "col2": "1992",
        "col3": "music venue"
    },
    {
        "col0": "Trinity Theatre",
        "col1": "D. Burton",
        "col2": "1982",
        "col3": "Theatre, Arts centre"
    },
    {
        "col0": "Regal Cinema, Dublin",
        "col1": "M. Scott",
        "col2": "1955",
        "col3": "Demolished"
    },
    {
        "col0": "Ogden Theatre",
        "col1": "H. W. Edbrooke",
        "col2": "1993",
        "col3": "music venue"
    },
    {
        "col0": "New Theatre Royal",
        "col1": "F. Matcham",
        "col2": "1900",
        "col3": "Theatre"
    },
    {
        "col0": "McSwain Theatre",
        "col1": "Mission Revival Style architecture",
        "col2": "2009",
        "col3": "theater,music venue,art gallery"
    },
    {
        "col0": "Grand Theatre, Wolverhampton",
        "col1": "C. J. Phipps",
        "col2": "1982",
        "col3": "Musicals,Pantomime,Opera,Ballet, andPlays"
    },
    {
        "col0": "Fox Theatre",
        "col1": "R. &. Reid",
        "col2": "2010",
        "col3": "Live event venue"
    },
    {
        "col0": "Copley Symphony Hall",
        "col1": "W. a. Day",
        "col2": "1985",
        "col3": "Concert hall"
    },
    {
        "col0": "Church Hill Theatre",
        "col1": "H. Blanc",
        "col2": "2006",
        "col3": "Theatre"
    },
    {
        "col0": "Brixton Academy",
        "col1": "T. Somerford",
        "col2": "1972",
        "col3": "Music venue"
    },
    {
        "col0": "Bluebird Theater",
        "col1": "H. W. Edbrooke",
        "col2": "1994",
        "col3": "music venue"
    },
    {
        "col0": "Atlas Performing Arts Center",
        "col1": "J. J. Zink",
        "col2": "2005",
        "col3": "Performing arts center"
    }
]