[
    {
        "col0": "W. Jackson",
        "col1": "South Lanarkshire",
        "col2": "South Lanarkshire",
        "col3": "1955-1-26",
        "col4": "1871-3-14",
        "col5": "1871-3-14"
    },
    {
        "col0": "W. Knock",
        "col1": "Lunenburg, Nova Scotia",
        "col2": "Halifax, Nova Scotia",
        "col3": "1988-02-11",
        "col4": "1913-11-23",
        "col5": "1913-11-23"
    },
    {
        "col0": "V. Wood",
        "col1": "Manitoba",
        "col2": "Manitoba",
        "col3": "1979-09-10",
        "col4": "1886-08-28",
        "col5": "1886-08-28"
    },
    {
        "col0": "V. Wetterstrom",
        "col1": "Stockholm",
        "col2": "Stockholm",
        "col3": "1956-05-11",
        "col4": "1884-08-27",
        "col5": "1884-08-27"
    },
    {
        "col0": "V. Peters",
        "col1": "Steinbach, Manitoba",
        "col2": "Winnipeg",
        "col3": "2016-03-27",
        "col4": "1955-03-24",
        "col5": "1955-03-24"
    },
    {
        "col0": "T. Odlund",
        "col1": "Sundsvall Municipality",
        "col2": "Stockholm",
        "col3": "1937-08-15",
        "col4": "1894-05-15",
        "col5": "1894-05-15"
    },
    {
        "col0": "T. Murray",
        "col1": "South Lanarkshire",
        "col2": "South Lanarkshire",
        "col3": "1944-6-3",
        "col4": "1877-10-3",
        "col5": "1877-10-3"
    },
    {
        "col0": "S. Schmirler",
        "col1": "Canada",
        "col2": "Canada",
        "col3": "2000-03-02",
        "col4": "1963-06-11",
        "col5": "1963-06-11"
    },
    {
        "col0": "S. Penwarden",
        "col1": "Manitoba",
        "col2": "Manitoba",
        "col3": "1930-05-23",
        "col4": "1885-07-19",
        "col5": "1885-07-19"
    },
    {
        "col0": "R. Singbush",
        "col1": "Manitoba",
        "col2": "Manitoba",
        "col3": "1950-12-29",
        "col4": "1896-12-17",
        "col5": "1896-12-17"
    },
    {
        "col0": "R. H. Pickering",
        "col1": "Wilcox, Saskatchewan",
        "col2": "Alberta",
        "col3": "2015-06-24",
        "col4": "1932-09-19",
        "col5": "1932-09-19"
    },
    {
        "col0": "P. Canivet",
        "col1": "Paris",
        "col2": "Garches",
        "col3": "1982-1-25",
        "col4": "1890-1-1",
        "col5": "1890-1-1"
    },
    {
        "col0": "P. Wood",
        "col1": "Manitoba",
        "col2": "Manitoba",
        "col3": "1978-12-28",
        "col4": "1888-08-29",
        "col5": "1888-08-29"
    },
    {
        "col0": "N. Harrison",
        "col1": "Ontario",
        "col2": "Ontario",
        "col3": "2014-02-24",
        "col4": "1949-01-23",
        "col5": "1949-01-23"
    },
    {
        "col0": "M. Macneill",
        "col1": "Maitland, Nova Scotia",
        "col2": "Halifax, Nova Scotia",
        "col3": "1951-02-16",
        "col4": "1877-01-07",
        "col5": "1877-01-07"
    },
    {
        "col0": "M. Campbell",
        "col1": "Saint-Hyacinthe, Quebec",
        "col2": "Trois-Rivieres",
        "col3": "2014-7-4",
        "col4": "1919-11-28",
        "col5": "1919-11-28"
    },
    {
        "col0": "M. Frederickson",
        "col1": "Manitoba",
        "col2": "Manitoba",
        "col3": "1992-04-28",
        "col4": "1906-04-06",
        "col5": "1906-04-06"
    },
    {
        "col0": "L. Dagg",
        "col1": "Tisdale, Saskatchewan",
        "col2": "Kelowna",
        "col3": "1975-05-14",
        "col4": "1929-07-27",
        "col5": "1929-07-27"
    },
    {
        "col0": "L. Campbell",
        "col1": "Avonlea, Saskatchewan",
        "col2": "Emerald Park, Saskatchewan",
        "col3": "2016-05-25",
        "col4": "1915-01-04",
        "col5": "1915-01-04"
    },
    {
        "col0": "L. Wood",
        "col1": "Manitoba",
        "col2": "Manitoba",
        "col3": "1965-09-17",
        "col4": "1889-06-02",
        "col5": "1889-06-02"
    },
    {
        "col0": "L. Johnson",
        "col1": "Manitoba",
        "col2": "Manitoba",
        "col3": "1970-11-08",
        "col4": "1899-01-29",
        "col5": "1899-01-29"
    },
    {
        "col0": "L. Johnson",
        "col1": "Manitoba",
        "col2": "Manitoba",
        "col3": "1976-03-06",
        "col4": "1901-06-12",
        "col5": "1901-06-12"
    },
    {
        "col0": "L. Jackson",
        "col1": "South Lanarkshire",
        "col2": "South Lanarkshire",
        "col3": "1984-7-27",
        "col4": "1900-9-16",
        "col5": "1900-9-16"
    },
    {
        "col0": "K. Watson",
        "col1": "Manitoba",
        "col2": "Manitoba",
        "col3": "1986-07-26",
        "col4": "1904-08-12",
        "col5": "1904-08-12"
    },
    {
        "col0": "K. Stearne",
        "col1": "Alberta",
        "col2": "Australia",
        "col3": "2016-05-09",
        "col4": "1958-07-02",
        "col5": "1958-07-02"
    },
    {
        "col0": "K. Reilly",
        "col1": "Ochre River, Manitoba",
        "col2": "Ontario",
        "col3": "2012-0-0",
        "col4": "1938-0-0",
        "col5": "1938-0-0"
    },
    {
        "col0": "K. Wahlberg",
        "col1": "Stockholm",
        "col2": "Stockholm",
        "col3": "1934-08-01",
        "col4": "1874-03-31",
        "col5": "1874-03-31"
    },
    {
        "col0": "J. Watson",
        "col1": "St. James, Manitoba",
        "col2": "Manitoba",
        "col3": "1974-2-18",
        "col4": "1914-0-0",
        "col5": "1914-0-0"
    },
    {
        "col0": "J. P. Ahlen",
        "col1": "Insjon",
        "col2": "Atlantic Ocean",
        "col3": "1939-03-31",
        "col4": "1879-04-13",
        "col5": "1879-04-13"
    },
    {
        "col0": "J. Welsh",
        "col1": "Leith, Scotland",
        "col2": "Winnipeg, Manitoba",
        "col3": "1988-10-24",
        "col4": "1910-02-10",
        "col5": "1910-02-10"
    },
    {
        "col0": "J. Congalton",
        "col1": "Guelph, Ontario",
        "col2": "Manitoba",
        "col3": "1947-10-10",
        "col4": "1879-09-26",
        "col5": "1879-09-26"
    },
    {
        "col0": "J. Williams",
        "col1": "Manitoba",
        "col2": "Stonewall, Manitoba",
        "col3": "2004-08-22",
        "col4": "1916-09-08",
        "col5": "1916-09-08"
    },
    {
        "col0": "H. Cournollet",
        "col1": "Villers-sur-Mer",
        "col2": "Reims",
        "col3": "1971-8-10",
        "col4": "1882-12-19",
        "col5": "1882-12-19"
    },
    {
        "col0": "H. Gervais",
        "col1": "St. Albert, Alberta",
        "col2": "Edmonton, Alberta",
        "col3": "1997-7-19",
        "col4": "1934-1-1",
        "col5": "1934-1-1"
    },
    {
        "col0": "G. Hummelt",
        "col1": "Innsbruck",
        "col2": "Germany",
        "col3": "2010-07-03",
        "col4": "1931-07-21",
        "col5": "1931-07-21"
    },
    {
        "col0": "G. Watson",
        "col1": "Minnedosa, Manitoba",
        "col2": "Thunder Bay, Ontario",
        "col3": "1977-04-06",
        "col4": "1905-10-31",
        "col5": "1905-10-31"
    },
    {
        "col0": "G. Hudson",
        "col1": "Kenora",
        "col2": "Winnipeg",
        "col3": "1959-07-10",
        "col4": "1894-01-05",
        "col5": "1894-01-05"
    },
    {
        "col0": "G. Campbell",
        "col1": "Avonlea, Saskatchewan",
        "col2": "Regina, Saskatchewan",
        "col3": "2005-02-01",
        "col4": "1916-09-23",
        "col5": "1916-09-23"
    },
    {
        "col0": "G. Andre",
        "col1": "Paris",
        "col2": "Versailles, Yvelines",
        "col3": "1945-3-19",
        "col4": "1876-7-26",
        "col5": "1876-7-26"
    },
    {
        "col0": "G. Richardson",
        "col1": "Saskatchewan",
        "col2": "Regina, Saskatchewan",
        "col3": "2016-01-21",
        "col4": "1933-11-06",
        "col5": "1933-11-06"
    },
    {
        "col0": "G. Campbell",
        "col1": "Avonlea, Saskatchewan",
        "col2": "Okotoks, Alberta",
        "col3": "2011-12-30",
        "col4": "1927-01-11",
        "col5": "1927-01-11"
    },
    {
        "col0": "G. Hummelt",
        "col1": "Austria",
        "col2": "Germany",
        "col3": "2010-07-03",
        "col4": "1931-07-21",
        "col5": "1931-07-21"
    }
]