[
    {
        "col0": "Siege of Namur",
        "col1": "Namur",
        "col2": "Nine Years' War",
        "col3": "Grand Alliancevictory",
        "col4": "13,000"
    },
    {
        "col0": "Siege of Namur",
        "col1": "Namur",
        "col2": "Nine Years' War",
        "col3": "French victory",
        "col4": "120,000"
    },
    {
        "col0": "Siege of Nagykanizsa",
        "col1": "Nagykanizsa",
        "col2": "Long War",
        "col3": "Decisive Ottoman victory",
        "col4": "100 small cannon"
    },
    {
        "col0": "Siege of Nagakubo",
        "col1": "Shinano Province",
        "col2": "Sengoku period",
        "col3": "Takeda victory",
        "col4": "1200"
    },
    {
        "col0": "Siege of Noteborg",
        "col1": "Russia",
        "col2": "Great Northern War",
        "col3": "Russian victory",
        "col4": "12,500 men deployed, 20,000-35,000 in total"
    },
    {
        "col0": "Siege of Negrepelisse",
        "col1": "Negrepelisse",
        "col2": "Huguenot rebellions",
        "col3": "Royal victory",
        "col4": "800 citizens"
    },
    {
        "col0": "Siege of Myitkyina",
        "col1": "Burma",
        "col2": "Second Sino-Japanese War",
        "col3": "Allied victory",
        "col4": "Chinese Expeditionary Force"
    },
    {
        "col0": "Siege of Musashi-Matsuyama",
        "col1": "Musashi province",
        "col2": "Sengoku period",
        "col3": "Siege successful; castle falls to the Hojo and Takeda",
        "col4": "10,000"
    },
    {
        "col0": "Siege of Musa Qala",
        "col1": "Afghanistan",
        "col2": "War in Afghanistan",
        "col3": "Inconclusive, both forces withdraw",
        "col4": "25-170 (ISAF)"
    },
    {
        "col0": "Siege of Multan",
        "col1": "Multan",
        "col2": "Second Anglo-Sikh War",
        "col3": "British victory",
        "col4": "12,000"
    },
    {
        "col0": "Siege of Mount Hiei",
        "col1": "Japan",
        "col2": "Sengoku period",
        "col3": "Oda Nobunagavictory",
        "col4": "30,000"
    },
    {
        "col0": "Siege of Mosul",
        "col1": "Mosul",
        "col2": "Nader's Campaigns",
        "col3": "* Negotiated Persian withdrawal",
        "col4": "*230mortars"
    },
    {
        "col0": "Siege of Mostar",
        "col1": "Bosnia and Herzegovina",
        "col2": "Croat-Bosniak War",
        "col3": "HV-HVO-ARBiHvictory (1992)",
        "col4": "17,000 soldiers (1992)"
    },
    {
        "col0": "Siege of Morlaix",
        "col1": "Britanny",
        "col2": "French Wars of Religion",
        "col3": "Anglo-French victory",
        "col4": "* 2,000 English"
    },
    {
        "col0": "Siege of Mora",
        "col1": "Kamerun",
        "col2": "World War I",
        "col3": "Allied victory",
        "col4": "150"
    },
    {
        "col0": "Siege of Montevideo",
        "col1": "Cisplatina",
        "col2": "War of Independence of Brazil",
        "col3": "Brazilian decisive victory",
        "col4": "1 Brig"
    },
    {
        "col0": "Siege of Montauban",
        "col1": "Montauban",
        "col2": "Huguenot rebellions",
        "col3": "Huguenot victory",
        "col4": "25,000"
    },
    {
        "col0": "Siege of Mons",
        "col1": "Mons",
        "col2": "Nine Years' War",
        "col3": "French victory",
        "col4": "90 guns"
    },
    {
        "col0": "Siege of Mons",
        "col1": "County of Hainaut",
        "col2": "Anglo-Spanish War",
        "col3": "*Huguenotarmy destroyed",
        "col4": "10,000 men"
    },
    {
        "col0": "Siege of Moji",
        "col1": "Japan",
        "col2": "Sengoku period",
        "col3": "Mori clanvictory",
        "col4": "3 Portuguese ships"
    },
    {
        "col0": "Siege of Mirandola",
        "col1": "Romagna",
        "col2": "Italian War of 1551-1559",
        "col3": "Decisive French victory",
        "col4": "400"
    },
    {
        "col0": "Siege of Minowa",
        "col1": "Kozuke province",
        "col2": "Sengoku period",
        "col3": "Siege successful; Takeda victory",
        "col4": "3000"
    },
    {
        "col0": "Siege of Minamata Castle",
        "col1": "Higo Province",
        "col2": "Sengoku period",
        "col3": "Shimazu victory",
        "col4": "31000"
    },
    {
        "col0": "Siege of Miletus",
        "col1": "Caria",
        "col2": "Wars of Alexander the Great",
        "col3": "Macedonian victory.",
        "col4": "160 ships"
    },
    {
        "col0": "Siege of Middelburg",
        "col1": "Netherlands",
        "col2": "Eighty Years' War",
        "col3": "Dutch & English victory",
        "col4": "3,000"
    },
    {
        "col0": "Siege of Mexico City",
        "col1": "Mexico",
        "col2": "French intervention in Mexico",
        "col3": "* End of theMaximilian Affair",
        "col4": "1,100 troops"
    },
    {
        "col0": "Siege of Meurs",
        "col1": "Germany",
        "col2": "Eighty Years' War",
        "col3": "Dutch & English victory",
        "col4": "1,200 Cavalry"
    },
    {
        "col0": "Siege of Metz",
        "col1": "France",
        "col2": "Franco-Prussian War",
        "col3": "Decisive German victory",
        "col4": "120,000"
    },
    {
        "col0": "Siege of Mequinenza",
        "col1": "Aragon",
        "col2": "Peninsular War",
        "col3": "French victory",
        "col4": "1,000"
    },
    {
        "col0": "Siege of Menagh Air Base",
        "col1": "Aleppo",
        "col2": "Syrian Civil War",
        "col3": "* Rebels capture the Menagh Air Base",
        "col4": "*Several hundredChechenfighters"
    },
    {
        "col0": "Siege of Melilla",
        "col1": "Melilla",
        "col2": "Hispano-Moroccan wars",
        "col3": "Spanish victory",
        "col4": "40,000"
    },
    {
        "col0": "Siege of Medvegalis",
        "col1": "Medvegalis",
        "col2": "Lithuanian Crusade",
        "col3": "Teutonic victory",
        "col4": "3,000 to 6,000"
    },
    {
        "col0": "Siege of Medion",
        "col1": "Medion",
        "col2": "Illyrian Wars",
        "col3": "Aetolian defeat; Illyrians lift the siege",
        "col4": "Illyrian relief force of 100lembiand 5,000 men"
    },
    {
        "col0": "Siege of Medina",
        "col1": "Malta",
        "col2": "Arab-Byzantine wars",
        "col3": "Muslim victory",
        "col4": "400 men"
    },
    {
        "col0": "Siege of Medina",
        "col1": "Medina",
        "col2": "Arab Revolt",
        "col3": "Britishand Arab victory.",
        "col4": "11,000 (1918)"
    },
    {
        "col0": "Siege of Meaux",
        "col1": "France",
        "col2": "Hundred Years' War",
        "col3": "English victory",
        "col4": "Unknown"
    },
    {
        "col0": "Siege of Maubeuge",
        "col1": "France",
        "col2": "French Revolution",
        "col3": "French victory",
        "col4": "Garrison: 24,107"
    },
    {
        "col0": "Siege of Maubeuge",
        "col1": "Maubeuge",
        "col2": "Great Retreat",
        "col3": "German victory",
        "col4": "1 active-army brigade"
    },
    {
        "col0": "Siege of Matsuo",
        "col1": "Shinano province",
        "col2": "Sengoku period",
        "col3": "Takeda victory",
        "col4": "4000"
    },
    {
        "col0": "Siege of Massilia",
        "col1": "Marseille",
        "col2": "Caesar's Civil War",
        "col3": "Caesarian Victory, Roman annexation of Massilia",
        "col4": "15,000 - 3 Roman legions (XVII, XVIII, and XIX)"
    },
    {
        "col0": "Siege of Masbate",
        "col1": "Philippines",
        "col2": "Philippine Revolution",
        "col3": "Filipino Victory, Establishment of Masbate revolutionary government",
        "col4": "1 ship"
    },
    {
        "col0": "Siege of Masada",
        "col1": "Israel",
        "col2": "First Jewish-Roman War",
        "col3": "Roman victory",
        "col4": "967, including non-combatants"
    },
    {
        "col0": "Siege of Marienburg",
        "col1": "Malbork Castle",
        "col2": "Polish-Lithuanian-Teutonic War",
        "col3": "Teutonic victory",
        "col4": "1,427 Grunwald survivors"
    },
    {
        "col0": "Siege of Maribor",
        "col1": "Duchy of Styria",
        "col2": "Ottoman-Habsburg wars",
        "col3": "Maribor successfully defended",
        "col4": "100,000"
    },
    {
        "col0": "Siege of Marabastad",
        "col1": "Marabastad, Pretoria",
        "col2": "First Boer War",
        "col3": "Boer victory; Marabastad is captured",
        "col4": "100 men"
    },
    {
        "col0": "Siege of Mantua",
        "col1": "Italy",
        "col2": "War of the Second Coalition",
        "col3": "Austrian victory",
        "col4": "10,000"
    },
    {
        "col0": "Siege of Mantua",
        "col1": "Italy",
        "col2": "French Revolutionary Wars",
        "col3": "French victory",
        "col4": "14,000-29,676"
    },
    {
        "col0": "Siege of Mannheim",
        "col1": "Germany",
        "col2": "War of the First Coalition",
        "col3": "Austrian victory",
        "col4": "Battle: 12,000"
    },
    {
        "col0": "Siege of Malta",
        "col1": "Malta Colony",
        "col2": "Mediterranean and Middle East theatre of World War II",
        "col3": "Decisive Allied victory",
        "col4": "716 fighters over the course of the campaign"
    },
    {
        "col0": "Siege of Malmo",
        "col1": "Malmo",
        "col2": "Scanian War",
        "col3": "Swedish victory",
        "col4": "14,000 troops"
    },
    {
        "col0": "Siege of Malakand",
        "col1": "British Raj",
        "col2": "Anglo-Afghan wars",
        "col3": "British victory",
        "col4": "10,000"
    },
    {
        "col0": "Siege of Malacca",
        "col1": "Portuguese Malacca",
        "col2": "Dutch-Portuguese War",
        "col3": "Portuguese victory",
        "col4": "11 ships"
    },
    {
        "col0": "Siege of Mainz",
        "col1": "Mainz",
        "col2": "French Revolutionary War",
        "col3": "German victory",
        "col4": "184 cannons"
    },
    {
        "col0": "Siege of Magdeburg",
        "col1": "Kingdom of Prussia",
        "col2": "Fourth Coalition",
        "col3": "*capture of Prussia's second-largest city on 11 November 1806.",
        "col4": "18,000-25,000 men"
    },
    {
        "col0": "Siege of Mafeking",
        "col1": "Mafikeng",
        "col2": "Second Boer War",
        "col3": "Siege relieved",
        "col4": "1,500"
    },
    {
        "col0": "Siege of Madrid",
        "col1": "Madrid",
        "col2": "Spanish Civil War",
        "col3": "Republicans repulse assault on Madrid in 1936, but city eventually falls to Nationalists in 1939",
        "col4": "120 aircraft"
    },
    {
        "col0": "Siege of Madras",
        "col1": "India",
        "col2": "Seven Years' War",
        "col3": "Britishvictory",
        "col4": "1,700 Europeans"
    },
    {
        "col0": "Siege of Maastricht",
        "col1": "Maastricht",
        "col2": "Franco-Dutch War",
        "col3": "French victory",
        "col4": "1,200 cavalry"
    },
    {
        "col0": "Siege of Maastricht",
        "col1": "Maastricht",
        "col2": "Eighty Years' War",
        "col3": "Spanish victory",
        "col4": "1,200 soldiers and 6,000 militia"
    },
    {
        "col0": "Siege of Ma'arra",
        "col1": "Ma'arrat al-Numan",
        "col2": "First Crusade",
        "col3": "Crusader victory",
        "col4": "Local Militia and Garrison"
    },
    {
        "col0": "Siege of Leva",
        "col1": "Habsburg Monarchy",
        "col2": "Austro-Turkish War",
        "col3": "Austrian victory",
        "col4": "12,000"
    },
    {
        "col0": "Siege of Lerida",
        "col1": "Spain",
        "col2": "Peninsular War",
        "col3": "French victory",
        "col4": "13,000, 30 guns"
    },
    {
        "col0": "Siege of Lyon",
        "col1": "France",
        "col2": "French Revolutionary War",
        "col3": "French Republican victory",
        "col4": "35,000"
    },
    {
        "col0": "Siege of Lydenburg",
        "col1": "Lydenburg",
        "col2": "First Boer War",
        "col3": "Boer victory; Lydenburg is captured",
        "col4": "50-55 men of the94th Regiment"
    },
    {
        "col0": "Siege of Luxembourg",
        "col1": "Southern Netherlands",
        "col2": "French Revolutionary Wars",
        "col3": "French victory",
        "col4": "15,000"
    },
    {
        "col0": "Siege of Luxembourg",
        "col1": "Luxembourg",
        "col2": "War of the Reunions",
        "col3": "French victory",
        "col4": "20,000 men"
    },
    {
        "col0": "Siege of Lucknow",
        "col1": "Presidencies and provinces of British India",
        "col2": "Indian Rebellion of 1857",
        "col3": "British relief and withdrawal",
        "col4": "1,729 troops, rising to approx. 8,000"
    },
    {
        "col0": "Siege of Louisbourg",
        "col1": "Nova Scotia",
        "col2": "French and Indian War",
        "col3": "Decisive British victory",
        "col4": "12,000 sailors and marines"
    },
    {
        "col0": "Siege of Louisbourg",
        "col1": "Ile-Royale",
        "col2": "War of the Austrian Succession",
        "col3": "British victory",
        "col4": "4,200 militia, sailors & marines"
    },
    {
        "col0": "Siege of Los Angeles",
        "col1": "Los Angeles",
        "col2": "Mexican-American War",
        "col3": "Mexican victory",
        "col4": "150militia"
    },
    {
        "col0": "Siege of Lochem",
        "col1": "Netherlands",
        "col2": "Eighty Years' War",
        "col3": "Anglo-States protestant victory",
        "col4": "2,500 cavalry"
    },
    {
        "col0": "Siege of Little Butte des Morts",
        "col1": "Little Lake Butte des Morts",
        "col2": "Fox Wars",
        "col3": "New France Pyrrhic victory",
        "col4": "500-600 warriors?"
    },
    {
        "col0": "Siege of Lisbon",
        "col1": "Lisbon",
        "col2": "1383-1385 Crisis",
        "col3": "Portuguese victory",
        "col4": "\"Countless\" infantry soldiers"
    },
    {
        "col0": "Siege of Lisbon",
        "col1": "Lisbon, Portugal",
        "col2": "Reconquista",
        "col3": "Decisive Portuguese-Crusader victory",
        "col4": "*2,000 Flemish"
    },
    {
        "col0": "Siege of Lingen",
        "col1": "Germany",
        "col2": "Dutch Revolt",
        "col3": "Spanish victory",
        "col4": "16,000-17,000"
    },
    {
        "col0": "Siege of Lingen",
        "col1": "Germany",
        "col2": "Eighty Years' War",
        "col3": "Dutch & English victory",
        "col4": "500"
    },
    {
        "col0": "Siege of Limerick",
        "col1": "Limerick",
        "col2": "Williamite War in Ireland",
        "col3": "Williamites negotiate surrender of city and evacuation of Jacobite troops from Ireland",
        "col4": "20,000"
    },
    {
        "col0": "Siege of Limerick",
        "col1": "Kingdom of Ireland",
        "col2": "Williamite War in Ireland",
        "col3": "Jacobitevictory",
        "col4": "14,500 Jacobite infantry in Limerick, 2,500 cavalry in Clare"
    },
    {
        "col0": "Siege of Limerick",
        "col1": "Limerick",
        "col2": "Irish Confederate Wars",
        "col3": "English Parliamentarians take Limerick after protracted siege",
        "col4": "2,000 soldiers and civilian population"
    },
    {
        "col0": "Siege of Lilybaeum",
        "col1": "Sicily",
        "col2": "First Punic War",
        "col3": "Carthaginian Victory",
        "col4": "~10,000"
    },
    {
        "col0": "Siege of Lille",
        "col1": "French Third Republic",
        "col2": "World War II",
        "col3": "SeeAftermathsection",
        "col4": "(110,000 men, 800 tanks)"
    },
    {
        "col0": "Siege of Lille",
        "col1": "France",
        "col2": "French Revolutionary Wars",
        "col3": "Austrian Strategic Withdrawal",
        "col4": "10,000-25,000"
    },
    {
        "col0": "Siege of Lille",
        "col1": "France",
        "col2": "War of the Spanish Succession",
        "col3": "Grand Alliance victory",
        "col4": "100,000 in vicinity"
    },
    {
        "col0": "Siege of Leuven",
        "col1": "Leuven",
        "col2": "Eighty Years' War",
        "col3": "Decisive Spanish victory,",
        "col4": "4,000 soldiers"
    },
    {
        "col0": "Siege of Leningrad",
        "col1": "Russian SFSR",
        "col2": "Eastern Front",
        "col3": "Soviet victory",
        "col4": "725,000"
    },
    {
        "col0": "Siege of Leiden",
        "col1": "Leiden",
        "col2": "Eighty Years' War",
        "col3": "States-allied victory",
        "col4": "11,000"
    },
    {
        "col0": "Siege of Le Quesnoy",
        "col1": "France",
        "col2": "War of the First Coalition",
        "col3": "Coalition victory",
        "col4": "18,000"
    },
    {
        "col0": "Siege of Le Catelet",
        "col1": "France",
        "col2": "French Wars of Religion",
        "col3": "Spanish victory",
        "col4": "5,000"
    },
    {
        "col0": "Siege of Lathom House",
        "col1": "Lancashire",
        "col2": "First English Civil War",
        "col3": "1st: Royalist victory",
        "col4": "1st: 2,000"
    },
    {
        "col0": "Siege of Landrecies",
        "col1": "Landrecies",
        "col2": "War of the First Coalition",
        "col3": "Coalition victory",
        "col4": "20,000"
    },
    {
        "col0": "Siege of Landau",
        "col1": "Germany",
        "col2": "War of the First Coalition",
        "col3": "French victory",
        "col4": "25 battalions"
    },
    {
        "col0": "Siege of Landau",
        "col1": "Germany",
        "col2": "War of the Spanish Succession",
        "col3": "Imperial victory",
        "col4": "4,335"
    },
    {
        "col0": "Siege of Lamitan",
        "col1": "Philippines",
        "col2": "Moro conflict",
        "col3": "*21 of 30 hostages rescued by government forces",
        "col4": "2000 soldiers"
    },
    {
        "col0": "Siege of Lal Masjid",
        "col1": "Islamabad",
        "col2": "War in North-West Pakistan",
        "col3": "Pakistani victory",
        "col4": "1,300 students"
    },
    {
        "col0": "Siege of Laghouat",
        "col1": "Algeria",
        "col2": "Pacification of Algeria",
        "col3": "French victory",
        "col4": "6000"
    },
    {
        "col0": "Siege of Ladysmith",
        "col1": "Colony of Natal",
        "col2": "Second Boer War",
        "col3": "British victory",
        "col4": "12,500"
    },
    {
        "col0": "Siege of Lachish",
        "col1": "Israel",
        "col2": "Sennacherib's campaign in Judah",
        "col3": "*Lachish captured",
        "col4": "Unknown"
    },
    {
        "col0": "Siege of La Rochelle",
        "col1": "La Rochelle",
        "col2": "French wars of religion",
        "col3": "Stalemate",
        "col4": "Defending army: 1,500."
    },
    {
        "col0": "Siege of La Rochelle",
        "col1": "La Rochelle",
        "col2": "Huguenot rebellions",
        "col3": "Decisive Royalist victory",
        "col4": "Buckingham:80 ships 7,000 soldiers"
    },
    {
        "col0": "Siege of La Paz",
        "col1": "La Paz, Baja California Sur",
        "col2": "Mexican-American War",
        "col3": "United States victory; Mexican withdrawal; siege lifted.",
        "col4": "115infantry"
    },
    {
        "col0": "Siege of Leva",
        "col1": "Leva",
        "col2": "Austro-Turkish War",
        "col3": "Austrian victory",
        "col4": "12,000"
    },
    {
        "col0": "Siege of Lerida",
        "col1": "Spain",
        "col2": "Peninsular War",
        "col3": "French victory",
        "col4": "13,000, 30 guns"
    },
    {
        "col0": "Siege of Kuwabara",
        "col1": "Shinano Province",
        "col2": "Sengoku period",
        "col3": "Takeda victory",
        "col4": "1100"
    },
    {
        "col0": "Siege of Kut",
        "col1": "Iraq",
        "col2": "Mesopotamian Campaign",
        "col3": "Ottoman victory",
        "col4": "31,000"
    },
    {
        "col0": "Siege of Kuragano",
        "col1": "Kozuke Province",
        "col2": "Sengoku period",
        "col3": "Siege succeeds; Takeda victory",
        "col4": "5000"
    },
    {
        "col0": "Siege of Kunduz",
        "col1": "Islamic State of Afghanistan",
        "col2": "War in Afghanistan",
        "col3": "Strategic failure, seeKunduz Airlift",
        "col4": "10,000 Taliban"
    },
    {
        "col0": "Siege of Kumamoto Castle",
        "col1": "Japan",
        "col2": "Satsuma rebellion",
        "col3": "Decisive Imperial Japanese victory",
        "col4": "20,000 samurai"
    },
    {
        "col0": "Siege of Kruje",
        "col1": "Kruje",
        "col2": "Ottoman Wars in Europe",
        "col3": "Albanian-Venetian victory; main Ottoman army withdraws from Albania. Ottoman presence remains after construction ofElbasan Fortress",
        "col4": "30,000-100,000; 23,000 remained with Ballaban upon Mehmed's withdrawal"
    },
    {
        "col0": "Siege of Kruje",
        "col1": "Kruje",
        "col2": "Ottoman wars in Europe",
        "col3": "Albanian victory",
        "col4": "100,000 to 160,000 men; ten guns"
    },
    {
        "col0": "Siege of Kruje",
        "col1": "Kruje",
        "col2": "Ottoman Wars in Europe",
        "col3": "Albanian-Venetian victory; main Ottoman army withdraws from Albania. Ottoman presence remains after construction ofElbasan Fortress",
        "col4": "30,000-100,000; 23,000 remained with Ballaban upon Mehmed's withdrawal"
    },
    {
        "col0": "Siege of Kruje",
        "col1": "Kruje",
        "col2": "Ottoman wars in Europe",
        "col3": "Albanian victory",
        "col4": "100,000 to 160,000 men; ten guns"
    },
    {
        "col0": "Siege of Krakow",
        "col1": "Krakow",
        "col2": "The Deluge",
        "col3": "Polish - Austrian victory",
        "col4": "2,500 Swedes and 2,500 Transilvanians"
    },
    {
        "col0": "Siege of Krakow",
        "col1": "Krakow",
        "col2": "Second Northern War",
        "col3": "Swedish victory",
        "col4": "13,000-14,000"
    },
    {
        "col0": "Siege of Krakow",
        "col1": "Krakow",
        "col2": "Second Northern War",
        "col3": "Polish - Austrian victory",
        "col4": "2,500 Swedes and 2,500 Transilvanians"
    },
    {
        "col0": "Siege of Krakow",
        "col1": "Krakow",
        "col2": "Deluge",
        "col3": "Swedish victory",
        "col4": "13,000-14,000"
    },
    {
        "col0": "Siege of Kozelsk",
        "col1": "Kozelsk",
        "col2": "Mongol invasion of Rus'",
        "col3": "The victory of theMongol Empire, the city levelled",
        "col4": "* 4000"
    },
    {
        "col0": "Siege of Koriyama",
        "col1": "Aki Province",
        "col2": "Sengoku period",
        "col3": "Morivictory",
        "col4": "10,000 Ouchi relief force"
    },
    {
        "col0": "Siege of Kolding",
        "col1": "Denmark",
        "col2": "Second Northern War",
        "col3": "Polish-Danish victory",
        "col4": "1.000 men"
    },
    {
        "col0": "Siege of Kolberg",
        "col1": "Kingdom of Prussia",
        "col2": "War of the Fourth Coalition",
        "col3": "Siege lifted by peace treaty",
        "col4": "14,000 men"
    },
    {
        "col0": "Siege of Kojinyama",
        "col1": "Shinano Province",
        "col2": "Sengoku period",
        "col3": "Takeda victory",
        "col4": "2000"
    },
    {
        "col0": "Siege of KobanA(r)",
        "col1": "Syria",
        "col2": "Syrian Civil War",
        "col3": "DecisiveFederationvictory",
        "col4": "160 Peshmerga (reinforcements)"
    },
    {
        "col0": "Siege of Knodsenburg",
        "col1": "Netherlands",
        "col2": "Eighty Years' War",
        "col3": "Anglo-Dutch victory",
        "col4": "1,800 cavalry"
    },
    {
        "col0": "Siege of Knin",
        "col1": "Kingdom of Croatia",
        "col2": "Ottoman wars in Europe",
        "col3": "Ottoman victory",
        "col4": "few hundred men"
    },
    {
        "col0": "Siege of Klis",
        "col1": "Kingdom of Croatia",
        "col2": "Ottoman-Habsburg wars",
        "col3": "Ottoman victory",
        "col4": "*+ 23,000 infantry in the reinforcements"
    },
    {
        "col0": "Siege of Kiso Fukushima",
        "col1": "Kiso River",
        "col2": "Sengoku period",
        "col3": "Siege succeeds; Takeda victory",
        "col4": "2000"
    },
    {
        "col0": "Siege of Kinsale",
        "col1": "County Cork",
        "col2": "Nine Years War",
        "col3": "Decisive English victory",
        "col4": "11,800 infantry"
    },
    {
        "col0": "Siege of Kimberley",
        "col1": "Cape Colony",
        "col2": "Second Boer War",
        "col3": "British Victory",
        "col4": "3,000-6,500"
    },
    {
        "col0": "Siege of Kiev",
        "col1": "Kiev",
        "col2": "Mongol invasion of Rus'",
        "col3": "Mongol victory; Kiev captured and plundered",
        "col4": "Unknown; probably large"
    },
    {
        "col0": "Siege of Khartoum",
        "col1": "Khartoum",
        "col2": "Mahdist War",
        "col3": "Mahdist pyrrhic victory",
        "col4": "50,000warriors,"
    },
    {
        "col0": "Siege of Kenilworth",
        "col1": "Warwickshire",
        "col2": "Second Barons' War",
        "col3": "Royalist victory,Dictum of Kenilworth",
        "col4": "c. 1,200"
    },
    {
        "col0": "Siege of Kehl",
        "col1": "Kehl",
        "col2": "French Revolutionary War",
        "col3": "Austrian victory",
        "col4": "20,000"
    },
    {
        "col0": "Siege of Kehl",
        "col1": "Germany",
        "col2": "War of the Polish Succession",
        "col3": "French victory",
        "col4": "1,200 Schwabian militia"
    },
    {
        "col0": "Siege of Kehl",
        "col1": "Kehl",
        "col2": "War of the Spanish Succession",
        "col3": "French victory",
        "col4": "3,500"
    },
    {
        "col0": "Siege of Kazan",
        "col1": "Kazan",
        "col2": "Russo-Kazan Wars",
        "col3": "DecisiveRussianvictory, end ofKhanate of Kazan's power",
        "col4": "150 cannons"
    },
    {
        "col0": "Siege of Kawagoe Castle",
        "col1": "Saitama Prefecture",
        "col2": "Sengoku period",
        "col3": "Hojo victory; siege fails",
        "col4": "* garrison : 3,000"
    },
    {
        "col0": "Siege of Katsurao",
        "col1": "Shinano province",
        "col2": "Sengoku period",
        "col3": "Takeda victory",
        "col4": "4200"
    },
    {
        "col0": "Siege of Kasagi",
        "col1": "Japan",
        "col2": "Genko War",
        "col3": "Hojovictory",
        "col4": "3,000"
    },
    {
        "col0": "Siege of Kars",
        "col1": "Ottoman Empire",
        "col2": "Crimean War",
        "col3": "Russian victory",
        "col4": "10,000 cavalry"
    },
    {
        "col0": "Siege of Kannomine",
        "col1": "Japan",
        "col2": "Sengoku period",
        "col3": "Takedavictory",
        "col4": "1900"
    },
    {
        "col0": "Siege of Kanbara",
        "col1": "Suruga province",
        "col2": "Sengoku period",
        "col3": "Siege successful, Takeda victory",
        "col4": "1000"
    },
    {
        "col0": "Siege of Kamenets",
        "col1": "Kamianets-Podilskyi",
        "col2": "Polish-Ottoman War",
        "col3": "Ottoman Victory",
        "col4": "4,500 troops"
    },
    {
        "col0": "Siege of Kamakura",
        "col1": "Kamakura, Kanagawa",
        "col2": "Genko War",
        "col3": "Imperial victory; city destroyed.",
        "col4": "15,000"
    },
    {
        "col0": "Siege of Kagoshima",
        "col1": "Japan",
        "col2": "Toyotomi Hideyoshi",
        "col3": "Toyotomi Hideyoshi victory through negotiation",
        "col4": "60,000"
    },
    {
        "col0": "Siege of Jinju",
        "col1": "Korea",
        "col2": "Hideyoshi's invasions of Korea",
        "col3": "Japanese victory",
        "col4": "90,000"
    },
    {
        "col0": "Siege of Jinju",
        "col1": "Korea",
        "col2": "Japanese invasions of Korea",
        "col3": "Decisive Korean victory",
        "col4": "2,500 Righteous armies"
    },
    {
        "col0": "Siege of Jinji",
        "col1": "Tamil Nadu",
        "col2": "Mughal-Maratha Wars",
        "col3": "Decisive victory forMughal",
        "col4": "150War elephants"
    },
    {
        "col0": "Siege of Jicheng",
        "col1": "Gansu",
        "col2": "End of the Han dynasty",
        "col3": "Ma Chao victory",
        "col4": "1,000"
    },
    {
        "col0": "Siege of Jerusalem",
        "col1": "Jerusalem",
        "col2": "First Jewish-Roman War",
        "col3": "*Main rebel Judean forces subdued.",
        "col4": "10,000"
    },
    {
        "col0": "Siege of Jerusalem",
        "col1": "Jerusalem",
        "col2": "Muslim conquest of Syria",
        "col3": "Rashidun victory",
        "col4": "Unknown"
    },
    {
        "col0": "Siege of Jerusalem",
        "col1": "Jerusalem",
        "col2": "Jewish-Babylonian war",
        "col3": "Babyloniatakes and despoilsJerusalem;Babylonian victory",
        "col4": "Much fewer"
    },
    {
        "col0": "Siege of Jerusalem",
        "col1": "Jerusalem",
        "col2": "Jewish-Babylonian war",
        "col3": "Babylonian victory, destruction ofJerusalem, fall ofKingdom of Judah",
        "col4": "Much fewer"
    },
    {
        "col0": "Siege of Jerusalem",
        "col1": "Jerusalem",
        "col2": "Peasants' Revolt of 1834",
        "col3": "* On June 7, Ibrahim Pasha approached the city with Egyptian reinforcements",
        "col4": "~12,000"
    },
    {
        "col0": "Siege of Jerusalem",
        "col1": "Jerusalem",
        "col2": "Sixth Crusade",
        "col3": "Jerusalemsacked",
        "col4": "Fewer"
    },
    {
        "col0": "Siege of Jerusalem",
        "col1": "Jerusalem",
        "col2": "First Crusade",
        "col3": "DecisiveCrusadervictory",
        "col4": "''400 Cavalrymen, and a"
    },
    {
        "col0": "Siege of Jaen",
        "col1": "Jaen, Spain",
        "col2": "Reconquista",
        "col3": "Handing over of the city of Jaen to Castile after the signing of theTreaty of Jaen.",
        "col4": "Unknown"
    },
    {
        "col0": "Siege of Jaen",
        "col1": "Jaen, Spain",
        "col2": "Reconquista",
        "col3": "Castilian retreat and abandonment of the siege after the death ofAlfonso IX of Leon.",
        "col4": "Unknown"
    },
    {
        "col0": "Siege of Jaen",
        "col1": "Jaen, Spain",
        "col2": "Reconquista",
        "col3": "Victory for the Taifa of Jayyan",
        "col4": "160 Christianknights"
    },
    {
        "col0": "Siege of Jasna Gora",
        "col1": "Czestochowa",
        "col2": "Second Northern War",
        "col3": "DecisivePolish victory",
        "col4": "310 and 24--30 cannons"
    },
    {
        "col0": "Siege of Jajce",
        "col1": "Kingdom of Bosnia",
        "col2": "Ottoman-Hungarian Wars",
        "col3": "Hungarian victory,",
        "col4": "14,000 cavalry"
    },
    {
        "col0": "Siege of Jaen",
        "col1": "Jaen, Spain",
        "col2": "Reconquista",
        "col3": "Handing over of the city of Jaen to Castile after the signing of theTreaty of Jaen.",
        "col4": "Unknown"
    },
    {
        "col0": "Siege of Jaen",
        "col1": "Jaen, Spain",
        "col2": "Reconquista",
        "col3": "Castilian retreat and abandonment of the siege after the death ofAlfonso IX of Leon.",
        "col4": "Unknown"
    },
    {
        "col0": "Siege of Jaen",
        "col1": "Jaen, Spain",
        "col2": "Reconquista",
        "col3": "Victory for the Taifa of Jayyan",
        "col4": "160 Christianknights"
    },
    {
        "col0": "Siege of Izmail",
        "col1": "Izmail",
        "col2": "Russo-Turkish War of 1787-1792",
        "col3": "Decisive Russian victory",
        "col4": "31,000"
    },
    {
        "col0": "Siege of Iwaya Castle",
        "col1": "Chikuzen Province",
        "col2": "Sengoku period",
        "col3": "Shimazu victory",
        "col4": "20000"
    },
    {
        "col0": "Siege of Issa",
        "col1": "Croatia",
        "col2": "Illyrian Wars",
        "col3": "Illyrian defeat; Romans lift the siege",
        "col4": "20,000 infantry and 200 cavalry under Postumius"
    },
    {
        "col0": "Siege of Isfahan",
        "col1": "Isfahan",
        "col2": "Naderian Wars",
        "col3": "*Fall of the Safavid capital",
        "col4": "10-20,000"
    },
    {
        "col0": "Siege of Inverness",
        "col1": "Scotland",
        "col2": "Scottish clan",
        "col3": "Fraser & Munro victory",
        "col4": "Unknown"
    },
    {
        "col0": "Siege of Inabayama Castle",
        "col1": "Japan",
        "col2": "Sengoku Period",
        "col3": "Oda victory",
        "col4": "13,000+"
    },
    {
        "col0": "Siege of Ichijodani Castle",
        "col1": "Echizen Province",
        "col2": "Sengoku period",
        "col3": "Oda victory; castle destroyed",
        "col4": "10000"
    },
    {
        "col0": "Siege of IJsseloord",
        "col1": "Netherlands",
        "col2": "Anglo-Spanish War",
        "col3": "Dutch-English victory",
        "col4": "3,000"
    },
    {
        "col0": "Siege of Huningen",
        "col1": "Huningen",
        "col2": "French Revolutionary Wars",
        "col3": "Austrian victory",
        "col4": "10,000"
    },
    {
        "col0": "Siege of Huy",
        "col1": "Belgium",
        "col2": "Anglo-Spanish War",
        "col3": "Spanish victory",
        "col4": "1,800"
    },
    {
        "col0": "Siege of Humaita",
        "col1": "Paraguay River",
        "col2": "Paraguayan War",
        "col3": "Allied victory",
        "col4": "2,500+ soldiers"
    },
    {
        "col0": "Siege of Hulst",
        "col1": "Hulst",
        "col2": "Eighty Years' War",
        "col3": "Dutch victory",
        "col4": "12,500 infantry"
    },
    {
        "col0": "Siege of Hulst",
        "col1": "Low Countries",
        "col2": "Eighty Years' War",
        "col3": "Spanish victory",
        "col4": "12,000 to 15,000"
    },
    {
        "col0": "Siege of Hulst",
        "col1": "Netherlands",
        "col2": "Eighty Years' War",
        "col3": "Dutch & English victory",
        "col4": "4,000 infantry"
    }
]