[
    {
        "col0": "Pool Hall Blues",
        "col1": "M. Post",
        "col2": "K. Foree",
        "col3": "Deborah Pratt"
    },
    {
        "col0": "Pilot",
        "col1": "A. Clausen",
        "col2": "J. Lien",
        "col3": "Rich Moore"
    },
    {
        "col0": "Pilgrim of Eternity",
        "col1": "Star Trek: The Original Series",
        "col2": "D. Drexler",
        "col3": "Vic Mignogna"
    },
    {
        "col0": "Old Grey Whistle Theft",
        "col1": "T. D. Comedy",
        "col2": "A. Mathews",
        "col3": "Lissa Evans"
    },
    {
        "col0": "Numb",
        "col1": "G. Rafferty",
        "col2": "M. Moses",
        "col3": "Veena Sud"
    },
    {
        "col0": "Nasty",
        "col1": "P. Brewis",
        "col2": "C. Barrie",
        "col3": "Paul Jackson"
    },
    {
        "col0": "Mr. Teddy Bear",
        "col1": "L. Johnson",
        "col2": "J. Horsley",
        "col3": "Leonard White"
    },
    {
        "col0": "Mr. Bean",
        "col1": "All Creatures of our God and King",
        "col2": "H. Goodall",
        "col3": "John Howard Davies"
    },
    {
        "col0": "Mission to Montreal",
        "col1": "L. Johnson",
        "col2": "M. Eden",
        "col3": "Leonard White"
    },
    {
        "col0": "Making Friends and Influencing People",
        "col1": "God Help the Girl",
        "col2": "M. Stojan",
        "col3": "Jed Whedon"
    },
    {
        "col0": "Madrigal",
        "col1": "D. Porter",
        "col2": "N. Weisser",
        "col3": "Bryan Cranston"
    },
    {
        "col0": "Lolani",
        "col1": "Star Trek: The Original Series",
        "col2": "L. Ferrigno",
        "col3": "Vic Mignogna"
    },
    {
        "col0": "Live Free or Die",
        "col1": "D. Porter",
        "col2": "J. Beaver",
        "col3": "Bryan Cranston"
    },
    {
        "col0": "Jamais Je Ne T'oublierai",
        "col1": "G. Welch",
        "col2": "I. Tracey",
        "col3": "Tony Gayton"
    },
    {
        "col0": "It's a SpongeBob Christmas!",
        "col1": "Don't Be A Jerk",
        "col2": "J. Goodman",
        "col3": "Paul Tibbitt"
    },
    {
        "col0": "Initiations",
        "col1": "D. McCarthy",
        "col2": "M. Barrett",
        "col3": "Wendy Neuss"
    },
    {
        "col0": "I Can't Believe It's a Clip Show",
        "col1": "A. Clausen",
        "col2": "K. Abdul-Jabbar",
        "col3": "Rich Moore"
    },
    {
        "col0": "I, Darrin, Take This Witch, Samantha",
        "col1": "W. Barker",
        "col2": "N. Kovack",
        "col3": "Danny Arnold"
    },
    {
        "col0": "Hot Snow",
        "col1": "J. Dankworth",
        "col2": "G. Quigley",
        "col3": "Leonard White"
    },
    {
        "col0": "His Last Vow",
        "col1": "D. Arnold",
        "col2": "A. Scott",
        "col3": "Sue Vertue"
    },
    {
        "col0": "Hell on Wheels",
        "col1": "R. Stanley",
        "col2": "T. Levine",
        "col3": "John Shiban"
    },
    {
        "col0": "Hell",
        "col1": "T. D. Comedy",
        "col2": "G. Norton",
        "col3": "Lissa Evans"
    },
    {
        "col0": "Hard Time",
        "col1": "D. McCarthy",
        "col2": "C. Wasson",
        "col3": "Rene Echevarria"
    },
    {
        "col0": "Girl on the Trapeze",
        "col1": "L. Johnson",
        "col2": "K. J. Warren",
        "col3": "Leonard White"
    },
    {
        "col0": "Ghosts of the Past",
        "col1": "L. Branigan",
        "col2": "M. Moses",
        "col3": "Veena Sud"
    },
    {
        "col0": "From Venus with Love",
        "col1": "L. Johnson",
        "col2": "J. Pertwee",
        "col3": "Albert Fennell"
    },
    {
        "col0": "Fairly OddBaby",
        "col1": "G. Moon",
        "col2": "B. Stein",
        "col3": "Butch Hartman"
    },
    {
        "col0": "Fairest of Them All",
        "col1": "Star Trek: The Original Series",
        "col2": "M. Dorn",
        "col3": "Vic Mignogna"
    },
    {
        "col0": "Escape in Time",
        "col1": "L. Johnson",
        "col2": "P. Bowles",
        "col3": "Albert Fennell"
    },
    {
        "col0": "End Times",
        "col1": "D. Porter",
        "col2": "L. Crawford",
        "col3": "Bryan Cranston"
    },
    {
        "col0": "Divided We Stand",
        "col1": "Star Trek: The Original Series",
        "col2": "K. Brown",
        "col3": "Vic Mignogna"
    },
    {
        "col0": "Derailed",
        "col1": "G. Welch",
        "col2": "C. Heyerdahl",
        "col3": "Tony Gayton"
    },
    {
        "col0": "Death on the Rocks",
        "col1": "L. Johnson",
        "col2": "N. Chance",
        "col3": "Leonard White"
    },
    {
        "col0": "Death of a Great Dane",
        "col1": "L. Johnson",
        "col2": "J. Laurie",
        "col3": "Leonard White"
    },
    {
        "col0": "Death Dispatch",
        "col1": "L. Johnson",
        "col2": "D. Muir",
        "col3": "Leonard White"
    },
    {
        "col0": "Death's Door",
        "col1": "L. Johnson",
        "col2": "A. Cuthbertson",
        "col3": "Albert Fennell"
    },
    {
        "col0": "Dead on Course",
        "col1": "L. Johnson",
        "col2": "D. Donnelly",
        "col3": "Leonard White"
    }
]