[
    {
        "col0": "Ausable Club",
        "col1": "Wilson Brothers & Company",
        "col2": "28327",
        "col3": "2005-07-06"
    },
    {
        "col0": "Augustine Hansell House",
        "col1": "J. Wind",
        "col2": "11735",
        "col3": "1970-06-22"
    },
    {
        "col0": "Auditorium Building",
        "col1": "L. Sullivan",
        "col2": "6289",
        "col3": "1970-04-17"
    },
    {
        "col0": "Auditorium",
        "col1": "A. W. Eager",
        "col2": "1618",
        "col3": "1983-10-13"
    },
    {
        "col0": "Auburn",
        "col1": "L. Weeks",
        "col2": "16996",
        "col3": "1974-05-30"
    },
    {
        "col0": "Atlantic Heights Development",
        "col1": "K. &. Hopkins",
        "col2": "323748",
        "col3": "2006-09-20"
    },
    {
        "col0": "Atlanta Women's Club",
        "col1": "W. T. Downing",
        "col2": "4046",
        "col3": "1979-01-31"
    },
    {
        "col0": "Atlanta Ranger Station",
        "col1": "C. C. Corps",
        "col2": "97124",
        "col3": "2003-01-23"
    },
    {
        "col0": "Atkins Park",
        "col1": "E. W. Grove",
        "col2": "109265",
        "col3": "1982-08-30"
    },
    {
        "col0": "Athenaeum",
        "col1": "V. &. Bohn",
        "col2": "4046",
        "col3": "1973-02-21"
    },
    {
        "col0": "Athens Governmental Buildings",
        "col1": "J. K. Taylor",
        "col2": "15782",
        "col3": "1979-11-29"
    },
    {
        "col0": "Athenaeum",
        "col1": "V. &. Bohn",
        "col2": "4046",
        "col3": "1973-02-21"
    },
    {
        "col0": "Atchison Village, Richmond, California",
        "col1": "J. C. Warnecke",
        "col2": "122215",
        "col3": "2003-05-30"
    },
    {
        "col0": "Atchison, Topeka and Santa Fe Passenger Depot",
        "col1": "E. A. Harrison",
        "col2": "29542",
        "col3": "1979-09-10"
    },
    {
        "col0": "Astoria Fire House No. 2",
        "col1": "E. Schacht",
        "col2": "4046",
        "col3": "1984-09-07"
    },
    {
        "col0": "Association Residence Nursing Home",
        "col1": "R. M. Hunt",
        "col2": "4046",
        "col3": "1975-02-20"
    },
    {
        "col0": "Assay Office",
        "col1": "A. B. Mullett",
        "col2": "8093",
        "col3": "1966-10-15"
    },
    {
        "col0": "Asilomar Conference Grounds",
        "col1": "J. Morgan",
        "col2": "36421",
        "col3": "1987-02-27"
    },
    {
        "col0": "Ashland Springs Hotel",
        "col1": "T. &. Hummel",
        "col2": "7689",
        "col3": "1978-03-14"
    },
    {
        "col0": "Ashland Masonic Lodge Building",
        "col1": "F. C. Clark",
        "col2": "404",
        "col3": "1992-06-04"
    },
    {
        "col0": "Ashe County Courthouse",
        "col1": "W. &. Runge",
        "col2": "4046",
        "col3": "1979-05-10"
    },
    {
        "col0": "Ash Lawn-Highland",
        "col1": "J. Monroe",
        "col2": "809371",
        "col3": "1973-08-14"
    },
    {
        "col0": "Asbury United Methodist Church",
        "col1": "R. H. Hunt",
        "col2": "4046",
        "col3": "1980-02-29"
    },
    {
        "col0": "Arthur Heurtley House",
        "col1": "F. L. Wright",
        "col2": "809",
        "col3": "2000-02-16"
    },
    {
        "col0": "Arthur Champlin Spencer and Margaret Fenton Spencer House",
        "col1": "E. F. Lawrence",
        "col2": "809",
        "col3": "1999-08-05"
    },
    {
        "col0": "Arrowmont School of Arts and Crafts",
        "col1": "A. H. Wilson",
        "col2": "20234",
        "col3": "2007-03-20"
    },
    {
        "col0": "Aroostook County Courthouse and Jail",
        "col1": "Gridley James Fox Bryant",
        "col2": "8093",
        "col3": "1990-01-26"
    },
    {
        "col0": "Arnold Arboretum",
        "col1": "F. L. Olmsted",
        "col2": "1137166",
        "col3": "1966-10-15"
    },
    {
        "col0": "Arlington House, The Robert E. Lee Memorial",
        "col1": "G. Hadfield",
        "col2": "113635",
        "col3": "1966-10-15"
    },
    {
        "col0": "Arizona State Capitol",
        "col1": "J. R. Gordon",
        "col2": "8093",
        "col3": "1974-10-29"
    },
    {
        "col0": "Argyle Flats",
        "col1": "C. &. Burrows",
        "col2": "4046",
        "col3": "1983-07-07"
    },
    {
        "col0": "Arecibo Observatory",
        "col1": "T. C. Kavanagh",
        "col2": "477529",
        "col3": "2008-09-23"
    },
    {
        "col0": "Ardmore Historic District",
        "col1": "N. &. O'Brien",
        "col2": "2428113",
        "col3": "2004-08-25"
    },
    {
        "col0": "Arden",
        "col1": "C. a. Hastings",
        "col2": "1821085",
        "col3": "1966-11-13"
    },
    {
        "col0": "Architecture of Henry K. Holsman Historic Campus District",
        "col1": "H. K. Holsman",
        "col2": "48966",
        "col3": "1983-10-31"
    },
    {
        "col0": "Arbor Lodge State Historical Park and Arboretum",
        "col1": "F. L. Olmsted",
        "col2": "291373",
        "col3": "1969-04-16"
    },
    {
        "col0": "Arapahoe Acres",
        "col1": "E. Sternberg",
        "col2": "121405",
        "col3": "1998-11-03"
    },
    {
        "col0": "Arabella Station",
        "col1": "Y. B. Co.",
        "col2": "6879",
        "col3": "1996-01-04"
    },
    {
        "col0": "Apex Union Depot",
        "col1": "Seaboard Air Line Railway",
        "col2": "404",
        "col3": "1988-12-01"
    },
    {
        "col0": "Antioch Hall, North and South Halls",
        "col1": "B. &. Ball",
        "col2": "12140",
        "col3": "1975-06-30"
    },
    {
        "col0": "Anoatok",
        "col1": "C. &. Stewardson",
        "col2": "40468",
        "col3": "1986-01-07"
    },
    {
        "col0": "Annawan Chapter House",
        "col1": "Helfensteller, Hirsch & Watson",
        "col2": "404",
        "col3": "1980-11-28"
    },
    {
        "col0": "Annamede",
        "col1": "B. &. Kluttz",
        "col2": "65154",
        "col3": "1987-03-11"
    },
    {
        "col0": "Anna P. Bolling Junior High School",
        "col1": "R. C. M.",
        "col2": "7689",
        "col3": "1998-10-30"
    },
    {
        "col0": "Anna Lewis Mann Old People's Home",
        "col1": "M. H. Whitehouse",
        "col2": "12545",
        "col3": "1992-10-15"
    },
    {
        "col0": "Ann Halsted House",
        "col1": "A. &. Sullivan",
        "col2": "1618",
        "col3": "1973-08-17"
    }
]