[
    {
        "col0": "The Voice of My City",
        "col1": "A. Rinaldi",
        "col2": "T. Demicheli",
        "col3": "T. Demicheli"
    },
    {
        "col0": "The Visitor",
        "col1": "T. McArdle",
        "col2": "T. McCarthy",
        "col3": "T. McCarthy"
    },
    {
        "col0": "The Visit",
        "col1": "S. E. Beetley",
        "col2": "B. Wicki",
        "col3": "F. Durrenmatt"
    },
    {
        "col0": "The Viscount of Monte Cristo",
        "col1": "C. Savage",
        "col2": "G. M. Solares",
        "col3": "G. M. Solares"
    },
    {
        "col0": "The Virtuous Sin",
        "col1": "O. Lovering",
        "col2": "G. Cukor",
        "col3": "L. Zilahy"
    },
    {
        "col0": "The Virtuous Husband",
        "col1": "A. Hilton",
        "col2": "V. Moore",
        "col3": "D. V. Every"
    },
    {
        "col0": "The Virginia Judge",
        "col1": "R. C. Currier",
        "col2": "E. Sedgwick",
        "col3": "F. R. Adams"
    },
    {
        "col0": "The Virgin Suicides",
        "col1": "J. Lyons",
        "col2": "S. Coppola",
        "col3": "S. Coppola"
    },
    {
        "col0": "The Virgin Spring",
        "col1": "O. Rosander",
        "col2": "I. Bergman",
        "col3": "U. Isaksson"
    },
    {
        "col0": "The Virgin Soldiers",
        "col1": "T. Connell",
        "col2": "J. Dexter",
        "col3": "I. L. Frenais"
    },
    {
        "col0": "The Virgin Queen",
        "col1": "R. L. Simpson",
        "col2": "H. Koster",
        "col3": "H. Brown"
    },
    {
        "col0": "The Violet of Potsdamer Platz",
        "col1": "W. Wischniewsky",
        "col2": "J. A. Hubler-Kahla",
        "col3": "B. E. Luthge"
    },
    {
        "col0": "The Violent Men",
        "col1": "J. Thoms",
        "col2": "R. Mate",
        "col3": "H. Kleiner"
    },
    {
        "col0": "The Village",
        "col1": "C. Tellefsen",
        "col2": "M. N. Shyamalan",
        "col3": "M. N. Shyamalan"
    },
    {
        "col0": "The Vila Family",
        "col1": "R. Quadreny",
        "col2": "I. F. Iquino",
        "col3": "I. F. Iquino"
    },
    {
        "col0": "The Vikings",
        "col1": "E. Williams",
        "col2": "R. Fleischer",
        "col3": "D. Wasserman"
    },
    {
        "col0": "The Viking",
        "col1": "A. Scotto",
        "col2": "R. W. Neill",
        "col3": "J. Cunningham"
    },
    {
        "col0": "The Vigilante",
        "col1": "E. Turner",
        "col2": "W. Fox",
        "col3": "G. H. Plympton"
    },
    {
        "col0": "The Victory of Faith",
        "col1": "L. Riefenstahl",
        "col2": "L. Riefenstahl",
        "col3": "L. Riefenstahl"
    },
    {
        "col0": "The Victors",
        "col1": "A. Osbiston",
        "col2": "C. Foreman",
        "col3": "C. Foreman"
    },
    {
        "col0": "The Vicious Years",
        "col1": "F. Allen",
        "col2": "R. Florey",
        "col3": "N. R. Nash"
    },
    {
        "col0": "The Vicious Circle",
        "col1": "John F. Link Sr.",
        "col2": "W. L. Wilder",
        "col3": "G. Endore"
    },
    {
        "col0": "The Very Merry Widows",
        "col1": "Y. Kergoat",
        "col2": "C. Corsini",
        "col3": "C. Corsini"
    },
    {
        "col0": "The Very Edge",
        "col1": "M. Benedict",
        "col2": "C. Frankel",
        "col3": "L. Bricusse"
    },
    {
        "col0": "The Vengeance of Fu Manchu",
        "col1": "A. Morrison",
        "col2": "J. Summers",
        "col3": "H. A. Towers"
    },
    {
        "col0": "The Velvet Touch",
        "col1": "R. Gross",
        "col2": "J. Gage",
        "col3": "L. Rosten"
    },
    {
        "col0": "The Vegas Strip War",
        "col1": "G. Griffin",
        "col2": "G. Englund",
        "col3": "G. Englund"
    },
    {
        "col0": "The Vault of Horror",
        "col1": "O. Hafenrichter",
        "col2": "R. W. Baker",
        "col3": "M. Subotsky"
    },
    {
        "col0": "The Vanishing Shadow",
        "col1": "A. Todd",
        "col2": "L. Landers",
        "col3": "B. Dickey"
    },
    {
        "col0": "The Vanishing Riders",
        "col1": "H. N. Todd",
        "col2": "R. F. Hill",
        "col3": "O. Drake"
    },
    {
        "col0": "The Vanishing American",
        "col1": "Richard L. Van Enger",
        "col2": "J. Kane",
        "col3": "A. L. May"
    },
    {
        "col0": "The Vanishing",
        "col1": "B. Green",
        "col2": "G. Sluizer",
        "col3": "T. Graff"
    },
    {
        "col0": "The Van",
        "col1": "M. Audsley",
        "col2": "S. Frears",
        "col3": "R. Doyle"
    },
    {
        "col0": "The Vampire Lovers",
        "col1": "J. Needs",
        "col2": "R. W. Baker",
        "col3": "T. Gates"
    },
    {
        "col0": "The Valley of Vanishing Men",
        "col1": "E. Turner",
        "col2": "S. G. Bennet",
        "col3": "H. L. Fraser"
    },
    {
        "col0": "The Valley of Decision",
        "col1": "B. Sewell",
        "col2": "T. Garnett",
        "col3": "M. Davenport"
    },
    {
        "col0": "The Vagabond Lover",
        "col1": "A. Roberts",
        "col2": "M. Neilan",
        "col3": "J. A. Creelman"
    },
    {
        "col0": "The Vagabond King",
        "col1": "A. P. Schmidt",
        "col2": "M. Curtiz",
        "col3": "B. Hooker"
    },
    {
        "col0": "The Vagabond King",
        "col1": "M. G. White",
        "col2": "L. Berger",
        "col3": "H. J. Mankiewicz"
    },
    {
        "col0": "The Vagabond",
        "col1": "C. Chaplin",
        "col2": "C. Chaplin",
        "col3": "V. Bryan"
    },
    {
        "col0": "The Vagabond",
        "col1": "C. Savage",
        "col2": "G. M. Solares",
        "col3": "R. A. Gonzalez"
    },
    {
        "col0": "The Usual Suspects",
        "col1": "J. Ottman",
        "col2": "B. Singer",
        "col3": "C. McQuarrie"
    },
    {
        "col0": "The Untouchables",
        "col1": "G. B. Greenberg",
        "col2": "B. D. Palma",
        "col3": "D. Mamet"
    },
    {
        "col0": "The Untitled Kartik Krishnan Project",
        "col1": "S. Sunderrajan",
        "col2": "S. Sunderrajan",
        "col3": "S. Sunderrajan"
    },
    {
        "col0": "The Unsuspected",
        "col1": "F. Richards",
        "col2": "M. Curtiz",
        "col3": "B. Meredyth"
    },
    {
        "col0": "The Unseen",
        "col1": "D. Harrison",
        "col2": "L. Allen",
        "col3": "R. Chandler"
    },
    {
        "col0": "The Unprecedented Defence of the Fortress Deutschkreuz",
        "col1": "W. Herzog",
        "col2": "W. Herzog",
        "col3": "W. Herzog"
    },
    {
        "col0": "The Unloved Woman",
        "col1": "G. Schoemann",
        "col2": "E. Fernandez",
        "col3": "E. Fernandez"
    },
    {
        "col0": "The Unknown Tomorrow",
        "col1": "K. Hartl",
        "col2": "A. Korda",
        "col3": "A. Korda"
    },
    {
        "col0": "The Unknown Policeman",
        "col1": "E. G. Muriel",
        "col2": "M. M. Delgado",
        "col3": "M. M. Delgado"
    },
    {
        "col0": "The Unknown Mariachi",
        "col1": "C. Savage",
        "col2": "G. M. Solares",
        "col3": "G. M. Solares"
    },
    {
        "col0": "The Unknown",
        "col1": "I. Thalberg",
        "col2": "T. Browning",
        "col3": "T. Browning"
    },
    {
        "col0": "The Unjust",
        "col1": "K. Sang-bum",
        "col2": "R. Seung-wan",
        "col3": "P. Hoon-jung"
    },
    {
        "col0": "The United States of Leland",
        "col1": "J. Betancourt",
        "col2": "M. R. Hoge",
        "col3": "M. R. Hoge"
    },
    {
        "col0": "The Uninvited",
        "col1": "C. Wagner",
        "col2": "T. G. Brothers",
        "col3": "D. Miro"
    },
    {
        "col0": "The Uninvited",
        "col1": "D. Harrison",
        "col2": "L. Allen",
        "col3": "F. Partos"
    },
    {
        "col0": "The Uninhibited",
        "col1": "J. A. Bardem",
        "col2": "J. A. Bardem",
        "col3": "J. A. Bardem"
    },
    {
        "col0": "The Unholy Wife",
        "col1": "E. Warren",
        "col2": "J. Farrow",
        "col3": "J. Latimer"
    },
    {
        "col0": "The Unholy Three",
        "col1": "F. Sullivan",
        "col2": "J. Conway",
        "col3": "E. Nugent"
    },
    {
        "col0": "The Ungrateful Heart",
        "col1": "J. Benvenuti",
        "col2": "G. Brignone",
        "col3": "G. Brignone"
    },
    {
        "col0": "The Unforgiven",
        "col1": "R. Lloyd",
        "col2": "J. Huston",
        "col3": "B. Maddow"
    },
    {
        "col0": "The Unfaithfuls",
        "col1": "R. Cinquini",
        "col2": "M. Monicelli",
        "col3": "M. Monicelli"
    },
    {
        "col0": "The Unfaithful Eckehart",
        "col1": "M. Steinborn",
        "col2": "H. Marischka",
        "col3": "H. Marischka"
    },
    {
        "col0": "The Unfaithful",
        "col1": "J. Busto",
        "col2": "A. Galindo",
        "col3": "J. Alejandro"
    },
    {
        "col0": "The Unexpected Father",
        "col1": "A. Hilton",
        "col2": "T. Freeland",
        "col3": "D. V. Every"
    },
    {
        "col0": "The Understanding Heart",
        "col1": "J. English",
        "col2": "J. Conway",
        "col3": "Edward T. Lowe, Jr."
    },
    {
        "col0": "The Underground Comedy Movie",
        "col1": "V. Offer",
        "col2": "V. Offer",
        "col3": "V. Offer"
    },
    {
        "col0": "The Undercover Woman",
        "col1": "F. Allen",
        "col2": "T. Carr",
        "col3": "S. L. Lowe"
    },
    {
        "col0": "The Undead",
        "col1": "F. Sullivan",
        "col2": "R. Corman",
        "col3": "M. Hanna"
    },
    {
        "col0": "The Unchastened Woman",
        "col1": "S. Zimbalist",
        "col2": "J. Young",
        "col3": "D. Z. Doty"
    },
    {
        "col0": "The Uncertainty Principle",
        "col1": "M. d. Oliveira",
        "col2": "M. d. Oliveira",
        "col3": "M. d. Oliveira"
    },
    {
        "col0": "The Unborn",
        "col1": "J. Betancourt",
        "col2": "D. S. Goyer",
        "col3": "D. S. Goyer"
    },
    {
        "col0": "The Unbelievable Truth",
        "col1": "H. Hartley",
        "col2": "H. Hartley",
        "col3": "H. Hartley"
    },
    {
        "col0": "The Unbearable Lightness of Being",
        "col1": "W. Murch",
        "col2": "P. Kaufman",
        "col3": "P. Kaufman"
    },
    {
        "col0": "The Unafraid",
        "col1": "C. B. DeMille",
        "col2": "C. B. DeMille",
        "col3": "C. B. DeMille"
    },
    {
        "col0": "The Ultimate Warrior",
        "col1": "M. Kahn",
        "col2": "R. Clouse",
        "col3": "R. Clouse"
    },
    {
        "col0": "The Ugly Truth",
        "col1": "L. Z. Churgin",
        "col2": "R. Luketic",
        "col3": "K. M. Lutz"
    },
    {
        "col0": "The Ugly American",
        "col1": "T. J. Kent",
        "col2": "G. Englund",
        "col3": "S. Stern"
    },
    {
        "col0": "The Tyrant of Padua",
        "col1": "E. D. Roma",
        "col2": "M. Neufeld",
        "col3": "V. Hugo"
    },
    {
        "col0": "The Two Sergeants",
        "col1": "G. Talamo",
        "col2": "E. Guazzoni",
        "col3": "N. Malasomma"
    },
    {
        "col0": "The Two Orphans",
        "col1": "O. Colangeli",
        "col2": "L. Savona",
        "col3": "A. d'Ennery"
    },
    {
        "col0": "The Two Orphans",
        "col1": "N. Lazzari",
        "col2": "C. Gallone",
        "col3": "A. d'Ennery"
    },
    {
        "col0": "The Two Mothers",
        "col1": "F. Tropea",
        "col2": "A. Palermi",
        "col3": "A. Palermi"
    },
    {
        "col0": "The Two Lives of Mattia Pascal",
        "col1": "R. Mastroianni",
        "col2": "M. Monicelli",
        "col3": "L. Pirandello"
    },
    {
        "col0": "The Two Faces of January",
        "col1": "J. Harris",
        "col2": "H. Amini",
        "col3": "H. Amini"
    },
    {
        "col0": "The Two Faces of Dr. Jekyll",
        "col1": "J. Needs",
        "col2": "T. Fisher",
        "col3": "W. Mankowitz"
    },
    {
        "col0": "The Twins",
        "col1": "P. Gok-ji",
        "col2": "P. Heung-sik",
        "col3": "P. Heung-sik"
    },
    {
        "col0": "The Twenty Questions Murder Mystery",
        "col1": "G. Thomas",
        "col2": "P. L. Stein",
        "col3": "P. Kirwan"
    },
    {
        "col0": "The Tuttles of Tahiti",
        "col1": "F. Knudtson",
        "col2": "C. Vidor",
        "col3": "J. Hilton"
    },
    {
        "col0": "The Turning Point",
        "col1": "W. H. Reynolds",
        "col2": "H. Ross",
        "col3": "A. Laurents"
    },
    {
        "col0": "The Turning Point",
        "col1": "G. Tomasini",
        "col2": "W. Dieterle",
        "col3": "W. Duff"
    },
    {
        "col0": "The Turmoil",
        "col1": "D. Mandell",
        "col2": "H. Henley",
        "col3": "B. Tarkington"
    },
    {
        "col0": "The Turin Horse",
        "col1": "A. Hranitzky",
        "col2": "B. Tarr",
        "col3": "L. Krasznahorkai"
    },
    {
        "col0": "The Tunnel Under the World",
        "col1": "L. Cozzi",
        "col2": "L. Cozzi",
        "col3": "A. Castelli"
    },
    {
        "col0": "The Tunnel",
        "col1": "E. Tedeschi",
        "col2": "C. Ledesma",
        "col3": "E. Tedeschi"
    },
    {
        "col0": "The Tunnel",
        "col1": "C. Frend",
        "col2": "M. Elvey",
        "col3": "C. Siodmak"
    },
    {
        "col0": "The Tunnel",
        "col1": "G. Madl",
        "col2": "C. Bernhardt",
        "col3": "H. Koster"
    },
    {
        "col0": "The Tunnel",
        "col1": "R. Fehr",
        "col2": "C. Bernhardt",
        "col3": "B. Kellermann"
    },
    {
        "col0": "The Tulsa Kid",
        "col1": "W. P. Thompson",
        "col2": "G. Sherman",
        "col3": "A. Coldeway"
    },
    {
        "col0": "The Truth About Spring",
        "col1": "T. Stanford",
        "col2": "R. Thorpe",
        "col3": "J. L. Barrett"
    }
]