[
    {
        "col0": "Vaaranam Aayiram",
        "col1": "Anthony",
        "col2": "G. V. Menon",
        "col3": "G. V. Menon"
    },
    {
        "col0": "Vaanam",
        "col1": "Anthony",
        "col2": "R. Jagarlamudi",
        "col3": "R. Jagarlamudi"
    },
    {
        "col0": "Vaali",
        "col1": "B. Lenin",
        "col2": "S. J. Surya",
        "col3": "S. J. Surya"
    },
    {
        "col0": "Vaadaa",
        "col1": "V. T. Vijayan",
        "col2": "A. Venkatesh",
        "col3": "A. Venkatesh"
    },
    {
        "col0": "Va savoir",
        "col1": "N. Lubtchansky",
        "col2": "J. Rivette",
        "col3": "J. Rivette"
    },
    {
        "col0": "Va",
        "col1": "Anthony",
        "col2": "Pushkar-Gayathri",
        "col3": "Pushkar-Gayathri"
    },
    {
        "col0": "V for Vendetta",
        "col1": "M. Walsh",
        "col2": "J. McTeigue",
        "col3": "T. Wachowskis"
    },
    {
        "col0": "Uzhavan",
        "col1": "K. V. Rao",
        "col2": "Kathir",
        "col3": "Kathir"
    },
    {
        "col0": "Uzak",
        "col1": "N. B. Ceylan",
        "col2": "N. B. Ceylan",
        "col3": "N. B. Ceylan"
    },
    {
        "col0": "Uyarndha Manithan",
        "col1": "Krishnan-Panju",
        "col2": "Krishnan-Panju",
        "col3": "J. Seetharaman"
    },
    {
        "col0": "Utu",
        "col1": "M. J. Horton",
        "col2": "G. Murphy",
        "col3": "G. Murphy"
    },
    {
        "col0": "Uthiripookkal",
        "col1": "B. Lenin",
        "col2": "J. Mahendran",
        "col3": "J. Mahendran"
    },
    {
        "col0": "Utah",
        "col1": "H. Keller",
        "col2": "J. English",
        "col3": "B. Burbridge"
    },
    {
        "col0": "Ustad Hotel",
        "col1": "P. Prabhakar",
        "col2": "A. Rasheed",
        "col3": "A. Menon"
    },
    {
        "col0": "Used People",
        "col1": "J. Tintori",
        "col2": "B. Kidron",
        "col3": "T. Graff"
    },
    {
        "col0": "Urumi",
        "col1": "A. S. Prasad",
        "col2": "S. Sivan",
        "col3": "S. Ramakrishnan"
    },
    {
        "col0": "Ursus in the Land of Fire",
        "col1": "F. Fraticelli",
        "col2": "G. Simonelli",
        "col3": "M. Ciorciolini"
    },
    {
        "col0": "Ursus",
        "col1": "F. Fraticelli",
        "col2": "C. Campogalliani",
        "col3": "S. Sollima"
    },
    {
        "col0": "Urchin",
        "col1": "D. Buchwald",
        "col2": "J. Harlacher",
        "col3": "J. Harlacher"
    },
    {
        "col0": "Urban Legends: Final Cut",
        "col1": "J. Ottman",
        "col2": "J. Ottman",
        "col3": "S. Derrickson"
    },
    {
        "col0": "Urban Legend",
        "col1": "J. Cassidy",
        "col2": "J. Blanks",
        "col3": "S. Horta"
    },
    {
        "col0": "Uranus",
        "col1": "H. d. Luze",
        "col2": "A. Langmann",
        "col3": "A. Langmann"
    },
    {
        "col0": "Uptown Saturday Night",
        "col1": "P. J. Herring",
        "col2": "S. Poitier",
        "col3": "R. Wesley"
    },
    {
        "col0": "Uptight",
        "col1": "R. Lawrence",
        "col2": "J. Dassin",
        "col3": "J. Dassin"
    },
    {
        "col0": "Upstairs and Downstairs",
        "col1": "A. Roome",
        "col2": "R. Thomas",
        "col3": "F. Harvey"
    },
    {
        "col0": "Upstage",
        "col1": "F. Sullivan",
        "col2": "M. Bell",
        "col3": "L. Moon"
    },
    {
        "col0": "Upside",
        "col1": "K. Horstmann",
        "col2": "K. Horstmann",
        "col3": "K. Horstmann"
    },
    {
        "col0": "Uproar in Damascus",
        "col1": "G. Hinz-Nischwitz",
        "col2": "G. Ucicky",
        "col3": "J. Geis"
    },
    {
        "col0": "Upper World",
        "col1": "O. Marks",
        "col2": "R. D. Ruth",
        "col3": "B. Hecht"
    },
    {
        "col0": "Up the Sandbox",
        "col1": "R. Lawrence",
        "col2": "I. Kershner",
        "col3": "P. Zindel"
    },
    {
        "col0": "Up the MacGregors!",
        "col1": "N. Baragli",
        "col2": "F. Giraldi",
        "col3": "F. Giraldi"
    },
    {
        "col0": "Up the Down Staircase",
        "col1": "F. Blangsted",
        "col2": "R. Mulligan",
        "col3": "B. Kaufman"
    },
    {
        "col0": "Up the Creek",
        "col1": "B. Butler",
        "col2": "R. Butler",
        "col3": "J. Kouf"
    },
    {
        "col0": "Up the Academy",
        "col1": "B. Molin",
        "col2": "R. D. Sr.",
        "col3": "J. Tarses"
    },
    {
        "col0": "Up in the Air",
        "col1": "D. E. Glauberman",
        "col2": "J. Reitman",
        "col3": "S. Turner"
    },
    {
        "col0": "Up in Central Park",
        "col1": "O. Ludwig",
        "col2": "W. A. Seiter",
        "col3": "K. Tunberg"
    },
    {
        "col0": "Up for the Derby",
        "col1": "C. H. Williamson",
        "col2": "M. Rogers",
        "col3": "B. Lee"
    },
    {
        "col0": "Up for Murder",
        "col1": "T. J. Kent",
        "col2": "M. Bell",
        "col3": "M. Bell"
    },
    {
        "col0": "Up for Love",
        "col1": "V. Deseine",
        "col2": "L. Tirard",
        "col3": "L. Tirard"
    },
    {
        "col0": "Up Goes Maisie",
        "col1": "C. Warburton",
        "col2": "H. Beaumont",
        "col3": "W. Collison"
    },
    {
        "col0": "Up, Down, Fragile",
        "col1": "N. Lubtchansky",
        "col2": "J. Rivette",
        "col3": "J. Rivette"
    },
    {
        "col0": "Up!",
        "col1": "R. Meyer",
        "col2": "R. Meyer",
        "col3": "R. Ebert"
    },
    {
        "col0": "Unvanquished City",
        "col1": "J. Niedzwiecka",
        "col2": "J. Zarzycki",
        "col3": "C. Milosz"
    },
    {
        "col0": "Untitled Darren Aronofsky project",
        "col1": "A. Weisblum",
        "col2": "D. Aronofsky",
        "col3": "D. Aronofsky"
    },
    {
        "col0": "Untitled AR Murugadoss film",
        "col1": "A. S. Prasad",
        "col2": "A. R. Murugadoss",
        "col3": "A. R. Murugadoss"
    },
    {
        "col0": "Until the End of the World",
        "col1": "P. Przygodda",
        "col2": "W. Wenders",
        "col3": "W. Wenders"
    },
    {
        "col0": "Until They Sail",
        "col1": "H. F. Kress",
        "col2": "R. Wise",
        "col3": "R. W. Anderson"
    },
    {
        "col0": "Untamed Heiress",
        "col1": "A. Roberts",
        "col2": "C. Lamont",
        "col3": "B. Shipman"
    },
    {
        "col0": "Untamed",
        "col1": "B. McLean",
        "col2": "H. King",
        "col3": "M. Blankfort"
    },
    {
        "col0": "Untamed",
        "col1": "W. S. Gray",
        "col2": "J. Conway",
        "col3": "F. Butler"
    },
    {
        "col0": "Unstrung Heroes",
        "col1": "L. Z. Churgin",
        "col2": "D. Keaton",
        "col3": "R. LaGravenese"
    },
    {
        "col0": "Unstoppable",
        "col1": "C. Lebenzon",
        "col2": "T. Scott",
        "col3": "M. Bomback"
    },
    {
        "col0": "Unspoken",
        "col1": "L. Troch",
        "col2": "F. Troch",
        "col3": "F. Troch"
    },
    {
        "col0": "Unnudan",
        "col1": "B. Lenin",
        "col2": "R. Balu",
        "col3": "R. Balu"
    },
    {
        "col0": "Unnatural & Accidental",
        "col1": "J. Clarke",
        "col2": "C. Bessai",
        "col3": "M. Clements"
    },
    {
        "col0": "Unnaruge Naan Irundhal",
        "col1": "S. Urs",
        "col2": "Selva",
        "col3": "Selva"
    },
    {
        "col0": "Unnale Unnale",
        "col1": "V. T. Vijayan",
        "col2": "Jeeva",
        "col3": "Jeeva"
    },
    {
        "col0": "Unmasked",
        "col1": "R. M. Leeds",
        "col2": "G. Blair",
        "col3": "A. DeMond"
    },
    {
        "col0": "Unmarried",
        "col1": "S. Gilmore",
        "col2": "K. Neumann",
        "col3": "G. Jones"
    },
    {
        "col0": "Unknown World",
        "col1": "T. O. Morse",
        "col2": "T. O. Morse",
        "col3": "M. Kaufman"
    },
    {
        "col0": "Unknown Path",
        "col1": "M. d. Ochoa",
        "col2": "Jose Antonio Nieves Conde",
        "col3": "Jose Antonio Nieves Conde"
    },
    {
        "col0": "Unknown Men of San Marino",
        "col1": "M. Serandrei",
        "col2": "M. Waszynski",
        "col3": "C. Zavattini"
    },
    {
        "col0": "Unjustified Absence",
        "col1": "M. Rosada",
        "col2": "M. Neufeld",
        "col3": "M. Neufeld"
    },
    {
        "col0": "Universe",
        "col1": "T. Daly",
        "col2": "R. Kroitor",
        "col3": "R. Kroitor"
    },
    {
        "col0": "Universal Soldier: Regeneration",
        "col1": "J. Hyams",
        "col2": "J. Hyams",
        "col3": "V. Ostrovsky"
    },
    {
        "col0": "Unity",
        "col1": "S. Monson",
        "col2": "S. Monson",
        "col3": "S. Monson"
    },
    {
        "col0": "United Red Army",
        "col1": "T. Seyama",
        "col2": "K. Wakamatsu",
        "col3": "K. Wakamatsu"
    },
    {
        "col0": "United 93",
        "col1": "C. Rouse",
        "col2": "P. Greengrass",
        "col3": "P. Greengrass"
    },
    {
        "col0": "Union Station",
        "col1": "E. Hoagland",
        "col2": "R. Mate",
        "col3": "S. Boehm"
    },
    {
        "col0": "Union Pacific",
        "col1": "A. Bauchens",
        "col2": "C. B. DeMille",
        "col3": "W. DeLeon"
    },
    {
        "col0": "Uninhabited",
        "col1": "J. Ballantine",
        "col2": "B. Bennett",
        "col3": "B. Bennett"
    },
    {
        "col0": "Unholy Partners",
        "col1": "H. F. Kress",
        "col2": "M. LeRoy",
        "col3": "B. Cormack"
    }
]