[
    {
        "col0": "La Prevoyante",
        "col1": "Tom Fool",
        "col2": "Nearctic",
        "col3": "J. Levesque"
    },
    {
        "col0": "La Lorgnette",
        "col1": "Val de Loir",
        "col2": "Nijinsky II",
        "col3": "E. P. Taylor"
    },
    {
        "col0": "L'Enjoleur",
        "col1": "Tom Fool",
        "col2": "Northern Dancer",
        "col3": "J. Levesque"
    },
    {
        "col0": "L'Alezane",
        "col1": "Rough'n Tumble",
        "col2": "Northern Dancer",
        "col3": "E. P. Taylor"
    },
    {
        "col0": "Kotashaan",
        "col1": "Shirley Heights",
        "col2": "Elocutionist",
        "col3": "W. e. Frere"
    },
    {
        "col0": "Kostroma",
        "col1": "Nijinsky II",
        "col2": "Busted",
        "col3": "T. Stack"
    },
    {
        "col0": "Kitten's Joy",
        "col1": "Sadler's Wells",
        "col2": "Lear Fan",
        "col3": "Kenneth L. and Sarah K. Ramsey"
    },
    {
        "col0": "Kissing Cousin",
        "col1": "Danzig",
        "col2": "Kris",
        "col3": "S. Mohammed"
    },
    {
        "col0": "Kissin' George",
        "col1": "Nasrullah",
        "col2": "Head Play",
        "col3": "B. Millerick"
    },
    {
        "col0": "Kiss Me Kate",
        "col1": "Reigh Count",
        "col2": "Pharamond II",
        "col3": "W. M. Jeffords"
    },
    {
        "col0": "Kingsway",
        "col1": "Phalaris",
        "col2": "Ksar",
        "col3": "Marmaduke Furness, 1st Viscount Furness"
    },
    {
        "col0": "Kingfisher",
        "col1": "Boston",
        "col2": "Kingston",
        "col3": "R. A. Alexander"
    },
    {
        "col0": "Kingarvie",
        "col1": "Bull Dog",
        "col2": "Bachelor's Double",
        "col3": "S. McLaughlin"
    },
    {
        "col0": "Kind",
        "col1": "Danzig",
        "col2": "Rainbow Quest",
        "col3": "J. Farms"
    },
    {
        "col0": "Key to the Mint",
        "col1": "Ribot",
        "col2": "Princequillo",
        "col3": "P. Mellon"
    },
    {
        "col0": "Key Change",
        "col1": "Shirley Heights",
        "col2": "The Minstrel",
        "col3": "A. K. IV"
    },
    {
        "col0": "Kentucky Gold",
        "col1": "Native Dancer",
        "col2": "Nashua",
        "col3": "L. C. II"
    },
    {
        "col0": "Kentucky",
        "col1": "Boston",
        "col2": "Glencoe I",
        "col3": "J. M. Clay"
    },
    {
        "col0": "Kendal",
        "col1": "Doncaster",
        "col2": "Macaroni",
        "col3": "Hugh Grosvenor, 1st Duke of Westminster"
    },
    {
        "col0": "Kelso",
        "col1": "Alibhai",
        "col2": "Count Fleet",
        "col3": "A. d. Pont"
    },
    {
        "col0": "Karshi",
        "col1": "Bold Lad",
        "col2": "Shirley Heights",
        "col3": "Samuel Vestey, 3rd Baron Vestey"
    },
    {
        "col0": "Karakontie",
        "col1": "Storm Cat",
        "col2": "Sunday Silence",
        "col3": "F. Holdings"
    },
    {
        "col0": "Kahyasi",
        "col1": "Nijinsky II",
        "col2": "Blushing Groom",
        "col3": "A. K. IV"
    },
    {
        "col0": "Jupiter Island",
        "col1": "Aureole",
        "col2": "Reform",
        "col3": "Robin Russell, 14th Duke of Bedford"
    },
    {
        "col0": "Judy the Beauty",
        "col1": "Awesome Again",
        "col2": "Holy Bull",
        "col3": "A. Springs"
    },
    {
        "col0": "Johren",
        "col1": "Carbine",
        "col2": "Meddler",
        "col3": "H. P. Whitney"
    },
    {
        "col0": "John F Kennedy",
        "col1": "Sadlers Wells",
        "col2": "Danehill",
        "col3": "S. Niarchos"
    },
    {
        "col0": "John Bull",
        "col1": "Herod",
        "col2": "Eclipse",
        "col3": "Richard Grosvenor, 1st Earl Grosvenor"
    },
    {
        "col0": "Johar",
        "col1": "Mr. Prospector",
        "col2": "Lear Fan",
        "col3": "T. T. Corp."
    },
    {
        "col0": "Joe Daniels",
        "col1": "West Australian",
        "col2": "Glencoe I",
        "col3": "W. Stud"
    },
    {
        "col0": "Jim French",
        "col1": "Ribot",
        "col2": "Tom Fool",
        "col3": "R. Wilson"
    },
    {
        "col0": "Jet Pilot",
        "col1": "Blandford",
        "col2": "Sir Gallahad III",
        "col3": "A. B. Hancock"
    },
    {
        "col0": "Jest",
        "col1": "Amphion",
        "col2": "Melton",
        "col3": "J. B. Joel"
    },
    {
        "col0": "Jazil",
        "col1": "Mr. Prospector",
        "col2": "Deputy Minister",
        "col3": "S. G. Stables"
    },
    {
        "col0": "Java Gold",
        "col1": "Graustark",
        "col2": "Nijinsky II",
        "col3": "P. Mellon"
    },
    {
        "col0": "Jannette",
        "col1": "Newminster",
        "col2": "Stockwell",
        "col3": "Evelyn Boscawen, 6th Viscount Falmouth"
    },
    {
        "col0": "Jalil",
        "col1": "Storm Bird",
        "col2": "Rahy",
        "col3": "M. J. Wygod"
    },
    {
        "col0": "Jaipur",
        "col1": "Nearco",
        "col2": "Eight Thirty",
        "col3": "E. Farm"
    },
    {
        "col0": "Jacola",
        "col1": "Sansovino",
        "col2": "Sir Gallahad III",
        "col3": "A. B. Hancock"
    },
    {
        "col0": "Jacinth",
        "col1": "Nasrullah",
        "col2": "Right Royal",
        "col3": "W. Hill"
    },
    {
        "col0": "Izvestia",
        "col1": "Nearctic",
        "col2": "Personality",
        "col3": "K. Farms"
    },
    {
        "col0": "Ivanjica",
        "col1": "Sir Gaylord",
        "col2": "Vieux Manoir",
        "col3": "J. Wertheimer"
    },
    {
        "col0": "Islington",
        "col1": "Northern Dancer",
        "col2": "Darshaan",
        "col3": "B. Stud"
    },
    {
        "col0": "Iron Liege",
        "col1": "Bull Dog",
        "col2": "War Admiral",
        "col3": "C. Farm"
    },
    {
        "col0": "Intercontinental",
        "col1": "Danzig",
        "col2": "Kahyasi",
        "col3": "J. Farms"
    },
    {
        "col0": "Intentionally",
        "col1": "War Relic",
        "col2": "Discovery",
        "col3": "H. Z. Isaacs"
    },
    {
        "col0": "Intense Focus",
        "col1": "Storm Cat",
        "col2": "Danehill",
        "col3": "T. C. Farm"
    },
    {
        "col0": "Intello",
        "col1": "Sadler's Wells",
        "col2": "Danehill",
        "col3": "W. e. Frere"
    },
    {
        "col0": "Integral",
        "col1": "Darshaan",
        "col2": "Danehill",
        "col3": "C. P. Stud"
    },
    {
        "col0": "Inside Information",
        "col1": "Damascus",
        "col2": "Key to the Mint",
        "col3": "O. M. Phipps"
    },
    {
        "col0": "Indian Skimmer",
        "col1": "Northern Dancer",
        "col2": "Vaguely Noble",
        "col3": "A. Stud"
    },
    {
        "col0": "Indian Ink",
        "col1": "Ahonoora",
        "col2": "Darshaan",
        "col3": "K. C. Dunsany"
    },
    {
        "col0": "In the Wings",
        "col1": "Northern Dancer",
        "col2": "Shirley Heights",
        "col3": "Mohammed bin Rashid Al Maktoum"
    },
    {
        "col0": "Ice Water",
        "col1": "Nearco",
        "col2": "Count Fleet",
        "col3": "G. Farms"
    },
    {
        "col0": "Ibn Khaldun",
        "col1": "Kingmambo",
        "col2": "Sadler's Wells",
        "col3": "D. Stud"
    },
    {
        "col0": "Ibn Bey",
        "col1": "Never Bend",
        "col2": "High Top",
        "col3": "Henry Herbert, 7th Earl of Carnarvon"
    },
    {
        "col0": "Hycilla",
        "col1": "Gainsborough",
        "col2": "Omar Khayyam",
        "col3": "W. W. Sr."
    },
    {
        "col0": "Hot Snap",
        "col1": "Polar Falcon",
        "col2": "Kingmambo",
        "col3": "J. Farms"
    },
    {
        "col0": "Hooray",
        "col1": "Green Desert",
        "col2": "Machiavellian",
        "col3": "C. P. Stud"
    },
    {
        "col0": "Honour and Glory",
        "col1": "In Reality",
        "col2": "Al Nasr",
        "col3": "O. Farm"
    },
    {
        "col0": "Honeymoon",
        "col1": "Son-in-Law",
        "col2": "Chance Shot",
        "col3": "L. B. Mayer"
    },
    {
        "col0": "Homing",
        "col1": "Sir Gaylord",
        "col2": "St. Paddy",
        "col3": "L. Rotherwick"
    },
    {
        "col0": "Holiday",
        "col1": "Ben Brush",
        "col2": "Meddler",
        "col3": "H. P. Whitney"
    },
    {
        "col0": "Hoist The Flag",
        "col1": "Ribot",
        "col2": "War Admiral",
        "col3": "J. M. Schiff"
    },
    {
        "col0": "His Majesty",
        "col1": "Tenerani",
        "col2": "Alibhai",
        "col3": "J. W. Galbreath"
    },
    {
        "col0": "Hill Prince",
        "col1": "Prince Rose",
        "col2": "Bubbling Over",
        "col3": "C. Chenery"
    },
    {
        "col0": "Hill Gail",
        "col1": "Bull Dog",
        "col2": "Blenheim II",
        "col3": "C. Farm"
    },
    {
        "col0": "High Voltage",
        "col1": "Tourbillon",
        "col2": "Menow",
        "col3": "W. Stable"
    },
    {
        "col0": "High Quest",
        "col1": "Teddy",
        "col2": "Fair Play",
        "col3": "M. F. III"
    },
    {
        "col0": "Hi Jinx",
        "col1": "Royal Charger",
        "col2": "Foxbridge",
        "col3": "T. Stud"
    },
    {
        "col0": "Hernando",
        "col1": "Nijinsky",
        "col2": "Miswaki",
        "col3": "S. Niarchos"
    },
    {
        "col0": "Heliopolis",
        "col1": "Gainsborough",
        "col2": "Swynford",
        "col3": "Edward Stanley, 17th Earl of Derby"
    },
    {
        "col0": "Hector Protector",
        "col1": "Mr. Prospector",
        "col2": "Riverman",
        "col3": "S. Niarchos"
    },
    {
        "col0": "Harzand",
        "col1": "Cape Cross",
        "col2": "Xaar",
        "col3": "A. K. IV"
    },
    {
        "col0": "Harlem Rocker",
        "col1": "Holy Bull",
        "col2": "Lit de Justice",
        "col3": "A. Springs"
    },
    {
        "col0": "Harbour Law",
        "col1": "Invincible Spirit",
        "col2": "Pivotal",
        "col3": "A. Oppenheimer"
    },
    {
        "col0": "Harayir",
        "col1": "Mr. Prospector",
        "col2": "Shareef Dancer",
        "col3": "S. Racing"
    },
    {
        "col0": "Hampton",
        "col1": "Newminster",
        "col2": "Kettledrum",
        "col3": "Montagu Bertie, 6th Earl of Abingdon"
    },
    {
        "col0": "Haafhd",
        "col1": "Unfuwain",
        "col2": "Blushing Groom",
        "col3": "S. Stud"
    },
    {
        "col0": "Gun Bow",
        "col1": "Hyperion",
        "col2": "War Admiral",
        "col3": "M. C. Farm"
    },
    {
        "col0": "Grey Lag",
        "col1": "Isinglass",
        "col2": "Meddler",
        "col3": "J. E. Madden"
    },
    {
        "col0": "Grey Classic",
        "col1": "Herbager",
        "col2": "Nodouble",
        "col3": "S. Farm"
    },
    {
        "col0": "Greinton",
        "col1": "Nijinsky II",
        "col2": "High Top",
        "col3": "S. Niarchos"
    },
    {
        "col0": "Green Dancer",
        "col1": "Northern Dancer",
        "col2": "Val de Loir",
        "col3": "P. Wertheimer"
    },
    {
        "col0": "Grecian Queen",
        "col1": "Hyperion",
        "col2": "Questionnaire",
        "col3": "B. F. Whitaker"
    },
    {
        "col0": "Graustark",
        "col1": "Tenerani",
        "col2": "Alibhai",
        "col3": "J. W. Galbreath"
    },
    {
        "col0": "Grand Parade",
        "col1": "Orme",
        "col2": "Desmond",
        "col3": "R. Croker"
    },
    {
        "col0": "Grand Lodge",
        "col1": "Danzig",
        "col2": "Habitat",
        "col3": "John Scott-Ellis, 9th Baron Howard de Walden"
    },
    {
        "col0": "Goldikova",
        "col1": "Danzig",
        "col2": "Blushing Groom",
        "col3": "W. e. Frere"
    },
    {
        "col0": "Goldfinder",
        "col1": "Snip",
        "col2": "Blank",
        "col3": "John St Leger Douglas"
    },
    {
        "col0": "Golden Opinion",
        "col1": "Seattle Slew",
        "col2": "Mr Prospector",
        "col3": "D. Stud"
    },
    {
        "col0": "Golden Attraction",
        "col1": "Raise a Native",
        "col2": "Seattle Slew",
        "col3": "O. Farm"
    },
    {
        "col0": "Gold Splash",
        "col1": "Red God",
        "col2": "Lyphard",
        "col3": "W. e. Frere"
    },
    {
        "col0": "Gold Heels",
        "col1": "Longfellow",
        "col2": "Glenelg",
        "col3": "A. Cassatt"
    },
    {
        "col0": "Golan",
        "col1": "Rainbow Quest",
        "col2": "Generous",
        "col3": "B. Stud"
    },
    {
        "col0": "Gohanna",
        "col1": "Eclipse",
        "col2": "Herod",
        "col3": "George Wyndham, 3rd Earl of Egremont"
    },
    {
        "col0": "Godiva",
        "col1": "Gainsborough",
        "col2": "Phalaris",
        "col3": "E. Harmsworth"
    },
    {
        "col0": "Go and Go",
        "col1": "Northern Dancer",
        "col2": "Alleged",
        "col3": "W. Haefner"
    },
    {
        "col0": "Glorious Song",
        "col1": "Hail To Reason",
        "col2": "Herbager",
        "col3": "E. P. Taylor"
    },
    {
        "col0": "Glint of Gold",
        "col1": "Never Bend",
        "col2": "Graustark",
        "col3": "P. Mellon"
    },
    {
        "col0": "Ginevra",
        "col1": "Sicambre",
        "col2": "Crepello",
        "col3": "Michael Howard, 21st Earl of Suffolk"
    },
    {
        "col0": "Giant's Causeway",
        "col1": "Storm Bird",
        "col2": "Rahy",
        "col3": "C. Stud"
    },
    {
        "col0": "Ghostzapper",
        "col1": "Deputy Minister",
        "col2": "Relaunch",
        "col3": "A. S. Farms"
    },
    {
        "col0": "Ghanaati",
        "col1": "Storm Cat",
        "col2": "Mr. Prospector",
        "col3": "S. Racing"
    },
    {
        "col0": "Gay Gallanta",
        "col1": "Mr. Prospector",
        "col2": "Nureyev",
        "col3": "F. Holdings"
    },
    {
        "col0": "Gamely",
        "col1": "Nasrullah",
        "col2": "My Babu",
        "col3": "C. Farm"
    }
]