[
    {
        "col0": "F. Ortiz",
        "col1": "Mexico",
        "col2": "1908-10-10",
        "col3": "1975-09-09"
    },
    {
        "col0": "F. LaBarba",
        "col1": "New York City",
        "col2": "1905-09-29",
        "col3": "1981-10-02"
    },
    {
        "col0": "F. Nagy",
        "col1": "Cegled",
        "col2": "1916-10-27",
        "col3": "1977-05-11"
    },
    {
        "col0": "F. Toole",
        "col1": "Long Beach, California",
        "col2": "1930-7-30",
        "col3": "2002-9-2"
    },
    {
        "col0": "E. Charles",
        "col1": "Lawrenceville, Georgia",
        "col2": "1921-07-07",
        "col3": "1975-05-28"
    },
    {
        "col0": "E. Seepere",
        "col1": "Estonia",
        "col2": "1911-05-04",
        "col3": "1990-02-22"
    },
    {
        "col0": "E. Criqui",
        "col1": "France",
        "col2": "1893-08-15",
        "col3": "1977-07-07"
    },
    {
        "col0": "E. d. Jesus",
        "col1": "Carolina, Puerto Rico",
        "col2": "1951-08-02",
        "col3": "1989-05-12"
    },
    {
        "col0": "E. Gallard",
        "col1": "Cuba",
        "col2": "1901-01-11",
        "col3": "1929-10-07"
    },
    {
        "col0": "E. Pistulla",
        "col1": "Goslar",
        "col2": "1906-11-28",
        "col3": "1944-9-14"
    },
    {
        "col0": "E. Terrell",
        "col1": "Belzoni, Mississippi",
        "col2": "1939-04-04",
        "col3": "2014-12-16"
    },
    {
        "col0": "E. Schaaf",
        "col1": "Elizabeth, New Jersey",
        "col2": "1908-09-27",
        "col3": "1933-02-14"
    },
    {
        "col0": "E. Roderick",
        "col1": "Liverpool",
        "col2": "1914-01-25",
        "col3": "1986-06-07"
    },
    {
        "col0": "E. Rice",
        "col1": "Kingston upon Hull",
        "col2": "1896-11-17",
        "col3": "1979-0-0"
    },
    {
        "col0": "E. Lopez",
        "col1": "Fort Duchesne, Utah",
        "col2": "1945-9-23",
        "col3": "2009-10-03"
    },
    {
        "col0": "E. Field",
        "col1": "Wakefield",
        "col2": "1943-02-06",
        "col3": "2013-05-02"
    },
    {
        "col0": "E. Formenti",
        "col1": "Seregno",
        "col2": "1927-8-2",
        "col3": "1989-10-5"
    },
    {
        "col0": "E. Toussaint",
        "col1": "Rumelange",
        "col2": "1908-3-8",
        "col3": "1942-8-31"
    },
    {
        "col0": "E. Peirce",
        "col1": "Somerset West",
        "col2": "1909-9-25",
        "col3": "1998-1-23"
    },
    {
        "col0": "E. Spalla",
        "col1": "Italy",
        "col2": "1897-07-07",
        "col3": "1971-08-14"
    },
    {
        "col0": "E. Nilsen",
        "col1": "Moss, Norway",
        "col2": "1910-12-30",
        "col3": "1984-4-23"
    },
    {
        "col0": "E. Pakkanen",
        "col1": "Elimaki",
        "col2": "1930-04-19",
        "col3": "1973-04-23"
    },
    {
        "col0": "E. Agren",
        "col1": "Sweden",
        "col2": "1916-01-03",
        "col3": "1985-07-03"
    },
    {
        "col0": "E. Campe",
        "col1": "Heinersdorf",
        "col2": "1912-2-1",
        "col3": "1977-5-5"
    },
    {
        "col0": "E. Boon",
        "col1": "Cambridgeshire",
        "col2": "1919-12-28",
        "col3": "1981-01-19"
    },
    {
        "col0": "E. Regueiferos",
        "col1": "Havana",
        "col2": "1948-7-15",
        "col3": "2002-6-20"
    },
    {
        "col0": "E. Griffith",
        "col1": "Saint Thomas, U.S. Virgin Islands",
        "col2": "1938-02-03",
        "col3": "2013-07-23"
    },
    {
        "col0": "E. Schulz",
        "col1": "Kaiserslautern",
        "col2": "1938-05-25",
        "col3": "2010-03-22"
    },
    {
        "col0": "E. Steward",
        "col1": "Bottom Creek, West Virginia",
        "col2": "1944-07-07",
        "col3": "2012-10-25"
    },
    {
        "col0": "E. Alvarez",
        "col1": "Colombia",
        "col2": "1965-02-02",
        "col3": "1995-07-16"
    },
    {
        "col0": "E. Yero",
        "col1": "Havana",
        "col2": "1965-1-26",
        "col3": "2001-10-13"
    },
    {
        "col0": "E. Alvarez",
        "col1": "Colombia",
        "col2": "1965-02-02",
        "col3": "1995-07-16"
    },
    {
        "col0": "E. Ray",
        "col1": "Hastings, Florida",
        "col2": "1911-03-03",
        "col3": "1987-05-20"
    },
    {
        "col0": "E. Bennett",
        "col1": "Pialba, Queensland",
        "col2": "1924-04-03",
        "col3": "1981-08-31"
    },
    {
        "col0": "E. Clark",
        "col1": "Bridgeton, Glasgow",
        "col2": "1898-01-04",
        "col3": "1956-09-22"
    },
    {
        "col0": "E. Mercedes",
        "col1": "La Romana, Dominican Republic",
        "col2": "1957-9-12",
        "col3": "1985-12-22"
    },
    {
        "col0": "E. Torres",
        "col1": "Jalisco",
        "col2": "1943-11-29",
        "col3": "2010-2-25"
    },
    {
        "col0": "E. Valero",
        "col1": "Merida",
        "col2": "1981-12-03",
        "col3": "2010-04-19"
    },
    {
        "col0": "E. Rosario",
        "col1": "Toa Baja, Puerto Rico",
        "col2": "1963-03-15",
        "col3": "1997-12-01"
    },
    {
        "col0": "E. Rollins",
        "col1": "British Guiana",
        "col2": "1852-01-01",
        "col3": "1939-02-01"
    },
    {
        "col0": "E. Flynn",
        "col1": "New Orleans",
        "col2": "1909-10-25",
        "col3": "1976-02-07"
    },
    {
        "col0": "E. Zakharov",
        "col1": "Ukhta",
        "col2": "1975-1-10",
        "col3": "1997-5-13"
    },
    {
        "col0": "E. Garzena",
        "col1": "Turin",
        "col2": "1900-5-4",
        "col3": "1984-5-26"
    },
    {
        "col0": "E. Basel",
        "col1": "Mannheim",
        "col2": "1930-11-1",
        "col3": "1977-9-7"
    },
    {
        "col0": "E. Rodriguez",
        "col1": "Italy",
        "col2": "1911-06-26",
        "col3": "1962-02-22"
    },
    {
        "col0": "E. Thomas",
        "col1": "Wales",
        "col2": "1926-07-27",
        "col3": "1997-06-02"
    },
    {
        "col0": "E. Santry",
        "col1": "Aurora, Illinois",
        "col2": "1876-12-11",
        "col3": "1919-01-28"
    },
    {
        "col0": "E. Phillips",
        "col1": "England",
        "col2": "1911-11-09",
        "col3": "1995-03-02"
    },
    {
        "col0": "E. Perkins",
        "col1": "Clarksdale, Mississippi",
        "col2": "1937-3-3",
        "col3": "2012-5-10"
    },
    {
        "col0": "E. McGoorty",
        "col1": "Eureka, Winnebago County, Wisconsin",
        "col2": "1889-07-31",
        "col3": "1929-11-02"
    },
    {
        "col0": "E. Machen",
        "col1": "Redding, California",
        "col2": "1932-06-15",
        "col3": "1972-08-08"
    },
    {
        "col0": "E. Connolly",
        "col1": "Saint John, New Brunswick",
        "col2": "1876-11-18",
        "col3": "1936-01-01"
    },
    {
        "col0": "E. Campagnuolo",
        "col1": "New Haven, Connecticut",
        "col2": "1927-01-04",
        "col3": "1998-01-03"
    },
    {
        "col0": "E. Blay",
        "col1": "Ghana",
        "col2": "1937-11-09",
        "col3": "2006-10-15"
    },
    {
        "col0": "E. B. Risko",
        "col1": "Syracuse, New York",
        "col2": "1911-7-14",
        "col3": "1957-3-7"
    },
    {
        "col0": "E. Sanders",
        "col1": "Los Angeles",
        "col2": "1930-03-24",
        "col3": "1954-12-12"
    },
    {
        "col0": "E. Dagge",
        "col1": "Probsteierhagen",
        "col2": "1948-2-27",
        "col3": "2006-4-4"
    },
    {
        "col0": "D. Loi",
        "col1": "Trieste",
        "col2": "1929-04-29",
        "col3": "2008-01-20"
    },
    {
        "col0": "D. Thomas",
        "col1": "Detroit",
        "col2": "1961-02-01",
        "col3": "2000-6-13"
    },
    {
        "col0": "D. Rodriguez",
        "col1": "Havana",
        "col2": "1950-06-03",
        "col3": "2012-05-21"
    },
    {
        "col0": "D. Lewis",
        "col1": "Toronto",
        "col2": "1900-6-18",
        "col3": "1981-2-19"
    },
    {
        "col0": "D. Scott",
        "col1": "Derby",
        "col2": "1928-7-23",
        "col3": "2013-2-13"
    },
    {
        "col0": "D. Jordan",
        "col1": "Los Angeles",
        "col2": "1934-06-22",
        "col3": "1997-02-13"
    },
    {
        "col0": "D. Fullmer",
        "col1": "West Jordan, Utah",
        "col2": "1939-02-21",
        "col3": "2012-01-28"
    },
    {
        "col0": "D. Cockell",
        "col1": "London Borough of Wandsworth",
        "col2": "1928-09-22",
        "col3": "1983-07-18"
    },
    {
        "col0": "D. McCaffrey",
        "col1": "Pittsburgh, Pennsylvania",
        "col2": "1863-09-24",
        "col3": "1926-12-29"
    },
    {
        "col0": "D. Kid",
        "col1": "Fulton, Missouri",
        "col2": "1883-12-23",
        "col3": "1934-04-06"
    },
    {
        "col0": "D. Brown",
        "col1": "Saint Lucia",
        "col2": "1900-06-27",
        "col3": "1957-04-20"
    },
    {
        "col0": "D. Stanley",
        "col1": "England",
        "col2": "1876-02-28",
        "col3": "1919-03-07"
    },
    {
        "col0": "D. Corrales",
        "col1": "Columbia, South Carolina",
        "col2": "1977-08-25",
        "col3": "2007-05-07"
    },
    {
        "col0": "D. Turpin",
        "col1": "England",
        "col2": "1920-11-26",
        "col3": "1990-07-07"
    },
    {
        "col0": "D. Tiger",
        "col1": "Nigeria",
        "col2": "1929-08-14",
        "col3": "1971-12-14"
    },
    {
        "col0": "D. Smith",
        "col1": "Woolwich",
        "col2": "1886-02-10",
        "col3": "1950-01-08"
    },
    {
        "col0": "D. Richardson",
        "col1": "Monmouthshire",
        "col2": "1934-06-01",
        "col3": "1999-07-15"
    },
    {
        "col0": "D. Corbett",
        "col1": "Bethnal Green, London",
        "col2": "1908-09-28",
        "col3": "1943-03-03"
    },
    {
        "col0": "D. Rea",
        "col1": "Belfast",
        "col2": "1944-01-08",
        "col3": "2016-07-21"
    },
    {
        "col0": "D. Moyer",
        "col1": "Portland, Oregon",
        "col2": "1939-08-08",
        "col3": "2010-06-30"
    },
    {
        "col0": "D. Shepherd",
        "col1": "Johannesburg",
        "col2": "1926-10-11",
        "col3": "2006-06-12"
    },
    {
        "col0": "D. Powell",
        "col1": "Wales",
        "col2": "1924-12-12",
        "col3": "1993-05-27"
    },
    {
        "col0": "D. Adams",
        "col1": "Johannesburg",
        "col2": "1934-12-26",
        "col3": "1971-01-14"
    },
    {
        "col0": "D. Fontaine",
        "col1": "Canada",
        "col2": "1904-02-22",
        "col3": "1935-10-29"
    },
    {
        "col0": "D. Carstens",
        "col1": "South Africa",
        "col2": "1914-9-0",
        "col3": "1955-8-6"
    },
    {
        "col0": "D. Moore",
        "col1": "Bronx, New York",
        "col2": "1959-06-09",
        "col3": "1988-06-01"
    },
    {
        "col0": "D. Moore",
        "col1": "Lexington, Kentucky",
        "col2": "1933-11-01",
        "col3": "1963-03-25"
    },
    {
        "col0": "D. Sullivan",
        "col1": "County Cork",
        "col2": "1877-05-10",
        "col3": "1929-0-0"
    },
    {
        "col0": "D. Shade",
        "col1": "Vallejo, California",
        "col2": "1902-03-01",
        "col3": "1983-06-23"
    },
    {
        "col0": "D. Sands",
        "col1": "New South Wales",
        "col2": "1926-02-04",
        "col3": "1952-08-11"
    },
    {
        "col0": "D. Rosenberg",
        "col1": "New York City",
        "col2": "1901-1-1",
        "col3": "1979-1-1"
    },
    {
        "col0": "D. Palitz",
        "col1": "Bridgeport, Connecticut",
        "col2": "1891-01-01",
        "col3": "1940-11-17"
    },
    {
        "col0": "D. Needham",
        "col1": "England",
        "col2": "1951-08-15",
        "col3": "2008-09-19"
    },
    {
        "col0": "D. Charnley",
        "col1": "Dartford",
        "col2": "1935-10-10",
        "col3": "2012-03-03"
    },
    {
        "col0": "D. Sutherland",
        "col1": "Dublin",
        "col2": "1982-04-18",
        "col3": "2009-09-14"
    },
    {
        "col0": "D. Brown",
        "col1": "Sydney",
        "col2": "1929-04-24",
        "col3": "1988-10-31"
    },
    {
        "col0": "D. Needham",
        "col1": "St. Paul, Minnesota",
        "col2": "1867-05-20",
        "col3": "1922-09-12"
    },
    {
        "col0": "D. Nardico",
        "col1": "United States",
        "col2": "1925-09-19",
        "col3": "2010-11-22"
    },
    {
        "col0": "D. Mendoza",
        "col1": "London",
        "col2": "1764-07-05",
        "col3": "1836-09-03"
    },
    {
        "col0": "D. Bekker",
        "col1": "Dordrecht, Eastern Cape",
        "col2": "1932-02-09",
        "col3": "2009-10-22"
    },
    {
        "col0": "D. Aguillon",
        "col1": "Mexico",
        "col2": "1984-08-11",
        "col3": "2008-10-18"
    },
    {
        "col0": "D. Pozniakas",
        "col1": "Poland",
        "col2": "1939-10-19",
        "col3": "2005-02-04"
    },
    {
        "col0": "D. Donnelly",
        "col1": "Dublin",
        "col2": "1788-3-0",
        "col3": "1820-02-18"
    },
    {
        "col0": "D. S. John",
        "col1": "Wales",
        "col2": "1871-04-01",
        "col3": "1899-11-23"
    },
    {
        "col0": "D. Dower",
        "col1": "Abercynon",
        "col2": "1933-06-20",
        "col3": "2016-08-01"
    },
    {
        "col0": "D. Marino",
        "col1": "Honolulu",
        "col2": "1915-10-15",
        "col3": "1989-10-28"
    },
    {
        "col0": "C. Delannoit",
        "col1": "Geraardsbergen",
        "col2": "1926-3-13",
        "col3": "1998-2-11"
    },
    {
        "col0": "C. Taylor",
        "col1": "Wales",
        "col2": "1909-12-11",
        "col3": "1977-11-15"
    },
    {
        "col0": "C. Walker",
        "col1": "Lambeth",
        "col2": "1894-02-04",
        "col3": "1973-0-0"
    },
    {
        "col0": "C. Sanders",
        "col1": "Pretoria",
        "col2": "1966-01-07",
        "col3": "2012-09-23"
    },
    {
        "col0": "C. Griffin",
        "col1": "Florida",
        "col2": "1911-07-24",
        "col3": "1973-01-09"
    },
    {
        "col0": "C. O'Kelly",
        "col1": "County Cork",
        "col2": "1886-10-29",
        "col3": "1947-11-03"
    },
    {
        "col0": "C. Curvis",
        "col1": "Wales",
        "col2": "1927-11-19",
        "col3": "2009-04-22"
    },
    {
        "col0": "C. Williams",
        "col1": "Griffin, Georgia",
        "col2": "1933-06-06",
        "col3": "1999-09-03"
    },
    {
        "col0": "C. Sanchez",
        "col1": "Monterrey",
        "col2": "1947-07-09",
        "col3": "1978-12-25"
    },
    {
        "col0": "C. Kenny",
        "col1": "Ottawa",
        "col2": "1928-12-21",
        "col3": "2015-6-29"
    },
    {
        "col0": "C. Barrientos",
        "col1": "Osorno, Chile",
        "col2": "1936-11-10",
        "col3": "1982-5-7"
    },
    {
        "col0": "C. Walker",
        "col1": "Port Elizabeth",
        "col2": "1898-12-13",
        "col3": "1957-04-30"
    },
    {
        "col0": "C. Newton",
        "col1": "Toronto",
        "col2": "1899-2-3",
        "col3": "1979-10-23"
    },
    {
        "col0": "C. Henry",
        "col1": "San Antonio, Texas",
        "col2": "1895-6-24",
        "col3": "1999-02-28"
    },
    {
        "col0": "C. Castillo",
        "col1": "Mexico",
        "col2": "1944-06-17",
        "col3": "2013-01-15"
    },
    {
        "col0": "C. Battalino",
        "col1": "Hartford, Connecticut",
        "col2": "1908-02-18",
        "col3": "1977-07-15"
    },
    {
        "col0": "C. Graham",
        "col1": "Toronto",
        "col2": "1900-3-18",
        "col3": "1986-5-24"
    },
    {
        "col0": "C. Finnegan",
        "col1": "Buckinghamshire",
        "col2": "1944-06-05",
        "col3": "2009-03-02"
    },
    {
        "col0": "C. Yo-sam",
        "col1": "Jeongeup",
        "col2": "1972-03-01",
        "col3": "2008-01-03"
    },
    {
        "col0": "C. Calderwood",
        "col1": "Scotland",
        "col2": "1937-09-01",
        "col3": "1966-11-12"
    },
    {
        "col0": "C. Hamia",
        "col1": "Algeria",
        "col2": "1931-03-23",
        "col3": "1991-06-24"
    },
    {
        "col0": "C. Chiteule",
        "col1": "Zambia",
        "col2": "1953-10-10",
        "col3": "2008-05-06"
    },
    {
        "col0": "C. Weir",
        "col1": "South Africa",
        "col2": "1956-11-19",
        "col3": "1992-0-0"
    },
    {
        "col0": "C. Pilkington",
        "col1": "New York City",
        "col2": "1897-09-22",
        "col3": "1974-05-20"
    },
    {
        "col0": "C. P. Rosenberg",
        "col1": "New York City",
        "col2": "1902-08-15",
        "col3": "1976-03-12"
    },
    {
        "col0": "C. Hardcastle",
        "col1": "Yorkshire",
        "col2": "1894-0-0",
        "col3": "1960-0-0"
    },
    {
        "col0": "C. Zivic",
        "col1": "Pittsburgh",
        "col2": "1925-01-31",
        "col3": "1984-11-27"
    },
    {
        "col0": "C. White",
        "col1": "England",
        "col2": "1891-03-25",
        "col3": "1959-07-24"
    },
    {
        "col0": "C. Fusari",
        "col1": "Sicily",
        "col2": "1924-08-20",
        "col3": "1985-11-04"
    },
    {
        "col0": "C. Burley",
        "col1": "Pittsburgh",
        "col2": "1917-09-06",
        "col3": "1992-10-16"
    },
    {
        "col0": "C. Belanger",
        "col1": "Winnipeg",
        "col2": "1901-01-01",
        "col3": "1970-01-20"
    },
    {
        "col0": "C. P. Davey",
        "col1": "Michigan",
        "col2": "1925-05-03",
        "col3": "2002-12-04"
    },
    {
        "col0": "C. Ledoux",
        "col1": "Nievre",
        "col2": "1892-10-27",
        "col3": "1967-05-21"
    },
    {
        "col0": "C. Catterall",
        "col1": "Harare",
        "col2": "1914-10-16",
        "col3": "1966-11-1"
    },
    {
        "col0": "C. C. Smith",
        "col1": "Macon, Georgia",
        "col2": "1860-05-03",
        "col3": "1924-10-01"
    },
    {
        "col0": "C. Adkins",
        "col1": "Gary, Indiana",
        "col2": "1932-4-27",
        "col3": "1993-7-8"
    },
    {
        "col0": "C. Wright",
        "col1": "Willcox, Arizona",
        "col2": "1912-02-01",
        "col3": "1957-08-12"
    },
    {
        "col0": "C. Garcia",
        "col1": "Manila",
        "col2": "1906-08-26",
        "col3": "1981-01-01"
    },
    {
        "col0": "C. Basilio",
        "col1": "Canastota, New York",
        "col2": "1927-04-02",
        "col3": "2012-11-07"
    },
    {
        "col0": "C. Barth",
        "col1": "Cleveland",
        "col2": "1912-9-13",
        "col3": "1985-9-17"
    },
    {
        "col0": "C. Robledo",
        "col1": "Buenos Aires",
        "col2": "1912-7-13",
        "col3": "1982-0-0"
    },
    {
        "col0": "C. Bossi",
        "col1": "Milan",
        "col2": "1939-10-15",
        "col3": "2014-03-23"
    },
    {
        "col0": "C. M. Hernandez",
        "col1": "Caracas",
        "col2": "1940-4-21",
        "col3": "2016-7-2"
    },
    {
        "col0": "C. Monzon",
        "col1": "Argentina",
        "col2": "1942-08-07",
        "col3": "1995-01-08"
    },
    {
        "col0": "C. Cruz",
        "col1": "Dominican Republic",
        "col2": "1937-11-24",
        "col3": "1970-02-15"
    },
    {
        "col0": "C. Saraudi",
        "col1": "Civitavecchia",
        "col2": "1899-02-04",
        "col3": "1973-1-1"
    },
    {
        "col0": "C. Orlandi",
        "col1": "Milan",
        "col2": "1910-04-23",
        "col3": "1983-07-29"
    },
    {
        "col0": "C. Cavagnoli",
        "col1": "Milan",
        "col2": "1907-1-21",
        "col3": "1991-1-1"
    },
    {
        "col0": "C. Williams",
        "col1": "United States",
        "col2": "1959-11-11",
        "col3": "2013-04-07"
    },
    {
        "col0": "C. Thompson",
        "col1": "Manchester",
        "col2": "1964-05-26",
        "col3": "2015-6-21"
    },
    {
        "col0": "C. Duane",
        "col1": "New York, New York",
        "col2": "1902-06-25",
        "col3": "1984-06-01"
    },
    {
        "col0": "C. Baldwin",
        "col1": "Westminster",
        "col2": "1769-4-22",
        "col3": "1827-11-8"
    },
    {
        "col0": "B. Mathis",
        "col1": "Sledge, Mississippi",
        "col2": "1943-06-11",
        "col3": "1995-09-06"
    },
    {
        "col0": "B. Graham",
        "col1": "Calabria",
        "col2": "1905-06-08",
        "col3": "1982-04-13"
    },
    {
        "col0": "B. Baer",
        "col1": "Denver",
        "col2": "1915-06-11",
        "col3": "1986-07-18"
    },
    {
        "col0": "B. Taylor",
        "col1": "Terre Haute, Indiana",
        "col2": "1903-07-22",
        "col3": "1962-03-06"
    },
    {
        "col0": "B. Bendig",
        "col1": "Chelmno",
        "col2": "1938-10-06",
        "col3": "2006-09-15"
    },
    {
        "col0": "B. Visintin",
        "col1": "La Spezia",
        "col2": "1932-11-23",
        "col3": "2015-1-11"
    },
    {
        "col0": "B. Ahlberg",
        "col1": "Espoo",
        "col2": "1911-04-23",
        "col3": "1966-02-09"
    },
    {
        "col0": "B. Woodcock",
        "col1": "Doncaster",
        "col2": "1921-01-18",
        "col3": "1997-12-21"
    },
    {
        "col0": "B. Wells",
        "col1": "Middlesex",
        "col2": "1933-07-07",
        "col3": "2009-11-14"
    },
    {
        "col0": "B. Curvis",
        "col1": "Wales",
        "col2": "1937-08-14",
        "col3": "2012-01-09"
    },
    {
        "col0": "B. Smith",
        "col1": "Toowoomba",
        "col2": "1991-4-22",
        "col3": "2015-3-16"
    },
    {
        "col0": "B. Murphy",
        "col1": "Palmerston North",
        "col2": "1924-02-26",
        "col3": "2000-11-09"
    },
    {
        "col0": "B. Tishin",
        "col1": "Moscow",
        "col2": "1929-1-2",
        "col3": "1980-8-28"
    },
    {
        "col0": "B. Kuznetsov",
        "col1": "Soviet Union",
        "col2": "1947-02-23",
        "col3": "2006-05-03"
    },
    {
        "col0": "B. B. Wells",
        "col1": "England",
        "col2": "1887-8-31",
        "col3": "1967-06-12"
    },
    {
        "col0": "B. Nemecek",
        "col1": "Tabor",
        "col2": "1938-01-02",
        "col3": "2010-05-02"
    },
    {
        "col0": "B. Olson",
        "col1": "Honolulu",
        "col2": "1928-07-11",
        "col3": "2002-01-16"
    },
    {
        "col0": "B. Pacho",
        "col1": "Yuma, Arizona",
        "col2": "1911-08-01",
        "col3": "1978-05-01"
    },
    {
        "col0": "B. Halpern",
        "col1": "New York",
        "col2": "1933-04-25",
        "col3": "2015-02-08"
    },
    {
        "col0": "B. Chacon",
        "col1": "Pacoima, Los Angeles",
        "col2": "1951-11-28",
        "col3": "2016-09-07"
    },
    {
        "col0": "B. Beaton",
        "col1": "Port Hood, Nova Scotia",
        "col2": "1912-06-19",
        "col3": "2007-06-11"
    },
    {
        "col0": "B. Satterfield",
        "col1": "St. Louis",
        "col2": "1923-11-9",
        "col3": "1977-6-1"
    },
    {
        "col0": "B. Pastor",
        "col1": "New York, New York",
        "col2": "1914-01-26",
        "col3": "1996-01-26"
    },
    {
        "col0": "B. Olin",
        "col1": "New York City",
        "col2": "1908-7-4",
        "col3": "1956-12-16"
    },
    {
        "col0": "B. Montgomery",
        "col1": "United States",
        "col2": "1919-02-10",
        "col3": "1988-8-25"
    },
    {
        "col0": "B. Moha",
        "col1": "Milwaukee",
        "col2": "1890-6-6",
        "col3": "1959-8-4"
    },
    {
        "col0": "B. Goslin",
        "col1": "New Zealand",
        "col2": "1927-10-09",
        "col3": "1988-1-1"
    },
    {
        "col0": "B. Godwin",
        "col1": "Moultrie, Georgia",
        "col2": "1911-5-5",
        "col3": "1980-1-1"
    },
    {
        "col0": "B. Foster",
        "col1": "Albuquerque, New Mexico",
        "col2": "1938-12-15",
        "col3": "2015-11-21"
    },
    {
        "col0": "B. Fitzsimmons",
        "col1": "Helston",
        "col2": "1863-05-26",
        "col3": "1917-10-22"
    },
    {
        "col0": "B. Dunlop",
        "col1": "Ivanhoe, Victoria",
        "col2": "1945-05-24",
        "col3": "2000-1-1"
    },
    {
        "col0": "B. Baker",
        "col1": "Canonsburg, Pennsylvania",
        "col2": "1926-10-26",
        "col3": "2002-04-23"
    },
    {
        "col0": "B. Armstrong",
        "col1": "Rogersville, Tennessee",
        "col2": "1873-09-04",
        "col3": "1933-01-05"
    },
    {
        "col0": "B. Ward",
        "col1": "Bundaberg",
        "col2": "1993-07-16",
        "col3": "2013-08-04"
    },
    {
        "col0": "B. Thompson",
        "col1": "Sunderland, Tyne and Wear",
        "col2": "1923-10-20",
        "col3": "2009-01-04"
    },
    {
        "col0": "B. Soose",
        "col1": "Farrell, Pennsylvania",
        "col2": "1915-08-02",
        "col3": "1998-09-05"
    },
    {
        "col0": "B. Petrolle",
        "col1": "Pennsylvania",
        "col2": "1905-01-10",
        "col3": "1983-05-14"
    }
]