[
    {
        "col0": "1995 Newsweek Champions Cup and the State Farm Evert Cup",
        "col1": "M. J. Fernandez",
        "col2": "L. Davenport",
        "col3": "L. Davenport"
    },
    {
        "col0": "1994 Newsweek Champions Cup and the Evert Cup",
        "col1": "S. Graf",
        "col2": "L. Davenport",
        "col3": "L. Davenport"
    },
    {
        "col0": "1994 Canadian Open",
        "col1": "A. S. Vicario",
        "col2": "A. S. Vicario",
        "col3": "B. Black"
    },
    {
        "col0": "1993 Newsweek Champions Cup and the Matrix Essentials Evert Cup",
        "col1": "M. J. Fernandez",
        "col2": "R. Stubbs",
        "col3": "J. Courier"
    },
    {
        "col0": "1992 Newsweek Champions Cup and the Matrix Essentials Evert Cup",
        "col1": "M. Seles",
        "col2": "C. Kohde-Kilsch",
        "col3": "M. Chang"
    },
    {
        "col0": "1991 Newsweek Champions Cup and the Virginia Slims of Palm Springs",
        "col1": "M. Navratilova",
        "col2": "J. Courier",
        "col3": "J. Courier"
    },
    {
        "col0": "1991 French Open",
        "col1": "M. Seles",
        "col2": "J. Novotna",
        "col3": "H. Sukova"
    },
    {
        "col0": "1990 Newsweek Champions Cup and the Virginia Slims of Indian Wells",
        "col1": "M. Navratilova",
        "col2": "B. Becker",
        "col3": "H. Sukova"
    },
    {
        "col0": "1990 Holden NSW Open",
        "col1": "N. Zvereva",
        "col2": "J. Novotna",
        "col3": "J. Novotna"
    },
    {
        "col0": "1989 Newsweek Champions Cup and the Virginia Slims of Indian Wells",
        "col1": "M. Maleeva",
        "col2": "B. Becker",
        "col3": "B. Becker"
    },
    {
        "col0": "1989 Hall of Fame Tennis Championships and the Virginia Slims of Newport",
        "col1": "Z. Garrison",
        "col2": "G. Fernandez",
        "col3": "G. Fernandez"
    },
    {
        "col0": "1988 Hall of Fame Tennis Championships and the Virginia Slims of Newport",
        "col1": "L. McNeil",
        "col2": "P. Lundgren",
        "col3": "P. Lundgren"
    },
    {
        "col0": "1980 Stockholm Open",
        "col1": "H. Mandlikova",
        "col2": "V. Ruzici",
        "col3": "B. Borg"
    },
    {
        "col0": "1978 German Open",
        "col1": "M. JauA!ovec",
        "col2": "T. Okker",
        "col3": "G. Vilas"
    },
    {
        "col0": "1977 German Open",
        "col1": "L. duPont",
        "col2": "K. Meiler",
        "col3": "K. Meiler"
    },
    {
        "col0": "1976 German Open",
        "col1": "S. Barker",
        "col2": "I. Kloss",
        "col3": "S. Barker"
    },
    {
        "col0": "1975 Grand Prix German Open",
        "col1": "R. Tomanova",
        "col2": "M. Orantes",
        "col3": "M. Orantes"
    },
    {
        "col0": "1974 German Open",
        "col1": "H. Masthoff",
        "col2": "J. Fassbender",
        "col3": "H. Masthoff"
    },
    {
        "col0": "1972 Grand Prix German Open",
        "col1": "H. Masthoff",
        "col2": "I. Nastase",
        "col3": "M. Orantes"
    },
    {
        "col0": "1971 Grand Prix German Open",
        "col1": "B. J. King",
        "col2": "B. J. King",
        "col3": "B. J. King"
    },
    {
        "col0": "1969 German Open Championships",
        "col1": "J. Tegart",
        "col2": "T. Okker",
        "col3": "T. Okker"
    },
    {
        "col0": "1968 German Open Championships",
        "col1": "A. V. Zyl",
        "col2": "F. McMillan",
        "col3": "F. McMillan"
    }
]