[
    {
        "col0": "The Bank of Tokyo-Mitsubishi UFJ",
        "col1": "UnionBanCal Corporation",
        "col2": "213900000000",
        "col3": "1919-08-25"
    },
    {
        "col0": "Sumitomo Mitsui Banking Corporation",
        "col1": "Nikko Cordial",
        "col2": "421180",
        "col3": "1996-06-06"
    },
    {
        "col0": "Santander UK",
        "col1": "Cater Allen",
        "col2": "962000000",
        "col3": "2010-01-11"
    },
    {
        "col0": "Nomura Holdings",
        "col1": "Nomura Securities Co., Ltd.",
        "col2": "28661000000",
        "col3": "1925-12-25"
    },
    {
        "col0": "Nomura Group",
        "col1": "Nomura Securities Co., Ltd.",
        "col2": "28661",
        "col3": "1925-12-25"
    },
    {
        "col0": "Maybank",
        "col1": "Maybank",
        "col2": "6840000000",
        "col3": "1960-05-31"
    },
    {
        "col0": "Life Insurance Corporation",
        "col1": "LIC Housing Finance",
        "col2": "9257000000",
        "col3": "1956-09-01"
    },
    {
        "col0": "Komercijalna banka",
        "col1": "Komercijalna banka Budva",
        "col2": "38920000",
        "col3": "2001-10-25"
    },
    {
        "col0": "International Bank of Azerbaijan",
        "col1": "IBA-Moscow",
        "col2": "67000000",
        "col3": "1992-01-10"
    }
]