[
    {
        "col0": "White-tailed hawk",
        "col1": "Accipitridae",
        "col2": "LC",
        "col3": "IUCN3.1"
    },
    {
        "col0": "White-tailed goldenthroat",
        "col1": "Trochilidae",
        "col2": "LC",
        "col3": "IUCN3.1"
    },
    {
        "col0": "White-tailed flycatcher",
        "col1": "Muscicapidae",
        "col2": "LC",
        "col3": "IUCN3.1"
    },
    {
        "col0": "White-tailed emerald",
        "col1": "Trochilidae",
        "col2": "LC",
        "col3": "IUCN3.1"
    },
    {
        "col0": "White-tailed eagle",
        "col1": "Accipitridae",
        "col2": "LC",
        "col3": "IUCN3.1"
    },
    {
        "col0": "White-tailed dunnart",
        "col1": "Dasyuridae",
        "col2": "LC",
        "col3": "iucn3.1"
    },
    {
        "col0": "White-tailed crested flycatcher",
        "col1": "Stenostiridae",
        "col2": "LC",
        "col3": "IUCN3.1"
    },
    {
        "col0": "White-tailed cotinga",
        "col1": "Cotingidae",
        "col2": "NT",
        "col3": "IUCN3.1"
    },
    {
        "col0": "White-tailed blue flycatcher",
        "col1": "Stenostiridae",
        "col2": "LC",
        "col3": "IUCN3.1"
    },
    {
        "col0": "White-tailed antsangy",
        "col1": "Nesomyidae",
        "col2": "LC",
        "col3": "IUCN3.1"
    },
    {
        "col0": "White-tailed antelope squirrel",
        "col1": "Sciuridae",
        "col2": "LC",
        "col3": "iucn3.1"
    },
    {
        "col0": "White-tailed ant thrush",
        "col1": "Turdidae",
        "col2": "LC",
        "col3": "IUCN3.1"
    },
    {
        "col0": "White-tailed alethe",
        "col1": "Muscicapidae",
        "col2": "LC",
        "col3": "IUCN3.1"
    },
    {
        "col0": "White-striped woodcreeper",
        "col1": "Furnariidae",
        "col2": "LC",
        "col3": "IUCN3.1"
    },
    {
        "col0": "White-striped warbler",
        "col1": "Parulidae",
        "col2": "LC",
        "col3": "IUCN3.1"
    },
    {
        "col0": "White-striped free-tailed bat",
        "col1": "Molossidae",
        "col2": "LC",
        "col3": "iucn"
    },
    {
        "col0": "White-striped forest rail",
        "col1": "Rallidae",
        "col2": "NT",
        "col3": "IUCN3.1"
    },
    {
        "col0": "White-striped dorcopsis",
        "col1": "Macropodidae",
        "col2": "LC",
        "col3": "iucn3.1"
    },
    {
        "col0": "White-streaked honeyeater",
        "col1": "Meliphagidae",
        "col2": "LC",
        "col3": "IUCN3.1"
    },
    {
        "col0": "White-streaked friarbird",
        "col1": "Meliphagidae",
        "col2": "LC",
        "col3": "IUCN3.1"
    },
    {
        "col0": "White-streaked antvireo",
        "col1": "Thamnophilidae",
        "col2": "VU",
        "col3": "IUCN3.1"
    },
    {
        "col0": "White-starred robin",
        "col1": "Muscicapidae",
        "col2": "LC",
        "col3": "IUCN3.1"
    },
    {
        "col0": "White-spotted woodpecker",
        "col1": "Picidae",
        "col2": "LC",
        "col3": "IUCN3.1"
    },
    {
        "col0": "White-spotted wattle-eye",
        "col1": "Platysteiridae",
        "col2": "LC",
        "col3": "IUCN3.1"
    },
    {
        "col0": "White-spotted tree frog",
        "col1": "Hylidae",
        "col2": "LC",
        "col3": "IUCN3.1"
    },
    {
        "col0": "White-spotted slimy salamander",
        "col1": "Plethodontidae",
        "col2": "LC",
        "col3": "IUCN3.1"
    },
    {
        "col0": "White-spotted salamander",
        "col1": "Plethodontidae",
        "col2": "NT",
        "col3": "IUCN3.1"
    },
    {
        "col0": "White-spotted guitarfish",
        "col1": "Rhinobatidae",
        "col2": "VU",
        "col3": "iucn3.1"
    },
    {
        "col0": "White-spotted flufftail",
        "col1": "Sarothruridae",
        "col2": "LC",
        "col3": "IUCN3.1"
    },
    {
        "col0": "White-spotted fantail",
        "col1": "Rhipiduridae",
        "col2": "NR",
        "col3": "IUCN3.1"
    },
    {
        "col0": "White-spotted Izak",
        "col1": "Catshark",
        "col2": "EN",
        "col3": "IUCN3.1"
    },
    {
        "col0": "White-spined Atlantic spiny rat",
        "col1": "Echimyidae",
        "col2": "LC",
        "col3": "iucn3.1"
    },
    {
        "col0": "White-spectacled warbler",
        "col1": "Phylloscopidae",
        "col2": "LC",
        "col3": "IUCN3.1"
    },
    {
        "col0": "White-spectacled bulbul",
        "col1": "Bulbul",
        "col2": "LC",
        "col3": "IUCN3.1"
    },
    {
        "col0": "White-speckled laughingthrush",
        "col1": "Leiothrichidae",
        "col2": "VU",
        "col3": "IUCN3.1"
    },
    {
        "col0": "White-sided jackrabbit",
        "col1": "Leporidae",
        "col2": "NT",
        "col3": "IUCN"
    },
    {
        "col0": "White-sided hillstar",
        "col1": "Trochilidae",
        "col2": "LC",
        "col3": "IUCN3.1"
    },
    {
        "col0": "White-sided flowerpiercer",
        "col1": "Thraupidae",
        "col2": "LC",
        "col3": "IUCN3.1"
    },
    {
        "col0": "White-shouldered triller",
        "col1": "Campephagidae",
        "col2": "LC",
        "col3": "IUCN3.1"
    },
    {
        "col0": "White-shouldered tanager",
        "col1": "Thraupidae",
        "col2": "LC",
        "col3": "IUCN3.1"
    },
    {
        "col0": "White-shouldered starling",
        "col1": "Sturnidae",
        "col2": "LC",
        "col3": "IUCN3.1"
    },
    {
        "col0": "White-shouldered ibis",
        "col1": "Threskiornithidae",
        "col2": "CR",
        "col3": "IUCN3.1"
    },
    {
        "col0": "White-shouldered fire-eye",
        "col1": "Thamnophilidae",
        "col2": "LC",
        "col3": "IUCN3.1"
    },
    {
        "col0": "White-shouldered fairywren",
        "col1": "Maluridae",
        "col2": "LC",
        "col3": "IUCN3.1"
    },
    {
        "col0": "White-shouldered black tit",
        "col1": "Tit",
        "col2": "NR",
        "col3": "IUCN3.1"
    },
    {
        "col0": "White-shouldered antshrike",
        "col1": "Thamnophilidae",
        "col2": "LC",
        "col3": "IUCN3.1"
    },
    {
        "col0": "White-shouldered antbird",
        "col1": "Thamnophilidae",
        "col2": "LC",
        "col3": "IUCN3.1"
    },
    {
        "col0": "White-rumped woodpecker",
        "col1": "Picidae",
        "col2": "EN",
        "col3": "IUCN3.1"
    },
    {
        "col0": "White-rumped vulture",
        "col1": "Accipitridae",
        "col2": "CR",
        "col3": "IUCN3.1"
    },
    {
        "col0": "White-rumped triller",
        "col1": "Campephagidae",
        "col2": "LC",
        "col3": "IUCN3.1"
    },
    {
        "col0": "White-rumped tanager",
        "col1": "Thraupidae",
        "col2": "LC",
        "col3": "IUCN3.1"
    },
    {
        "col0": "White-rumped swiftlet",
        "col1": "Apodidae",
        "col2": "LC",
        "col3": "IUCN3.1"
    },
    {
        "col0": "White-rumped swift",
        "col1": "Apodidae",
        "col2": "LC",
        "col3": "IUCN3.1"
    },
    {
        "col0": "White-rumped swallow",
        "col1": "Swallow",
        "col2": "LC",
        "col3": "IUCN3.1"
    },
    {
        "col0": "White-rumped spinetail",
        "col1": "Apodidae",
        "col2": "LC",
        "col3": "IUCN3.1"
    },
    {
        "col0": "White-rumped snowfinch",
        "col1": "Sparrow",
        "col2": "LC",
        "col3": "IUCN3.1"
    },
    {
        "col0": "White-rumped sirystes",
        "col1": "Tyrannidae",
        "col2": "NR",
        "col3": "IUCN3.1"
    },
    {
        "col0": "White-rumped shama",
        "col1": "Muscicapidae",
        "col2": "LC",
        "col3": "IUCN3.1"
    },
    {
        "col0": "White-rumped seedeater",
        "col1": "Carduelinae",
        "col2": "LC",
        "col3": "IUCN3.1"
    },
    {
        "col0": "White-rumped sandpiper",
        "col1": "Scolopacidae",
        "col2": "LC",
        "col3": "IUCN3.1"
    },
    {
        "col0": "White-rumped robin",
        "col1": "Petroicidae",
        "col2": "LC",
        "col3": "IUCN3.1"
    },
    {
        "col0": "White-rumped munia",
        "col1": "Estrildidae",
        "col2": "LC",
        "col3": "IUCN3.1"
    },
    {
        "col0": "White-rumped monjita",
        "col1": "Tyrannidae",
        "col2": "LC",
        "col3": "IUCN3.1"
    },
    {
        "col0": "White-rumped hawk",
        "col1": "Accipitridae",
        "col2": "LC",
        "col3": "IUCN3.1"
    },
    {
        "col0": "White-rumped falcon",
        "col1": "Falconidae",
        "col2": "NT",
        "col3": "IUCN3.1"
    },
    {
        "col0": "White-rumped cuckooshrike",
        "col1": "Campephagidae",
        "col2": "LC",
        "col3": "IUCN3.1"
    },
    {
        "col0": "White-rumped babbler",
        "col1": "Leiothrichidae",
        "col2": "LC",
        "col3": "IUCN3.1"
    },
    {
        "col0": "White-ruffed manakin",
        "col1": "Manakin",
        "col2": "LC",
        "col3": "IUCN3.1"
    },
    {
        "col0": "White-ringed flycatcher",
        "col1": "Tyrannidae",
        "col2": "LC",
        "col3": "IUCN3.1"
    },
    {
        "col0": "White-rimmed warbler",
        "col1": "Parulidae",
        "col2": "LC",
        "col3": "iucn3.1"
    },
    {
        "col0": "White-rimmed brush finch",
        "col1": "Emberizidae",
        "col2": "LC",
        "col3": "IUCN3.1"
    },
    {
        "col0": "White-quilled rock pigeon",
        "col1": "Columbidae",
        "col2": "LC",
        "col3": "IUCN3.1"
    },
    {
        "col0": "White-plumed honeyeater",
        "col1": "Meliphagidae",
        "col2": "LC",
        "col3": "IUCN3.1"
    },
    {
        "col0": "White-plumed antbird",
        "col1": "Thamnophilidae",
        "col2": "LC",
        "col3": "IUCN3.1"
    },
    {
        "col0": "White-nosed saki",
        "col1": "Pitheciidae",
        "col2": "EN",
        "col3": "iucn3.1"
    },
    {
        "col0": "White-nosed coati",
        "col1": "Procyonidae",
        "col2": "LC",
        "col3": "IUCN3.1"
    },
    {
        "col0": "White-necklaced partridge",
        "col1": "Perdicinae",
        "col2": "NT",
        "col3": "IUCN3.1"
    },
    {
        "col0": "White-necked thrush",
        "col1": "Turdidae",
        "col2": "LC",
        "col3": "IUCN3.1"
    },
    {
        "col0": "White-necked rockfowl",
        "col1": "Picathartidae",
        "col2": "VU",
        "col3": "IUCN3.1"
    },
    {
        "col0": "White-necked raven",
        "col1": "Corvidae",
        "col2": "LC",
        "col3": "IUCN3.1"
    },
    {
        "col0": "White-necked puffbird",
        "col1": "Bucconidae",
        "col2": "LC",
        "col3": "IUCN3.1"
    },
    {
        "col0": "White-necked petrel",
        "col1": "Procellariidae",
        "col2": "VU",
        "col3": "IUCN3.1"
    },
    {
        "col0": "White-necked myna",
        "col1": "Sturnidae",
        "col2": "LC",
        "col3": "IUCN3.1"
    },
    {
        "col0": "White-necked laughingthrush",
        "col1": "Leiothrichidae",
        "col2": "LC",
        "col3": "IUCN3.1"
    },
    {
        "col0": "White-necked jacobin",
        "col1": "Trochilidae",
        "col2": "LC",
        "col3": "IUCN3.1"
    },
    {
        "col0": "White-necked heron",
        "col1": "Ardeidae",
        "col2": "LC",
        "col3": "IUCN3.1"
    },
    {
        "col0": "White-necked hawk",
        "col1": "Accipitridae",
        "col2": "VU",
        "col3": "IUCN3.1"
    },
    {
        "col0": "White-necked crow",
        "col1": "Corvidae",
        "col2": "VU",
        "col3": "IUCN3.1"
    },
    {
        "col0": "White-necked coucal",
        "col1": "Cuculidae",
        "col2": "LC",
        "col3": "IUCN3.1"
    },
    {
        "col0": "White-necked babbler",
        "col1": "Timaliidae",
        "col2": "NT",
        "col3": "IUCN3.1"
    },
    {
        "col0": "White-naped yuhina",
        "col1": "Zosteropidae",
        "col2": "LC",
        "col3": "IUCN3.1"
    },
    {
        "col0": "White-naped xenopsaris",
        "col1": "Tityridae",
        "col2": "LC",
        "col3": "IUCN3.1"
    },
    {
        "col0": "White-naped woodpecker",
        "col1": "Picidae",
        "col2": "LC",
        "col3": "IUCN3.1"
    },
    {
        "col0": "White-naped tit",
        "col1": "Paridae",
        "col2": "VU",
        "col3": "IUCN3.1"
    },
    {
        "col0": "White-naped swift",
        "col1": "Apodidae",
        "col2": "LC",
        "col3": "IUCN3.1"
    },
    {
        "col0": "White-naped seedeater",
        "col1": "Thraupidae",
        "col2": "LC",
        "col3": "IUCN3.1"
    },
    {
        "col0": "White-naped pigeon",
        "col1": "Columbidae",
        "col2": "NT",
        "col3": "IUCN3.1"
    },
    {
        "col0": "White-naped monarch",
        "col1": "Monarchidae",
        "col2": "LC",
        "col3": "IUCN3.1"
    },
    {
        "col0": "White-naped lory",
        "col1": "True parrots",
        "col2": "NT",
        "col3": "IUCN3.1"
    },
    {
        "col0": "White-naped jay",
        "col1": "Corvidae",
        "col2": "LC",
        "col3": "IUCN3.1"
    },
    {
        "col0": "White-naped honeyeater",
        "col1": "Meliphagidae",
        "col2": "LC",
        "col3": "IUCN3.1"
    },
    {
        "col0": "White-naped crane",
        "col1": "Gruidae",
        "col2": "VU",
        "col3": "IUCN3.1"
    },
    {
        "col0": "White-naped brush finch",
        "col1": "Emberizidae",
        "col2": "LC",
        "col3": "IUCN3.1"
    },
    {
        "col0": "White-masked antbird",
        "col1": "Thamnophilidae",
        "col2": "NT",
        "col3": "IUCN3.1"
    },
    {
        "col0": "White-margin fin smooth-hound",
        "col1": "Houndshark",
        "col2": "DD",
        "col3": "iucn3.1"
    },
    {
        "col0": "White-mantled tamarin",
        "col1": "Callitrichidae",
        "col2": "LC",
        "col3": "iucn3.1"
    },
    {
        "col0": "White-mantled kingfisher",
        "col1": "Alcedinidae",
        "col2": "NT",
        "col3": "IUCN3.1"
    },
    {
        "col0": "White-mantled barbet",
        "col1": "Capitonidae",
        "col2": "VU",
        "col3": "IUCN3.1"
    },
    {
        "col0": "White-lored warbler",
        "col1": "Parulidae",
        "col2": "NT",
        "col3": "IUCN3.1"
    },
    {
        "col0": "White-lored tyrannulet",
        "col1": "Tyrannidae",
        "col2": "LC",
        "col3": "IUCN3.1"
    },
    {
        "col0": "White-lored spinetail",
        "col1": "Furnariidae",
        "col2": "LC",
        "col3": "IUCN3.1"
    },
    {
        "col0": "White-lored oriole",
        "col1": "Oriolidae",
        "col2": "LC",
        "col3": "IUCN3.1"
    },
    {
        "col0": "White-lored gnatcatcher",
        "col1": "Polioptilidae",
        "col2": "LC",
        "col3": "IUCN3.1"
    },
    {
        "col0": "White-lored euphonia",
        "col1": "Fringillidae",
        "col2": "LC",
        "col3": "IUCN3.1"
    },
    {
        "col0": "White-lored antpitta",
        "col1": "Grallariidae",
        "col2": "LC",
        "col3": "IUCN3.1"
    },
    {
        "col0": "White-lipped tree frog",
        "col1": "Hylidae",
        "col2": "LC",
        "col3": "IUCN3.1"
    },
    {
        "col0": "White-lipped tamarin",
        "col1": "Callitrichidae",
        "col2": "LC",
        "col3": "iucn3.1"
    },
    {
        "col0": "White-lipped mud turtle",
        "col1": "Kinosternidae",
        "col2": "VU",
        "col3": "IUCN2.3"
    },
    {
        "col0": "White-lipped bright-eyed frog",
        "col1": "Mantellidae",
        "col2": "LC",
        "col3": "IUCN3.1"
    },
    {
        "col0": "White-lined tanager",
        "col1": "Thraupidae",
        "col2": "LC",
        "col3": "IUCN3.1"
    },
    {
        "col0": "White-lined leaf frog",
        "col1": "Hylidae",
        "col2": "LC",
        "col3": "IUCN3.1"
    },
    {
        "col0": "White-lined honeyeater",
        "col1": "Meliphagidae",
        "col2": "LC",
        "col3": "IUCN3.1"
    },
    {
        "col0": "White-lined broad-nosed bat",
        "col1": "Phyllostomidae",
        "col2": "LC",
        "col3": "IUCN3.1"
    },
    {
        "col0": "White-lined antbird",
        "col1": "Thamnophilidae",
        "col2": "NT",
        "col3": "IUCN3.1"
    },
    {
        "col0": "White-legged damselfly",
        "col1": "Platycnemididae",
        "col2": "LC",
        "col3": "iucn3.1"
    },
    {
        "col0": "White-hooded babbler",
        "col1": "Pellorneidae",
        "col2": "LC",
        "col3": "IUCN3.1"
    },
    {
        "col0": "White-headed wren",
        "col1": "Troglodytidae",
        "col2": "LC",
        "col3": "IUCN3.1"
    },
    {
        "col0": "White-headed woodpecker",
        "col1": "Picidae",
        "col2": "LC",
        "col3": "IUCN3.1"
    },
    {
        "col0": "White-headed wood hoopoe",
        "col1": "Phoeniculidae",
        "col2": "LC",
        "col3": "IUCN3.1"
    },
    {
        "col0": "White-headed vulture",
        "col1": "Accipitridae",
        "col2": "CR",
        "col3": "IUCN3.1"
    },
    {
        "col0": "White-headed vanga",
        "col1": "Vangidae",
        "col2": "LC",
        "col3": "IUCN3.1"
    },
    {
        "col0": "White-headed stilt",
        "col1": "Recurvirostridae",
        "col2": "LC",
        "col3": "IUCN3.1"
    },
    {
        "col0": "White-headed starling",
        "col1": "Sturnidae",
        "col2": "LC",
        "col3": "IUCN3.1"
    },
    {
        "col0": "White-headed saw-wing",
        "col1": "Hirundinidae",
        "col2": "LC",
        "col3": "IUCN3.1"
    },
    {
        "col0": "White-headed robin-chat",
        "col1": "Muscicapidae",
        "col2": "VU",
        "col3": "IUCN3.1"
    },
    {
        "col0": "White-headed pigeon",
        "col1": "Columbidae",
        "col2": "LC",
        "col3": "IUCN3.1"
    },
    {
        "col0": "White-headed petrel",
        "col1": "Procellariidae",
        "col2": "LC",
        "col3": "IUCN3.1"
    },
    {
        "col0": "White-headed munia",
        "col1": "Estrildidae",
        "col2": "LC",
        "col3": "IUCN3.1"
    },
    {
        "col0": "White-headed mousebird",
        "col1": "Coliidae",
        "col2": "LC",
        "col3": "IUCN3.1"
    },
    {
        "col0": "White-headed marsh tyrant",
        "col1": "Tyrannidae",
        "col2": "LC",
        "col3": "IUCN3.1"
    },
    {
        "col0": "White-headed marmoset",
        "col1": "Callitrichidae",
        "col2": "LC",
        "col3": "iucn3.1"
    },
    {
        "col0": "White-headed langur",
        "col1": "Cercopithecidae",
        "col2": "CR",
        "col3": "iucn3.1"
    },
    {
        "col0": "White-headed fruit dove",
        "col1": "Columbidae",
        "col2": "NT",
        "col3": "IUCN3.1"
    },
    {
        "col0": "White-headed duck",
        "col1": "Anatidae",
        "col2": "EN",
        "col3": "IUCN3.1"
    },
    {
        "col0": "White-headed capuchin",
        "col1": "Cebidae",
        "col2": "LC",
        "col3": "iucn3.1"
    },
    {
        "col0": "White-headed bulbul",
        "col1": "Pycnonotidae",
        "col2": "LC",
        "col3": "IUCN3.1"
    },
    {
        "col0": "White-headed buffalo weaver",
        "col1": "Ploceidae",
        "col2": "LC",
        "col3": "IUCN3.1"
    },
    {
        "col0": "White-headed brush finch",
        "col1": "Emberizidae",
        "col2": "LC",
        "col3": "IUCN3.1"
    },
    {
        "col0": "White-headed barbet",
        "col1": "Lybiidae",
        "col2": "LC",
        "col3": "IUCN3.1"
    },
    {
        "col0": "White-headed babbler",
        "col1": "Leiothrichidae",
        "col2": "LC",
        "col3": "IUCN3.1"
    },
    {
        "col0": "White-gorgeted flycatcher",
        "col1": "Muscicapidae",
        "col2": "LC",
        "col3": "IUCN3.1"
    },
    {
        "col0": "White-gaped honeyeater",
        "col1": "Meliphagidae",
        "col2": "LC",
        "col3": "IUCN3.1"
    },
    {
        "col0": "White-fronted woodpecker",
        "col1": "Picidae",
        "col2": "LC",
        "col3": "IUCN3.1"
    },
    {
        "col0": "White-fronted whitestart",
        "col1": "Parulidae",
        "col2": "NT",
        "col3": "IUCN3.1"
    },
    {
        "col0": "White-fronted wattle-eye",
        "col1": "Platysteiridae",
        "col2": "NT",
        "col3": "IUCN3.1"
    },
    {
        "col0": "White-fronted water snake",
        "col1": "Natricinae",
        "col2": "LC",
        "col3": "IUCN3.1"
    },
    {
        "col0": "White-fronted tit",
        "col1": "Paridae",
        "col2": "NT",
        "col3": "IUCN3.1"
    },
    {
        "col0": "White-fronted tern",
        "col1": "Sternidae",
        "col2": "LC",
        "col3": "IUCN3.1"
    },
    {
        "col0": "White-fronted swift",
        "col1": "Apodidae",
        "col2": "DD",
        "col3": "IUCN3.1"
    },
    {
        "col0": "White-fronted surili",
        "col1": "Cercopithecidae",
        "col2": "VU",
        "col3": "iucn3.1"
    },
    {
        "col0": "White-fronted scops owl",
        "col1": "Strigidae",
        "col2": "VU",
        "col3": "IUCN3.1"
    },
    {
        "col0": "White-fronted quail-dove",
        "col1": "Columbidae",
        "col2": "EN",
        "col3": "IUCN3.1"
    },
    {
        "col0": "White-fronted plover",
        "col1": "Charadriidae",
        "col2": "LC",
        "col3": "IUCN3.1"
    },
    {
        "col0": "White-fronted nunbird",
        "col1": "Bucconidae",
        "col2": "LC",
        "col3": "IUCN3.1"
    },
    {
        "col0": "White-fronted manakin",
        "col1": "Pipridae",
        "col2": "LC",
        "col3": "IUCN3.1"
    },
    {
        "col0": "White-fronted honeyeater",
        "col1": "Meliphagidae",
        "col2": "LC",
        "col3": "IUCN3.1"
    },
    {
        "col0": "White-fronted ground tyrant",
        "col1": "Tyrannidae",
        "col2": "LC",
        "col3": "IUCN3.1"
    }
]