[
    {
        "col0": "M. Milinkovic",
        "col1": "Argentina",
        "col2": "Argentina men's national volleyball team",
        "col3": "Argentina",
        "col4": "1971-12-22"
    },
    {
        "col0": "M. Nuti",
        "col1": "Italy",
        "col2": "Italy men's national volleyball team",
        "col3": "Pontedera",
        "col4": "1970-10-02"
    },
    {
        "col0": "M. Nowak",
        "col1": "Poland",
        "col2": "Poland men's national volleyball team",
        "col3": "Czestochowa",
        "col4": "1975-10-17"
    },
    {
        "col0": "M. Cunha",
        "col1": "Brazil",
        "col2": "Brazil women's national volleyball team",
        "col3": "Juiz de Fora",
        "col4": "1969-07-26"
    },
    {
        "col0": "M. Negrao",
        "col1": "Brazil",
        "col2": "Brazil men's national volleyball team",
        "col3": "Sao Paulo",
        "col4": "1972-10-10"
    },
    {
        "col0": "M. Abbondanza",
        "col1": "Italy",
        "col2": "Bulgaria women's national volleyball team",
        "col3": "Cesena",
        "col4": "1970-08-24"
    },
    {
        "col0": "M. Ritschelova",
        "col1": "Czech Republic",
        "col2": "Czech Republic women's national volleyball team",
        "col3": "Usti nad Labem",
        "col4": "1972-10-09"
    },
    {
        "col0": "M. Zopie",
        "col1": "France",
        "col2": "France men's national volleyball team",
        "col3": "Cayenne",
        "col4": "1987-05-31"
    },
    {
        "col0": "M. Schalk",
        "col1": "France",
        "col2": "France men's national volleyball team",
        "col3": "Toulon",
        "col4": "1973-12-03"
    },
    {
        "col0": "M. Honore",
        "col1": "Trinidad and Tobago",
        "col2": "Trinidad and Tobago men's national volleyball team",
        "col3": "Pointe-A -Pierre",
        "col4": "1984-06-12"
    },
    {
        "col0": "M. Leao",
        "col1": "Brazil",
        "col2": "Brazil women's national volleyball team",
        "col3": "Sabinopolis",
        "col4": "1991-02-26"
    },
    {
        "col0": "M. J. Perez",
        "col1": "Venezuela",
        "col2": "Venezuela women's national volleyball team",
        "col3": "Aragua",
        "col4": "1988-03-18"
    },
    {
        "col0": "M. Fernandez",
        "col1": "Spain",
        "col2": "Spain women's national volleyball team",
        "col3": "Fuentes de Andalucia",
        "col4": "1982-06-06"
    },
    {
        "col0": "M. Escoto",
        "col1": "Puerto Rico",
        "col2": "Puerto Rico women's national volleyball team",
        "col3": "San Juan, Puerto Rico",
        "col4": "1991-03-23"
    },
    {
        "col0": "M. Secolo",
        "col1": "Italy women's national volleyball team",
        "col2": "Italy women's national volleyball team",
        "col3": "Treviso",
        "col4": "1977-02-22"
    },
    {
        "col0": "M. Rieke",
        "col1": "Germany",
        "col2": "Germany men's national volleyball team",
        "col3": "Potsdam",
        "col4": "1982-10-23"
    },
    {
        "col0": "M. Coscione",
        "col1": "Italy",
        "col2": "Italy men's national volleyball team",
        "col3": "Cuneo",
        "col4": "1980-01-29"
    },
    {
        "col0": "M. Nummerdor-Flier",
        "col1": "Netherlands",
        "col2": "Netherlands women's national volleyball team",
        "col3": "Overijssel",
        "col4": "1984-02-08"
    },
    {
        "col0": "M. Roman",
        "col1": "Puerto Rico",
        "col2": "Puerto Rico men's national volleyball team",
        "col3": "San Sebastian, Puerto Rico",
        "col4": "1983-1-17"
    },
    {
        "col0": "M. Abbadi",
        "col1": "Brazil",
        "col2": "Brazil men's national volleyball team",
        "col3": "Porto Alegre",
        "col4": "1976-04-13"
    },
    {
        "col0": "M. Wigger",
        "col1": "Switzerland",
        "col2": "Switzerland women's national volleyball team",
        "col3": "Reconvilier",
        "col4": "1987-05-04"
    },
    {
        "col0": "M. Uchiseto",
        "col1": "Japan",
        "col2": "Japan women's national volleyball team",
        "col3": "Nobeoka, Miyazaki",
        "col4": "1991-10-25"
    },
    {
        "col0": "M. Steux",
        "col1": "France",
        "col2": "France women's national volleyball team",
        "col3": "Roubaix",
        "col4": "1988-10-24"
    },
    {
        "col0": "M. Moussa",
        "col1": "Cameroon",
        "col2": "Cameroon men's national volleyball team",
        "col3": "Mokolo",
        "col4": "1978-2-2"
    },
    {
        "col0": "M. Matsuura",
        "col1": "Japan",
        "col2": "Japan women's national volleyball team",
        "col3": "Asakura, Fukuoka",
        "col4": "1986-09-09"
    },
    {
        "col0": "M. Desilets",
        "col1": "United States",
        "col2": "United States women's national volleyball team",
        "col3": "Fiji",
        "col4": "1976-06-26"
    },
    {
        "col0": "M. Savic",
        "col1": "Serbia",
        "col2": "Serbia women's national volleyball team",
        "col3": "Valjevo",
        "col4": "1993-08-14"
    },
    {
        "col0": "M. Burazer",
        "col1": "Croatia",
        "col2": "Croatia women's national volleyball team",
        "col3": "Split, Croatia",
        "col4": "1988-03-20"
    },
    {
        "col0": "M. Sakashita",
        "col1": "Japan",
        "col2": "Japan women's national volleyball team",
        "col3": "Nishinomiya",
        "col4": "1985-02-25"
    },
    {
        "col0": "M. Okumura",
        "col1": "Japan",
        "col2": "Japan women's national volleyball team",
        "col3": "Nagato, Yamaguchi",
        "col4": "1990-10-31"
    },
    {
        "col0": "M. Fukuda",
        "col1": "Japan",
        "col2": "Japan women's national volleyball team",
        "col3": "Kanuma, Tochigi",
        "col4": "1984-01-30"
    },
    {
        "col0": "M. Frias",
        "col1": "Peru",
        "col2": "Peru women's national volleyball team",
        "col3": "Lima",
        "col4": "1997-05-28"
    },
    {
        "col0": "M. Saad",
        "col1": "Poland",
        "col2": "Poland women's national volleyball team",
        "col3": "Lodz",
        "col4": "1985-05-14"
    },
    {
        "col0": "M. Mazurek",
        "col1": "Poland",
        "col2": "Poland women's national volleyball team",
        "col3": "Lowicz",
        "col4": "1983-09-12"
    },
    {
        "col0": "M. Montano",
        "col1": "Colombia",
        "col2": "Colombia women's national volleyball team",
        "col3": "Colombia",
        "col4": "1983-01-06"
    },
    {
        "col0": "M. v. Garderen",
        "col1": "Netherlands",
        "col2": "Netherlands men's national volleyball team",
        "col3": "Renswoude",
        "col4": "1990-01-24"
    },
    {
        "col0": "M. Niemczyk",
        "col1": "Poland",
        "col2": "Poland women's national volleyball team",
        "col3": "Lodz",
        "col4": "1969-10-25"
    },
    {
        "col0": "M. Orle",
        "col1": "France",
        "col2": "France women's national volleyball team",
        "col3": "Paris",
        "col4": "1991-05-08"
    },
    {
        "col0": "M. Hennaoui",
        "col1": "Algeria",
        "col2": "Algeria women's national volleyball team",
        "col3": "Bouira",
        "col4": "1990-03-18"
    },
    {
        "col0": "M. Carneiro",
        "col1": "Brazil",
        "col2": "Brazil women's national volleyball team",
        "col3": "Santo Andre, Sao Paulo",
        "col4": "1989-03-03"
    },
    {
        "col0": "L. Silva",
        "col1": "Brazil",
        "col2": "Brazil women's national volleyball team",
        "col3": "Ibitinga",
        "col4": "1985-03-01"
    },
    {
        "col0": "L. Gureyeva",
        "col1": "Russia",
        "col2": "Soviet Union",
        "col3": "Odessa",
        "col4": "1943-2-12"
    },
    {
        "col0": "L. Sokolova",
        "col1": "Russia",
        "col2": "Russia women's national volleyball team",
        "col3": "Moscow",
        "col4": "1977-12-04"
    },
    {
        "col0": "L. Ganev",
        "col1": "Bulgaria",
        "col2": "Bulgaria men's national volleyball team",
        "col3": "Bulgaria",
        "col4": "1965-10-6"
    },
    {
        "col0": "L. Thijssen",
        "col1": "Netherlands",
        "col2": "Netherlands women's national volleyball team",
        "col3": "Haps",
        "col4": "1992-08-22"
    },
    {
        "col0": "L. Morales",
        "col1": "Puerto Ricans",
        "col2": "Puerto Rico women's national volleyball team",
        "col3": "Glendale, California",
        "col4": "1988-05-20"
    },
    {
        "col0": "L. Trombitas",
        "col1": "Romania",
        "col2": "Romania women's national volleyball team",
        "col3": "Turda",
        "col4": "1971-07-05"
    },
    {
        "col0": "L. Bauer",
        "col1": "Germany",
        "col2": "Germany men's national volleyball team",
        "col3": "Schwandorf",
        "col4": "1989-02-26"
    },
    {
        "col0": "L. Mauersberger",
        "col1": "Germany",
        "col2": "Germany women's national volleyball team",
        "col3": "Konstanz",
        "col4": "1990-07-02"
    },
    {
        "col0": "L. Randazzo",
        "col1": "Italy",
        "col2": "Italy men's national volleyball team",
        "col3": "Catania",
        "col4": "1994-04-30"
    },
    {
        "col0": "L. Dolfo",
        "col1": "Italy",
        "col2": "Italy men's national volleyball team",
        "col3": "Treviso",
        "col4": "1989-06-30"
    },
    {
        "col0": "L. Castard",
        "col1": "France",
        "col2": "France men's national volleyball team",
        "col3": "Clichy, Hauts-de-Seine",
        "col4": "1983-01-18"
    },
    {
        "col0": "L. Paraja",
        "col1": "Spain",
        "col2": "Spain women's national volleyball team",
        "col3": "Gijon",
        "col4": "1983-02-10"
    },
    {
        "col0": "L. Cigic",
        "col1": "Croatia",
        "col2": "Croatia women's national volleyball team",
        "col3": "Rijeka",
        "col4": "1986-03-13"
    },
    {
        "col0": "L. Smutna",
        "col1": "Czech Republic",
        "col2": "Czech Republic women's national volleyball team",
        "col3": "Liberec",
        "col4": "1991-04-14"
    },
    {
        "col0": "L. Muhlsteinova",
        "col1": "Czech Republic",
        "col2": "Czech Republic women's national volleyball team",
        "col3": "Decin",
        "col4": "1984-10-15"
    },
    {
        "col0": "L. Hatinova",
        "col1": "Slovakia",
        "col2": "Slovakia women's national volleyball team",
        "col3": "Bratislava",
        "col4": "1984-02-28"
    },
    {
        "col0": "L. Crisanti",
        "col1": "Italy",
        "col2": "Italy women's national volleyball team",
        "col3": "Foligno",
        "col4": "1986-03-16"
    },
    {
        "col0": "L. Bosetti",
        "col1": "Italy women's national volleyball team",
        "col2": "Italy women's national volleyball team",
        "col3": "Italy women's national volleyball team",
        "col4": "1989-07-09"
    },
    {
        "col0": "L. Bacchi",
        "col1": "Italy",
        "col2": "Italy women's national volleyball team",
        "col3": "Casalmaggiore",
        "col4": "1981-01-04"
    },
    {
        "col0": "L. Tencati",
        "col1": "Italy",
        "col2": "Italy men's national volleyball team",
        "col3": "Cremona",
        "col4": "1979-03-16"
    },
    {
        "col0": "L. Spirito",
        "col1": "Italy",
        "col2": "Italy men's national volleyball team",
        "col3": "Savona",
        "col4": "1993-10-30"
    },
    {
        "col0": "L. Paraja",
        "col1": "Spain",
        "col2": "Spain women's national volleyball team",
        "col3": "Gijon",
        "col4": "1983-02-10"
    },
    {
        "col0": "L. L. Marrec",
        "col1": "France",
        "col2": "France men's national volleyball team",
        "col3": "Rochefort, Charente-Maritime",
        "col4": "1977-03-01"
    },
    {
        "col0": "L. Isern",
        "col1": "Puerto rico",
        "col2": "Puerto Rico women's national volleyball team",
        "col3": "San Juan, Puerto Rico",
        "col4": "1978-09-15"
    },
    {
        "col0": "L. Lippmann",
        "col1": "Germany",
        "col2": "Germany women's national volleyball team",
        "col3": "Germany",
        "col4": "1994-09-23"
    },
    {
        "col0": "L. ManiA ",
        "col1": "Italy",
        "col2": "Italy men's national volleyball team",
        "col3": "Gorizia",
        "col4": "1979-01-27"
    },
    {
        "col0": "L. Perazzolo",
        "col1": "Italy",
        "col2": "Italy men's national volleyball team",
        "col3": "Mantua",
        "col4": "1984-10-30"
    }
]