[
    {
        "col0": "Valea Stanei River",
        "col1": "Arges County",
        "col2": "Arges County",
        "col3": "Arges County"
    },
    {
        "col0": "Valea Stanei River",
        "col1": "Buzau County",
        "col2": "Buzau County",
        "col3": "Sarulesti, Buzau"
    },
    {
        "col0": "Valea Stanei River",
        "col1": "Prahova County",
        "col2": "Prahova County",
        "col3": "Prahova County"
    },
    {
        "col0": "Valea Stanei River",
        "col1": "Arges County",
        "col2": "Arges County",
        "col3": "Arges County"
    },
    {
        "col0": "Valea Stanei River",
        "col1": "Dambovita County",
        "col2": "Dambovita County",
        "col3": "Dambovita County"
    },
    {
        "col0": "Valea Stanei River",
        "col1": "Suceava County",
        "col2": "Suceava County",
        "col3": "Suceava County"
    },
    {
        "col0": "Valea Stanei River",
        "col1": "Neamt County",
        "col2": "Neamt County",
        "col3": "Neamt County"
    },
    {
        "col0": "Valea Stancoasa River",
        "col1": "Arges County",
        "col2": "Arges County",
        "col3": "Arges County"
    },
    {
        "col0": "Valea Stalpului River",
        "col1": "Timis County",
        "col2": "Timis County",
        "col3": "Timis County"
    },
    {
        "col0": "Valea Stupului River",
        "col1": "Sibiu County",
        "col2": "Sibiu County",
        "col3": "Sibiu County"
    },
    {
        "col0": "Valea Stradinoasei River",
        "col1": "Cluj County",
        "col2": "Cluj County",
        "col3": "Cluj County"
    },
    {
        "col0": "Valea Stramtorilor River",
        "col1": "Neamt County",
        "col2": "Neamt County",
        "col3": "Neamt County"
    },
    {
        "col0": "Valea Stramba River",
        "col1": "Brasov County",
        "col2": "Brasov County",
        "col3": "Brasov County"
    },
    {
        "col0": "Valea Stramba River",
        "col1": "Sibiu County",
        "col2": "Sibiu County",
        "col3": "Sibiu County"
    },
    {
        "col0": "Valea Stramba River",
        "col1": "Arges County",
        "col2": "Arges County",
        "col3": "Arges County"
    },
    {
        "col0": "Valea Stramba River",
        "col1": "Arad County",
        "col2": "Arad County",
        "col3": "Arad County"
    },
    {
        "col0": "Valea Strambelor River",
        "col1": "Brasov County",
        "col2": "Brasov County",
        "col3": "Brasov County"
    },
    {
        "col0": "Valea Strungilor River",
        "col1": "Satu Mare County",
        "col2": "Satu Mare County",
        "col3": "Satu Mare County"
    },
    {
        "col0": "Valea Stradinoasei River",
        "col1": "Cluj County",
        "col2": "Cluj County",
        "col3": "Cluj County"
    },
    {
        "col0": "Valea Stramtorilor River",
        "col1": "Neamt County",
        "col2": "Neamt County",
        "col3": "Neamt County"
    },
    {
        "col0": "Valea Strambelor River",
        "col1": "Brasov County",
        "col2": "Brasov County",
        "col3": "Brasov County"
    },
    {
        "col0": "Valea Stramba River",
        "col1": "Brasov County",
        "col2": "Brasov County",
        "col3": "Brasov County"
    },
    {
        "col0": "Valea Stramba River",
        "col1": "Sibiu County",
        "col2": "Sibiu County",
        "col3": "Sibiu County"
    },
    {
        "col0": "Valea Stramba River",
        "col1": "Arad County",
        "col2": "Arad County",
        "col3": "Arad County"
    },
    {
        "col0": "Valea Stramba River",
        "col1": "Arges County",
        "col2": "Arges County",
        "col3": "Arges County"
    },
    {
        "col0": "Valea Sticlariei River",
        "col1": "Brasov County",
        "col2": "Brasov County",
        "col3": "Brasov County"
    },
    {
        "col0": "Valea Sterminoasa River",
        "col1": "Valcea County",
        "col2": "Valcea County",
        "col3": "Valcea County"
    },
    {
        "col0": "Valea Sterinoasa River",
        "col1": "Mures County",
        "col2": "Mures County",
        "col3": "Mures County"
    },
    {
        "col0": "Valea Stejarului River",
        "col1": "Bistrita-Nasaud County",
        "col2": "Bistrita-Nasaud County",
        "col3": "Bistrita-Nasaud County"
    },
    {
        "col0": "Valea Stejarului River",
        "col1": "Maramures County",
        "col2": "Maramures County",
        "col3": "Maramures County"
    },
    {
        "col0": "Valea Stegii River",
        "col1": "Bistrita-Nasaud County",
        "col2": "Bistrita-Nasaud County",
        "col3": "Bistrita-Nasaud County"
    },
    {
        "col0": "Valea Stanciului River",
        "col1": "Cluj County",
        "col2": "Cluj County",
        "col3": "Cluj County"
    },
    {
        "col0": "Valea Stanisoarei River",
        "col1": "Hunedoara",
        "col2": "Hunedoara County",
        "col3": "Hunedoara"
    },
    {
        "col0": "Valea Stanei River",
        "col1": "Brasov County",
        "col2": "Brasov County",
        "col3": "Brasov County"
    },
    {
        "col0": "Valea Stanei River",
        "col1": "Prahova County",
        "col2": "Prahova County",
        "col3": "Prahova County"
    },
    {
        "col0": "Valea Stanei River",
        "col1": "Arges County",
        "col2": "Arges County",
        "col3": "Arges County"
    },
    {
        "col0": "Valea Stanei River",
        "col1": "Sarulesti, Buzau",
        "col2": "Buzau County",
        "col3": "Buzau County"
    },
    {
        "col0": "Valea Stanei River",
        "col1": "Prahova County",
        "col2": "Prahova County",
        "col3": "Prahova County"
    },
    {
        "col0": "Valea Stanei River",
        "col1": "Arges County",
        "col2": "Arges County",
        "col3": "Arges County"
    },
    {
        "col0": "Valea Stanei River",
        "col1": "Dambovita County",
        "col2": "Dambovita County",
        "col3": "Dambovita County"
    },
    {
        "col0": "Valea Stanei River",
        "col1": "Suceava County",
        "col2": "Suceava County",
        "col3": "Suceava County"
    },
    {
        "col0": "Valea Stanei River",
        "col1": "Neamt County",
        "col2": "Neamt County",
        "col3": "Neamt County"
    },
    {
        "col0": "Valea Stancoasa River",
        "col1": "Arges County",
        "col2": "Arges County",
        "col3": "Arges County"
    },
    {
        "col0": "Valea Stalpului River",
        "col1": "Timis County",
        "col2": "Timis County",
        "col3": "Timis County"
    },
    {
        "col0": "Valea Spranii River",
        "col1": "Valcea County",
        "col2": "Valcea County",
        "col3": "Valcea County"
    },
    {
        "col0": "Valea Spinarii River",
        "col1": "Dambovita County",
        "col2": "Dambovita County",
        "col3": "Dambovita County"
    },
    {
        "col0": "Valea Spinului River",
        "col1": "Alba County",
        "col2": "Alba County",
        "col3": "Alba County"
    },
    {
        "col0": "Valea Spinelui River",
        "col1": "Sibiu County",
        "col2": "Sibiu County",
        "col3": "Sibiu County"
    },
    {
        "col0": "Valea Spinarii River",
        "col1": "Dambovita County",
        "col2": "Dambovita County",
        "col3": "Dambovita County"
    },
    {
        "col0": "Valea Speriatei River",
        "col1": "Arges County",
        "col2": "Arges County",
        "col3": "Arges County"
    },
    {
        "col0": "Valea Socilor River",
        "col1": "Gorj County",
        "col2": "Gorj County",
        "col3": "Gorj County"
    },
    {
        "col0": "Valea Socilor River",
        "col1": "Valcea County",
        "col2": "Valcea County",
        "col3": "Valcea County"
    },
    {
        "col0": "Valea Socilor River",
        "col1": "Bistrita-Nasaud County",
        "col2": "Bistrita-Nasaud County",
        "col3": "Bistrita-Nasaud County"
    },
    {
        "col0": "Valea Socilor River",
        "col1": "Gorj County",
        "col2": "Gorj County",
        "col3": "Gorj County"
    },
    {
        "col0": "Valea Soarelui River",
        "col1": "Prahova County",
        "col2": "Prahova County",
        "col3": "Prahova County"
    },
    {
        "col0": "Valea Slipului River",
        "col1": "Maramures County",
        "col2": "Maramures County",
        "col3": "Maramures County"
    },
    {
        "col0": "Valea Slipului River",
        "col1": "Cavnic",
        "col2": "Maramures County",
        "col3": "Cavnic"
    },
    {
        "col0": "Valea Slaba River",
        "col1": "Bihor County",
        "col2": "Bihor County",
        "col3": "Bihor County"
    },
    {
        "col0": "Valea Semnelor River",
        "col1": "Bihor County",
        "col2": "Bihor County",
        "col3": "Bihor County"
    },
    {
        "col0": "Valea Secarei River",
        "col1": "Prahova County",
        "col2": "Prahova County",
        "col3": "Prahova County"
    },
    {
        "col0": "Valea Seciului River",
        "col1": "Prahova County",
        "col2": "Prahova County",
        "col3": "Prahova County"
    },
    {
        "col0": "Valea Secii River",
        "col1": "Bistrita-Nasaud County",
        "col2": "Bistrita-Nasaud County",
        "col3": "Bistrita-Nasaud County"
    },
    {
        "col0": "Valea Secarei River",
        "col1": "Prahova County",
        "col2": "Prahova County",
        "col3": "Prahova County"
    },
    {
        "col0": "Valea Seaca a Jepilor River",
        "col1": "Prahova County",
        "col2": "Prahova County",
        "col3": "Prahova County"
    },
    {
        "col0": "Valea Seaca a Caraimanului River",
        "col1": "Prahova County",
        "col2": "Prahova County",
        "col3": "Prahova County"
    },
    {
        "col0": "Valea Seaca a Baiului River",
        "col1": "Prahova County",
        "col2": "Prahova County",
        "col3": "Prahova County"
    },
    {
        "col0": "Valea Seaca River",
        "col1": "Brasov County",
        "col2": "Brasov County",
        "col3": "Brasov County"
    },
    {
        "col0": "Valea Seaca River",
        "col1": "Prahova County",
        "col2": "Prahova County",
        "col3": "Prahova County"
    },
    {
        "col0": "Valea Seaca River",
        "col1": "Hunedoara",
        "col2": "Hunedoara",
        "col3": "Hunedoara"
    },
    {
        "col0": "Valea Seaca River",
        "col1": "Arges County",
        "col2": "Arges County",
        "col3": "Arges County"
    },
    {
        "col0": "Valea Seaca River",
        "col1": "Prahova County",
        "col2": "Prahova County",
        "col3": "Prahova County"
    },
    {
        "col0": "Valea Seaca River",
        "col1": "Olt County",
        "col2": "Olt County",
        "col3": "Olt County"
    },
    {
        "col0": "Valea Seaca River",
        "col1": "Neamt County",
        "col2": "Neamt County",
        "col3": "Neamt County"
    },
    {
        "col0": "Valea Seaca River",
        "col1": "Bistrita-Nasaud County",
        "col2": "Bistrita-Nasaud County",
        "col3": "Bistrita-Nasaud County"
    },
    {
        "col0": "Valea Seaca River",
        "col1": "Gorj County",
        "col2": "Gorj County",
        "col3": "Gorj County"
    },
    {
        "col0": "Valea Seaca River",
        "col1": "Suceava County",
        "col2": "Suceava County",
        "col3": "Suceava County"
    },
    {
        "col0": "Valea Seaca River",
        "col1": "Hunedoara",
        "col2": "Hunedoara",
        "col3": "Hunedoara"
    },
    {
        "col0": "Valea Seaca River",
        "col1": "Covasna",
        "col2": "Covasna",
        "col3": "Covasna"
    },
    {
        "col0": "Valea Seaca River",
        "col1": "Alba County",
        "col2": "Alba County",
        "col3": "Alba County"
    },
    {
        "col0": "Valea Seaca River",
        "col1": "Brasov County",
        "col2": "Brasov County",
        "col3": "Brasov County"
    },
    {
        "col0": "Valea Seaca River",
        "col1": "Valcea County",
        "col2": "Valcea County",
        "col3": "Valcea County"
    },
    {
        "col0": "Valea Seaca River",
        "col1": "Smulti, Galati",
        "col2": "Galati County",
        "col3": "Galati County"
    },
    {
        "col0": "Valea Seaca River",
        "col1": "Suceava County",
        "col2": "Suceava County",
        "col3": "Suceava County"
    },
    {
        "col0": "Valea Seaca River",
        "col1": "Maramures County",
        "col2": "Maramures County",
        "col3": "Maramures County"
    },
    {
        "col0": "Valea Seaca River",
        "col1": "Covasna County",
        "col2": "Covasna",
        "col3": "Covasna"
    },
    {
        "col0": "Valea Seaca River",
        "col1": "Valcea County",
        "col2": "Valcea County",
        "col3": "Valcea County"
    },
    {
        "col0": "Valea Seaca River",
        "col1": "Brasov County",
        "col2": "Brasov County",
        "col3": "Brasov County"
    },
    {
        "col0": "Valea Seaca River",
        "col1": "Bihor County",
        "col2": "Bihor County",
        "col3": "Bihor County"
    },
    {
        "col0": "Valea Seaca River",
        "col1": "Arges County",
        "col2": "Arges County",
        "col3": "Arges County"
    },
    {
        "col0": "Valea Seaca River",
        "col1": "Prahova County",
        "col2": "Prahova County",
        "col3": "Prahova County"
    },
    {
        "col0": "Valea Seaca River",
        "col1": "Arad County",
        "col2": "Arad County",
        "col3": "Arad County"
    },
    {
        "col0": "Valea Seaca River",
        "col1": "Bihor County",
        "col2": "Bihor County",
        "col3": "Bihor County"
    },
    {
        "col0": "Valea Seaca River",
        "col1": "Galati County",
        "col2": "Galati County",
        "col3": "Galati County"
    },
    {
        "col0": "Valea Seaca River",
        "col1": "Covasna",
        "col2": "Covasna",
        "col3": "Covasna"
    },
    {
        "col0": "Valea Seaca River",
        "col1": "Constanta County",
        "col2": "Constanta County",
        "col3": "Constanta County"
    },
    {
        "col0": "Valea Seaca River",
        "col1": "Constanta County",
        "col2": "Constanta County",
        "col3": "Constanta County"
    },
    {
        "col0": "Valea Seaca River",
        "col1": "Hunedoara",
        "col2": "Hunedoara",
        "col3": "Hunedoara"
    },
    {
        "col0": "Valea Seaca River",
        "col1": "Vaslui County",
        "col2": "Barlad",
        "col3": "Barlad"
    },
    {
        "col0": "Valea Seaca River",
        "col1": "Prahova County",
        "col2": "Prahova County",
        "col3": "Prahova County"
    },
    {
        "col0": "Valea Seaca River",
        "col1": "Brasov County",
        "col2": "Brasov County",
        "col3": "Brasov County"
    },
    {
        "col0": "Valea Seaca River",
        "col1": "Prahova County",
        "col2": "Prahova County",
        "col3": "Prahova County"
    },
    {
        "col0": "Valea Seaca a Jepilor River",
        "col1": "Prahova County",
        "col2": "Prahova County",
        "col3": "Prahova County"
    },
    {
        "col0": "Valea Seaca a Caraimanului River",
        "col1": "Prahova County",
        "col2": "Prahova County",
        "col3": "Prahova County"
    },
    {
        "col0": "Valea Seaca a Baiului River",
        "col1": "Prahova County",
        "col2": "Prahova County",
        "col3": "Prahova County"
    },
    {
        "col0": "Valea Seaca River",
        "col1": "Hunedoara",
        "col2": "Hunedoara County",
        "col3": "Hunedoara County"
    },
    {
        "col0": "Valea Seaca River",
        "col1": "Arges County",
        "col2": "Arges County",
        "col3": "Arges County"
    },
    {
        "col0": "Valea Seaca River",
        "col1": "Prahova County",
        "col2": "Prahova County",
        "col3": "Prahova County"
    },
    {
        "col0": "Valea Seaca River",
        "col1": "Prahova County",
        "col2": "Prahova County",
        "col3": "Prahova County"
    },
    {
        "col0": "Valea Seaca River",
        "col1": "Neamt County",
        "col2": "Neamt County",
        "col3": "Neamt County"
    },
    {
        "col0": "Valea Seaca River",
        "col1": "Olt County",
        "col2": "Olt County",
        "col3": "Olt County"
    },
    {
        "col0": "Valea Seaca River",
        "col1": "Gorj County",
        "col2": "Gorj County",
        "col3": "Gorj County"
    },
    {
        "col0": "Valea Seaca River",
        "col1": "Suceava County",
        "col2": "Suceava County",
        "col3": "Suceava County"
    },
    {
        "col0": "Valea Seaca River",
        "col1": "Hunedoara",
        "col2": "Hunedoara",
        "col3": "Hunedoara"
    },
    {
        "col0": "Valea Seaca River",
        "col1": "Covasna",
        "col2": "Covasna",
        "col3": "Covasna"
    },
    {
        "col0": "Valea Seaca River",
        "col1": "Alba County",
        "col2": "Alba County",
        "col3": "Alba County"
    },
    {
        "col0": "Valea Seaca River",
        "col1": "Bistrita-Nasaud County",
        "col2": "Bistrita-Nasaud County",
        "col3": "Bistrita-Nasaud County"
    },
    {
        "col0": "Valea Seaca River",
        "col1": "Brasov County",
        "col2": "Brasov County",
        "col3": "Brasov County"
    },
    {
        "col0": "Valea Seaca River",
        "col1": "Smulti, Galati",
        "col2": "Smulti, Galati",
        "col3": "Galati County"
    },
    {
        "col0": "Valea Seaca River",
        "col1": "Valcea County",
        "col2": "Valcea County",
        "col3": "Valcea County"
    },
    {
        "col0": "Valea Seaca River",
        "col1": "Suceava County",
        "col2": "Suceava County",
        "col3": "Suceava County"
    },
    {
        "col0": "Valea Seaca River",
        "col1": "Maramures County",
        "col2": "Maramures County",
        "col3": "Maramures County"
    },
    {
        "col0": "Valea Seaca River",
        "col1": "Covasna County",
        "col2": "Covasna County",
        "col3": "Covasna County"
    },
    {
        "col0": "Valea Seaca River",
        "col1": "Valcea County",
        "col2": "Valcea County",
        "col3": "Valcea County"
    },
    {
        "col0": "Valea Seaca River",
        "col1": "Bihor County",
        "col2": "Bihor County",
        "col3": "Bihor County"
    },
    {
        "col0": "Valea Seaca River",
        "col1": "Brasov County",
        "col2": "Brasov County",
        "col3": "Brasov County"
    },
    {
        "col0": "Valea Seaca River",
        "col1": "Prahova County",
        "col2": "Prahova County",
        "col3": "Prahova County"
    },
    {
        "col0": "Valea Seaca River",
        "col1": "Arad County",
        "col2": "Arad County",
        "col3": "Arad County"
    },
    {
        "col0": "Valea Seaca River",
        "col1": "Arges County",
        "col2": "Arges County",
        "col3": "Arges County"
    },
    {
        "col0": "Valea Seaca River",
        "col1": "Bihor County",
        "col2": "Bihor County",
        "col3": "Bihor County"
    },
    {
        "col0": "Valea Seaca River",
        "col1": "Galati County",
        "col2": "Galati County",
        "col3": "Galati County"
    },
    {
        "col0": "Valea Seaca River",
        "col1": "Constanta County",
        "col2": "Mireasa, Constanta",
        "col3": "Constanta County"
    },
    {
        "col0": "Valea Seaca River",
        "col1": "Valu lui Traian, Constanta",
        "col2": "Constanta County",
        "col3": "Constanta County"
    },
    {
        "col0": "Valea Seaca River",
        "col1": "Covasna",
        "col2": "Covasna",
        "col3": "Covasna County"
    },
    {
        "col0": "Valea Seaca River",
        "col1": "Prahova County",
        "col2": "Prahova County",
        "col3": "Prahova County"
    },
    {
        "col0": "Valea Seaca River",
        "col1": "Brasov County",
        "col2": "Brasov County",
        "col3": "Brasov County"
    },
    {
        "col0": "Valea Seaca River",
        "col1": "Hunedoara",
        "col2": "Hunedoara",
        "col3": "Hunedoara"
    },
    {
        "col0": "Valea Seaca River",
        "col1": "Vaslui County",
        "col2": "Vaslui County",
        "col3": "Barlad"
    },
    {
        "col0": "Valea Seaca River",
        "col1": "Prahova County",
        "col2": "Prahova County",
        "col3": "Prahova County"
    },
    {
        "col0": "Valea Seaca River",
        "col1": "Brasov County",
        "col2": "Brasov County",
        "col3": "Brasov County"
    },
    {
        "col0": "Valea Scurta River",
        "col1": "Covasna",
        "col2": "Covasna",
        "col3": "Covasna"
    },
    {
        "col0": "Valea Scurta River",
        "col1": "Cluj County",
        "col2": "Cluj County",
        "col3": "Cluj County"
    },
    {
        "col0": "Valea Scurta River",
        "col1": "Brasov",
        "col2": "Brasov",
        "col3": "Brasov County"
    }
]