[
    {
        "col0": "Collagenase",
        "col1": "21",
        "col2": "11",
        "col3": "4312",
        "col4": "NM_002421"
    },
    {
        "col0": "Collagen, type XX, alpha 1",
        "col1": "13",
        "col2": "20",
        "col3": "57642",
        "col4": "NM_020882"
    },
    {
        "col0": "Collagen, type XI, alpha 2",
        "col1": "21",
        "col2": "6",
        "col3": "1302",
        "col4": "NM_080679"
    },
    {
        "col0": "Cocaine and amphetamine regulated transcript",
        "col1": "13",
        "col2": "5",
        "col3": "9607",
        "col4": "NM_004291"
    },
    {
        "col0": "Clathrin",
        "col1": "11",
        "col2": "17",
        "col3": "1211",
        "col4": "NM_001834"
    },
    {
        "col0": "Citrin",
        "col1": "21",
        "col2": "7",
        "col3": "10165",
        "col4": "NM_014251"
    },
    {
        "col0": "Ciliary neurotrophic factor receptor",
        "col1": "13",
        "col2": "9",
        "col3": "1271",
        "col4": "NM_001842"
    },
    {
        "col0": "Chymase",
        "col1": "11",
        "col2": "14",
        "col3": "1215",
        "col4": "NM_001836"
    },
    {
        "col0": "Chordin",
        "col1": "27",
        "col2": "3",
        "col3": "8646",
        "col4": "NM_003741"
    },
    {
        "col0": "Cholinesterase",
        "col1": "22",
        "col2": "3",
        "col3": "43",
        "col4": "NM_000055"
    },
    {
        "col0": "Cholecystokinin receptor",
        "col1": "15",
        "col2": "11",
        "col3": "886",
        "col4": "NM_000730"
    },
    {
        "col0": "Chimerin 1",
        "col1": "31",
        "col2": "2",
        "col3": "1123",
        "col4": "NM_001822"
    },
    {
        "col0": "Chicken ovalbumin upstream promoter-transcription factor",
        "col1": "14",
        "col2": "15",
        "col3": "7025",
        "col4": "NM_005654"
    },
    {
        "col0": "Chemerin peptide",
        "col1": "36",
        "col2": "7",
        "col3": "5919",
        "col4": "NM_002889"
    },
    {
        "col0": "Channel-inducing factor 4",
        "col1": "11",
        "col2": "10",
        "col3": "53828",
        "col4": "NM_173160"
    },
    {
        "col0": "Ceramide synthase 5",
        "col1": "13",
        "col2": "12",
        "col3": "91012",
        "col4": "NM_147190"
    },
    {
        "col0": "Ceramide synthase 4",
        "col1": "13",
        "col2": "19",
        "col3": "79603",
        "col4": "NM_024552.2"
    },
    {
        "col0": "Cellular apoptosis susceptibility protein",
        "col1": "13",
        "col2": "20",
        "col3": "1434",
        "col4": "NM_001316"
    },
    {
        "col0": "Caveolin",
        "col1": "25",
        "col2": "3",
        "col3": "857",
        "col4": "NM_001233"
    },
    {
        "col0": "Cation channels of sperm",
        "col1": "12",
        "col2": "1",
        "col3": "117144",
        "col4": "NM_053054"
    },
    {
        "col0": "Caspase 5",
        "col1": "22.2-q22.3",
        "col2": "11",
        "col3": "838",
        "col4": "NM_004347"
    },
    {
        "col0": "Caspase 4",
        "col1": "22.2-q22.3",
        "col2": "11",
        "col3": "837",
        "col4": "NM_001225"
    },
    {
        "col0": "Caspase 12",
        "col1": "22",
        "col2": "11",
        "col3": "120329",
        "col4": "NR_000035"
    },
    {
        "col0": "Casein kinase 2",
        "col1": "13",
        "col2": "16",
        "col3": "1457",
        "col4": "NM_001320"
    },
    {
        "col0": "Carnitine-acylcarnitine translocase",
        "col1": "21",
        "col2": "3",
        "col3": "788",
        "col4": "NM_000387"
    },
    {
        "col0": "Cardiotrophin 1",
        "col1": "11",
        "col2": "16",
        "col3": "1489",
        "col4": "NM_001330"
    },
    {
        "col0": "Carboxypeptidase B",
        "col1": "14",
        "col2": "13",
        "col3": "1360",
        "col4": "NM_001871"
    },
    {
        "col0": "Cannabinoid receptor",
        "col1": "14",
        "col2": "1",
        "col3": "1268",
        "col4": "NM_001841"
    },
    {
        "col0": "Calsequestrin",
        "col1": "13",
        "col2": "1",
        "col3": "844",
        "col4": "NM_001231"
    },
    {
        "col0": "Calponin",
        "col1": "11",
        "col2": "1",
        "col3": "1264",
        "col4": "NM_001299"
    },
    {
        "col0": "Calcitonin gene-related peptide",
        "col1": "14",
        "col2": "11",
        "col3": "796",
        "col4": "NM_000728"
    },
    {
        "col0": "Calcineurin",
        "col1": "14",
        "col2": "10",
        "col3": "5530",
        "col4": "NM_000944"
    },
    {
        "col0": "Calbindin",
        "col1": "11",
        "col2": "16",
        "col3": "793",
        "col4": "NM_001740"
    },
    {
        "col0": "CXCL6",
        "col1": "21",
        "col2": "4",
        "col3": "6372",
        "col4": "NM_002993"
    },
    {
        "col0": "CXCL2",
        "col1": "21",
        "col2": "4",
        "col3": "2920",
        "col4": "NM_002089"
    },
    {
        "col0": "CXCL17",
        "col1": "13",
        "col2": "19",
        "col3": "284340",
        "col4": "NM_198477"
    },
    {
        "col0": "CXCL16",
        "col1": "13",
        "col2": "17",
        "col3": "58191",
        "col4": "NM_022059"
    },
    {
        "col0": "CXCL14",
        "col1": "31",
        "col2": "5",
        "col3": "9547",
        "col4": "NM_004887"
    },
    {
        "col0": "CSF2RB",
        "col1": "12",
        "col2": "22",
        "col3": "1439",
        "col4": "NM_000395"
    },
    {
        "col0": "CORO1B",
        "col1": "13",
        "col2": "11",
        "col3": "57175",
        "col4": "NM_020441"
    },
    {
        "col0": "COPII",
        "col1": "21",
        "col2": "14",
        "col3": "10802",
        "col4": "NM_006364"
    },
    {
        "col0": "CLEC4C",
        "col1": "13",
        "col2": "12",
        "col3": "170482",
        "col4": "NM_203503"
    },
    {
        "col0": "CKMT1A",
        "col1": "15",
        "col2": "15",
        "col3": "548596",
        "col4": "NM_001015001"
    },
    {
        "col0": "CGMP-dependent protein kinase",
        "col1": "11",
        "col2": "10",
        "col3": "5592",
        "col4": "NM_006258"
    },
    {
        "col0": "CEACAM4",
        "col1": "13",
        "col2": "19",
        "col3": "1089",
        "col4": "NM_001817"
    },
    {
        "col0": "CEACAM21",
        "col1": "13",
        "col2": "19",
        "col3": "90273",
        "col4": "NM_033543"
    },
    {
        "col0": "CEACAM20",
        "col1": "13",
        "col2": "19",
        "col3": "125931",
        "col4": "NM_198444"
    },
    {
        "col0": "CEACAM19",
        "col1": "13",
        "col2": "19",
        "col3": "56971",
        "col4": "NM_020219"
    },
    {
        "col0": "CEACAM16",
        "col1": "13",
        "col2": "19",
        "col3": "388551",
        "col4": "XM_371177"
    },
    {
        "col0": "CDGSH iron sulfur domain",
        "col1": "12",
        "col2": "10",
        "col3": "130500",
        "col4": "NM_001008388"
    },
    {
        "col0": "CD98",
        "col1": "12",
        "col2": "11",
        "col3": "6520",
        "col4": "NM_001013251"
    },
    {
        "col0": "CD8",
        "col1": "12",
        "col2": "2",
        "col3": "925",
        "col4": "NM_001768"
    },
    {
        "col0": "CD79",
        "col1": "13",
        "col2": "17",
        "col3": "973",
        "col4": "NM_001783"
    },
    {
        "col0": "CD70",
        "col1": "13",
        "col2": "19",
        "col3": "970",
        "col4": "NM_001252"
    },
    {
        "col0": "CD68",
        "col1": "13",
        "col2": "17",
        "col3": "968",
        "col4": "NM_001251"
    },
    {
        "col0": "CD64",
        "col1": "11",
        "col2": "1",
        "col3": "2209",
        "col4": "NM_000566"
    },
    {
        "col0": "CD58",
        "col1": "13",
        "col2": "1",
        "col3": "965",
        "col4": "NM_001779"
    },
    {
        "col0": "CD3",
        "col1": "23",
        "col2": "11",
        "col3": "915",
        "col4": "NM_000073"
    },
    {
        "col0": "CD32",
        "col1": "23",
        "col2": "1",
        "col3": "2212",
        "col4": "NM_004001"
    },
    {
        "col0": "CD16",
        "col1": "23",
        "col2": "1",
        "col3": "2214",
        "col4": "NM_000569"
    },
    {
        "col0": "CD153",
        "col1": "33",
        "col2": "9",
        "col3": "944",
        "col4": "NM_001244"
    },
    {
        "col0": "CD120",
        "col1": "13",
        "col2": "1",
        "col3": "7132",
        "col4": "NM_001065"
    },
    {
        "col0": "CD1",
        "col1": "22",
        "col2": "1",
        "col3": "909",
        "col4": "NM_001763"
    }
]