[
    {
        "col0": "W. L. \"Jack\" Howard",
        "col1": "V. E. Howard",
        "col2": "Louisiana",
        "col3": "1994-11-11"
    },
    {
        "col0": "V. Cazacliu",
        "col1": "G. Cazacliu",
        "col2": "Cotiujenii Mari",
        "col3": "1950-1-1"
    },
    {
        "col0": "T. Gosnell",
        "col1": "J. F. Gosnell",
        "col2": "London, Ontario",
        "col3": "2014-12-08"
    },
    {
        "col0": "T. A. Doyle",
        "col1": "S. E. Doyle",
        "col2": "Providence, Rhode Island",
        "col3": "1886-06-09"
    },
    {
        "col0": "P. Elmo Futrell Jr.",
        "col1": "C. Kirkpatrick",
        "col2": "Louisiana",
        "col3": "1993-12-04"
    },
    {
        "col0": "M. Kresevljakovic",
        "col1": "H. Kresevljakovic",
        "col2": "Sarajevo",
        "col3": "2001-12-06"
    },
    {
        "col0": "J. Child",
        "col1": "N. Rochester",
        "col2": "Lyme, New Hampshire",
        "col3": "1860-10-27"
    },
    {
        "col0": "J. Duane",
        "col1": "J. C. Duane",
        "col2": "New York City",
        "col3": "1797-02-01"
    },
    {
        "col0": "J. Viger",
        "col1": "L. Papineau",
        "col2": "Montreal",
        "col3": "1858-12-12"
    },
    {
        "col0": "J. C. Martin",
        "col1": "H. Ligarde",
        "col2": "Texas",
        "col3": "1998-11-11"
    },
    {
        "col0": "G. Cazacliu",
        "col1": "I. Cazacliu",
        "col2": "Cotiujenii Mari",
        "col3": "1959-12-27"
    },
    {
        "col0": "D. S. Morrison",
        "col1": "J. H. Morrison",
        "col2": "Louisiana",
        "col3": "1964-05-22"
    },
    {
        "col0": "C. Wilson",
        "col1": "D. Tracey",
        "col2": "Lower Canada",
        "col3": "1877-05-04"
    },
    {
        "col0": "A. J. O'Keefe",
        "col1": "S. O'Keefe",
        "col2": "Louisiana",
        "col3": "1943-11-14"
    }
]