[
    {
        "col0": "HMS Enterprise",
        "col1": "2000-06-19",
        "col2": "16",
        "col3": "2003-10-17"
    },
    {
        "col0": "HMS Endymion",
        "col1": "1795-04-30",
        "col2": "12",
        "col3": "1797-06-12"
    },
    {
        "col0": "HMS Encounter",
        "col1": "1845-02-05",
        "col2": "10",
        "col3": "1849-10-12"
    },
    {
        "col0": "HMS Elfin",
        "col1": "1933-05-12",
        "col2": "7",
        "col3": "1934-01-16"
    },
    {
        "col0": "HMS Electra",
        "col1": "1932-11-01",
        "col2": "10",
        "col3": "1934-09-13"
    },
    {
        "col0": "HMS Eggesford",
        "col1": "1940-07-28",
        "col2": "9",
        "col3": "1943-01-21"
    },
    {
        "col0": "HMS Echo",
        "col1": "2000-06-19",
        "col2": "16",
        "col3": "2003-03-07"
    },
    {
        "col0": "HMS Eastbourne",
        "col1": "1951-03-06",
        "col2": "12",
        "col3": "1958-01-09"
    },
    {
        "col0": "HMS Eagle",
        "col1": "1912-07-29",
        "col2": "35",
        "col3": "1924-02-20"
    },
    {
        "col0": "HMS E26",
        "col1": "1914-04-29",
        "col2": "4",
        "col3": "1915-10-03"
    },
    {
        "col0": "HMS E25",
        "col1": "1914-04-29",
        "col2": "4",
        "col3": "1915-10-04"
    },
    {
        "col0": "HMS Duncan",
        "col1": "1931-02-02",
        "col2": "10",
        "col3": "1933-04-05"
    },
    {
        "col0": "HMS Dumbarton Castle",
        "col1": "1980-08-08",
        "col2": "11",
        "col3": "1982-03-12"
    },
    {
        "col0": "HMS Dumbarton Castle",
        "col1": "1943-02-02",
        "col2": "11",
        "col3": "1944-02-25"
    },
    {
        "col0": "HMS Duke of York",
        "col1": "1936-11-16",
        "col2": "31",
        "col3": "1941-11-04"
    },
    {
        "col0": "HMS Duchess",
        "col1": "1931-02-02",
        "col2": "10",
        "col3": "1933-01-24"
    },
    {
        "col0": "HMS Driver",
        "col1": "1840-03-12",
        "col2": "10",
        "col3": "1841-11-05"
    },
    {
        "col0": "HMS Domett",
        "col1": "1942-01-25",
        "col2": "10",
        "col3": "1943-09-03"
    },
    {
        "col0": "HMS Diligence",
        "col1": "1795-03-18",
        "col2": "8",
        "col3": "1795-11-26"
    },
    {
        "col0": "HMS Dido",
        "col1": "1834-02-26",
        "col2": "11",
        "col3": "1836-10-25"
    },
    {
        "col0": "HMS Diana",
        "col1": "1931-02-02",
        "col2": "10",
        "col3": "1940-09-06"
    },
    {
        "col0": "HMS Diana",
        "col1": "1945-02-16",
        "col2": "16",
        "col3": "1954-03-29"
    },
    {
        "col0": "HMS Diamond",
        "col1": "1945-01-24",
        "col2": "13",
        "col3": "1952-02-21"
    },
    {
        "col0": "HMS Devonshire",
        "col1": "1956-01-24",
        "col2": "16",
        "col3": "1962-11-15"
    },
    {
        "col0": "HMS Derwent",
        "col1": "1940-07-04",
        "col2": "10",
        "col3": "1942-04-24"
    },
    {
        "col0": "HMS Defender",
        "col1": "1945-02-16",
        "col2": "16",
        "col3": "1952-12-05"
    },
    {
        "col0": "HMS Defender",
        "col1": "1882-08-26",
        "col2": "2",
        "col3": "1883-09-18"
    },
    {
        "col0": "HMS Defence",
        "col1": "1859-12-14",
        "col2": "16",
        "col3": "1861-12-04"
    },
    {
        "col0": "HMS Decoy",
        "col1": "1931-02-02",
        "col2": "10",
        "col3": "1933-04-04"
    },
    {
        "col0": "HMS Daring",
        "col1": "1931-02-02",
        "col2": "10",
        "col3": "1932-11-25"
    },
    {
        "col0": "HMS Daring",
        "col1": "1843-07-10",
        "col2": "9",
        "col3": "1844-10-22"
    },
    {
        "col0": "HMS Dampier",
        "col1": "1943-01-23",
        "col2": "11",
        "col3": "1948-05-04"
    },
    {
        "col0": "HMS Dalrymple",
        "col1": "1943-01-25",
        "col2": "11",
        "col3": "1948-02-10"
    },
    {
        "col0": "HMS Dakins",
        "col1": "1942-01-10",
        "col2": "10",
        "col3": "1943-11-23"
    },
    {
        "col0": "HMS Dainty",
        "col1": "1945-01-24",
        "col2": "16",
        "col3": "1953-02-26"
    },
    {
        "col0": "HMS Cygnet",
        "col1": "1930-07-09",
        "col2": "10",
        "col3": "1937-02-17"
    },
    {
        "col0": "HMS Curlew",
        "col1": "1795-03-18",
        "col2": "8",
        "col3": "1795-08-29"
    },
    {
        "col0": "HMS Crusader",
        "col1": "1930-07-15",
        "col2": "10",
        "col3": "1938-06-15"
    },
    {
        "col0": "HMS Crescent",
        "col1": "1930-01-30",
        "col2": "10",
        "col3": "1932-04-21"
    },
    {
        "col0": "HMS Cormorant",
        "col1": "1841-03-18",
        "col2": "10",
        "col3": "1843-02-08"
    },
    {
        "col0": "HMS Cordelia",
        "col1": "1854-04-03",
        "col2": "8",
        "col3": "1857-04-11"
    },
    {
        "col0": "HMS Cooke",
        "col1": "1942-01-25",
        "col2": "10",
        "col3": "1943-08-23"
    },
    {
        "col0": "HMS Cook",
        "col1": "1943-01-25",
        "col2": "11",
        "col3": "1950-06-06"
    },
    {
        "col0": "HMS Conway",
        "col1": "1825-06-09",
        "col2": "10",
        "col3": "1832-05-11"
    },
    {
        "col0": "HMS Constance",
        "col1": "1942-09-12",
        "col2": "10",
        "col3": "1945-06-06"
    },
    {
        "col0": "HMS Consort",
        "col1": "1942-08-14",
        "col2": "10",
        "col3": "1946-03-19"
    },
    {
        "col0": "HMS Conqueror",
        "col1": "1852-11-16",
        "col2": "16",
        "col3": "1856-04-09"
    },
    {
        "col0": "HMS Comet",
        "col1": "1930-07-15",
        "col2": "10",
        "col3": "1938-06-11"
    },
    {
        "col0": "HMS Codrington",
        "col1": "1928-03-06",
        "col2": "10",
        "col3": "1930-06-04"
    },
    {
        "col0": "HMS Childers",
        "col1": "1942-07-24",
        "col2": "10",
        "col3": "1945-12-19"
    },
    {
        "col0": "HMS Childers",
        "col1": "1811-01-19",
        "col2": "9",
        "col3": "1812-08-22"
    },
    {
        "col0": "HMS Chieftain",
        "col1": "1942-07-24",
        "col2": "10",
        "col3": "1946-03-07"
    },
    {
        "col0": "HMS Chichester",
        "col1": "1951-06-28",
        "col2": "12",
        "col3": "1958-05-16"
    },
    {
        "col0": "HMS Chevron",
        "col1": "1942-07-24",
        "col2": "10",
        "col3": "1945-08-23"
    },
    {
        "col0": "HMS Cheviot",
        "col1": "1942-07-24",
        "col2": "10",
        "col3": "1945-12-11"
    },
    {
        "col0": "HMS Chequers",
        "col1": "1942-07-24",
        "col2": "10",
        "col3": "1945-09-28"
    },
    {
        "col0": "HMS Chaplet",
        "col1": "1942-07-24",
        "col2": "10",
        "col3": "1945-08-24"
    },
    {
        "col0": "HMS Cawsand Bay",
        "col1": "1943-01-25",
        "col2": "11",
        "col3": "1945-11-13"
    },
    {
        "col0": "HMS Cattistock",
        "col1": "1979-01-29",
        "col2": "9",
        "col3": "1982-03-05"
    },
    {
        "col0": "HMS Carron",
        "col1": "1942-03-24",
        "col2": "10",
        "col3": "1944-07-28"
    },
    {
        "col0": "HMS Carron",
        "col1": "1812-11-18",
        "col2": "8",
        "col3": "1813-11-11"
    },
    {
        "col0": "HMS Carcass",
        "col1": "1758-09-21",
        "col2": "8",
        "col3": "1759-06-27"
    },
    {
        "col0": "HMS Caprice",
        "col1": "1942-02-16",
        "col2": "10",
        "col3": "1944-04-05"
    },
    {
        "col0": "HMS Cameleon",
        "col1": "1795-07-13",
        "col2": "8",
        "col3": "-0026-10-27"
    },
    {
        "col0": "HMS Cambridge",
        "col1": "1750-07-12",
        "col2": "14",
        "col3": "1756-01-17"
    },
    {
        "col0": "HMS Cambrian",
        "col1": "1942-02-16",
        "col2": "10",
        "col3": "1944-07-17"
    },
    {
        "col0": "HMS Calypso",
        "col1": "1781-12-28",
        "col2": "8",
        "col3": "1783-12-01"
    },
    {
        "col0": "HMS Caesar",
        "col1": "1942-02-16",
        "col2": "10",
        "col3": "1944-07-17"
    },
    {
        "col0": "HMS Bulwark",
        "col1": "1943-04-17",
        "col2": "37",
        "col3": "1954-11-04"
    },
    {
        "col0": "HMS Bulwark",
        "col1": "1996-07-18",
        "col2": "28",
        "col3": "2004-12-10"
    },
    {
        "col0": "HMS Bulwark",
        "col1": "1898-06-27",
        "col2": "22",
        "col3": "1902-03-11"
    },
    {
        "col0": "HMS Britomart",
        "col1": "1937-08-11",
        "col2": "10",
        "col3": "1939-08-24"
    }
]