[
    {
        "col0": "KTKB-LD",
        "col1": "from sister stationKTKB-FM",
        "col2": "Low-power television",
        "col3": "26.1The CW"
    },
    {
        "col0": "KTFO-CD",
        "col1": "TeleFutura O",
        "col2": "-CD",
        "col3": "31.1UniMas"
    },
    {
        "col0": "KSVT-LD",
        "col1": "Sun Valley Television",
        "col2": "LD",
        "col3": "14.1Fox(primary)"
    },
    {
        "col0": "KSNV",
        "col1": "Southern NeVada",
        "col2": "None",
        "col3": "3.1NBC"
    },
    {
        "col0": "KSNT",
        "col1": "Kansas State",
        "col2": "DT",
        "col3": "27.1NBC"
    },
    {
        "col0": "KSNL-LD",
        "col1": "Kansas",
        "col2": "DC",
        "col3": "6.1NBC"
    },
    {
        "col0": "KRNV-DT",
        "col1": "(No relation toKRNV-FM)",
        "col2": "DT",
        "col3": "4.1NBC"
    },
    {
        "col0": "KRET-CD",
        "col1": "K RETro Television Network",
        "col2": "Class A",
        "col3": "45.1MeTV"
    },
    {
        "col0": "KQCT-LP",
        "col1": "K Quad Cities Television",
        "col2": "LPDTV",
        "col3": "61.1RTV"
    },
    {
        "col0": "KPTH",
        "col1": "Pappas TelecastingHeartland (reference to former owner)",
        "col2": "DT",
        "col3": "44.1Fox"
    },
    {
        "col0": "KNPN-LD",
        "col1": "News-Press NOW",
        "col2": "LPTV",
        "col3": "26.1Fox"
    },
    {
        "col0": "KNPG-LD",
        "col1": "News-Press & Gazette Company",
        "col2": "LPTV",
        "col3": "30.1Telemundo"
    },
    {
        "col0": "KNLA-CD",
        "col1": "K N Los Angeles",
        "col2": "Class A",
        "col3": "20.1 Crossings TV"
    }
]