[
    {
        "col0": "Ohlone/Chynoweth-Almaden",
        "col1": "Almaden",
        "col2": "Ohlone/Chynoweth",
        "col3": "3540"
    },
    {
        "col0": "Ofoten Line",
        "col1": "Riksgransen Station",
        "col2": "Port of Narvik",
        "col3": "43000"
    },
    {
        "col0": "Odsherred Line",
        "col1": "Nykobing Sjaelland",
        "col2": "Holbaek",
        "col3": "49400"
    },
    {
        "col0": "Odenwald Railway",
        "col1": "Gross-Umstadt Wiebelsbach station",
        "col2": "Darmstadt Hauptbahnhof",
        "col3": "31900"
    },
    {
        "col0": "OdakyA<< Tama Line",
        "col1": "Karakida Station",
        "col2": "Shin-Yurigaoka Station",
        "col3": "10600"
    },
    {
        "col0": "OdakyA<< Odawara Line",
        "col1": "Odawara, Kanagawa",
        "col2": "Shinjuku Station",
        "col3": "82500"
    },
    {
        "col0": "OdakyA<< Tama Line",
        "col1": "Karakida Station",
        "col2": "Shin-Yurigaoka Station",
        "col3": "10600"
    },
    {
        "col0": "OdakyA<< Odawara Line",
        "col1": "Odawara, Kanagawa",
        "col2": "Shinjuku Station",
        "col3": "82500"
    },
    {
        "col0": "Obama Line",
        "col1": "Higashi-Maizuru Station",
        "col2": "Tsuruga Station",
        "col3": "84300"
    },
    {
        "col0": "O-Bahn Busway",
        "col1": "Tea Tree Plaza Interchange",
        "col2": "Hackney Road",
        "col3": "12000"
    },
    {
        "col0": "Naerum Line",
        "col1": "Naerum",
        "col2": "Jaegersborg station",
        "col3": "7800"
    },
    {
        "col0": "Nuremberg-Erfurt high-speed railway",
        "col1": "Ebensfeld",
        "col2": "Erfurt Hauptbahnhof",
        "col3": "83000"
    },
    {
        "col0": "Nuremberg-Bamberg railway",
        "col1": "Bamberg station",
        "col2": "Nurnberg Hauptbahnhof",
        "col3": "62400"
    },
    {
        "col0": "Nuremberg-Augsburg railway",
        "col1": "Augsburg Hauptbahnhof",
        "col2": "Nurnberg Hauptbahnhof",
        "col3": "137100"
    },
    {
        "col0": "Nuremberg-Erfurt high-speed railway",
        "col1": "Ebensfeld",
        "col2": "Erfurt Hauptbahnhof",
        "col3": "83000"
    },
    {
        "col0": "Nuremberg-Bamberg railway",
        "col1": "Bamberg station",
        "col2": "Nurnberg Hauptbahnhof",
        "col3": "62400"
    },
    {
        "col0": "Nuremberg-Augsburg railway",
        "col1": "Augsburg Hauptbahnhof",
        "col2": "Nurnberg Hauptbahnhof",
        "col3": "137100"
    },
    {
        "col0": "Numedal Line",
        "col1": "Rodberg",
        "col2": "Kongsberg Station",
        "col3": "92800"
    },
    {
        "col0": "Novoli-Gagliano del Capo railway",
        "col1": "Gagliano Leuca railway station",
        "col2": "Novoli railway station",
        "col3": "75000"
    },
    {
        "col0": "Novara-Varallo railway",
        "col1": "Varallo Sesia",
        "col2": "Novara",
        "col3": "54000"
    },
    {
        "col0": "Novara-Alessandria railway",
        "col1": "Alessandria",
        "col2": "Novara",
        "col3": "67000"
    },
    {
        "col0": "Novara-Varallo railway",
        "col1": "Varallo Sesia",
        "col2": "Novara",
        "col3": "54000"
    },
    {
        "col0": "Novara-Alessandria railway",
        "col1": "Alessandria",
        "col2": "Novara",
        "col3": "67000"
    },
    {
        "col0": "Noumea-Paita railway",
        "col1": "Paita",
        "col2": "Noumea",
        "col3": "29000"
    },
    {
        "col0": "Norwich and Westerly Railway",
        "col1": "Westerly, Rhode Island",
        "col2": "Norwich, Connecticut",
        "col3": "34761"
    },
    {
        "col0": "North-South connection",
        "col1": "Brussels-South railway station",
        "col2": "Brussels-North railway station",
        "col3": "3800"
    },
    {
        "col0": "North-South Railway",
        "col1": "Saigon Railway Station",
        "col2": "Hanoi Railway Station",
        "col3": "1726000"
    },
    {
        "col0": "Northwest Line",
        "col1": "Kalundborg",
        "col2": "Roskilde",
        "col3": "79300"
    },
    {
        "col0": "Northstar Line",
        "col1": "Big Lake",
        "col2": "Target Field",
        "col3": "64373"
    },
    {
        "col0": "Northport Traction Company",
        "col1": "Northport, New York",
        "col2": "East Northport, New York",
        "col3": "4409"
    },
    {
        "col0": "Northfield railway line",
        "col1": "Northfield railway station",
        "col2": "Adelaide railway station",
        "col3": "14300"
    },
    {
        "col0": "Northern Line",
        "col1": "Chiang Mai Railway Station",
        "col2": "Hua Lamphong Railway Station",
        "col3": "751000"
    },
    {
        "col0": "Northern Lights Express",
        "col1": "Duluth, Minnesota",
        "col2": "Minneapolis, Minnesota",
        "col3": "249448"
    },
    {
        "col0": "Northeastern Line",
        "col1": "Thanaleng Railway Station",
        "col2": "Ban Phachi Junction",
        "col3": "575000"
    },
    {
        "col0": "Northeast Corridor",
        "col1": "Union Station",
        "col2": "South Station",
        "col3": "729515"
    },
    {
        "col0": "Northampton Loop Line",
        "col1": "West Coast Main Line",
        "col2": "West Coast Main Line",
        "col3": "37014"
    },
    {
        "col0": "North Wales Coast Line",
        "col1": "Holyhead railway station",
        "col2": "Crewe railway station",
        "col3": "135796"
    },
    {
        "col0": "North South MRT Line",
        "col1": "Marina Bay MRT Station",
        "col2": "Jurong East MRT Station",
        "col3": "44000"
    },
    {
        "col0": "North Side Main Line",
        "col1": "Merchandise Mart",
        "col2": "Howard",
        "col3": "16576"
    },
    {
        "col0": "North Line, Chennai Suburban",
        "col1": "Bitragunta",
        "col2": "Moore Market",
        "col3": "82000"
    },
    {
        "col0": "North Island Main Trunk",
        "col1": "Auckland",
        "col2": "Wellington",
        "col3": "681000"
    },
    {
        "col0": "North East MRT Line",
        "col1": "Punggol MRT Station",
        "col2": "HarbourFront MRT Station",
        "col3": "20000"
    },
    {
        "col0": "North Coast railway line, New South Wales",
        "col1": "Roma Street railway station",
        "col2": "Maitland railway station",
        "col3": "795000"
    },
    {
        "col0": "North Central Service",
        "col1": "Antioch",
        "col2": "Union Station",
        "col3": "89640"
    },
    {
        "col0": "North-West T-way",
        "col1": "Rouse Hill, New South Wales",
        "col2": "Parramatta railway station",
        "col3": "24000"
    },
    {
        "col0": "North-South Corridor Line",
        "col1": "Munshi Pulia metro station",
        "col2": "Chaudhary Charan Singh International Airport metro station",
        "col3": "22878"
    },
    {
        "col0": "North-Link Line",
        "col1": "Hualien Station",
        "col2": "Su'aoxin Station",
        "col3": "79200"
    },
    {
        "col0": "North-South connection",
        "col1": "Brussels-South railway station",
        "col2": "Brussels-North railway station",
        "col3": "3800"
    },
    {
        "col0": "North-South Railway",
        "col1": "Saigon Railway Station",
        "col2": "Hanoi Railway Station",
        "col3": "1726000"
    },
    {
        "col0": "Norristown High Speed Line",
        "col1": "Norristown Transportation Center",
        "col2": "69th Street Transportation Center",
        "col3": "21565"
    },
    {
        "col0": "Nordland Line",
        "col1": "Bodo Station",
        "col2": "Trondheim Central Station",
        "col3": "729000"
    },
    {
        "col0": "Nocera Inferiore-Mercato San Severino railway",
        "col1": "Mercato San Severino",
        "col2": "Nocera Inferiore",
        "col3": "12000"
    },
    {
        "col0": "Nishitetsu Tenjin Omuta Line",
        "col1": "Omuta Station",
        "col2": "Nishitetsu Fukuoka",
        "col3": "74800"
    },
    {
        "col0": "Nishitetsu Kaizuka Line",
        "col1": "Nishitetsu ShingA<< Station",
        "col2": "Kaizuka Station",
        "col3": "11000"
    },
    {
        "col0": "Nishitetsu Amagi Line",
        "col1": "Amagi Station",
        "col2": "Miyanojin Station",
        "col3": "17900"
    },
    {
        "col0": "Nishi-KyA<<shA<< Line",
        "col1": "Sasebo Station",
        "col2": "Arita Station",
        "col3": "93900"
    },
    {
        "col0": "Ningbo-Taizhou-Wenzhou Railway",
        "col1": "Wenzhou",
        "col2": "Ningbo",
        "col3": "275000"
    },
    {
        "col0": "Niksic-Podgorica railway",
        "col1": "Podgorica Rail Station",
        "col2": "Niksic",
        "col3": "56400"
    },
    {
        "col0": "Nijmegen-Venlo railway",
        "col1": "Venlo railway station",
        "col2": "Nijmegen railway station",
        "col3": "61000"
    },
    {
        "col0": "Nijkerk-Ede-Wageningen railway",
        "col1": "Ede-Wageningen railway station",
        "col2": "Nijkerk railway station",
        "col3": "30000"
    },
    {
        "col0": "Niesenbahn funicular",
        "col1": "Niesen mountain",
        "col2": "Mulenen",
        "col3": "3500"
    }
]