[
    {
        "col0": "A Knight of the Word",
        "col1": "Running with the Demon",
        "col2": "PS3552.R6596 K65 1998",
        "col3": "978-0-345-37963-4"
    },
    {
        "col0": "A House Like a Lotus",
        "col1": "Dragons in the Waters",
        "col2": "PZ7.L5385 Ho 1984",
        "col3": "0-374-33385-8"
    },
    {
        "col0": "A History of the World in 10 1/2  Chapters",
        "col1": "Staring at the Sun",
        "col2": "PR6052.A6657",
        "col3": "0-224-03190-2"
    },
    {
        "col0": "A Guilty Thing Surprised",
        "col1": "The Best Man to Die",
        "col2": "PZ4.R4132 Gu PR6068.E63",
        "col3": "0-09-101340-2"
    },
    {
        "col0": "A Graveyard for Lunatics",
        "col1": "Death Is a Lonely Business",
        "col2": "PS3503.R167 G74 1990",
        "col3": "0-394-57877-5"
    },
    {
        "col0": "A Glastonbury Romance",
        "col1": "Wolf Solent",
        "col2": "PR6031.O867",
        "col3": "0-7156-3648-0"
    },
    {
        "col0": "A Gift of Dragons",
        "col1": "The Skies of Pern",
        "col2": "PS3563.A255 G54 2002",
        "col3": "978-0-345-45635-9"
    },
    {
        "col0": "A German Requiem",
        "col1": "The Pale Criminal",
        "col2": "PR6061.E784 G47 1991",
        "col3": "978-0-670-83516-4"
    },
    {
        "col0": "A Fortress of Grey Ice",
        "col1": "A Cavern of Black Ice",
        "col2": "PS3560.O4874 F67 2003",
        "col3": "0-7653-0633-6"
    },
    {
        "col0": "A Flame in Hali",
        "col1": "Zandru's Forge",
        "col2": "PS3552.R228 F57 2004",
        "col3": "0-7564-0218-2"
    },
    {
        "col0": "A Fire in the Sun",
        "col1": "When Gravity Fails",
        "col2": "PS3555.F4 F5 1989",
        "col3": "0-385-26324-4"
    },
    {
        "col0": "A Feast for Crows",
        "col1": "A Storm of Swords",
        "col2": "PS3563.A7239 F39 2005",
        "col3": "0-00-224743-7"
    },
    {
        "col0": "A Family Affair",
        "col1": "Please Pass the Guilt",
        "col2": "PZ3.S8894 Fam PS3537.T733",
        "col3": "0-670-30611-8"
    },
    {
        "col0": "A Division of the Spoils",
        "col1": "The Towers of Silence",
        "col2": "PZ4.S428 Di PR6069.C596",
        "col3": "0-434-68111-3"
    },
    {
        "col0": "A Dirty Job",
        "col1": "The Stupidest Angel",
        "col2": "PS3563.O594 D57 2006",
        "col3": "0-06-059027-0"
    },
    {
        "col0": "A Devil's Chaplain",
        "col1": "Unweaving the Rainbow",
        "col2": "QH366.2 .D373 2003",
        "col3": "0-618-33540-4"
    },
    {
        "col0": "A Deepness in the Sky",
        "col1": "A Fire Upon the Deep",
        "col2": "PS3572.I534 D44 1999",
        "col3": "0-312-85683-0"
    },
    {
        "col0": "A Darkness at Sethanon",
        "col1": "Silverthorn",
        "col2": "PS3556.E446 D3 1986",
        "col3": "0-385-19215-0"
    },
    {
        "col0": "A Darkness More Than Night",
        "col1": "Angels Flight",
        "col2": "PS3553.O51165 D37 2001",
        "col3": "0-316-15407-5"
    },
    {
        "col0": "A Dance with Dragons",
        "col1": "A Feast for Crows",
        "col2": "PS3563.A7239 D36 2011",
        "col3": "978-0553801477"
    },
    {
        "col0": "A Cure for Cancer",
        "col1": "The Final Programme",
        "col2": "PZ4.M8185 Cu PR6063.O59",
        "col3": "0-85031-026-1"
    },
    {
        "col0": "A Crown of Swords",
        "col1": "Lord of Chaos",
        "col2": "PS3560.O7617 C76 1996",
        "col3": "0-312-85767-5"
    },
    {
        "col0": "A Conspiracy of Kings",
        "col1": "The King of Attolia",
        "col2": "PZ7.T85565 Co 2010",
        "col3": "0-06-187095-1"
    },
    {
        "col0": "A Clash of Kings",
        "col1": "A Game of Thrones",
        "col2": "PS3563.A7239 C58 1999",
        "col3": "0-00-224585-X"
    },
    {
        "col0": "A Certain Justice",
        "col1": "Original Sin",
        "col2": "PR6060.A467 C45 1997c",
        "col3": "0-571-19164-9"
    },
    {
        "col0": "A Catskill Eagle",
        "col1": "Valediction",
        "col2": "PS3566.A686 C3 1985",
        "col3": "0-385-29385-2"
    },
    {
        "col0": "A Caress of Twilight",
        "col1": "A Kiss of Shadows",
        "col2": "PS3558.A443357 C37 2002",
        "col3": "0-345-43527-3"
    },
    {
        "col0": "A Card from Morocco",
        "col1": "The Man in the Glass Booth",
        "col2": "PZ4.S536 Car3 PR6009.H39",
        "col3": "0-7011-1475-4"
    },
    {
        "col0": "A Calculus of Angels",
        "col1": "Newton's Cannon",
        "col2": "PS3561.E79 C35 1999",
        "col3": "978-0-345-40607-1"
    },
    {
        "col0": "A Breath of Snow and Ashes",
        "col1": "The Fiery Cross",
        "col2": "PS3557.A22 B74 2005",
        "col3": "978-0-385-32416-8"
    },
    {
        "col0": "A Break with Charity",
        "col1": "A Ride into Morning",
        "col2": "PZ7.R459 Br 1993",
        "col3": "978-0-15-200353-1"
    },
    {
        "col0": "99 Coffins",
        "col1": "Thirteen Bullets",
        "col2": "PS3623.E468 A616 2007",
        "col3": "0-307-38171-4"
    },
    {
        "col0": "4th of July",
        "col1": "3rd Degree",
        "col2": "PS3566.A822 A615 2005",
        "col3": "0-316-71060-1"
    },
    {
        "col0": "30 Days of Night: Rumors of the Undead",
        "col1": "30 Days of Night",
        "col2": "CPB Box no. 2434 vol. 9",
        "col3": "0-7434-9651-5"
    },
    {
        "col0": "30 Days of Night: Immortal Remains",
        "col1": "30 Days of Night: Rumors of the Undead",
        "col2": "CPB Box no. 2690 vol. 12",
        "col3": "0-7434-9652-3"
    },
    {
        "col0": "3001: The Final Odyssey",
        "col1": "2061: Odyssey Three",
        "col2": "PR6005.L36 A618 1997",
        "col3": "0-345-31522-7"
    },
    {
        "col0": "2061: Odyssey Three",
        "col1": "2010: Odyssey Two",
        "col2": "PR6005.L36 A617 1988",
        "col3": "0-345-35173-8"
    },
    {
        "col0": "1876",
        "col1": "Lincoln",
        "col2": "PS3543.I26 A6214 1976",
        "col3": "0-394-49750-3"
    },
    {
        "col0": "1824: The Arkansas War",
        "col1": "1812: The Rivers of War",
        "col2": "PS3556.L548 A6187 2006",
        "col3": "0-345-46569-5"
    },
    {
        "col0": "1776",
        "col1": "John Adams",
        "col2": "E208 .M396 2005",
        "col3": "978-0-7432-2671-4"
    },
    {
        "col0": "1635: The Eastern Front",
        "col1": "1635: The Tangled Web",
        "col2": "PS3556.L548 A61866 2010",
        "col3": "978-1-4391-3389-7"
    },
    {
        "col0": "1635: The Dreeson Incident",
        "col1": "Ring of Fire II",
        "col2": "PS3556.L548 A61865 2008",
        "col3": "1-4165-5589-7"
    },
    {
        "col0": "1634: The Ram Rebellion",
        "col1": "1634: The Galileo Affair",
        "col2": "PS3556.L548 A6184 2006",
        "col3": "1-4165-2060-0"
    },
    {
        "col0": "1634: The Galileo Affair",
        "col1": "Ring of Fire",
        "col2": "PS3556.L548 A618 2004",
        "col3": "0-7434-8815-6"
    },
    {
        "col0": "1634: The Bavarian Crisis",
        "col1": "1634: The Baltic War",
        "col2": "PS3556.L548 A6175 2007",
        "col3": "978-1-4165-4253-7"
    },
    {
        "col0": "1633",
        "col1": "1632",
        "col2": "PS3573.E217 A615 2002",
        "col3": "0-7434-3542-7"
    },
    {
        "col0": "1493: Uncovering the New World Columbus Created",
        "col1": "1491: New Revelations of the Americas Before Columbus",
        "col2": "D228 .M36 2011",
        "col3": "978-0-307-26572-2"
    },
    {
        "col0": "\"S\" Is for Silence",
        "col1": "\"R\" Is for Ricochet",
        "col2": "PS3557.R13 S15 2005",
        "col3": "978-0-399-15297-9"
    },
    {
        "col0": "\"Rommel?\" \"Gunner Who?\"",
        "col1": "Adolf Hitler: My Part in his Downfall",
        "col2": "D811 .M52525 1974",
        "col3": "0-7181-0733-0"
    },
    {
        "col0": "\"R\" Is for Ricochet",
        "col1": "\"Q\" Is for Quarry",
        "col2": "PS3557.R13 R15 2004",
        "col3": "978-0-399-15228-3"
    },
    {
        "col0": "\"Q\" Is for Quarry",
        "col1": "\"P\" Is for Peril",
        "col2": "PS3557.R13 Q15 2002",
        "col3": "978-0-399-14915-3"
    },
    {
        "col0": "\"P\" Is for Peril",
        "col1": "\"O\" Is for Outlaw",
        "col2": "PS3557.R13 P3 2001",
        "col3": "978-0-399-14719-7"
    },
    {
        "col0": "\"O\" Is for Outlaw",
        "col1": "\"N\" Is for Noose",
        "col2": "PS3557.R13 O2 1999",
        "col3": "978-0-8050-5955-7"
    },
    {
        "col0": "\"N\" Is for Noose",
        "col1": "\"M\" Is for Malice",
        "col2": "PS3557.R13 N2 1998",
        "col3": "978-0-8050-3650-3"
    },
    {
        "col0": "\"M\" Is for Malice",
        "col1": "\"L\" Is for Lawless",
        "col2": "PS3557.R13 M13 1996",
        "col3": "978-0-8050-3637-4"
    },
    {
        "col0": "\"L\" Is for Lawless",
        "col1": "\"K\" Is for Killer",
        "col2": "PS3557.R13 L2 1995",
        "col3": "978-0-8050-1937-7"
    },
    {
        "col0": "\"K\" Is for Killer",
        "col1": "\"J\" Is for Judgment",
        "col2": "PS3557.R13 K2 1994",
        "col3": "978-0-8050-1936-0"
    },
    {
        "col0": "\"J\" Is for Judgment",
        "col1": "\"I\" Is for Innocent",
        "col2": "PS3557.R13 J2 1993",
        "col3": "978-0-8050-1935-3"
    },
    {
        "col0": "\"I\" Is for Innocent",
        "col1": "\"H\" Is for Homicide",
        "col2": "PS3557.R13 I2 1992",
        "col3": "978-0-8050-1085-5"
    },
    {
        "col0": "\"H\" Is for Homicide",
        "col1": "\"G\" Is for Gumshoe",
        "col2": "PS3557.R13 H17 1991",
        "col3": "978-0-8050-1084-8"
    },
    {
        "col0": "\"G\" Is for Gumshoe",
        "col1": "\"F\" Is for Fugitive",
        "col2": "PS3557.R13 G14 1990",
        "col3": "978-0-8050-0461-8"
    },
    {
        "col0": "\"F\" Is for Fugitive",
        "col1": "\"E\" Is for Evidence",
        "col2": "PS3557.R13 F2 1989",
        "col3": "978-0-8050-0460-1"
    },
    {
        "col0": "\"E\" Is for Evidence",
        "col1": "\"D\" Is for Deadbeat",
        "col2": "PS3557.R13 E2 1988",
        "col3": "978-0-8050-0459-5"
    },
    {
        "col0": "\"D\" Is for Deadbeat",
        "col1": "\"C\" Is for Corpse",
        "col2": "PS3557.R13 D2 1987",
        "col3": "978-0-8050-0248-5"
    }
]