[
    {
        "col0": "J. Kinloch",
        "col1": "1849-1-1",
        "col2": "1849-1-1",
        "col3": "1910-1-1"
    },
    {
        "col0": "John Henry Greville Smyth",
        "col1": "1836-1-2",
        "col2": "1836-1-2",
        "col3": "1901-9-27"
    },
    {
        "col0": "J. Esplen",
        "col1": "1863-0-0",
        "col2": "1863-0-0",
        "col3": "1930-2-7"
    },
    {
        "col0": "J. B. Edwards",
        "col1": "1889-1-12",
        "col2": "1889-1-12",
        "col3": "1922-8-22"
    },
    {
        "col0": "J. Aubrey-Fletcher",
        "col1": "1912-8-22",
        "col2": "1912-8-22",
        "col3": "1992-6-19"
    },
    {
        "col0": "J. Armytage",
        "col1": "1732-7-13",
        "col2": "1732-7-13",
        "col3": "1758-9-10"
    },
    {
        "col0": "J. Lucas",
        "col1": "1889-8-27",
        "col2": "1889-8-27",
        "col3": "1980-5-2"
    },
    {
        "col0": "Jehangir Cowasji Jehangir Readymoney",
        "col1": "1853-6-8",
        "col2": "1853-6-8",
        "col3": "1934-7-26"
    },
    {
        "col0": "J. Rushout",
        "col1": "1644-3-22",
        "col2": "1644-3-22",
        "col3": "1698-2-16"
    },
    {
        "col0": "J. Rivett-Carnac",
        "col1": "1784-11-11",
        "col2": "1784-11-11",
        "col3": "1846-1-28"
    },
    {
        "col0": "J. E. Home",
        "col1": "1798-10-25",
        "col2": "1798-10-25",
        "col3": "1853-11-1"
    },
    {
        "col0": "J. Bellingham",
        "col1": "1623-9-8",
        "col2": "1623-9-8",
        "col3": "1650-10-26"
    },
    {
        "col0": "H. Evelyn",
        "col1": "1769-1-31",
        "col2": "1769-1-31",
        "col3": "1848-8-28"
    },
    {
        "col0": "H. Mackworth",
        "col1": "1687-9-7",
        "col2": "1687-9-7",
        "col3": "1765-8-20"
    },
    {
        "col0": "H. Cory",
        "col1": "1857-2-2",
        "col2": "1857-2-2",
        "col3": "1933-2-2"
    },
    {
        "col0": "H. Stracey",
        "col1": "1802-1-1",
        "col2": "1802-1-1",
        "col3": "1885-1-1"
    },
    {
        "col0": "H. Peek",
        "col1": "1825-2-26",
        "col2": "1825-2-26",
        "col3": "1898-8-26"
    },
    {
        "col0": "H. Hibbert",
        "col1": "1850-4-4",
        "col2": "1850-4-4",
        "col3": "1927-11-15"
    },
    {
        "col0": "H. Benyon",
        "col1": "1884-1-1",
        "col2": "1884-1-1",
        "col3": "1959-1-1"
    },
    {
        "col0": "H. Meysey-Thompson",
        "col1": "1809-8-11",
        "col2": "1809-8-11",
        "col3": "1874-5-17"
    },
    {
        "col0": "H. Mallaby-Deeley",
        "col1": "1863-10-27",
        "col2": "1863-10-27",
        "col3": "1937-2-4"
    },
    {
        "col0": "H. Hope",
        "col1": "1865-1-1",
        "col2": "1865-1-1",
        "col3": "1959-1-1"
    },
    {
        "col0": "H. A. Wernher",
        "col1": "1893-1-16",
        "col2": "1893-1-16",
        "col3": "1973-6-30"
    },
    {
        "col0": "H. Lever",
        "col1": "1869-4-18",
        "col2": "1869-4-18",
        "col3": "1947-7-1"
    },
    {
        "col0": "H. Kerr",
        "col1": "1903-8-1",
        "col2": "1903-8-1",
        "col3": "1974-12-26"
    },
    {
        "col0": "G. Foster",
        "col1": "1866-6-10",
        "col2": "1866-6-10",
        "col3": "1931-1-1"
    },
    {
        "col0": "G. Tapps-Gervis-Meyrick",
        "col1": "1827-9-1",
        "col2": "1827-9-1",
        "col3": "1896-3-7"
    },
    {
        "col0": "G. Tapps-Gervis",
        "col1": "1795-5-24",
        "col2": "1795-5-24",
        "col3": "1842-8-26"
    },
    {
        "col0": "G. Stucley",
        "col1": "1812-8-17",
        "col2": "1812-8-17",
        "col3": "1900-3-13"
    },
    {
        "col0": "G. Sleight",
        "col1": "1853-3-26",
        "col2": "1853-3-26",
        "col3": "1921-3-19"
    },
    {
        "col0": "G. Holcroft",
        "col1": "1856-0-0",
        "col2": "1856-0-0",
        "col3": "1951-4-19"
    },
    {
        "col0": "G. C. Williams",
        "col1": "1878-1-1",
        "col2": "1878-1-1",
        "col3": "1958-1-1"
    },
    {
        "col0": "G. B. Smith",
        "col1": "1912-12-12",
        "col2": "1912-12-12",
        "col3": "1976-9-18"
    },
    {
        "col0": "G. Bisshopp",
        "col1": "1791-7-5",
        "col2": "1791-7-5",
        "col3": "1834-3-22"
    },
    {
        "col0": "G. Cornewall",
        "col1": "1869-5-7",
        "col2": "1869-5-7",
        "col3": "1951-1-21"
    },
    {
        "col0": "F. Orr-Lewis",
        "col1": "1860-02-11",
        "col2": "1860-02-11",
        "col3": "1921-11-18"
    },
    {
        "col0": "F. Milner",
        "col1": "1849-11-7",
        "col2": "1849-11-7",
        "col3": "1931-6-8"
    },
    {
        "col0": "F. Sanderson",
        "col1": "1880-1-1",
        "col2": "1880-1-1",
        "col3": "1965-7-18"
    },
    {
        "col0": "F. Freeling",
        "col1": "1764-8-25",
        "col2": "1764-8-25",
        "col3": "1836-7-10"
    },
    {
        "col0": "F. Champneys",
        "col1": "1848-3-25",
        "col2": "1848-3-25",
        "col3": "1930-2-4"
    },
    {
        "col0": "Francis Blackwood, 10th Baron Dufferin and Claneboye",
        "col1": "1916-5-20",
        "col2": "1916-5-20",
        "col3": "1991-11-13"
    },
    {
        "col0": "F. Dalberg-Acton",
        "col1": "1801-7-24",
        "col2": "1801-7-24",
        "col3": "1837-1-31"
    },
    {
        "col0": "E. M. Harvey",
        "col1": "1867-0-0",
        "col2": "1867-0-0",
        "col3": "1955-0-0"
    },
    {
        "col0": "E. Craig",
        "col1": "1859-0-0",
        "col2": "1859-0-0",
        "col3": "1933-4-9"
    }
]