[
    {
        "col0": "Pez",
        "col1": "E. Haas",
        "col2": "9",
        "col3": "Sugar"
    },
    {
        "col0": "Nutribun",
        "col1": "United States Agency for International Development",
        "col2": "80",
        "col3": "whole wheat flour, non-fat dried milk powder, soy flour, iodized salt"
    },
    {
        "col0": "Khanom phing",
        "col1": "Maria Guyomar de Pinha",
        "col2": "100",
        "col3": "Tapioca flour, coconut milk, and egg yolk"
    },
    {
        "col0": "Dize mile",
        "col1": "G. Creole",
        "col2": "100",
        "col3": "Flour,lard,salt,baking powder,water,sugar,lemon,vanilla,cinnamon,nutmeg"
    },
    {
        "col0": "Confederate cush",
        "col1": "C. S. Army",
        "col2": "100",
        "col3": "salt pork, bacon,cornmeal mush, cubed beef"
    },
    {
        "col0": "Clementine cake",
        "col1": "S. Jews",
        "col2": "100",
        "col3": "Clementinefruit and typical cake ingredients"
    },
    {
        "col0": "Chicken Picasso",
        "col1": "P. Picasso",
        "col2": "192",
        "col3": "Chicken,bell pepper,butter,onions,garlic,tomatoes,cream,mozzarella,pasta"
    },
    {
        "col0": "Barny Cakes",
        "col1": "M. International",
        "col2": "30",
        "col3": "Sponge"
    }
]