[
    {
        "col0": "Leningrad Nuclear Power Plant",
        "col1": "4000000000",
        "col2": "76348800000000000",
        "col3": "1970"
    },
    {
        "col0": "Lauingen Energy Park",
        "col1": "25700000",
        "col2": "97128000000000",
        "col3": "2008"
    },
    {
        "col0": "Krummel Nuclear Power Plant",
        "col1": "1402000000",
        "col2": "36640800000000000",
        "col3": "1974"
    },
    {
        "col0": "Koeberg Nuclear Power Station",
        "col1": "1940000000",
        "col2": "49204800000000000",
        "col3": "1976"
    },
    {
        "col0": "Khi Solar One",
        "col1": "50000000",
        "col2": "648000000000000",
        "col3": "2012"
    },
    {
        "col0": "Kaunas Combined Heat and Power Plant",
        "col1": "170000000",
        "col2": "2196000000000",
        "col3": "1971"
    },
    {
        "col0": "Kashiwazaki-Kariwa Nuclear Power Plant",
        "col1": "7965000000",
        "col2": "119941200000000000000",
        "col3": "1980"
    },
    {
        "col0": "Kaheawa Wind Power",
        "col1": "51000000",
        "col2": "1608336000000000",
        "col3": "2005"
    },
    {
        "col0": "KaXu Solar One",
        "col1": "100000000",
        "col2": "1152000000000000",
        "col3": "2012"
    },
    {
        "col0": "Isar Nuclear Power Plant",
        "col1": "2387000000",
        "col2": "68583600000000000",
        "col3": "1971"
    },
    {
        "col0": "Ignalina Nuclear Power Plant",
        "col1": "3000000000",
        "col2": "28602000000000000",
        "col3": "1978"
    },
    {
        "col0": "Huanggou Pumped Storage Power Station",
        "col1": "1200000000",
        "col2": "4320000000000000",
        "col3": "2014"
    },
    {
        "col0": "Hope Creek Nuclear Generating Station",
        "col1": "1059000000",
        "col2": "29174400000000000",
        "col3": "1974"
    },
    {
        "col0": "Hoosac Wind Power Project",
        "col1": "28500000",
        "col2": "25200000000000",
        "col3": "2011"
    },
    {
        "col0": "Hitra Wind Farm",
        "col1": "55000000",
        "col2": "540000000000000",
        "col3": "2003"
    },
    {
        "col0": "Hartlepool Nuclear Power Station",
        "col1": "1320000000",
        "col2": "16560000000000000",
        "col3": "1969"
    }
]