[
    {
        "col0": "Shooting at the 2004 Summer Olympics - Men's double trap",
        "col1": "W. Zheng",
        "col2": "Shooting at the 2008 Summer Olympics - Men's double trap",
        "col3": "Shooting at the 2000 Summer Olympics - Men's double trap"
    },
    {
        "col0": "Shooting at the 2004 Summer Olympics - Men's 50 metre rifle three positions",
        "col1": "C. Planer",
        "col2": "Shooting at the 2008 Summer Olympics - Men's 50 metre rifle three positions",
        "col3": "Shooting at the 2000 Summer Olympics - Men's 50 metre rifle three positions"
    },
    {
        "col0": "Shooting at the 2004 Summer Olympics - Men's 50 metre rifle prone",
        "col1": "S. Martynov",
        "col2": "Shooting at the 2008 Summer Olympics - Men's 50 metre rifle prone",
        "col3": "Shooting at the 2000 Summer Olympics - Men's 50 metre rifle prone"
    },
    {
        "col0": "Shooting at the 2004 Summer Olympics - Men's 50 metre pistol",
        "col1": "K. Jong-su",
        "col2": "Shooting at the 2008 Summer Olympics - Men's 50 metre pistol",
        "col3": "Shooting at the 2000 Summer Olympics - Men's 50 metre pistol"
    },
    {
        "col0": "Shooting at the 2004 Summer Olympics - Men's 25 metre rapid fire pistol",
        "col1": "S. Alifirenko",
        "col2": "Shooting at the 2008 Summer Olympics - Men's 25 metre rapid fire pistol",
        "col3": "Shooting at the 2000 Summer Olympics - Men's 25 metre rapid fire pistol"
    },
    {
        "col0": "Shooting at the 2004 Summer Olympics - Men's 10 metre air rifle",
        "col1": "J. Gonci",
        "col2": "Shooting at the 2008 Summer Olympics - Men's 10 metre air rifle",
        "col3": "Shooting at the 2000 Summer Olympics - Men's 10 metre air rifle"
    },
    {
        "col0": "Shooting at the 2004 Summer Olympics - Men's 10 metre air pistol",
        "col1": "V. Isakov",
        "col2": "Shooting at the 2008 Summer Olympics - Men's 10 metre air pistol",
        "col3": "Shooting at the 2000 Summer Olympics - Men's 10 metre air pistol"
    },
    {
        "col0": "Shooting at the 2004 Summer Olympics - Women's trap",
        "col1": "L. Bo-na",
        "col2": "Shooting at the 2008 Summer Olympics - Women's trap",
        "col3": "Shooting at the 2000 Summer Olympics - Women's trap"
    },
    {
        "col0": "Shooting at the 2004 Summer Olympics - Women's skeet",
        "col1": "Z. Meftahatdinova",
        "col2": "Shooting at the 2008 Summer Olympics - Women's skeet",
        "col3": "Shooting at the 2000 Summer Olympics - Women's skeet"
    },
    {
        "col0": "Shooting at the 2004 Summer Olympics - Women's 50 metre rifle three positions",
        "col1": "W. Chengyi",
        "col2": "Shooting at the 2008 Summer Olympics - Women's 50 metre rifle three positions",
        "col3": "Shooting at the 2000 Summer Olympics - Women's 50 metre rifle three positions"
    },
    {
        "col0": "Shooting at the 2004 Summer Olympics - Women's 25 metre pistol",
        "col1": "I. Ashumova",
        "col2": "Shooting at the 2008 Summer Olympics - Women's 25 metre pistol",
        "col3": "Shooting at the 2000 Summer Olympics - Women's 25 metre pistol"
    },
    {
        "col0": "Shooting at the 2004 Summer Olympics - Women's 10 metre air rifle",
        "col1": "K. Kurkova",
        "col2": "Shooting at the 2008 Summer Olympics - Women's 10 metre air rifle",
        "col3": "Shooting at the 2000 Summer Olympics - Women's 10 metre air rifle"
    },
    {
        "col0": "Shooting at the 2004 Summer Olympics - Women's 10 metre air pistol",
        "col1": "M. Grozdeva",
        "col2": "Shooting at the 2008 Summer Olympics - Women's 10 metre air pistol",
        "col3": "Shooting at the 2000 Summer Olympics - Women's 10 metre air pistol"
    },
    {
        "col0": "Shooting at the 2004 Summer Olympics - Men's trap",
        "col1": "A. Vella",
        "col2": "Shooting at the 2008 Summer Olympics - Men's trap",
        "col3": "Shooting at the 2000 Summer Olympics - Men's trap"
    },
    {
        "col0": "Shooting at the 2004 Summer Olympics - Men's skeet",
        "col1": "J. M. Rodriguez",
        "col2": "Shooting at the 2008 Summer Olympics - Men's skeet",
        "col3": "Shooting at the 2000 Summer Olympics - Men's skeet"
    },
    {
        "col0": "Shooting at the 2004 Summer Olympics - Men's double trap",
        "col1": "W. Zheng",
        "col2": "Shooting at the 2008 Summer Olympics - Men's double trap",
        "col3": "Shooting at the 2000 Summer Olympics - Men's double trap"
    },
    {
        "col0": "Shooting at the 2004 Summer Olympics - Men's 50 metre rifle three positions",
        "col1": "C. Planer",
        "col2": "Shooting at the 2008 Summer Olympics - Men's 50 metre rifle three positions",
        "col3": "Shooting at the 2000 Summer Olympics - Men's 50 metre rifle three positions"
    },
    {
        "col0": "Shooting at the 2004 Summer Olympics - Men's 50 metre rifle prone",
        "col1": "S. Martynov",
        "col2": "Shooting at the 2008 Summer Olympics - Men's 50 metre rifle prone",
        "col3": "Shooting at the 2000 Summer Olympics - Men's 50 metre rifle prone"
    },
    {
        "col0": "Shooting at the 2004 Summer Olympics - Men's 50 metre pistol",
        "col1": "K. Jong-su",
        "col2": "Shooting at the 2008 Summer Olympics - Men's 50 metre pistol",
        "col3": "Shooting at the 2000 Summer Olympics - Men's 50 metre pistol"
    },
    {
        "col0": "Shooting at the 2004 Summer Olympics - Men's 25 metre rapid fire pistol",
        "col1": "S. Alifirenko",
        "col2": "Shooting at the 2008 Summer Olympics - Men's 25 metre rapid fire pistol",
        "col3": "Shooting at the 2000 Summer Olympics - Men's 25 metre rapid fire pistol"
    },
    {
        "col0": "Shooting at the 2004 Summer Olympics - Men's 10 metre air rifle",
        "col1": "J. Gonci",
        "col2": "Shooting at the 2008 Summer Olympics - Men's 10 metre air rifle",
        "col3": "Shooting at the 2000 Summer Olympics - Men's 10 metre air rifle"
    },
    {
        "col0": "Shooting at the 2004 Summer Olympics - Men's 10 metre air pistol",
        "col1": "V. Isakov",
        "col2": "Shooting at the 2008 Summer Olympics - Men's 10 metre air pistol",
        "col3": "Shooting at the 2000 Summer Olympics - Men's 10 metre air pistol"
    },
    {
        "col0": "Shooting at the 2000 Summer Olympics - Women's double trap",
        "col1": "K. Rhode",
        "col2": "Shooting at the 2004 Summer Olympics - Women's double trap",
        "col3": "Shooting at the 1996 Summer Olympics - Women's double trap"
    }
]