[
    {
        "col0": "2013 TX68",
        "col1": "25",
        "col2": "2013-10-06",
        "col3": "384915321311",
        "col4": "111371126800"
    },
    {
        "col0": "2013 TV135",
        "col1": "19",
        "col2": "2012-10-13",
        "col3": "578704403015",
        "col4": "147671050125"
    },
    {
        "col0": "2013 RF98",
        "col1": "8",
        "col2": "2013-09-12",
        "col3": "87065960747400",
        "col4": "5427410748996"
    },
    {
        "col0": "2013 ND15",
        "col1": "24",
        "col2": "2013-07-13",
        "col3": "174431117236",
        "col4": "42037001666"
    },
    {
        "col0": "2013 MZ5",
        "col1": "20",
        "col2": "2013-06-18",
        "col3": "273300349981",
        "col4": "191207022456"
    },
    {
        "col0": "2013 LX28",
        "col1": "21",
        "col2": "2013-06-12",
        "col3": "217570939445",
        "col4": "82108421950"
    },
    {
        "col0": "2013 LA2",
        "col1": "16",
        "col2": "2013-06-01",
        "col3": "1791284903761",
        "col4": "456049108828"
    },
    {
        "col0": "2013 JX28",
        "col1": "20",
        "col2": "2013-05-11",
        "col3": "140587590947",
        "col4": "39176555740"
    },
    {
        "col0": "2013 FZ27",
        "col1": "4",
        "col2": "2013-03-16",
        "col3": "8807574637462",
        "col4": "5678884769642"
    },
    {
        "col0": "2013 FY27",
        "col1": "3",
        "col2": "2013-03-17",
        "col3": "12244301480840",
        "col4": "5394155142339"
    },
    {
        "col0": "2013 BS45",
        "col1": "25",
        "col2": "2013-01-20",
        "col3": "160943822007",
        "col4": "136038439378"
    },
    {
        "col0": "2013 BL76",
        "col1": "10",
        "col2": "2013-01-20",
        "col3": "287227911744000",
        "col4": "1252220944524"
    },
    {
        "col0": "2013 AZ60",
        "col1": "10",
        "col2": "2013-01-10",
        "col3": "216931872302070",
        "col4": "1183364036598"
    },
    {
        "col0": "2012 XE133",
        "col1": "23",
        "col2": "2012-12-12",
        "col3": "154983394045",
        "col4": "61327647093"
    },
    {
        "col0": "2012 VP113",
        "col1": "4",
        "col2": "2012-11-05",
        "col3": "65540323132377",
        "col4": "12040534221160"
    },
    {
        "col0": "2012 UE34",
        "col1": "23",
        "col2": "2012-10-18",
        "col3": "181755279387",
        "col4": "148944292562"
    },
    {
        "col0": "2012 TC4",
        "col1": "26",
        "col2": "2012-10-04",
        "col3": "280852050494",
        "col4": "139725907212"
    }
]