[
    {
        "col0": "Belgium at the 1952 Summer Olympics",
        "col1": "2",
        "col2": "5",
        "col3": "1952 Summer",
        "col4": "2",
        "col5": "14"
    },
    {
        "col0": "Belgium at the 1948 Winter Olympics",
        "col1": "1",
        "col2": "11",
        "col3": "1948 Winter",
        "col4": "1",
        "col5": "9"
    },
    {
        "col0": "Belgium at the 1948 Summer Olympics",
        "col1": "2",
        "col2": "152",
        "col3": "1948 Summer",
        "col4": "2",
        "col5": "15"
    },
    {
        "col0": "Belgium at the 1936 Summer Olympics",
        "col1": "0",
        "col2": "5",
        "col3": "1936 Summer",
        "col4": "0",
        "col5": "29"
    },
    {
        "col0": "Belgium at the 1928 Winter Olympics",
        "col1": "0",
        "col2": "25",
        "col3": "1928 Winter",
        "col4": "0",
        "col5": "8"
    },
    {
        "col0": "Belgium at the 1928 Summer Olympics",
        "col1": "0",
        "col2": "187",
        "col3": "1928 Summer",
        "col4": "1",
        "col5": "29"
    },
    {
        "col0": "Belgium at the 1924 Winter Olympics",
        "col1": "0",
        "col2": "18",
        "col3": "1924 Winter",
        "col4": "0",
        "col5": "10"
    },
    {
        "col0": "Belgium at the 1924 Summer Olympics",
        "col1": "3",
        "col2": "6",
        "col3": "1924 Summer",
        "col4": "7",
        "col5": "10"
    },
    {
        "col0": "Belgium at the 1920 Summer Olympics",
        "col1": "14",
        "col2": "336",
        "col3": "1920 Summer",
        "col4": "11",
        "col5": "5"
    },
    {
        "col0": "Belgium at the 1908 Summer Olympics",
        "col1": "1",
        "col2": "88",
        "col3": "1908 Summer",
        "col4": "5",
        "col5": "10"
    },
    {
        "col0": "Belgium at the 1906 Intercalated Games",
        "col1": "2",
        "col2": "16",
        "col3": "1906 Intercalated",
        "col4": "1",
        "col5": "12"
    },
    {
        "col0": "Austria at the 2016 Summer Olympics",
        "col1": "0",
        "col2": "71",
        "col3": "2016 Summer",
        "col4": "0",
        "col5": "78"
    },
    {
        "col0": "Austria at the 2014 Winter Olympics",
        "col1": "4",
        "col2": "132",
        "col3": "2014 Winter",
        "col4": "8",
        "col5": "9"
    },
    {
        "col0": "Austria at the 2010 Winter Olympics",
        "col1": "4",
        "col2": "80",
        "col3": "2010 Winter",
        "col4": "6",
        "col5": "9"
    },
    {
        "col0": "Austria at the 2006 Winter Olympics",
        "col1": "9",
        "col2": "73",
        "col3": "2006 Winter",
        "col4": "7",
        "col5": "3"
    },
    {
        "col0": "Austria at the 2004 Summer Olympics",
        "col1": "2",
        "col2": "74",
        "col3": "2004 Summer",
        "col4": "4",
        "col5": "27"
    },
    {
        "col0": "Austria at the 2002 Winter Olympics",
        "col1": "3",
        "col2": "90",
        "col3": "2002 Winter",
        "col4": "4",
        "col5": "10"
    },
    {
        "col0": "Austria at the 1998 Winter Olympics",
        "col1": "3",
        "col2": "96",
        "col3": "1998 Winter",
        "col4": "5",
        "col5": "8"
    },
    {
        "col0": "Austria at the 1996 Summer Olympics",
        "col1": "0",
        "col2": "16",
        "col3": "1996 Summer",
        "col4": "1",
        "col5": "57"
    },
    {
        "col0": "Austria at the 1994 Winter Olympics",
        "col1": "2",
        "col2": "80",
        "col3": "1994 Winter",
        "col4": "3",
        "col5": "9"
    },
    {
        "col0": "Austria at the 1992 Winter Olympics",
        "col1": "6",
        "col2": "58",
        "col3": "1992 Winter",
        "col4": "7",
        "col5": "4"
    },
    {
        "col0": "Austria at the 1992 Summer Olympics",
        "col1": "0",
        "col2": "31",
        "col3": "1992 Summer",
        "col4": "2",
        "col5": "41"
    },
    {
        "col0": "Austria at the 1988 Winter Olympics",
        "col1": "3",
        "col2": "81",
        "col3": "1988 Winter",
        "col4": "5",
        "col5": "6"
    },
    {
        "col0": "Austria at the 1988 Summer Olympics",
        "col1": "1",
        "col2": "7",
        "col3": "1988 Summer",
        "col4": "0",
        "col5": "29"
    },
    {
        "col0": "Austria at the 1984 Summer Olympics",
        "col1": "1",
        "col2": "31",
        "col3": "1984 Summer",
        "col4": "1",
        "col5": "22"
    },
    {
        "col0": "Austria at the 1980 Winter Olympics",
        "col1": "3",
        "col2": "43",
        "col3": "1980 Winter",
        "col4": "2",
        "col5": "4"
    },
    {
        "col0": "Austria at the 1980 Summer Olympics",
        "col1": "1",
        "col2": "19",
        "col3": "1980 Summer",
        "col4": "2",
        "col5": "21"
    },
    {
        "col0": "Austria at the 1976 Winter Olympics",
        "col1": "2",
        "col2": "77",
        "col3": "1976 Winter",
        "col4": "2",
        "col5": "7"
    },
    {
        "col0": "Austria at the 1976 Summer Olympics",
        "col1": "0",
        "col2": "6",
        "col3": "1976 Summer",
        "col4": "0",
        "col5": "37"
    },
    {
        "col0": "Austria at the 1972 Winter Olympics",
        "col1": "1",
        "col2": "40",
        "col3": "1972 Winter",
        "col4": "2",
        "col5": "9"
    },
    {
        "col0": "Austria at the 1972 Summer Olympics",
        "col1": "0",
        "col2": "14",
        "col3": "1972 Summer",
        "col4": "1",
        "col5": "31"
    },
    {
        "col0": "Austria at the 1968 Winter Olympics",
        "col1": "3",
        "col2": "76",
        "col3": "1968 Winter",
        "col4": "4",
        "col5": "5"
    },
    {
        "col0": "Austria at the 1968 Summer Olympics",
        "col1": "0",
        "col2": "8",
        "col3": "1968 Summer",
        "col4": "2",
        "col5": "32"
    },
    {
        "col0": "Austria at the 1964 Winter Olympics",
        "col1": "4",
        "col2": "83",
        "col3": "1964 Winter",
        "col4": "5",
        "col5": "2"
    },
    {
        "col0": "Austria at the 1960 Winter Olympics",
        "col1": "1",
        "col2": "26",
        "col3": "1960 Winter",
        "col4": "2",
        "col5": "9"
    },
    {
        "col0": "Austria at the 1960 Summer Olympics",
        "col1": "1",
        "col2": "21",
        "col3": "1960 Summer",
        "col4": "1",
        "col5": "18"
    },
    {
        "col0": "Austria at the 1956 Winter Olympics",
        "col1": "4",
        "col2": "60",
        "col3": "1956 Winter",
        "col4": "3",
        "col5": "2"
    },
    {
        "col0": "Austria at the 1956 Summer Olympics",
        "col1": "0",
        "col2": "29",
        "col3": "1956 Summer",
        "col4": "0",
        "col5": "34"
    },
    {
        "col0": "Austria at the 1952 Winter Olympics",
        "col1": "2",
        "col2": "39",
        "col3": "1952 Winter",
        "col4": "4",
        "col5": "5"
    },
    {
        "col0": "Austria at the 1952 Summer Olympics",
        "col1": "0",
        "col2": "112",
        "col3": "1952 Summer",
        "col4": "1",
        "col5": "32"
    },
    {
        "col0": "Austria at the 1948 Winter Olympics",
        "col1": "1",
        "col2": "54",
        "col3": "1948 Winter",
        "col4": "3",
        "col5": "7"
    },
    {
        "col0": "Austria at the 1948 Summer Olympics",
        "col1": "1",
        "col2": "147",
        "col3": "1948 Summer",
        "col4": "0",
        "col5": "21"
    },
    {
        "col0": "Austria at the 1936 Winter Olympics",
        "col1": "1",
        "col2": "60",
        "col3": "1936 Winter",
        "col4": "1",
        "col5": "6"
    },
    {
        "col0": "Austria at the 1936 Summer Olympics",
        "col1": "4",
        "col2": "17",
        "col3": "1936 Summer",
        "col4": "6",
        "col5": "11"
    },
    {
        "col0": "Austria at the 1932 Winter Olympics",
        "col1": "1",
        "col2": "7",
        "col3": "1932 Winter",
        "col4": "1",
        "col5": "6"
    },
    {
        "col0": "Austria at the 1932 Summer Olympics",
        "col1": "1",
        "col2": "19",
        "col3": "1932 Summer",
        "col4": "1",
        "col5": "18"
    },
    {
        "col0": "Austria at the 1928 Winter Olympics",
        "col1": "0",
        "col2": "39",
        "col3": "1928 Winter",
        "col4": "3",
        "col5": "7"
    },
    {
        "col0": "Austria at the 1928 Summer Olympics",
        "col1": "2",
        "col2": "73",
        "col3": "1928 Summer",
        "col4": "0",
        "col5": "18"
    },
    {
        "col0": "Austria at the 1924 Winter Olympics",
        "col1": "2",
        "col2": "4",
        "col3": "1924 Winter",
        "col4": "1",
        "col5": "3"
    },
    {
        "col0": "Austria at the 1924 Summer Olympics",
        "col1": "0",
        "col2": "49",
        "col3": "1924 Summer",
        "col4": "3",
        "col5": "20"
    },
    {
        "col0": "Austria at the 1912 Summer Olympics",
        "col1": "0",
        "col2": "6",
        "col3": "1912 Summer",
        "col4": "2",
        "col5": "17"
    },
    {
        "col0": "Austria at the 1906 Intercalated Games",
        "col1": "3",
        "col2": "31",
        "col3": "1906 Intercalated",
        "col4": "3",
        "col5": "9"
    },
    {
        "col0": "Australia at the 2016 Summer Olympics",
        "col1": "8",
        "col2": "421",
        "col3": "2016 Summer",
        "col4": "11",
        "col5": "10"
    }
]