[
    {
        "col0": "J. Nimes",
        "col1": "Mahindra Enforcer",
        "col2": "Filipino people",
        "col3": "1991-05-11",
        "col4": "1991-05-11"
    },
    {
        "col0": "J. Vilhena",
        "col1": "FC Porto",
        "col2": "Portugal",
        "col3": "1989-04-16",
        "col4": "1989-04-16"
    },
    {
        "col0": "J. Fabio",
        "col1": "Comunicaciones Mercedes",
        "col2": "Paraguayan",
        "col3": "1977-12-31",
        "col4": "1977-12-31"
    },
    {
        "col0": "J. Coelho",
        "col1": "CAB Madeira",
        "col2": "Portuguese people",
        "col3": "1978-10-18",
        "col4": "1978-10-18"
    },
    {
        "col0": "J. Hee-jung",
        "col1": "Seoul SK Knights",
        "col2": "Korea",
        "col3": "1977-02-04",
        "col4": "1977-02-04"
    },
    {
        "col0": "J. Uichico",
        "col1": "TNT KaTropa",
        "col2": "Filipino people",
        "col3": "1962-07-15",
        "col4": "1962-07-15"
    },
    {
        "col0": "J. Tabu",
        "col1": "Bilbao Basket",
        "col2": "Ethias League",
        "col3": "1985-10-07",
        "col4": "1985-10-07"
    },
    {
        "col0": "J. Dubas",
        "col1": "BBC Monthey",
        "col2": "Swiss",
        "col3": "1991-03-04",
        "col4": "1991-03-04"
    },
    {
        "col0": "J. Wilson",
        "col1": "Phoenix Fuel Masters",
        "col2": "Filipino people",
        "col3": "1987-01-18",
        "col4": "1987-01-18"
    },
    {
        "col0": "J. Sinis",
        "col1": "Psychiko B.C.",
        "col2": "Greek language",
        "col3": "1991-09-04",
        "col4": "1991-09-04"
    },
    {
        "col0": "J. Raymundo",
        "col1": "NLEX Road Warriors",
        "col2": "Filipino people",
        "col3": "1989-05-30",
        "col4": "1989-05-30"
    },
    {
        "col0": "J. Ferriols",
        "col1": "Meralco Bolts",
        "col2": "Filipino people",
        "col3": "1974-09-09",
        "col4": "1974-09-09"
    },
    {
        "col0": "J. Alexander",
        "col1": "Maccabi Tel Aviv B.C.",
        "col2": "Israeli",
        "col3": "1986-12-26",
        "col4": "1986-12-26"
    },
    {
        "col0": "J. Fuchs",
        "col1": "Starwings Basel",
        "col2": "Swiss",
        "col3": "1989-06-24",
        "col4": "1989-06-24"
    },
    {
        "col0": "J. Lipeng",
        "col1": "Zhejiang Lions",
        "col2": "China",
        "col3": "1978-07-22",
        "col4": "1978-07-22"
    },
    {
        "col0": "J. Good",
        "col1": "Adelaide Lightning",
        "col2": "Australian",
        "col3": "1994-08-04",
        "col4": "1994-08-04"
    },
    {
        "col0": "J. Bygate",
        "col1": "Melbourne Boomers",
        "col2": "New Zealand",
        "col3": "1992-01-10",
        "col4": "1992-01-10"
    },
    {
        "col0": "J. Culafic",
        "col1": "ZKK Partizan",
        "col2": "Montenegro",
        "col3": "1989-06-08",
        "col4": "1989-06-08"
    },
    {
        "col0": "J. Vucetic",
        "col1": "PINKK-Pecsi 424",
        "col2": "Montenegro",
        "col3": "1993-09-14",
        "col4": "1993-09-14"
    },
    {
        "col0": "J. Ivezic",
        "col1": "ZKK Novi Zagreb",
        "col2": "Croats",
        "col3": "1984-03-17",
        "col4": "1984-03-17"
    },
    {
        "col0": "J. Culafic",
        "col1": "ZKK Partizan",
        "col2": "Montenegro",
        "col3": "1989-06-08",
        "col4": "1989-06-08"
    },
    {
        "col0": "J. Abdelnour",
        "col1": "Sporting Al Riyadi Beirut",
        "col2": "Lebanon",
        "col3": "1983-11-29",
        "col4": "1983-11-29"
    },
    {
        "col0": "J. Castro",
        "col1": "TNT KaTropa",
        "col2": "Philippines",
        "col3": "1986-06-30",
        "col4": "1986-06-30"
    },
    {
        "col0": "J. Justiz",
        "col1": "Estudiantes Concordia",
        "col2": "Cuba",
        "col3": "1992-09-18",
        "col4": "1992-09-18"
    },
    {
        "col0": "J. Mohamed",
        "col1": "Al-Wasl",
        "col2": "United Arab Emirates",
        "col3": "1988-11-24",
        "col4": "1988-11-24"
    },
    {
        "col0": "J. Barbaric",
        "col1": "KK Olimpija",
        "col2": "Slovenia",
        "col3": "1995-09-30",
        "col4": "1995-09-30"
    },
    {
        "col0": "J. Jones",
        "col1": "Cleveland Cavaliers",
        "col2": "American High School",
        "col3": "1980-10-04",
        "col4": "1980-10-04"
    },
    {
        "col0": "J. Zelenka",
        "col1": "Townsville Fire",
        "col2": "Australian",
        "col3": "1992-05-26",
        "col4": "1992-05-26"
    },
    {
        "col0": "J. Giachetti",
        "col1": "PMS Torino",
        "col2": "Italians",
        "col3": "1983-12-07",
        "col4": "1983-12-07"
    },
    {
        "col0": "J. Blankenship",
        "col1": "Peristeri B.C.",
        "col2": "Greek language",
        "col3": "1989-08-04",
        "col4": "1989-08-04"
    },
    {
        "col0": "J. Rouzbahani",
        "col1": "Foolad Mahan Isfahan BC",
        "col2": "Iran",
        "col3": "1986-05-10",
        "col4": "1986-05-10"
    },
    {
        "col0": "I. Jerkovic",
        "col1": "ZKK Partizan",
        "col2": "Serbia",
        "col3": "1984-07-02",
        "col4": "1984-07-02"
    },
    {
        "col0": "I. Matic",
        "col1": "ZKK Partizan",
        "col2": "Serbs",
        "col3": "1979-05-29",
        "col4": "1979-05-29"
    },
    {
        "col0": "I. Sapundjiev",
        "col1": "KK KarpoA! Sokoli",
        "col2": "Republic of Macedonia",
        "col3": "1995-05-13",
        "col4": "1995-05-13"
    },
    {
        "col0": "I. Todoric",
        "col1": "ZKK Medvescak",
        "col2": "Croats",
        "col3": "1993-03-24",
        "col4": "1993-03-24"
    },
    {
        "col0": "I. Borovic",
        "col1": "ZKK Medvescak",
        "col2": "Croats",
        "col3": "1988-10-05",
        "col4": "1988-10-05"
    },
    {
        "col0": "I. Karathanasis",
        "col1": "Aries Trikala B.C.",
        "col2": "Greek language",
        "col3": "1991-02-17",
        "col4": "1991-02-17"
    },
    {
        "col0": "I. Karamalegkos",
        "col1": "Arkadikos B.C.",
        "col2": "Greek language",
        "col3": "1994-09-19",
        "col4": "1994-09-19"
    }
]