[
    {
        "col0": "Daedalus",
        "col1": "Herod",
        "col2": "Sweetbriar",
        "col3": "Richard Grosvenor, 1st Earl Grosvenor"
    },
    {
        "col0": "Dactylographer",
        "col1": "Bold Ruler",
        "col2": "Ribot",
        "col3": "S. Niarchos"
    },
    {
        "col0": "Cyllene",
        "col1": "Bend Or",
        "col2": "Isonomy",
        "col3": "C. D. Rose"
    },
    {
        "col0": "Cum Laude Laurie",
        "col1": "Turn-to",
        "col2": "Swaps",
        "col3": "J. W. Galbreath"
    },
    {
        "col0": "Crusader",
        "col1": "Fair Play",
        "col2": "Star Shoot",
        "col3": "S. D. Riddle"
    },
    {
        "col0": "Crowned Prince",
        "col1": "Native Dancer",
        "col2": "Royal Charger",
        "col3": "L. C. II"
    },
    {
        "col0": "Crepello",
        "col1": "Blenheim II",
        "col2": "Mieuxce",
        "col3": "V. Sassoon"
    },
    {
        "col0": "Creole Maid",
        "col1": "Phalaris",
        "col2": "Man o' War",
        "col3": "Walter M. Jeffords, Sr."
    },
    {
        "col0": "Cravat",
        "col1": "Phalaris",
        "col2": "Man o' War",
        "col3": "C. V. Whitney"
    },
    {
        "col0": "Crafty Admiral",
        "col1": "Sir Gallahad III",
        "col2": "War Admiral",
        "col3": "H. F. Guggenheim"
    },
    {
        "col0": "Court Martial",
        "col1": "Fairway",
        "col2": "Hurry On",
        "col3": "Waldorf Astor, 2nd Viscount Astor"
    },
    {
        "col0": "Counterpoint",
        "col1": "Reigh Count",
        "col2": "Sickle",
        "col3": "C. V. Whitney"
    },
    {
        "col0": "Cotherstone",
        "col1": "Camel",
        "col2": "Whisker",
        "col3": "J. Bowes"
    },
    {
        "col0": "Corrida",
        "col1": "Hurry On",
        "col2": "Sardanapale",
        "col3": "M. Boussac"
    },
    {
        "col0": "Coronation",
        "col1": "Tourbillon",
        "col2": "Tourbillon",
        "col3": "M. Boussac"
    }
]