[
    {
        "col0": "Any Time at All",
        "col1": "The Beatles",
        "col2": "Abbey Road Studios",
        "col3": "George Martin",
        "col4": "1964-06-02"
    },
    {
        "col0": "Another Girl",
        "col1": "The Beatles",
        "col2": "Abbey Road Studios",
        "col3": "George Martin",
        "col4": "1965-02-16"
    },
    {
        "col0": "And Your Bird Can Sing",
        "col1": "The Beatles",
        "col2": "Abbey Road Studios",
        "col3": "George Martin",
        "col4": "1966-04-26"
    },
    {
        "col0": "America",
        "col1": "Yes",
        "col2": "New York City",
        "col3": "Art Garfunkel",
        "col4": "1968-02-01"
    },
    {
        "col0": "Am I Evil?",
        "col1": "Metallica",
        "col2": "Copenhagen",
        "col3": "Metallica",
        "col4": "1984-03-14"
    },
    {
        "col0": "All the Madmen",
        "col1": "David Bowie",
        "col2": "London",
        "col3": "Tony Visconti",
        "col4": "1970-05-22"
    },
    {
        "col0": "All Together Now",
        "col1": "The Beatles",
        "col2": "Abbey Road Studios",
        "col3": "George Martin",
        "col4": "1967-05-12"
    },
    {
        "col0": "All Things Must Pass",
        "col1": "George Harrison",
        "col2": "Abbey Road Studios",
        "col3": "George Harrison",
        "col4": "1969-02-25"
    },
    {
        "col0": "All I Want to Do",
        "col1": "The Beach Boys",
        "col2": "Brian Wilson",
        "col3": "Dennis Wilson",
        "col4": "1968-11-12"
    },
    {
        "col0": "All I Wanna Do",
        "col1": "The Beach Boys",
        "col2": "Gold Star Studios",
        "col3": "The Beach Boys",
        "col4": "1969-03-19"
    },
    {
        "col0": "All Dressed Up for School",
        "col1": "The Beach Boys",
        "col2": "United Western Recorders",
        "col3": "Brian Wilson",
        "col4": "1964-09-16"
    },
    {
        "col0": "After All",
        "col1": "David Bowie",
        "col2": "Trident Studios",
        "col3": "Tony Visconti",
        "col4": "1970-05-22"
    },
    {
        "col0": "Adore",
        "col1": "Prince",
        "col2": "Sunset Sound Recorders",
        "col3": "Prince",
        "col4": "1986-11-19"
    },
    {
        "col0": "Adam Raised a Cain",
        "col1": "Bruce Springsteen",
        "col2": "New York, New York",
        "col3": "Bruce Springsteen",
        "col4": "1977-10-12"
    },
    {
        "col0": "Across the Universe",
        "col1": "The Beatles",
        "col2": "Abbey Road Studios",
        "col3": "George Martin",
        "col4": "1968-02-04"
    },
    {
        "col0": "A Tear from a Woman's Eyes",
        "col1": "The Temptations",
        "col2": "Hitsville USA",
        "col3": "Lamont Dozier",
        "col4": "1964-01-06"
    },
    {
        "col0": "A Home in Heaven",
        "col1": "Hank Williams",
        "col2": "Nashville, Tennessee",
        "col3": "Fred Rose",
        "col4": "1951-03-23"
    },
    {
        "col0": "A Day in the Life",
        "col1": "The Beatles",
        "col2": "Abbey Road Studios",
        "col3": "George Martin",
        "col4": "1967-02-10"
    },
    {
        "col0": "1983...",
        "col1": "The Jimi Hendrix Experience",
        "col2": "Record Plant",
        "col3": "Jimi Hendrix",
        "col4": "1968-04-22"
    }
]