[
    {
        "col0": "L. RabatA ",
        "col1": "Saint Peter's Basilica",
        "col2": "Roman Catholic Church",
        "col3": "1443-0-0",
        "col4": "1443-0-0",
        "col5": "1490-05-08",
        "col6": "1841-12-10"
    },
    {
        "col0": "L. Orione",
        "col1": "Vatican City",
        "col2": "Roman Catholic Church",
        "col3": "1872-06-23",
        "col4": "1872-06-23",
        "col5": "1940-03-12",
        "col6": "1980-10-26"
    },
    {
        "col0": "L. Monza",
        "col1": "Italy",
        "col2": "Roman Catholic Church",
        "col3": "1898-06-22",
        "col4": "1898-06-22",
        "col5": "1954-09-29",
        "col6": "2006-04-30"
    },
    {
        "col0": "L. M. Palazzolo",
        "col1": "Saint Peter's Basilica",
        "col2": "Roman Catholic Church",
        "col3": "1827-12-10",
        "col4": "1827-12-10",
        "col5": "1886-06-15",
        "col6": "1963-03-19"
    },
    {
        "col0": "L. M. Monti",
        "col1": "Vatican City",
        "col2": "Roman Catholic Church",
        "col3": "1825-07-24",
        "col4": "1825-07-24",
        "col5": "1900-10-01",
        "col6": "2003-11-09"
    },
    {
        "col0": "L. Guanella",
        "col1": "Saint Peter's Basilica",
        "col2": "Roman Catholic Church",
        "col3": "1842-12-19",
        "col4": "1842-12-19",
        "col5": "1915-10-24",
        "col6": "1964-10-25"
    },
    {
        "col0": "L. Caburlotto",
        "col1": "Italy",
        "col2": "Roman Catholic Church",
        "col3": "1817-06-07",
        "col4": "1817-06-07",
        "col5": "1897-07-09",
        "col6": "2015-05-16"
    },
    {
        "col0": "L. Bordino",
        "col1": "Italy",
        "col2": "Roman Catholic Church",
        "col3": "1922-08-12",
        "col4": "1922-08-12",
        "col5": "1977-08-25",
        "col6": "2015-05-02"
    },
    {
        "col0": "L. Boccardo",
        "col1": "Italy",
        "col2": "Roman Catholic Church",
        "col3": "1861-08-09",
        "col4": "1861-08-09",
        "col5": "1936-06-09",
        "col6": "2007-04-14"
    },
    {
        "col0": "L. Biraghi",
        "col1": "Italy",
        "col2": "Roman Catholic Church",
        "col3": "1801-11-02",
        "col4": "1801-11-02",
        "col5": "1879-08-11",
        "col6": "2006-04-30"
    },
    {
        "col0": "Luigi Beltrame Quattrocchi and Maria Corsini",
        "col1": "Saint Peter's Basilica",
        "col2": "Roman Catholic Church",
        "col3": "1880-01-12",
        "col4": "1880-01-12",
        "col5": "1951-11-09",
        "col6": "2001-10-21"
    },
    {
        "col0": "L. Szczesna",
        "col1": "Poland",
        "col2": "Roman Catholic Church",
        "col3": "1863-07-18",
        "col4": "1863-07-18",
        "col5": "1916-02-07",
        "col6": "2015-09-27"
    },
    {
        "col0": "L. Mzyk",
        "col1": "Poland",
        "col2": "Roman Catholic Church",
        "col3": "1905-04-22",
        "col4": "1905-04-22",
        "col5": "1940-02-20",
        "col6": "1999-06-13"
    },
    {
        "col0": "L. o. Casoria",
        "col1": "Vatican City",
        "col2": "Roman Catholic Church",
        "col3": "1814-03-11",
        "col4": "1814-03-11",
        "col5": "1885-03-30",
        "col6": "1993-04-18"
    },
    {
        "col0": "L. Morbioli",
        "col1": "Papal States",
        "col2": "Roman Catholic Church",
        "col3": "1433-0-0",
        "col4": "1433-0-0",
        "col5": "1485-11-09",
        "col6": "1843-10-24"
    },
    {
        "col0": "L. Albertoni",
        "col1": "St. Peter's Basilica",
        "col2": "Catholic Church",
        "col3": "1474-1-1",
        "col4": "1474-1-1",
        "col5": "1533-01-31",
        "col6": "1671-01-28"
    },
    {
        "col0": "L. Y. Zhenmei",
        "col1": "Vatican City",
        "col2": "Roman Catholic Church",
        "col3": "1815-1-17",
        "col4": "1815-1-17",
        "col5": "1862-02-19",
        "col6": "1909-05-02"
    },
    {
        "col0": "L. E. Cevoli",
        "col1": "Vatican City",
        "col2": "Roman Catholic Church",
        "col3": "1685-11-11",
        "col4": "1685-11-11",
        "col5": "1767-06-12",
        "col6": "1993-05-16"
    },
    {
        "col0": "L. Passi",
        "col1": "Italy",
        "col2": "Roman Catholic Church",
        "col3": "1789-01-22",
        "col4": "1789-01-22",
        "col5": "1866-04-18",
        "col6": "2013-04-13"
    },
    {
        "col0": "L. A. Falcone",
        "col1": "Papal States",
        "col2": "Roman Catholic Church",
        "col3": "1669-10-19",
        "col4": "1669-10-19",
        "col5": "1739-10-30",
        "col6": "1825-12-18"
    },
    {
        "col0": "L. d. Marillac",
        "col1": "Vatican City",
        "col2": "Roman Catholic Church",
        "col3": "1591-08-12",
        "col4": "1591-08-12",
        "col5": "1660-03-15",
        "col6": "1920-05-09"
    },
    {
        "col0": "Louise-Therese de Montaignac de Chauvance",
        "col1": "Vatican City",
        "col2": "Roman Catholic Church",
        "col3": "1820-05-14",
        "col4": "1820-05-14",
        "col5": "1885-06-27",
        "col6": "1990-11-04"
    },
    {
        "col0": "Louis Martin and Marie-Azelie Guerin",
        "col1": "France",
        "col2": "Roman Catholic Church",
        "col3": "1823-08-22",
        "col4": "1823-08-22",
        "col5": "1877-08-28",
        "col6": "2008-10-19"
    },
    {
        "col0": "L. Brisson",
        "col1": "Troyes",
        "col2": "Roman Catholic Church",
        "col3": "1817-06-23",
        "col4": "1817-06-23",
        "col5": "1908-02-02",
        "col6": "2012-09-22"
    },
    {
        "col0": "L. Cestac",
        "col1": "France",
        "col2": "Roman Catholic Church",
        "col3": "1801-01-06",
        "col4": "1801-01-06",
        "col5": "1868-03-27",
        "col6": "2015-05-31"
    },
    {
        "col0": "L. d. Ripafratta",
        "col1": "Papal States",
        "col2": "Roman Catholic Church",
        "col3": "1373-0-0",
        "col4": "1373-0-0",
        "col5": "1456-09-27",
        "col6": "1851-04-04"
    },
    {
        "col0": "L. Ruiz",
        "col1": "Manila",
        "col2": "Catholic Church",
        "col3": "1600-1-1",
        "col4": "1600-1-1",
        "col5": "1637-9-29",
        "col6": "1981-02-18"
    },
    {
        "col0": "Lorenzo Maria of Saint Francis Xavier",
        "col1": "Vatican City",
        "col2": "Roman Catholic Church",
        "col3": "1782-10-30",
        "col4": "1782-10-30",
        "col5": "1856-06-12",
        "col6": "1989-10-01"
    },
    {
        "col0": "L. Pavoni",
        "col1": "Vatican City",
        "col2": "Roman Catholic Church",
        "col3": "1784-09-11",
        "col4": "1784-09-11",
        "col5": "1849-04-01",
        "col6": "2002-04-14"
    },
    {
        "col0": "Lindalva Justo de Oliveira",
        "col1": "Brazil",
        "col2": "Roman Catholic Church",
        "col3": "1953-10-20",
        "col4": "1953-10-20",
        "col5": "1993-04-09",
        "col6": "2007-12-02"
    },
    {
        "col0": "Libania do Carmo Galvao Mexia de Moura Telles de Albuquerque",
        "col1": "Portugal",
        "col2": "Roman Catholic Church",
        "col3": "1843-06-15",
        "col4": "1843-06-15",
        "col5": "1899-12-01",
        "col6": "2011-05-21"
    },
    {
        "col0": "L. Wagner",
        "col1": "Saint Peter's Basilica",
        "col2": "Roman Catholic Church",
        "col3": "1593-12-05",
        "col4": "1593-12-05",
        "col5": "1631-12-09",
        "col6": "1974-03-24"
    },
    {
        "col0": "Libania do Carmo Galvao Mexia de Moura Telles de Albuquerque",
        "col1": "Lisbon",
        "col2": "Roman Catholic Church",
        "col3": "1843-06-15",
        "col4": "1843-06-15",
        "col5": "1899-12-01",
        "col6": "2011-05-21"
    },
    {
        "col0": "L. d. Gaiche",
        "col1": "Saint Peter's Basilica",
        "col2": "Roman Catholic Church",
        "col3": "1732-10-30",
        "col4": "1732-10-30",
        "col5": "1815-04-02",
        "col6": "1893-03-12"
    },
    {
        "col0": "L. Mandic",
        "col1": "Vatican City",
        "col2": "Roman Catholic Church",
        "col3": "1866-05-12",
        "col4": "1866-05-12",
        "col5": "1942-07-30",
        "col6": "1976-05-02"
    },
    {
        "col0": "L. Aviat",
        "col1": "Vatican City",
        "col2": "Roman Catholic Church",
        "col3": "1844-09-16",
        "col4": "1844-09-16",
        "col5": "1914-01-10",
        "col6": "1992-09-27"
    },
    {
        "col0": "L. Feodorov",
        "col1": "Ukraine",
        "col2": "Roman Catholic Church",
        "col3": "1879-11-04",
        "col4": "1879-11-04",
        "col5": "1935-03-07",
        "col6": "2001-06-27"
    },
    {
        "col0": "L. Murialdo",
        "col1": "Vatican City",
        "col2": "Roman Catholic Church",
        "col3": "1828-10-26",
        "col4": "1828-10-26",
        "col5": "1900-03-30",
        "col6": "1963-11-03"
    },
    {
        "col0": "L. o. Brindisi",
        "col1": "Papal States",
        "col2": "Roman Catholic Church",
        "col3": "1559-07-22",
        "col4": "1559-07-22",
        "col5": "1619-07-22",
        "col6": "1783-06-01"
    },
    {
        "col0": "L. Imbert",
        "col1": "Vatican City",
        "col2": "Catholicism",
        "col3": "1796-03-23",
        "col4": "1796-03-23",
        "col5": "1839-09-21",
        "col6": "1925-07-05"
    },
    {
        "col0": "Laura of Saint Catherine of Siena",
        "col1": "Vatican City",
        "col2": "Roman Catholic Church",
        "col3": "1874-05-26",
        "col4": "1874-05-26",
        "col5": "1949-10-21",
        "col6": "2004-04-25"
    },
    {
        "col0": "Laura Evangelista Alvarado Cardozo",
        "col1": "Vatican City",
        "col2": "Roman Catholic Church",
        "col3": "1875-04-25",
        "col4": "1875-04-25",
        "col5": "1967-04-02",
        "col6": "1995-05-07"
    },
    {
        "col0": "L. o. Gielniow",
        "col1": "Papal States",
        "col2": "Roman Catholic Church",
        "col3": "1440",
        "col4": "1440",
        "col5": "1505-05-04",
        "col6": "1750-02-11"
    },
    {
        "col0": "L. Batthyany-Strattmann",
        "col1": "Vatican City",
        "col2": "Roman Catholic Church",
        "col3": "1870-10-28",
        "col4": "1870-10-28",
        "col5": "1931-01-22",
        "col6": "2003-03-23"
    },
    {
        "col0": "K. E. Chavara",
        "col1": "Kottayam",
        "col2": "Syro Malabar Church",
        "col3": "1805-02-10",
        "col4": "1805-02-10",
        "col5": "1871-01-03",
        "col6": "1986-02-08"
    },
    {
        "col0": "K. al-Haddad",
        "col1": "Beirut",
        "col2": "Roman Catholic Church",
        "col3": "1875-02-01",
        "col4": "1875-02-01",
        "col5": "1954-06-26",
        "col6": "2008-06-22"
    },
    {
        "col0": "K. Tekakwitha",
        "col1": "Vatican City",
        "col2": "Catholic Church",
        "col3": "1656-1-1",
        "col4": "1656-1-1",
        "col5": "1680-04-17",
        "col6": "1980-06-22"
    },
    {
        "col0": "K. Gerhardinger",
        "col1": "Vatican City",
        "col2": "Roman Catholic Church",
        "col3": "1797-06-20",
        "col4": "1797-06-20",
        "col5": "1879-05-09",
        "col6": "1985-11-17"
    },
    {
        "col0": "K. Vitchev",
        "col1": "Bulgaria",
        "col2": "Roman Catholic Church",
        "col3": "1893-05-23",
        "col4": "1893-05-23",
        "col5": "1952-11-11",
        "col6": "2002-05-26"
    },
    {
        "col0": "J. Falconieri",
        "col1": "Rome",
        "col2": "Roman Catholic Church",
        "col3": "1270-1-1",
        "col4": "1270-1-1",
        "col5": "1341-06-19",
        "col6": "1678-07-26"
    },
    {
        "col0": "J. Reche",
        "col1": "Vatican City",
        "col2": "Roman Catholic Church",
        "col3": "1838-09-02",
        "col4": "1838-09-02",
        "col5": "1890-10-23",
        "col6": "1987-11-01"
    },
    {
        "col0": "Juana Maria Condesa Lluch",
        "col1": "Vatican City",
        "col2": "Roman Catholic Church",
        "col3": "1862-0-0",
        "col4": "1862-0-0",
        "col5": "1916-0-0",
        "col6": "2003-03-23"
    },
    {
        "col0": "Juan Nepomuceno Zegri Moreno",
        "col1": "Vatican City",
        "col2": "Roman Catholic Church",
        "col3": "1831-10-11",
        "col4": "1831-10-11",
        "col5": "1905-03-17",
        "col6": "2003-11-09"
    },
    {
        "col0": "J. G. Roman",
        "col1": "Papal States",
        "col2": "Roman Catholic Church",
        "col3": "1546-03-06",
        "col4": "1546-03-06",
        "col5": "1600-06-03",
        "col6": "1858-11-13"
    },
    {
        "col0": "J. G. Lopez-Rico",
        "col1": "Papal States",
        "col2": "Roman Catholic Church",
        "col3": "1561-07-10",
        "col4": "1561-07-10",
        "col5": "1613-02-14",
        "col6": "1819-09-26"
    },
    {
        "col0": "J. Diego",
        "col1": "Mexico City",
        "col2": "Roman Catholic Church",
        "col3": "1474-7-12",
        "col4": "1474-7-12",
        "col5": "1548-5-30",
        "col6": "1990-05-06"
    },
    {
        "col0": "J. d. Anchieta",
        "col1": "Vatican City",
        "col2": "Catholic Church",
        "col3": "1534-03-19",
        "col4": "1534-03-19",
        "col5": "1597-06-09",
        "col6": "1980-06-22"
    },
    {
        "col0": "Jose Sanchez del Rio",
        "col1": "Mexico",
        "col2": "Roman Catholic Church",
        "col3": "1913-03-28",
        "col4": "1913-03-28",
        "col5": "1928-02-10",
        "col6": "2005-11-20"
    },
    {
        "col0": "J. Olallo",
        "col1": "Camaguey",
        "col2": "Brothers Hospitallers of St. John of God",
        "col3": "1820-02-12",
        "col4": "1820-02-12",
        "col5": "1889-03-07",
        "col6": "2008-11-29"
    },
    {
        "col0": "Jose Maria of Manila",
        "col1": "Spain",
        "col2": "Catholic Church",
        "col3": "1880-09-05",
        "col4": "1880-09-05",
        "col5": "1936-08-17",
        "col6": "2013-10-13"
    },
    {
        "col0": "Jose Maria de Yermo y Parres",
        "col1": "Mexico",
        "col2": "Roman Catholic Church",
        "col3": "1851-11-10",
        "col4": "1851-11-10",
        "col5": "1904-09-20",
        "col6": "1992-11-22"
    },
    {
        "col0": "J. Bakhita",
        "col1": "St. Peter's Basilica",
        "col2": "Roman Catholicism",
        "col3": "1868-1-1",
        "col4": "1868-1-1",
        "col5": "1947-02-08",
        "col6": "1992-05-17"
    },
    {
        "col0": "J. o. Cupertino",
        "col1": "Papal States",
        "col2": "Roman Catholic Church",
        "col3": "1603-06-17",
        "col4": "1603-06-17",
        "col5": "1663-09-18",
        "col6": "1753-02-24"
    },
    {
        "col0": "J. Vaz",
        "col1": "Sri Lanka",
        "col2": "Roman Catholic Church",
        "col3": "1651-04-21",
        "col4": "1651-04-21",
        "col5": "1711-01-16",
        "col6": "1995-01-21"
    },
    {
        "col0": "J. Oriol",
        "col1": "Papal States",
        "col2": "Roman Catholic Church",
        "col3": "1650-11-23",
        "col4": "1650-11-23",
        "col5": "1702-03-23",
        "col6": "1806-09-05"
    },
    {
        "col0": "J. Kugler",
        "col1": "Germany",
        "col2": "Roman Catholic Church",
        "col3": "1867-01-15",
        "col4": "1867-01-15",
        "col5": "1946-06-10",
        "col6": "2009-10-04"
    },
    {
        "col0": "J. Gerard",
        "col1": "Maseru",
        "col2": "Roman Catholic Church",
        "col3": "1831-03-12",
        "col4": "1831-03-12",
        "col5": "1914-05-29",
        "col6": "1988-09-15"
    },
    {
        "col0": "J. Calasanz",
        "col1": "Papal States",
        "col2": "Roman Catholic Church",
        "col3": "1557-09-11",
        "col4": "1557-09-11",
        "col5": "1648-08-25",
        "col6": "1748-08-07"
    },
    {
        "col0": "J. T. Soler",
        "col1": "Barcelona",
        "col2": "Roman Catholic Church",
        "col3": "1811-03-31",
        "col4": "1811-03-31",
        "col5": "1871-02-27",
        "col6": "2010-04-25"
    },
    {
        "col0": "J. Escriva",
        "col1": "Vatican City",
        "col2": "Roman Catholic Church",
        "col3": "1902-01-09",
        "col4": "1902-01-09",
        "col5": "1975-06-26",
        "col6": "1992-05-17"
    },
    {
        "col0": "J. N. Girbes",
        "col1": "Saint Peter's Basilica",
        "col2": "Roman Catholic Church",
        "col3": "1820-12-11",
        "col4": "1820-12-11",
        "col5": "1893-02-24",
        "col6": "1988-09-25"
    },
    {
        "col0": "Jose Gabriel del Rosario Brochero",
        "col1": "Argentina",
        "col2": "Roman Catholic Church",
        "col3": "1840-0-0",
        "col4": "1840-0-0",
        "col5": "1914-01-26",
        "col6": "2013-09-14"
    },
    {
        "col0": "J. Hordashevska",
        "col1": "Lviv",
        "col2": "Eastern Catholic Churches",
        "col3": "1869-11-20",
        "col4": "1869-11-20",
        "col5": "1919-04-07",
        "col6": "2001-06-27"
    },
    {
        "col0": "J. d. Anchieta",
        "col1": "Vatican City",
        "col2": "Canary Islands",
        "col3": "1534-03-19",
        "col4": "1534-03-19",
        "col5": "1597-06-09",
        "col6": "1980-06-22"
    },
    {
        "col0": "Jose Sanchez del Rio",
        "col1": "Mexico",
        "col2": "Roman Catholic Church",
        "col3": "1913-03-28",
        "col4": "1913-03-28",
        "col5": "1928-02-10",
        "col6": "2005-11-20"
    },
    {
        "col0": "J. Olallo",
        "col1": "Camaguey",
        "col2": "Brothers Hospitallers of St. John of God",
        "col3": "1820-02-12",
        "col4": "1820-02-12",
        "col5": "1889-03-07",
        "col6": "2008-11-29"
    },
    {
        "col0": "Jose Maria de Yermo y Parres",
        "col1": "Mexico",
        "col2": "Roman Catholic Church",
        "col3": "1851-11-10",
        "col4": "1851-11-10",
        "col5": "1904-09-20",
        "col6": "1992-11-22"
    },
    {
        "col0": "Jose Maria of Manila",
        "col1": "Spain",
        "col2": "Catholic Church",
        "col3": "1880-09-05",
        "col4": "1880-09-05",
        "col5": "1936-08-17",
        "col6": "2013-10-13"
    },
    {
        "col0": "J. o. God",
        "col1": "Papal States",
        "col2": "Roman Catholic Church",
        "col3": "1495-03-08",
        "col4": "1495-03-08",
        "col5": "1550-03-08",
        "col6": "1630-09-21"
    },
    {
        "col0": "J. d. Britto",
        "col1": "Rome",
        "col2": "Catholic Church",
        "col3": "1647-03-01",
        "col4": "1647-03-01",
        "col5": "1693-02-11",
        "col6": "1853-08-21"
    },
    {
        "col0": "J. d. Bastone",
        "col1": "Papal States",
        "col2": "Roman Catholic Church",
        "col3": "1200-03-24",
        "col4": "1200-03-24",
        "col5": "1290-03-24",
        "col6": "1772-08-29"
    },
    {
        "col0": "J. J. Ancina",
        "col1": "Rome",
        "col2": "Roman Catholic Church",
        "col3": "1545-10-19",
        "col4": "1545-10-19",
        "col5": "1604-08-30",
        "col6": "1890-02-09"
    },
    {
        "col0": "John Joseph of the Cross",
        "col1": "Saint Peter's Basilica",
        "col2": "Roman Catholic Church",
        "col3": "1654-08-15",
        "col4": "1654-08-15",
        "col5": "1739-03-05",
        "col6": "1789-05-24"
    },
    {
        "col0": "J. G. Perboyre",
        "col1": "Kingdom of Italy",
        "col2": "Congregation of the Mission",
        "col3": "1802-01-06",
        "col4": "1802-01-06",
        "col5": "1840-09-11",
        "col6": "1889-11-10"
    },
    {
        "col0": "J. Cantius",
        "col1": "Rome",
        "col2": "Roman Catholic Church",
        "col3": "1390-06-23",
        "col4": "1390-06-23",
        "col5": "1473-12-24",
        "col6": "1676-03-28"
    },
    {
        "col0": "J. L. Paquay",
        "col1": "Vatican City",
        "col2": "Roman Catholic Church",
        "col3": "1828-11-17",
        "col4": "1828-11-17",
        "col5": "1905-01-01",
        "col6": "2003-11-09"
    },
    {
        "col0": "Joan of France, Duchess of Berry",
        "col1": "Papal States",
        "col2": "Roman Catholic Church",
        "col3": "1464-04-23",
        "col4": "1464-04-23",
        "col5": "1505-02-04",
        "col6": "1742-06-18"
    },
    {
        "col0": "J. o. Arc",
        "col1": "Notre Dame de Paris",
        "col2": "Anglican Communion",
        "col3": "1412-1-6",
        "col4": "1412-1-6",
        "col5": "1431-05-30",
        "col6": "1909-04-18"
    },
    {
        "col0": "J. Popieluszko",
        "col1": "Poland",
        "col2": "Roman Catholic Church",
        "col3": "1947-09-14",
        "col4": "1947-09-14",
        "col5": "1984-10-19",
        "col6": "2010-06-06"
    },
    {
        "col0": "J. o. Wallachia",
        "col1": "Vatican City",
        "col2": "Order of Friars Minor Capuchin",
        "col3": "1556-06-07",
        "col4": "1556-06-07",
        "col5": "1625-02-26",
        "col6": "1983-10-30"
    },
    {
        "col0": "J. Yak-jong",
        "col1": "Korea",
        "col2": "Roman Catholic Church",
        "col3": "1760-0-0",
        "col4": "1760-0-0",
        "col5": "1801-04-08",
        "col6": "2014-08-16"
    },
    {
        "col0": "J. Jugan",
        "col1": "Vatican City",
        "col2": "Roman Catholic Church",
        "col3": "1792-10-25",
        "col4": "1792-10-25",
        "col5": "1879-08-29",
        "col6": "1982-10-03"
    },
    {
        "col0": "J. Thouret",
        "col1": "Kingdom of Italy",
        "col2": "Roman Catholic Church",
        "col3": "1765-11-27",
        "col4": "1765-11-27",
        "col5": "1826-08-24",
        "col6": "1926-05-23"
    },
    {
        "col0": "J. d. Lalande",
        "col1": "Italy",
        "col2": "Roman Catholic Church",
        "col3": "1615-0-0",
        "col4": "1615-0-0",
        "col5": "1646-10-19",
        "col6": "1925-06-21"
    },
    {
        "col0": "J. Rousseau",
        "col1": "France",
        "col2": "Roman Catholic Church",
        "col3": "1797-0-0",
        "col4": "1797-0-0",
        "col5": "1867-04-13",
        "col6": "1989-05-02"
    },
    {
        "col0": "J. Szymkowiak",
        "col1": "Krakow",
        "col2": "Roman Catholic Church",
        "col3": "1910-07-10",
        "col4": "1910-07-10",
        "col5": "1942-08-29",
        "col6": "2002-08-18"
    },
    {
        "col0": "Jane Frances de Chantal",
        "col1": "Rome",
        "col2": "Roman Catholic Church",
        "col3": "1572-01-28",
        "col4": "1572-01-28",
        "col5": "1641-12-13",
        "col6": "1751-11-21"
    },
    {
        "col0": "J. W. Balicki",
        "col1": "Poland",
        "col2": "Roman Catholic Church",
        "col3": "1869-01-25",
        "col4": "1869-01-25",
        "col5": "1948-03-15",
        "col6": "2002-08-18"
    },
    {
        "col0": "J. Sarkander",
        "col1": "Papal States",
        "col2": "Roman Catholic Church",
        "col3": "1576-12-20",
        "col4": "1576-12-20",
        "col5": "1620-03-17",
        "col6": "1860-05-06"
    },
    {
        "col0": "J. Strzemie",
        "col1": "Papal States",
        "col2": "Roman Catholic Church",
        "col3": "1340-1-1",
        "col4": "1340-1-1",
        "col5": "1409-10-20",
        "col6": "1791-09-11"
    },
    {
        "col0": "J. Varingez",
        "col1": "Papal States",
        "col2": "Roman Catholic Church",
        "col3": "1400-1-1",
        "col4": "1400-1-1",
        "col5": "1496-04-27",
        "col6": "1700-12-29"
    },
    {
        "col0": "J. Berthieu",
        "col1": "Saint Peter's Basilica",
        "col2": "Madagascar",
        "col3": "1838-11-27",
        "col4": "1838-11-27",
        "col5": "1896-06-08",
        "col6": "1965-10-17"
    },
    {
        "col0": "J. K. Tomonaga",
        "col1": "Manila",
        "col2": "Roman Catholic Church",
        "col3": "1582-0-0",
        "col4": "1582-0-0",
        "col5": "1633-08-17",
        "col6": "1981-02-18"
    },
    {
        "col0": "Jacinta and Francisco Marto",
        "col1": "Portugal",
        "col2": "Roman Catholic Church",
        "col3": "1908-06-12",
        "col4": "1908-06-12",
        "col5": "1919-04-04",
        "col6": "2000-05-13"
    },
    {
        "col0": "I. o. Chartres",
        "col1": "Papal States",
        "col2": "Roman Catholic Church",
        "col3": "1040-1-1",
        "col4": "1040-1-1",
        "col5": "1115-12-23",
        "col6": "1570-12-18"
    },
    {
        "col0": "I. Merz",
        "col1": "Banja Luka",
        "col2": "Roman Catholic Church",
        "col3": "1896-12-16",
        "col4": "1896-12-16",
        "col5": "1928-05-10",
        "col6": "2003-06-23"
    },
    {
        "col0": "I. Sandor",
        "col1": "Budapest",
        "col2": "Roman Catholic Church",
        "col3": "1914-10-26",
        "col4": "1914-10-26",
        "col5": "1953-06-08",
        "col6": "2013-10-19"
    },
    {
        "col0": "I. Pongracz",
        "col1": "St Peter's Basilica, Rome",
        "col2": "Catholic Church",
        "col3": "1582-1-1",
        "col4": "1582-1-1",
        "col5": "1619-09-07",
        "col6": "1905-01-15"
    },
    {
        "col0": "I. Sandor",
        "col1": "Budapest",
        "col2": "Roman Catholic Church",
        "col3": "1914-10-26",
        "col4": "1914-10-26",
        "col5": "1953-06-08",
        "col6": "2013-10-19"
    },
    {
        "col0": "I. Pongracz",
        "col1": "St Peter's Basilica, Rome",
        "col2": "Hungary",
        "col3": "1582-1-1",
        "col4": "1582-1-1",
        "col5": "1619-09-07",
        "col6": "1905-01-15"
    },
    {
        "col0": "I. t. Laborer",
        "col1": "Rome",
        "col2": "Roman Catholic Church",
        "col3": "1080-1-1",
        "col4": "1080-1-1",
        "col5": "1130-05-15",
        "col6": "1619-05-02"
    },
    {
        "col0": "Isidore Ngei Ko Lat",
        "col1": "Aversa",
        "col2": "Roman Catholic Church",
        "col3": "1918-1-1",
        "col4": "1918-1-1",
        "col5": "1950-05-24",
        "col6": "2014-05-24"
    },
    {
        "col0": "I. D. Loor",
        "col1": "Vatican City",
        "col2": "Roman Catholic Church",
        "col3": "1881-04-18",
        "col4": "1881-04-18",
        "col5": "1916-10-06",
        "col6": "1984-09-30"
    },
    {
        "col0": "I. Stefani",
        "col1": "Kenya",
        "col2": "Roman Catholic Church",
        "col3": "1891-08-22",
        "col4": "1891-08-22",
        "col5": "1930-10-31",
        "col6": "2015-05-23"
    },
    {
        "col0": "I. Costist",
        "col1": "Vatican City",
        "col2": "Roman Catholic Church",
        "col3": "1556-06-29",
        "col4": "1556-06-29",
        "col5": "1625-03-05",
        "col6": "1983-10-30"
    },
    {
        "col0": "I. d. Beniganim",
        "col1": "Kingdom of Italy",
        "col2": "Roman Catholic Church",
        "col3": "1625-02-09",
        "col4": "1625-02-09",
        "col5": "1696-01-21",
        "col6": "1888-02-26"
    },
    {
        "col0": "I. d. Berzo",
        "col1": "Vatican City",
        "col2": "Roman Catholic Church",
        "col3": "1844-03-19",
        "col4": "1844-03-19",
        "col5": "1890-03-03",
        "col6": "1961-11-12"
    },
    {
        "col0": "I. d. Beniganim",
        "col1": "Kingdom of Italy",
        "col2": "Roman Catholic Church",
        "col3": "1625-02-09",
        "col4": "1625-02-09",
        "col5": "1696-01-21",
        "col6": "1888-02-26"
    },
    {
        "col0": "I. Verzeri",
        "col1": "Saint Peter's Basilica",
        "col2": "Roman Catholic Church",
        "col3": "1801-07-31",
        "col4": "1801-07-31",
        "col5": "1852-03-03",
        "col6": "1946-10-27"
    },
    {
        "col0": "I. o. SanthiA ",
        "col1": "Saint Peter's Basilica",
        "col2": "Roman Catholic Church",
        "col3": "1686-06-05",
        "col4": "1686-06-05",
        "col5": "1770-09-22",
        "col6": "1966-04-17"
    },
    {
        "col0": "I. Klopotowski",
        "col1": "Poland",
        "col2": "Roman Catholic Church",
        "col3": "1866-07-20",
        "col4": "1866-07-20",
        "col5": "1931-09-07",
        "col6": "2005-06-19"
    },
    {
        "col0": "Ignacia Nazaria March Mesa",
        "col1": "Vatican City",
        "col2": "Roman Catholic Church",
        "col3": "1889-01-10",
        "col4": "1889-01-10",
        "col5": "1943-07-06",
        "col6": "1992-09-27"
    },
    {
        "col0": "H. Cormier",
        "col1": "Rome",
        "col2": "Catholic Church",
        "col3": "1832-12-08",
        "col4": "1832-12-08",
        "col5": "1916-12-17",
        "col6": "1994-11-20"
    },
    {
        "col0": "H. o. Bisignano",
        "col1": "Kingdom of Italy",
        "col2": "Roman Catholic Church",
        "col3": "1582-08-26",
        "col4": "1582-08-26",
        "col5": "1637-11-26",
        "col6": "1929-01-29"
    },
    {
        "col0": "H. Khomyshyn",
        "col1": "Lviv",
        "col2": "Roman Catholic Church",
        "col3": "1867-03-25",
        "col4": "1867-03-25",
        "col5": "1947-01-17",
        "col6": "2001-06-27"
    },
    {
        "col0": "H. Burjan",
        "col1": "Austria",
        "col2": "Roman Catholic Church",
        "col3": "1883-01-30",
        "col4": "1883-01-30",
        "col5": "1933-06-11",
        "col6": "2012-01-29"
    },
    {
        "col0": "H. Morse",
        "col1": "Rome",
        "col2": "Roman Catholic Church",
        "col3": "1595-0-0",
        "col4": "1595-0-0",
        "col5": "1645-02-01",
        "col6": "1929-12-15"
    },
    {
        "col0": "H. Stenmanns",
        "col1": "Limburg",
        "col2": "Roman Catholic Church",
        "col3": "1852-05-28",
        "col4": "1852-05-28",
        "col5": "1903-05-20",
        "col6": "2008-06-29"
    },
    {
        "col0": "H. Stollenwerk",
        "col1": "Vatican City",
        "col2": "Roman Catholic Church",
        "col3": "1852-11-28",
        "col4": "1852-11-28",
        "col5": "1900-02-03",
        "col6": "1995-05-17"
    },
    {
        "col0": "G. B. Frackowiak",
        "col1": "Poland",
        "col2": "Roman Catholic Church",
        "col3": "1911-07-18",
        "col4": "1911-07-18",
        "col5": "1943-05-05",
        "col6": "1999-06-13"
    },
    {
        "col0": "G. Celli",
        "col1": "Papal States",
        "col2": "Roman Catholic Church",
        "col3": "1225",
        "col4": "1225",
        "col5": "1343-05-11",
        "col6": "1769-09-06"
    },
    {
        "col0": "G. Barbarigo",
        "col1": "Papal States",
        "col2": "Roman Catholic Church",
        "col3": "1625-09-16",
        "col4": "1625-09-16",
        "col5": "1697-06-18",
        "col6": "1761-07-06"
    },
    {
        "col0": "G. d. Amarante",
        "col1": "Papal States",
        "col2": "Roman Catholic Church",
        "col3": "1187-1-1",
        "col4": "1187-1-1",
        "col5": "1259-01-10",
        "col6": "1561-09-16"
    },
    {
        "col0": "G. Russolillo",
        "col1": "Italy",
        "col2": "Roman Catholic Church",
        "col3": "1891-01-18",
        "col4": "1891-01-18",
        "col5": "1955-08-02",
        "col6": "2011-05-07"
    },
    {
        "col0": "G. Suriano",
        "col1": "Italy",
        "col2": "Roman Catholic Church",
        "col3": "1915-02-18",
        "col4": "1915-02-18",
        "col5": "1950-05-19",
        "col6": "2004-09-05"
    },
    {
        "col0": "G. Nicoli",
        "col1": "Italy",
        "col2": "Roman Catholic Church",
        "col3": "1863-1-1",
        "col4": "1863-1-1",
        "col5": "1924-1-1",
        "col6": "2008-02-03"
    },
    {
        "col0": "G. Catanea",
        "col1": "Italy",
        "col2": "Roman Catholic Church",
        "col3": "1894-02-18",
        "col4": "1894-02-18",
        "col5": "1948-03-14",
        "col6": "2008-06-01"
    },
    {
        "col0": "G. Tovini",
        "col1": "Vatican City",
        "col2": "Roman Catholic Church",
        "col3": "1841-03-14",
        "col4": "1841-03-14",
        "col5": "1897-01-16",
        "col6": "1998-09-20"
    },
    {
        "col0": "G. Toniolo",
        "col1": "Basilica of Saint Paul Outside the Walls",
        "col2": "Roman Catholicism",
        "col3": "1845-03-07",
        "col4": "1845-03-07",
        "col5": "1918-10-07",
        "col6": "2012-04-29"
    },
    {
        "col0": "G. Oddi",
        "col1": "Vatican City",
        "col2": "Roman Catholic Church",
        "col3": "1839-06-06",
        "col4": "1839-06-06",
        "col5": "1919-06-03",
        "col6": "1999-10-03"
    },
    {
        "col0": "G. Nascimbeni",
        "col1": "Saint Peter's Basilica",
        "col2": "Roman Catholic Church",
        "col3": "1851-03-22",
        "col4": "1851-03-22",
        "col5": "1922-01-22",
        "col6": "1988-04-17"
    },
    {
        "col0": "G. Girotti",
        "col1": "Italy",
        "col2": "Roman Catholic Church",
        "col3": "1905-07-19",
        "col4": "1905-07-19",
        "col5": "1945-04-01",
        "col6": "2014-04-26"
    },
    {
        "col0": "G. Giaccardo",
        "col1": "Vatican City",
        "col2": "Roman Catholic Church",
        "col3": "1896-06-13",
        "col4": "1896-06-13",
        "col5": "1948-01-24",
        "col6": "1989-10-22"
    },
    {
        "col0": "G. Baldo",
        "col1": "Vatican City",
        "col2": "Roman Catholic Church",
        "col3": "1843-02-19",
        "col4": "1843-02-19",
        "col5": "1915-10-24",
        "col6": "1989-10-31"
    },
    {
        "col0": "G. Allamano",
        "col1": "Vatican City",
        "col2": "Roman Catholic Church",
        "col3": "1851-01-21",
        "col4": "1851-01-21",
        "col5": "1926-02-16",
        "col6": "1990-10-07"
    },
    {
        "col0": "G. d. Rena",
        "col1": "Papal States",
        "col2": "Roman Catholic Church",
        "col3": "1319-0-0",
        "col4": "1319-0-0",
        "col5": "1367-01-09",
        "col6": "1819-05-18"
    },
    {
        "col0": "G. Valle",
        "col1": "Vatican City",
        "col2": "Roman Catholic Church",
        "col3": "1847-06-27",
        "col4": "1847-06-27",
        "col5": "1916-12-18",
        "col6": "2004-04-25"
    },
    {
        "col0": "G. Salzano",
        "col1": "Vatican City",
        "col2": "Roman Catholic Church",
        "col3": "1846-10-13",
        "col4": "1846-10-13",
        "col5": "1929-05-17",
        "col6": "2003-04-27"
    },
    {
        "col0": "G. Crostarosa",
        "col1": "Italy",
        "col2": "Roman Catholic Church",
        "col3": "1696-10-1",
        "col4": "1696-10-1",
        "col5": "1755-09-14",
        "col6": "2016-06-18"
    },
    {
        "col0": "G. Vannini",
        "col1": "Vatican City",
        "col2": "Roman Catholic Church",
        "col3": "1859-07-07",
        "col4": "1859-07-07",
        "col5": "1911-02-23",
        "col6": "1994-10-16"
    },
    {
        "col0": "G. Franchi",
        "col1": "Como",
        "col2": "Roman Catholic Church",
        "col3": "1807-06-24",
        "col4": "1807-06-24",
        "col5": "1872-02-23",
        "col6": "2014-09-20"
    },
    {
        "col0": "G. d. Penna",
        "col1": "Papal States",
        "col2": "Roman Catholic Church",
        "col3": "1200-0-0",
        "col4": "1200-0-0",
        "col5": "1270-0-0",
        "col6": "1806-12-20"
    },
    {
        "col0": "G. Saziari",
        "col1": "Saint Peter's Basilica",
        "col2": "Roman Catholic Church",
        "col3": "1327-0-0",
        "col4": "1327-0-0",
        "col5": "1371-04-21",
        "col6": "1980-12-09"
    },
    {
        "col0": "G. M. Boccardo",
        "col1": "Italy",
        "col2": "Roman Catholic Church",
        "col3": "1848-11-20",
        "col4": "1848-11-20",
        "col5": "1913-12-30",
        "col6": "1998-05-24"
    },
    {
        "col0": "G. Liccio",
        "col1": "Papal States",
        "col2": "Roman Catholic Church",
        "col3": "1426-4-0",
        "col4": "1426-4-0",
        "col5": "1511-11-14",
        "col6": "1753-04-25"
    },
    {
        "col0": "G. Calabria",
        "col1": "Vatican City",
        "col2": "Roman Catholic Church",
        "col3": "1873-10-08",
        "col4": "1873-10-08",
        "col5": "1954-12-04",
        "col6": "1988-04-17"
    },
    {
        "col0": "Giovanni Battista de' Rossi",
        "col1": "Papal States",
        "col2": "Roman Catholic Church",
        "col3": "1698-02-22",
        "col4": "1698-02-22",
        "col5": "1764-05-23",
        "col6": "1860-05-13"
    },
    {
        "col0": "G. B. Piamarta",
        "col1": "Saint Peter's Basilica",
        "col2": "Roman Catholic Church",
        "col3": "1841-1-1",
        "col4": "1841-1-1",
        "col5": "1913-04-25",
        "col6": "1997-10-12"
    },
    {
        "col0": "G. B. Mazzucconi",
        "col1": "Vatican City",
        "col2": "Roman Catholic Church",
        "col3": "1826-03-01",
        "col4": "1826-03-01",
        "col5": "1855-09-07",
        "col6": "1984-02-19"
    },
    {
        "col0": "G. Porro",
        "col1": "Papal States",
        "col2": "Roman Catholic Church",
        "col3": "1451-0-0",
        "col4": "1451-0-0",
        "col5": "1505-0-0",
        "col6": "1737-07-15"
    },
    {
        "col0": "G. d. Orvieto",
        "col1": "Papal States",
        "col2": "Roman Catholic Church",
        "col3": "1264-0-0",
        "col4": "1264-0-0",
        "col5": "1306-07-23",
        "col6": "1754-09-11"
    },
    {
        "col0": "G. Scopelli",
        "col1": "Papal States",
        "col2": "Roman Catholic Church",
        "col3": "1428-1-1",
        "col4": "1428-1-1",
        "col5": "1491-07-09",
        "col6": "1771-08-24"
    },
    {
        "col0": "G. M. Bonomo",
        "col1": "Papal States",
        "col2": "Roman Catholic Church",
        "col3": "1606-08-15",
        "col4": "1606-08-15",
        "col5": "1670-03-01",
        "col6": "1783-06-09"
    },
    {
        "col0": "G. F. Michelotti",
        "col1": "Saint Peter's Basilica",
        "col2": "Roman Catholic Church",
        "col3": "1843-08-29",
        "col4": "1843-08-29",
        "col5": "1888-02-01",
        "col6": "1975-11-01"
    },
    {
        "col0": "G. Ansaloni",
        "col1": "Phillipines",
        "col2": "Roman Catholic Church",
        "col3": "1598-11-01",
        "col4": "1598-11-01",
        "col5": "1634-11-17",
        "col6": "1981-02-18"
    },
    {
        "col0": "G. B. Molla",
        "col1": "Vatican City",
        "col2": "Roman Catholic Church",
        "col3": "1922-10-04",
        "col4": "1922-10-04",
        "col5": "1962-04-28",
        "col6": "1994-04-24"
    },
    {
        "col0": "G. Cusmano",
        "col1": "Saint Peter's Square",
        "col2": "Roman Catholic Church",
        "col3": "1834-03-15",
        "col4": "1834-03-15",
        "col5": "1888-03-14",
        "col6": "1983-10-30"
    }
]