[
    {
        "col0": "Charles II Otto, Count Palatine of Zweibrucken-Birkenfeld",
        "col1": "Meisenheim",
        "col2": "Birkenfeld",
        "col3": "Birkenfeld",
        "col4": "George William, Count Palatine of Zweibrucken-Birkenfeld",
        "col5": "1671-03-30",
        "col6": "1625-09-05"
    },
    {
        "col0": "Charles I, Count Palatine of Zweibrucken-Birkenfeld",
        "col1": "Meisenheim",
        "col2": "Birkenfeld",
        "col3": "Neuburg an der Donau",
        "col4": "A. o. Hesse",
        "col5": "1600-12-16",
        "col6": "1560-09-04"
    },
    {
        "col0": "Charles Beauclerk, 1st Duke of St Albans",
        "col1": "Westminster Abbey",
        "col2": "Bath, Somerset",
        "col3": "United Kingdom",
        "col4": "Charles II of England",
        "col5": "1726-05-10",
        "col6": "1670-05-08"
    },
    {
        "col0": "Charles-Francois de Broglie, marquis de Ruffec",
        "col1": "Angouleme Cathedral",
        "col2": "Saint-Jean-d'Angely",
        "col3": "Paris",
        "col4": "Francois Marie de Broglie, Duke of Broglie",
        "col5": "1781-08-16",
        "col6": "1719-08-19"
    },
    {
        "col0": "Charles, Margrave of Burgau",
        "col1": "Gunzburg",
        "col2": "Uberlingen",
        "col3": "Velky Vrestov",
        "col4": "Ferdinand II, Archduke of Austria",
        "col5": "1618-10-30",
        "col6": "1560-11-22"
    },
    {
        "col0": "C. Borgia",
        "col1": "Viana, Spain",
        "col2": "Kingdom of Navarre",
        "col3": "Papal States",
        "col4": "P. A. VI",
        "col5": "1507-03-12",
        "col6": "1475-09-13"
    },
    {
        "col0": "C. o. Austria",
        "col1": "Baden-Baden",
        "col2": "Baden-Baden",
        "col3": "Wiener Neustadt",
        "col4": "C. o. Masovia",
        "col5": "1493-09-11",
        "col6": "1424-1-1"
    },
    {
        "col0": "C. o. Bourbon",
        "col1": "Nijmegen",
        "col2": "Nijmegen",
        "col3": "Liege",
        "col4": "Charles I, Duke of Bourbon",
        "col5": "1469-05-21",
        "col6": "1440-1-1"
    },
    {
        "col0": "Casimir I the Restorer",
        "col1": "Archcathedral Basilica of St. Peter and St. Paul, Poznan",
        "col2": "Poznan",
        "col3": "Krakow",
        "col4": "M. I. Lambert",
        "col5": "1058-11-28",
        "col6": "1016-7-25"
    },
    {
        "col0": "Boleslaw I the Brave",
        "col1": "Poznan",
        "col2": "Gniezno",
        "col3": "Poznan",
        "col4": "Mieszko I of Poland",
        "col5": "1025-6-17",
        "col6": "967-1-1"
    },
    {
        "col0": "B. I. Wrymouth",
        "col1": "Masovian Blessed Virgin Mary Cathedral",
        "col2": "Sochaczew",
        "col3": "Krakow",
        "col4": "W. I. Herman",
        "col5": "1138-10-28",
        "col6": "1086-8-20"
    },
    {
        "col0": "Boleslaw I the Brave",
        "col1": "Poznan",
        "col2": "Gniezno",
        "col3": "Poznan",
        "col4": "Mieszko I of Poland",
        "col5": "1025-6-17",
        "col6": "967-1-1"
    },
    {
        "col0": "B. I. Wrymouth",
        "col1": "Plock",
        "col2": "Sochaczew",
        "col3": "Krakow",
        "col4": "W. I. Herman",
        "col5": "1138-10-28",
        "col6": "1086-8-20"
    },
    {
        "col0": "B. o. Laon",
        "col1": "Saint Denis Basilica",
        "col2": "Choisy-au-Bac",
        "col3": "Laon",
        "col4": "C. o. Laon",
        "col5": "0783-07-12",
        "col6": "720-1-1"
    },
    {
        "col0": "Bernhard II, Margrave of Baden-Baden",
        "col1": "Moncalieri",
        "col2": "Turin",
        "col3": "Baden-Baden",
        "col4": "Jacob, Margrave of Baden-Baden",
        "col5": "1458-07-15",
        "col6": "1428-1-1"
    },
    {
        "col0": "Bernhard Gustav of Baden-Durlach",
        "col1": "Hammelburg",
        "col2": "Hammelburg",
        "col3": "Germany",
        "col4": "Frederick V, Margrave of Baden-Durlach",
        "col5": "1677-12-26",
        "col6": "1631-12-24"
    },
    {
        "col0": "B. o. Brandenburg-Ansbach-Kulmbach",
        "col1": "Pfreimd",
        "col2": "Karlovy Vary",
        "col3": "Ansbach",
        "col4": "Frederick I, Margrave of Brandenburg-Ansbach",
        "col5": "1552-09-23",
        "col6": "1495-09-24"
    },
    {
        "col0": "A. Visconti",
        "col1": "San Gottardo, Milan",
        "col2": "Milan",
        "col3": "Milan",
        "col4": "H. o. Este",
        "col5": "1339-08-16",
        "col6": "1302-12-07"
    },
    {
        "col0": "Aymon, Count of Savoy",
        "col1": "Hautecombe Abbey",
        "col2": "Montmelian",
        "col3": "Bourg-en-Bresse",
        "col4": "S. o. Bage",
        "col5": "1343-06-22",
        "col6": "1291-12-15"
    },
    {
        "col0": "Augustus, Count Palatine of Sulzbach",
        "col1": "Lauingen",
        "col2": "Windsheim",
        "col3": "Neuburg an der Donau",
        "col4": "A. o. Cleves",
        "col5": "1632-08-14",
        "col6": "1582-10-02"
    },
    {
        "col0": "A. o. Saxe-Weissenfels",
        "col1": "Weissenfels",
        "col2": "Halle",
        "col3": "Halle, Saxony-Anhalt",
        "col4": "Anna Maria of Mecklenburg-Schwerin",
        "col5": "1674-08-11",
        "col6": "1650-12-03"
    },
    {
        "col0": "Arnold III, Count of Bentheim-Steinfurt-Tecklenburg-Limburg",
        "col1": "Bad Bentheim",
        "col2": "Tecklenburg",
        "col3": "Neuenhaus",
        "col4": "Eberwin III, Count of Bentheim-Steinfurt",
        "col5": "1606-01-11",
        "col6": "1554-10-1"
    },
    {
        "col0": "Ariadne",
        "col1": "Church of the Holy Apostles",
        "col2": "Constantinople",
        "col3": "Constantinople",
        "col4": "Leo I the Thracian",
        "col5": "515-1-1",
        "col6": "452-1-1"
    },
    {
        "col0": "Archibald Douglas, 5th Earl of Douglas",
        "col1": "Douglas, South Lanarkshire",
        "col2": "Midlothian",
        "col3": "Scotland",
        "col4": "Archibald Douglas, 4th Earl of Douglas",
        "col5": "1439-6-26",
        "col6": "1390-1-1"
    },
    {
        "col0": "Archibald Douglas, 4th Earl of Douglas",
        "col1": "France",
        "col2": "Verneuil-sur-Avre",
        "col3": "Scotland",
        "col4": "A. t. Grim",
        "col5": "1424-8-17",
        "col6": "1372-1-1"
    },
    {
        "col0": "Archibald Douglas, 3rd Earl of Douglas",
        "col1": "Bothwell",
        "col2": "Threave Castle",
        "col3": "Scotland",
        "col4": "James Douglas, Lord of Douglas",
        "col5": "1400-12-24",
        "col6": "1328-0-0"
    },
    {
        "col0": "Anton Egon, Prince of Furstenberg-Heiligenberg",
        "col1": "Panschwitz-Kuckau",
        "col2": "Wermsdorf",
        "col3": "Munich",
        "col4": "Herman Egon, Prince of Furstenberg-Heiligenberg",
        "col5": "1716-10-10",
        "col6": "1656-04-23"
    },
    {
        "col0": "Anne Seymour, Duchess of Somerset",
        "col1": "London",
        "col2": "Middlesex",
        "col3": "Sudbury, Suffolk",
        "col4": "E. Bourchier",
        "col5": "1587-04-16",
        "col6": "1510-1-1"
    },
    {
        "col0": "Anne Parr, Countess of Pembroke",
        "col1": "City of London",
        "col2": "Baynard's Castle",
        "col3": "London",
        "col4": "M. Green",
        "col5": "1552-02-20",
        "col6": "1515-06-15"
    },
    {
        "col0": "Anne Braye, Baroness Cobham",
        "col1": "Kent",
        "col2": "Kent",
        "col3": "Bedfordshire",
        "col4": "Edmund Braye, 1st Baron Braye",
        "col5": "1558-11-01",
        "col6": "1501-03-21"
    }
]