[
    {
        "col0": "!Viva! Los Straitjackets",
        "col1": "The Utterly Fantastic and Totally Unbelievable Sound of Los Straitjackets",
        "col2": "Ben Vaughn",
        "col3": "2275"
    },
    {
        "col0": "!Uno!",
        "col1": "21st Century Breakdown",
        "col2": "Rob Cavallo",
        "col3": "2504"
    },
    {
        "col0": "!Tre!",
        "col1": "!Dos!",
        "col2": "Rob Cavallo",
        "col3": "2795"
    },
    {
        "col0": "!Si Senor!...",
        "col1": "Montuno",
        "col2": "Emilio Estefan, Jr.",
        "col3": "280"
    },
    {
        "col0": "!Que Vida!",
        "col1": "She Comes in Colors",
        "col2": "Paul A. Rothchild",
        "col3": "217"
    },
    {
        "col0": "!Ole Torme!: Mel Torme Goes South of the Border with Billy May",
        "col1": "Mel Torme's California Suite",
        "col2": "Carl Jefferson",
        "col3": "3271"
    },
    {
        "col0": "!Muy Divertido!",
        "col1": "Yo! I Killed Your God",
        "col2": "JD Foster",
        "col3": "2580"
    },
    {
        "col0": "!Leche con Carne!",
        "col1": "The Daily Grind",
        "col2": "Fat Mike",
        "col3": "2125"
    },
    {
        "col0": "!Happy Birthday Guadalupe!",
        "col1": "A Dustland Fairytale",
        "col2": "The Killers",
        "col3": "273"
    },
    {
        "col0": "!Dos!",
        "col1": "!Uno!",
        "col2": "Rob Cavallo",
        "col3": "2361"
    },
    {
        "col0": "!Bastardos!",
        "col1": "Truth Be Told",
        "col2": "Jay Bennett",
        "col3": "3389"
    },
    {
        "col0": "!Adios Amigos!",
        "col1": "Acid Eaters",
        "col2": "Daniel Rey",
        "col3": "2038"
    },
    {
        "col0": "Ze Ramalho ao Vivo",
        "col1": "Estacao Brasil",
        "col2": "Robertinho de Recife",
        "col3": "4568"
    },
    {
        "col0": "Ze Ramalho Canta Raul Seixas",
        "col1": "Nacao Nordestina",
        "col2": "Robertinho de Recife",
        "col3": "4878"
    },
    {
        "col0": "Ze Ramalho Canta Bob Dylan - Ta Tudo Mudando",
        "col1": "Ze Ramalho da Paraiba",
        "col2": "Robertinho de Recife",
        "col3": "3432"
    },
    {
        "col0": "Z2",
        "col1": "Casualties of Cool",
        "col2": "Devin Townsend",
        "col3": "7020"
    },
    {
        "col0": "Zyryab",
        "col1": "Siroco",
        "col2": "Paco de Lucia",
        "col3": "2522"
    },
    {
        "col0": "Zutto.../Last Minute/Walk",
        "col1": "Terminal",
        "col2": "Max Matsuura",
        "col3": "1707"
    },
    {
        "col0": "Zutter",
        "col1": "Dirty Vibe",
        "col2": "G-Dragon",
        "col3": "194"
    },
    {
        "col0": "Zurich",
        "col1": "Warszawa",
        "col2": "Bill Laswell",
        "col3": "3913"
    },
    {
        "col0": "Zuma",
        "col1": "Tonight's the Night",
        "col2": "David Briggs",
        "col3": "2194"
    },
    {
        "col0": "Zulutime",
        "col1": "Home",
        "col2": "Page Hamilton",
        "col3": "2876"
    },
    {
        "col0": "Zuckerzeit",
        "col1": "Cluster II",
        "col2": "Cluster",
        "col3": "2173"
    },
    {
        "col0": "Zucker",
        "col1": "Alles Gute",
        "col2": "Peter Plate",
        "col3": "3951"
    },
    {
        "col0": "Zubato Sunce",
        "col1": "Gledajuci u mrak",
        "col2": "Dzukele",
        "col3": "2372"
    },
    {
        "col0": "Zu spat",
        "col1": "Paul",
        "col2": "Die Arzte",
        "col3": "180"
    },
    {
        "col0": "Zu heiss",
        "col1": "Krieg",
        "col2": "Farin Urlaub",
        "col3": "240"
    },
    {
        "col0": "Zostan",
        "col1": "Duhy",
        "col2": "Vaclav Patejdl",
        "col3": "2816"
    },
    {
        "col0": "Zora sourit",
        "col1": "Foolish Lullaby",
        "col2": "Jean-Jacques Goldman",
        "col3": "231"
    },
    {
        "col0": "Zopilote Machine",
        "col1": "Hot Garden Stomp",
        "col2": "John Darnielle",
        "col3": "2445"
    },
    {
        "col0": "Zoot Woman",
        "col1": "Living in A Magazine",
        "col2": "Stuart Price",
        "col3": "2326"
    },
    {
        "col0": "Zoot Suit Riot",
        "col1": "Kids on the Street",
        "col2": "Cherry Poppin' Daddies",
        "col3": "3088"
    },
    {
        "col0": "Zoot Allures",
        "col1": "Bongo Fury",
        "col2": "Frank Zappa",
        "col3": "2492"
    },
    {
        "col0": "Zooropa",
        "col1": "Achtung Baby",
        "col2": "Flood",
        "col3": "3075"
    },
    {
        "col0": "Zooma",
        "col1": "The Sporting Life",
        "col2": "John Paul Jones",
        "col3": "2862"
    },
    {
        "col0": "Zoom",
        "col1": "The Ultimate Collection",
        "col2": "Jeff Lynne",
        "col3": "2616"
    },
    {
        "col0": "Zoom",
        "col1": "Ghetto Fabulous",
        "col2": "Dr. Dre",
        "col3": "255"
    },
    {
        "col0": "Zoom",
        "col1": "Zoom",
        "col2": "Jonathan Meath",
        "col3": "1800"
    },
    {
        "col0": "Zoolook",
        "col1": "Musique pour Supermarche",
        "col2": "Jean Michel Jarre",
        "col3": "2278"
    },
    {
        "col0": "Zoo Gang",
        "col1": "Jet",
        "col2": "Paul McCartney",
        "col3": "121"
    },
    {
        "col0": "Zone",
        "col1": "Truth",
        "col2": "Southern Sons",
        "col3": "2665"
    },
    {
        "col0": "Zombie Kiss",
        "col1": "God of Thunder",
        "col2": "White Zombie",
        "col3": "540"
    },
    {
        "col0": "Zombie Dog",
        "col1": "Let Our Violins Be Heard",
        "col2": "Scapegoat",
        "col3": "3148"
    },
    {
        "col0": "Zombie Birdhouse",
        "col1": "Party",
        "col2": "Chris Stein",
        "col3": "2528"
    },
    {
        "col0": "Zombie",
        "col1": "Linger",
        "col2": "Stephen Street",
        "col3": "240"
    },
    {
        "col0": "Zombie",
        "col1": "Stalemate",
        "col2": "Fela Kuti",
        "col3": "1528"
    },
    {
        "col0": "Zombie",
        "col1": "With Roots Above and Branches Below",
        "col2": "Joey Sturgis",
        "col3": "1370"
    },
    {
        "col0": "Zola and the Tulip Tree",
        "col1": "Pacific Coast Rambler",
        "col2": "Mark Olson",
        "col3": "1603"
    },
    {
        "col0": "Zohar",
        "col1": "John Zorn's Cobra: Live at the Knitting Factory",
        "col2": "John Zorn",
        "col3": "1418"
    },
    {
        "col0": "Zoetic",
        "col1": "Life Will Write the Words",
        "col2": "The Rocket Summer",
        "col3": "2444"
    },
    {
        "col0": "Zock On!",
        "col1": "I Still Love H.E.R.",
        "col2": "The Neptunes",
        "col3": "243"
    },
    {
        "col0": "Zitilites",
        "col1": "The Good Life",
        "col2": "Kashmir",
        "col3": "3712"
    },
    {
        "col0": "Zipper Down",
        "col1": "Heart On",
        "col2": "Joshua Homme",
        "col3": "2056"
    },
    {
        "col0": "Zipper Catches Skin",
        "col1": "Special Forces",
        "col2": "Alice Cooper",
        "col3": "1945"
    },
    {
        "col0": "Zip Gun Boogie",
        "col1": "Light of Love",
        "col2": "Marc Bolan",
        "col3": "206"
    },
    {
        "col0": "Zip-Lock",
        "col1": "My Own Worst Enemy",
        "col2": "Lit",
        "col3": "212"
    },
    {
        "col0": "Zion",
        "col1": "Aftermath",
        "col2": "Joel Houston",
        "col3": "4214"
    },
    {
        "col0": "Zion80",
        "col1": "The Gathering",
        "col2": "Jon Madof",
        "col3": "3695"
    },
    {
        "col0": "Zion's Daughter",
        "col1": "The Carnival Is Over",
        "col2": "Frank Farian",
        "col3": "231"
    },
    {
        "col0": "Zingalamaduni",
        "col1": "3 Years, 5 Months & 2 Days in the Life Of...",
        "col2": "Speech",
        "col3": "3265"
    },
    {
        "col0": "Zindagi Na Milegi Dobara",
        "col1": "Zokkomon",
        "col2": "Farhan Akhtar",
        "col3": "2187"
    },
    {
        "col0": "Zinc Alloy and the Hidden Riders of Tomorrow",
        "col1": "Tanx",
        "col2": "Tony Visconti",
        "col3": "2777"
    },
    {
        "col0": "Zimmer 483",
        "col1": "Schrei",
        "col2": "David Jost",
        "col3": "2684"
    },
    {
        "col0": "Ziltoid the Omniscient",
        "col1": "The Hummer",
        "col2": "Devin Townsend",
        "col3": "3226"
    },
    {
        "col0": "Ziggy Stardust: The Motion Picture",
        "col1": "Let's Dance",
        "col2": "Tony Visconti",
        "col3": "4171"
    },
    {
        "col0": "Ziggy Marley",
        "col1": "Fly Rasta",
        "col2": "Ziggy Marley",
        "col3": "2734"
    },
    {
        "col0": "Zig Zaj",
        "col1": "Blue Eyed in the Red Room",
        "col2": "Boom Bip",
        "col3": "2953"
    },
    {
        "col0": "Zig Zag",
        "col1": "One Way Home",
        "col2": "Eric Bazilian",
        "col3": "2320"
    },
    {
        "col0": "Zig-Zaggin' Through Ghostland",
        "col1": "Law of the Fish",
        "col2": "Rodney Mills",
        "col3": "2918"
    },
    {
        "col0": "Zig-Zag Walk",
        "col1": "In the Mood for Something Rude",
        "col2": "Nick Jameson",
        "col3": "2164"
    },
    {
        "col0": "Zid",
        "col1": "Shanakht",
        "col2": "Momina Duraid",
        "col3": "-2400"
    },
    {
        "col0": "Zeus",
        "col1": "Krankenhaus?",
        "col2": "Graham Sutton",
        "col3": "2562"
    },
    {
        "col0": "Zerox",
        "col1": "Lights Go Out",
        "col2": "Martin Glover",
        "col3": "225"
    },
    {
        "col0": "Zeros & Heroes",
        "col1": "A Whole Lot of Nothing",
        "col2": "Clawfinger",
        "col3": "2543"
    },
    {
        "col0": "Zero to Infinity",
        "col1": "Shapeshifter",
        "col2": "Mike Howlett",
        "col3": "3804"
    },
    {
        "col0": "Zero Tolerance for Silence",
        "col1": "The Road to You",
        "col2": "Pat Metheny",
        "col3": "2354"
    },
    {
        "col0": "Zero Set",
        "col1": "Material",
        "col2": "Conny Plank",
        "col3": "2256"
    },
    {
        "col0": "Zero Nexus",
        "col1": "Intoxicate O.S.",
        "col2": "Shade Empire",
        "col3": "2680"
    },
    {
        "col0": "Zero Gravity",
        "col1": "Army of Love",
        "col2": "SeventyEight",
        "col3": "231"
    },
    {
        "col0": "Zero Day",
        "col1": "Final Boss",
        "col2": "MC Frontalot",
        "col3": "2708"
    },
    {
        "col0": "Zero",
        "col1": "Down Boy",
        "col2": "Dave Sitek",
        "col3": "265"
    },
    {
        "col0": "Zero",
        "col1": "1979",
        "col2": "Alan Moulder",
        "col3": "161"
    },
    {
        "col0": "Zero",
        "col1": "Hitori Yori Futari",
        "col2": "Fayray",
        "col3": "393"
    },
    {
        "col0": "Zero",
        "col1": "Moses",
        "col2": "Matthew Burnett",
        "col3": "213"
    },
    {
        "col0": "Zenon: Z3",
        "col1": "Zenon: The Zequel",
        "col2": "Suzanne de Passe",
        "col3": "4860"
    },
    {
        "col0": "Zenon: The Zequel",
        "col1": "Zenon: Girl of the 21st Century",
        "col2": "Suzanne de Passe",
        "col3": "5340"
    },
    {
        "col0": "Zenith",
        "col1": "Bloody Radio",
        "col2": "Aesop Rock",
        "col3": "3795"
    },
    {
        "col0": "Zenhouse",
        "col1": "Time Is the Enemy",
        "col2": "Jonas Hellborg",
        "col3": "3245"
    },
    {
        "col0": "Zen Arcade",
        "col1": "Metal Circus",
        "col2": "Spot",
        "col3": "4223"
    },
    {
        "col0": "Zen",
        "col1": "Kakusei",
        "col2": "DJ Krush",
        "col3": "3820"
    },
    {
        "col0": "Zeitgeist",
        "col1": "Machina II/The Friends & Enemies of Modern Music",
        "col2": "Billy Corgan",
        "col3": "3142"
    },
    {
        "col0": "Zeit",
        "col1": "Alpha Centauri",
        "col2": "Tangerine Dream",
        "col3": "4469"
    },
    {
        "col0": "Zeeland",
        "col1": "Dusseldorf",
        "col2": "Klaus Dinger",
        "col3": "3726"
    },
    {
        "col0": "Zebra",
        "col1": "JBT EP",
        "col2": "John Butler",
        "col3": "1156"
    },
    {
        "col0": "Zebra",
        "col1": "Essential Yello",
        "col2": "Yello",
        "col3": "2753"
    },
    {
        "col0": "Zebra",
        "col1": "Kamien",
        "col2": "Kayah",
        "col3": "3903"
    },
    {
        "col0": "Zebop!",
        "col1": "Marathon",
        "col2": "Carlos Santana",
        "col3": "2832"
    },
    {
        "col0": "Zbogom, Srbijo",
        "col1": "Labudova pesma",
        "col2": "Riblja Corba",
        "col3": "2341"
    },
    {
        "col0": "Zawinul",
        "col1": "The Rise and Fall of the Third Stream",
        "col2": "Joel Dorn",
        "col3": "2145"
    },
    {
        "col0": "Zaragon",
        "col1": "Stranger in the City",
        "col2": "Rupert Holmes",
        "col3": "2785"
    },
    {
        "col0": "Zappa in New York",
        "col1": "Zoot Allures",
        "col2": "Frank Zappa",
        "col3": "4204"
    },
    {
        "col0": "Zapp V",
        "col1": "The New Zapp IV U",
        "col2": "Roger Troutman",
        "col3": "2675"
    },
    {
        "col0": "Zapp III",
        "col1": "Zapp II",
        "col2": "Roger Troutman",
        "col3": "2261"
    },
    {
        "col0": "Zapp II",
        "col1": "Zapp",
        "col2": "Roger Troutman",
        "col3": "2452"
    },
    {
        "col0": "Zanzibar",
        "col1": "My Life",
        "col2": "Phil Ramone",
        "col3": "313"
    },
    {
        "col0": "Zankyo",
        "col1": "5 Nen Mono",
        "col2": "Masaharu Fukuyama",
        "col3": "4327"
    },
    {
        "col0": "Zan",
        "col1": "Yurameki",
        "col2": "Yoshiki",
        "col3": "269"
    },
    {
        "col0": "Zamia Lehmanni: Songs of Byzantine Flowers",
        "col1": "Machine Age Voodoo",
        "col2": "Graeme Revell",
        "col3": "2890"
    },
    {
        "col0": "Zaireeka",
        "col1": "Clouds Taste Metallic",
        "col2": "The Flaming Lips",
        "col3": "2732"
    },
    {
        "col0": "Zagora",
        "col1": "So Where Are You?",
        "col2": "Nick Martinelli",
        "col3": "3029"
    },
    {
        "col0": "Zaebos: Book of Angels Volume 11",
        "col1": "Lucifer: Book of Angels Volume 10",
        "col2": "Medeski Martin & Wood",
        "col3": "3260"
    },
    {
        "col0": "Zaddy",
        "col1": "Bacon",
        "col2": "Ty Dolla Sign",
        "col3": "223"
    },
    {
        "col0": "Zabagabee: The Best of Barnes & Barnes",
        "col1": "Sicks",
        "col2": "Bob Casale",
        "col3": "2971"
    },
    {
        "col0": "Za-Za",
        "col1": "Freakshow",
        "col2": "Ted Templeman",
        "col3": "2200"
    },
    {
        "col0": "Z",
        "col1": "Acoustic Citsuoca",
        "col2": "Jim James",
        "col3": "2820"
    },
    {
        "col0": "Z",
        "col1": "S",
        "col2": "Marvin Gaye",
        "col3": "2441"
    },
    {
        "col0": "Z",
        "col1": "Aion",
        "col2": "Aion",
        "col3": "2950"
    },
    {
        "col0": "ZT's Blues",
        "col1": "Dearly Beloved",
        "col2": "Alfred Lion",
        "col3": "2413"
    },
    {
        "col0": "Ze Ramalho ao Vivo",
        "col1": "Estacao Brasil",
        "col2": "Robertinho de Recife",
        "col3": "4568"
    },
    {
        "col0": "Ze Ramalho Canta Raul Seixas",
        "col1": "Nacao Nordestina",
        "col2": "Robertinho de Recife",
        "col3": "4878"
    },
    {
        "col0": "Ze Ramalho Canta Bob Dylan - Ta Tudo Mudando",
        "col1": "Ze Ramalho da Paraiba",
        "col2": "Robertinho de Recife",
        "col3": "3432"
    },
    {
        "col0": "Z2",
        "col1": "Casualties of Cool",
        "col2": "Devin Townsend",
        "col3": "7020"
    },
    {
        "col0": "YA<<nagi Loop",
        "col1": "Shonen Alice",
        "col2": "Maaya Sakamoto",
        "col3": "3341"
    },
    {
        "col0": "YA<<hi o Miteiru ka?",
        "col1": "Boku no Taiyo",
        "col2": "Yasushi Akimoto",
        "col3": "298"
    },
    {
        "col0": "YA<<gure",
        "col1": "Party",
        "col2": "The Blue Hearts",
        "col3": "11"
    },
    {
        "col0": "Yushima no Shiraume",
        "col1": "Sound Pressure Level",
        "col2": "Merzbow",
        "col3": "2161"
    },
    {
        "col0": "Yusef Lateef's Detroit",
        "col1": "The Blue Yusef Lateef",
        "col2": "Joel Dorn",
        "col3": "1862"
    },
    {
        "col0": "Yuruginai Mono Hitotsu",
        "col1": "Shoudou",
        "col2": "Tak Matsumoto",
        "col3": "470"
    }
]