[
    {
        "col0": "Lamborghini",
        "col1": "Sant'Agata Bolognese",
        "col2": "1146",
        "col3": "586000000"
    },
    {
        "col0": "Lakeland Dairies",
        "col1": "County Cavan",
        "col2": "700",
        "col3": "588500000"
    },
    {
        "col0": "Laima",
        "col1": "Riga",
        "col2": "620",
        "col3": "7710000"
    },
    {
        "col0": "Laboratoires Servier",
        "col1": "Suresnes",
        "col2": "21200",
        "col3": "3900000000"
    },
    {
        "col0": "La Poste",
        "col1": "Paris",
        "col2": "257891",
        "col3": "22163"
    },
    {
        "col0": "LVMH",
        "col1": "Paris",
        "col2": "120000",
        "col3": "35664000000"
    },
    {
        "col0": "LSR Group",
        "col1": "Saint Petersburg",
        "col2": "16000",
        "col3": "2000000000"
    },
    {
        "col0": "LSI Corporation",
        "col1": "San Jose, California",
        "col2": "5080",
        "col3": "2510000000"
    },
    {
        "col0": "LOUD Technologies",
        "col1": "Woodinville, Washington",
        "col2": "533",
        "col3": "208000000"
    },
    {
        "col0": "LOEN Entertainment",
        "col1": "Seoul",
        "col2": "361",
        "col3": "323200000000"
    },
    {
        "col0": "LLamasoft",
        "col1": "Ann Arbor, Michigan",
        "col2": "383",
        "col3": "37500000"
    },
    {
        "col0": "LKAB",
        "col1": "Lulea",
        "col2": "4191",
        "col3": "31122000000"
    },
    {
        "col0": "LG Uplus",
        "col1": "Seoul",
        "col2": "4987",
        "col3": "7800000000000"
    },
    {
        "col0": "LG Display",
        "col1": "Seoul",
        "col2": "49000",
        "col3": "25550000000"
    },
    {
        "col0": "LEO Express",
        "col1": "Prague",
        "col2": "160",
        "col3": "129000000"
    },
    {
        "col0": "LAPTV",
        "col1": "Atlanta",
        "col2": "60",
        "col3": "75000000"
    },
    {
        "col0": "L-3 Communications",
        "col1": "New York City",
        "col2": "38000",
        "col3": "12629000000"
    },
    {
        "col0": "L'Oreal",
        "col1": "Clichy, Hauts-de-Seine",
        "col2": "78600",
        "col3": "25257000000"
    },
    {
        "col0": "Lurssen",
        "col1": "Bremen-Vegesack",
        "col2": "1635",
        "col3": "829"
    },
    {
        "col0": "Kurt Geiger",
        "col1": "London",
        "col2": "1700",
        "col3": "260000000"
    },
    {
        "col0": "Kuntz Electroplating",
        "col1": "Kitchener, Ontario",
        "col2": "850",
        "col3": "70000000"
    },
    {
        "col0": "Kumho Tire",
        "col1": "Gwangju",
        "col2": "5010",
        "col3": "3"
    },
    {
        "col0": "Kumagai Gumi",
        "col1": "Tokyo",
        "col2": "2587",
        "col3": "326344"
    },
    {
        "col0": "Kulim",
        "col1": "Johor",
        "col2": "8187",
        "col3": "1"
    },
    {
        "col0": "Kuala Lumpur Kepong Berhad",
        "col1": "Ipoh",
        "col2": "38000",
        "col3": "7490"
    },
    {
        "col0": "Ku6 Media",
        "col1": "Beijing",
        "col2": "211",
        "col3": "2350000"
    },
    {
        "col0": "Kroll Inc.",
        "col1": "New York City",
        "col2": "2800",
        "col3": "1000000000"
    },
    {
        "col0": "Korea Gas Corporation",
        "col1": "Daegu",
        "col2": "3674",
        "col3": "31900000000"
    },
    {
        "col0": "Korea Electric Power Corporation",
        "col1": "Naju",
        "col2": "20603",
        "col3": "53210000000"
    },
    {
        "col0": "Korea Aerospace Industries",
        "col1": "South Gyeongsang Province",
        "col2": "3530",
        "col3": "2510000000"
    },
    {
        "col0": "Kontron",
        "col1": "Augsburg",
        "col2": "2890",
        "col3": "509500000"
    },
    {
        "col0": "Konecranes",
        "col1": "Hyvinkaa",
        "col2": "11900",
        "col3": "2126"
    },
    {
        "col0": "Konami",
        "col1": "Minato, Tokyo",
        "col2": "4578",
        "col3": "15995"
    },
    {
        "col0": "Komercijalna banka",
        "col1": "Belgrade",
        "col2": "3262",
        "col3": "321080000"
    },
    {
        "col0": "Kombiverkehr",
        "col1": "Frankfurt am Main",
        "col2": "156",
        "col3": "347000000"
    },
    {
        "col0": "Koch Media",
        "col1": "Planegg",
        "col2": "300",
        "col3": "337000000"
    },
    {
        "col0": "Knjaz MiloA! a.d.",
        "col1": "Arandelovac",
        "col2": "910",
        "col3": "68250000"
    },
    {
        "col0": "Kmart Australia",
        "col1": "Mulgrave, Victoria",
        "col2": "31000",
        "col3": "5200000000"
    },
    {
        "col0": "Kleinfelder",
        "col1": "San Diego, California",
        "col2": "2000",
        "col3": "344400000"
    },
    {
        "col0": "Kinetic Concepts",
        "col1": "Texas",
        "col2": "5000",
        "col3": "1600000000"
    },
    {
        "col0": "Kikkoman",
        "col1": "Noda, Chiba",
        "col2": "5622",
        "col3": "3369000000"
    },
    {
        "col0": "KiK",
        "col1": "Bonen",
        "col2": "20000",
        "col3": "1200000000"
    },
    {
        "col0": "Kesko",
        "col1": "Helsinki",
        "col2": "19489",
        "col3": "9315000000"
    },
    {
        "col0": "Kerry Logistics Network",
        "col1": "Hong Kong Island",
        "col2": "20000",
        "col3": "2"
    }
]