[
    {
        "col0": "O. Hardy",
        "col1": "Georgia",
        "col2": "http://dbpedia.org/resource/Cerebral_thrombosis",
        "col3": "1892-01-18"
    },
    {
        "col0": "O. Thomas",
        "col1": "Charleroi, Pennsylvania",
        "col2": "http://dbpedia.org/resource/Nephritis",
        "col3": "1894-10-20"
    },
    {
        "col0": "O. Borden",
        "col1": "Richmond, Virginia",
        "col2": "http://dbpedia.org/resource/Pneumonia",
        "col3": "1906-07-14"
    },
    {
        "col0": "O. Syahputra",
        "col1": "Dutch East Indies",
        "col2": "http://dbpedia.org/resource/Meningitis",
        "col3": "1983-02-08"
    },
    {
        "col0": "O. Bryjak",
        "col1": "Kazakh Soviet Socialist Republic",
        "col2": "http://dbpedia.org/resource/Germanwings_Flight_9525",
        "col3": "1960-10-27"
    },
    {
        "col0": "O. Soule",
        "col1": "Hancock County, Illinois",
        "col2": "http://dbpedia.org/resource/Lung_cancer",
        "col3": "1909-02-28"
    },
    {
        "col0": "O. Hytten",
        "col1": "Scotland",
        "col2": "http://dbpedia.org/resource/Myocardial_infarction",
        "col3": "1888-03-03"
    },
    {
        "col0": "O. Haza",
        "col1": "Israel",
        "col2": "http://dbpedia.org/resource/AIDS",
        "col3": "1957-11-19"
    },
    {
        "col0": "N. Westman",
        "col1": "New York",
        "col2": "http://dbpedia.org/resource/Cancer",
        "col3": "1902-02-19"
    },
    {
        "col0": "N. Jones",
        "col1": "England",
        "col2": "http://dbpedia.org/resource/Heart_Attack",
        "col3": "1932-06-16"
    },
    {
        "col0": "N. Chaney",
        "col1": "Baltimore",
        "col2": "http://dbpedia.org/resource/Myocarditis",
        "col3": "1914-10-18"
    },
    {
        "col0": "N. Talmadge",
        "col1": "Jersey City, New Jersey",
        "col2": "http://dbpedia.org/resource/Pneumonia",
        "col3": "1894-05-02"
    },
    {
        "col0": "N. Shearer",
        "col1": "Montreal",
        "col2": "http://dbpedia.org/resource/Bronchial_pneumonia",
        "col3": "1902-08-11"
    },
    {
        "col0": "N. Crane",
        "col1": "New York City",
        "col2": "http://dbpedia.org/resource/Breast_cancer",
        "col3": "1928-11-10"
    },
    {
        "col0": "N. Ferguson",
        "col1": "Manhattan",
        "col2": "http://dbpedia.org/resource/Myocardial_infarction",
        "col3": "1902-09-02"
    },
    {
        "col0": "N. Dyson",
        "col1": "Manchester",
        "col2": "http://dbpedia.org/resource/Cancer",
        "col3": "1916-12-23"
    },
    {
        "col0": "N. Otowa",
        "col1": "Tottori Prefecture",
        "col2": "http://dbpedia.org/resource/Liver_cancer",
        "col3": "1924-10-01"
    },
    {
        "col0": "N. McCarthy",
        "col1": "Ontario",
        "col2": "http://dbpedia.org/resource/Aortic_aneurysm",
        "col3": "1934-11-13"
    },
    {
        "col0": "N. Willingham",
        "col1": "Texas",
        "col2": "http://dbpedia.org/resource/Heart_attack",
        "col3": "1931-08-31"
    },
    {
        "col0": "N. B. Jr.",
        "col1": "New York",
        "col2": "http://dbpedia.org/resource/Cerebral_thrombosis",
        "col3": "1913-08-10"
    },
    {
        "col0": "N. Sevilla",
        "col1": "Cuba",
        "col2": "http://dbpedia.org/resource/Myocardial_infarction",
        "col3": "1921-11-10"
    },
    {
        "col0": "N. Manfredi",
        "col1": "Italy",
        "col2": "http://dbpedia.org/resource/Stroke",
        "col3": "1921-03-22"
    },
    {
        "col0": "N. M. McKinney",
        "col1": "Lancaster, South Carolina",
        "col2": "http://dbpedia.org/resource/Myocardial_infarction",
        "col3": "1912-06-13"
    },
    {
        "col0": "N. Foch",
        "col1": "Leiden",
        "col2": "http://dbpedia.org/resource/Myelodysplastic_syndrome",
        "col3": "1924-04-20"
    },
    {
        "col0": "N. Sevilla",
        "col1": "Cuba",
        "col2": "http://dbpedia.org/resource/Myocardial_infarction",
        "col3": "1921-11-10"
    },
    {
        "col0": "N. Terry",
        "col1": "Bristol",
        "col2": "http://dbpedia.org/resource/Emphysema",
        "col3": "1945-08-15"
    },
    {
        "col0": "N. Stock",
        "col1": "Malta",
        "col2": "http://dbpedia.org/resource/Heart_attack",
        "col3": "1919-09-21"
    },
    {
        "col0": "N. Hawthorne",
        "col1": "Coventry",
        "col2": "http://dbpedia.org/resource/Heart_attack",
        "col3": "1929-04-05"
    },
    {
        "col0": "N. Bruce",
        "col1": "Baja California",
        "col2": "http://dbpedia.org/resource/Myocardial_infarction",
        "col3": "1895-02-04"
    },
    {
        "col0": "N. Blanca",
        "col1": "Commonwealth of the Philippines",
        "col2": "http://dbpedia.org/resource/Stabbing",
        "col3": "1936-01-06"
    },
    {
        "col0": "N. Leblanc",
        "col1": "France",
        "col2": "http://dbpedia.org/resource/Suicide",
        "col3": "1742-12-06"
    },
    {
        "col0": "N. Williamson",
        "col1": "Scotland",
        "col2": "http://dbpedia.org/resource/Esophageal_cancer",
        "col3": "1936-09-14"
    },
    {
        "col0": "N. Courtney",
        "col1": "Cairo",
        "col2": "http://dbpedia.org/resource/Cancer",
        "col3": "1929-12-16"
    },
    {
        "col0": "N. Colasanto",
        "col1": "Providence, Rhode Island",
        "col2": "http://dbpedia.org/resource/Heart_attack",
        "col3": "1924-01-19"
    },
    {
        "col0": "N. Brand",
        "col1": "Iowa",
        "col2": "http://dbpedia.org/resource/Emphysema",
        "col3": "1920-08-13"
    },
    {
        "col0": "N. Gerber",
        "col1": "Argenta, Illinois",
        "col2": "http://dbpedia.org/resource/Cerebral_thrombosis",
        "col3": "1894-04-03"
    },
    {
        "col0": "N. Carter",
        "col1": "Birmingham, Alabama",
        "col2": "http://dbpedia.org/resource/Heart_disease",
        "col3": "1948-09-13"
    },
    {
        "col0": "N. McCallum",
        "col1": "Canada",
        "col2": "http://dbpedia.org/resource/Cerebral_haemorrhage",
        "col3": "1929-5-20"
    },
    {
        "col0": "N. Hamilton",
        "col1": "Lynn, Massachusetts",
        "col2": "http://dbpedia.org/resource/Asthma",
        "col3": "1899-09-09"
    },
    {
        "col0": "N. Sherrin",
        "col1": "Low Ham",
        "col2": "http://dbpedia.org/resource/Head_and_neck_cancer",
        "col3": "1931-02-18"
    },
    {
        "col0": "N. Richardson",
        "col1": "London",
        "col2": "http://dbpedia.org/resource/Epidural_hematoma",
        "col3": "1963-05-11"
    },
    {
        "col0": "N. Collins",
        "col1": "Luton",
        "col2": "http://dbpedia.org/resource/Drug_overdose",
        "col3": "1976-09-07"
    },
    {
        "col0": "N. Wood",
        "col1": "San Francisco",
        "col2": "http://dbpedia.org/resource/Drowning",
        "col3": "1938-07-20"
    },
    {
        "col0": "N. Talmadge",
        "col1": "Brooklyn",
        "col2": "http://dbpedia.org/resource/Heart_failure",
        "col3": "1896-04-29"
    },
    {
        "col0": "N. Schafer",
        "col1": "Red Bank, New Jersey",
        "col2": "http://dbpedia.org/resource/Liver_cancer",
        "col3": "1900-11-05"
    },
    {
        "col0": "N. Cole",
        "col1": "California",
        "col2": "http://dbpedia.org/resource/Congestive_heart_failure",
        "col3": "1950-02-06"
    },
    {
        "col0": "Nanda",
        "col1": "Kolhapur",
        "col2": "http://dbpedia.org/resource/Heart_Attack",
        "col3": "1939-01-08"
    },
    {
        "col0": "N. Kulp",
        "col1": "Pennsylvania",
        "col2": "http://dbpedia.org/resource/Cancer",
        "col3": "1921-08-28"
    },
    {
        "col0": "N. Carroll",
        "col1": "New York",
        "col2": "http://dbpedia.org/resource/Aneurysm",
        "col3": "1903-11-19"
    },
    {
        "col0": "N. Leslie",
        "col1": "California",
        "col2": "http://dbpedia.org/resource/Pneumonia",
        "col3": "1926-06-04"
    },
    {
        "col0": "N. Martinez",
        "col1": "Asturias",
        "col2": "http://dbpedia.org/resource/Lung_cancer",
        "col3": "1952-07-08"
    },
    {
        "col0": "N. Mathrubootham",
        "col1": "British India",
        "col2": "http://dbpedia.org/resource/Cardiac_arrest",
        "col3": "1944-07-02"
    },
    {
        "col0": "M. Kenter",
        "col1": "Constantinople",
        "col2": "http://dbpedia.org/resource/Lung_cancer",
        "col3": "1932-09-09"
    },
    {
        "col0": "M. Talog",
        "col1": "Wales",
        "col2": "http://dbpedia.org/resource/Breast_Cancer",
        "col3": "1944-03-31"
    },
    {
        "col0": "M. Wilson",
        "col1": "Hutchinson, Kansas",
        "col2": "http://dbpedia.org/resource/Myocardial_infarction",
        "col3": "1917-07-02"
    },
    {
        "col0": "M. Landers",
        "col1": "Chicago",
        "col2": "http://dbpedia.org/resource/Stroke",
        "col3": "1921-10-27"
    },
    {
        "col0": "M. Evans",
        "col1": "Minneapolis, Minnesota",
        "col2": "http://dbpedia.org/resource/Colorectal_cancer",
        "col3": "1910-07-20"
    },
    {
        "col0": "M. Zarif",
        "col1": "Gujranwala",
        "col2": "http://dbpedia.org/resource/Cirhosis",
        "col3": "1940-12-25"
    },
    {
        "col0": "M. Ali",
        "col1": "Louisville, Kentucky",
        "col2": "http://dbpedia.org/resource/Septic_shock",
        "col3": "1942-01-17"
    },
    {
        "col0": "M. Guoguang",
        "col1": "China",
        "col2": "http://dbpedia.org/resource/Lymphoma",
        "col3": "1931-1-1"
    },
    {
        "col0": "M. Macgill",
        "col1": "Belfast",
        "col2": "http://dbpedia.org/resource/Throat_cancer",
        "col3": "1895-12-10"
    },
    {
        "col0": "M. D. Jr.",
        "col1": "Los Angeles",
        "col2": "http://dbpedia.org/resource/Lung_cancer",
        "col3": "1932-12-09"
    },
    {
        "col0": "M. Ankrum",
        "col1": "Danville, Illinois",
        "col2": "http://dbpedia.org/resource/Trichinosis",
        "col3": "1896-08-27"
    },
    {
        "col0": "M. Olsen",
        "col1": "Ogden, Utah",
        "col2": "http://dbpedia.org/resource/Heart_attack",
        "col3": "1889-06-27"
    },
    {
        "col0": "M. Safer",
        "col1": "Toronto",
        "col2": "http://dbpedia.org/resource/Pneumonia",
        "col3": "1931-11-08"
    },
    {
        "col0": "M. Paull",
        "col1": "New York",
        "col2": "http://dbpedia.org/resource/Stomach_cancer",
        "col3": "1944-12-15"
    },
    {
        "col0": "M. Amsterdam",
        "col1": "Chicago",
        "col2": "http://dbpedia.org/resource/Myocardial_infarction",
        "col3": "1908-12-14"
    },
    {
        "col0": "M. Clift",
        "col1": "Omaha, Nebraska",
        "col2": "http://dbpedia.org/resource/Heart_attack",
        "col3": "1920-10-17"
    },
    {
        "col0": "M. Blue",
        "col1": "Indiana",
        "col2": "http://dbpedia.org/resource/Influenza",
        "col3": "1887-01-11"
    },
    {
        "col0": "M. Kochi",
        "col1": "Japan",
        "col2": "http://dbpedia.org/resource/Colorectal_cancer",
        "col3": "1932-03-07"
    },
    {
        "col0": "M. Picon",
        "col1": "New York City",
        "col2": "http://dbpedia.org/resource/Alzheimer's_disease",
        "col3": "1898-02-28"
    },
    {
        "col0": "M. Ivins",
        "col1": "Monterey, California",
        "col2": "http://dbpedia.org/resource/Inflammatory_breast_cancer",
        "col3": "1944-08-30"
    },
    {
        "col0": "M. Sugden",
        "col1": "West Riding of Yorkshire",
        "col2": "http://dbpedia.org/resource/Heart_failure",
        "col3": "1922-07-21"
    },
    {
        "col0": "M. Howard",
        "col1": "New York",
        "col2": "http://dbpedia.org/resource/Lung_cancer",
        "col3": "1897-06-19"
    },
    {
        "col0": "M. Uehara",
        "col1": "Kagoshima Prefecture",
        "col2": "http://dbpedia.org/resource/Suicide",
        "col3": "1987-05-02"
    },
    {
        "col0": "M. Matsuki",
        "col1": "Kure, Hiroshima",
        "col2": "http://dbpedia.org/resource/Lymphoma",
        "col3": "1977-09-14"
    },
    {
        "col0": "M. Green",
        "col1": "The Bronx",
        "col2": "http://dbpedia.org/resource/Cancer",
        "col3": "1920-10-22"
    },
    {
        "col0": "M. Hedberg",
        "col1": "Minnesota",
        "col2": "http://dbpedia.org/resource/Drug_overdose",
        "col3": "1968-02-24"
    },
    {
        "col0": "M. Cleo",
        "col1": "Los Angeles",
        "col2": "http://dbpedia.org/resource/Colon_cancer",
        "col3": "1962-08-12"
    },
    {
        "col0": "M. Karlin",
        "col1": "England",
        "col2": "http://dbpedia.org/resource/Cancer",
        "col3": "1925-06-23"
    },
    {
        "col0": "M. Hopkins",
        "col1": "Savannah, Georgia",
        "col2": "http://dbpedia.org/resource/Myocardial_infarction",
        "col3": "1902-10-18"
    },
    {
        "col0": "M. Cooper",
        "col1": "Baltimore",
        "col2": "http://dbpedia.org/resource/Stroke",
        "col3": "1891-11-07"
    },
    {
        "col0": "M. Urecal",
        "col1": "Eureka, California",
        "col2": "http://dbpedia.org/resource/Myocardial_infarction",
        "col3": "1894-09-22"
    },
    {
        "col0": "M. Subotsky",
        "col1": "New York City",
        "col2": "http://dbpedia.org/resource/Cardiovascular_disease",
        "col3": "1921-09-27"
    },
    {
        "col0": "M. Frome",
        "col1": "Philadelphia",
        "col2": "http://dbpedia.org/resource/Heart_failure",
        "col3": "1909-02-24"
    },
    {
        "col0": "M. Berle",
        "col1": "New York",
        "col2": "http://dbpedia.org/resource/Colon_cancer",
        "col3": "1908-07-12"
    },
    {
        "col0": "M. Mitchell",
        "col1": "Cuba",
        "col2": "http://dbpedia.org/resource/Lung_Cancer",
        "col3": "1903-08-14"
    },
    {
        "col0": "M. Goodman",
        "col1": "California",
        "col2": "http://dbpedia.org/resource/Heart_attack",
        "col3": "1948-08-27"
    },
    {
        "col0": "M. Natwick",
        "col1": "Baltimore",
        "col2": "http://dbpedia.org/resource/Cancer",
        "col3": "1905-06-19"
    },
    {
        "col0": "M. Harris",
        "col1": "Cheyenne, Wyoming",
        "col2": "http://dbpedia.org/resource/Pneumonia",
        "col3": "1901-11-29"
    },
    {
        "col0": "M. Ragan",
        "col1": "California",
        "col2": "http://dbpedia.org/resource/Emphysema",
        "col3": "1918-02-18"
    },
    {
        "col0": "M. Nichols",
        "col1": "Berlin",
        "col2": "http://dbpedia.org/resource/Heart_attack",
        "col3": "1931-11-06"
    },
    {
        "col0": "M. Minor",
        "col1": "San Francisco",
        "col2": "http://dbpedia.org/resource/Cancer",
        "col3": "1940-12-07"
    },
    {
        "col0": "M. Rodriguez",
        "col1": "Las Pinas City",
        "col2": "http://dbpedia.org/resource/Pancreatitis",
        "col3": "1961-11-23"
    },
    {
        "col0": "M. Daniels",
        "col1": "Rock Springs, Wyoming",
        "col2": "http://dbpedia.org/resource/Cirrhosis",
        "col3": "1914-10-11"
    },
    {
        "col0": "M. Girardon",
        "col1": "Lyon",
        "col2": "http://dbpedia.org/resource/Suicide",
        "col3": "1938-08-09"
    },
    {
        "col0": "M. Thomas",
        "col1": "Boston",
        "col2": "http://dbpedia.org/resource/Cancer",
        "col3": "1968-09-23"
    },
    {
        "col0": "M. Nicastro",
        "col1": "United States",
        "col2": "http://dbpedia.org/resource/Brain_cancer",
        "col3": "1960-03-31"
    },
    {
        "col0": "M. White",
        "col1": "Glasgow",
        "col2": "http://dbpedia.org/resource/Heart_failure",
        "col3": "1936-01-16"
    },
    {
        "col0": "M. Rennie",
        "col1": "England",
        "col2": "http://dbpedia.org/resource/Aortic_aneurysm",
        "col3": "1909-08-25"
    },
    {
        "col0": "M. Redgrave",
        "col1": "Bristol",
        "col2": "http://dbpedia.org/resource/Parkinson's_disease",
        "col3": "1908-03-20"
    },
    {
        "col0": "M. Landon",
        "col1": "New York City",
        "col2": "http://dbpedia.org/resource/Pancreatic_cancer",
        "col3": "1936-10-31"
    },
    {
        "col0": "M. Jeter",
        "col1": "Lawrenceburg, Tennessee",
        "col2": "http://dbpedia.org/resource/Epileptic_seizure",
        "col3": "1952-08-26"
    },
    {
        "col0": "M. Galeota",
        "col1": "Smithtown, New York",
        "col2": "http://dbpedia.org/resource/Heart_disease",
        "col3": "1984-08-28"
    },
    {
        "col0": "M. Flanders",
        "col1": "London",
        "col2": "http://dbpedia.org/resource/Aneurysm",
        "col3": "1922-03-01"
    },
    {
        "col0": "M. Denison",
        "col1": "England",
        "col2": "http://dbpedia.org/resource/Cancer",
        "col3": "1915-11-01"
    },
    {
        "col0": "M. Craze",
        "col1": "Cornwall",
        "col2": "http://dbpedia.org/resource/Myocardial_infarction",
        "col3": "1942-11-29"
    },
    {
        "col0": "M. C. Duncan",
        "col1": "Chicago",
        "col2": "http://dbpedia.org/resource/Heart_attack",
        "col3": "1957-12-10"
    },
    {
        "col0": "M. Callen",
        "col1": "Rising Sun, Indiana",
        "col2": "http://dbpedia.org/resource/HIV/AIDS",
        "col3": "1955-04-11"
    },
    {
        "col0": "M. Blodgett",
        "col1": "Minneapolis",
        "col2": "http://dbpedia.org/resource/Heart_attack",
        "col3": "1939-09-26"
    },
    {
        "col0": "M. Barrington",
        "col1": "Shropshire",
        "col2": "http://dbpedia.org/resource/Heart_Attack",
        "col3": "1924-07-03"
    },
    {
        "col0": "M. Ansara",
        "col1": "Syria",
        "col2": "http://dbpedia.org/resource/Alzheimer's_disease",
        "col3": "1922-04-15"
    },
    {
        "col0": "M. Girardon",
        "col1": "Lyon",
        "col2": "http://dbpedia.org/resource/Suicide",
        "col3": "1938-08-09"
    },
    {
        "col0": "M. Taylor",
        "col1": "Boston",
        "col2": "http://dbpedia.org/resource/Colorectal_cancer",
        "col3": "1947-04-11"
    },
    {
        "col0": "M. Griffin",
        "col1": "San Mateo, California",
        "col2": "http://dbpedia.org/resource/Prostate_cancer",
        "col3": "1925-07-06"
    },
    {
        "col0": "M. Santana",
        "col1": "New York",
        "col2": "http://dbpedia.org/resource/Homicide",
        "col3": "1976-03-14"
    },
    {
        "col0": "M. MacRae",
        "col1": "Houston",
        "col2": "http://dbpedia.org/resource/Brain_cancer",
        "col3": "1944-05-30"
    },
    {
        "col0": "M. Richards",
        "col1": "Kingston, Jamaica",
        "col2": "http://dbpedia.org/resource/Natural_Causes",
        "col3": "1955-05-14"
    },
    {
        "col0": "M. Okay",
        "col1": "Ankara",
        "col2": "http://dbpedia.org/resource/Lung_cancer",
        "col3": "1959-09-20"
    },
    {
        "col0": "M. Stewart",
        "col1": "Cleveland",
        "col2": "http://dbpedia.org/resource/Alzheimer's_disease",
        "col3": "1929-09-19"
    },
    {
        "col0": "M. Blanc",
        "col1": "California",
        "col2": "http://dbpedia.org/resource/Cardiovascular_disease",
        "col3": "1908-05-30"
    },
    {
        "col0": "M. Stevenson",
        "col1": "United States",
        "col2": "http://dbpedia.org/resource/Myocardial_infarction",
        "col3": "1927-11-14"
    },
    {
        "col0": "M. Wagner",
        "col1": "Mexico",
        "col2": "http://dbpedia.org/resource/Heart_attack",
        "col3": "1901-11-28"
    },
    {
        "col0": "M. Ehrlich",
        "col1": "Berlin",
        "col2": "http://dbpedia.org/resource/Carbon_monoxide_poisoning",
        "col3": "1892-1-1"
    },
    {
        "col0": "M. Blokzijl",
        "col1": "Leeuwarden",
        "col2": "http://dbpedia.org/resource/Execution_by_firing_squad",
        "col3": "1884-12-20"
    },
    {
        "col0": "M. Adrian",
        "col1": "County Fermanagh",
        "col2": "http://dbpedia.org/resource/Heart_attack",
        "col3": "1903-11-01"
    },
    {
        "col0": "M. Colbourne",
        "col1": "England",
        "col2": "http://dbpedia.org/resource/Heart_Attack",
        "col3": "1939-09-24"
    },
    {
        "col0": "M. Black",
        "col1": "Queens, New York",
        "col2": "http://dbpedia.org/resource/Pneumonia",
        "col3": "1891-01-14"
    },
    {
        "col0": "M. Prickett",
        "col1": "Portland, Oregon",
        "col2": "http://dbpedia.org/resource/Acute_kidney_injury",
        "col3": "1914-10-25"
    },
    {
        "col0": "M. Slye",
        "col1": "Minneapolis",
        "col2": "http://dbpedia.org/resource/Heart_attack",
        "col3": "1879-02-08"
    },
    {
        "col0": "M. McGrory",
        "col1": "West Chester, Pennsylvania",
        "col2": "http://dbpedia.org/resource/Heart_failure",
        "col3": "1973-05-17"
    },
    {
        "col0": "M. Garber",
        "col1": "London",
        "col2": "http://dbpedia.org/resource/Pancreatitis",
        "col3": "1956-03-25"
    },
    {
        "col0": "M. Beard",
        "col1": "Los Angeles",
        "col2": "http://dbpedia.org/resource/Head_Trauma",
        "col3": "1925-01-01"
    },
    {
        "col0": "M. Ansara",
        "col1": "California",
        "col2": "http://dbpedia.org/resource/Opioid_overdose",
        "col3": "1965-08-29"
    },
    {
        "col0": "M. Gnadinger",
        "col1": "Ramsen",
        "col2": "http://dbpedia.org/resource/ARDS",
        "col3": "1941-03-25"
    }
]