[
    {
        "col0": "Yucca Mountain",
        "col1": "United States",
        "col2": "United States",
        "col3": "2044",
        "col4": "USGSTopopah Spring"
    },
    {
        "col0": "Yellowstone Caldera",
        "col1": "United States",
        "col2": "United States",
        "col3": "2805",
        "col4": "USGSYellowstone National Park"
    },
    {
        "col0": "Yantarni Volcano",
        "col1": "Alaska",
        "col2": "Alaska",
        "col3": "1335",
        "col4": "USGSUgashik A-4"
    },
    {
        "col0": "Wizard Island",
        "col1": "Oregon",
        "col2": "Oregon",
        "col3": "2113",
        "col4": "USGSCrater Lake West"
    },
    {
        "col0": "Williams Cone",
        "col1": "British Columbia",
        "col2": "British Columbia",
        "col3": "2080",
        "col4": "NTS104G/15"
    },
    {
        "col0": "West Crater",
        "col1": "Washington",
        "col2": "Washington",
        "col3": "1328",
        "col4": "Lookout Mountain"
    },
    {
        "col0": "Watts Point volcanic centre",
        "col1": "British Columbia",
        "col2": "British Columbia",
        "col3": "240",
        "col4": "NTS92G/11 Squamish"
    },
    {
        "col0": "Waianae Range",
        "col1": "Hawaii",
        "col2": "Hawaii",
        "col3": "1226",
        "col4": "USGSKilohana (HI)"
    },
    {
        "col0": "Vulcan's Thumb",
        "col1": "British Columbia",
        "col2": "British Columbia",
        "col3": "2290",
        "col4": "NTS92J/03"
    },
    {
        "col0": "Uinkaret volcanic field",
        "col1": "Arizona",
        "col2": "Arizona",
        "col3": "1555",
        "col4": "USGSMount Logan"
    },
    {
        "col0": "Ugashik-Peulik",
        "col1": "Alaska",
        "col2": "Alaska",
        "col3": "1474",
        "col4": "USGS"
    },
    {
        "col0": "Tungurahua",
        "col1": "Ecuador",
        "col2": "Ecuador",
        "col3": "5023",
        "col4": "IGM, CT-NIV-D1"
    },
    {
        "col0": "Tseax Cone",
        "col1": "British Columbia",
        "col2": "British Columbia",
        "col3": "610",
        "col4": "NTS103J/2"
    },
    {
        "col0": "Trident Volcano",
        "col1": "Alaska",
        "col2": "Alaska",
        "col3": "1863",
        "col4": "USGSMount Katmai A-4"
    },
    {
        "col0": "Three Sisters",
        "col1": "Lane County, Oregon",
        "col2": "Deschutes County, Oregon",
        "col3": "3062",
        "col4": "USGSSouth Sister and North Sister"
    },
    {
        "col0": "The Volcano",
        "col1": "British Columbia",
        "col2": "British Columbia",
        "col3": "1656",
        "col4": "NTS104B/07"
    },
    {
        "col0": "The Black Tusk",
        "col1": "British Columbia",
        "col2": "British Columbia",
        "col3": "2319",
        "col4": "NTS92G/14"
    },
    {
        "col0": "Sunset Crater",
        "col1": "Arizona",
        "col2": "Arizona",
        "col3": "2451",
        "col4": "USGSSunset Crater East"
    },
    {
        "col0": "Sierra Blanca",
        "col1": "Lincoln County, New Mexico",
        "col2": "Lincoln County, New Mexico",
        "col3": "3651",
        "col4": "USGSSierra Blanca Peak"
    },
    {
        "col0": "Showa-shinzan",
        "col1": "Hokkaido",
        "col2": "Hokkaido",
        "col3": "398",
        "col4": "Geographical Survey Institute25000:1 Zhuang Pie , 25000:1 Meng Tian , 50000:1 Meng Tian "
    },
    {
        "col0": "Shastina",
        "col1": "California",
        "col2": "California",
        "col3": "3759",
        "col4": "USGSMount Shasta"
    },
    {
        "col0": "Showa-shinzan",
        "col1": "Hokkaido",
        "col2": "Hokkaido",
        "col3": "398",
        "col4": "Geographical Survey Institute25000:1 Zhuang Pie , 25000:1 Meng Tian , 50000:1 Meng Tian "
    },
    {
        "col0": "Segula Island",
        "col1": "Alaska",
        "col2": "Alaska",
        "col3": "1160",
        "col4": "USGSRat Islands"
    },
    {
        "col0": "Seguam Island",
        "col1": "Alaska",
        "col2": "Alaska",
        "col3": "1053",
        "col4": "USGSSeguam"
    },
    {
        "col0": "Mount Rishiri",
        "col1": "Hokkaido",
        "col2": "Hokkaido",
        "col3": "1721",
        "col4": "25000:1 Xiong Zhong Zhi Nei "
    },
    {
        "col0": "Regal Mountain",
        "col1": "Alaska",
        "col2": "Alaska",
        "col3": "4219",
        "col4": "USGSMcCarthy C-5"
    },
    {
        "col0": "Pyroclastic Peak",
        "col1": "British Columbia",
        "col2": "British Columbia",
        "col3": "2349",
        "col4": "NTS92J/03"
    },
    {
        "col0": "Pyramid Mountain",
        "col1": "British Columbia",
        "col2": "British Columbia",
        "col3": "1094",
        "col4": "NTS92.P/16 or PS-WG3 (south half)"
    },
    {
        "col0": "Pylon Peak",
        "col1": "British Columbia",
        "col2": "British Columbia",
        "col3": "2481",
        "col4": "NTS92J/12"
    },
    {
        "col0": "Pu`u `O`o",
        "col1": "Hawaii",
        "col2": "Hawaii",
        "col3": "697",
        "col4": "USGSKalalua"
    },
    {
        "col0": "Plinth Peak",
        "col1": "British Columbia",
        "col2": "British Columbia",
        "col3": "2677",
        "col4": "NTS92J/12"
    },
    {
        "col0": "Pelican Butte",
        "col1": "Oregon",
        "col2": "Oregon",
        "col3": "2449",
        "col4": "USGSPelican Butte"
    },
    {
        "col0": "Pavlof Sister",
        "col1": "Alaska",
        "col2": "Alaska",
        "col3": "2141",
        "col4": "USGSPort Moller B-6"
    },
    {
        "col0": "Otake",
        "col1": "Japan",
        "col2": "Japan",
        "col3": "979",
        "col4": "Geographical Survey Institute, 25000:1 Zhong Zhi Dao , 50000:1 Zhong Zhi Dao "
    },
    {
        "col0": "Opal Cone",
        "col1": "British Columbia",
        "col2": "British Columbia",
        "col3": "1736",
        "col4": "NTS92.G/15"
    },
    {
        "col0": "Olallie Butte",
        "col1": "Oregon",
        "col2": "Oregon",
        "col3": "2200",
        "col4": "USGSOlallie Butte"
    },
    {
        "col0": "Ofu-Olosega",
        "col1": "American Samoa",
        "col2": "American Samoa",
        "col3": "639",
        "col4": "USGS"
    },
    {
        "col0": "Novarupta",
        "col1": "Alaska",
        "col2": "Alaska",
        "col3": "840",
        "col4": "USGSMount Katmai B-4"
    },
    {
        "col0": "Newberry Volcano",
        "col1": "Oregon",
        "col2": "Oregon",
        "col3": "2435",
        "col4": "USGSPaulina Peak"
    },
    {
        "col0": "Mahukona",
        "col1": "Hawaii",
        "col2": "Hawaii",
        "col3": "-1149",
        "col4": "USGSKamuela"
    },
    {
        "col0": "Mynydd Carningli",
        "col1": "Pembrokeshire",
        "col2": "Pembrokeshire",
        "col3": "346",
        "col4": "OSLandranger 145"
    },
    {
        "col0": "Mount Yotei",
        "col1": "Hokkaido",
        "col2": "Hokkaido",
        "col3": "1898",
        "col4": "50000:1 Liu Shou Du "
    },
    {
        "col0": "Mount Yufu",
        "col1": "Japan",
        "col2": "Beppu, Oita",
        "col3": "1583",
        "col4": "Geographical Survey Institute25000:1 Bie Fu Xi "
    },
    {
        "col0": "Mount Yoko",
        "col1": "HonshA<<",
        "col2": "HonshA<<",
        "col3": "2480",
        "col4": "25000:1 Liao Ke ,"
    },
    {
        "col0": "Mount Yotei",
        "col1": "Hokkaido",
        "col2": "Hokkaido",
        "col3": "1898",
        "col4": "50000:1 Liu Shou Du "
    },
    {
        "col0": "Mount Wrangell",
        "col1": "Alaska",
        "col2": "Alaska",
        "col3": "4316",
        "col4": "USGSGulkana A-1"
    },
    {
        "col0": "Mount Westdahl",
        "col1": "Alaska",
        "col2": "Alaska",
        "col3": "1653",
        "col4": "USGSUnimak C-2"
    },
    {
        "col0": "Mount Washington",
        "col1": "Oregon",
        "col2": "Oregon",
        "col3": "2376",
        "col4": "USGSMount Washington"
    },
    {
        "col0": "Mount Veniaminof",
        "col1": "Alaska",
        "col2": "Alaska",
        "col3": "2506",
        "col4": "USGSChignik A-5"
    },
    {
        "col0": "Mount Usu",
        "col1": "Hokkaido",
        "col2": "Hokkaido",
        "col3": "733",
        "col4": "Geographical Survey Institute25000:1 Zhuang Pie , 50000:1 Meng Tian "
    },
    {
        "col0": "Mount Unabetsu",
        "col1": "Japan",
        "col2": "Hokkaido",
        "col3": "1419",
        "col4": "25000:1 Zhu Yuan "
    },
    {
        "col0": "Mount Tsurumi",
        "col1": "Japan",
        "col2": "Japan",
        "col3": "1374",
        "col4": "Geographical Survey Institute25000:1 Bie Fu Dong "
    },
    {
        "col0": "Mount Tokachi",
        "col1": "Hokkaido",
        "col2": "Hokkaido",
        "col3": "2077",
        "col4": "25000:1Bai Jin Wen Quan "
    },
    {
        "col0": "Mount Tehama",
        "col1": "California",
        "col2": "California",
        "col3": "2816",
        "col4": "USGSLassen Peak"
    },
    {
        "col0": "Mount Taylor",
        "col1": "New Mexico",
        "col2": "United States",
        "col3": "3445",
        "col4": "USGSMount Taylor"
    },
    {
        "col0": "Mount Tarumae",
        "col1": "Hokkaido",
        "col2": "Hokkaido",
        "col3": "1041",
        "col4": "50000:1 Zun Qian Shan , 25000:1 Zun Qian Shan , 25000:1 Feng Bu Si Yue "
    },
    {
        "col0": "Mount Taranaki",
        "col1": "North Island",
        "col2": "North Island",
        "col3": "2518",
        "col4": "NZMS 169 Egmont National Park"
    },
    {
        "col0": "Mount St. Helens",
        "col1": "Skamania County, Washington",
        "col2": "Skamania County, Washington",
        "col3": "2549",
        "col4": "USGSMount St. Helens"
    },
    {
        "col0": "Mount Spurr",
        "col1": "Kenai Peninsula Borough, Alaska",
        "col2": "Kenai Peninsula Borough, Alaska",
        "col3": "3374",
        "col4": "USGSTyonek B-7"
    },
    {
        "col0": "Mount Shishaldin",
        "col1": "Alaska",
        "col2": "Alaska",
        "col3": "2856",
        "col4": "USGSFalse Pass D-6"
    },
    {
        "col0": "Mount Shiretoko",
        "col1": "Hokkaido",
        "col2": "Hokkaido",
        "col3": "1253",
        "col4": "50000:1 Zhi Chuang Jia "
    },
    {
        "col0": "Mount Shasta",
        "col1": "California",
        "col2": "California",
        "col3": "4321",
        "col4": "USGSMount Shasta"
    },
    {
        "col0": "Mount Shari",
        "col1": "Hokkaido",
        "col2": "Hokkaido",
        "col3": "1547",
        "col4": "50000:1 Xie Li "
    },
    {
        "col0": "Mount Seguam",
        "col1": "Seguam Island",
        "col2": "Seguam Island",
        "col3": "1053",
        "col4": "USGSUmnak A-2"
    },
    {
        "col0": "Mount Scott",
        "col1": "Oregon",
        "col2": "Oregon",
        "col3": "2723",
        "col4": "USGSCrater Lake East"
    },
    {
        "col0": "Mount Scott",
        "col1": "Oregon",
        "col2": "Oregon",
        "col3": "332",
        "col4": "USGSGladstone"
    },
    {
        "col0": "Rishiri-zan",
        "col1": "Hokkaido",
        "col2": "Hokkaido",
        "col3": "1721",
        "col4": "25000:1 Xiong Zhong Zhi Nei "
    },
    {
        "col0": "Mount Recheshnoi",
        "col1": "Alaska",
        "col2": "Alaska",
        "col3": "1983",
        "col4": "USGSUmnak A-2"
    },
    {
        "col0": "Mount Rausu",
        "col1": "Hokkaido",
        "col2": "Hokkaido",
        "col3": "1660",
        "col4": "25000:1 Zhi Chuang Sang "
    },
    {
        "col0": "Mount Rainier",
        "col1": "United States",
        "col2": "United States",
        "col3": "4392",
        "col4": "USGSMount Rainier West"
    },
    {
        "col0": "Mount Price",
        "col1": "British Columbia",
        "col2": "Canada",
        "col3": "2052",
        "col4": "NTS92J/12"
    },
    {
        "col0": "Mount Pluto, California",
        "col1": "California",
        "col2": "California",
        "col3": "2626",
        "col4": "USGSTahoe City"
    },
    {
        "col0": "Mount Pavlof",
        "col1": "Alaska",
        "col2": "Alaska",
        "col3": "2514",
        "col4": "USGSPort Moller B-6"
    },
    {
        "col0": "Mount Ontake",
        "col1": "Gifu Prefecture",
        "col2": "Gifu Prefecture",
        "col3": "3067",
        "col4": "Geographical Survey Institute, 25000:1 Yu Yue Shan , 50000:1 Yu Yue Shan "
    },
    {
        "col0": "Mount Onnebetsu",
        "col1": "Hokkaido",
        "col2": "Hokkaido",
        "col3": "1330",
        "col4": "25000:1 Zhen Li "
    },
    {
        "col0": "Mount Okmok",
        "col1": "Alaska",
        "col2": "Alaska",
        "col3": "1072",
        "col4": "USGSUmnak B-1"
    },
    {
        "col0": "Mount Oakan",
        "col1": "Hokkaido",
        "col2": "Hokkaido",
        "col3": "1370",
        "col4": "50000:1 A Han Hu "
    },
    {
        "col0": "Mount Norikura",
        "col1": "Japan",
        "col2": "Japan",
        "col3": "3025",
        "col4": "Geographical Survey Institute, 25000:1 Cheng An Yue , 50000:1 Shang Gao Di "
    },
    {
        "col0": "Mount Nansen",
        "col1": "Canada",
        "col2": "Canada",
        "col3": "1827",
        "col4": "NTS115J/03"
    },
    {
        "col0": "Mount Nagayama",
        "col1": "Hokkaido",
        "col2": "Hokkaido",
        "col3": "1978",
        "col4": "50000:1 Da Xue Shan "
    },
    {
        "col0": "Mount Naeba",
        "col1": "Japan",
        "col2": "Japan",
        "col3": "2145",
        "col4": "Geographical Survey Institute25000:1 Miao Chang Shan , 50000:1 Gao Tian "
    },
    {
        "col0": "Mount Moffett",
        "col1": "Alaska",
        "col2": "Alaska",
        "col3": "1196",
        "col4": "USGSAdak C-3"
    },
    {
        "col0": "Mount Meakan",
        "col1": "Hokkaido",
        "col2": "Hokkaido",
        "col3": "1499",
        "col4": "25000:1 onneto"
    },
    {
        "col0": "Mount Meager",
        "col1": "British Columbia",
        "col2": "British Columbia",
        "col3": "2680",
        "col4": "NTS92J/12"
    },
    {
        "col0": "Mount McLoughlin",
        "col1": "Oregon",
        "col2": "Oregon",
        "col3": "2895",
        "col4": "USGSMount McLoughlin"
    },
    {
        "col0": "Mount Mazama",
        "col1": "United States",
        "col2": "United States",
        "col3": "2486",
        "col4": "USGSCrater Lake East"
    },
    {
        "col0": "Mount Maru",
        "col1": "Hokkaido",
        "col2": "Hokkaido",
        "col3": "1692",
        "col4": "25000:1 upepesankeShan "
    },
    {
        "col0": "Mount Maru",
        "col1": "Hokkaido",
        "col2": "Hokkaido",
        "col3": "691",
        "col4": "50000:1 Kao Wu Qi "
    },
    {
        "col0": "Mount Martin",
        "col1": "Alaska",
        "col2": "Alaska",
        "col3": "1862",
        "col4": "USGSAdak C-2"
    },
    {
        "col0": "Mount Mariveles",
        "col1": "Bataan Peninsula",
        "col2": "Bataan Peninsula",
        "col3": "1388",
        "col4": "PCGS-2511"
    },
    {
        "col0": "Mount Mageik",
        "col1": "Alaska",
        "col2": "Alaska",
        "col3": "2164",
        "col4": "USGSMount Katmai A-4"
    },
    {
        "col0": "Mount Kuma",
        "col1": "Hokkaido",
        "col2": "Hokkaido",
        "col3": "2210",
        "col4": "25000:1 Ceng Yun Xia "
    },
    {
        "col0": "Mount Konocti",
        "col1": "Lake County, California",
        "col2": "Lake County, California",
        "col3": "1312",
        "col4": "USGSKelseyville"
    },
    {
        "col0": "Mount Koizumi",
        "col1": "Hokkaido",
        "col2": "Hokkaido",
        "col3": "2158",
        "col4": "25000:1 Ceng Yun Xia "
    },
    {
        "col0": "Mount Kilimanjaro climbing routes",
        "col1": "Tanzania",
        "col2": "Tanzania",
        "col3": "5895",
        "col4": "Kilimanjaro map and guide by Wielochowski"
    },
    {
        "col0": "Mount Kilimanjaro",
        "col1": "Tanzania",
        "col2": "Tanzania",
        "col3": "5895",
        "col4": "Kilimanjaro map and guide by Wielochowski"
    },
    {
        "col0": "Mount Kenya",
        "col1": "Kenya",
        "col2": "Kenya",
        "col3": "5199",
        "col4": "Mt Kenya by Wielochowski and Savage"
    },
    {
        "col0": "Mount Katsuma",
        "col1": "Hokkaido",
        "col2": "Hokkaido",
        "col3": "428",
        "col4": "50000:1 Jiu Yuan "
    },
    {
        "col0": "Mount Katmai",
        "col1": "Alaska",
        "col2": "Alaska",
        "col3": "2047",
        "col4": "USGSMount Katmai B-3"
    },
    {
        "col0": "Mount Kanaga",
        "col1": "Alaska",
        "col2": "Kanaga Island",
        "col3": "1306",
        "col4": "USGSAdak C-4"
    },
    {
        "col0": "Mount Kamui",
        "col1": "Hokkaido",
        "col2": "Hokkaido",
        "col3": "857",
        "col4": "Geographical Survey Institute25000:1 Mo Zhou Hu Nan Bu , 50000:1 Mo Zhou Hu "
    },
    {
        "col0": "Mount Job",
        "col1": "British Columbia",
        "col2": "British Columbia",
        "col3": "2493",
        "col4": "NTS92J/12"
    },
    {
        "col0": "Mount Jefferson",
        "col1": "Oregon",
        "col2": "Oregon",
        "col3": "3199",
        "col4": "USGSMount Jefferson"
    },
    {
        "col0": "Mount Jarvis",
        "col1": "Alaska",
        "col2": "Alaska",
        "col3": "4090",
        "col4": "USGSNabesna A-6"
    },
    {
        "col0": "Mount Io",
        "col1": "Hokkaido",
        "col2": "Hokkaido",
        "col3": "1562",
        "col4": "50000:1 Luo Jiu "
    },
    {
        "col0": "Mount Io",
        "col1": "Japan",
        "col2": "Japan",
        "col3": "703",
        "col4": "Geographical Survey Institute, 25000:1 Sa Mo Liu Huang Dao , 50000:1 Kai Wen Yue "
    },
    {
        "col0": "Mount Iliamna",
        "col1": "US",
        "col2": "US",
        "col3": "3052",
        "col4": "USGSLake Clark A-1"
    },
    {
        "col0": "Mount Io",
        "col1": "Hokkaido",
        "col2": "Hokkaido",
        "col3": "1562",
        "col4": "50000:1 Luo Jiu "
    },
    {
        "col0": "Mount Io",
        "col1": "Japan",
        "col2": "Japan",
        "col3": "703",
        "col4": "Geographical Survey Institute, 25000:1 Sa Mo Liu Huang Dao , 50000:1 Kai Wen Yue "
    },
    {
        "col0": "Mount Hood",
        "col1": "Oregon",
        "col2": "Oregon",
        "col3": "3428",
        "col4": "USGSMount Hood South"
    },
    {
        "col0": "Mount Haku",
        "col1": "Gifu Prefecture",
        "col2": "Fukui Prefecture",
        "col3": "2702",
        "col4": "Geographical Survey Institute, 25000:1 Bai Shan , 50000:1 Bai Shan "
    },
    {
        "col0": "Mount Griggs",
        "col1": "United States",
        "col2": "United States",
        "col3": "2317",
        "col4": "USGSMount Katmai B-4"
    },
    {
        "col0": "Mount Garibaldi",
        "col1": "British Columbia",
        "col2": "British Columbia",
        "col3": "2678",
        "col4": "NTS92G/14"
    },
    {
        "col0": "Mount Furano",
        "col1": "Hokkaido",
        "col2": "Hokkaido",
        "col3": "1912",
        "col4": "50000:1 Shi Sheng Yue "
    },
    {
        "col0": "Mount Fuppushi",
        "col1": "Hokkaido",
        "col2": "Hokkaido",
        "col3": "1102",
        "col4": "25000:1 Feng Bu Si Yue , 25000:1 Zun Qian Shan , 50000:1 Zun Qian Shan "
    },
    {
        "col0": "Mount Erebus",
        "col1": "Antarctica",
        "col2": "Antarctica",
        "col3": "3794",
        "col4": "Ross Island"
    },
    {
        "col0": "Mount Eniwa",
        "col1": "Hokkaido",
        "col2": "Hokkaido",
        "col3": "1320",
        "col4": "25000:1 Hui Ting Yue , 50000:1 Zun Qian Shan "
    },
    {
        "col0": "Mount Emmons",
        "col1": "Alaska Peninsula",
        "col2": "Alaska Peninsula",
        "col3": "1435",
        "col4": "USGSCold Bay B-1"
    },
    {
        "col0": "Mount Edziza volcanic complex",
        "col1": "British Columbia",
        "col2": "British Columbia",
        "col3": "2787",
        "col4": "NTS104G/10"
    },
    {
        "col0": "Mount Edziza",
        "col1": "British Columbia",
        "col2": "British Columbia",
        "col3": "2780",
        "col4": "NTS104G/10"
    },
    {
        "col0": "Mount Edgecumbe",
        "col1": "United States",
        "col2": "United States",
        "col3": "975",
        "col4": "USGSSitka A-6"
    },
    {
        "col0": "Mount Eboshi",
        "col1": "Japan",
        "col2": "Hokkaido",
        "col3": "2072",
        "col4": "Geographical Survey Institute25000:1 , 50000:1"
    },
    {
        "col0": "Mount E",
        "col1": "Hokkaido",
        "col2": "Hokkaido",
        "col3": "617",
        "col4": "50000:1 Kao Wu Qi "
    },
    {
        "col0": "Mount Drum",
        "col1": "Alaska",
        "col2": "Alaska",
        "col3": "3660",
        "col4": "USGSGulkana A-2"
    },
    {
        "col0": "Mount Douglas",
        "col1": "Alaska",
        "col2": "Alaska",
        "col3": "2140",
        "col4": "USGSAfognak D-5"
    },
    {
        "col0": "Mount Denison",
        "col1": "Alaska",
        "col2": "Alaska",
        "col3": "2318",
        "col4": "USGS"
    },
    {
        "col0": "Mount Cleveland",
        "col1": "Alaska",
        "col2": "Alaska",
        "col3": "1729",
        "col4": "USGS Samalga Island"
    },
    {
        "col0": "Mount ChA<<betsu",
        "col1": "Hokkaido",
        "col2": "Hokkaido",
        "col3": "1962",
        "col4": "25000:1 Bai Yun Yue "
    },
    {
        "col0": "Mount Churchill",
        "col1": "Alaska",
        "col2": "Alaska",
        "col3": "4766",
        "col4": "USGSMcCarthy B-2 Quadrangle"
    },
    {
        "col0": "Mount Church",
        "col1": "Alaska",
        "col2": "Alaska",
        "col3": "2322",
        "col4": "USGSTalkeetna D-2"
    },
    {
        "col0": "Mount Chiginagak",
        "col1": "Lake and Peninsula Borough, Alaska",
        "col2": "Lake and Peninsula Borough, Alaska",
        "col3": "2221",
        "col4": "USGSUgashik A-3"
    }
]