[
    {
        "col0": "Red Prophet",
        "col1": "Prentice Alvin",
        "col2": "Seventh Son",
        "col3": "PS3553.A655 R43 1988"
    },
    {
        "col0": "Reckless",
        "col1": "Unforgettable",
        "col2": "Notorious",
        "col3": "MLCS 2006/45268"
    },
    {
        "col0": "Reborn",
        "col1": "Reprisal",
        "col2": "The Touch",
        "col3": "PS3573.I45695 R4 1990"
    },
    {
        "col0": "Raven Rise",
        "col1": "The Soldiers of Halla",
        "col2": "The Pilgrims of Rayne",
        "col3": "PZ7.M177535 Rav 2008"
    },
    {
        "col0": "Rama II",
        "col1": "The Garden of Rama",
        "col2": "Rendezvous with Rama",
        "col3": "PR6005.L36 R36 1989b"
    },
    {
        "col0": "Raise the Titanic!",
        "col1": "Vixen 03",
        "col2": "Iceberg",
        "col3": "PZ4.C9856 Rai PS3553.U75"
    },
    {
        "col0": "Rainbow Six",
        "col1": "The Bear and the Dragon",
        "col2": "Executive Orders",
        "col3": "PS3553.L245 R35 1998"
    },
    {
        "col0": "Ragamuffin",
        "col1": "Sly Mongoose",
        "col2": "Crystal Rain",
        "col3": "PS3602.U2635 R34 2007"
    },
    {
        "col0": "Racso and the Rats of NIMH",
        "col1": "R-T, Margaret, and the Rats of NIMH",
        "col2": "Mrs. Frisby and the Rats of NIMH",
        "col3": "PZ7.C761846 Ras 1986"
    },
    {
        "col0": "Rabbit Redux",
        "col1": "Rabbit is Rich",
        "col2": "Rabbit, Run",
        "col3": "PZ4.U64 Raap 1971 PS3571.P4"
    },
    {
        "col0": "Rabbit Is Rich",
        "col1": "Rabbit At Rest",
        "col2": "Rabbit Redux",
        "col3": "PS3571.P4 R25 1981"
    },
    {
        "col0": "Queer",
        "col1": "Gregory Corso",
        "col2": "Junkie",
        "col3": "PS3552.U75 Q8 1985"
    },
    {
        "col0": "Puzzles of the Black Widowers",
        "col1": "The Return of the Black Widowers",
        "col2": "Banquets of the Black Widowers",
        "col3": "PS3551.S5 P8 1990"
    },
    {
        "col0": "Put on By Cunning",
        "col1": "The Speaker of Mandarin",
        "col2": "A Sleeping Life",
        "col3": "PR6068.E63 P87 1981"
    },
    {
        "col0": "Pursuit of the Deadly Diamonds",
        "col1": "The Secret of the Third Watch",
        "col2": "Duel for the Samurai Sword",
        "col3": "CPB Box no. 2802 vol. 20"
    },
    {
        "col0": "Pure Drivel",
        "col1": "Shopgirl",
        "col2": "Picasso at the Lapin Agile",
        "col3": "PS3563.A7293 P87 1998"
    },
    {
        "col0": "Prochownik's Dream",
        "col1": "Landscape of Farewell",
        "col2": "Journey to the Stone Country",
        "col3": "PR9619.3.M469 P76 2005"
    },
    {
        "col0": "Prince Caspian",
        "col1": "The Voyage of the Dawn Treader",
        "col2": "The Lion, the Witch and the Wardrobe",
        "col3": "PZ8.L48 Pr"
    },
    {
        "col0": "Priestess of Avalon",
        "col1": "The Mists of Avalon",
        "col2": "Lady of Avalon",
        "col3": "PS3552.R228 P75 2000"
    },
    {
        "col0": "Pretties",
        "col1": "Specials",
        "col2": "Uglies",
        "col3": "PZ7.W5197 Pr 2005"
    },
    {
        "col0": "Presumed Innocent",
        "col1": "The Burden of Proof",
        "col2": "One L",
        "col3": "PS3570.U754 P7 1987"
    },
    {
        "col0": "Prentice Alvin",
        "col1": "Alvin Journeyman",
        "col2": "Red Prophet",
        "col3": "PS3553.A655 P74 1989"
    },
    {
        "col0": "Predator",
        "col1": "Book of the Dead",
        "col2": "Trace",
        "col3": "PS3553.O692 P74 2005"
    },
    {
        "col0": "Power to the People",
        "col1": "The Obama Diaries",
        "col2": "Shut Up & Sing: How Elites from Hollywood, Politics, and the UN Are Subverting America",
        "col3": "HN65 .I64 2007"
    },
    {
        "col0": "Postern of Fate",
        "col1": "Poems",
        "col2": "Elephants Can Remember",
        "col3": "PZ3.C4637 Pq3 PR6005.H66"
    },
    {
        "col0": "Postcards from No Man's Land",
        "col1": "This is All: The Pillow Book of Cordelia Kenn",
        "col2": "The Toll Bridge",
        "col3": "PZ7.C3557 Po 2002"
    },
    {
        "col0": "Post Captain",
        "col1": "HMS Surprise",
        "col2": "Master and Commander",
        "col3": "PZ3.O1285 Po PR6029.B55"
    },
    {
        "col0": "Possible Side Effects",
        "col1": "A Wolf at the Table",
        "col2": "Magical Thinking",
        "col3": "PS3552.U745 Z475 2006"
    },
    {
        "col0": "Polaris",
        "col1": "Seeker",
        "col2": "A Talent for War",
        "col3": "PS3563.C3556 P65 2004"
    },
    {
        "col0": "Polar Star",
        "col1": "Red Square",
        "col2": "Gorky Park",
        "col3": "CPB Box no. 1797 vol. 10"
    },
    {
        "col0": "Poirot's Early Cases",
        "col1": "Curtain",
        "col2": "Poems",
        "col3": "PZ3.C4637 Poj3 PR6005.H66"
    },
    {
        "col0": "Point Blanc",
        "col1": "Skeleton Key",
        "col2": "Stormbreaker",
        "col3": "PZ7.H7875 Po 2001"
    },
    {
        "col0": "Poems",
        "col1": "Poirot's Early Cases",
        "col2": "Postern of Fate",
        "col3": "PR6005.H66 A6 1973b"
    },
    {
        "col0": "Plum Lucky",
        "col1": "Fearless Fourteen",
        "col2": "Lean Mean Thirteen",
        "col3": "PS3555.V2126 P58 2008b"
    },
    {
        "col0": "Plum Lovin'",
        "col1": "Plum Lucky",
        "col2": "Twelve Sharp",
        "col3": "PS3555.V2126 P56 2007b"
    },
    {
        "col0": "Please Pass the Guilt",
        "col1": "A Family Affair",
        "col2": "Death of a Dude",
        "col3": "PZ3.S8894 Pj PS3537.T733"
    },
    {
        "col0": "Plan of Attack",
        "col1": "State of Denial: Bush at War, Part III",
        "col2": "Bush at War",
        "col3": "DS79.76 .W66 2004b"
    },
    {
        "col0": "Plague Ship",
        "col1": "Corsair",
        "col2": "Skeleton Coast",
        "col3": "PS3553.U75 P55 2008b"
    },
    {
        "col0": "Pirateology: A Pirate Hunter's Companion",
        "col1": "Mythology: Greek Gods, Heroes, & Monsters",
        "col2": "Wizardology: The Book of the Secrets of Merlin",
        "col3": "G535 .S755 2006"
    },
    {
        "col0": "Pirate King",
        "col1": "Garment of Shadows",
        "col2": "The God of the Hive",
        "col3": "PS3561.I4813 P57 2011"
    },
    {
        "col0": "Pigeon Post",
        "col1": "We Didn't Mean To Go To Sea",
        "col2": "Coot Club",
        "col3": "PZ7.R175 Pi"
    },
    {
        "col0": "Pieces of Modesty",
        "col1": "The Silver Mistress",
        "col2": "The Impossible Virgin",
        "col3": "PR6029.D55 P5 1986"
    },
    {
        "col0": "Physics of the Impossible",
        "col1": "Physics of the Future",
        "col2": "Parallel Worlds",
        "col3": "QC75 .K18 2008"
    },
    {
        "col0": "Physics of the Future",
        "col1": "The Future of the Mind",
        "col2": "Physics of the Impossible",
        "col3": "Q175.5 .K257 2011"
    },
    {
        "col0": "Phantom",
        "col1": "Confessor",
        "col2": "Chainfire",
        "col3": "PS3557.O5826 P44 2006"
    },
    {
        "col0": "Phaic Tan",
        "col1": "San Sombrero",
        "col2": "MolvanA(r)a",
        "col3": "PN6231.T7 C57 2004"
    },
    {
        "col0": "Peter and the Shadow Thieves",
        "col1": "Peter and the Secret of Rundoon",
        "col2": "Peter and the Starcatchers",
        "col3": "PZ7.B278 Pdh 2006"
    },
    {
        "col0": "Peter and the Secret of Rundoon",
        "col1": "Peter and the Sword of Mercy",
        "col2": "Peter and the Shadow Thieves",
        "col3": "PZ7.B278 Pde 2007"
    },
    {
        "col0": "Pet Peeve",
        "col1": "Stork Naked",
        "col2": "Currant Events",
        "col3": "PS3551.N73 P47 2005"
    },
    {
        "col0": "Persuader",
        "col1": "The Enemy",
        "col2": "Without Fail",
        "col3": "PS3553.H4838 P4 2003"
    },
    {
        "col0": "Personal Injuries",
        "col1": "Reversible Errors",
        "col2": "The Laws of Our Fathers",
        "col3": "PS3570.U754 P47 1999b"
    },
    {
        "col0": "Peril's Gate",
        "col1": "Traitor's Knot",
        "col2": "Grand Conspiracy",
        "col3": "PR6073.U78 P47 2002"
    },
    {
        "col0": "People of the River",
        "col1": "People of the Lakes",
        "col2": "People of the Sea",
        "col3": "PS3557.E19 P46 1992"
    },
    {
        "col0": "Patriot Games",
        "col1": "Red Rabbit",
        "col2": "Without Remorse",
        "col3": "PS3553.L245 P38 1987"
    },
    {
        "col0": "Patrimony",
        "col1": "Flinx Transcendent",
        "col2": "Trouble Magnet",
        "col3": "PS3556.O756 P38 2007"
    },
    {
        "col0": "Passenger to Frankfurt",
        "col1": "Nemesis",
        "col2": "Hallowe'en Party",
        "col3": "PZ3.C4637 Pas PR6005.H66"
    },
    {
        "col0": "Passage to Pluto",
        "col1": "Tony Hale, Space Detective",
        "col2": "First Contact?",
        "col3": "PZ7.W1715 Pas"
    },
    {
        "col0": "Passage",
        "col1": "Horizon",
        "col2": "Legacy",
        "col3": "PS3552.U397 S56 2008"
    },
    {
        "col0": "Parallel Worlds",
        "col1": "Physics of the Impossible",
        "col2": "Visions",
        "col3": "QB981 .K134 2005"
    },
    {
        "col0": "Paper Doll",
        "col1": "Walking Shadow",
        "col2": "Double Deuce",
        "col3": "PS3566.A686 P33 1993"
    },
    {
        "col0": "Pandora's Curse",
        "col1": "River of Ruin",
        "col2": "The Medusa Stone",
        "col3": "CPB Box no. 1838 vol. 3"
    },
    {
        "col0": "Paleo",
        "col1": "The Evil That Men Do",
        "col2": "Ghoul Trouble",
        "col3": "CPB Box no. 2209 vol. 27"
    },
    {
        "col0": "Pale Kings and Princes",
        "col1": "Crimson Joy",
        "col2": "Taming a Sea Horse",
        "col3": "PS3566.A686 P3 1987"
    },
    {
        "col0": "Pale Horse Coming",
        "col1": "Havana",
        "col2": "Hot Springs",
        "col3": "PS3558.U494 P35 2001"
    },
    {
        "col0": "Pale Blue Dot",
        "col1": "The Demon-Haunted World",
        "col2": "Shadows of Forgotten Ancestors",
        "col3": "QB500.262 .S24 1994"
    },
    {
        "col0": "Paladin of Souls",
        "col1": "The Hallowed Hunt",
        "col2": "The Curse of Chalion",
        "col3": "PS3552.U397 P355 2003"
    },
    {
        "col0": "Oz: Into the Wild",
        "col1": "These Our Actors",
        "col2": "The Lost Slayer",
        "col3": "PS3557.O35927 O98 2002"
    },
    {
        "col0": "Outliers",
        "col1": "What the Dog Saw: And Other Adventures",
        "col2": "Blink",
        "col3": "BF637.S8 G533 2008"
    },
    {
        "col0": "Otherwise Known as Sheila the Great",
        "col1": "Super Fudge",
        "col2": "Tales of a Fourth Grade Nothing",
        "col3": "PZ7.B6265 Ot"
    },
    {
        "col0": "Other People",
        "col1": "Money",
        "col2": "Success",
        "col3": "PR6051.M5 O8 1981b"
    },
    {
        "col0": "Oscar and Lucinda",
        "col1": "The Tax Inspector",
        "col2": "Illywhacker",
        "col3": "MLCM 91/08820 (P) PR9619.3.C36"
    },
    {
        "col0": "Orange Crush",
        "col1": "Triggerfish Twist",
        "col2": "Hammerhead Ranch Motel",
        "col3": "PS3554.O719 O73 2001"
    },
    {
        "col0": "Only Revolutions",
        "col1": "The Familiar, Volume 1: One Rainy Day in May",
        "col2": "The Fifty Year Sword",
        "col3": "PS3554.A5596 O55 2006"
    },
    {
        "col0": "One Good Knight",
        "col1": "Fortune's Fool",
        "col2": "The Fairy Godmother",
        "col3": "CPB Box no. 2660 vol. 7"
    },
    {
        "col0": "One False Note",
        "col1": "The Sword Thief",
        "col2": "The Maze of Bones",
        "col3": "PZ7.K8369 One 2008"
    },
    {
        "col0": "On the Way Home",
        "col1": "West From Home",
        "col2": "The First Four Years",
        "col3": "F598 .W54"
    },
    {
        "col0": "On the Bus with Rosa Parks",
        "col1": "American Smooth",
        "col2": "Mother Love",
        "col3": "PS3554.O884 O52 1999"
    },
    {
        "col0": "On the Banks of Plum Creek",
        "col1": "By the Shores of Silver Lake",
        "col2": "Little House on the Prairie",
        "col3": "PZ7.W6461 On"
    },
    {
        "col0": "On Wings of Eagles",
        "col1": "Lie Down with Lions",
        "col2": "The Man from St. Petersburg",
        "col3": "E183.8.I55 F64 1983"
    },
    {
        "col0": "Ombria in Shadow",
        "col1": "In the Forests of Serre",
        "col2": "The Tower at Stony Wood",
        "col3": "PS3563.C38 O43 2002"
    },
    {
        "col0": "Old Angel Midnight",
        "col1": "Atop an Underwood: Early Stories and Other Writings",
        "col2": "Scattered Poems",
        "col3": "PS3521.E735 O43 1993"
    },
    {
        "col0": "Oh, the Places You'll Go!",
        "col1": "Daisy-Head Mayzie",
        "col2": "I Am NOT Going to Get Up Today!",
        "col3": "PZ8.3.G276 Og 1990"
    },
    {
        "col0": "Of Wee Sweetie Mice and Men",
        "col1": "Turbulent Priests",
        "col2": "Divorcing Jack",
        "col3": "PR6052.A773 O37 1996"
    },
    {
        "col0": "Obsidian Butterfly",
        "col1": "Narcissus in Chains",
        "col2": "Blue Moon",
        "col3": "PS3558.A443357 O7 2000"
    },
    {
        "col0": "O Jerusalem",
        "col1": "Justice Hall",
        "col2": "The Moor",
        "col3": "PS3561.I4813 O15 1999"
    },
    {
        "col0": "Notorious",
        "col1": "Reckless",
        "col2": "The It Girl",
        "col3": "PZ7.V94 Nov 2006"
    },
    {
        "col0": "Nothing Lasts Forever",
        "col1": "Morning, Noon and Night",
        "col2": "The Stars Shine Down",
        "col3": "PS3569.H3927 N67 1994"
    },
    {
        "col0": "Not the End of the World",
        "col1": "One Fine Day in the Middle of the Night",
        "col2": "Country of the Blind",
        "col3": "PR6052.R58158 N68 1998"
    },
    {
        "col0": "Northern Lights",
        "col1": "The Subtle Knife",
        "col2": "Once Upon a Time in the North",
        "col3": "PZ7.P968 Go 1996"
    },
    {
        "col0": "No Humans Involved",
        "col1": "Personal Demon",
        "col2": "Broken",
        "col3": "PS3551.R4678 N6 2007"
    },
    {
        "col0": "No Dominion",
        "col1": "Half the Blood of Brooklyn",
        "col2": "Already Dead",
        "col3": "PS3608.U855 N6 2006"
    },
    {
        "col0": "Night Probe!",
        "col1": "Pacific Vortex!",
        "col2": "Vixen 03",
        "col3": "PS3553.U75 N5 1981"
    },
    {
        "col0": "Night Game",
        "col1": "Conspiracy Game",
        "col2": "Mind Game",
        "col3": "CPB Box no. 2410 vol. 22"
    },
    {
        "col0": "Night Fall",
        "col1": "Wild Fire",
        "col2": "The Lion's Game",
        "col3": "PS3554.E472 N54 2004"
    },
    {
        "col0": "Nicolae",
        "col1": "Soul Harvest",
        "col2": "Tribulation Force",
        "col3": "PS3562.A315 N53 1997"
    },
    {
        "col0": "New Moon",
        "col1": "Eclipse",
        "col2": "Twilight",
        "col3": "PZ7.M5717515 New 2006"
    },
    {
        "col0": "Neveryona",
        "col1": "Flight from Neveryon",
        "col2": "Tales of Neveryon",
        "col3": "PS3554.E437 N4 1983"
    },
    {
        "col0": "Never Let Me Go",
        "col1": "Nocturnes",
        "col2": "When We Were Orphans",
        "col3": "PR6059.S5 N48 2005"
    },
    {
        "col0": "Nemesis",
        "col1": "The Golden Ball and Other Stories",
        "col2": "Passenger to Frankfurt",
        "col3": "PR6005.H66 N4 1971b"
    },
    {
        "col0": "Necklace and Calabash",
        "col1": "Poets and Murder",
        "col2": "Judge Dee at Work",
        "col3": "PR9130.9.G8 N43 1992"
    },
    {
        "col0": "Narcissus in Chains",
        "col1": "Cerulean Sins",
        "col2": "Obsidian Butterfly",
        "col3": "PS3558.A443357 N37 2001"
    },
    {
        "col0": "Narcissus and Goldmund",
        "col1": "Journey to the East",
        "col2": "Steppenwolf",
        "col3": "PT2617.E85 N413 2003"
    },
    {
        "col0": "Napalm and Silly Putty",
        "col1": "When Will Jesus Bring the Pork Chops?",
        "col2": "Brain Droppings",
        "col3": "PN6162 .C276 2001"
    },
    {
        "col0": "Naked Empire",
        "col1": "Chainfire",
        "col2": "The Pillars of Creation",
        "col3": "PS3557.O5826 N35 2003"
    },
    {
        "col0": "Naked",
        "col1": "Holidays on Ice",
        "col2": "Barrel Fever",
        "col3": "PS3569.E314 Z469 1997"
    },
    {
        "col0": "Mystery of the Samurai Sword",
        "col1": "The Pentagon Spy",
        "col2": "Night of the Werewolf",
        "col3": "PZ7.D644 Myk 1979b"
    },
    {
        "col0": "Mystery of the Glowing Eye",
        "col1": "The Secret of the Forgotten City",
        "col2": "The Double Jinx Mystery",
        "col3": "PZ7.K23 Nan no. 51"
    },
    {
        "col0": "Mystery of Smugglers Cove",
        "col1": "The Stone Idol",
        "col2": "The Mummy Case",
        "col3": "PZ7.D644 Myar"
    },
    {
        "col0": "Mystery of Crocodile Island",
        "col1": "The Thirteenth Pearl",
        "col2": "The Strange Message in the Parchment",
        "col3": "PZ7.K23 Nan no. 55"
    },
    {
        "col0": "My Many Colored Days",
        "col1": "Hooray for Diffendoofer Day!",
        "col2": "The Secret Art of Dr. Seuss",
        "col3": "PZ8.3.G276 My 1996"
    },
    {
        "col0": "My Life",
        "col1": "Giving: How Each of Us Can Change the World",
        "col2": "Between Hope and History",
        "col3": "E886 .A3 2004"
    },
    {
        "col0": "My Dateless Diary",
        "col1": "The Man-Eater of Malgudi",
        "col2": "The Guide",
        "col3": "PR9499.3.N3 Z472 1988"
    },
    {
        "col0": "Murphy's Stand",
        "col1": "Murphy's Ambush",
        "col2": "Murphy's War",
        "col3": "PS3566.A834 M88 1993"
    },
    {
        "col0": "Murphy's Herd",
        "col1": "Murphy's War",
        "col2": "Murphy's Gold",
        "col3": "PS3566.A834 M87 1989"
    },
    {
        "col0": "Murphy's Gold",
        "col1": "Murphy's Herd",
        "col2": "Murphy",
        "col3": "PS3566.A834 M85 1988"
    },
    {
        "col0": "Murphy's Ambush",
        "col1": "Murphy's Trail",
        "col2": "Murphy's Stand",
        "col3": "PS3566.A834 M83 1995"
    },
    {
        "col0": "Murder in Canton",
        "col1": "The Phantom of the Temple",
        "col2": "The Willow Pattern",
        "col3": "PR9130.G8 M87 1993"
    },
    {
        "col0": "Murder Being Once Done",
        "col1": "Some Lie And Some Die",
        "col2": "No More Dying Then",
        "col3": "PZ4.R4132 Mu PR6068.E63"
    },
    {
        "col0": "Multitude: War and Democracy in the Age of Empire",
        "col1": "Commonwealth",
        "col2": "Empire",
        "col3": "JC423 .H364 2004"
    },
    {
        "col0": "Much Obliged, Jeeves",
        "col1": "Aunts Aren't Gentlemen",
        "col2": "Stiff Upper Lip, Jeeves",
        "col3": "PZ3.W817 Ms FT MEADE"
    },
    {
        "col0": "Mr. Sampath - The Printer of Malgudi",
        "col1": "The Financial Expert",
        "col2": "The English Teacher",
        "col3": "PR9499.3.N3 A6 2006b"
    },
    {
        "col0": "Mr. Monk in Outer Space",
        "col1": "Mr. Monk Goes to Germany",
        "col2": "Mr. Monk and the Two Assistants",
        "col3": "PS3557.O3577 M77 2007"
    },
    {
        "col0": "Mr. Monk and the Two Assistants",
        "col1": "Mr. Monk in Outer Space",
        "col2": "Mr. Monk and the Blue Flu",
        "col3": "PS3557.O3577 M725 2007"
    },
    {
        "col0": "Mr. Monk and the Blue Flu",
        "col1": "Mr. Monk and the Two Assistants",
        "col2": "Mr. Monk Goes to Hawaii",
        "col3": "CPB Box no. 2704 vol. 4"
    },
    {
        "col0": "Mr. Monk Is Miserable",
        "col1": "Mr. Monk and the Dirty Cop",
        "col2": "Mr. Monk Goes to Germany",
        "col3": "PS3557.O3577 M78 2008"
    },
    {
        "col0": "Mr. Monk Goes to Hawaii",
        "col1": "Mr. Monk and the Blue Flu",
        "col2": "Mr. Monk Goes to the Firehouse",
        "col3": "CPB Box no. 2468 vol. 16"
    },
    {
        "col0": "Mountain of Black Glass",
        "col1": "Sea of Silver Light",
        "col2": "River of Blue Fire",
        "col3": "PS3573.I45563 M68 1999"
    },
    {
        "col0": "Motherless Brooklyn",
        "col1": "Kafka Americana",
        "col2": "Girl in Landscape",
        "col3": "PS3562.E8544 M68 1999"
    },
    {
        "col0": "Mortalis",
        "col1": "Ascendance",
        "col2": "The Demon Apostle",
        "col3": "PS3569.A462345 M67 2000"
    },
    {
        "col0": "Mortal Stakes",
        "col1": "Promised Land",
        "col2": "God Save the Child",
        "col3": "PZ4.P244 Mo PS3566.A686"
    },
    {
        "col0": "Mortal Danger",
        "col1": "Blood Lines",
        "col2": "Tempting Danger",
        "col3": "CPB Box no. 2407 vol. 18"
    },
    {
        "col0": "Morgawr",
        "col1": "Jarka Ruus",
        "col2": "Antrax",
        "col3": "PS3552.R6596 M67 2002"
    },
    {
        "col0": "Moreta: Dragonlady of Pern",
        "col1": "Nerilka's Story",
        "col2": "Dragondrums",
        "col3": "PS3563.A255 M6 1983"
    },
    {
        "col0": "More Tales of the City",
        "col1": "Further Tales of the City",
        "col2": "Tales of the City",
        "col3": "PS3563.A878 M67"
    },
    {
        "col0": "More Information Than You Require",
        "col1": "That Is All",
        "col2": "The Areas of My Expertise",
        "col3": "PN6165 .H65 2008"
    },
    {
        "col0": "More Flanimals",
        "col1": "Flanimals of the Deep",
        "col2": "Flanimals",
        "col3": "PZ7.G3265 Mor 2006"
    },
    {
        "col0": "Morality for Beautiful Girls",
        "col1": "The Kalahari Typing School for Men",
        "col2": "Tears Of The Giraffe",
        "col3": "PR6063.C326 M67 2001"
    },
    {
        "col0": "Moonrise",
        "col1": "Dawn",
        "col2": "Midnight",
        "col3": "PZ7.H916625Mo 2005"
    },
    {
        "col0": "Monty: His Part in My Victory",
        "col1": "Mussolini: His Part in My Downfall",
        "col2": "\"Rommel?\" \"Gunner Who?\"",
        "col3": "D745.2 .M52"
    },
    {
        "col0": "Monk's Hood",
        "col1": "Saint Peter's Fair",
        "col2": "One Corpse Too Many",
        "col3": "PR6031.A49 M6 1980"
    },
    {
        "col0": "Mixed Magics",
        "col1": "Conrad's Fate",
        "col2": "The Lives of Christopher Chant",
        "col3": "PZ7.J684 Mi 2001 (US)"
    },
    {
        "col0": "Mistral's Kiss",
        "col1": "A Lick of Frost",
        "col2": "A Stroke of Midnight",
        "col3": "PS3558.A443357 M57 2006"
    },
    {
        "col0": "Mistborn: The Well of Ascension",
        "col1": "Mistborn: The Hero of Ages",
        "col2": "Mistborn: The Final Empire",
        "col3": "PS3619.A533 W45 2007"
    },
    {
        "col0": "Mistborn: The Alloy of Law",
        "col1": "Mistborn: Shadows of Self",
        "col2": "Mistborn: The Hero of Ages",
        "col3": "PS3619.A533"
    },
    {
        "col0": "Mistborn: Shadows of Self",
        "col1": "Mistborn: The Bands of Mourning",
        "col2": "Mistborn: The Alloy of Law",
        "col3": "PS3619.A533"
    },
    {
        "col0": "Missee Lee",
        "col1": "The Picts And The Martyrs",
        "col2": "The Big Six",
        "col3": "PZ7.R175 Mi 2001"
    },
    {
        "col0": "Mind Game",
        "col1": "Night Game",
        "col2": "Shadow Game",
        "col3": "CPB Box no. 2257 vol. 14"
    },
    {
        "col0": "Midnight Tides",
        "col1": "The Bonehunters",
        "col2": "House of Chains",
        "col3": "PR9199.4.E745"
    },
    {
        "col0": "Midnight: A Gangster Love Story",
        "col1": "Midnight and the Meaning of Love",
        "col2": "The Coldest Winter Ever",
        "col3": "PS3569.O7374 M53 2008"
    },
    {
        "col0": "Microserfs",
        "col1": "Polaroids from the Dead",
        "col2": "Life After God",
        "col3": "PS3553.O855 M53 1995"
    },
    {
        "col0": "Michael Tolliver Lives",
        "col1": "Mary Ann in Autumn",
        "col2": "Sure of You",
        "col3": "PS3563.A878 M53 2007"
    },
    {
        "col0": "Micah",
        "col1": "Danse Macabre",
        "col2": "Incubus Dreams",
        "col3": "CPB Box no. 2450 vol. 12"
    },
    {
        "col0": "Messenger",
        "col1": "Son",
        "col2": "Gathering Blue",
        "col3": "PZ7.L9673 Me 2004"
    },
    {
        "col0": "Merrick",
        "col1": "Blood and Gold",
        "col2": "The Vampire Armand",
        "col3": "PS3568.I265 M48 2000"
    },
    {
        "col0": "Mendoza in Hollywood",
        "col1": "The Graveyard Game",
        "col2": "Sky Coyote",
        "col3": "PS3552.A4313 M46 2000"
    },
    {
        "col0": "Memnoch the Devil",
        "col1": "The Vampire Armand",
        "col2": "The Tale of the Body Thief",
        "col3": "PS3568.I265 M46 1995"
    },
    {
        "col0": "Me Talk Pretty One Day",
        "col1": "Dress Your Family in Corduroy and Denim",
        "col2": "Holidays on Ice",
        "col3": "PS3569.E314 M4 2000"
    },
    {
        "col0": "Matriarch",
        "col1": "Ally",
        "col2": "The World Before",
        "col3": "CPB Box no. 2665 vol. 12"
    },
    {
        "col0": "Marvin K. Mooney Will You Please Go Now!",
        "col1": "Did I Ever Tell You How Lucky You Are?",
        "col2": "The Lorax",
        "col3": "PZ8.3.G276 Mar"
    },
    {
        "col0": "Many Waters",
        "col1": "An Acceptable Time",
        "col2": "A Swiftly Tilting Planet",
        "col3": "PZ7.L5385 Man 1986"
    },
    {
        "col0": "Manufacturing Consent",
        "col1": "Necessary Illusions",
        "col2": "The Fateful Triangle: The United States, Israel, and the Palestinians",
        "col3": "P96.E25 H47 2002"
    },
    {
        "col0": "Manifold: Origin",
        "col1": "Phase Space",
        "col2": "Manifold: Space",
        "col3": "PR6052.A849 M34 2002"
    },
    {
        "col0": "Man vs Beast",
        "col1": "The Fall",
        "col2": "Divine Madness",
        "col3": "PZ7.M869647 Ma 2006"
    },
    {
        "col0": "Magical Thinking",
        "col1": "Possible Side Effects",
        "col2": "Dry",
        "col3": "PS3552.U745 Z472 2004"
    },
    {
        "col0": "Magic in Ithkar 3",
        "col1": "Magic in Ithkar 4",
        "col2": "Magic in Ithkar 2",
        "col3": "PS648.F3 M283 1986"
    },
    {
        "col0": "Magic in Ithkar 2",
        "col1": "Magic in Ithkar 3",
        "col2": "Magic in Ithkar",
        "col3": "PS648.F3 M282 1985"
    },
    {
        "col0": "Lyra's Oxford",
        "col1": "The Book of Dust",
        "col2": "The Amber Spyglass",
        "col3": "PZ7.P968 Ly 2003"
    },
    {
        "col0": "Lost Light",
        "col1": "The Narrows",
        "col2": "City of Bones",
        "col3": "PS3553.O51165 L67 2003"
    },
    {
        "col0": "Lost City",
        "col1": "Polar Shift",
        "col2": "White Death",
        "col3": "PS3553.U75 L67 2004"
    }
]