[
    {
        "col0": "Qnet",
        "col1": "Hong Kong",
        "col2": "1500",
        "col3": "430000000"
    },
    {
        "col0": "Qinetiq",
        "col1": "Hampshire",
        "col2": "6250",
        "col3": "763800000"
    },
    {
        "col0": "Pyramis",
        "col1": "Thessaloniki",
        "col2": "400",
        "col3": "83065000"
    },
    {
        "col0": "Pushpay",
        "col1": "Auckland",
        "col2": "200",
        "col3": "29"
    },
    {
        "col0": "Pumpkin Patch",
        "col1": "Auckland",
        "col2": "2000",
        "col3": "381900000"
    },
    {
        "col0": "Pull&Bear",
        "col1": "Arteixo",
        "col2": "3000",
        "col3": "1284000000"
    },
    {
        "col0": "Puig",
        "col1": "Barcelona",
        "col2": "4483",
        "col3": "1640000000"
    },
    {
        "col0": "Puget Sound Energy",
        "col1": "Bellevue, Washington",
        "col2": "3000",
        "col3": "3230000000"
    },
    {
        "col0": "Publix",
        "col1": "Lakeland, Florida",
        "col2": "180000",
        "col3": "30"
    },
    {
        "col0": "Publicis Omnicom Group",
        "col1": "New York Stock Exchange",
        "col2": "130000",
        "col3": "35100000000"
    },
    {
        "col0": "Public Power Corporation S.A.",
        "col1": "Athens",
        "col2": "22460",
        "col3": "4452000000"
    },
    {
        "col0": "Psion Teklogix",
        "col1": "Mississauga",
        "col2": "1229",
        "col3": "199700000"
    },
    {
        "col0": "Prvi Partizan",
        "col1": "Uzice",
        "col2": "948",
        "col3": "45370000"
    },
    {
        "col0": "Prva Petoletka",
        "col1": "Trstenik, Serbia",
        "col2": "1382",
        "col3": "14060000"
    },
    {
        "col0": "Prudential Financial",
        "col1": "Newark, New Jersey",
        "col2": "48331",
        "col3": "54161000000"
    },
    {
        "col0": "Protalix BioTherapeutics",
        "col1": "Karmiel",
        "col2": "266",
        "col3": "11510000"
    },
    {
        "col0": "Progress Software",
        "col1": "Bedford, Massachusetts",
        "col2": "942",
        "col3": "334000000"
    },
    {
        "col0": "Production I.G",
        "col1": "Kokubunji, Tokyo",
        "col2": "120",
        "col3": "5439000000"
    },
    {
        "col0": "ProSight Specialty Insurance",
        "col1": "Morristown, New Jersey",
        "col2": "425",
        "col3": "443"
    },
    {
        "col0": "ProRail",
        "col1": "Utrecht",
        "col2": "2651",
        "col3": "1260000000"
    },
    {
        "col0": "Private Media Group",
        "col1": "Barcelona",
        "col2": "38",
        "col3": "7938000"
    },
    {
        "col0": "Priszm",
        "col1": "Ontario",
        "col2": "9000",
        "col3": "450000000"
    },
    {
        "col0": "Prinoth",
        "col1": "Italy",
        "col2": "605",
        "col3": "171000000"
    },
    {
        "col0": "Princes Group",
        "col1": "Liverpool",
        "col2": "8000",
        "col3": "1610000000"
    }
]