[
    {
        "col0": "Zelezara Smederevo",
        "col1": "Smederevo",
        "col2": "4962",
        "col3": "240810000"
    },
    {
        "col0": "A tark",
        "col1": "Belgrade",
        "col2": "1030",
        "col3": "73240000"
    },
    {
        "col0": "A kolska knjiga",
        "col1": "Zagreb",
        "col2": "290",
        "col3": "260000000"
    },
    {
        "col0": "A koda Auto",
        "col1": "Mlada Boleslav",
        "col2": "25889",
        "col3": "299318000000"
    },
    {
        "col0": "Cacanska banka",
        "col1": "Cacak",
        "col2": "387",
        "col3": "31690000"
    },
    {
        "col0": "CEZ Group",
        "col1": "Prague",
        "col2": "26647",
        "col3": "200700000000"
    },
    {
        "col0": "CD Cargo",
        "col1": "Prague",
        "col2": "7249",
        "col3": "14"
    },
    {
        "col0": "Ozal Group",
        "col1": "Ankara",
        "col2": "5500",
        "col3": "6000000000"
    },
    {
        "col0": "Overskottsbolaget",
        "col1": "Mjolby Municipality",
        "col2": "1174",
        "col3": "4130000000"
    },
    {
        "col0": "Ossur",
        "col1": "Reykjavik",
        "col2": "2300",
        "col3": "436000000"
    },
    {
        "col0": "Electricite de France",
        "col1": "Paris",
        "col2": "158161",
        "col3": "72874000000"
    },
    {
        "col0": "Calik Holding",
        "col1": "Constantinople",
        "col2": "20000",
        "col3": "2"
    },
    {
        "col0": "Zynex",
        "col1": "Lone Tree, Colorado",
        "col2": "255",
        "col3": "39670000"
    },
    {
        "col0": "Zumtobel Group",
        "col1": "Dornbirn",
        "col2": "7810",
        "col3": "1228000000"
    },
    {
        "col0": "Zoran Corporation",
        "col1": "California",
        "col2": "1411",
        "col3": "357000000"
    },
    {
        "col0": "Zoosk",
        "col1": "California",
        "col2": "174",
        "col3": "178230000"
    },
    {
        "col0": "Zix Corp",
        "col1": "Dallas, Texas",
        "col2": "144",
        "col3": "47520000"
    },
    {
        "col0": "Zingerman's",
        "col1": "Ann Arbor, Michigan",
        "col2": "500",
        "col3": "40000000"
    },
    {
        "col0": "Zimmer",
        "col1": "Syracuse, New York",
        "col2": "175",
        "col3": "25000000"
    },
    {
        "col0": "Ziebart",
        "col1": "Troy, Michigan",
        "col2": "90",
        "col3": "150000000"
    },
    {
        "col0": "ZeroTurnaround",
        "col1": "Estonia",
        "col2": "170",
        "col3": "2"
    },
    {
        "col0": "Zepter International",
        "col1": "Wollerau",
        "col2": "130000",
        "col3": "5000000000"
    },
    {
        "col0": "Zenith Electronics",
        "col1": "Lincolnshire, Illinois",
        "col2": "976",
        "col3": "444700000"
    },
    {
        "col0": "Zastava Trucks",
        "col1": "Kragujevac",
        "col2": "613",
        "col3": "2060000"
    },
    {
        "col0": "Zastava Arms",
        "col1": "Kragujevac",
        "col2": "2189",
        "col3": "33830000"
    },
    {
        "col0": "Zamil Industrial",
        "col1": "Saudi Arabia",
        "col2": "11000",
        "col3": "5490000000"
    },
    {
        "col0": "Zambian Breweries",
        "col1": "Lusaka",
        "col2": "1060",
        "col3": "919257"
    },
    {
        "col0": "Zagg",
        "col1": "Midvale, Utah",
        "col2": "250",
        "col3": "264400000"
    },
    {
        "col0": "ZF Wind Power Antwerpen",
        "col1": "Kontich",
        "col2": "1400",
        "col3": "410000000"
    },
    {
        "col0": "ZF Friedrichshafen",
        "col1": "Baden-Wurttemberg",
        "col2": "71402",
        "col3": "16837"
    },
    {
        "col0": "Yves Rocher",
        "col1": "Rennes",
        "col2": "13500",
        "col3": "2000000000"
    },
    {
        "col0": "Yum! Brands",
        "col1": "Louisville, Kentucky",
        "col2": "505000",
        "col3": "13105000000"
    },
    {
        "col0": "Yugoimport SDPR",
        "col1": "Belgrade",
        "col2": "646",
        "col3": "91680000"
    },
    {
        "col0": "YugoRosGaz",
        "col1": "Belgrade",
        "col2": "27",
        "col3": "353370000"
    },
    {
        "col0": "Youku",
        "col1": "Beijing",
        "col2": "2104",
        "col3": "649500000"
    },
    {
        "col0": "Yokohama Rubber Company",
        "col1": "Tokyo",
        "col2": "14617",
        "col3": "5220000000"
    },
    {
        "col0": "Yodle",
        "col1": "New York City",
        "col2": "1100",
        "col3": "163000000"
    },
    {
        "col0": "Yamasaki & Associates",
        "col1": "Michigan",
        "col2": "20",
        "col3": "5"
    },
    {
        "col0": "Yamaha electric guitar models",
        "col1": "Hamamatsu",
        "col2": "26803",
        "col3": "4676000000"
    },
    {
        "col0": "Yamaha Corporation",
        "col1": "Hamamatsu",
        "col2": "19851",
        "col3": "410300000000"
    },
    {
        "col0": "YPF",
        "col1": "Buenos Aires",
        "col2": "14000",
        "col3": "17500000000"
    },
    {
        "col0": "Xiaomi",
        "col1": "Beijing",
        "col2": "8100",
        "col3": "20000000000"
    },
    {
        "col0": "Xerox",
        "col1": "Connecticut",
        "col2": "140800",
        "col3": "18040000000"
    },
    {
        "col0": "Xero",
        "col1": "Wellington, New Zealand",
        "col2": "1450",
        "col3": "207000000"
    },
    {
        "col0": "Xcel Energy",
        "col1": "Minneapolis",
        "col2": "11942",
        "col3": "10128"
    },
    {
        "col0": "XL Catlin",
        "col1": "Dublin",
        "col2": "7000",
        "col3": "11400000000"
    },
    {
        "col0": "Wyndham Capital Mortgage",
        "col1": "Charlotte, North Carolina",
        "col2": "278",
        "col3": "44400000"
    },
    {
        "col0": "Wpromote",
        "col1": "El Segundo, California",
        "col2": "260",
        "col3": "35000000"
    },
    {
        "col0": "Worthington Industries",
        "col1": "Columbus, Ohio",
        "col2": "10500",
        "col3": "3380000000"
    },
    {
        "col0": "WorleyParsons",
        "col1": "NSW",
        "col2": "35100",
        "col3": "7363"
    },
    {
        "col0": "Worldpay",
        "col1": "London",
        "col2": "4500",
        "col3": "3963"
    },
    {
        "col0": "World Duty Free",
        "col1": "Novara",
        "col2": "8500",
        "col3": "2000000000"
    },
    {
        "col0": "WorldCall",
        "col1": "Lahore",
        "col2": "1400",
        "col3": "8000000000"
    },
    {
        "col0": "Workday, Inc.",
        "col1": "Pleasanton, California",
        "col2": "5600",
        "col3": "1160000000"
    },
    {
        "col0": "Woolworths Supermarkets",
        "col1": "New South Wales",
        "col2": "111000",
        "col3": "42132000000"
    },
    {
        "col0": "Woolworths Limited",
        "col1": "Bella Vista, New South Wales",
        "col2": "202000",
        "col3": "59000000000"
    },
    {
        "col0": "Woolworths Group",
        "col1": "London",
        "col2": "400",
        "col3": "2969600000"
    },
    {
        "col0": "Woolrich",
        "col1": "Woolrich, Pennsylvania",
        "col2": "500",
        "col3": "250000000"
    },
    {
        "col0": "Witt Weiden",
        "col1": "Weiden in der Oberpfalz",
        "col2": "2500",
        "col3": "666000000"
    },
    {
        "col0": "Wirsol",
        "col1": "Waghausel",
        "col2": "270",
        "col3": "317000000"
    },
    {
        "col0": "Winnebago Industries",
        "col1": "Forest City, Iowa",
        "col2": "2850",
        "col3": "945200000"
    },
    {
        "col0": "Wingas",
        "col1": "Kassel",
        "col2": "550",
        "col3": "12590000000"
    },
    {
        "col0": "Wind Telecom",
        "col1": "Amsterdam",
        "col2": "7000",
        "col3": "7200000000"
    },
    {
        "col0": "Williams Lea",
        "col1": "London",
        "col2": "11500",
        "col3": "772100000"
    },
    {
        "col0": "Wiggle Ltd",
        "col1": "Portsmouth",
        "col2": "0",
        "col3": "179000000"
    },
    {
        "col0": "Widdowson Group",
        "col1": "Glenfield, Leicestershire",
        "col2": "330",
        "col3": "24000000"
    },
    {
        "col0": "Wetherspoons",
        "col1": "Watford",
        "col2": "35000",
        "col3": "1513"
    },
    {
        "col0": "Westland Milk Products",
        "col1": "Hokitika, New Zealand",
        "col2": "400",
        "col3": "830000000"
    }
]