[
    {
        "col0": "T. Griffiths",
        "col1": "Carmarthenshire",
        "col2": "1947-10-16",
        "col3": "1947-10-16",
        "col4": "1979",
        "col5": "60",
        "col6": "3",
        "col7": "139"
    },
    {
        "col0": "S. Bingham",
        "col1": "Basildon",
        "col2": "1976-05-21",
        "col3": "1976-05-21",
        "col4": "2015",
        "col5": "296",
        "col6": "2",
        "col7": "147"
    },
    {
        "col0": "S. Davis",
        "col1": "Plumstead",
        "col2": "1957-08-22",
        "col3": "1957-08-22",
        "col4": "1981",
        "col5": "338",
        "col6": "1",
        "col7": "147"
    },
    {
        "col0": "S. Hendry",
        "col1": "South Queensferry",
        "col2": "1969-01-13",
        "col3": "1969-01-13",
        "col4": "1990",
        "col5": "775",
        "col6": "1",
        "col7": "147"
    },
    {
        "col0": "S. Murphy",
        "col1": "Harlow",
        "col2": "1982-08-10",
        "col3": "1982-08-10",
        "col4": "2005",
        "col5": "364",
        "col6": "3",
        "col7": "147"
    },
    {
        "col0": "R. O'Sullivan",
        "col1": "West Midlands",
        "col2": "1975-12-05",
        "col3": "1975-12-05",
        "col4": "2001",
        "col5": "827",
        "col6": "1",
        "col7": "147"
    },
    {
        "col0": "R. Reardon",
        "col1": "Monmouthshire",
        "col2": "1932-10-08",
        "col3": "1932-10-08",
        "col4": "1970",
        "col5": "52",
        "col6": "1",
        "col7": "146"
    },
    {
        "col0": "P. Ebdon",
        "col1": "Islington",
        "col2": "1970-08-27",
        "col3": "1970-08-27",
        "col4": "2002",
        "col5": "352",
        "col6": "3",
        "col7": "147"
    },
    {
        "col0": "P. Advani",
        "col1": "Maharashtra",
        "col2": "1985-07-24",
        "col3": "1985-07-24",
        "col4": "Billiards: 10 times (current world number 1 in 6-red snooker and World Team Billiards)",
        "col5": "16",
        "col6": "56",
        "col7": "136"
    },
    {
        "col0": "N. Robertson",
        "col1": "Melbourne",
        "col2": "1982-02-11",
        "col3": "1982-02-11",
        "col4": "2010",
        "col5": "471",
        "col6": "1",
        "col7": "147"
    },
    {
        "col0": "M. Williams",
        "col1": "Ebbw Vale",
        "col2": "1975-03-21",
        "col3": "1975-03-21",
        "col4": "2000,2003",
        "col5": "365",
        "col6": "1",
        "col7": "147"
    },
    {
        "col0": "M. Selby",
        "col1": "Leicester",
        "col2": "1983-06-19",
        "col3": "1983-06-19",
        "col4": "2014",
        "col5": "428",
        "col6": "1",
        "col7": "147"
    },
    {
        "col0": "K. Doherty",
        "col1": "Dublin",
        "col2": "1969-09-17",
        "col3": "1969-09-17",
        "col4": "1997",
        "col5": "331",
        "col6": "2",
        "col7": "147"
    }
]