[
    {
        "col0": "Scott's seaside sparrow",
        "col1": "Emberizidae",
        "col2": "Ammodramus maritimus",
        "col3": "T3",
        "col4": "TNC"
    },
    {
        "col0": "Santa Marta tinamou",
        "col1": "Tinamidae",
        "col2": "Crypturellus erythropus",
        "col3": "NR",
        "col4": "iucn3.1"
    },
    {
        "col0": "San Clemente loggerhead shrike",
        "col1": "Shrike",
        "col2": "Lanius ludovicianus",
        "col3": "LE",
        "col4": "ESA"
    },
    {
        "col0": "San Benedicto rock wren",
        "col1": "Wren",
        "col2": "Rock Wren",
        "col3": "EX",
        "col4": "iucn3.1"
    },
    {
        "col0": "Roper River scrub robin",
        "col1": "Petroicidae",
        "col2": "Northern Scrub-robin",
        "col3": "EX",
        "col4": "EPBC"
    },
    {
        "col0": "Red fox sparrow",
        "col1": "Emberizidae",
        "col2": "Passerella iliaca",
        "col3": "NE",
        "col4": "iucn3.1"
    },
    {
        "col0": "Puerto Rican sharp-shinned hawk",
        "col1": "Accipitridae",
        "col2": "Accipiter striatus",
        "col3": "LE",
        "col4": "ESA"
    },
    {
        "col0": "Puerto Rican broad-winged hawk",
        "col1": "Accipitridae",
        "col2": "Buteo platypterus",
        "col3": "LE",
        "col4": "ESA"
    },
    {
        "col0": "Papuan harrier",
        "col1": "Accipitridae",
        "col2": "Circus spilonotus",
        "col3": "LC",
        "col4": "IUCN3.1"
    },
    {
        "col0": "Panama amazon",
        "col1": "Psittacidae",
        "col2": "Amazona ochrocephala",
        "col3": "LC",
        "col4": "IUCN3.1"
    },
    {
        "col0": "Northern spotted owl",
        "col1": "Strigidae",
        "col2": "Strix occidentalis",
        "col3": "lt",
        "col4": "ESA"
    },
    {
        "col0": "Northern royal flycatcher",
        "col1": "Tyrannidae",
        "col2": "Onychorhynchus coronatus",
        "col3": "LC",
        "col4": "IUCN3.1"
    },
    {
        "col0": "Northern gannet",
        "col1": "Sulidae",
        "col2": "Morus bassanus",
        "col3": "LC",
        "col4": "IUCN3.1"
    },
    {
        "col0": "Norfolk triller",
        "col1": "Campephagidae",
        "col2": "Long-tailed Triller",
        "col3": "EX",
        "col4": "EPBC"
    },
    {
        "col0": "Norfolk golden whistler",
        "col1": "Pachycephalidae",
        "col2": "Australian golden whistler",
        "col3": "VU",
        "col4": "EPBC"
    }
]