[
    {
        "col0": "W. Jones",
        "col1": "McGehee, Arkansas",
        "col2": "Albany State University",
        "col3": "Los Angeles Lakers"
    },
    {
        "col0": "W. Boddie",
        "col1": "Florence, Alabama",
        "col2": "Auburn Tigers women's basketball",
        "col3": "Sacramento Monarchs"
    },
    {
        "col0": "W. Martin",
        "col1": "Buffalo, New York",
        "col2": "St. Bonaventure Bonnies men's basketball",
        "col3": "New York Knicks"
    },
    {
        "col0": "W. Kachan",
        "col1": "Illinois",
        "col2": "DePaul Blue Demons men's basketball",
        "col3": "Chicago Stags"
    },
    {
        "col0": "W. Person",
        "col1": "Brantley, Alabama",
        "col2": "Auburn Tigers men's basketball",
        "col3": "Phoenix Suns"
    },
    {
        "col0": "W. Johnson",
        "col1": "Corsicana, Texas",
        "col2": "Iowa State Cyclones men's basketball",
        "col3": "Minnesota Timberwolves"
    },
    {
        "col0": "W. Cox",
        "col1": "Louisville, Kentucky",
        "col2": "Louisville Cardinals men's basketball",
        "col3": "Golden State Warriors"
    },
    {
        "col0": "W. Unseld",
        "col1": "Louisville, Kentucky",
        "col2": "Louisville Cardinals men's basketball",
        "col3": "Baltimore Bullets"
    },
    {
        "col0": "W. Matthews",
        "col1": "Sarasota, Florida",
        "col2": "Wisconsin Badgers men's basketball",
        "col3": "Washington Bullets"
    },
    {
        "col0": "W. Bialosuknia",
        "col1": "Poughkeepsie, New York",
        "col2": "Connecticut Huskies men's basketball",
        "col3": "St. Louis Hawks"
    },
    {
        "col0": "W. Palmer",
        "col1": "Durham, North Carolina",
        "col2": "Virginia Cavaliers women's basketball",
        "col3": "Utah Starzz"
    },
    {
        "col0": "W. Alexis",
        "col1": "Brooklyn",
        "col2": "Syracuse Orange men's basketball",
        "col3": "Golden State Warriors"
    },
    {
        "col0": "W. Stevens",
        "col1": "Chillicothe, Ohio",
        "col2": "Cincinnati Bearcats men's basketball",
        "col3": "Cincinnati Royals"
    },
    {
        "col0": "W. Simien",
        "col1": "Leavenworth, Kansas",
        "col2": "Kansas Jayhawks men's basketball",
        "col3": "Miami Heat"
    },
    {
        "col0": "W. Sappleton",
        "col1": "Kingston, Jamaica",
        "col2": "Loyola Ramblers men's basketball",
        "col3": "Golden State Warriors"
    },
    {
        "col0": "W. Robinson",
        "col1": "Greensboro, North Carolina",
        "col2": "Virginia Tech Hokies men's basketball",
        "col3": "Los Angeles Lakers"
    },
    {
        "col0": "W. Radford",
        "col1": "Indianapolis",
        "col2": "Indiana Hoosiers men's basketball",
        "col3": "Indiana Pacers"
    },
    {
        "col0": "W. Molis",
        "col1": "Chicago",
        "col2": "Lewis University",
        "col3": "New York Knicks"
    },
    {
        "col0": "W. Kreklow",
        "col1": "Neenah, Wisconsin",
        "col2": "Drake Bulldogs men's basketball",
        "col3": "Boston Celtics"
    },
    {
        "col0": "W. Hightower",
        "col1": "Philadelphia",
        "col2": "Kansas Jayhawks men's basketball",
        "col3": "San Francisco Warriors"
    },
    {
        "col0": "W. Glasgow",
        "col1": "Dacoma, Oklahoma",
        "col2": "Oklahoma Sooners men's basketball",
        "col3": "Minneapolis Lakers"
    },
    {
        "col0": "W. Embry",
        "col1": "Springfield, Ohio",
        "col2": "Miami RedHawks men's basketball",
        "col3": "St. Louis Hawks"
    },
    {
        "col0": "W. Ellington",
        "col1": "Wynnewood, Pennsylvania",
        "col2": "North Carolina Tar Heels men's basketball",
        "col3": "Minnesota Timberwolves"
    },
    {
        "col0": "W. Cooper",
        "col1": "Milan, Georgia",
        "col2": "New Orleans Privateers men's basketball",
        "col3": "Golden State Warriors"
    },
    {
        "col0": "W. Chapman",
        "col1": "Owensboro, Kentucky",
        "col2": "WKU Hilltoppers basketball",
        "col3": "Baltimore Bullets"
    },
    {
        "col0": "W. Carlander",
        "col1": "Huntington Beach, California",
        "col2": "USC Trojans men's basketball",
        "col3": "Los Angeles Clippers"
    },
    {
        "col0": "W. Tisdale",
        "col1": "Fort Worth, Texas",
        "col2": "Oklahoma Sooners men's basketball",
        "col3": "Indiana Pacers"
    },
    {
        "col0": "W. Britt",
        "col1": "Wilson's Mills, North Carolina",
        "col2": "Michigan Wolverines men's basketball",
        "col3": "Los Angeles Lakers"
    },
    {
        "col0": "W. Misaka",
        "col1": "Ogden, Utah",
        "col2": "Utah Utes men's basketball",
        "col3": "New York Knicks"
    },
    {
        "col0": "W. Perkins",
        "col1": "New Orleans",
        "col2": "Tulane Green Wave men's basketball",
        "col3": "Providence Steamrollers"
    },
    {
        "col0": "W. Jabali",
        "col1": "Kansas City, Kansas",
        "col2": "Wichita State Shockers men's basketball",
        "col3": "New York Knicks"
    },
    {
        "col0": "W. Isaac",
        "col1": "New York City",
        "col2": "Iona Gaels men's basketball",
        "col3": "Cincinnati Royals"
    },
    {
        "col0": "W. Williams",
        "col1": "Colfax, Indiana",
        "col2": "Indiana Hoosiers men's basketball",
        "col3": "Fort Wayne Pistons"
    },
    {
        "col0": "W. Smith",
        "col1": "Cincinnati",
        "col2": "Duke Blue Devils women's basketball",
        "col3": "New York Liberty"
    },
    {
        "col0": "W. Szczerbiak",
        "col1": "Hamburg",
        "col2": "George Washington Colonials men's basketball",
        "col3": "Phoenix Suns"
    },
    {
        "col0": "W. Sharpe",
        "col1": "Huntsville, Alabama",
        "col2": "UAB Blazers men's basketball",
        "col3": "Seattle SuperSonics"
    },
    {
        "col0": "W. Palmer",
        "col1": "Ithaca, New York",
        "col2": "Dartmouth Big Green men's basketball",
        "col3": "Utah Jazz"
    },
    {
        "col0": "W. McCarty",
        "col1": "Evansville, Indiana",
        "col2": "Kentucky Wildcats men's basketball",
        "col3": "New York Knicks"
    },
    {
        "col0": "W. Luckett",
        "col1": "Bridgeport, Connecticut",
        "col2": "Ohio Bobcats men's basketball",
        "col3": "Detroit Pistons"
    },
    {
        "col0": "W. Jordan",
        "col1": "Perry County, Alabama",
        "col2": "Purdue Boilermakers men's basketball",
        "col3": "New Jersey Nets"
    },
    {
        "col0": "W. Dukes",
        "col1": "Rochester, New York",
        "col2": "Seton Hall Pirates men's basketball",
        "col3": "New York Knicks"
    },
    {
        "col0": "W. Devlin",
        "col1": "New Jersey",
        "col2": "George Washington Colonials men's basketball",
        "col3": "Philadelphia Warriors"
    },
    {
        "col0": "W. Davis",
        "col1": "Pineville, North Carolina",
        "col2": "North Carolina Tar Heels men's basketball",
        "col3": "Phoenix Suns"
    },
    {
        "col0": "W. Berry",
        "col1": "New York City",
        "col2": "San Jacinto College",
        "col3": "Portland Trail Blazers"
    },
    {
        "col0": "W. Williams",
        "col1": "Washington, D.C.",
        "col2": "Maryland Terrapins men's basketball",
        "col3": "Sacramento Kings"
    },
    {
        "col0": "W. Wesley",
        "col1": "Fort Myers, Florida",
        "col2": "Kansas Jayhawks men's basketball",
        "col3": "Cincinnati Royals"
    },
    {
        "col0": "W. Piatkowski",
        "col1": "Toledo, Ohio",
        "col2": "Bowling Green Falcons men's basketball",
        "col3": "San Francisco Warriors"
    },
    {
        "col0": "W. Hazzard",
        "col1": "Wilmington, Delaware",
        "col2": "UCLA Bruins men's basketball",
        "col3": "Los Angeles Lakers"
    },
    {
        "col0": "W. Gilmore",
        "col1": "Millen, Georgia",
        "col2": "Fort Valley State University",
        "col3": "Portland Trail Blazers"
    },
    {
        "col0": "W. Frazier",
        "col1": "Atlanta",
        "col2": "Southern Illinois Salukis men's basketball",
        "col3": "New York Knicks"
    },
    {
        "col0": "W. Davis",
        "col1": "Beaumont, Texas",
        "col2": "Texas A&M Aggies men's basketball",
        "col3": "Philadelphia Warriors"
    },
    {
        "col0": "W. Budko",
        "col1": "Brooklyn, New York",
        "col2": "Columbia Lions men's basketball",
        "col3": "Baltimore Bullets"
    },
    {
        "col0": "W. Bellamy",
        "col1": "New Bern, North Carolina",
        "col2": "Indiana Hoosiers men's basketball",
        "col3": "Chicago Packers"
    },
    {
        "col0": "W. Walker",
        "col1": "Millersville, Pennsylvania",
        "col2": "Virginia Cavaliers men's basketball",
        "col3": "Portland Trail Blazers"
    },
    {
        "col0": "W. Szczerbiak",
        "col1": "Madrid",
        "col2": "Miami RedHawks men's basketball",
        "col3": "Minnesota Timberwolves"
    },
    {
        "col0": "W. Rank",
        "col1": "Fort Ord",
        "col2": "San Jose State Spartans men's basketball",
        "col3": "San Diego Clippers"
    },
    {
        "col0": "W. Osterkorn",
        "col1": "Chicago",
        "col2": "Illinois Fighting Illini men's basketball",
        "col3": "Chicago Stags"
    },
    {
        "col0": "W. Anderzunas",
        "col1": "Omaha, Nebraska",
        "col2": "Creighton Bluejays men's basketball",
        "col3": "Atlanta Hawks"
    },
    {
        "col0": "W. Jones",
        "col1": "Harlan, Kentucky",
        "col2": "Kentucky Wildcats men's basketball",
        "col3": "Washington Capitols"
    },
    {
        "col0": "W. Bryant",
        "col1": "Liga ACB",
        "col2": "San Francisco Dons men's basketball",
        "col3": "Chicago Bulls"
    },
    {
        "col0": "W. Russell",
        "col1": "Pontiac, Michigan",
        "col2": "Houston Cougars men's basketball",
        "col3": "Detroit Pistons"
    },
    {
        "col0": "W. Jones",
        "col1": "Philadelphia",
        "col2": "Villanova Wildcats men's basketball",
        "col3": "Detroit Pistons"
    },
    {
        "col0": "W. B. IV",
        "col1": "Belle Mead, New Jersey",
        "col2": "Vanderbilt Commodores men's basketball",
        "col3": "Memphis Grizzlies"
    },
    {
        "col0": "V. Lenard",
        "col1": "Detroit",
        "col2": "Minnesota Golden Gophers men's basketball",
        "col3": "Milwaukee Bucks"
    },
    {
        "col0": "V. Cummings",
        "col1": "Thomson, Georgia",
        "col2": "Pittsburgh Panthers men's basketball",
        "col3": "Indiana Pacers"
    },
    {
        "col0": "V. Wafer",
        "col1": "Homer, Louisiana",
        "col2": "Florida State Seminoles men's basketball",
        "col3": "Los Angeles Lakers"
    },
    {
        "col0": "V. McDade",
        "col1": "Milwaukee",
        "col2": "Oklahoma State Cowboys basketball",
        "col3": "New Jersey Nets"
    },
    {
        "col0": "V. Winters",
        "col1": "Chicago",
        "col2": "Bradley Braves men's basketball",
        "col3": "Philadelphia 76ers"
    },
    {
        "col0": "V. Potapenko",
        "col1": "Kiev",
        "col2": "Wright State Raiders men's basketball",
        "col3": "Cleveland Cavaliers"
    },
    {
        "col0": "V. D. Negro",
        "col1": "Springfield, Massachusetts",
        "col2": "NC State Wolfpack men's basketball",
        "col3": "Sacramento Kings"
    },
    {
        "col0": "V. Johnson",
        "col1": "Brooklyn",
        "col2": "Baylor Bears basketball",
        "col3": "Seattle SuperSonics"
    },
    {
        "col0": "V. Yarbrough",
        "col1": "Cleveland, Tennessee",
        "col2": "Tennessee Volunteers basketball",
        "col3": "Denver Nuggets"
    },
    {
        "col0": "V. Askew",
        "col1": "Memphis, Tennessee",
        "col2": "Memphis Tigers men's basketball",
        "col3": "Philadelphia 76ers"
    },
    {
        "col0": "V. Taylor",
        "col1": "Lexington, Kentucky",
        "col2": "Duke Blue Devils men's basketball",
        "col3": "New York Knicks"
    },
    {
        "col0": "V. Carter",
        "col1": "Daytona Beach, Florida",
        "col2": "North Carolina Tar Heels men's basketball",
        "col3": "Golden State Warriors"
    },
    {
        "col0": "V. Baker",
        "col1": "Lake Wales, Florida",
        "col2": "Hartford Hawks men's basketball",
        "col3": "Milwaukee Bucks"
    },
    {
        "col0": "V. Dunlap",
        "col1": "Nashville, Tennessee",
        "col2": "Kentucky Wildcats women's basketball",
        "col3": "Washington Mystics"
    },
    {
        "col0": "V. Oladipo",
        "col1": "Silver Spring, Maryland",
        "col2": "Indiana Hoosiers men's basketball",
        "col3": "Orlando Magic"
    },
    {
        "col0": "V. Alexander",
        "col1": "Detroit",
        "col2": "Iowa State Cyclones men's basketball",
        "col3": "Golden State Warriors"
    },
    {
        "col0": "V. Bullett",
        "col1": "Martinsburg, West Virginia",
        "col2": "Maryland Terrapins women's basketball",
        "col3": "Charlotte Sting"
    },
    {
        "col0": "V. Johnson",
        "col1": "Coushatta, Louisiana",
        "col2": "Louisiana Tech Lady Techsters basketball",
        "col3": "New York Liberty"
    },
    {
        "col0": "V. Bartolome",
        "col1": "Santa Barbara, California",
        "col2": "Oregon State Beavers men's basketball",
        "col3": "San Francisco Warriors"
    },
    {
        "col0": "V. Maxwell",
        "col1": "Gainesville, Florida",
        "col2": "Florida Gators men's basketball",
        "col3": "Denver Nuggets"
    },
    {
        "col0": "V. Macklin",
        "col1": "Portsmouth, Virginia",
        "col2": "Georgetown Hoyas men's basketball",
        "col3": "Detroit Pistons"
    },
    {
        "col0": "V. Hatton",
        "col1": "Owingsville, Kentucky",
        "col2": "Kentucky Wildcats men's basketball",
        "col3": "Cincinnati Royals"
    },
    {
        "col0": "V. Mikkelsen",
        "col1": "Fresno, California",
        "col2": "Hamline Pipers men's basketball",
        "col3": "Minneapolis Lakers"
    },
    {
        "col0": "V. Gardner",
        "col1": "Afton, Wyoming",
        "col2": "Utah Utes men's basketball",
        "col3": "Philadelphia Warriors"
    },
    {
        "col0": "V. Fleming",
        "col1": "New York City",
        "col2": "Georgia Bulldogs basketball",
        "col3": "Indiana Pacers"
    },
    {
        "col0": "V. Hamilton",
        "col1": "Forest City, North Carolina",
        "col2": "Nebraska Cornhuskers men's basketball",
        "col3": "Houston Rockets"
    },
    {
        "col0": "V. Williford",
        "col1": "Fayetteville, North Carolina",
        "col2": "NC State Wolfpack men's basketball",
        "col3": "Phoenix Suns"
    },
    {
        "col0": "V. Hayden",
        "col1": "Orlando, Florida",
        "col2": "Florida Gators women's basketball",
        "col3": "Minnesota Lynx"
    },
    {
        "col0": "V. Whiting",
        "col1": "South Orange, New Jersey",
        "col2": "Stanford Cardinal women's basketball",
        "col3": "Detroit Shock"
    },
    {
        "col0": "U. Blab",
        "col1": "Munich",
        "col2": "Indiana Hoosiers men's basketball",
        "col3": "Dallas Mavericks"
    },
    {
        "col0": "T. Jones",
        "col1": "Burnsville, Minnesota",
        "col2": "Duke Blue Devils men's basketball",
        "col3": "Cleveland Cavaliers"
    },
    {
        "col0": "T. Edney",
        "col1": "Gardena, California",
        "col2": "UCLA Bruins men's basketball",
        "col3": "Sacramento Kings"
    },
    {
        "col0": "T. Wheeler",
        "col1": "New Britain, Connecticut",
        "col2": "Rhode Island Rams men's basketball",
        "col3": "Toronto Raptors"
    },
    {
        "col0": "T. Taylor",
        "col1": "Hoboken, New Jersey",
        "col2": "Kansas Jayhawks men's basketball",
        "col3": "Portland Trail Blazers"
    },
    {
        "col0": "T. Thomas",
        "col1": "Baton Rouge, Louisiana",
        "col2": "LSU Tigers basketball",
        "col3": "Portland Trail Blazers"
    },
    {
        "col0": "T. Lue",
        "col1": "Mexico City",
        "col2": "Nebraska Cornhuskers men's basketball",
        "col3": "Denver Nuggets"
    },
    {
        "col0": "T. Wallace",
        "col1": "Bakersfield, California",
        "col2": "California Golden Bears men's basketball",
        "col3": "Utah Jazz"
    },
    {
        "col0": "T. Hill",
        "col1": "Cincinnati",
        "col2": "Xavier Musketeers men's basketball",
        "col3": "Golden State Warriors"
    },
    {
        "col0": "T. Corbin",
        "col1": "Columbia, South Carolina",
        "col2": "DePaul Blue Demons men's basketball",
        "col3": "San Antonio Spurs"
    },
    {
        "col0": "T. Evans",
        "col1": "Chester, Pennsylvania",
        "col2": "Memphis Tigers men's basketball",
        "col3": "Sacramento Kings"
    },
    {
        "col0": "T. White",
        "col1": "Kansas City, Missouri",
        "col2": "Texas A&M Aggies women's basketball",
        "col3": "Los Angeles Sparks"
    },
    {
        "col0": "T. Grant",
        "col1": "Youngstown, Ohio",
        "col2": "Penn State Lady Lions basketball",
        "col3": "Phoenix Mercury"
    },
    {
        "col0": "T. Zeller",
        "col1": "Visalia, California",
        "col2": "North Carolina Tar Heels men's basketball",
        "col3": "Dallas Mavericks"
    },
    {
        "col0": "T. Ulis",
        "col1": "Southfield, Michigan",
        "col2": "Kentucky Wildcats men's basketball",
        "col3": "Phoenix Suns"
    },
    {
        "col0": "T. Honeycutt",
        "col1": "Sylmar, Los Angeles",
        "col2": "UCLA Bruins men's basketball",
        "col3": "Sacramento Kings"
    },
    {
        "col0": "T. Harvey",
        "col1": "Torrance, California",
        "col2": "Eastern Washington Eagles men's basketball",
        "col3": "Orlando Magic"
    },
    {
        "col0": "T. Hansbrough",
        "col1": "Columbia, Missouri",
        "col2": "North Carolina Tar Heels men's basketball",
        "col3": "Indiana Pacers"
    },
    {
        "col0": "T. Ennis",
        "col1": "Toronto",
        "col2": "Syracuse Orange men's basketball",
        "col3": "Phoenix Suns"
    },
    {
        "col0": "T. Fluker",
        "col1": "Pasadena, California",
        "col2": "Tennessee Lady Volunteers basketball",
        "col3": "Charlotte Sting"
    },
    {
        "col0": "T. Marshall",
        "col1": "Washington, D.C.",
        "col2": "Georgia Tech Yellow Jackets women's basketball",
        "col3": "New York Liberty"
    },
    {
        "col0": "T. Lawson",
        "col1": "Clinton, Maryland",
        "col2": "North Carolina Tar Heels men's basketball",
        "col3": "Minnesota Timberwolves"
    },
    {
        "col0": "T. Robinson",
        "col1": "Jacksonville, Florida",
        "col2": "Tennessee State Tigers basketball",
        "col3": "Washington Bullets"
    },
    {
        "col0": "T. Murphy",
        "col1": "Morristown, New Jersey",
        "col2": "Notre Dame Fighting Irish men's basketball",
        "col3": "Golden State Warriors"
    },
    {
        "col0": "T. Bell",
        "col1": "Minneapolis",
        "col2": "Boston College Eagles men's basketball",
        "col3": "Boston Celtics"
    },
    {
        "col0": "T. Thompson",
        "col1": "Toronto",
        "col2": "Texas Longhorns men's basketball",
        "col3": "Cleveland Cavaliers"
    },
    {
        "col0": "T. Liston",
        "col1": "Chicago",
        "col2": "Duke Blue Devils women's basketball",
        "col3": "Minnesota Lynx"
    },
    {
        "col0": "T. Thompkins",
        "col1": "Long Island, New York",
        "col2": "Georgia Bulldogs basketball",
        "col3": "Los Angeles Clippers"
    },
    {
        "col0": "T. Lyles",
        "col1": "Saskatoon",
        "col2": "Kentucky Wildcats men's basketball",
        "col3": "Utah Jazz"
    },
    {
        "col0": "T. Burke",
        "col1": "Columbus, Ohio",
        "col2": "Michigan Wolverines men's basketball",
        "col3": "Minnesota Timberwolves"
    },
    {
        "col0": "T. Wilson",
        "col1": "Los Angeles",
        "col2": "UCLA Bruins men's basketball",
        "col3": "Atlanta Hawks"
    },
    {
        "col0": "T. Booker",
        "col1": "Newberry, South Carolina",
        "col2": "Clemson Tigers men's basketball",
        "col3": "Minnesota Timberwolves"
    },
    {
        "col0": "T. Ariza",
        "col1": "Miami",
        "col2": "UCLA Bruins men's basketball",
        "col3": "New York Knicks"
    },
    {
        "col0": "T. Hassell",
        "col1": "Clarksville, Tennessee",
        "col2": "Austin Peay Governors men's basketball",
        "col3": "Chicago Bulls"
    },
    {
        "col0": "T. Tucker",
        "col1": "Tarboro, North Carolina",
        "col2": "Minnesota Golden Gophers men's basketball",
        "col3": "New York Knicks"
    },
    {
        "col0": "T. Plaisted",
        "col1": "San Antonio",
        "col2": "BYU Cougars men's basketball",
        "col3": "Seattle SuperSonics"
    },
    {
        "col0": "T. Fowlkes",
        "col1": "Los Angeles",
        "col2": "California Golden Bears men's basketball",
        "col3": "Denver Nuggets"
    },
    {
        "col0": "T. Rollins",
        "col1": "Winter Haven, Florida",
        "col2": "Clemson Tigers men's basketball",
        "col3": "Atlanta Hawks"
    },
    {
        "col0": "T. Mays",
        "col1": "Ocala, Florida",
        "col2": "Texas Longhorns men's basketball",
        "col3": "Sacramento Kings"
    },
    {
        "col0": "T. Leslie",
        "col1": "Atlanta",
        "col2": "Georgia Bulldogs basketball",
        "col3": "Los Angeles Clippers"
    },
    {
        "col0": "T. Knight",
        "col1": "Salt Lake City",
        "col2": "Connecticut Huskies men's basketball",
        "col3": "Chicago Bulls"
    },
    {
        "col0": "T. Hansen",
        "col1": "Provo, Utah",
        "col2": "Utah Valley Wolverines men's basketball",
        "col3": "Atlanta Hawks"
    },
    {
        "col0": "T. Grant",
        "col1": "Clayton, Alabama",
        "col2": "Kentucky State University",
        "col3": "Los Angeles Lakers"
    },
    {
        "col0": "T. Diener",
        "col1": "Fond du Lac, Wisconsin",
        "col2": "Marquette Golden Eagles men's basketball",
        "col3": "Orlando Magic"
    },
    {
        "col0": "T. Best",
        "col1": "Springfield, Massachusetts",
        "col2": "Georgia Tech Yellow Jackets men's basketball",
        "col3": "Indiana Pacers"
    },
    {
        "col0": "T. Langdon",
        "col1": "Palo Alto, California",
        "col2": "Duke Blue Devils men's basketball",
        "col3": "Cleveland Cavaliers"
    },
    {
        "col0": "T. Murray",
        "col1": "Los Angeles",
        "col2": "UCLA Bruins men's basketball",
        "col3": "San Antonio Spurs"
    },
    {
        "col0": "T. Jackson",
        "col1": "Rockville, Maryland",
        "col2": "Notre Dame Fighting Irish men's basketball",
        "col3": "Boston Celtics"
    },
    {
        "col0": "T. Suber",
        "col1": "Coatesville, Pennsylvania",
        "col2": "Virginia Cavaliers women's basketball",
        "col3": "Charlotte Sting"
    },
    {
        "col0": "T. Washington",
        "col1": "Opp, Alabama",
        "col2": "Florida Gators women's basketball",
        "col3": "Washington Mystics"
    },
    {
        "col0": "T. Edwards",
        "col1": "Flint, Michigan",
        "col2": "Tennessee Lady Volunteers basketball",
        "col3": "Minnesota Lynx"
    },
    {
        "col0": "T. Zeno",
        "col1": "New Orleans",
        "col2": "Arizona State Sun Devils men's basketball",
        "col3": "Indiana Pacers"
    },
    {
        "col0": "T. Wroten",
        "col1": "Renton, Washington",
        "col2": "Washington Huskies men's basketball",
        "col3": "Memphis Grizzlies"
    },
    {
        "col0": "T. Windis",
        "col1": "New York City",
        "col2": "Wyoming Cowboys basketball",
        "col3": "Detroit Pistons"
    },
    {
        "col0": "T. White",
        "col1": "Charlotte, North Carolina",
        "col2": "Tennessee Volunteers basketball",
        "col3": "Chicago Bulls"
    },
    {
        "col0": "T. Snell",
        "col1": "Watts, Los Angeles",
        "col2": "New Mexico Lobos men's basketball",
        "col3": "Chicago Bulls"
    },
    {
        "col0": "T. Smith",
        "col1": "Wauwatosa, Wisconsin",
        "col2": "Marquette Golden Eagles men's basketball",
        "col3": "Los Angeles Lakers"
    },
    {
        "col0": "T. Price",
        "col1": "New York City",
        "col2": "Penn Quakers men's basketball",
        "col3": "Detroit Pistons"
    },
    {
        "col0": "T. Mitchell",
        "col1": "Milwaukee",
        "col2": "North Texas Mean Green men's basketball",
        "col3": "Detroit Pistons"
    },
    {
        "col0": "T. Massenburg",
        "col1": "Sussex County, Virginia",
        "col2": "Maryland Terrapins men's basketball",
        "col3": "San Antonio Spurs"
    },
    {
        "col0": "T. Lavelli",
        "col1": "Somerville, Massachusetts",
        "col2": "Yale Bulldogs men's basketball",
        "col3": "Boston Celtics"
    },
    {
        "col0": "T. Jackson",
        "col1": "Lexington, Kentucky",
        "col2": "Florida State Seminoles men's basketball",
        "col3": "Los Angeles Lakers"
    },
    {
        "col0": "T. Jackson",
        "col1": "Brooklyn",
        "col2": "St. John's Red Storm men's basketball",
        "col3": "New York Knicks"
    },
    {
        "col0": "T. Hanson",
        "col1": "Waterbury, Connecticut",
        "col2": "Connecticut Huskies men's basketball",
        "col3": "New Orleans Jazz"
    },
    {
        "col0": "T. Fuller",
        "col1": "Detroit",
        "col2": "Pepperdine Waves men's basketball",
        "col3": "Detroit Pistons"
    },
    {
        "col0": "T. Dumas",
        "col1": "Chicago",
        "col2": "UMKC Kangaroos men's basketball",
        "col3": "Dallas Mavericks"
    },
    {
        "col0": "T. Delk",
        "col1": "Covington, Tennessee",
        "col2": "Kentucky Wildcats men's basketball",
        "col3": "Charlotte Hornets"
    },
    {
        "col0": "T. Campbell",
        "col1": "Teaneck, New Jersey",
        "col2": "Ohio State Buckeyes men's basketball",
        "col3": "Detroit Pistons"
    },
    {
        "col0": "T. Brown",
        "col1": "Chicago",
        "col2": "Arkansas Razorbacks men's basketball",
        "col3": "New Jersey Nets"
    },
    {
        "col0": "T. Battie",
        "col1": "Dallas",
        "col2": "Texas Tech Red Raiders men's basketball",
        "col3": "Denver Nuggets"
    },
    {
        "col0": "T. Allen",
        "col1": "Chicago",
        "col2": "Butler Community College",
        "col3": "Boston Celtics"
    },
    {
        "col0": "T. Young",
        "col1": "Del City, Oklahoma",
        "col2": "Oklahoma State Cowgirls basketball",
        "col3": "New York Liberty"
    },
    {
        "col0": "T. Foster",
        "col1": "Memphis, Tennessee",
        "col2": "Iowa Hawkeyes women's basketball",
        "col3": "Phoenix Mercury"
    },
    {
        "col0": "T. Mack",
        "col1": "Tampa, Florida",
        "col2": "Georgia Bulldogs basketball",
        "col3": "Philadelphia 76ers"
    },
    {
        "col0": "T. Douglas",
        "col1": "Tampa, Florida",
        "col2": "Auburn Tigers men's basketball",
        "col3": "Los Angeles Lakers"
    },
    {
        "col0": "T. Smith",
        "col1": "Phoenix, Arizona",
        "col2": "Arizona State Sun Devils men's basketball",
        "col3": "Chicago Bulls"
    },
    {
        "col0": "T. O'Keefe",
        "col1": "Jersey City, New Jersey",
        "col2": "Georgetown Hoyas men's basketball",
        "col3": "Washington Capitols"
    },
    {
        "col0": "T. Kron",
        "col1": "Owensboro, Kentucky",
        "col2": "Kentucky Wildcats men's basketball",
        "col3": "St. Louis Hawks"
    },
    {
        "col0": "T. Kearns",
        "col1": "New York City",
        "col2": "North Carolina Tar Heels men's basketball",
        "col3": "Syracuse Nationals"
    },
    {
        "col0": "T. Curtis",
        "col1": "Tampa, Florida",
        "col2": "UCLA Bruins men's basketball",
        "col3": "Buffalo Braves"
    }
]