[
    {
        "col0": "J. Chitwood",
        "col1": "United States",
        "col2": "Tampa, Florida",
        "col3": "0"
    },
    {
        "col0": "J. McDowell",
        "col1": "United States",
        "col2": "Milwaukee",
        "col3": "0"
    },
    {
        "col0": "J. Tolan",
        "col1": "United States",
        "col2": "Redondo Beach, California",
        "col3": "0"
    },
    {
        "col0": "J. James",
        "col1": "United Kingdom",
        "col2": "St. Julian's",
        "col3": "0"
    },
    {
        "col0": "J. James",
        "col1": "United States",
        "col2": "San Jose, California",
        "col3": "0"
    },
    {
        "col0": "J. Bonnier",
        "col1": "Sweden",
        "col2": "Le Mans",
        "col3": "1"
    },
    {
        "col0": "J. Stewart",
        "col1": "United Kingdom",
        "col2": "Helensburgh",
        "col3": "0"
    },
    {
        "col0": "J. Reece",
        "col1": "United States",
        "col2": "Trenton, New Jersey",
        "col3": "0"
    },
    {
        "col0": "J. Jackson",
        "col1": "United States",
        "col2": "Desert Hot Springs, California",
        "col3": "0"
    },
    {
        "col0": "J. Rigsby",
        "col1": "United States",
        "col2": "Dayton, Ohio",
        "col3": "0"
    },
    {
        "col0": "J. Rathmann",
        "col1": "United States",
        "col2": "Melbourne, Florida",
        "col3": "1"
    },
    {
        "col0": "J. Clark",
        "col1": "1967 British Grand Prix",
        "col2": "Hockenheimring",
        "col3": "25"
    },
    {
        "col0": "J. U. Jr.",
        "col1": "United States",
        "col2": "Indianapolis",
        "col3": "0"
    },
    {
        "col0": "J. Holmes",
        "col1": "United States",
        "col2": "Indianapolis",
        "col3": "0"
    },
    {
        "col0": "J. Turner",
        "col1": "United States",
        "col2": "Renton, Washington",
        "col3": "0"
    },
    {
        "col0": "J. McGrath",
        "col1": "United States",
        "col2": "Phoenix, Arizona",
        "col3": "0"
    },
    {
        "col0": "J. Fairman",
        "col1": "British Grand Prix",
        "col2": "Rugby, Warwickshire",
        "col3": "0"
    },
    {
        "col0": "I. Ireland",
        "col1": "United Kingdom",
        "col2": "Reading, Berkshire",
        "col3": "1"
    },
    {
        "col0": "I. Raby",
        "col1": "United Kingdom",
        "col2": "London Borough of Lambeth",
        "col3": "0"
    },
    {
        "col0": "H. Lang",
        "col1": "Germany",
        "col2": "Stuttgart",
        "col3": "0"
    },
    {
        "col0": "H. Banks",
        "col1": "United States",
        "col2": "Indianapolis",
        "col3": "0"
    },
    {
        "col0": "H. Walter",
        "col1": "Switzerland",
        "col2": "Aesch, Basel-Landschaft",
        "col3": "0"
    },
    {
        "col0": "H. Sharp",
        "col1": "United States",
        "col2": "San Martin de los Andes",
        "col3": "0"
    },
    {
        "col0": "H. Stuck",
        "col1": "Germany",
        "col2": "Grainau",
        "col3": "0"
    },
    {
        "col0": "G. Mairesse",
        "col1": "1951 French Grand Prix",
        "col2": "Montlhery",
        "col3": "0"
    },
    {
        "col0": "G. Nilsson",
        "col1": "Sweden",
        "col2": "London",
        "col3": "1"
    },
    {
        "col0": "G. Whitehead",
        "col1": "United Kingdom",
        "col2": "West Berkshire",
        "col3": "0"
    },
    {
        "col0": "G. Hill",
        "col1": "United Kingdom",
        "col2": "Arkley",
        "col3": "14"
    },
    {
        "col0": "G. Villeneuve",
        "col1": "Canadians",
        "col2": "Leuven",
        "col3": "6"
    },
    {
        "col0": "G. Mitter",
        "col1": "Germany",
        "col2": "Nurburgring",
        "col3": "0"
    },
    {
        "col0": "G. Connor",
        "col1": "United States",
        "col2": "Hesperia, California",
        "col3": "0"
    },
    {
        "col0": "G. Amick",
        "col1": "United States",
        "col2": "Daytona Beach, Florida",
        "col3": "0"
    },
    {
        "col0": "G. Crossley",
        "col1": "United Kingdom",
        "col2": "Headington",
        "col3": "0"
    },
    {
        "col0": "F. Armi",
        "col1": "United States",
        "col2": "Hanford, California",
        "col3": "0"
    },
    {
        "col0": "E. Bauer",
        "col1": "Germany",
        "col2": "Cologne",
        "col3": "0"
    },
    {
        "col0": "E. McCoy",
        "col1": "United States",
        "col2": "Port Orange, Florida",
        "col3": "0"
    },
    {
        "col0": "E. Andres",
        "col1": "United States",
        "col2": "South Holland, Illinois",
        "col3": "0"
    },
    {
        "col0": "E. George",
        "col1": "United States",
        "col2": "Terre Haute, Indiana",
        "col3": "0"
    },
    {
        "col0": "E. Elisian",
        "col1": "United States",
        "col2": "Milwaukee",
        "col3": "0"
    },
    {
        "col0": "D. Dinsmore",
        "col1": "United States",
        "col2": "Fort Lauderdale, Florida",
        "col3": "0"
    },
    {
        "col0": "D. Pironi",
        "col1": "France",
        "col2": "Isle of Wight",
        "col3": "3"
    },
    {
        "col0": "D. Titterington",
        "col1": "United Kingdom",
        "col2": "Dundee",
        "col3": "0"
    },
    {
        "col0": "D. Poore",
        "col1": "United Kingdom",
        "col2": "London",
        "col3": "0"
    },
    {
        "col0": "D. Wilson",
        "col1": "United States",
        "col2": "Los Angeles",
        "col3": "0"
    },
    {
        "col0": "D. Prophet",
        "col1": "United Kingdom",
        "col2": "Silverstone",
        "col3": "0"
    },
    {
        "col0": "C. Harrison",
        "col1": "United Kingdom",
        "col2": "Sheffield",
        "col3": "0"
    },
    {
        "col0": "C. Griffith",
        "col1": "United States",
        "col2": "Rochester, Indiana",
        "col3": "0"
    },
    {
        "col0": "C. Biondetti",
        "col1": "Italy",
        "col2": "Florence",
        "col3": "0"
    },
    {
        "col0": "C. Daigh",
        "col1": "United States",
        "col2": "Newport Beach, California",
        "col3": "0"
    },
    {
        "col0": "C. Arnold",
        "col1": "United States",
        "col2": "Santa Ana, California",
        "col3": "0"
    },
    {
        "col0": "C. Lawrence",
        "col1": "United Kingdom",
        "col2": "Herefordshire",
        "col3": "0"
    },
    {
        "col0": "C. Miller",
        "col1": "United States",
        "col2": "Indianapolis",
        "col3": "0"
    }
]