[
    {
        "col0": "D. Brown",
        "col1": "1955-07-31",
        "col2": "1955-07-31",
        "col3": "1-2 (NCAA D-I Baseball Tournament)"
    },
    {
        "col0": "D. Julian",
        "col1": "1901-04-05",
        "col2": "1901-04-05",
        "col3": "0-2 (NIT)"
    },
    {
        "col0": "D. Carlson",
        "col1": "1894-07-04",
        "col2": "1894-07-04",
        "col3": "1-1"
    },
    {
        "col0": "D. Babers",
        "col1": "1961-07-19",
        "col2": "1961-07-19",
        "col3": "1-2 (NCAA D-I playoffs)"
    },
    {
        "col0": "D. Zornes",
        "col1": "1944-6-15",
        "col2": "1944-6-15",
        "col3": "1-2 (NCAA D-I-AA playoffs)"
    },
    {
        "col0": "D. Sheridan",
        "col1": "1941-08-09",
        "col2": "1941-08-09",
        "col3": "3-3 (NCAA D-I-AA playoffs)"
    },
    {
        "col0": "D. MacPherson",
        "col1": "1930-11-04",
        "col2": "1930-11-04",
        "col3": "0-1 (NCAA Division II playoffs)"
    },
    {
        "col0": "D. Bennett",
        "col1": "1943-04-20",
        "col2": "1943-04-20",
        "col3": ")"
    },
    {
        "col0": "D. Johnson",
        "col1": "1958-10-17",
        "col2": "1958-10-17",
        "col3": "1-1 (I-AA playoffs)"
    },
    {
        "col0": "D. Erickson",
        "col1": "1947-03-24",
        "col2": "1947-03-24",
        "col3": "1-2 (NCAA D-I-AA playoffs)"
    },
    {
        "col0": "D. Douds",
        "col1": "1941-02-16",
        "col2": "1941-02-16",
        "col3": "4-4 (NCAA D-II playoffs)"
    },
    {
        "col0": "D. Kreps",
        "col1": "1961-12-13",
        "col2": "1961-12-13",
        "col3": "0-3 (NCAA D-III playoffs)"
    },
    {
        "col0": "D. Hood",
        "col1": "1963-11-15",
        "col2": "1963-11-15",
        "col3": "0-3 (NCAA D-I playoffs)"
    },
    {
        "col0": "D. Esquer",
        "col1": "1965-04-13",
        "col2": "1965-04-13",
        "col3": "NCAA: 8-9"
    },
    {
        "col0": "D. Dean",
        "col1": "1964-02-03",
        "col2": "1964-02-03",
        "col3": "12-4 (NCAA D-II playoffs)"
    },
    {
        "col0": "D. Carter",
        "col1": "1967-03-12",
        "col2": "1967-03-12",
        "col3": "NIT: 3-2"
    },
    {
        "col0": "D. Bennett",
        "col1": "1961-12-02",
        "col2": "1961-12-02",
        "col3": "0-2 (NCAA D-I playoffs)"
    },
    {
        "col0": "D. Bailiff",
        "col1": "1958-05-26",
        "col2": "1958-05-26",
        "col3": "2-1 (NCAA D-I-AA playoffs)"
    },
    {
        "col0": "D. Whitney",
        "col1": "1930-01-08",
        "col2": "1930-01-08",
        "col3": "10-5 (NAIA D-I)"
    },
    {
        "col0": "D. Tollett",
        "col1": "1966-03-30",
        "col2": "1966-03-30",
        "col3": "A-Sun: 8-10"
    },
    {
        "col0": "D. Strack",
        "col1": "1923-03-02",
        "col2": "1923-03-02",
        "col3": "7-3  (NCAA)"
    },
    {
        "col0": "D. Rose",
        "col1": "1957-12-19",
        "col2": "1957-12-19",
        "col3": "NCAA: 4-8 ()"
    },
    {
        "col0": "D. Roberts",
        "col1": "1947-02-28",
        "col2": "1947-02-28",
        "col3": "2-4 (NCAA D-I-AA playoffs)"
    },
    {
        "col0": "D. Maurer",
        "col1": "1932-03-18",
        "col2": "1932-03-18",
        "col3": "9-2 (NCAA D-III playoffs)"
    },
    {
        "col0": "D. Kragthorpe",
        "col1": "1933-05-01",
        "col2": "1933-05-01",
        "col3": "3-0 (NCAA D-I-AA playoffs)"
    },
    {
        "col0": "D. Holmes",
        "col1": "1924-01-07",
        "col2": "1924-01-07",
        "col3": "1-1 (NAIA playoffs)"
    },
    {
        "col0": "D. Bliss",
        "col1": "1943-09-20",
        "col2": "1943-09-20",
        "col3": "8-11 (NCAA NCAA Tournament) ()"
    },
    {
        "col0": "D. Arnold",
        "col1": "1944-09-17",
        "col2": "1944-09-17",
        "col3": "3-0 (NCAA D-I-AA playoffs)"
    },
    {
        "col0": "D. Barbier",
        "col1": "1960-12-19",
        "col2": "1960-12-19",
        "col3": "0-1 (NCAA D-I-AA playoffs)"
    },
    {
        "col0": "D. Mudra",
        "col1": "1929-01-14",
        "col2": "1929-01-14",
        "col3": "4-3 (NCAA D-I-AA playoffs)"
    },
    {
        "col0": "D. Asberry",
        "col1": "1972-02-12",
        "col2": "1972-02-12",
        "col3": "0-2 (NCAA D-II playoffs)"
    },
    {
        "col0": "D. Nee",
        "col1": "1945-06-18",
        "col2": "1945-06-18",
        "col3": "12-5 (NIT)"
    },
    {
        "col0": "D. Hope",
        "col1": "1959-01-07",
        "col2": "1959-01-07",
        "col3": "0-1 (NCAA D-I playoffs)"
    },
    {
        "col0": "D. Hale",
        "col1": "1946-12-29",
        "col2": "1946-12-29",
        "col3": "7-9 (NCAA D-II playoffs)"
    },
    {
        "col0": "D. Altman",
        "col1": "1958-06-16",
        "col2": "1958-06-16",
        "col3": "(NCAA): 9-11 (NIT): 9-9  (CIT): 2-1 (CBI): 5-1"
    },
    {
        "col0": "D. Kratzer",
        "col1": "1949-07-07",
        "col2": "1949-07-07",
        "col3": "0-1 (NAIA playoffs)"
    },
    {
        "col0": "D. Hayden",
        "col1": "1984-05-29",
        "col2": "1984-05-29",
        "col3": "MAC: 2-4"
    },
    {
        "col0": "D. Hawkins",
        "col1": "1960-11-10",
        "col2": "1960-11-10",
        "col3": "4-2 (NAIA playoffs)"
    },
    {
        "col0": "D. Hartleb",
        "col1": "1966-02-15",
        "col2": "1966-02-15",
        "col3": "Big Ten: 10-14"
    },
    {
        "col0": "D. Allen",
        "col1": "1955-12-07",
        "col2": "1955-12-07",
        "col3": "1-2 (NCAA D-I-AA playoffs)"
    },
    {
        "col0": "D. Lennon",
        "col1": "1960-12-13",
        "col2": "1960-12-13",
        "col3": "0-1 (NAIA playoffs)"
    },
    {
        "col0": "C. Cignetti",
        "col1": "1961-06-02",
        "col2": "1961-06-02",
        "col3": "3-2"
    },
    {
        "col0": "C. Schurig",
        "col1": "1965-03-02",
        "col2": "1965-03-02",
        "col3": "1-3 (NCAA D-II playoffs)"
    },
    {
        "col0": "C. Rundle",
        "col1": "1952-02-01",
        "col2": "1952-02-01",
        "col3": "0-5 (NCAA D-III playoffs)"
    },
    {
        "col0": "C. Cozart",
        "col1": "1974-03-12",
        "col2": "1974-03-12",
        "col3": "Big South: 10-13"
    },
    {
        "col0": "C. Bohl",
        "col1": "1958-07-27",
        "col2": "1958-07-27",
        "col3": "13-1 (NCAA D-I playoffs)"
    },
    {
        "col0": "C. Maynor",
        "col1": "1969-01-21",
        "col2": "1969-01-21",
        "col3": "6-3 (NCAA D-II playoffs)"
    },
    {
        "col0": "C. Carthel",
        "col1": "1976-08-29",
        "col2": "1976-08-29",
        "col3": "0-1 (NCAA D-II playoffs)"
    },
    {
        "col0": "C. Reed",
        "col1": "1965-04-12",
        "col2": "1965-04-12",
        "col3": "0-1 (NIT)"
    },
    {
        "col0": "C. Godwin",
        "col1": "1978-02-02",
        "col2": "1978-02-02",
        "col3": "American: 4-2"
    },
    {
        "col0": "C. Bee",
        "col1": "1896-03-02",
        "col2": "1896-03-02",
        "col3": "NIT: 6-5 ()"
    },
    {
        "col0": "C. Mills",
        "col1": "1928-12-01",
        "col2": "1928-12-01",
        "col3": "0-1 (NCAA D-III playoffs)"
    },
    {
        "col0": "C. Martin",
        "col1": "1968-01-08",
        "col2": "1968-01-08",
        "col3": "16-4 (NCAA D-II playoffs)"
    },
    {
        "col0": "C. Klausing",
        "col1": "1925-04-19",
        "col2": "1925-04-19",
        "col3": "2-4 (NCAA D-III playoffs)"
    },
    {
        "col0": "C. Driesell",
        "col1": "1962-11-03",
        "col2": "1962-11-03",
        "col3": "0-1 (NCAA D-III)"
    },
    {
        "col0": "C. Broyles",
        "col1": "1947-02-05",
        "col2": "1947-02-05",
        "col3": "19-14 (NCAA D-II playoffs)"
    },
    {
        "col0": "C. Thomsen",
        "col1": "1970-0-0",
        "col2": "1970-0-0",
        "col3": "2-5 (1 win vacated)"
    },
    {
        "col0": "C. Mack",
        "col1": "1969-12-30",
        "col2": "1969-12-30",
        "col3": "NCAA: 7-6 ()"
    },
    {
        "col0": "C. Klieman",
        "col1": "1967-09-27",
        "col2": "1967-09-27",
        "col3": "8-0 (NCAA D-I playoffs)"
    },
    {
        "col0": "C. Holtmann",
        "col1": "1971-1-1",
        "col2": "1971-1-1",
        "col3": "(CIT): 0-1  ()"
    },
    {
        "col0": "C. Hatcher",
        "col1": "1973-02-18",
        "col2": "1973-02-18",
        "col3": "8-5 (NCAA D-II playoffs)"
    },
    {
        "col0": "C. Creighton",
        "col1": "1969-02-07",
        "col2": "1969-02-07",
        "col3": "0-2 (NAIA playoffs)"
    },
    {
        "col0": "C. Beard",
        "col1": "1973-02-18",
        "col2": "1973-02-18",
        "col3": "1-1 (NCAA Division I)"
    }
]