[
    {
        "col0": "What a Way to Go!",
        "col1": "G. Kelly",
        "col2": "A. Green",
        "col3": "6660"
    },
    {
        "col0": "What a Night!",
        "col1": "B. Daniels",
        "col2": "H. J. Mankiewicz",
        "col3": "3600"
    },
    {
        "col0": "What a Man",
        "col1": "S. Kekilli",
        "col2": "M. Schweighofer",
        "col3": "5640"
    },
    {
        "col0": "What a Man",
        "col1": "R. Denny",
        "col2": "H. Gates",
        "col3": "4320"
    },
    {
        "col0": "What a Man!",
        "col1": "J. Downs",
        "col2": "W. Beaudine",
        "col3": "4020"
    },
    {
        "col0": "What a Man!",
        "col1": "S. Howard",
        "col2": "B. Mason",
        "col3": "4440"
    },
    {
        "col0": "What a Life",
        "col1": "H. Hopper",
        "col2": "B. Wilder",
        "col3": "4500"
    },
    {
        "col0": "What a Girl Wants",
        "col1": "A. Bynes",
        "col2": "J. Bicks",
        "col3": "6300"
    },
    {
        "col0": "What a Distinguished Family",
        "col1": "A. Noris",
        "col2": "M. Bonnard",
        "col3": "4680"
    },
    {
        "col0": "What a Carve Up!",
        "col1": "S. James",
        "col2": "R. Cooney",
        "col3": "5220"
    },
    {
        "col0": "What a Beautiful Surprise",
        "col1": "C. Bisio",
        "col2": "A. Genovesi",
        "col3": "5460"
    },
    {
        "col0": "What a Beautiful Day",
        "col1": "C. Zalone",
        "col2": "C. Zalone",
        "col3": "5820"
    },
    {
        "col0": "What You Mean We?",
        "col1": "L. Anderson",
        "col2": "L. Anderson",
        "col3": "1200"
    },
    {
        "col0": "What Would You Do, Chums?",
        "col1": "C. Chamberlain",
        "col2": "G. Orme",
        "col3": "4500"
    },
    {
        "col0": "What Women Dream",
        "col1": "N. Gregor",
        "col2": "B. Wilder",
        "col3": "5400"
    },
    {
        "col0": "What Will Happen to Us",
        "col1": "E. Germano",
        "col2": "G. Veronesi",
        "col3": "6000"
    },
    {
        "col0": "What War May Bring",
        "col1": "A. Aimee",
        "col2": "C. Lelouch",
        "col3": "7200"
    },
    {
        "col0": "What Waits Below",
        "col1": "T. Bottoms",
        "col2": "C. Marx",
        "col3": "5280"
    },
    {
        "col0": "What Time Is It There?",
        "col1": "L. Kang-sheng",
        "col2": "T. Ming-liang",
        "col3": "6960"
    },
    {
        "col0": "What Time Is It?",
        "col1": "M. Mastroianni",
        "col2": "E. Scola",
        "col3": "5820"
    },
    {
        "col0": "What Scoundrels Men Are!",
        "col1": "W. Chiari",
        "col2": "F. Scarpelli",
        "col3": "5700"
    },
    {
        "col0": "What Scoundrels Men Are!",
        "col1": "V. D. Sica",
        "col2": "M. Camerini",
        "col3": "4020"
    },
    {
        "col0": "What Remains of Us",
        "col1": "D. Lama",
        "col2": "F. Prevost",
        "col3": "4620"
    },
    {
        "col0": "What Price Innocence?",
        "col1": "B. Alexander",
        "col2": "W. Mack",
        "col3": "3840"
    },
    {
        "col0": "What Price Hollywood?",
        "col1": "C. Bennett",
        "col2": "B. Markson",
        "col3": "5280"
    },
    {
        "col0": "What Price Glory",
        "col1": "C. Calvet",
        "col2": "H. Ephron",
        "col3": "6660"
    },
    {
        "col0": "What Price Glory?",
        "col1": "D. d. Rio",
        "col2": "M. S. Boylan",
        "col3": "6960"
    },
    {
        "col0": "What Planet Are You From?",
        "col1": "B. Kingsley",
        "col2": "E. Solomon",
        "col3": "6300"
    },
    {
        "col0": "What Now",
        "col1": "J. Star",
        "col2": "A. Avildsen",
        "col3": "6000"
    },
    {
        "col0": "What Now? Remind Me",
        "col1": "J. Pinto",
        "col2": "J. Pinto",
        "col3": "9840"
    },
    {
        "col0": "What Next, Corporal Hargrove?",
        "col1": "R. Walker",
        "col2": "H. Kurnitz",
        "col3": "5700"
    },
    {
        "col0": "What Money Can't Buy",
        "col1": "J. Pickford",
        "col2": "B. M. Dix",
        "col3": "3000"
    },
    {
        "col0": "What Men Want",
        "col1": "B. Kent",
        "col2": "J. B. Clymer",
        "col3": "3900"
    },
    {
        "col0": "What Madness!",
        "col1": "E. Penella",
        "col2": "A. Ozores",
        "col3": "5100"
    },
    {
        "col0": "What Love Is",
        "col1": "S. Astin",
        "col2": "M. Callahan",
        "col3": "5280"
    },
    {
        "col0": "What Lies Beneath",
        "col1": "D. Scarwid",
        "col2": "C. Gregg",
        "col3": "7800"
    },
    {
        "col0": "What Just Happened",
        "col1": "B. Willis",
        "col2": "A. Linson",
        "col3": "6240"
    },
    {
        "col0": "What Iva Recorded",
        "col1": "I. Gregurevic",
        "col2": "O. Svilicic",
        "col3": "5520"
    },
    {
        "col0": "What Is a Man Without a Moustache?",
        "col1": "I. Gregurevic",
        "col2": "A. Tomic",
        "col3": "6540"
    },
    {
        "col0": "What Is It?",
        "col1": "C. Glover",
        "col2": "C. Glover",
        "col3": "4320"
    },
    {
        "col0": "What Have I Done to Deserve This?",
        "col1": "V. Forque",
        "col2": "P. Almodovar",
        "col3": "6060"
    },
    {
        "col0": "What Has That Woman Done to You?",
        "col1": "P. Infante",
        "col2": "I. Rodriguez",
        "col3": "6000"
    },
    {
        "col0": "What Happens in Vegas",
        "col1": "C. Diaz",
        "col2": "D. Fox",
        "col3": "5940"
    },
    {
        "col0": "What Happened to Jones",
        "col1": "O. Harlan",
        "col2": "M. W. Brown",
        "col3": "4200"
    },
    {
        "col0": "What Happened to Harkness?",
        "col1": "J. Finlayson",
        "col2": "R. Brown",
        "col3": "3180"
    },
    {
        "col0": "What Happened Was",
        "col1": "T. Noonan",
        "col2": "T. Noonan",
        "col3": "5460"
    },
    {
        "col0": "What Happened Then?",
        "col1": "R. Bird",
        "col2": "W. Summers",
        "col3": "3720"
    },
    {
        "col0": "What Goes Up",
        "col1": "H. Duff",
        "col2": "R. Lawson",
        "col3": "6420"
    },
    {
        "col0": "What Fools Men",
        "col1": "L. Stone",
        "col2": "E. Unsell",
        "col3": "4800"
    },
    {
        "col0": "What Every Woman Wants",
        "col1": "B. D. Banzie",
        "col2": "T. Rothwell",
        "col3": "5160"
    },
    {
        "col0": "What Every Woman Knows",
        "col1": "H. Hayes",
        "col2": "J. K. McGuinness",
        "col3": "-5520"
    },
    {
        "col0": "What Ever Happened to Baby Toto?",
        "col1": "Toto",
        "col2": "B. Corbucci",
        "col3": "6060"
    },
    {
        "col0": "What Ever Happened to Baby Jane?",
        "col1": "B. Davis",
        "col2": "L. Heller",
        "col3": "7980"
    },
    {
        "col0": "What Dreams May Come",
        "col1": "A. Sciorra",
        "col2": "R. Bass",
        "col3": "6780"
    },
    {
        "col0": "What Did the Lady Forget?",
        "col1": "S. Kurishima",
        "col2": "Y. Ozu",
        "col3": "4260"
    },
    {
        "col0": "What Did You Do in the War, Thanasi?",
        "col1": "K. Gogou",
        "col2": "D. Katsouridis",
        "col3": "5100"
    },
    {
        "col0": "What Did You Do in the War, Daddy?",
        "col1": "C. O'Connor",
        "col2": "W. P. Blatty",
        "col3": "6960"
    },
    {
        "col0": "What Changed Charley Farthing?",
        "col1": "H. Mills",
        "col2": "J. Harris",
        "col3": "6540"
    },
    {
        "col0": "What Can Not Be Forgiven",
        "col1": "M. E. Marques",
        "col2": "R. Rodriguez",
        "col3": "5400"
    },
    {
        "col0": "What Becomes of the Broken Hearted?",
        "col1": "J. Arahanga",
        "col2": "A. Duff",
        "col3": "5880"
    },
    {
        "col0": "What Am I for Momotaro",
        "col1": "N. Ohara",
        "col2": "F. Fujio",
        "col3": "2760"
    },
    {
        "col0": "What Am I Doing in the Middle of a Revolution?",
        "col1": "P. Villaggio",
        "col2": "S. Corbucci",
        "col3": "6180"
    },
    {
        "col0": "What About Bob?",
        "col1": "R. Dreyfuss",
        "col2": "T. Schulman",
        "col3": "5880"
    },
    {
        "col0": "What, No Men!",
        "col1": "E. Brendel",
        "col2": "P. G. Smith",
        "col3": "1260"
    },
    {
        "col0": "What's the Worst That Could Happen?",
        "col1": "M. Lawrence",
        "col2": "M. Chapman",
        "col3": "5640"
    },
    {
        "col0": "What's the Matter with Helen?",
        "col1": "A. Moorehead",
        "col2": "H. Farrell",
        "col3": "6060"
    },
    {
        "col0": "What's the Matador?",
        "col1": "C. Howard",
        "col2": "J. White",
        "col3": "976"
    },
    {
        "col0": "What's Wrong with the Women?",
        "col1": "C. Bennett",
        "col2": "D. C. Goodman",
        "col3": "4200"
    },
    {
        "col0": "What's Worth While?",
        "col1": "C. Windsor",
        "col2": "L. Weber",
        "col3": "3600"
    },
    {
        "col0": "What's Up Superdoc!",
        "col1": "H. Green",
        "col2": "D. Ford",
        "col3": "5340"
    },
    {
        "col0": "What's Up, Tiger Lily?",
        "col1": "W. Allen",
        "col2": "W. Allen",
        "col3": "4800"
    },
    {
        "col0": "What's Up, Doc?",
        "col1": "B. Streisand",
        "col2": "P. Bogdanovich",
        "col3": "5640"
    },
    {
        "col0": "What's So Bad About Feeling Good?",
        "col1": "D. DeLuise",
        "col2": "R. Pirosh",
        "col3": "5640"
    },
    {
        "col0": "What's New Pussycat?",
        "col1": "P. O'Toole",
        "col2": "W. Allen",
        "col3": "6480"
    },
    {
        "col0": "What's Love Got to Do with It",
        "col1": "A. Bassett",
        "col2": "K. Lanier",
        "col3": "7080"
    },
    {
        "col0": "What's Good for the Goose",
        "col1": "N. Wisdom",
        "col2": "M. Golan",
        "col3": "5880"
    },
    {
        "col0": "What's Eating Gilbert Grape",
        "col1": "J. Depp",
        "col2": "P. Hedges",
        "col3": "7080"
    },
    {
        "col0": "What's Cooking?",
        "col1": "J. Chen",
        "col2": "G. Chadha",
        "col3": "6540"
    },
    {
        "col0": "What's Cookin'?",
        "col1": "G. Jean",
        "col2": "J. Cady",
        "col3": "4140"
    },
    {
        "col0": "What's Autumn?",
        "col1": "A. Alcon",
        "col2": "D. J. Kohon",
        "col3": "6900"
    },
    {
        "col0": "What?",
        "col1": "D. Hallervorden",
        "col2": "R. Polanski",
        "col3": "6600"
    },
    {
        "col0": "Wharf Angel",
        "col1": "P. Foster",
        "col2": "S. M. Avery",
        "col3": "3900"
    },
    {
        "col0": "Wham Bam Slam",
        "col1": "L. Fine",
        "col2": "F. Adler",
        "col3": "954"
    },
    {
        "col0": "Whale Rider",
        "col1": "W. Rider",
        "col2": "N. Caro",
        "col3": "6060"
    },
    {
        "col0": "Whale Music",
        "col1": "P. Gross",
        "col2": "P. Quarrington",
        "col3": "6420"
    },
    {
        "col0": "Wetlands",
        "col1": "L. Picard",
        "col2": "G. Edoin",
        "col3": "6660"
    },
    {
        "col0": "Wetherby",
        "col1": "I. Holm",
        "col2": "D. Hare",
        "col3": "6120"
    },
    {
        "col0": "Wet Paint",
        "col1": "B. Washburn",
        "col2": "L. Corrigan",
        "col3": "3600"
    },
    {
        "col0": "Wet Hot American Summer",
        "col1": "P. Rudd",
        "col2": "M. Showalter",
        "col3": "5820"
    },
    {
        "col0": "Westworld",
        "col1": "R. Benjamin",
        "col2": "M. Crichton",
        "col3": "5280"
    },
    {
        "col0": "Westward the Women",
        "col1": "R. Taylor",
        "col2": "C. Schnee",
        "col3": "7080"
    },
    {
        "col0": "Westward Passage",
        "col1": "I. Pichel",
        "col2": "H. Pearson",
        "col3": "4380"
    },
    {
        "col0": "Westward Ho the Wagons!",
        "col1": "F. Parker",
        "col2": "M. J. Carr",
        "col3": "5400"
    },
    {
        "col0": "Westward Ho",
        "col1": "B. Steele",
        "col2": "W. C. MacDonald",
        "col3": "3360"
    },
    {
        "col0": "Westward Ho",
        "col1": "J. Wayne",
        "col2": "L. Parsons",
        "col3": "3660"
    },
    {
        "col0": "Westler",
        "col1": "R. Strecker",
        "col2": "W. Speck",
        "col3": "5640"
    },
    {
        "col0": "Western Union",
        "col1": "D. Jagger",
        "col2": "R. Carson",
        "col3": "5400"
    },
    {
        "col0": "Western Religion",
        "col1": "P. Shinkoda",
        "col2": "J. O'Brien",
        "col3": "6300"
    },
    {
        "col0": "Western Mail",
        "col1": "T. Keene",
        "col2": "G. Kaus",
        "col3": "3240"
    },
    {
        "col0": "Western Justice",
        "col1": "B. Steele",
        "col2": "R. N. Bradbury",
        "col3": "3360"
    },
    {
        "col0": "Western Jamboree",
        "col1": "G. Autry",
        "col2": "G. Geraghty",
        "col3": "3360"
    },
    {
        "col0": "Western",
        "col1": "Sergi Lopez i Ayats",
        "col2": "M. Poirier",
        "col3": "8160"
    },
    {
        "col0": "Westbound Mail",
        "col1": "C. Starrett",
        "col2": "J. P. Hogan",
        "col3": "3600"
    },
    {
        "col0": "West of the Pecos",
        "col1": "R. Mitchum",
        "col2": "Z. Grey",
        "col3": "3960"
    },
    {
        "col0": "West of the Pecos",
        "col1": "R. Dix",
        "col2": "M. Krims",
        "col3": "4200"
    },
    {
        "col0": "West of Zanzibar",
        "col1": "L. Barrymore",
        "col2": "E. J. Clawson",
        "col3": "3900"
    },
    {
        "col0": "West of Suez",
        "col1": "K. Brasselle",
        "col2": "N. Hudis",
        "col3": "4440"
    },
    {
        "col0": "West of Shanghai",
        "col1": "R. Cortez",
        "col2": "C. Wilbur",
        "col3": "3840"
    },
    {
        "col0": "West of Nevada",
        "col1": "A. S. John",
        "col2": "R. F. Hill",
        "col3": "3420"
    },
    {
        "col0": "West of Memphis",
        "col1": "W. M. Three",
        "col2": "A. J. Berg",
        "col3": "8820"
    },
    {
        "col0": "West of Hot Dog",
        "col1": "S. Laurel",
        "col2": "T. Garnett",
        "col3": "1800"
    },
    {
        "col0": "West of Cimarron",
        "col1": "B. Steele",
        "col2": "W. C. MacDonald",
        "col3": "3360"
    },
    {
        "col0": "West of Broadway",
        "col1": "E. Brendel",
        "col2": "G. Markey",
        "col3": "4380"
    },
    {
        "col0": "West of Broadway",
        "col1": "P. Dean",
        "col2": "J. Cunningham",
        "col3": "3480"
    },
    {
        "col0": "West and Soda",
        "col1": "C. Romano",
        "col2": "B. Bozzetto",
        "col3": "5160"
    },
    {
        "col0": "West Side Story",
        "col1": "N. Wood",
        "col2": "E. Lehman",
        "col3": "9120"
    },
    {
        "col0": "West Point of the Air",
        "col1": "W. Beery",
        "col2": "F. Wead",
        "col3": "5340"
    },
    {
        "col0": "West Point Widow",
        "col1": "R. Carlson",
        "col2": "H. Kraly",
        "col3": "3780"
    },
    {
        "col0": "West Point",
        "col1": "J. Crawford",
        "col2": "J. Farnham",
        "col3": "5700"
    },
    {
        "col0": "West Is West",
        "col1": "O. Puri",
        "col2": "A. Khan-Din",
        "col3": "6180"
    },
    {
        "col0": "West Is Best",
        "col1": "H. Gibson",
        "col2": "H. Gates",
        "col3": "1200"
    },
    {
        "col0": "West Beirut",
        "col1": "M. Chamas",
        "col2": "Z. Doueiri",
        "col3": "6300"
    },
    {
        "col0": "West Bank Story",
        "col1": "N. DeWulf",
        "col2": "A. Sandel",
        "col3": "1260"
    },
    {
        "col0": "West 32nd",
        "col1": "J. Cho",
        "col2": "M. Kang",
        "col3": "5160"
    },
    {
        "col0": "West 11",
        "col1": "D. Dors",
        "col2": "W. Hall",
        "col3": "5580"
    },
    {
        "col0": "West",
        "col1": "J. Ido",
        "col2": "J. Franck",
        "col3": "6120"
    },
    {
        "col0": "West",
        "col1": "K. Chittenden",
        "col2": "D. Krige",
        "col3": "5940"
    },
    {
        "col0": "Wesley",
        "col1": "K. McCarthy",
        "col2": "J. Jackman",
        "col3": "7020"
    },
    {
        "col0": "Wes Craven's New Nightmare",
        "col1": "J. Saxon",
        "col2": "W. Craven",
        "col3": "6720"
    },
    {
        "col0": "Werner Herzog Eats His Shoe",
        "col1": "A. Waters",
        "col2": "W. Herzog",
        "col3": "1260"
    },
    {
        "col0": "Werewolf of London",
        "col1": "V. Hobson",
        "col2": "J. Colton",
        "col3": "4500"
    },
    {
        "col0": "Werewolf in a Girls' Dormitory",
        "col1": "B. Lass",
        "col2": "E. Gastaldi",
        "col3": "4920"
    },
    {
        "col0": "Werewolf Woman",
        "col1": "F. Stafford",
        "col2": "H. Ross",
        "col3": "4740"
    },
    {
        "col0": "Werewolf Rising",
        "col1": "B. O. Jr.",
        "col2": "B. Furtney",
        "col3": "4680"
    },
    {
        "col0": "Werckmeister Harmonies",
        "col1": "H. Schygulla",
        "col2": "L. Krasznahorkai",
        "col3": "8700"
    },
    {
        "col0": "Went the Day Well?",
        "col1": "L. Banks",
        "col2": "G. Greene",
        "col3": "5520"
    },
    {
        "col0": "Wendy and Lucy",
        "col1": "M. Williams",
        "col2": "J. Raymond",
        "col3": "4800"
    },
    {
        "col0": "Wendigo",
        "col1": "P. Clarkson",
        "col2": "L. Fessenden",
        "col3": "5460"
    },
    {
        "col0": "Wells in Flames",
        "col1": "G. Rigaud",
        "col2": "G. Menzel",
        "col3": "5100"
    },
    {
        "col0": "Wells Fargo",
        "col1": "J. McCrea",
        "col2": "F. J. Jackson",
        "col3": "5820"
    },
    {
        "col0": "Well Wishes",
        "col1": "S. Callahan",
        "col2": "A. Boyd",
        "col3": "5640"
    },
    {
        "col0": "Well Done Abba",
        "col1": "B. Irani",
        "col2": "A. Mishra",
        "col3": "8640"
    }
]