[
    {
        "col0": "Submandibular gland",
        "col1": "Glandular branches of facial artery",
        "col2": "Submandibular ganglion",
        "col3": "Submandibular+Gland",
        "col4": "g_06"
    },
    {
        "col0": "Scalp",
        "col1": "Superficial temporal artery",
        "col2": "Supraorbital nerve",
        "col3": "Scalp",
        "col4": "s_03"
    },
    {
        "col0": "Rectum",
        "col1": "Middle rectal artery",
        "col2": "Inferior mesenteric ganglia",
        "col3": "Rectum",
        "col4": "r_05"
    },
    {
        "col0": "Preorbital gland",
        "col1": "Lacrimal artery",
        "col2": "Greater petrosal nerve",
        "col3": "Lacrimal Apparatus",
        "col4": "g_06"
    },
    {
        "col0": "Nasal septum",
        "col1": "Anterior ethmoidal artery",
        "col2": "Anterior ethmoidal nerve",
        "col3": "Nasal+septum",
        "col4": "s_08"
    },
    {
        "col0": "Lip",
        "col1": "Superior labial artery",
        "col2": "Frontal nerve",
        "col3": "Lip",
        "col4": "l_01"
    },
    {
        "col0": "Hard palate",
        "col1": "Greater palatine artery",
        "col2": "Greater palatine nerve",
        "col3": "Hard+Palate",
        "col4": "p_02"
    },
    {
        "col0": "Forehead",
        "col1": "Supratrochlear artery",
        "col2": "Facial nerve",
        "col3": "Forehead",
        "col4": "f_16z"
    },
    {
        "col0": "Dental alveolus",
        "col1": "Posterior superior alveolar artery",
        "col2": "Inferior alveolar nerve",
        "col3": "Tooth+socket",
        "col4": "a_27"
    },
    {
        "col0": "Cheek",
        "col1": "Buccal artery",
        "col2": "Buccal branch of the facial nerve",
        "col3": "Cheek",
        "col4": "c_25"
    },
    {
        "col0": "Bronchus",
        "col1": "Bronchial artery",
        "col2": "Pulmonary branches of vagus nerve",
        "col3": "Bronchi",
        "col4": "b_23"
    },
    {
        "col0": "Axilla",
        "col1": "Axillary artery",
        "col2": "Axillary nerve",
        "col3": "Axilla",
        "col4": "a_76"
    }
]