[
    {
        "col0": "W. Wilde",
        "col1": "Dublin",
        "col2": "1815-3-1",
        "col3": "1876-04-19",
        "col4": "William Robert Wills Wilde"
    },
    {
        "col0": "T. Owen",
        "col1": "California",
        "col2": "1898-01-20",
        "col3": "1979-03-13",
        "col4": "Roy Tudor Owen"
    },
    {
        "col0": "G. P. Thomann",
        "col1": "Austria",
        "col2": "1945-03-13",
        "col3": "2005-07-21",
        "col4": "Georg Paul Thomann"
    },
    {
        "col0": "E. Malley",
        "col1": "Sydney",
        "col2": "1918-03-14",
        "col3": "1943-07-23",
        "col4": "Ernest Lalor Malley"
    },
    {
        "col0": "C. Parker",
        "col1": "Brighton",
        "col2": "1897-09-03",
        "col3": "1971-04-20",
        "col4": "Cecil Schwabe"
    },
    {
        "col0": "A. Mix",
        "col1": "California",
        "col2": "1896-06-18",
        "col3": "1972-12-07",
        "col4": "George Washington Kesterson"
    }
]