[
    {
        "col0": "Femoral artery",
        "col1": "External iliac artery",
        "col2": "623",
        "col3": "157"
    },
    {
        "col0": "Facial artery",
        "col1": "External carotid artery",
        "col2": "553",
        "col3": "144"
    },
    {
        "col0": "External nasal nerve",
        "col1": "Ophthalmic nerve",
        "col2": "891",
        "col3": "200"
    },
    {
        "col0": "External laryngeal nerve",
        "col1": "Superior laryngeal nerve",
        "col2": "912",
        "col3": "205"
    },
    {
        "col0": "External iliac artery",
        "col1": "Common iliac artery",
        "col2": "622",
        "col3": "156"
    },
    {
        "col0": "External carotid artery",
        "col1": "Common carotid artery",
        "col2": "551",
        "col3": "144"
    },
    {
        "col0": "Ethmoidal nerves",
        "col1": "Nasociliary nerve",
        "col2": "888",
        "col3": "200"
    },
    {
        "col0": "Esophageal plexus",
        "col1": "Vagus nerve",
        "col2": "913",
        "col3": "205"
    },
    {
        "col0": "Esophageal branches of thoracic part of aorta",
        "col1": "Descending aorta",
        "col2": "600",
        "col3": "153"
    },
    {
        "col0": "Efferent arteriole",
        "col1": "Glomerular capillaries",
        "col2": "1221",
        "col3": "253"
    },
    {
        "col0": "Ductus arteriosus",
        "col1": "Pulmonary artery",
        "col2": "540",
        "col3": "139"
    },
    {
        "col0": "Dorsalis pedis artery",
        "col1": "Anterior tibial artery",
        "col2": "636",
        "col3": "161"
    },
    {
        "col0": "Dorsal scapular nerve",
        "col1": "Brachial plexus",
        "col2": "932",
        "col3": "210"
    },
    {
        "col0": "Dorsal nerve of the penis",
        "col1": "Pudendal nerve",
        "col2": "968",
        "col3": "213"
    },
    {
        "col0": "Dorsal nerve of clitoris",
        "col1": "Pudendal nerve",
        "col2": "968",
        "col3": "213"
    },
    {
        "col0": "Dorsal nasal artery",
        "col1": "Ophthalmic artery",
        "col2": "571",
        "col3": "146"
    },
    {
        "col0": "Dorsal metatarsal arteries",
        "col1": "Arcuate artery of the foot",
        "col2": "637",
        "col3": "161"
    },
    {
        "col0": "Dorsal metacarpal arteries",
        "col1": "Dorsal carpal arch",
        "col2": "594",
        "col3": "151"
    },
    {
        "col0": "Dorsal digital arteries of hand",
        "col1": "Dorsal metacarpal arteries",
        "col2": "594",
        "col3": "151"
    },
    {
        "col0": "Dorsal carpal branch of the ulnar artery",
        "col1": "Ulnar artery",
        "col2": "598",
        "col3": "152"
    },
    {
        "col0": "Dorsal carpal branch of the radial artery",
        "col1": "Radial artery",
        "col2": "594",
        "col3": "151"
    },
    {
        "col0": "Dorsal carpal arch",
        "col1": "Dorsal carpal branch of the radial artery",
        "col2": "594",
        "col3": "151"
    },
    {
        "col0": "Dorsal branch of ulnar nerve",
        "col1": "Ulnar nerve",
        "col2": "942",
        "col3": "210"
    },
    {
        "col0": "Dorsal artery of the penis",
        "col1": "Internal pudendal artery",
        "col2": "620",
        "col3": "155"
    },
    {
        "col0": "Descending palatine artery",
        "col1": "Maxillary artery",
        "col2": "562",
        "col3": "144"
    },
    {
        "col0": "Descending genicular artery",
        "col1": "Femoral artery",
        "col2": "631",
        "col3": "157"
    },
    {
        "col0": "Descending branch of occipital artery",
        "col1": "Occipital artery",
        "col2": "556",
        "col3": "144"
    },
    {
        "col0": "Descending aorta",
        "col1": "Aorta",
        "col2": "598",
        "col3": "153"
    },
    {
        "col0": "Deep temporal nerves",
        "col1": "Mandibular nerve",
        "col2": "895",
        "col3": "200"
    },
    {
        "col0": "Deep temporal arteries",
        "col1": "Maxillary artery",
        "col2": "561",
        "col3": "144"
    },
    {
        "col0": "Deep plantar artery",
        "col1": "Dorsalis pedis artery",
        "col2": "637",
        "col3": "161"
    },
    {
        "col0": "Deep petrosal nerve",
        "col1": "Internal carotid plexus",
        "col2": "892",
        "col3": "200"
    },
    {
        "col0": "Deep peroneal nerve",
        "col1": "Common peroneal nerve",
        "col2": "965",
        "col3": "213"
    },
    {
        "col0": "Deep palmar branch of ulnar artery",
        "col1": "Ulnar artery",
        "col2": "598",
        "col3": "152"
    },
    {
        "col0": "Deep palmar arch",
        "col1": "Radial artery",
        "col2": "595",
        "col3": "151"
    },
    {
        "col0": "Deep external pudendal artery",
        "col1": "Femoral artery",
        "col2": "629",
        "col3": "157"
    },
    {
        "col0": "Deep circumflex iliac artery",
        "col1": "External iliac artery",
        "col2": "623",
        "col3": "156"
    },
    {
        "col0": "Deep cervical artery",
        "col1": "Costocervical trunk",
        "col2": "586",
        "col3": "148"
    },
    {
        "col0": "Deep branch of ulnar nerve",
        "col1": "Palmar branch of ulnar nerve",
        "col2": "942",
        "col3": "210"
    },
    {
        "col0": "Deep branch of radial nerve",
        "col1": "Radial nerve",
        "col2": "944",
        "col3": "210"
    },
    {
        "col0": "Deep branch of medial circumflex femoral artery",
        "col1": "Medial circumflex femoral artery",
        "col2": "630",
        "col3": "157"
    },
    {
        "col0": "Deep auricular artery",
        "col1": "Maxillary artery",
        "col2": "560",
        "col3": "144"
    },
    {
        "col0": "Deep artery of the thigh",
        "col1": "Femoral artery",
        "col2": "629",
        "col3": "157"
    },
    {
        "col0": "Deep artery of the penis",
        "col1": "Internal pudendal artery",
        "col2": "620",
        "col3": "155"
    },
    {
        "col0": "Deep artery of arm",
        "col1": "Brachial artery",
        "col2": "591",
        "col3": "150"
    },
    {
        "col0": "Cystic artery",
        "col1": "Hepatic artery",
        "col2": "605",
        "col3": "154"
    },
    {
        "col0": "Cutaneous branch of the obturator nerve",
        "col1": "Anterior branch of obturator nerve",
        "col2": "954",
        "col3": "212"
    },
    {
        "col0": "Cremasteric artery",
        "col1": "Inferior epigastric artery",
        "col2": "623",
        "col3": "156"
    },
    {
        "col0": "Costocervical trunk",
        "col1": "Subclavian artery",
        "col2": "585",
        "col3": "148"
    },
    {
        "col0": "Common peroneal nerve",
        "col1": "Sacral plexus",
        "col2": "964",
        "col3": "213"
    },
    {
        "col0": "Common palmar digital nerves of median nerve",
        "col1": "Median nerve",
        "col2": "938",
        "col3": "210"
    },
    {
        "col0": "Common palmar digital arteries",
        "col1": "Superficial palmar arch",
        "col2": "598",
        "col3": "152"
    },
    {
        "col0": "Common interosseous artery",
        "col1": "Ulnar artery",
        "col2": "596",
        "col3": "152"
    },
    {
        "col0": "Common iliac artery",
        "col1": "Abdominal aorta",
        "col2": "613",
        "col3": "155"
    },
    {
        "col0": "Common hepatic artery",
        "col1": "Celiac artery",
        "col2": "603",
        "col3": "154"
    },
    {
        "col0": "Common carotid artery",
        "col1": "Aortic arch",
        "col2": "549",
        "col3": "143"
    },
    {
        "col0": "Colic branch of ileocolic artery",
        "col1": "Ileocolic artery",
        "col2": "607",
        "col3": "154"
    },
    {
        "col0": "Cochlear nerve",
        "col1": "Vestibulocochlear nerve",
        "col2": "906",
        "col3": "203"
    },
    {
        "col0": "Coccygeal plexus",
        "col1": "Coccygeal nerve",
        "col2": "966",
        "col3": "213"
    },
    {
        "col0": "Circumflex scapular artery",
        "col1": "Subscapular artery",
        "col2": "588",
        "col3": "149"
    },
    {
        "col0": "Circumflex branch of left coronary artery",
        "col1": "Left coronary artery",
        "col2": "547",
        "col3": "142"
    },
    {
        "col0": "Ciliary ganglion",
        "col1": "Nasociliary nerve",
        "col2": "888",
        "col3": "200"
    },
    {
        "col0": "Chorda tympani",
        "col1": "Facial nerve",
        "col2": "1047",
        "col3": "231"
    },
    {
        "col0": "Cervical plexus",
        "col1": "Cervical nerves",
        "col2": "925",
        "col3": "210"
    },
    {
        "col0": "Cervical branch of the facial nerve",
        "col1": "Facial nerve",
        "col2": "905",
        "col3": "202"
    },
    {
        "col0": "Central retinal artery",
        "col1": "Ophthalmic artery",
        "col2": "571",
        "col3": "146"
    },
    {
        "col0": "Celiac plexus",
        "col1": "Celiac branches of vagus nerve",
        "col2": "985",
        "col3": "220"
    },
    {
        "col0": "Celiac ganglia",
        "col1": "Thoracic splanchnic nerves",
        "col2": "985",
        "col3": "220"
    },
    {
        "col0": "Celiac artery",
        "col1": "Abdominal aorta",
        "col2": "603",
        "col3": "154"
    },
    {
        "col0": "Cavernous nerves of penis",
        "col1": "Prostatic plexus",
        "col2": "989",
        "col3": "220"
    },
    {
        "col0": "Caroticotympanic nerves",
        "col1": "Internal carotid plexus",
        "col2": "909",
        "col3": "204"
    },
    {
        "col0": "Caroticotympanic arteries",
        "col1": "Petrous portion of the internal carotid artery",
        "col2": "568",
        "col3": "146"
    },
    {
        "col0": "Buccal nerve",
        "col1": "Mandibular nerve",
        "col2": "895",
        "col3": "200"
    },
    {
        "col0": "Buccal branches of the facial nerve",
        "col1": "Facial nerve",
        "col2": "905",
        "col3": "202"
    },
    {
        "col0": "Buccal artery",
        "col1": "Maxillary artery",
        "col2": "561",
        "col3": "144"
    },
    {
        "col0": "Bronchial artery",
        "col1": "Thoracic aorta",
        "col2": "600",
        "col3": "153"
    },
    {
        "col0": "Branch of glossopharyngeal nerve to carotid sinus",
        "col1": "Glossopharyngeal nerve",
        "col2": "909",
        "col3": "204"
    },
    {
        "col0": "Brachiocephalic artery",
        "col1": "Aorta",
        "col2": "548",
        "col3": "142"
    },
    {
        "col0": "Brachial plexus",
        "col1": "Cervical spinal nerve 5",
        "col2": "930",
        "col3": "210"
    },
    {
        "col0": "Brachial artery",
        "col1": "Axillary artery",
        "col2": "589",
        "col3": "150"
    },
    {
        "col0": "Basilar artery",
        "col1": "Vertebral artery",
        "col2": "580",
        "col3": "148"
    },
    {
        "col0": "Axillary nerve",
        "col1": "Posterior cord",
        "col2": "934",
        "col3": "210"
    },
    {
        "col0": "Axillary artery",
        "col1": "Subclavian artery",
        "col2": "586",
        "col3": "149"
    },
    {
        "col0": "Auriculotemporal nerve",
        "col1": "Mandibular nerve",
        "col2": "895",
        "col3": "200"
    },
    {
        "col0": "Auricular branch of vagus nerve",
        "col1": "Vagus nerve",
        "col2": "911",
        "col3": "205"
    },
    {
        "col0": "Auricular branch of posterior auricular artery",
        "col1": "Posterior auricular artery",
        "col2": "557",
        "col3": "144"
    },
    {
        "col0": "Auricular branch of occipital artery",
        "col1": "Occipital artery",
        "col2": "556",
        "col3": "144"
    },
    {
        "col0": "Ascending pharyngeal artery",
        "col1": "External carotid artery",
        "col2": "557",
        "col3": "144"
    },
    {
        "col0": "Ascending palatine artery",
        "col1": "Facial artery",
        "col2": "555",
        "col3": "144"
    },
    {
        "col0": "Ascending branch of medial circumflex femoral artery",
        "col1": "Medial circumflex femoral artery",
        "col2": "630",
        "col3": "157"
    },
    {
        "col0": "Ascending aorta",
        "col1": "Left ventricle",
        "col2": "545",
        "col3": "142"
    },
    {
        "col0": "Articular branches of descending genicular artery",
        "col1": "Descending genicular artery",
        "col2": "631",
        "col3": "157"
    },
    {
        "col0": "Artery to the ductus deferens",
        "col1": "Inferior vesical artery",
        "col2": "615",
        "col3": "155"
    },
    {
        "col0": "Artery of the pterygoid canal",
        "col1": "Maxillary artery",
        "col2": "568",
        "col3": "146"
    },
    {
        "col0": "Arcuate vessels of uterus",
        "col1": "Uterine artery",
        "col2": "615",
        "col3": "155"
    },
    {
        "col0": "Arcuate artery of the foot",
        "col1": "Arteria dorsalis pedis",
        "col2": "637",
        "col3": "161"
    },
    {
        "col0": "Appendicular artery",
        "col1": "Ileocolic artery",
        "col2": "607",
        "col3": "154"
    },
    {
        "col0": "Aorticorenal ganglion",
        "col1": "Celiac ganglion",
        "col2": "85",
        "col3": "220"
    }
]