[
    {
        "col0": "You're on Your Own",
        "col1": "Toto",
        "col2": "L. Benvenuti",
        "col3": "6300"
    },
    {
        "col0": "You're in the Navy Now",
        "col1": "J. Greer",
        "col2": "R. Murphy",
        "col3": "5580"
    },
    {
        "col0": "You're in the Army Now",
        "col1": "J. Wyman",
        "col2": "Screenplay",
        "col3": "4740"
    },
    {
        "col0": "You're a Sweetheart",
        "col1": "G. Murphy",
        "col2": "M. Shane",
        "col3": "5760"
    },
    {
        "col0": "You're a Big Boy Now",
        "col1": "K. Black",
        "col2": "F. F. Coppola",
        "col3": "5820"
    },
    {
        "col0": "You're Only Young Twice",
        "col1": "C. Hawtrey",
        "col2": "T. Bishop",
        "col3": "4860"
    },
    {
        "col0": "You're Only Young Once",
        "col1": "M. Rooney",
        "col2": "A. Rouverol",
        "col3": "4680"
    },
    {
        "col0": "You're Not You",
        "col1": "L. Devine",
        "col2": "S. Feste",
        "col3": "6120"
    },
    {
        "col0": "You're Not So Tough",
        "col1": "The Dead End Kids",
        "col2": "A. T. Horman",
        "col3": "3900"
    },
    {
        "col0": "You're Next",
        "col1": "S. Vinson",
        "col2": "S. Barrett",
        "col3": "5640"
    },
    {
        "col0": "You're Never Too Young",
        "col1": "R. Burr",
        "col2": "S. Sheldon",
        "col3": "6120"
    },
    {
        "col0": "You're My Everything",
        "col1": "A. Baxter",
        "col2": "L. Trotti",
        "col3": "5640"
    },
    {
        "col0": "You're My Boss",
        "col1": "T. Gonzaga",
        "col2": "A. Jadaone",
        "col3": "7020"
    },
    {
        "col0": "You're Darn Tootin'",
        "col1": "O. Hardy",
        "col2": "H. Walker",
        "col3": "1200"
    },
    {
        "col0": "You'll Find Out",
        "col1": "P. Lorre",
        "col2": "D. Butler",
        "col3": "5820"
    },
    {
        "col0": "You'd Be Surprised",
        "col1": "R. Griffith",
        "col2": "R. Benchley",
        "col3": "3600"
    },
    {
        "col0": "You'd Be Surprised!",
        "col1": "W. Forde",
        "col2": "S. Gilliat",
        "col3": "3960"
    },
    {
        "col0": "Yoshiwara",
        "col1": "M. Tanaka",
        "col2": "M. Ophuls",
        "col3": "6120"
    },
    {
        "col0": "Yoroi Samurai Zombie",
        "col1": "N. Natsume",
        "col2": "R. Kitamura",
        "col3": "5460"
    },
    {
        "col0": "Yor, the Hunter from the Future",
        "col1": "C. Clery",
        "col2": "A. Margheriti",
        "col3": "5280"
    },
    {
        "col0": "Yonkers Joe",
        "col1": "C. Palminteri",
        "col2": "R. Celestino",
        "col3": "6060"
    },
    {
        "col0": "Yonggary",
        "col1": "D. Cashman",
        "col2": "S. Hyung-rae",
        "col3": "5940"
    },
    {
        "col0": "Yomigaeri",
        "col1": "T. Kusanagi",
        "col2": "I. Inudo",
        "col3": "7560"
    },
    {
        "col0": "Yolanda and the Thief",
        "col1": "L. Bremer",
        "col2": "I. Brecher",
        "col3": "6480"
    },
    {
        "col0": "Yol",
        "col1": "H. Ergun",
        "col2": "Y. Guney",
        "col3": "7440"
    },
    {
        "col0": "Yojimbo",
        "col1": "I. Yamada",
        "col2": "A. Kurosawa",
        "col3": "6600"
    },
    {
        "col0": "Yogi Bear",
        "col1": "D. Aykroyd",
        "col2": "B. Copeland",
        "col3": "4800"
    },
    {
        "col0": "Yogi",
        "col1": "Ali",
        "col2": "R. Kumar",
        "col3": "9300"
    },
    {
        "col0": "Yoga Hosers",
        "col1": "J. Depp",
        "col2": "K. Smith",
        "col3": "5280"
    },
    {
        "col0": "Yodha",
        "col1": "Mohanlal",
        "col2": "S. Arattuvazhi",
        "col3": "8940"
    },
    {
        "col0": "Yobi, the Five Tailed Fox",
        "col1": "S. Ye-jin",
        "col2": "L. Chang-dong",
        "col3": "5100"
    },
    {
        "col0": "Yo Yo",
        "col1": "C. Auger",
        "col2": "J. Carriere",
        "col3": "5700"
    },
    {
        "col0": "Yield to the Night",
        "col1": "D. Dors",
        "col2": "J. Henry",
        "col3": "5940"
    },
    {
        "col0": "Yiddle with His Fiddle",
        "col1": "M. Picon",
        "col2": "K. Tom",
        "col3": "5520"
    },
    {
        "col0": "Yi Yi",
        "col1": "E. Jin",
        "col2": "E. Yang",
        "col3": "10380"
    },
    {
        "col0": "Yevadu",
        "col1": "R. Charan",
        "col2": "V. Paidipally",
        "col3": "9900"
    },
    {
        "col0": "Yesterday Was a Lie",
        "col1": "C. Masterson",
        "col2": "J. Kerwin",
        "col3": "5340"
    },
    {
        "col0": "Yesterday Girl",
        "col1": "A. Kluge",
        "col2": "A. Kluge",
        "col3": "5280"
    },
    {
        "col0": "Yesterday",
        "col1": "L. Khumalo",
        "col2": "D. Roodt",
        "col3": "5760"
    },
    {
        "col0": "Yesterday",
        "col1": "Y. Kim",
        "col2": "C. Yun-su",
        "col3": "7440"
    },
    {
        "col0": "Yesterday, Today and Tomorrow",
        "col1": "S. Loren",
        "col2": "A. Moravia",
        "col3": "7080"
    }
]