[
    {
        "col0": "C. Stark",
        "col1": "N. Stark",
        "col2": "A. Stark",
        "col3": "B. Tully"
    },
    {
        "col0": "C. Soprano",
        "col1": "T. Soprano",
        "col2": "A. S. Jr.",
        "col3": "L. Soprano"
    },
    {
        "col0": "C. Corleone",
        "col1": "V. Corleone",
        "col2": "M. Corleone",
        "col3": "M. Corleone"
    },
    {
        "col0": "C. Brutananadilewski",
        "col1": "List of Aqua Teen Hunger Force characters",
        "col2": "Legitimacy",
        "col3": "List of Aqua Teen Hunger Force characters"
    },
    {
        "col0": "C. \". Williams",
        "col1": "C. Steele",
        "col2": "C. Steele",
        "col3": "I. Steele"
    },
    {
        "col0": "B. Meade",
        "col1": "C. Meade",
        "col2": "A. Meade",
        "col3": "A. Meade"
    },
    {
        "col0": "B. Baccalieri",
        "col1": "J. Soprano",
        "col2": "List of characters from The Sopranos - friends and family",
        "col3": "C. Soprano"
    },
    {
        "col0": "B. Waldorf",
        "col1": "C. Bass",
        "col2": "New York, I Love You XOXO",
        "col3": "List of Gossip Girl characters"
    },
    {
        "col0": "B. Henrickson",
        "col1": "N. Grant",
        "col2": "S. Henrickson",
        "col3": "R. Grant"
    },
    {
        "col0": "B. P. Bonpensiero",
        "col1": "List of characters from The Sopranos - Friends and Family",
        "col2": "List of characters from The Sopranos - Friends and Family",
        "col3": "List of characters from The Sopranos - Friends and Family"
    },
    {
        "col0": "B. Rubble",
        "col1": "B. Rubble",
        "col2": "B. Rubble",
        "col3": "P. Flintstone"
    },
    {
        "col0": "Bender",
        "col1": "L. Liu",
        "col2": "Futurama: The Beast with a Billion Backs",
        "col3": "T. Honking"
    },
    {
        "col0": "Belle",
        "col1": "M. Gold",
        "col2": "Morpheus",
        "col3": "Beauty and the Beast"
    },
    {
        "col0": "B. Swan",
        "col1": "E. Cullen",
        "col2": "List of Twilight characters",
        "col3": "C. Cullen"
    },
    {
        "col0": "B. Rubble",
        "col1": "B. Rubble",
        "col2": "B. Rubble",
        "col3": "P. Flintstone"
    },
    {
        "col0": "Ariel",
        "col1": "List of Disney's The Little Mermaid characters",
        "col2": "List of Disney's The Little Mermaid characters",
        "col3": "Neptune"
    },
    {
        "col0": "A. Bunker",
        "col1": "E. Bunker",
        "col2": "G. Stivic",
        "col3": "M. Stivic"
    },
    {
        "col0": "Anirul",
        "col1": "S. IV",
        "col2": "P. Irulan",
        "col3": "Farad'n"
    },
    {
        "col0": "A. Montenegro",
        "col1": "J. Hodgins",
        "col2": "J. Hodgins",
        "col3": "B. Gibbons"
    },
    {
        "col0": "A. Taylor",
        "col1": "H. Crump",
        "col2": "O. Taylor",
        "col3": "B. Fife"
    },
    {
        "col0": "A. Harper",
        "col1": "W. Schmidt",
        "col2": "List of Two and a Half Men characters",
        "col3": "C. Harper"
    },
    {
        "col0": "Aladdin",
        "col1": "P. Jasmine",
        "col2": "Descendants",
        "col3": "List of Disney's Aladdin characters"
    },
    {
        "col0": "A. Monk",
        "col1": "T. Monk",
        "col2": "List of Monk characters",
        "col3": "A. Monk"
    },
    {
        "col0": "Aang",
        "col1": "Katara",
        "col2": "The Legend of Korra",
        "col3": "Affinity"
    }
]