[
    {
        "col0": "F. Bacon",
        "col1": "L. Bacon",
        "col2": "Chicago",
        "col3": "1864-01-16",
        "col4": "1864-01-16"
    },
    {
        "col0": "F. Franco",
        "col1": "Carmen Franco y Polo",
        "col2": "Madrid",
        "col3": "1892-12-04",
        "col4": "1892-12-04"
    },
    {
        "col0": "F. Ford",
        "col1": "P. Ford",
        "col2": "Los Angeles",
        "col3": "1881-08-14",
        "col4": "1881-08-14"
    },
    {
        "col0": "F. Dee",
        "col1": "J. McCrea",
        "col2": "Norwalk, Connecticut",
        "col3": "1909-11-26",
        "col4": "1909-11-26"
    },
    {
        "col0": "F. Bergen",
        "col1": "C. Bergen",
        "col2": "California",
        "col3": "1922-09-14",
        "col4": "1922-09-14"
    },
    {
        "col0": "F. Hackett",
        "col1": "A. Hackett",
        "col2": "New York",
        "col3": "1882-1-0",
        "col4": "1882-1-0"
    },
    {
        "col0": "F. P. Jr.",
        "col1": "G. Poe",
        "col2": "Philippines",
        "col3": "1939-08-20",
        "col4": "1939-08-20"
    },
    {
        "col0": "F. Lamas",
        "col1": "L. Lamas",
        "col2": "Los Angeles",
        "col3": "1915-01-09",
        "col4": "1915-01-09"
    },
    {
        "col0": "F. Guillen",
        "col1": "C. G. Cuervo",
        "col2": "Madrid",
        "col3": "1932-11-29",
        "col4": "1932-11-29"
    },
    {
        "col0": "F. Mayne",
        "col1": "B. Mayne",
        "col2": "England",
        "col3": "1916-03-11",
        "col4": "1916-03-11"
    },
    {
        "col0": "F. Wray",
        "col1": "R. Riskin",
        "col2": "New York",
        "col3": "1907-09-15",
        "col4": "1907-09-15"
    },
    {
        "col0": "F. Brice",
        "col1": "W. Brice",
        "col2": "Hollywood",
        "col3": "1891-10-29",
        "col4": "1891-10-29"
    },
    {
        "col0": "E. Nesbit",
        "col1": "R. W. Thaw",
        "col2": "Santa Monica, California",
        "col3": "1884-12-25",
        "col4": "1884-12-25"
    },
    {
        "col0": "E. Knievel",
        "col1": "R. Knievel",
        "col2": "Clearwater, Florida",
        "col3": "1938-10-17",
        "col4": "1938-10-17"
    },
    {
        "col0": "E. Norvind",
        "col1": "N. Norvind",
        "col2": "Mexico",
        "col3": "1944-05-07",
        "col4": "1944-05-07"
    },
    {
        "col0": "E. Henning",
        "col1": "F. Ekman",
        "col2": "Norway",
        "col3": "1920-05-10",
        "col4": "1920-05-10"
    },
    {
        "col0": "E. Flynn",
        "col1": "S. Flynn",
        "col2": "British Columbia",
        "col3": "1909-06-20",
        "col4": "1909-06-20"
    },
    {
        "col0": "E. Thompson",
        "col1": "E. Thompson",
        "col2": "London",
        "col3": "1929-11-09",
        "col4": "1929-11-09"
    },
    {
        "col0": "E. Johnson",
        "col1": "E. Hall",
        "col2": "California",
        "col3": "1894-03-16",
        "col4": "1894-03-16"
    },
    {
        "col0": "E. Goring",
        "col1": "E. Goring",
        "col2": "Bavaria",
        "col3": "1893-03-24",
        "col4": "1893-03-24"
    },
    {
        "col0": "E. Barszczewska",
        "col1": "J. Wyrzykowski",
        "col2": "Poland",
        "col3": "1913-11-29",
        "col4": "1913-11-29"
    },
    {
        "col0": "E. Knox",
        "col1": "K. Harmon",
        "col2": "Los Angeles",
        "col3": "1917-12-14",
        "col4": "1917-12-14"
    },
    {
        "col0": "E. Yost",
        "col1": "G. Yost",
        "col2": "British Columbia",
        "col3": "1925-07-10",
        "col4": "1925-07-10"
    },
    {
        "col0": "E. Presley",
        "col1": "L. M. Presley",
        "col2": "Memphis, Tennessee",
        "col3": "1935-01-08",
        "col4": "1935-01-08"
    },
    {
        "col0": "E. Inglis",
        "col1": "S. Weaver",
        "col2": "Santa Barbara, California",
        "col3": "1913-07-10",
        "col4": "1913-07-10"
    },
    {
        "col0": "E. Sladen",
        "col1": "S. Miller",
        "col2": "London",
        "col3": "1946-02-01",
        "col4": "1946-02-01"
    },
    {
        "col0": "E. Kazan",
        "col1": "N. Kazan",
        "col2": "Manhattan",
        "col3": "1909-09-07",
        "col4": "1909-09-07"
    },
    {
        "col0": "E. Varzi",
        "col1": "E. Vallone",
        "col2": "Italy",
        "col3": "1920-2-27",
        "col4": "1920-2-27"
    },
    {
        "col0": "E. Summerfield",
        "col1": "R. Sachs",
        "col2": "England",
        "col3": "1921-03-07",
        "col4": "1921-03-07"
    },
    {
        "col0": "E. Roosevelt",
        "col1": "J. Roosevelt",
        "col2": "New York",
        "col3": "1884-10-11",
        "col4": "1884-10-11"
    },
    {
        "col0": "E. Lynn",
        "col1": "M. Helprin",
        "col2": "Kinderhook",
        "col3": "1916-10-29",
        "col4": "1916-10-29"
    },
    {
        "col0": "E. Barszczewska",
        "col1": "J. Wyrzykowski",
        "col2": "Poland",
        "col3": "1913-11-29",
        "col4": "1913-11-29"
    },
    {
        "col0": "E. Z. Jr.",
        "col1": "S. Zimbalist",
        "col2": "Solvang, California",
        "col3": "1918-11-30",
        "col4": "1918-11-30"
    },
    {
        "col0": "E. Woodward",
        "col1": "T. Woodward",
        "col2": "Cornwall",
        "col3": "1930-06-01",
        "col4": "1930-06-01"
    },
    {
        "col0": "E. D. Filippo",
        "col1": "L. D. Filippo",
        "col2": "Italy",
        "col3": "1900-05-24",
        "col4": "1900-05-24"
    },
    {
        "col0": "E. Best",
        "col1": "S. Marshall",
        "col2": "Geneva",
        "col3": "1900-03-03",
        "col4": "1900-03-03"
    },
    {
        "col0": "E. O'Brien",
        "col1": "B. O'Brien",
        "col2": "Inglewood, California",
        "col3": "1915-09-10",
        "col4": "1915-09-10"
    },
    {
        "col0": "E. L. Davis",
        "col1": "N. Reagan",
        "col2": "Arizona",
        "col3": "1888-07-16",
        "col4": "1888-07-16"
    },
    {
        "col0": "E. Fellows",
        "col1": "K. Fields",
        "col2": "Woodland Hills, California",
        "col3": "1923-05-20",
        "col4": "1923-05-20"
    },
    {
        "col0": "Edith Ewing Bouvier Beale",
        "col1": "E. B. Beale",
        "col2": "Southampton",
        "col3": "1895-10-05",
        "col4": "1895-10-05"
    },
    {
        "col0": "E. Fisher",
        "col1": "C. Fisher",
        "col2": "Berkeley, California",
        "col3": "1928-08-10",
        "col4": "1928-08-10"
    },
    {
        "col0": "E. Albert",
        "col1": "E. Albert",
        "col2": "Pacific Palisades, Los Angeles",
        "col3": "1906-04-22",
        "col4": "1906-04-22"
    },
    {
        "col0": "E. Wynn",
        "col1": "K. Wynn",
        "col2": "Beverly Hills, California",
        "col3": "1886-11-09",
        "col4": "1886-11-09"
    },
    {
        "col0": "E. Hinton",
        "col1": "D. Hinton",
        "col2": "Santa Catalina Island, California",
        "col3": "1919-03-26",
        "col4": "1919-03-26"
    },
    {
        "col0": "E. Begley",
        "col1": "E. B. Jr.",
        "col2": "California",
        "col3": "1901-03-25",
        "col4": "1901-03-25"
    },
    {
        "col0": "D. D. Eisenhower",
        "col1": "J. Eisenhower",
        "col2": "Washington, D.C.",
        "col3": "1890-10-14",
        "col4": "1890-10-14"
    },
    {
        "col0": "D. B. Brown",
        "col1": "R. Brown",
        "col2": "Los Angeles County, California",
        "col3": "1928-03-21",
        "col4": "1928-03-21"
    },
    {
        "col0": "D. Fairbanks",
        "col1": "D. F. Jr.",
        "col2": "Santa Monica, California",
        "col3": "1883-05-23",
        "col4": "1883-05-23"
    },
    {
        "col0": "D. McClure",
        "col1": "T. McClure",
        "col2": "California",
        "col3": "1935-05-11",
        "col4": "1935-05-11"
    },
    {
        "col0": "D. McGuire",
        "col1": "T. Swope",
        "col2": "Santa Monica, California",
        "col3": "1916-06-14",
        "col4": "1916-06-14"
    },
    {
        "col0": "D. Sinden",
        "col1": "M. Sinden",
        "col2": "Kent",
        "col3": "1923-10-09",
        "col4": "1923-10-09"
    },
    {
        "col0": "D. Francks",
        "col1": "C. Summer",
        "col2": "Ontario",
        "col3": "1932-02-28",
        "col4": "1932-02-28"
    },
    {
        "col0": "D. Alvarado",
        "col1": "J. Page",
        "col2": "Hollywood, California",
        "col3": "1904-11-04",
        "col4": "1904-11-04"
    },
    {
        "col0": "D. Dunne",
        "col1": "G. Dunne",
        "col2": "Manhattan",
        "col3": "1925-10-29",
        "col4": "1925-10-29"
    },
    {
        "col0": "D. DeLuise",
        "col1": "M. DeLuise",
        "col2": "Santa Monica, California",
        "col3": "1933-08-01",
        "col4": "1933-08-01"
    },
    {
        "col0": "D. Costello",
        "col1": "J. D. Barrymore",
        "col2": "Fallbrook, California",
        "col3": "1903-09-17",
        "col4": "1903-09-17"
    },
    {
        "col0": "D. Sheridan",
        "col1": "J. Hanley",
        "col2": "London",
        "col3": "1920-09-17",
        "col4": "1920-09-17"
    },
    {
        "col0": "D. d. Marco",
        "col1": "R. Banquells",
        "col2": "Mexico City",
        "col3": "1937-07-06",
        "col4": "1937-07-06"
    },
    {
        "col0": "D. Pathak",
        "col1": "R. Pathak",
        "col2": "Mumbai",
        "col3": "1922-03-04",
        "col4": "1922-03-04"
    }
]