[
    {
        "col0": "W. d. Bouverie",
        "col1": "1656-9-26",
        "col2": "1656-9-26",
        "col3": "1717-5-19"
    },
    {
        "col0": "W. Welby-Gregory",
        "col1": "1829-1-4",
        "col2": "1829-1-4",
        "col3": "1898-11-26"
    },
    {
        "col0": "W. Rouse-Boughton",
        "col1": "1788-9-14",
        "col2": "1788-9-14",
        "col3": "1856-5-22"
    },
    {
        "col0": "W. R. Smith",
        "col1": "1856-8-7",
        "col2": "1856-8-7",
        "col3": "1935-12-23"
    },
    {
        "col0": "W. Raeburn",
        "col1": "1850-8-11",
        "col2": "1850-8-11",
        "col3": "1934-2-12"
    },
    {
        "col0": "W. Hardres",
        "col1": "1686-7-25",
        "col2": "1686-7-25",
        "col3": "1736-7-7"
    },
    {
        "col0": "W. Call",
        "col1": "1781-9-28",
        "col2": "1781-9-28",
        "col3": "1851-12-3"
    },
    {
        "col0": "W. Cain",
        "col1": "1864-5-7",
        "col2": "1864-5-7",
        "col3": "1924-5-5"
    },
    {
        "col0": "W. Bagge",
        "col1": "1810-6-17",
        "col2": "1810-6-17",
        "col3": "1880-2-12"
    },
    {
        "col0": "W. Aykroyd",
        "col1": "1865-5-8",
        "col2": "1865-5-8",
        "col3": "1947-4-3"
    },
    {
        "col0": "W. Nugent",
        "col1": "1865-12-12",
        "col2": "1865-12-12",
        "col3": "1955-11-12"
    },
    {
        "col0": "V. Seely",
        "col1": "1900-5-18",
        "col2": "1900-5-18",
        "col3": "1980-5-10"
    },
    {
        "col0": "V. Brooke",
        "col1": "1843-1-5",
        "col2": "1843-1-5",
        "col3": "1891-11-27"
    },
    {
        "col0": "V. Hunt",
        "col1": "1761-1-1",
        "col2": "1761-1-1",
        "col3": "1818-8-11"
    },
    {
        "col0": "T. Kekewich",
        "col1": "1851-7-11",
        "col2": "1851-7-11",
        "col3": "1932-3-10"
    }
]