[
    {
        "col0": "Tuber cinereum",
        "col1": "813",
        "col2": "189",
        "col3": "t_21",
        "col4": "hier",
        "col5": "376",
        "col6": "A08.186.211.730.385.357.352.870"
    },
    {
        "col0": "Trigeminal nerve nuclei",
        "col1": "787",
        "col2": "187",
        "col3": "n_11",
        "col4": "ancil",
        "col5": "1008020136",
        "col6": "A08.186.211.132.931"
    },
    {
        "col0": "Trigeminal motor nucleus",
        "col1": "787",
        "col2": "187",
        "col3": "n_11",
        "col4": "hier",
        "col5": "551",
        "col6": "A08.186.211.132.931"
    },
    {
        "col0": "Substantia innominata",
        "col1": "837",
        "col2": "189",
        "col3": "s_27",
        "col4": "hier",
        "col5": "256",
        "col6": "A08.186.211.577.820"
    },
    {
        "col0": "Spinal trigeminal nucleus",
        "col1": "787",
        "col2": "187",
        "col3": "n_11",
        "col4": "ancil",
        "col5": "1015266456",
        "col6": "A08.186.211.132.931.920"
    },
    {
        "col0": "Rhombic lip",
        "col1": "785",
        "col2": "187",
        "col3": "m_12",
        "col4": "hier",
        "col5": "534",
        "col6": "A08.186.211.132.810.428"
    },
    {
        "col0": "Rhinencephalon",
        "col1": "826",
        "col2": "189",
        "col3": "r_12",
        "col4": "ancil",
        "col5": "241",
        "col6": "A08.186.211.577.699"
    },
    {
        "col0": "Red nucleus",
        "col1": "802",
        "col2": "188",
        "col3": "n_11",
        "col4": "hier",
        "col5": "496",
        "col6": "A08.186.211.132.659.822.642"
    },
    {
        "col0": "Principal sensory nucleus of trigeminal nerve",
        "col1": "787",
        "col2": "187",
        "col3": "n_11",
        "col4": "hier",
        "col5": "552",
        "col6": "A08.186.211.132.931"
    }
]