[
    {
        "col0": "Pituitary stalk",
        "col1": "813",
        "col2": "189",
        "col3": "i_08",
        "col4": "hier",
        "col5": "388",
        "col6": "A06.407.747"
    },
    {
        "col0": "Periaqueductal gray",
        "col1": "806",
        "col2": "188",
        "col3": "s_27",
        "col4": "hier",
        "col5": "501",
        "col6": "A08.186.211.132.659.822.595"
    },
    {
        "col0": "Nucleus basalis of Meynert",
        "col1": "813",
        "col2": "189",
        "col3": "n_11",
        "col4": "hier",
        "col5": "257",
        "col6": "A08.186.211.730.885.105.880.100"
    },
    {
        "col0": "Metencephalon",
        "col1": "785",
        "col2": "187",
        "col3": "m_12",
        "col4": "hier",
        "col5": "534",
        "col6": "A08.186.211.132.810.428"
    },
    {
        "col0": "Mesencephalic nucleus of trigeminal nerve",
        "col1": "787",
        "col2": "187",
        "col3": "n_11",
        "col4": "hier",
        "col5": "550",
        "col6": "A08.186.211.132.931"
    },
    {
        "col0": "Medulla oblongata",
        "col1": "767",
        "col2": "187",
        "col3": "m_06",
        "col4": "hier",
        "col5": "695",
        "col6": "A08.186.211.132.810.406"
    },
    {
        "col0": "Hindbrain",
        "col1": "767",
        "col2": "186",
        "col3": "r_12",
        "col4": "hier",
        "col5": "531",
        "col6": "A08.186.211.132.810"
    },
    {
        "col0": "Diagonal band of Broca",
        "col1": "868",
        "col2": "191",
        "col3": "s_26",
        "col4": "hier",
        "col5": "267",
        "col6": "A08.186.211.730.885.380"
    },
    {
        "col0": "Cerebral peduncle",
        "col1": "800",
        "col2": "188",
        "col3": "p_10",
        "col4": "hier",
        "col5": "478",
        "col6": "A08.186.211.132.659"
    },
    {
        "col0": "Arachnoid mater",
        "col1": "876",
        "col2": "193",
        "col3": "a_56",
        "col4": "ancil",
        "col5": "561",
        "col6": "A08.186.566.166"
    }
]