[
    {
        "col0": "D. Harron",
        "col1": "V. Leith",
        "col2": "Donald Hugh Harron",
        "col3": "1924-09-19",
        "col4": "1924-09-19"
    },
    {
        "col0": "D. Martin",
        "col1": "D. Read",
        "col2": "Thomas Richard Martin",
        "col3": "1922-01-30",
        "col4": "1922-01-30"
    },
    {
        "col0": "D. Cavett",
        "col1": "C. Nye",
        "col2": "Richard Alva Cavett",
        "col3": "1936-11-19",
        "col4": "1936-11-19"
    },
    {
        "col0": "D. Levy",
        "col1": "R. Specter",
        "col2": "Daniel Levy",
        "col3": "1981-03-19",
        "col4": "1981-03-19"
    },
    {
        "col0": "C. Mochrie",
        "col1": "D. McGrath",
        "col2": "Colin Andrew Mochrie",
        "col3": "1957-11-30",
        "col4": "1957-11-30"
    },
    {
        "col0": "C. Swift",
        "col1": "M. Drabble",
        "col2": "Clive Walter Swift",
        "col3": "1936-02-09",
        "col4": "1936-02-09"
    },
    {
        "col0": "C. Finnegan",
        "col1": "K. Crews",
        "col2": "Fletcher Christian Finnegan",
        "col3": "1973-04-01",
        "col4": "1973-04-01"
    },
    {
        "col0": "C. Hardwick",
        "col1": "L. Hearst",
        "col2": "Christopher Ryan Hardwick",
        "col3": "1971-11-23",
        "col4": "1971-11-23"
    },
    {
        "col0": "C. Peretti",
        "col1": "J. Peele",
        "col2": "Chelsea Vanessa Peretti",
        "col3": "1978-02-20",
        "col4": "1978-02-20"
    },
    {
        "col0": "C. Reiner",
        "col1": "E. Reiner",
        "col2": "CarltonReiner",
        "col3": "1922-03-20",
        "col4": "1922-03-20"
    },
    {
        "col0": "C. Esposito",
        "col1": "R. Butcher",
        "col2": "Cameron Young Esposito",
        "col3": "1981-10-17",
        "col4": "1981-10-17"
    },
    {
        "col0": "B. Connolly",
        "col1": "P. Stephenson",
        "col2": "William Connolly",
        "col3": "1942-11-24",
        "col4": "1942-11-24"
    },
    {
        "col0": "A. Richter",
        "col1": "S. Thyre",
        "col2": "Paul Andrew Richter",
        "col3": "1966-10-28",
        "col4": "1966-10-28"
    },
    {
        "col0": "A. Buenafuente",
        "col1": "S. Abril",
        "col2": "Andreu Buenafuente Moreno",
        "col3": "1965-01-24",
        "col4": "1965-01-24"
    },
    {
        "col0": "A. Edmondson",
        "col1": "J. Saunders",
        "col2": "Adrian Charles Edmondson",
        "col3": "1957-01-24",
        "col4": "1957-01-24"
    },
    {
        "col0": "A. W. Brown",
        "col1": "C. Wonderland",
        "col2": "Alan Whitney Brown",
        "col3": "1952-07-08",
        "col4": "1952-07-08"
    }
]