[
    {
        "col0": "T. Brown",
        "col1": "Mandurah, Western Australia",
        "col2": "1944-07-06",
        "col3": "1944-07-06"
    },
    {
        "col0": "T. Temple",
        "col1": "Yorkshire",
        "col2": "1961-08-16",
        "col3": "1961-08-16"
    },
    {
        "col0": "T. Jenkins",
        "col1": "Herefordshire",
        "col2": "1963-09-26",
        "col3": "1963-09-26"
    },
    {
        "col0": "T. Hankey",
        "col1": "Telford",
        "col2": "1968-02-20",
        "col3": "1968-02-20"
    },
    {
        "col0": "S. Groen",
        "col1": "Wijhe",
        "col2": "1995-05-30",
        "col3": "1995-05-30"
    },
    {
        "col0": "S. Kellett",
        "col1": "Denton, Greater Manchester",
        "col2": "1981-08-12",
        "col3": "1981-08-12"
    },
    {
        "col0": "S. Holden",
        "col1": "Chester-le-Street",
        "col2": "1965-11-28",
        "col3": "1965-11-28"
    },
    {
        "col0": "S. West",
        "col1": "Den Haag",
        "col2": "1975-06-05",
        "col3": "1975-06-05"
    },
    {
        "col0": "S. Maish",
        "col1": "Wigan",
        "col2": "1963-11-22",
        "col3": "1963-11-22"
    },
    {
        "col0": "S. Hine",
        "col1": "Coventry",
        "col2": "1969-04-20",
        "col3": "1969-04-20"
    },
    {
        "col0": "S. Grubb",
        "col1": "Bristol",
        "col2": "1968-09-19",
        "col3": "1968-09-19"
    },
    {
        "col0": "S. Farmer",
        "col1": "Telford",
        "col2": "1965-03-26",
        "col3": "1965-03-26"
    },
    {
        "col0": "S. Evans",
        "col1": "Pennal",
        "col2": "1972-01-07",
        "col3": "1972-01-07"
    },
    {
        "col0": "S. Douglas",
        "col1": "Gillingham, Kent",
        "col2": "1977-11-17",
        "col3": "1977-11-17"
    },
    {
        "col0": "S. Coote",
        "col1": "Bolton",
        "col2": "1970-09-19",
        "col3": "1970-09-19"
    },
    {
        "col0": "S. Brown",
        "col1": "Missouri",
        "col2": "1962-07-15",
        "col3": "1962-07-15"
    },
    {
        "col0": "S. Brown",
        "col1": "Bristol",
        "col2": "1981-01-25",
        "col3": "1981-01-25"
    },
    {
        "col0": "S. Brennan",
        "col1": "Leiston",
        "col2": "1951-02-11",
        "col3": "1951-02-11"
    },
    {
        "col0": "S. Beaton",
        "col1": "Norfolk",
        "col2": "1964-04-05",
        "col3": "1964-04-05"
    },
    {
        "col0": "S. Alker",
        "col1": "Llanelli",
        "col2": "1964-02-14",
        "col3": "1964-02-14"
    },
    {
        "col0": "S. Roberts",
        "col1": "Wisbech",
        "col2": "1957-04-26",
        "col3": "1957-04-26"
    },
    {
        "col0": "S. Bunting",
        "col1": "Merseyside",
        "col2": "1985-04-09",
        "col3": "1985-04-09"
    },
    {
        "col0": "S. Nagy",
        "col1": "Enkoping",
        "col2": "1951-07-31",
        "col3": "1951-07-31"
    },
    {
        "col0": "S. Bromberg",
        "col1": "Las Vegas Valley",
        "col2": "1956-07-27",
        "col3": "1956-07-27"
    },
    {
        "col0": "S. Whitlock",
        "col1": "Australia",
        "col2": "1969-03-03",
        "col3": "1969-03-03"
    },
    {
        "col0": "S. Whatley",
        "col1": "Yeovil",
        "col2": "1973-02-25",
        "col3": "1973-02-25"
    },
    {
        "col0": "S. Stevenson",
        "col1": "Plymouth",
        "col2": "1972-02-18",
        "col3": "1972-02-18"
    },
    {
        "col0": "S. Burgess",
        "col1": "Hastings",
        "col2": "1964-06-01",
        "col3": "1964-06-01"
    },
    {
        "col0": "S. Griffiths",
        "col1": "Partington",
        "col2": "1991-11-24",
        "col3": "1991-11-24"
    },
    {
        "col0": "S. Greatbatch",
        "col1": "Lakenheath",
        "col2": "1969-07-13",
        "col3": "1969-07-13"
    },
    {
        "col0": "S. Prins",
        "col1": "Zoetermeer",
        "col2": "1988-08-24",
        "col3": "1988-08-24"
    },
    {
        "col0": "S. O'Connor",
        "col1": "Tallaght",
        "col2": "1985-12-04",
        "col3": "1985-12-04"
    },
    {
        "col0": "S. Reed",
        "col1": "Sydney",
        "col2": "1965-06-28",
        "col3": "1965-06-28"
    },
    {
        "col0": "S. Waites",
        "col1": "Halifax, West Yorkshire",
        "col2": "1977-02-17",
        "col3": "1977-02-17"
    },
    {
        "col0": "S. Rand",
        "col1": "Coventry",
        "col2": "1975-07-04",
        "col3": "1975-07-04"
    },
    {
        "col0": "S. Mitchell",
        "col1": "Bransgore",
        "col2": "1970-06-05",
        "col3": "1970-06-05"
    },
    {
        "col0": "S. MacKenzie",
        "col1": "Hong Kong",
        "col2": "1972-02-21",
        "col3": "1972-02-21"
    },
    {
        "col0": "S. Kirchner",
        "col1": "Wisconsin",
        "col2": "1969-08-27",
        "col3": "1969-08-27"
    },
    {
        "col0": "S. Burnett",
        "col1": "Sacramento, California",
        "col2": "1974-02-04",
        "col3": "1974-02-04"
    },
    {
        "col0": "S. Stein",
        "col1": "Birkenau",
        "col2": "1984-10-19",
        "col3": "1984-10-19"
    },
    {
        "col0": "S. Head",
        "col1": "Portsmouth",
        "col2": "1993-06-14",
        "col3": "1993-06-14"
    },
    {
        "col0": "R. Meikle",
        "col1": "Ipswich",
        "col2": "1996-08-13",
        "col3": "1996-08-13"
    },
    {
        "col0": "R. Smith",
        "col1": "Bolton",
        "col2": "1989-01-12",
        "col3": "1989-01-12"
    },
    {
        "col0": "R. Montgomery",
        "col1": "Greenhills, East Kilbride",
        "col2": "1962-10-16",
        "col3": "1962-10-16"
    },
    {
        "col0": "R. Huybrechts",
        "col1": "Antwerp",
        "col2": "1965-07-20",
        "col3": "1965-07-20"
    },
    {
        "col0": "R. Sharp",
        "col1": "Irvine, Scotland",
        "col2": "1965-11-28",
        "col3": "1965-11-28"
    },
    {
        "col0": "R. Baxter",
        "col1": "Lancashire",
        "col2": "1961-02-05",
        "col3": "1961-02-05"
    },
    {
        "col0": "R. Meulenkamp",
        "col1": "Heusden",
        "col2": "1988-11-05",
        "col3": "1988-11-05"
    },
    {
        "col0": "R. Scholten",
        "col1": "The Hague",
        "col2": "1965-01-11",
        "col3": "1965-01-11"
    },
    {
        "col0": "R. David",
        "col1": "Oslo",
        "col2": "1985-10-22",
        "col3": "1985-10-22"
    },
    {
        "col0": "R. Carter",
        "col1": "Auburn, Alabama",
        "col2": "1961-10-28",
        "col3": "1961-10-28"
    },
    {
        "col0": "R. Thornton",
        "col1": "Ayrshire",
        "col2": "1967-07-17",
        "col3": "1967-07-17"
    },
    {
        "col0": "R. MacKenzie",
        "col1": "Fauldhouse",
        "col2": "1958-3-25",
        "col3": "1958-3-25"
    },
    {
        "col0": "R. Hughes",
        "col1": "Milford Haven",
        "col2": "1966-12-12",
        "col3": "1966-12-12"
    },
    {
        "col0": "R. Green",
        "col1": "Wallasey",
        "col2": "1974-07-19",
        "col3": "1974-07-19"
    },
    {
        "col0": "R. Szabo",
        "col1": "Wellington",
        "col2": "1965-10-29",
        "col3": "1965-10-29"
    },
    {
        "col0": "R. Gardner",
        "col1": "Surrey",
        "col2": "1958-11-10",
        "col3": "1958-11-10"
    },
    {
        "col0": "R. Davies",
        "col1": "Aberdare",
        "col2": "1971-11-27",
        "col3": "1971-11-27"
    },
    {
        "col0": "R. Vonck",
        "col1": "Posterholt",
        "col2": "1987-03-12",
        "col3": "1987-03-12"
    },
    {
        "col0": "R. Evans",
        "col1": "Kettering",
        "col2": "1990-07-29",
        "col3": "1990-07-29"
    },
    {
        "col0": "R. Hofstra",
        "col1": "Sneek",
        "col2": "1977-04-21",
        "col3": "1977-04-21"
    },
    {
        "col0": "R. Howson",
        "col1": "Rainham, London",
        "col2": "1965-12-19",
        "col3": "1965-12-19"
    },
    {
        "col0": "R. George",
        "col1": "Essex",
        "col2": "1989-12-18",
        "col3": "1989-12-18"
    },
    {
        "col0": "R. Burnett",
        "col1": "Rhondda",
        "col2": "1967-02-07",
        "col3": "1967-02-07"
    },
    {
        "col0": "R. Herbert",
        "col1": "Pontypool",
        "col2": "1972-11-28",
        "col3": "1972-11-28"
    },
    {
        "col0": "R. Edwards",
        "col1": "Llanelli",
        "col2": "1981-01-20",
        "col3": "1981-01-20"
    },
    {
        "col0": "R. Eidams",
        "col1": "Hagen",
        "col2": "1989-05-08",
        "col3": "1989-05-08"
    },
    {
        "col0": "R. v. Eijden",
        "col1": "Zaandam",
        "col2": "1977-09-12",
        "col3": "1977-09-12"
    },
    {
        "col0": "R. Robinson",
        "col1": "Kingston upon Hull",
        "col2": "1992-05-15",
        "col3": "1992-05-15"
    },
    {
        "col0": "R. v. Barneveld",
        "col1": "The Hague",
        "col2": "1967-04-20",
        "col3": "1967-04-20"
    },
    {
        "col0": "R. Farrell",
        "col1": "Belfast",
        "col2": "1965-1-1",
        "col3": "1965-1-1"
    },
    {
        "col0": "R. Carver",
        "col1": "Nashua, New Hampshire",
        "col2": "1901-6-13",
        "col3": "1901-6-13"
    },
    {
        "col0": "R. Smith",
        "col1": "Dumfries",
        "col2": "1948-05-29",
        "col3": "1948-05-29"
    },
    {
        "col0": "P. Ridd",
        "col1": "Christchurch",
        "col2": "1953-0-0",
        "col3": "1953-0-0"
    },
    {
        "col0": "P. Jiwa",
        "col1": "England",
        "col2": "1970-05-21",
        "col3": "1970-05-21"
    },
    {
        "col0": "P. Blackwell",
        "col1": "Kent",
        "col2": "1974-11-27",
        "col3": "1974-11-27"
    },
    {
        "col0": "P. Hazel",
        "col1": "Napier, New Zealand",
        "col2": "1956-01-03",
        "col3": "1956-01-03"
    },
    {
        "col0": "P. Nixon",
        "col1": "County Durham",
        "col2": "1956-03-13",
        "col3": "1956-03-13"
    },
    {
        "col0": "P. Taylor",
        "col1": "Stoke-on-Trent",
        "col2": "1960-08-13",
        "col3": "1960-08-13"
    },
    {
        "col0": "P. Gilman",
        "col1": "Grimsby",
        "col2": "1964-10-01",
        "col3": "1964-10-01"
    },
    {
        "col0": "P. Korte",
        "col1": "Lahti",
        "col2": "1966-12-12",
        "col3": "1966-12-12"
    },
    {
        "col0": "P. Wright",
        "col1": "Mendham, Suffolk",
        "col2": "1970-03-10",
        "col3": "1970-03-10"
    },
    {
        "col0": "P. McDonald",
        "col1": "Edinburgh",
        "col2": "1965-02-11",
        "col3": "1965-02-11"
    },
    {
        "col0": "P. Manley",
        "col1": "Cumbria",
        "col2": "1962-03-07",
        "col3": "1962-03-07"
    },
    {
        "col0": "P. Locke",
        "col1": "Welshpool",
        "col2": "1956-08-14",
        "col3": "1956-08-14"
    },
    {
        "col0": "P. Johnstone",
        "col1": "Falkirk",
        "col2": "1961-10-25",
        "col3": "1961-10-25"
    },
    {
        "col0": "P. Hudson",
        "col1": "Eccles, Greater Manchester",
        "col2": "1984-04-20",
        "col3": "1984-04-20"
    },
    {
        "col0": "P. Laursen",
        "col1": "Lasby",
        "col2": "1966-04-16",
        "col3": "1966-04-16"
    },
    {
        "col0": "P. Jacklin",
        "col1": "Gainsborough, Lincolnshire",
        "col2": "1957-03-24",
        "col3": "1957-03-24"
    },
    {
        "col0": "P. Nicholson",
        "col1": "Corby",
        "col2": "1979-05-10",
        "col3": "1979-05-10"
    },
    {
        "col0": "P. Lim",
        "col1": "San Bernardino, California",
        "col2": "1954-01-25",
        "col3": "1954-01-25"
    },
    {
        "col0": "P. Jennings",
        "col1": "Hartlepool",
        "col2": "1976-09-22",
        "col3": "1976-09-22"
    },
    {
        "col0": "P. Hogan",
        "col1": "Basingstoke",
        "col2": "1963-08-30",
        "col3": "1963-08-30"
    },
    {
        "col0": "P. Hanvidge",
        "col1": "Barrhead",
        "col2": "1961-06-15",
        "col3": "1961-06-15"
    },
    {
        "col0": "P. Gosling",
        "col1": "Sheffield",
        "col2": "1949-06-07",
        "col3": "1949-06-07"
    },
    {
        "col0": "P. Gibbs",
        "col1": "Lancashire",
        "col2": "1971-11-18",
        "col3": "1971-11-18"
    },
    {
        "col0": "P. Coughlin",
        "col1": "Dundee",
        "col2": "1978-12-19",
        "col3": "1978-12-19"
    },
    {
        "col0": "P. Carter",
        "col1": "Bransgore",
        "col2": "1974-08-30",
        "col3": "1974-08-30"
    },
    {
        "col0": "P. Barham",
        "col1": "Essex",
        "col2": "1989-04-29",
        "col3": "1989-04-29"
    },
    {
        "col0": "P. Amos",
        "col1": "England",
        "col2": "1975-08-08",
        "col3": "1975-08-08"
    },
    {
        "col0": "O. Thomas",
        "col1": "Pontypool",
        "col2": "1964-04-06",
        "col3": "1964-04-06"
    },
    {
        "col0": "O. Lukasiak",
        "col1": "Bro, Stockholm",
        "col2": "1991-10-27",
        "col3": "1991-10-27"
    },
    {
        "col0": "N. Arendse",
        "col1": "Cape Town",
        "col2": "1968-12-16",
        "col3": "1968-12-16"
    },
    {
        "col0": "N. Heydon",
        "col1": "Royal Leamington Spa",
        "col2": "1970-07-22",
        "col3": "1970-07-22"
    },
    {
        "col0": "N. d. Ruiter",
        "col1": "Nieuwegein",
        "col2": "1983-01-21",
        "col3": "1983-01-21"
    },
    {
        "col0": "M. Hashimoto",
        "col1": "Okayama Prefecture",
        "col2": "1977-02-10",
        "col3": "1977-02-10"
    },
    {
        "col0": "M. Clegg",
        "col1": "Newcastle, New South Wales",
        "col2": "1990-11-12",
        "col3": "1990-11-12"
    },
    {
        "col0": "M. Veitch",
        "col1": "Bonnyrigg",
        "col2": "1960-08-15",
        "col3": "1960-08-15"
    },
    {
        "col0": "M. d. Boer",
        "col1": "Maastricht",
        "col2": "1980-01-11",
        "col3": "1980-01-11"
    },
    {
        "col0": "M. McGowan",
        "col1": "Dublin",
        "col2": "1973-02-01",
        "col3": "1973-02-01"
    },
    {
        "col0": "M. Smith",
        "col1": "St Helens, Merseyside",
        "col2": "1990-09-18",
        "col3": "1990-09-18"
    },
    {
        "col0": "M. Rosenauer",
        "col1": "Gutersloh",
        "col2": "1966-07-13",
        "col3": "1966-07-13"
    },
    {
        "col0": "M. Mansell",
        "col1": "Clonoe",
        "col2": "1973-08-31",
        "col3": "1973-08-31"
    },
    {
        "col0": "M. Barnard",
        "col1": "Romford",
        "col2": "1976-10-08",
        "col3": "1976-10-08"
    },
    {
        "col0": "M. King",
        "col1": "Bradwell, Norfolk",
        "col2": "1966-03-15",
        "col3": "1966-03-15"
    },
    {
        "col0": "M. Hopp",
        "col1": "Idstein",
        "col2": "1996-08-20",
        "col3": "1996-08-20"
    },
    {
        "col0": "M. Flowers",
        "col1": "England",
        "col2": "1945-12-6",
        "col3": "1945-12-6"
    },
    {
        "col0": "M. Medhurst",
        "col1": "Delft",
        "col2": "1983-09-09",
        "col3": "1983-09-09"
    },
    {
        "col0": "M. Edgar",
        "col1": "Daventry",
        "col2": "1986-08-28",
        "col3": "1986-08-28"
    },
    {
        "col0": "M. Dicken",
        "col1": "West Bromwich",
        "col2": "1992-12-27",
        "col3": "1992-12-27"
    },
    {
        "col0": "M. Padgett",
        "col1": "Ilkeston",
        "col2": "1982-03-27",
        "col3": "1982-03-27"
    },
    {
        "col0": "M. Clark",
        "col1": "Walkden",
        "col2": "1968-04-04",
        "col3": "1968-04-04"
    },
    {
        "col0": "M. Phillips",
        "col1": "Dolgellau",
        "col2": "1960-04-30",
        "col3": "1960-04-30"
    },
    {
        "col0": "M. Atkins",
        "col1": "Rawdon, West Yorkshire",
        "col2": "1965-12-24",
        "col3": "1965-12-24"
    },
    {
        "col0": "M. Adams",
        "col1": "Lincolnshire",
        "col2": "1956-06-04",
        "col3": "1956-06-04"
    },
    {
        "col0": "M. Pusa",
        "col1": "Hollola",
        "col2": "1977-04-15",
        "col3": "1977-04-15"
    },
    {
        "col0": "M. Kantele",
        "col1": "Vaaksy",
        "col2": "1968-08-24",
        "col3": "1968-08-24"
    },
    {
        "col0": "M. Webster",
        "col1": "Denbigh",
        "col2": "1983-08-12",
        "col3": "1983-08-12"
    },
    {
        "col0": "M. Walsh",
        "col1": "Abbots Langley",
        "col2": "1965-02-02",
        "col3": "1965-02-02"
    },
    {
        "col0": "M. Stephenson",
        "col1": "Newcastle upon Tyne",
        "col2": "1976-01-13",
        "col3": "1976-01-13"
    },
    {
        "col0": "M. Salmon",
        "col1": "Pontypridd",
        "col2": "1963-02-23",
        "col3": "1963-02-23"
    },
    {
        "col0": "M. McGrath",
        "col1": "Palmerston North",
        "col2": "1968-07-15",
        "col3": "1968-07-15"
    },
    {
        "col0": "M. McGeeney",
        "col1": "England",
        "col2": "1972-06-28",
        "col3": "1972-06-28"
    },
    {
        "col0": "M. Lawrence",
        "col1": "Tyne & Wear",
        "col2": "1986-11-28",
        "col3": "1986-11-28"
    },
    {
        "col0": "M. Jones",
        "col1": "Brierley Hill",
        "col2": "1970-04-21",
        "col3": "1970-04-21"
    },
    {
        "col0": "M. Hylton",
        "col1": "Staffordshire",
        "col2": "1966-05-30",
        "col3": "1966-05-30"
    },
    {
        "col0": "M. Frost",
        "col1": "Stoke-on-Trent",
        "col2": "1971-10-23",
        "col3": "1971-10-23"
    },
    {
        "col0": "M. Barilli",
        "col1": "Greenock",
        "col2": "1973-11-14",
        "col3": "1973-11-14"
    },
    {
        "col0": "M. Michels",
        "col1": "Dordrecht",
        "col2": "1984-10-23",
        "col3": "1984-10-23"
    },
    {
        "col0": "M. Davies",
        "col1": "Cardiff",
        "col2": "1962-11-28",
        "col3": "1962-11-28"
    },
    {
        "col0": "M. Caris",
        "col1": "Stockholm",
        "col2": "1968-11-15",
        "col3": "1968-11-15"
    },
    {
        "col0": "M. Razma",
        "col1": "Liepaja",
        "col2": "1988-09-26",
        "col3": "1988-09-26"
    },
    {
        "col0": "L. Ilagan",
        "col1": "Cainta",
        "col2": "1978-02-11",
        "col3": "1978-02-11"
    },
    {
        "col0": "L. Blundell",
        "col1": "Chorley",
        "col2": "1978-03-16",
        "col3": "1978-03-16"
    },
    {
        "col0": "L. Winstanley",
        "col1": "Derbyshire",
        "col2": "1975-10-28",
        "col3": "1975-10-28"
    },
    {
        "col0": "L. Ashton",
        "col1": "Bolton",
        "col2": "1970-08-27",
        "col3": "1970-08-27"
    },
    {
        "col0": "L. Sams",
        "col1": "Letchworth",
        "col2": "1961-01-20",
        "col3": "1961-01-20"
    },
    {
        "col0": "L. Wallace",
        "col1": "Southampton",
        "col2": "1962-02-22",
        "col3": "1962-02-22"
    },
    {
        "col0": "L. Capewell",
        "col1": "London",
        "col2": "1959-11-28",
        "col3": "1959-11-28"
    },
    {
        "col0": "L. Kwadijk",
        "col1": "Zaandam",
        "col2": "1983-08-03",
        "col3": "1983-08-03"
    },
    {
        "col0": "L. Laurens",
        "col1": "Itegem",
        "col2": "1952-07-30",
        "col3": "1952-07-30"
    },
    {
        "col0": "L. Evans",
        "col1": "Gloucestershire",
        "col2": "1989-12-08",
        "col3": "1989-12-08"
    },
    {
        "col0": "L. C. Peng",
        "col1": "Kuala Lumpur",
        "col2": "1966-10-24",
        "col3": "1966-10-24"
    },
    {
        "col0": "L. Ryder",
        "col1": "Perth",
        "col2": "1966-12-28",
        "col3": "1966-12-28"
    }
]