[
    {
        "col0": "M. Poulsen",
        "col1": "Hvidovre",
        "col2": "Denmark",
        "col3": "1984-10-17",
        "col4": "1984-10-17"
    },
    {
        "col0": "M. McEwen",
        "col1": "Winnipeg",
        "col2": "Brandon, Manitoba",
        "col3": "1980-07-30",
        "col4": "1980-07-30"
    },
    {
        "col0": "M. Harris",
        "col1": "Toronto Cricket, Skating and Curling Club",
        "col2": "Ontario",
        "col3": "1967-06-09",
        "col4": "1967-06-09"
    },
    {
        "col0": "M. Englot",
        "col1": "Regina, Saskatchewan",
        "col2": "Montmartre, Saskatchewan",
        "col3": "1964-01-22",
        "col4": "1964-01-22"
    },
    {
        "col0": "M. Goodfellow",
        "col1": "Kilsyth Curling Club",
        "col2": "Stirling",
        "col3": "1988-10-08",
        "col4": "1988-10-08"
    },
    {
        "col0": "M. d. Neergaard",
        "col1": "Hvidovre",
        "col2": "Copenhagen",
        "col3": "1991-11-06",
        "col4": "1991-11-06"
    },
    {
        "col0": "M. Cormier",
        "col1": "Northwest Territories",
        "col2": "Yellowknife",
        "col3": "1989-07-18",
        "col4": "1989-07-18"
    },
    {
        "col0": "M. Blandford",
        "col1": "Lethbridge",
        "col2": "Newfoundland and Labrador",
        "col3": "1985-04-16",
        "col4": "1985-04-16"
    },
    {
        "col0": "M. Wozniak",
        "col1": "Winnipeg",
        "col2": "Manitoba",
        "col3": "1983-01-06",
        "col4": "1983-01-06"
    },
    {
        "col0": "M. Hamilton",
        "col1": "Madison, Wisconsin",
        "col2": "Madison, Wisconsin",
        "col3": "1989-02-19",
        "col4": "1989-02-19"
    },
    {
        "col0": "M. Camm",
        "col1": "Cornwall, Ontario",
        "col2": "Ottawa",
        "col3": "1990-03-29",
        "col4": "1990-03-29"
    },
    {
        "col0": "M. Arsenault",
        "col1": "Dartmouth, Nova Scotia",
        "col2": "Ontario",
        "col3": "1968-08-19",
        "col4": "1968-08-19"
    },
    {
        "col0": "M. Ferland",
        "col1": "Cap-de-la-Madeleine, Quebec",
        "col2": "Quebec",
        "col3": "1970-11-08",
        "col4": "1970-11-08"
    },
    {
        "col0": "M. Crete",
        "col1": "Saint-Romuald, Quebec",
        "col2": "Quebec",
        "col3": "1985-03-12",
        "col4": "1985-03-12"
    },
    {
        "col0": "M. Kasner",
        "col1": "Saskatoon, Saskatchewan",
        "col2": "Prince Albert, Saskatchewan",
        "col3": "1982-01-08",
        "col4": "1982-01-08"
    },
    {
        "col0": "M. Hoiberg",
        "col1": "Oppdal",
        "col2": "Norway",
        "col3": "1991-06-06",
        "col4": "1991-06-06"
    },
    {
        "col0": "M. O'Rourke",
        "col1": "Charlottetown, Prince Edward Island",
        "col2": "Prince Edward Island",
        "col3": "1962-07-07",
        "col4": "1962-07-07"
    },
    {
        "col0": "M. Nichols",
        "col1": "St. John's, Newfoundland and Labrador",
        "col2": "Newfoundland and Labrador",
        "col3": "1980-01-01",
        "col4": "1980-01-01"
    },
    {
        "col0": "M. Dacey",
        "col1": "Halifax, Nova Scotia",
        "col2": "Saskatchewan",
        "col3": "1966-06-22",
        "col4": "1966-06-22"
    },
    {
        "col0": "M. Bice",
        "col1": "Sarnia, Ontario",
        "col2": "Ontario",
        "col3": "1984-10-10",
        "col4": "1984-10-10"
    },
    {
        "col0": "M. Bodogh",
        "col1": "St. Catharines, Ontario",
        "col2": "Ontario",
        "col3": "1955-03-09",
        "col4": "1955-03-09"
    },
    {
        "col0": "M. Larouche",
        "col1": "Saint-Romuald, Quebec",
        "col2": "Quebec",
        "col3": "1980-06-05",
        "col4": "1980-06-05"
    },
    {
        "col0": "M. Rorvik",
        "col1": "Norway",
        "col2": "Baerum",
        "col3": "1983-08-02",
        "col4": "1983-08-02"
    },
    {
        "col0": "M. Wennerstrom",
        "col1": "Sweden",
        "col2": "Sweden",
        "col3": "1985-04-10",
        "col4": "1985-04-10"
    },
    {
        "col0": "M. Prytz",
        "col1": "Sweden",
        "col2": "Sweden",
        "col3": "1976-10-18",
        "col4": "1976-10-18"
    },
    {
        "col0": "M. Poulsen",
        "col1": "Denmark",
        "col2": "Denmark",
        "col3": "1984-10-29",
        "col4": "1984-10-29"
    },
    {
        "col0": "M. Motohashi",
        "col1": "Hokkaido",
        "col2": "Hokkaido",
        "col3": "1986-06-10",
        "col4": "1986-06-10"
    },
    {
        "col0": "M. Smith",
        "col1": "St. Paul, Minnesota",
        "col2": "Manitoba",
        "col3": "1960-03-20",
        "col4": "1960-03-20"
    },
    {
        "col0": "M. Fomina",
        "col1": "Moscow",
        "col2": "Russian SFSR",
        "col3": "1988-08-19",
        "col4": "1988-08-19"
    },
    {
        "col0": "M. Sigfridsson",
        "col1": "Skelleftea",
        "col2": "Harjedalen",
        "col3": "1976-01-28",
        "col4": "1976-01-28"
    },
    {
        "col0": "M. Ramstein",
        "col1": "St. Moritz",
        "col2": "Basel",
        "col3": "1978-11-22",
        "col4": "1978-11-22"
    },
    {
        "col0": "M. Berthelot",
        "col1": "Cap-de-la-Madeleine, Quebec",
        "col2": "Murdochville, Quebec",
        "col3": "1972-12-11",
        "col4": "1972-12-11"
    },
    {
        "col0": "M. Pfister",
        "col1": "Bern",
        "col2": "Sumiswald",
        "col3": "1989-09-26",
        "col4": "1989-09-26"
    },
    {
        "col0": "M. Kennedy",
        "col1": "Edmonton, Alberta",
        "col2": "St. Albert, Alberta",
        "col3": "1982-02-05",
        "col4": "1982-02-05"
    },
    {
        "col0": "L. Fyfe",
        "col1": "East St. Paul",
        "col2": "Manitoba",
        "col3": "1987-10-03",
        "col4": "1987-10-03"
    },
    {
        "col0": "L. Yin",
        "col1": "Harbin",
        "col2": "Harbin",
        "col3": "1981-08-19",
        "col4": "1981-08-19"
    },
    {
        "col0": "L. Rui",
        "col1": "Harbin",
        "col2": "Harbin",
        "col3": "1982-3-13",
        "col4": "1982-3-13"
    },
    {
        "col0": "L. Weagle",
        "col1": "Ottawa",
        "col2": "Ontario",
        "col3": "1985-03-24",
        "col4": "1985-03-24"
    },
    {
        "col0": "L. Eyamie",
        "col1": "Coaldale, Alberta",
        "col2": "Manitoba",
        "col3": "1977-04-10",
        "col4": "1977-04-10"
    },
    {
        "col0": "L. Warkentin",
        "col1": "Winnipeg, Manitoba",
        "col2": "Manitoba",
        "col3": "1982-11-08",
        "col4": "1982-11-08"
    },
    {
        "col0": "L. MacDougall",
        "col1": "Charlottetown, Prince Edward Island",
        "col2": "Lachine, Quebec",
        "col3": "1970-04-29",
        "col4": "1970-04-29"
    },
    {
        "col0": "L. Nielsen",
        "col1": "Hvidovre",
        "col2": "Denmark",
        "col3": "1986-08-31",
        "col4": "1986-08-31"
    },
    {
        "col0": "L. Strong",
        "col1": "Kronau, Saskatchewan",
        "col2": "St. John's, Newfoundland and Labrador",
        "col3": "1979-10-31",
        "col4": "1979-10-31"
    },
    {
        "col0": "L. Hallisey",
        "col1": "Paoli, Pennsylvania",
        "col2": "Medfield, Massachusetts",
        "col3": "1986-12-31",
        "col4": "1986-12-31"
    },
    {
        "col0": "L. Vagberg",
        "col1": "Oslo",
        "col2": "Solleftea",
        "col3": "1967-6-30",
        "col4": "1967-6-30"
    },
    {
        "col0": "L. Vagberg",
        "col1": "Oslo",
        "col2": "Solleftea",
        "col3": "1967-6-30",
        "col4": "1967-6-30"
    },
    {
        "col0": "L. Vey",
        "col1": "Regina, Saskatchewan",
        "col2": "Saskatoon, Saskatchewan",
        "col3": "1984-04-06",
        "col4": "1984-04-06"
    },
    {
        "col0": "K. Karwacki",
        "col1": "Winnipeg",
        "col2": "Manitoba",
        "col3": "1991-04-30",
        "col4": "1991-04-30"
    },
    {
        "col0": "K. McDonald",
        "col1": "Granite Curling Club",
        "col2": "Manitoba",
        "col3": "1979-05-20",
        "col4": "1979-05-20"
    },
    {
        "col0": "K. Moore",
        "col1": "Regina, Saskatchewan",
        "col2": "Alberta",
        "col3": "1979-04-22",
        "col4": "1979-04-22"
    },
    {
        "col0": "K. Lindstrom",
        "col1": "Karlstad",
        "col2": "Ostersund",
        "col3": "1989-11-04",
        "col4": "1989-11-04"
    },
    {
        "col0": "K. McCarville",
        "col1": "Thunder Bay",
        "col2": "Ontario",
        "col3": "1982-11-10",
        "col4": "1982-11-10"
    },
    {
        "col0": "K. Ishizaki",
        "col1": "Aomori, Aomori",
        "col2": "Obihiro, Hokkaido",
        "col3": "1979-01-04",
        "col4": "1979-01-04"
    },
    {
        "col0": "K. Wall",
        "col1": "Milton, Ontario",
        "col2": "Milton, Ontario",
        "col3": "1975-11-27",
        "col4": "1975-11-27"
    },
    {
        "col0": "K. Muyres",
        "col1": "Saskatoon, Saskatchewan",
        "col2": "St. Gregor, Saskatchewan",
        "col3": "1990-06-29",
        "col4": "1990-06-29"
    },
    {
        "col0": "K. Schneider",
        "col1": "Kronau, Saskatchewan",
        "col2": "Saskatchewan",
        "col3": "1984-08-21",
        "col4": "1984-08-21"
    },
    {
        "col0": "K. Kelly",
        "col1": "Mayflower Curling Club",
        "col2": "Halifax, Nova Scotia",
        "col3": "1962-04-04",
        "col4": "1962-04-04"
    },
    {
        "col0": "K. Ji-sun",
        "col1": "Korea",
        "col2": "South Korea",
        "col3": "1987-06-27",
        "col4": "1987-06-27"
    },
    {
        "col0": "K. Eun-jung",
        "col1": "Uiseong County",
        "col2": "Korea",
        "col3": "1990-11-29",
        "col4": "1990-11-29"
    },
    {
        "col0": "K. Dolan",
        "col1": "Charlottetown",
        "col2": "Prince Edward Island",
        "col3": "1958-04-12",
        "col4": "1958-04-12"
    },
    {
        "col0": "K. Park",
        "col1": "Alberta",
        "col2": "Hythe, Alberta",
        "col3": "1964-09-02",
        "col4": "1964-09-02"
    },
    {
        "col0": "K. Koe",
        "col1": "Calgary",
        "col2": "Edmonton",
        "col3": "1975-01-11",
        "col4": "1975-01-11"
    },
    {
        "col0": "K. Galusha",
        "col1": "Yellowknife, Northwest Territories",
        "col2": "Yellowknife, Northwest Territories",
        "col3": "1977-11-03",
        "col4": "1977-11-03"
    },
    {
        "col0": "K. Einarson",
        "col1": "East St. Paul",
        "col2": "Gimli, Manitoba",
        "col3": "1987-10-03",
        "col4": "1987-10-03"
    },
    {
        "col0": "K. Lilly",
        "col1": "Sudbury, Ontario",
        "col2": "Ontario",
        "col3": "1991-06-18",
        "col4": "1991-06-18"
    },
    {
        "col0": "K. Scott",
        "col1": "Kelowna",
        "col2": "Manitoba",
        "col3": "1977-06-01",
        "col4": "1977-06-01"
    },
    {
        "col0": "K. Mittelstadt",
        "col1": "Halifax, Nova Scotia",
        "col2": "Edmonton",
        "col3": "1975-06-01",
        "col4": "1975-06-01"
    },
    {
        "col0": "K. Law",
        "col1": "New Westminster, British Columbia",
        "col2": "Burnaby",
        "col3": "1966-01-11",
        "col4": "1966-01-11"
    },
    {
        "col0": "K. Hakunti",
        "col1": "Lohja, Finland",
        "col2": "Helsinki",
        "col3": "1988-11-17",
        "col4": "1988-11-17"
    },
    {
        "col0": "K. Lavoie",
        "col1": "Thunder Bay, Ontario",
        "col2": "Ontario",
        "col3": "1977-12-25",
        "col4": "1977-12-25"
    },
    {
        "col0": "K. Hennigar",
        "col1": "Truro, Nova Scotia",
        "col2": "Halifax, Nova Scotia",
        "col3": "1953-02-28",
        "col4": "1953-02-28"
    },
    {
        "col0": "K. V. Osch",
        "col1": "Nanaimo",
        "col2": "British Columbia",
        "col3": "1993-10-08",
        "col4": "1993-10-08"
    },
    {
        "col0": "K. Lawes",
        "col1": "Manitoba",
        "col2": "Manitoba",
        "col3": "1988-12-16",
        "col4": "1988-12-16"
    },
    {
        "col0": "J. Tippin",
        "col1": "Woodstock, Ontario",
        "col2": "Quebec",
        "col3": "1983-08-16",
        "col4": "1983-08-16"
    },
    {
        "col0": "J. Hastings",
        "col1": "Ontario",
        "col2": "Ontario",
        "col3": "1975-09-05",
        "col4": "1975-09-05"
    },
    {
        "col0": "J. Devereaux",
        "col1": "St. John's, Newfoundland and Labrador",
        "col2": "St. John's, Newfoundland and Labrador",
        "col3": "1989-01-15",
        "col4": "1989-01-15"
    },
    {
        "col0": "J. Pinder",
        "col1": "Lower Sackville, Nova Scotia",
        "col2": "Miramichi, New Brunswick",
        "col3": "1984-04-24",
        "col4": "1984-04-24"
    },
    {
        "col0": "J. Mead",
        "col1": "Winnipeg",
        "col2": "Saskatchewan",
        "col3": "1967-04-10",
        "col4": "1967-04-10"
    },
    {
        "col0": "J. Campbell",
        "col1": "Regina, Saskatchewan",
        "col2": "Saskatoon, Saskatchewan",
        "col3": "1981-08-12",
        "col4": "1981-08-12"
    },
    {
        "col0": "J. Frederiksen",
        "col1": "Hvidovre",
        "col2": "Denmark",
        "col3": "1975-07-31",
        "col4": "1975-07-31"
    },
    {
        "col0": "J. Shuster",
        "col1": "Duluth Curling Club",
        "col2": "Chisholm, Minnesota",
        "col3": "1982-11-3",
        "col4": "1982-11-3"
    },
    {
        "col0": "J. Morris",
        "col1": "Chestermere",
        "col2": "Manitoba",
        "col3": "1978-12-16",
        "col4": "1978-12-16"
    },
    {
        "col0": "J. Landsteiner",
        "col1": "Duluth, Minnesota",
        "col2": "Mankato, Minnesota",
        "col3": "1990-05-19",
        "col4": "1990-05-19"
    },
    {
        "col0": "J. Epping",
        "col1": "Toronto",
        "col2": "Peterborough, Ontario",
        "col3": "1983-03-20",
        "col4": "1983-03-20"
    },
    {
        "col0": "J. Benton",
        "col1": "St. Paul, Minnesota",
        "col2": "Stillwater, Minnesota",
        "col3": "1969-06-23",
        "col4": "1969-06-23"
    },
    {
        "col0": "J. Jordison",
        "col1": "Saskatchewan",
        "col2": "Saskatchewan",
        "col3": "1978-03-11",
        "col4": "1978-03-11"
    },
    {
        "col0": "J. Polo",
        "col1": "Bemidji Curling Club",
        "col2": "Duluth, Minnesota",
        "col3": "1982-12-10",
        "col4": "1982-12-10"
    },
    {
        "col0": "J. Frans",
        "col1": "Ingersoll, Ontario",
        "col2": "Grimsby, Ontario",
        "col3": "1975-07-01",
        "col4": "1975-07-01"
    },
    {
        "col0": "J. deSolla",
        "col1": "Oromocto, New Brunswick",
        "col2": "Montreal",
        "col3": "1982-04-11",
        "col4": "1982-04-11"
    },
    {
        "col0": "J. Peterman",
        "col1": "The Glencoe Club",
        "col2": "Red Deer, Alberta",
        "col3": "1993-09-23",
        "col4": "1993-09-23"
    },
    {
        "col0": "J. Courtney",
        "col1": "Ottawa",
        "col2": "Alberta",
        "col3": "1989-03-07",
        "col4": "1989-03-07"
    },
    {
        "col0": "J. Rizzo",
        "col1": "Coldwater, Ontario",
        "col2": "West Germany",
        "col3": "1965-06-01",
        "col4": "1965-06-01"
    },
    {
        "col0": "J. Snitil",
        "col1": "Brno",
        "col2": "Czechoslovakia",
        "col3": "1975-02-24",
        "col4": "1975-02-24"
    },
    {
        "col0": "J. Cotter",
        "col1": "Vernon, British Columbia",
        "col2": "British Columbia",
        "col3": "1974-10-15",
        "col4": "1974-10-15"
    },
    {
        "col0": "J. Thurston",
        "col1": "Winnipeg, Manitoba",
        "col2": "Manitoba",
        "col3": "1971-12-02",
        "col4": "1971-12-02"
    },
    {
        "col0": "J. Officer",
        "col1": "Manitoba",
        "col2": "Manitoba",
        "col3": "1975-06-02",
        "col4": "1975-06-02"
    },
    {
        "col0": "J. Brothers",
        "col1": "Halifax Regional Municipality",
        "col2": "Liverpool, Nova Scotia",
        "col3": "1983-05-20",
        "col4": "1983-05-20"
    },
    {
        "col0": "J. Snitil",
        "col1": "Brno",
        "col2": "Czechoslovakia",
        "col3": "1975-02-24",
        "col4": "1975-02-24"
    },
    {
        "col0": "J. Kaufman",
        "col1": "Edmonton, Alberta",
        "col2": "Edmonton",
        "col3": "1988-08-24",
        "col4": "1988-08-24"
    },
    {
        "col0": "J. Schultz",
        "col1": "St. Paul, Minnesota",
        "col2": "Anchorage, Alaska",
        "col3": "1985-01-02",
        "col4": "1985-01-02"
    },
    {
        "col0": "J. Mair",
        "col1": "Saville Sports Centre",
        "col2": "Alberta",
        "col3": "1984-05-14",
        "col4": "1984-05-14"
    },
    {
        "col0": "J. Jones",
        "col1": "Manitoba",
        "col2": "Manitoba",
        "col3": "1974-07-07",
        "col4": "1974-07-07"
    },
    {
        "col0": "J. Gates",
        "col1": "Alberta",
        "col2": "Ontario",
        "col3": "1990-04-22",
        "col4": "1990-04-22"
    },
    {
        "col0": "J. Baxter",
        "col1": "Dartmouth, Nova Scotia",
        "col2": "Nova Scotia",
        "col3": "1987-04-04",
        "col4": "1987-04-04"
    },
    {
        "col0": "J. Hanna",
        "col1": "Ottawa",
        "col2": "Canada",
        "col3": "1980-01-22",
        "col4": "1980-01-22"
    },
    {
        "col0": "J. Isaacson",
        "col1": "Duluth, Minnesota",
        "col2": "Virginia, Minnesota",
        "col3": "1983-7-14",
        "col4": "1983-7-14"
    },
    {
        "col0": "J. Ellegaard",
        "col1": "Denmark",
        "col2": "Stevns Municipality",
        "col3": "1987-07-02",
        "col4": "1987-07-02"
    },
    {
        "col0": "J. Schraeder",
        "col1": "Kelowna Curling Club",
        "col2": "Kelowna",
        "col3": "1976-09-21",
        "col4": "1976-09-21"
    },
    {
        "col0": "J. Menard",
        "col1": "Saint-Romuald",
        "col2": "Quebec",
        "col3": "1976-01-19",
        "col4": "1976-01-19"
    },
    {
        "col0": "J. Smith",
        "col1": "Blaine, Minnesota",
        "col2": "Robbinsdale, Minnesota",
        "col3": "1983-9-18",
        "col4": "1983-9-18"
    },
    {
        "col0": "J. Roach",
        "col1": "Saint John, New Brunswick",
        "col2": "Saint John, New Brunswick",
        "col3": "1984-07-11",
        "col4": "1984-07-11"
    },
    {
        "col0": "J. Gunnlaugson",
        "col1": "Winnipeg",
        "col2": "Manitoba",
        "col3": "1984-06-02",
        "col4": "1984-06-02"
    },
    {
        "col0": "J. Zezel",
        "col1": "Bemidji Curling Club",
        "col2": "Hibbing, Minnesota",
        "col3": "1991-03-04",
        "col4": "1991-03-04"
    },
    {
        "col0": "J. Pitko",
        "col1": "Lohja, Finland",
        "col2": "Kemi",
        "col3": "1981-09-08",
        "col4": "1981-09-08"
    },
    {
        "col0": "J. LeBlanc",
        "col1": "Chester, Nova Scotia",
        "col2": "Halifax, Nova Scotia",
        "col3": "1997-05-25",
        "col4": "1997-05-25"
    },
    {
        "col0": "J. Harvey",
        "col1": "Granite Curling Club",
        "col2": "Manitoba",
        "col3": "1967-03-28",
        "col4": "1967-03-28"
    },
    {
        "col0": "J. Sinclair",
        "col1": "Manotick, Ontario",
        "col2": "Anchorage, Alaska",
        "col3": "1992-02-21",
        "col4": "1992-02-21"
    },
    {
        "col0": "J. Korab",
        "col1": "St. John's, Newfoundland and Labrador",
        "col2": "Harbour Grace",
        "col3": "1979-11-28",
        "col4": "1979-11-28"
    },
    {
        "col0": "J. Koe",
        "col1": "Yellowknife Curling Club",
        "col2": "Northwest Territories",
        "col3": "1977-11-03",
        "col4": "1977-11-03"
    },
    {
        "col0": "J. King",
        "col1": "Edmonton",
        "col2": "Alberta",
        "col3": "1973-11-21",
        "col4": "1973-11-21"
    },
    {
        "col0": "J. Haskell",
        "col1": "Bemidji Curling Club",
        "col2": "Bemidji, Minnesota",
        "col3": "1980-07-18",
        "col4": "1980-07-18"
    },
    {
        "col0": "J. Danbrook",
        "col1": "Halifax, Nova Scotia",
        "col2": "Vernon, British Columbia",
        "col3": "1988-06-05",
        "col4": "1988-06-05"
    },
    {
        "col0": "J. Grattan",
        "col1": "Oromocto, New Brunswick",
        "col2": "Canada",
        "col3": "1974-07-28",
        "col4": "1974-07-28"
    },
    {
        "col0": "J. Armstrong",
        "col1": "Kelowna, British Columbia",
        "col2": "British Columbia",
        "col3": "1976-03-19",
        "col4": "1976-03-19"
    },
    {
        "col0": "J. Harrison",
        "col1": "Mississauga",
        "col2": "Ontario",
        "col3": "1978-07-28",
        "col4": "1978-07-28"
    },
    {
        "col0": "I. Schori",
        "col1": "Flims",
        "col2": "Zurich",
        "col3": "1983-12-04",
        "col4": "1983-12-04"
    },
    {
        "col0": "H. V. Petersson",
        "col1": "Oslo",
        "col2": "Norway",
        "col3": "1984-01-05",
        "col4": "1984-01-05"
    },
    {
        "col0": "H. Rajala",
        "col1": "Ottawa",
        "col2": "Sault Ste. Marie, Ontario",
        "col3": "1962-02-12",
        "col4": "1962-02-12"
    },
    {
        "col0": "H. Nicol",
        "col1": "Don Mills",
        "col2": "Ontario",
        "col3": "1987-01-06",
        "col4": "1987-01-06"
    },
    {
        "col0": "H. Simonsen",
        "col1": "Denmark",
        "col2": "Denmark",
        "col3": "1984-09-07",
        "col4": "1984-09-07"
    },
    {
        "col0": "H. Strong",
        "col1": "St. John's Curling Club",
        "col2": "St. John's, Newfoundland and Labrador",
        "col3": "1976-11-09",
        "col4": "1976-11-09"
    },
    {
        "col0": "H. Smith",
        "col1": "Halifax, Nova Scotia",
        "col2": "New Brunswick",
        "col3": "1972-09-21",
        "col4": "1972-09-21"
    },
    {
        "col0": "H. Martin",
        "col1": "Bally Haly Golf & Curling Club",
        "col2": "Halifax, Nova Scotia",
        "col3": "1963-11-10",
        "col4": "1963-11-10"
    },
    {
        "col0": "H. Jensen",
        "col1": "Airdrie, Alberta",
        "col2": "Calgary",
        "col3": "1985-1-1",
        "col4": "1985-1-1"
    },
    {
        "col0": "H. McCormick",
        "col1": "Irvington, New York",
        "col2": "Lansing, Michigan",
        "col3": "1976-08-07",
        "col4": "1976-08-07"
    },
    {
        "col0": "H. V. Petersson",
        "col1": "Oslo",
        "col2": "Norway",
        "col3": "1984-01-05",
        "col4": "1984-01-05"
    },
    {
        "col0": "G. Hemmings",
        "col1": "Sorel, Quebec",
        "col2": "Quebec",
        "col3": "1962-05-10",
        "col4": "1962-05-10"
    },
    {
        "col0": "G. Drummond",
        "col1": "Aberdeen",
        "col2": "Scotland",
        "col3": "1989-02-03",
        "col4": "1989-02-03"
    },
    {
        "col0": "G. Balsdon",
        "col1": "Kingston, Ontario",
        "col2": "Ontario",
        "col3": "1977-10-09",
        "col4": "1977-10-09"
    },
    {
        "col0": "G. Howard",
        "col1": "Coldwater, Ontario",
        "col2": "Ontario",
        "col3": "1962-07-17",
        "col4": "1962-07-17"
    },
    {
        "col0": "G. Apollonio",
        "col1": "Cortina d'Ampezzo",
        "col2": "Italy",
        "col3": "1988-03-13",
        "col4": "1988-03-13"
    },
    {
        "col0": "G. Un-chi",
        "col1": "Euijeongbu City",
        "col2": "Korea",
        "col3": "1990-01-23",
        "col4": "1990-01-23"
    },
    {
        "col0": "G. Ramsay",
        "col1": "Calgary Curling Club",
        "col2": "Prince Edward Island",
        "col3": "1988-10-26",
        "col4": "1988-10-26"
    },
    {
        "col0": "G. Wheatcroft",
        "col1": "New Westminster",
        "col2": "Nanaimo",
        "col3": "1965-11-30",
        "col4": "1965-11-30"
    },
    {
        "col0": "G. Walker",
        "col1": "Bally Haly Golf and Curling Club",
        "col2": "Alberta",
        "col3": "1985-11-28",
        "col4": "1985-11-28"
    },
    {
        "col0": "F. Kaufmann",
        "col1": "Flims",
        "col2": "Unterseen",
        "col3": "1987-11-03",
        "col4": "1987-11-03"
    },
    {
        "col0": "F. Davanger",
        "col1": "Oslo",
        "col2": "Bergen",
        "col3": "1963-4-1",
        "col4": "1963-4-1"
    },
    {
        "col0": "E. MacDonald",
        "col1": "Inverness",
        "col2": "Scotland",
        "col3": "1975-11-17",
        "col4": "1975-11-17"
    },
    {
        "col0": "E. Arkhipov",
        "col1": "Moscow",
        "col2": "Moscow",
        "col3": "1992-01-04",
        "col4": "1992-01-04"
    },
    {
        "col0": "E. Muirhead",
        "col1": "Pitlochry",
        "col2": "Perth, Scotland",
        "col3": "1990-04-22",
        "col4": "1990-04-22"
    },
    {
        "col0": "E. Carmody",
        "col1": "Edmonton, Alberta",
        "col2": "Prince Edward Island",
        "col3": "1988-08-04",
        "col4": "1988-08-04"
    },
    {
        "col0": "E. Brown",
        "col1": "Madison, Wisconsin",
        "col2": "Madison, Wisconsin",
        "col3": "1973-01-25",
        "col4": "1973-01-25"
    },
    {
        "col0": "E. Fenson",
        "col1": "Minnesota",
        "col2": "Minnesota",
        "col3": "1971-05-06",
        "col4": "1971-05-06"
    },
    {
        "col0": "E. Miskew",
        "col1": "Ottawa",
        "col2": "Ontario",
        "col3": "1989-02-14",
        "col4": "1989-02-14"
    },
    {
        "col0": "E. Kizilkaya",
        "col1": "Ataturk University",
        "col2": "Erzurum",
        "col3": "1991-1-1",
        "col4": "1991-1-1"
    },
    {
        "col0": "E. Galkina",
        "col1": "Moscow",
        "col2": "Moscow",
        "col3": "1988-08-10",
        "col4": "1988-08-10"
    },
    {
        "col0": "E. J. Harnden",
        "col1": "Sault Ste. Marie, Ontario",
        "col2": "Ontario",
        "col3": "1983-04-14",
        "col4": "1983-04-14"
    },
    {
        "col0": "D. Gaspari",
        "col1": "Cortina d'Ampezzo",
        "col2": "Italy",
        "col3": "1984-06-05",
        "col4": "1984-06-05"
    },
    {
        "col0": "D. Samagalski",
        "col1": "West St. Paul, Manitoba",
        "col2": "Manitoba",
        "col3": "1984-09-09",
        "col4": "1984-09-09"
    },
    {
        "col0": "D. Neufeld",
        "col1": "Winnipeg",
        "col2": "Steinbach, Manitoba",
        "col3": "1981-01-25",
        "col4": "1981-01-25"
    },
    {
        "col0": "D. McCormick",
        "col1": "Madison, Wisconsin",
        "col2": "Saskatoon",
        "col3": "1974-1-8",
        "col4": "1974-1-8"
    },
    {
        "col0": "D. Gemmell",
        "col1": "New Jersey",
        "col2": "British Columbia",
        "col3": "1967-08-27",
        "col4": "1967-08-27"
    },
    {
        "col0": "D. Deruelle",
        "col1": "Brampton, Ontario",
        "col2": "Ontario",
        "col3": "1982-06-17",
        "col4": "1982-06-17"
    },
    {
        "col0": "D. Moses",
        "col1": "Yellowknife, Northwest Territories",
        "col2": "Northwest Territories",
        "col3": "1969-11-10",
        "col4": "1969-11-10"
    }
]