[
    {
        "col0": "Liver",
        "col1": "40",
        "col2": "9",
        "col3": "103",
        "col4": "26"
    },
    {
        "col0": "Lion",
        "col1": "76",
        "col2": "33",
        "col3": "193",
        "col4": "45"
    },
    {
        "col0": "Lime",
        "col1": "100",
        "col2": "75",
        "col3": "191",
        "col4": "0"
    },
    {
        "col0": "Lilac",
        "col1": "78",
        "col2": "300",
        "col3": "200",
        "col4": "19"
    },
    {
        "col0": "Lavender",
        "col1": "98",
        "col2": "240",
        "col3": "230",
        "col4": "8"
    },
    {
        "col0": "Lava",
        "col1": "28",
        "col2": "27",
        "col3": "72",
        "col4": "17"
    },
    {
        "col0": "Kobicha",
        "col1": "42",
        "col2": "28",
        "col3": "107",
        "col4": "36"
    },
    {
        "col0": "Jonquil",
        "col1": "96",
        "col2": "49",
        "col3": "244",
        "col4": "17"
    },
    {
        "col0": "Jasmine",
        "col1": "97",
        "col2": "47",
        "col3": "248",
        "col4": "11"
    },
    {
        "col0": "Ivory",
        "col1": "100",
        "col2": "60",
        "col3": "255",
        "col4": "0"
    },
    {
        "col0": "Indigo",
        "col1": "51",
        "col2": "275",
        "col3": "75",
        "col4": "100"
    },
    {
        "col0": "Indian red",
        "col1": "75",
        "col2": "0",
        "col3": "205",
        "col4": "52"
    },
    {
        "col0": "Heliotrope",
        "col1": "100",
        "col2": "286",
        "col3": "223",
        "col4": "55"
    },
    {
        "col0": "Goldenrod",
        "col1": "85",
        "col2": "43",
        "col3": "218",
        "col4": "24"
    },
    {
        "col0": "Gold",
        "col1": "100",
        "col2": "51",
        "col3": "255",
        "col4": "16"
    },
    {
        "col0": "Glaucous",
        "col1": "71",
        "col2": "216",
        "col3": "96",
        "col4": "29"
    },
    {
        "col0": "Fulvous",
        "col1": "89",
        "col2": "35",
        "col3": "228",
        "col4": "42"
    },
    {
        "col0": "Forest green",
        "col1": "55",
        "col2": "120",
        "col3": "34",
        "col4": "21"
    },
    {
        "col0": "Flax",
        "col1": "93",
        "col2": "50",
        "col3": "238",
        "col4": "8"
    },
    {
        "col0": "Fire engine red",
        "col1": "81",
        "col2": "357",
        "col3": "206",
        "col4": "89"
    },
    {
        "col0": "Federal Standard 595 camouflage colours",
        "col1": "62",
        "col2": "212",
        "col3": "146",
        "col4": "40"
    },
    {
        "col0": "Fallow",
        "col1": "76",
        "col2": "33",
        "col3": "193",
        "col4": "14"
    },
    {
        "col0": "Electric green",
        "col1": "100",
        "col2": "120",
        "col3": "0",
        "col4": "0"
    },
    {
        "col0": "Electric blue",
        "col1": "100",
        "col2": "183",
        "col3": "125",
        "col4": "2"
    },
    {
        "col0": "Eggshell",
        "col1": "94",
        "col2": "46",
        "col3": "240",
        "col4": "2"
    },
    {
        "col0": "Duke blue",
        "col1": "34",
        "col2": "222",
        "col3": "0",
        "col4": "75"
    },
    {
        "col0": "Desert sand",
        "col1": "93",
        "col2": "25",
        "col3": "237",
        "col4": "15"
    },
    {
        "col0": "Dark purple",
        "col1": "20",
        "col2": "291",
        "col3": "48",
        "col4": "52"
    },
    {
        "col0": "Cyclamen",
        "col1": "96",
        "col2": "0",
        "col3": "245",
        "col4": "55"
    },
    {
        "col0": "Cyan",
        "col1": "100",
        "col2": "180",
        "col3": "0",
        "col4": "0"
    },
    {
        "col0": "Crimson",
        "col1": "86",
        "col2": "348",
        "col3": "220",
        "col4": "100"
    },
    {
        "col0": "Cream",
        "col1": "100",
        "col2": "57",
        "col3": "255",
        "col4": "1"
    },
    {
        "col0": "Coyote brown",
        "col1": "51",
        "col2": "31",
        "col3": "129",
        "col4": "25"
    },
    {
        "col0": "Cornflower blue",
        "col1": "93",
        "col2": "219",
        "col3": "100",
        "col4": "37"
    },
    {
        "col0": "Cordovan",
        "col1": "54",
        "col2": "355",
        "col3": "137",
        "col4": "54"
    },
    {
        "col0": "Coral",
        "col1": "100",
        "col2": "16",
        "col3": "255",
        "col4": "50"
    },
    {
        "col0": "Coquelicot",
        "col1": "100",
        "col2": "13",
        "col3": "255",
        "col4": "78"
    },
    {
        "col0": "Copper",
        "col1": "72",
        "col2": "29",
        "col3": "184",
        "col4": "32"
    },
    {
        "col0": "Columbia blue",
        "col1": "89",
        "col2": "200",
        "col3": "196",
        "col4": "4"
    },
    {
        "col0": "Coffee",
        "col1": "44",
        "col2": "25",
        "col3": "111",
        "col4": "30"
    },
    {
        "col0": "Citron",
        "col1": "66",
        "col2": "64",
        "col3": "158",
        "col4": "0"
    },
    {
        "col0": "Citrine",
        "col1": "89",
        "col2": "54",
        "col3": "228",
        "col4": "8"
    },
    {
        "col0": "Cinereous",
        "col1": "60",
        "col2": "12",
        "col3": "152",
        "col4": "15"
    },
    {
        "col0": "Chocolate",
        "col1": "48",
        "col2": "31",
        "col3": "123",
        "col4": "50"
    },
    {
        "col0": "Chestnut",
        "col1": "58",
        "col2": "10",
        "col3": "149",
        "col4": "54"
    },
    {
        "col0": "Chartreuse",
        "col1": "100",
        "col2": "90",
        "col3": "127",
        "col4": "0"
    },
    {
        "col0": "Champagne",
        "col1": "97",
        "col2": "37",
        "col3": "247",
        "col4": "6"
    },
    {
        "col0": "Cerulean",
        "col1": "65",
        "col2": "196",
        "col3": "0",
        "col4": "26"
    },
    {
        "col0": "Cerise",
        "col1": "87",
        "col2": "343",
        "col3": "222",
        "col4": "95"
    },
    {
        "col0": "Carmine",
        "col1": "59",
        "col2": "350",
        "col3": "150",
        "col4": "75"
    },
    {
        "col0": "Cardinal",
        "col1": "77",
        "col2": "350",
        "col3": "196",
        "col4": "85"
    },
    {
        "col0": "Capri",
        "col1": "100",
        "col2": "195",
        "col3": "0",
        "col4": "25"
    },
    {
        "col0": "Candy apple red",
        "col1": "100",
        "col2": "2",
        "col3": "255",
        "col4": "97"
    },
    {
        "col0": "Camel",
        "col1": "76",
        "col2": "33",
        "col3": "193",
        "col4": "20"
    },
    {
        "col0": "Cadet grey",
        "col1": "69",
        "col2": "205",
        "col3": "145",
        "col4": "29"
    }
]