[
    {
        "col0": "The Mist",
        "col1": "J. DeMunn",
        "col2": "H. Via",
        "col3": "57300000"
    },
    {
        "col0": "The Missouri Breaks",
        "col1": "J. Nicholson",
        "col2": "G. B. Greenberg",
        "col3": "14000000"
    },
    {
        "col0": "The Mission",
        "col1": "R. D. Niro",
        "col2": "J. Clark",
        "col3": "17200000"
    },
    {
        "col0": "The Missing",
        "col1": "T. L. Jones",
        "col2": "M. Hill",
        "col3": "38400000"
    },
    {
        "col0": "The Misfits",
        "col1": "M. Monroe",
        "col2": "G. Tomasini",
        "col3": "4100000"
    },
    {
        "col0": "The Misadventures of Merlin Jones",
        "col1": "A. Funicello",
        "col2": "C. Warburton",
        "col3": "4000000"
    },
    {
        "col0": "The Mirror Has Two Faces",
        "col1": "B. Streisand",
        "col2": "J. M. Werner",
        "col3": "91610201"
    },
    {
        "col0": "The Miracle of the Bells",
        "col1": "F. Sinatra",
        "col2": "E. Williams",
        "col3": "2100000"
    },
    {
        "col0": "The Miracle of Morgan's Creek",
        "col1": "B. Hutton",
        "col2": "S. Gilmore",
        "col3": "9000000"
    },
    {
        "col0": "The Miracle Worker",
        "col1": "A. Bancroft",
        "col2": "A. Avakian",
        "col3": "2500000"
    },
    {
        "col0": "The Miniver Story",
        "col1": "G. Garson",
        "col2": "H. F. Kress",
        "col3": "2224000"
    },
    {
        "col0": "The Million Dollar Hotel",
        "col1": "M. Gibson",
        "col2": "T. S. Riegel",
        "col3": "59989"
    },
    {
        "col0": "The Milky Way",
        "col1": "H. Lloyd",
        "col2": "L. Stone",
        "col3": "1170000"
    },
    {
        "col0": "The Mighty Quinn",
        "col1": "M. E. Walsh",
        "col2": "J. Jympson",
        "col3": "4557214"
    },
    {
        "col0": "The Mighty",
        "col1": "G. Anderson",
        "col2": "M. Walsh",
        "col3": "2700000"
    },
    {
        "col0": "The Midnight After",
        "col1": "S. Lee",
        "col2": "F. Chan",
        "col3": "21202240"
    },
    {
        "col0": "The Mexican",
        "col1": "B. Pitt",
        "col2": "C. Wood",
        "col3": "147845033"
    },
    {
        "col0": "The Message",
        "col1": "M. Ansara",
        "col2": "J. Bloom",
        "col3": "15000000"
    },
    {
        "col0": "The Merry Widow",
        "col1": "F. Lamas",
        "col2": "C. A. Nervig",
        "col3": "4500000"
    },
    {
        "col0": "The Merry Widow",
        "col1": "M. Chevalier",
        "col2": "A. Fazan",
        "col3": "1747000"
    },
    {
        "col0": "The Merry Widow",
        "col1": "J. Gilbert",
        "col2": "M. Booth",
        "col3": "1500000"
    },
    {
        "col0": "The Mermaid",
        "col1": "S. Luo",
        "col2": "C. Ka-fai",
        "col3": "553800000"
    },
    {
        "col0": "The Merchant of Venice",
        "col1": "A. Pacino",
        "col2": "L. Zucchetti",
        "col3": "21417725"
    },
    {
        "col0": "The Men Who Stare at Goats",
        "col1": "G. Clooney",
        "col2": "T. S. Riegel",
        "col3": "68968688"
    },
    {
        "col0": "The Men's Club",
        "col1": "C. Pickett",
        "col2": "B. Butler",
        "col3": "2556361"
    },
    {
        "col0": "The Mean Season",
        "col1": "R. Jordan",
        "col2": "D. Dunham",
        "col3": "4300000"
    },
    {
        "col0": "The McConnell Story",
        "col1": "J. Whitmore",
        "col2": "O. Marks",
        "col3": "3500000"
    },
    {
        "col0": "The Maze Runner",
        "col1": "P. Clarkson",
        "col2": "D. Zimmerman",
        "col3": "348300000"
    },
    {
        "col0": "The Matrix",
        "col1": "C. Moss",
        "col2": "Z. Staenberg",
        "col3": "1632000000"
    },
    {
        "col0": "The Matriarch",
        "col1": "J. Banerjee",
        "col2": "M. Polonen",
        "col3": "435981"
    },
    {
        "col0": "The Mating Season",
        "col1": "J. Lund",
        "col2": "F. Bracht",
        "col3": "1625000"
    },
    {
        "col0": "The Match Factory Girl",
        "col1": "K. Outinen",
        "col2": "A. Kaurismaki",
        "col3": "131180"
    },
    {
        "col0": "The Master of Ballantrae",
        "col1": "E. Flynn",
        "col2": "J. Harris",
        "col3": "2000000"
    },
    {
        "col0": "The Master",
        "col1": "A. Adams",
        "col2": "L. Jones",
        "col3": "28300000"
    },
    {
        "col0": "The Master",
        "col1": "J. Li",
        "col2": "M. Mak",
        "col3": "8096542"
    },
    {
        "col0": "The Mask of Zorro",
        "col1": "A. Hopkins",
        "col2": "T. Noble",
        "col3": "250300000"
    },
    {
        "col0": "The Martian",
        "col1": "K. Wiig",
        "col2": "P. Scalia",
        "col3": "630200000"
    },
    {
        "col0": "The Marshal of Mesa City",
        "col1": "G. O'Brien",
        "col2": "F. Knudtson",
        "col3": "180000"
    },
    {
        "col0": "The Marrying Man",
        "col1": "A. Baldwin",
        "col2": "M. Tronick",
        "col3": "12500000"
    },
    {
        "col0": "The Marriage of Maria Braun",
        "col1": "H. Schygulla",
        "col2": "R. W. Fassbinder",
        "col3": "1800000"
    },
    {
        "col0": "The Marchers",
        "col1": "L. Azabal",
        "col2": "D. Keyeux",
        "col3": "1300000"
    },
    {
        "col0": "The Marc Pease Experience",
        "col1": "A. Kendrick",
        "col2": "J. Monroe",
        "col3": "390584"
    },
    {
        "col0": "The Manchurian Candidate",
        "col1": "M. Streep",
        "col2": "C. McKay",
        "col3": "96100000"
    },
    {
        "col0": "The Manchurian Candidate",
        "col1": "A. Lansbury",
        "col2": "F. Webster",
        "col3": "7700000"
    },
    {
        "col0": "The Man with the Golden Arm",
        "col1": "F. Sinatra",
        "col2": "L. R. Loeffler",
        "col3": "4350000"
    },
    {
        "col0": "The Man with Two Brains",
        "col1": "D. Warner",
        "col2": "B. Molin",
        "col3": "10353438"
    },
    {
        "col0": "The Man with One Red Shoe",
        "col1": "T. Hanks",
        "col2": "B. Molin",
        "col3": "8645411"
    },
    {
        "col0": "The Man in the Iron Mask",
        "col1": "J. Irons",
        "col2": "W. Hoy",
        "col3": "183000000"
    },
    {
        "col0": "The Man in the Gray Flannel Suit",
        "col1": "G. Peck",
        "col2": "D. Spencer",
        "col3": "4350000"
    },
    {
        "col0": "The Man in Grey",
        "col1": "S. Granger",
        "col2": "R. E. Dearing",
        "col3": "300000"
    },
    {
        "col0": "The Man from the Alamo",
        "col1": "J. Adams",
        "col2": "V. W. Vogel",
        "col3": "1150000"
    },
    {
        "col0": "The Man from Snowy River",
        "col1": "L. Bayly",
        "col2": "A. Carr",
        "col3": "17228160"
    },
    {
        "col0": "The Man from Laramie",
        "col1": "J. Stewart",
        "col2": "W. Lyon",
        "col3": "3300000"
    },
    {
        "col0": "The Man from Down Under",
        "col1": "C. Laughton",
        "col2": "G. White",
        "col3": "1070000"
    },
    {
        "col0": "The Man Without a Face",
        "col1": "G. Lewis",
        "col2": "A. Gibbs",
        "col3": "24760338"
    },
    {
        "col0": "The Man Within",
        "col1": "J. Kent",
        "col2": "A. Roome",
        "col3": "128100"
    },
    {
        "col0": "The Man Who Would Be King",
        "col1": "M. Caine",
        "col2": "R. Lloyd",
        "col3": "17200000"
    },
    {
        "col0": "The Man Who Shot Liberty Valance",
        "col1": "J. Stewart",
        "col2": "O. Lovering",
        "col3": "8000000"
    },
    {
        "col0": "The Man Who Played God",
        "col1": "B. Davis",
        "col2": "W. Holmes",
        "col3": "835000"
    },
    {
        "col0": "The Man Who Loved Women",
        "col1": "J. Andrews",
        "col2": "R. E. Winters",
        "col3": "10964231"
    },
    {
        "col0": "The Man Who Loved Redheads",
        "col1": "M. Shearer",
        "col2": "B. Bates",
        "col3": "94870"
    },
    {
        "col0": "The Man Who Loved Cat Dancing",
        "col1": "B. Reynolds",
        "col2": "T. Rolf",
        "col3": "3600000"
    },
    {
        "col0": "The Man Who Knew Too Much",
        "col1": "D. Day",
        "col2": "G. Tomasini",
        "col3": "11300000"
    },
    {
        "col0": "The Man Who Had Power Over Women",
        "col1": "C. White",
        "col2": "T. Noble",
        "col3": "11400"
    },
    {
        "col0": "The Man Between",
        "col1": "C. Bloom",
        "col2": "B. Bates",
        "col3": "139491"
    }
]