[
    {
        "col0": "Bole",
        "col1": "51",
        "col2": "0",
        "col3": "59",
        "col4": "51"
    },
    {
        "col0": "Blue-green",
        "col1": "93",
        "col2": "93",
        "col3": "186",
        "col4": "0"
    },
    {
        "col0": "Blue-gray",
        "col1": "50",
        "col2": "50",
        "col3": "204",
        "col4": "0"
    },
    {
        "col0": "Bleu de France",
        "col1": "79",
        "col2": "79",
        "col3": "231",
        "col4": "0"
    },
    {
        "col0": "Bistre",
        "col1": "49",
        "col2": "0",
        "col3": "31",
        "col4": "49"
    },
    {
        "col0": "Beige",
        "col1": "10",
        "col2": "0",
        "col3": "220",
        "col4": "10"
    },
    {
        "col0": "Baker-Miller Pink",
        "col1": "43",
        "col2": "0",
        "col3": "175",
        "col4": "31"
    },
    {
        "col0": "Baby blue",
        "col1": "43",
        "col2": "43",
        "col3": "240",
        "col4": "0"
    },
    {
        "col0": "Aqua",
        "col1": "100",
        "col2": "100",
        "col3": "255",
        "col4": "0"
    },
    {
        "col0": "Apricot",
        "col1": "30",
        "col2": "0",
        "col3": "177",
        "col4": "30"
    },
    {
        "col0": "Android green",
        "col1": "71",
        "col2": "17",
        "col3": "57",
        "col4": "71"
    },
    {
        "col0": "Amber",
        "col1": "100",
        "col2": "0",
        "col3": "0",
        "col4": "100"
    },
    {
        "col0": "Amaranth",
        "col1": "35",
        "col2": "0",
        "col3": "187",
        "col4": "22"
    },
    {
        "col0": "Alizarin crimson",
        "col1": "83",
        "col2": "0",
        "col3": "54",
        "col4": "76"
    },
    {
        "col0": "Alice blue",
        "col1": "6",
        "col2": "6",
        "col3": "255",
        "col4": "1"
    },
    {
        "col0": "Acid green",
        "col1": "86",
        "col2": "8",
        "col3": "26",
        "col4": "86"
    }
]