[
    {
        "col0": "Camp Wilder",
        "col1": "M. Carlson",
        "col2": "J. Widdoes",
        "col3": "1993-02-26"
    },
    {
        "col0": "Camp Runamuck",
        "col1": "D. Swift",
        "col2": "C. Barton",
        "col3": "1966-09-02"
    },
    {
        "col0": "Cambridge Spies",
        "col1": "P. Moffat",
        "col2": "T. Fywell",
        "col3": "2003-05-30"
    },
    {
        "col0": "Cain's Hundred",
        "col1": "P. Monash",
        "col2": "T. Gries",
        "col3": "1962-05-15"
    },
    {
        "col0": "CI5: The New Professionals",
        "col1": "B. Clemens",
        "col2": "R. Austin",
        "col3": "1999-12-19"
    },
    {
        "col0": "CBS Playhouse",
        "col1": "R. Rose",
        "col2": "P. Bogart",
        "col3": "1970-02-10"
    },
    {
        "col0": "C/o Segemyhr",
        "col1": "F. Lindstrom",
        "col2": "K. Sundvall",
        "col3": "2004-12-13"
    },
    {
        "col0": "Byron",
        "col1": "N. Dear",
        "col2": "J. Farino",
        "col3": "2003-09-28"
    },
    {
        "col0": "Burn It",
        "col1": "M. Greenhalgh",
        "col2": "J. Duthie",
        "col3": "2003-11-10"
    },
    {
        "col0": "Bunty I Love You",
        "col1": "K. Qamar",
        "col2": "Siraj-ul-Haque",
        "col3": "2014-05-18"
    },
    {
        "col0": "Buffalo Bill Jr.",
        "col1": "S. Newman",
        "col2": "F. McDonald",
        "col3": "1956-09-21"
    },
    {
        "col0": "Buddies",
        "col1": "P. Tolan",
        "col2": "J. Pasquin",
        "col3": "1996-04-03"
    },
    {
        "col0": "Buckskin",
        "col1": "C. Beaumont",
        "col2": "A. Biberman",
        "col3": "1959-05-25"
    },
    {
        "col0": "Brothers and Sisters",
        "col1": "J. Franklin",
        "col2": "L. Ganz",
        "col3": "1979-04-06"
    },
    {
        "col0": "Brotherhood",
        "col1": "H. Bromell",
        "col2": "N. Gomez",
        "col3": "2008-12-21"
    },
    {
        "col0": "Broadside",
        "col1": "E. Schwartz",
        "col2": "C. Barton",
        "col3": "1965-05-02"
    },
    {
        "col0": "Bringing Up Buddy",
        "col1": "B. Mosher",
        "col2": "S. Lanfield",
        "col3": "1961-06-28"
    },
    {
        "col0": "Brilliant Legacy",
        "col1": "S. Hyun-kyung",
        "col2": "J. Hyuk",
        "col3": "2009-07-26"
    },
    {
        "col0": "Bright Promise",
        "col1": "L. Brody",
        "col2": "G. Monty",
        "col3": "1972-03-31"
    },
    {
        "col0": "Brewster Place",
        "col1": "G. Naylor",
        "col2": "I. Dixon",
        "col3": "1990-05-30"
    },
    {
        "col0": "Bravo Two Zero",
        "col1": "A. McNab",
        "col2": "T. Clegg",
        "col3": "1999-01-04"
    },
    {
        "col0": "Brand X with Russell Brand",
        "col1": "R. Brand",
        "col2": "T. Miller",
        "col3": "2013-05-02"
    },
    {
        "col0": "Brand New Life",
        "col1": "C. Carter",
        "col2": "E. Laneuville",
        "col3": "1990-04-15"
    },
    {
        "col0": "Bracken's World",
        "col1": "B. Leslie",
        "col2": "H. Daugherty",
        "col3": "1970-12-25"
    },
    {
        "col0": "Born Free",
        "col1": "C. Foreman",
        "col2": "R. Mayberry",
        "col3": "1974-12-30"
    },
    {
        "col0": "Borgen",
        "col1": "A. Price",
        "col2": "S. Kragh-Jacobsen",
        "col3": "2013-03-10"
    },
    {
        "col0": "Bora",
        "col1": "J. J. Reyes",
        "col2": "J. Manahan",
        "col3": "2006-04-11"
    },
    {
        "col0": "Boots and Saddles",
        "col1": "G. Roddenberry",
        "col2": "B. L. Kowalski",
        "col3": "1958-05-29"
    },
    {
        "col0": "Bootleg",
        "col1": "P. Smith",
        "col2": "I. Gilmour",
        "col3": "2002-12-22"
    },
    {
        "col0": "Bonnie",
        "col1": "B. Hunt",
        "col2": "J. Bowab",
        "col3": "1996-04-07"
    },
    {
        "col0": "Bomb Girls",
        "col1": "M. MacLennan",
        "col2": "A. Wheeler",
        "col3": "2013-04-29"
    },
    {
        "col0": "Bolts and Blip",
        "col1": "T. McGurrin",
        "col2": "P. Lepeniotis",
        "col3": "2011-12-25"
    },
    {
        "col0": "Bojhena Se Bojhena",
        "col1": "G. Khan",
        "col2": "P. Jha",
        "col3": "2016-06-18"
    },
    {
        "col0": "Bob",
        "col1": "M. Evanier",
        "col2": "D. Martin",
        "col3": "1993-12-27"
    },
    {
        "col0": "Bob & Carol & Ted & Alice",
        "col1": "B. M. Kahn",
        "col2": "L. Penn",
        "col3": "1973-11-07"
    },
    {
        "col0": "Bluey",
        "col1": "E. D. Roche",
        "col2": "G. Conway",
        "col3": "1977-04-25"
    },
    {
        "col0": "Blue Murder",
        "col1": "I. David",
        "col2": "M. Jenkins",
        "col3": "1995-09-21"
    },
    {
        "col0": "Blue Light",
        "col1": "J. Farr",
        "col2": "L. Penn",
        "col3": "1966-05-18"
    },
    {
        "col0": "Blue Heaven",
        "col1": "F. Skinner",
        "col2": "T. Dow",
        "col3": "1994-09-03"
    },
    {
        "col0": "Blondie",
        "col1": "D. Simon",
        "col2": "G. Nelson",
        "col3": "1969-01-09"
    },
    {
        "col0": "Bleak House",
        "col1": "C. Dickens",
        "col2": "J. Chadwick",
        "col3": "2005-12-16"
    },
    {
        "col0": "Black Saddle",
        "col1": "W. Link",
        "col2": "R. Florey",
        "col3": "1960-05-06"
    },
    {
        "col0": "Black Panther",
        "col1": "R. Hudlin",
        "col2": "J. Schnepp",
        "col3": "2010-01-30"
    },
    {
        "col0": "Birdsong",
        "col1": "S. Faulks",
        "col2": "P. Martin",
        "col3": "2012-01-29"
    },
    {
        "col0": "Birds in the Bush",
        "col1": "D. Croft",
        "col2": "D. Croft",
        "col3": "1972-07-26"
    },
    {
        "col0": "Big Town",
        "col1": "E. A. Dupont",
        "col2": "B. Berkeley",
        "col3": "1956-10-07"
    },
    {
        "col0": "Big School",
        "col1": "D. Walliams",
        "col2": "T. Dow",
        "col3": "2014-10-10"
    },
    {
        "col0": "Big Bad World",
        "col1": "L. Woolf",
        "col2": "S. Johnson",
        "col3": "2013-10-09"
    },
    {
        "col0": "Bhakton Ki Bhakti Mein Shakti",
        "col1": "S. Mumtaz",
        "col2": "S. Mumtaz",
        "col3": "2016-07-17"
    },
    {
        "col0": "Beyond the Glory",
        "col1": "R. Krauss",
        "col2": "R. Krauss",
        "col3": "2006-01-01"
    },
    {
        "col0": "Beyond Reality",
        "col1": "J. Kahn",
        "col2": "M. Azzopardi",
        "col3": "1993-03-20"
    },
    {
        "col0": "Beowulf: Return to the Shieldlands",
        "col1": "M. A. Walker",
        "col2": "M. Losey",
        "col3": "2016-03-20"
    },
    {
        "col0": "Being Eileen",
        "col1": "M. Wynne",
        "col2": "S. Tully",
        "col3": "2013-03-11"
    },
    {
        "col0": "Behula",
        "col1": "Kajari",
        "col2": "S. Chatterjee",
        "col3": "2011-08-21"
    },
    {
        "col0": "Behind Closed Doors",
        "col1": "C. Bennett",
        "col2": "B. Sagal",
        "col3": "1959-04-09"
    },
    {
        "col0": "Beggars and Choosers",
        "col1": "D. Shore",
        "col2": "M. Ritchie",
        "col3": "2000-12-12"
    },
    {
        "col0": "Because of You",
        "col1": "R. Cruz",
        "col2": "R. Davao",
        "col3": "2016-05-13"
    },
    {
        "col0": "Beautiful People",
        "col1": "J. Harvey",
        "col2": "D. Kerr",
        "col3": "2009-12-18"
    },
    {
        "col0": "Beau Geste",
        "col1": "T. Dicks",
        "col2": "D. Camfield",
        "col3": "1982-12-19"
    },
    {
        "col0": "Bearcats!",
        "col1": "D. Heyes",
        "col2": "R. Donner",
        "col3": "1971-12-30"
    },
    {
        "col0": "Beacon Hill",
        "col1": "L. Chetwynd",
        "col2": "F. Cook",
        "col3": "1975-11-04"
    },
    {
        "col0": "Bay City Blues",
        "col1": "J. Lewis",
        "col2": "A. A. Seidelman",
        "col3": "1983-11-15"
    },
    {
        "col0": "Battlestar Galactica: Razor Flashbacks",
        "col1": "M. Taylor",
        "col2": "F. E. Alcala",
        "col3": "2007-11-16"
    },
    {
        "col0": "Battle Hawk",
        "col1": "H. Koenji",
        "col2": "T. Yamada",
        "col3": "1977-03-28"
    },
    {
        "col0": "Barefoot in the Park",
        "col1": "C. Shyer",
        "col2": "J. Paris",
        "col3": "1970-12-17"
    },
    {
        "col0": "Barbary Coast",
        "col1": "D. Heyes",
        "col2": "A. Grasshoff",
        "col3": "1976-01-09"
    },
    {
        "col0": "Barareh Nights",
        "col1": "P. G. Khani",
        "col2": "M. Modiri",
        "col3": "2005-12-01"
    },
    {
        "col0": "Banished",
        "col1": "S. Duggan",
        "col2": "J. Walker",
        "col3": "2015-04-16"
    },
    {
        "col0": "Bangkok Hilton",
        "col1": "T. Hayes",
        "col2": "K. Cameron",
        "col3": "1989-11-07"
    },
    {
        "col0": "Ballet Shoes",
        "col1": "J. Wiles",
        "col2": "T. Combe",
        "col3": "1975-11-09"
    },
    {
        "col0": "Bakersfield P.D.",
        "col1": "R. Dresser",
        "col2": "B. Gordon",
        "col3": "1994-08-18"
    },
    {
        "col0": "Bakekang",
        "col1": "D. Cruz",
        "col2": "K. Adalia",
        "col3": "2007-03-30"
    },
    {
        "col0": "Badults",
        "col1": "Pappy's",
        "col2": "G. Anderson",
        "col3": "2014-07-07"
    },
    {
        "col0": "Bade Achhe Lagte Hain",
        "col1": "K. Gupta",
        "col2": "A. V. Kumar",
        "col3": "2014-07-10"
    },
    {
        "col0": "Bad Cop, Bad Cop",
        "col1": "I. David",
        "col2": "D. Caesar",
        "col3": "2003-01-06"
    },
    {
        "col0": "Baby Bob",
        "col1": "D. Signer",
        "col2": "R. Benson",
        "col3": "2003-07-04"
    },
    {
        "col0": "B. J. and the Bear",
        "col1": "G. A. Larson",
        "col2": "D. Haller",
        "col3": "1981-08-11"
    },
    {
        "col0": "Azar Ki Ayegi Baraat",
        "col1": "S. M. Ahmed",
        "col2": "M. Khan",
        "col3": "2009-12-10"
    },
    {
        "col0": "Autumn in My Heart",
        "col1": "O. Soo-yeon",
        "col2": "Y. Seok-ho",
        "col3": "2000-11-07"
    },
    {
        "col0": "Augie Doggie and Doggie Daddy",
        "col1": "M. Maltese",
        "col2": "J. Barbera",
        "col3": "1962-10-20"
    },
    {
        "col0": "Atom Ant",
        "col1": "W. Foster",
        "col2": "J. Barbera",
        "col3": "1968-08-31"
    },
    {
        "col0": "Atlantis High",
        "col1": "R. Thompson",
        "col2": "R. Thompson",
        "col3": "2002-03-02"
    },
    {
        "col0": "At Ease",
        "col1": "J. Hughes",
        "col2": "H. Averback",
        "col3": "1983-06-10"
    },
    {
        "col0": "Assaulted Nuts",
        "col1": "D. Renwick",
        "col2": "R. Cameron",
        "col3": "1985-02-28"
    },
    {
        "col0": "Ask Harriet",
        "col1": "D. Cassidy",
        "col2": "K. Levine",
        "col3": "1998-01-29"
    },
    {
        "col0": "Ashenden",
        "col1": "D. Pirie",
        "col2": "C. Morahan",
        "col3": "1991-12-08"
    },
    {
        "col0": "As Time Goes By",
        "col1": "B. Larbey",
        "col2": "S. Lotterby",
        "col3": "2002-08-11"
    },
    {
        "col0": "Arsenio",
        "col1": "D. S. Rosenthal",
        "col2": "T. Schlamme",
        "col3": "1997-04-23"
    },
    {
        "col0": "Aristocrats",
        "col1": "S. Tillyard",
        "col2": "D. Caffrey",
        "col3": "1999-07-25"
    },
    {
        "col0": "Are You Being Served?",
        "col1": "D. Litten",
        "col2": "D. Croft",
        "col3": "1985-04-01"
    },
    {
        "col0": "Aqua Teen Hunger Force",
        "col1": "D. Willis",
        "col2": "D. Willis",
        "col3": "2015-08-30"
    },
    {
        "col0": "Appointment with Adventure",
        "col1": "R. Serling",
        "col2": "P. Bogart",
        "col3": "1956-04-01"
    },
    {
        "col0": "Apple Pie",
        "col1": "A. Julian",
        "col2": "P. Bonerz",
        "col3": "1978-09-30"
    },
    {
        "col0": "Anna and the King",
        "col1": "B. Idelson",
        "col2": "L. Philips",
        "col3": "1972-12-31"
    },
    {
        "col0": "Anhoniyon Ka Andhera",
        "col1": "V. Bhatt",
        "col2": "V. Bhatt",
        "col3": "2011-07-09"
    },
    {
        "col0": "Angry Boys",
        "col1": "C. Lilley",
        "col2": "C. Lilley",
        "col3": "2011-07-27"
    },
    {
        "col0": "Angels in America",
        "col1": "T. Kushner",
        "col2": "M. Nichols",
        "col3": "2003-12-14"
    },
    {
        "col0": "Andrew Marr's History of the World",
        "col1": "A. Marr",
        "col2": "R. Bartlett",
        "col3": "2012-11-11"
    },
    {
        "col0": "Ancient Rome: The Rise and Fall of an Empire",
        "col1": "A. Grieve",
        "col2": "A. Grieve",
        "col3": "2006-10-26"
    },
    {
        "col0": "Ancient Mysteries",
        "col1": "T. Jennings",
        "col2": "M. Flaum",
        "col3": "1998-05-03"
    },
    {
        "col0": "An Age of Kings",
        "col1": "W. Shakespeare",
        "col2": "M. Hayes",
        "col3": "1960-11-17"
    },
    {
        "col0": "Amudha Oru Aacharyakuri",
        "col1": "K. Balachander",
        "col2": "K. Balachander",
        "col3": "2015-07-20"
    },
    {
        "col0": "Amor real",
        "col1": "C. B. Adams",
        "col2": "M. Miguel",
        "col3": "2003-10-17"
    },
    {
        "col0": "Amor en silencio",
        "col1": "E. Vonn",
        "col2": "M. Miguel",
        "col3": "1988-08-05"
    }
]