[
    {
        "col0": "Shades of brown",
        "col1": "59",
        "col2": "30",
        "col3": "150",
        "col4": "50"
    },
    {
        "col0": "Shades of blue",
        "col1": "100",
        "col2": "240",
        "col3": "0",
        "col4": "100"
    },
    {
        "col0": "Sepia",
        "col1": "44",
        "col2": "30",
        "col3": "112",
        "col4": "41"
    },
    {
        "col0": "Seashell",
        "col1": "100",
        "col2": "25",
        "col3": "255",
        "col4": "3"
    },
    {
        "col0": "Seal brown",
        "col1": "20",
        "col2": "0",
        "col3": "89",
        "col4": "80"
    },
    {
        "col0": "School bus yellow",
        "col1": "100",
        "col2": "51",
        "col3": "255",
        "col4": "12"
    },
    {
        "col0": "Scarlet",
        "col1": "100",
        "col2": "9",
        "col3": "255",
        "col4": "86"
    },
    {
        "col0": "Sapphire",
        "col1": "73",
        "col2": "216",
        "col3": "15",
        "col4": "56"
    },
    {
        "col0": "Salmon",
        "col1": "100",
        "col2": "14",
        "col3": "250",
        "col4": "45"
    },
    {
        "col0": "Saffron",
        "col1": "96",
        "col2": "45",
        "col3": "244",
        "col4": "23"
    },
    {
        "col0": "Safety orange",
        "col1": "100",
        "col2": "28",
        "col3": "255",
        "col4": "55"
    },
    {
        "col0": "Rust",
        "col1": "72",
        "col2": "18",
        "col3": "183",
        "col4": "85"
    },
    {
        "col0": "Russet",
        "col1": "50",
        "col2": "26",
        "col3": "128",
        "col4": "45"
    },
    {
        "col0": "Ruby",
        "col1": "88",
        "col2": "337",
        "col3": "224",
        "col4": "92"
    },
    {
        "col0": "Royal blue",
        "col1": "40",
        "col2": "219",
        "col3": "0",
        "col4": "66"
    },
    {
        "col0": "Rose",
        "col1": "100",
        "col2": "330",
        "col3": "255",
        "col4": "100"
    },
    {
        "col0": "Robin egg blue",
        "col1": "80",
        "col2": "180",
        "col3": "0",
        "col4": "0"
    },
    {
        "col0": "Raspberry",
        "col1": "89",
        "col2": "337",
        "col3": "227",
        "col4": "95"
    },
    {
        "col0": "Raisin black",
        "col1": "14",
        "col2": "300",
        "col3": "36",
        "col4": "8"
    },
    {
        "col0": "Purple",
        "col1": "50",
        "col2": "300",
        "col3": "128",
        "col4": "100"
    },
    {
        "col0": "Puce",
        "col1": "45",
        "col2": "353",
        "col3": "114",
        "col4": "59"
    },
    {
        "col0": "Powder blue",
        "col1": "90",
        "col2": "220",
        "col3": "176",
        "col4": "2"
    },
    {
        "col0": "Plum",
        "col1": "557",
        "col2": "347",
        "col3": "142",
        "col4": "51"
    },
    {
        "col0": "Pink",
        "col1": "100",
        "col2": "350",
        "col3": "255",
        "col4": "20"
    },
    {
        "col0": "Persian green",
        "col1": "60",
        "col2": "135",
        "col3": "0",
        "col4": "0"
    },
    {
        "col0": "Persian blue",
        "col1": "49",
        "col2": "249",
        "col3": "28",
        "col4": "100"
    },
    {
        "col0": "Periwinkle",
        "col1": "100",
        "col2": "240",
        "col3": "204",
        "col4": "20"
    },
    {
        "col0": "Peach",
        "col1": "100",
        "col2": "40",
        "col3": "255",
        "col4": "10"
    },
    {
        "col0": "Oxford Blue",
        "col1": "28",
        "col2": "212",
        "col3": "0",
        "col4": "80"
    },
    {
        "col0": "Orchid",
        "col1": "86",
        "col2": "302",
        "col3": "218",
        "col4": "49"
    },
    {
        "col0": "Orange",
        "col1": "100",
        "col2": "30",
        "col3": "255",
        "col4": "50"
    },
    {
        "col0": "Olive",
        "col1": "50",
        "col2": "60",
        "col3": "128",
        "col4": "0"
    },
    {
        "col0": "Old gold",
        "col1": "81",
        "col2": "49",
        "col3": "207",
        "col4": "13"
    },
    {
        "col0": "Ochre",
        "col1": "80",
        "col2": "30",
        "col3": "204",
        "col4": "42"
    },
    {
        "col0": "Navy blue",
        "col1": "50",
        "col2": "240",
        "col3": "0",
        "col4": "98"
    },
    {
        "col0": "Navajo white",
        "col1": "100",
        "col2": "36",
        "col3": "255",
        "col4": "13"
    },
    {
        "col0": "Naples yellow",
        "col1": "98",
        "col2": "48",
        "col3": "250",
        "col4": "13"
    },
    {
        "col0": "NIVO",
        "col1": "30",
        "col2": "120",
        "col3": "65",
        "col4": "0"
    },
    {
        "col0": "Mustard",
        "col1": "100",
        "col2": "47",
        "col3": "255",
        "col4": "12"
    },
    {
        "col0": "Mikado yellow",
        "col1": "100",
        "col2": "45",
        "col3": "255",
        "col4": "23"
    },
    {
        "col0": "Midnight green",
        "col1": "33",
        "col2": "187",
        "col3": "0",
        "col4": "15"
    },
    {
        "col0": "Midnight blue",
        "col1": "44",
        "col2": "240",
        "col3": "25",
        "col4": "78"
    },
    {
        "col0": "Mauve",
        "col1": "100",
        "col2": "276",
        "col3": "224",
        "col4": "31"
    },
    {
        "col0": "Marigold",
        "col1": "91",
        "col2": "39",
        "col3": "234",
        "col4": "31"
    },
    {
        "col0": "Marian blue",
        "col1": "91",
        "col2": "193",
        "col3": "225",
        "col4": "44"
    },
    {
        "col0": "Marengo",
        "col1": "40",
        "col2": "212",
        "col3": "76",
        "col4": "14"
    },
    {
        "col0": "Maize",
        "col1": "98",
        "col2": "54",
        "col3": "251",
        "col4": "6"
    },
    {
        "col0": "Mahogany",
        "col1": "75",
        "col2": "20",
        "col3": "192",
        "col4": "67"
    },
    {
        "col0": "Magenta",
        "col1": "100",
        "col2": "300",
        "col3": "255",
        "col4": "100"
    }
]