[
    {
        "col0": "Amor de nadie",
        "col1": "E. Vonn",
        "col2": "M. Corcega",
        "col3": "1991-06-14"
    },
    {
        "col0": "Amber",
        "col1": "G. Duggan",
        "col2": "T. O'Sullivan",
        "col3": "2014-01-22"
    },
    {
        "col0": "Alvin and the Chipmunks",
        "col1": "R. B. Jr.",
        "col2": "R. B. Jr.",
        "col3": "1990-12-01"
    },
    {
        "col0": "Alpha Scorpio",
        "col1": "J. Davern",
        "col2": "R. Birch",
        "col3": "1974-07-26"
    },
    {
        "col0": "Alpha House",
        "col1": "G. Trudeau",
        "col2": "B. Balaban",
        "col3": "2014-10-24"
    },
    {
        "col0": "Alondra",
        "col1": "Y. V. Dulche",
        "col2": "M. Corcega",
        "col3": "1995-09-01"
    },
    {
        "col0": "Aloha Paradise",
        "col1": "M. Norell",
        "col2": "H. Kenwith",
        "col3": "1981-04-22"
    },
    {
        "col0": "Almost Perfect",
        "col1": "R. Schiff",
        "col2": "K. Levine",
        "col3": "1996-10-30"
    },
    {
        "col0": "All Watched Over by Machines of Loving Grace",
        "col1": "A. Curtis",
        "col2": "A. Curtis",
        "col3": "2011-06-06"
    },
    {
        "col0": "All Quiet on the Preston Front",
        "col1": "T. Firth",
        "col2": "B. Farnham",
        "col3": "1997-09-08"
    },
    {
        "col0": "All Grown Up!",
        "col1": "K. Boutilier",
        "col2": "J. Duffy",
        "col3": "2008-08-17"
    },
    {
        "col0": "All Creatures Great and Small",
        "col1": "J. Herriot",
        "col2": "P. Grimwade",
        "col3": "1990-12-24"
    },
    {
        "col0": "All About Us",
        "col1": "P. Pettler",
        "col2": "F. Savage",
        "col3": "2001-11-10"
    },
    {
        "col0": "Alice",
        "col1": "N. Willing",
        "col2": "N. Willing",
        "col3": "2009-12-07"
    },
    {
        "col0": "Alguna vez tendremos alas",
        "col1": "F. Meza",
        "col2": "R. G. Fernandez",
        "col3": "1997-11-28"
    },
    {
        "col0": "Alex Haley's Queen",
        "col1": "D. Stevens",
        "col2": "J. Erman",
        "col3": "1993-02-18"
    },
    {
        "col0": "Alcoa Theatre",
        "col1": "S. Silliphant",
        "col2": "D. Siegel",
        "col3": "1960-05-23"
    },
    {
        "col0": "Al TV",
        "col1": "\". A. Yankovic",
        "col2": "R. K. Weiss",
        "col3": "2006-12-12"
    },
    {
        "col0": "Akbari Asghari",
        "col1": "F. Iftikhar",
        "col2": "H. Hussain",
        "col3": "2011-11-10"
    },
    {
        "col0": "Aim in Life",
        "col1": "M. Sezan",
        "col2": "M. Sezan",
        "col3": "2009-01-15"
    },
    {
        "col0": "Aik Nayee Cinderella",
        "col1": "F. Iftikhar",
        "col2": "H. Hussain",
        "col3": "2013-03-13"
    },
    {
        "col0": "Against the Wind",
        "col1": "I. Jones",
        "col2": "S. Wincer",
        "col3": "1978-10-31"
    },
    {
        "col0": "Afsar Bitiya",
        "col1": "S. Nath",
        "col2": "A. Babbal",
        "col3": "2012-12-28"
    },
    {
        "col0": "Adventures of Pow Wow",
        "col1": "B. Hardaway",
        "col2": "S. Singer",
        "col3": "1955-05-08"
    },
    {
        "col0": "Act of Will",
        "col1": "B. T. Bradford",
        "col2": "D. Sharp",
        "col3": "1989-10-06"
    },
    {
        "col0": "Across the River to Motor City",
        "col1": "R. Wertheimer",
        "col2": "M. DeCarlo",
        "col3": "2007-12-27"
    },
    {
        "col0": "Accused",
        "col1": "J. McGovern",
        "col2": "R. Laxton",
        "col3": "2012-09-04"
    },
    {
        "col0": "Accidental Family",
        "col1": "J. L. Brooks",
        "col2": "S. Leonard",
        "col3": "1968-01-05"
    },
    {
        "col0": "Abrazame muy fuerte",
        "col1": "R. Munoz",
        "col2": "M. Corcega",
        "col3": "2001-02-02"
    },
    {
        "col0": "Above Suspicion",
        "col1": "L. L. Plante",
        "col2": "G. MacKinnon",
        "col3": "2012-01-09"
    },
    {
        "col0": "Abangan Ang Susunod Na Kabanata",
        "col1": "J. J. Reyes",
        "col2": "J. Manahan",
        "col3": "1997-06-20"
    },
    {
        "col0": "Aaron's Way",
        "col1": "J. Baron",
        "col2": "R. Goodwin",
        "col3": "1988-05-25"
    },
    {
        "col0": "Aapki Antara",
        "col1": "A. Senchoudhary",
        "col2": "S. Surkar",
        "col3": "2010-02-18"
    },
    {
        "col0": "Aaha",
        "col1": "C. Mohan",
        "col2": "S. Krissna",
        "col3": "2012-09-14"
    },
    {
        "col0": "A for Andromeda",
        "col1": "F. Hoyle",
        "col2": "M. Hayes",
        "col3": "1961-11-14"
    },
    {
        "col0": "A Young Doctor's Notebook",
        "col1": "A. Connor",
        "col2": "A. Hardcastle",
        "col3": "2013-12-12"
    },
    {
        "col0": "A Year at the Top",
        "col1": "W. Kling",
        "col2": "A. Rafkin",
        "col3": "1977-09-02"
    },
    {
        "col0": "A Sucessora",
        "col1": "M. Carlos",
        "col2": "H. Rossano",
        "col3": "1979-03-02"
    },
    {
        "col0": "A Perfect Hero",
        "col1": "A. Prior",
        "col2": "J. C. Jones",
        "col3": "1991-06-21"
    },
    {
        "col0": "A Passionate Woman",
        "col1": "K. Mellor",
        "col2": "A. Bird",
        "col3": "2010-04-18"
    },
    {
        "col0": "A New Kind of Family",
        "col1": "R. Illes",
        "col2": "J. Burrows",
        "col3": "1980-01-05"
    },
    {
        "col0": "A Nero Wolfe Mystery",
        "col1": "M. Jaffe",
        "col2": "H. Dale",
        "col3": "2002-08-18"
    },
    {
        "col0": "A Moody Christmas",
        "col1": "P. Lloyd",
        "col2": "T. O'Donnell",
        "col3": "2012-12-05"
    },
    {
        "col0": "A Minute with Stan Hooper",
        "col1": "N. Macdonald",
        "col2": "B. Kemp",
        "col3": "2003-12-12"
    },
    {
        "col0": "A Man Called Shenandoah",
        "col1": "S. A. Peeples",
        "col2": "N. H. Juran",
        "col3": "1966-05-16"
    },
    {
        "col0": "A Love to Kill",
        "col1": "L. Kyung-hee",
        "col2": "K. Kyu-tae",
        "col3": "2005-12-20"
    },
    {
        "col0": "A J Wentworth, BA",
        "col1": "B. Boothroyd",
        "col2": "M. Mills",
        "col3": "1982-08-16"
    },
    {
        "col0": "3-2-1 Penguins!",
        "col1": "M. Nawrocki",
        "col2": "T. Hodge",
        "col3": "2008-11-13"
    },
    {
        "col0": "240-Robert",
        "col1": "A. Yerkovich",
        "col2": "R. Benedict",
        "col3": "1981-03-21"
    },
    {
        "col0": "2004: The Stupid Version",
        "col1": "S. Lee",
        "col2": "A. Iannucci",
        "col3": "2004-12-31"
    },
    {
        "col0": "2000 Malibu Road",
        "col1": "T. L. Fisher",
        "col2": "J. Schumacher",
        "col3": "1992-09-09"
    },
    {
        "col0": "1990",
        "col1": "W. Greatorex",
        "col2": "P. Sasdy",
        "col3": "1978-04-10"
    },
    {
        "col0": "101 Dalmatians: The Series",
        "col1": "J. Jinkins",
        "col2": "V. Cook",
        "col3": "1998-03-04"
    },
    {
        "col0": "10.5",
        "col1": "J. Lafia",
        "col2": "J. Lafia",
        "col3": "2004-05-03"
    },
    {
        "col0": "'Orrible",
        "col1": "J. Vaughan",
        "col2": "D. Brigstocke",
        "col3": "2001-10-29"
    },
    {
        "col0": "'Allo 'Allo!",
        "col1": "D. Croft",
        "col2": "D. Croft",
        "col3": "1992-12-14"
    }
]