[
    {
        "Dial Location": "AM 790",
        "Call Letters": "KABC (ABC Radio Networks)",
        "Format": "News/Talk",
        "Address": "3321 S La Cienega Blvd, Los Angeles 90016",
        "Telephone": "(310) 840-4900"
    },
    {
        "Dial Location": "AM 900",
        "Call Letters": "KALI AM",
        "Format": "Spanish News/Talk",
        "Address": "747 E Green St, Pasadena 91101",
        "Telephone": "(626) 844-8882"
    },
    {
        "Dial Location": "AM 1300",
        "Call Letters": "KAZN (Asian Radio)",
        "Format": "Chinese Variety",
        "Address": "747 E Green St, Pasadena 91101",
        "Telephone": "(626) 568-1300"
    },
    {
        "Dial Location": "AM 1580",
        "Call Letters": "KBLA",
        "Format": "Spanish News/Talk",
        "Address": "123 Figueroa St, #101A, Los Angeles 90012",
        "Telephone": "(213) 628-8700"
    },
    {
        "Dial Location": "AM 740",
        "Call Letters": "KBRT (K-Bright)",
        "Format": "Religious Talk",
        "Address": "3183-D Airway Ave, Costa Mesa 92626",
        "Telephone": "(714) 754-4450"
    },
    {
        "Dial Location": "AM 1110",
        "Call Letters": "KDIS (Radio Disney)",
        "Format": "Children?s Programming",
        "Address": "3321 S La Cienega Blvd, Los Angeles 90016",
        "Telephone": "(310) 840-4900"
    },
    {
        "Dial Location": "AM 640",
        "Call Letters": "KFI (More Stimulating Talk Radio)",
        "Format": "Talk",
        "Address": "610 S Ardmore Ave, Los Angeles 90005",
        "Telephone": "(213) 385-0101"
    },
    {
        "Dial Location": "AM 1650",
        "Call Letters": "KFOX (Radio Seoul)",
        "Format": "Korean",
        "Address": "501 Santa Monica Blvd, Ste 301, Santa Monica 90401",
        "Telephone": "(310) 395-1427"
    },
    {
        "Dial Location": "AM 1280",
        "Call Letters": "KFRN (Family Radio Network)",
        "Format": "Religious",
        "Address": "105 Linden Ave, Long Beach 90802",
        "Telephone": "(562) 435-0103"
    },
    {
        "Dial Location": "AM 980",
        "Call Letters": "KFWB (News 98)",
        "Format": "News",
        "Address": "6230 Yucca St, Los Angeles 90028",
        "Telephone": "(323) 462-5392"
    },
    {
        "Dial Location": "AM 930",
        "Call Letters": "KHJ (La Ranchera)",
        "Format": "Spanish Ranchero",
        "Address": "1845 Empire Ave, Burbank 91504",
        "Telephone": "(818) 729-5300"
    },
    {
        "Dial Location": "AM 670",
        "Call Letters": "KIRN (Radio Iran)",
        "Format": "Iranian",
        "Address": "123 S Figueroa St, Ste 101A, Los Angeles 90012",
        "Telephone": "(213) 628-8700"
    },
    {
        "Dial Location": "AM 570",
        "Call Letters": "KLAC",
        "Format": "Oldies",
        "Address": "610 S Ardmore Ave, Los Angeles 90005",
        "Telephone": "(213) 385-0101"
    },
    {
        "Dial Location": "AM 1390",
        "Call Letters": "KLTX (Nueva Vida)",
        "Format": "Spanish Religious",
        "Address": "136 S. Oak Knoll #202, Pasadena 91101",
        "Telephone": "(626) 356-4230"
    },
    {
        "Dial Location": "AM 1600",
        "Call Letters": "KMNY",
        "Format": "Chinese",
        "Address": "747 E Green St, Pasadena 91101",
        "Telephone": "(626) 844 1600"
    },
    {
        "Dial Location": "AM 1540",
        "Call Letters": "KMPC (Sporting News Radio)",
        "Format": "Sports",
        "Address": "2800 28th St. #308, Santa Monica 90404",
        "Telephone": "(310) 452-7100"
    },
    {
        "Dial Location": "AM 1430",
        "Call Letters": "KMRB",
        "Format": "Cantonese",
        "Address": "747 East Green St, Pasadena 91101",
        "Telephone": "(626) 844-8882"
    },
    {
        "Dial Location": "AM 830",
        "Call Letters": "KMXE",
        "Format": "Spanish Talk",
        "Address": "15301 Ventura Blvd, #210 Sherman Oaks 91403",
        "Telephone": "(818) 528-2050"
    },
    {
        "Dial Location": "AM 1070",
        "Call Letters": "KNX (CBS Radio)",
        "Format": "News",
        "Address": "6121 Sunset Blvd, Los Angeles 90028",
        "Telephone": "(323) 460-3000"
    },
    {
        "Dial Location": "AM 870",
        "Call Letters": "KRLA (Smart Talk)",
        "Format": "Talk",
        "Address": "701 N Brand, #550, Glendale 91203",
        "Telephone": "(818) 956-5552"
    },
    {
        "Dial Location": "AM 1510",
        "Call Letters": "KSPA (Station of the Stars)",
        "Format": "Adult Standards",
        "Address": "9485 Haven Ave, Rancho Cucamonga 91730",
        "Telephone": "(909) 483-1500"
    },
    {
        "Dial Location": "AM 710",
        "Call Letters": "KSPN (ESPN Radio)",
        "Format": "Sports",
        "Address": "3321 S La Cienega Blvd, Los Angeles 90046",
        "Telephone": "(310) 840-2874"
    },
    {
        "Dial Location": "AM 1260",
        "Call Letters": "KSUR",
        "Format": "Adult Standards",
        "Address": "1500 Cotner Ave, Los Angeles 90025",
        "Telephone": "(310) 478-5540"
    },
    {
        "Dial Location": "AM 1020",
        "Call Letters": "KTNQ (10-20)",
        "Format": "News Sports Information Spanish",
        "Address": "655 N. Central Ave, #2500, Glendale 91203",
        "Telephone": "(818) 500-4500"
    },
    {
        "Dial Location": "AM 1460",
        "Call Letters": "KTYM",
        "Format": "Religious/Ethnic",
        "Address": "6803 West Blvd, Inglewood 90302",
        "Telephone": "(310) 672-3700"
    },
    {
        "Dial Location": "AM 1480",
        "Call Letters": "KVNR (Radio Vietnam)",
        "Format": "Asian",
        "Address": "9355 Chapman Ave, #108, Garden Grove 92841",
        "Telephone": "(714) 741-9502"
    },
    {
        "Dial Location": "AM 1330",
        "Call Letters": "KWKW (13-30)",
        "Format": "Spanish News/Talk/Sports",
        "Address": "1645 N Vine St, #201, Los Angeles 90028",
        "Telephone": "(323) 466-8111"
    },
    {
        "Dial Location": "AM 1190",
        "Call Letters": "KXMX",
        "Format": "Foreign Language/Talk",
        "Address": "701 N Brand Blvd, Glendale 91203",
        "Telephone": "(818) 956-5552"
    },
    {
        "Dial Location": "AM 1150",
        "Call Letters": "KXTA (Fox Sports)",
        "Format": "Sports Talk",
        "Address": "610 S Ardmore Ave, Los Angeles 90005",
        "Telephone": "(213) 385-0101"
    },
    {
        "Dial Location": "AM 1230",
        "Call Letters": "KYPA (Radio Korea)",
        "Format": "Korean",
        "Address": "626 S Kingsley Dr, Los Angeles 90005",
        "Telephone": "(213) 625-3000"
    }
]