[
    {
        "Country": "Albania",
        "Country Code (3-character)": "ALB",
        "Country Code (2-character)": "AL",
        "Currency": "Albanian Lek",
        "Currency Code": "ALL"
    },
    {
        "Country": "Algeria",
        "Country Code (3-character)": "DZA",
        "Country Code (2-character)": "DZ",
        "Currency": "Algerian Dinar",
        "Currency Code": "DZD"
    },
    {
        "Country": "Angola",
        "Country Code (3-character)": "AGO",
        "Country Code (2-character)": "AO",
        "Currency": "Angola Kwanza",
        "Currency Code": "AOA"
    },
    {
        "Country": "Argentina",
        "Country Code (3-character)": "ARG",
        "Country Code (2-character)": "AR",
        "Currency": "Argentine Peso",
        "Currency Code": "ARS"
    },
    {
        "Country": "Aruba",
        "Country Code (3-character)": "ABW",
        "Country Code (2-character)": "AW",
        "Currency": "Aruban Guilder",
        "Currency Code": "AWG"
    },
    {
        "Country": "Australia",
        "Country Code (3-character)": "AUS",
        "Country Code (2-character)": "AU",
        "Currency": "Australian Dollar",
        "Currency Code": "AUD"
    },
    {
        "Country": "Austria",
        "Country Code (3-character)": "AUT",
        "Country Code (2-character)": "AT",
        "Currency": "Austrian Schilling",
        "Currency Code": "ATS"
    },
    {
        "Country": "Azerbaijan",
        "Country Code (3-character)": "AZE",
        "Country Code (2-character)": "AZ",
        "Currency": "Azerbaijanian Manat",
        "Currency Code": "AZN"
    },
    {
        "Country": "Bahamas",
        "Country Code (3-character)": "BHS",
        "Country Code (2-character)": "BS",
        "Currency": "Bahamas Dollar",
        "Currency Code": "BSD"
    },
    {
        "Country": "Bahrain",
        "Country Code (3-character)": "BHR",
        "Country Code (2-character)": "BH",
        "Currency": "Bahraini Dinar",
        "Currency Code": "BHD"
    },
    {
        "Country": "Bangladesh",
        "Country Code (3-character)": "BGD",
        "Country Code (2-character)": "BD",
        "Currency": "Bangladeshi Taka",
        "Currency Code": "BDT"
    },
    {
        "Country": "Barbados",
        "Country Code (3-character)": "BRB",
        "Country Code (2-character)": "BB",
        "Currency": "Barbados Dollar",
        "Currency Code": "BBD"
    },
    {
        "Country": "Belarus",
        "Country Code (3-character)": "BLR",
        "Country Code (2-character)": "BY",
        "Currency": "Belarus Ruble",
        "Currency Code": "BYR"
    },
    {
        "Country": "Belgium",
        "Country Code (3-character)": "BEL",
        "Country Code (2-character)": "BE",
        "Currency": "Belgian Franc",
        "Currency Code": "BEF"
    },
    {
        "Country": "Belize",
        "Country Code (3-character)": "BLZ",
        "Country Code (2-character)": "BZ",
        "Currency": "Belize Dollar",
        "Currency Code": "BZD"
    },
    {
        "Country": "Bermuda",
        "Country Code (3-character)": "BMU",
        "Country Code (2-character)": "BM",
        "Currency": "Bermudaian Dollar",
        "Currency Code": "BMD"
    },
    {
        "Country": "Bhutan",
        "Country Code (3-character)": "BTN",
        "Country Code (2-character)": "BT",
        "Currency": "Bhutan Ngultrum",
        "Currency Code": "BTN"
    },
    {
        "Country": "Bolivia",
        "Country Code (3-character)": "BOL",
        "Country Code (2-character)": "BO",
        "Currency": "Bolivia Boliviano",
        "Currency Code": "BOB"
    },
    {
        "Country": "Bosnia and Herzegovina",
        "Country Code (3-character)": "BIH",
        "Country Code (2-character)": "BA",
        "Currency": "Bosnia Herzegovina Mark",
        "Currency Code": "BAM"
    },
    {
        "Country": "Botswana",
        "Country Code (3-character)": "BWA",
        "Country Code (2-character)": "BW",
        "Currency": "Botswana Pula",
        "Currency Code": "BWP"
    },
    {
        "Country": "Brazil",
        "Country Code (3-character)": "BRA",
        "Country Code (2-character)": "BR",
        "Currency": "Brazilian Real",
        "Currency Code": "BRL"
    },
    {
        "Country": "Brunei Darussalam",
        "Country Code (3-character)": "BRN",
        "Country Code (2-character)": "BN",
        "Currency": "Brunei Dollar",
        "Currency Code": "BND"
    },
    {
        "Country": "Bulgaria",
        "Country Code (3-character)": "BGR",
        "Country Code (2-character)": "BG",
        "Currency": "Bulgarian Lev",
        "Currency Code": "BGN"
    },
    {
        "Country": "Burundi",
        "Country Code (3-character)": "BDI",
        "Country Code (2-character)": "BI",
        "Currency": "Burundi Franc",
        "Currency Code": "BIF"
    },
    {
        "Country": "Canada",
        "Country Code (3-character)": "CAN",
        "Country Code (2-character)": "CA",
        "Currency": "Canadian Dollar",
        "Currency Code": "CAD"
    },
    {
        "Country": "Cayman Islands",
        "Country Code (3-character)": "CYM",
        "Country Code (2-character)": "KY",
        "Currency": "Cayman Islands Dollar",
        "Currency Code": "KYD"
    },
    {
        "Country": "CFA",
        "Country Code (3-character)": "",
        "Country Code (2-character)": "",
        "Currency": "CFA Franc BCEAO",
        "Currency Code": "XAF"
    },
    {
        "Country": "CFP",
        "Country Code (3-character)": "",
        "Country Code (2-character)": "",
        "Currency": "CFP Franc",
        "Currency Code": "XPF"
    },
    {
        "Country": "Chile",
        "Country Code (3-character)": "CHL",
        "Country Code (2-character)": "CL",
        "Currency": "Chilean Peso",
        "Currency Code": "CLP"
    },
    {
        "Country": "China",
        "Country Code (3-character)": "CHN",
        "Country Code (2-character)": "CN",
        "Currency": "Chinese Yuan",
        "Currency Code": "CNY"
    },
    {
        "Country": "China International",
        "Country Code (3-character)": "CHX",
        "Country Code (2-character)": "CX",
        "Currency": "",
        "Currency Code": ""
    },
    {
        "Country": "Colombia",
        "Country Code (3-character)": "COL",
        "Country Code (2-character)": "CO",
        "Currency": "Colombian Peso",
        "Currency Code": "COP"
    },
    {
        "Country": "Comoros",
        "Country Code (3-character)": "COM",
        "Country Code (2-character)": "KM",
        "Currency": "Comoro Franc",
        "Currency Code": "KMF"
    },
    {
        "Country": "Congo, Republic of",
        "Country Code (3-character)": "COD",
        "Country Code (2-character)": "CD",
        "Currency": "Congolese Franc",
        "Currency Code": "CDF"
    },
    {
        "Country": "Costa Rica",
        "Country Code (3-character)": "CRI",
        "Country Code (2-character)": "CR",
        "Currency": "Costa Rican Colon",
        "Currency Code": "CRC"
    },
    {
        "Country": "Croatia",
        "Country Code (3-character)": "HRV",
        "Country Code (2-character)": "HR",
        "Currency": "Croatian Kuna",
        "Currency Code": "HRK"
    },
    {
        "Country": "Cuba",
        "Country Code (3-character)": "CUB",
        "Country Code (2-character)": "CU",
        "Currency": "Cuban Peso",
        "Currency Code": "CUP"
    },
    {
        "Country": "Cyprus",
        "Country Code (3-character)": "CYP",
        "Country Code (2-character)": "CY",
        "Currency": "Cyprus Pound",
        "Currency Code": "CYP"
    },
    {
        "Country": "Czech Republic",
        "Country Code (3-character)": "CZE",
        "Country Code (2-character)": "CZ",
        "Currency": "Czech Koruna",
        "Currency Code": "CZK"
    },
    {
        "Country": "Denmark",
        "Country Code (3-character)": "DNK",
        "Country Code (2-character)": "DK",
        "Currency": "Danish Krone",
        "Currency Code": "DKK"
    },
    {
        "Country": "Dominican Republic",
        "Country Code (3-character)": "DOM",
        "Country Code (2-character)": "DO",
        "Currency": "Dominican Peso",
        "Currency Code": "DOP"
    },
    {
        "Country": "East Caribbean",
        "Country Code (3-character)": "",
        "Country Code (2-character)": "",
        "Currency": "East Caribbean Dollar",
        "Currency Code": "XCD"
    },
    {
        "Country": "Ecuador",
        "Country Code (3-character)": "ECU",
        "Country Code (2-character)": "EC",
        "Currency": "Ecuadorian Sucre",
        "Currency Code": "ECS"
    },
    {
        "Country": "Egypt",
        "Country Code (3-character)": "EGY",
        "Country Code (2-character)": "EG",
        "Currency": "Egyptian Pound",
        "Currency Code": "EGP"
    },
    {
        "Country": "El Salvador",
        "Country Code (3-character)": "SLV",
        "Country Code (2-character)": "SV",
        "Currency": "El Salvador Colon",
        "Currency Code": "SVC"
    },
    {
        "Country": "Estonia",
        "Country Code (3-character)": "EST",
        "Country Code (2-character)": "EE",
        "Currency": "Estonian Kroon",
        "Currency Code": "EEK"
    },
    {
        "Country": "Ethiopia",
        "Country Code (3-character)": "ETH",
        "Country Code (2-character)": "ET",
        "Currency": "Ethiopian Birr",
        "Currency Code": "ETB"
    },
    {
        "Country": "European Currency Unit",
        "Country Code (3-character)": "ECU",
        "Country Code (2-character)": "",
        "Currency": "Euro",
        "Currency Code": "XEU"
    },
    {
        "Country": "European Monetary Union",
        "Country Code (3-character)": "EMU",
        "Country Code (2-character)": "EU",
        "Currency": "",
        "Currency Code": "EUR"
    },
    {
        "Country": "Fiji",
        "Country Code (3-character)": "FJI",
        "Country Code (2-character)": "FJ",
        "Currency": "Fiji Dollar",
        "Currency Code": "FJD"
    },
    {
        "Country": "Finland",
        "Country Code (3-character)": "FIN",
        "Country Code (2-character)": "FI",
        "Currency": "Finnish Markka",
        "Currency Code": "FIM"
    },
    {
        "Country": "France",
        "Country Code (3-character)": "FRA",
        "Country Code (2-character)": "FR",
        "Currency": "French Franc",
        "Currency Code": "FRF"
    },
    {
        "Country": "Gambia",
        "Country Code (3-character)": "GMB",
        "Country Code (2-character)": "GM",
        "Currency": "Gambian Dalasi",
        "Currency Code": "GMD"
    },
    {
        "Country": "Georgia",
        "Country Code (3-character)": "GEO",
        "Country Code (2-character)": "GE",
        "Currency": "Georgian Lari",
        "Currency Code": "GEL"
    },
    {
        "Country": "Germany",
        "Country Code (3-character)": "DEU",
        "Country Code (2-character)": "DE",
        "Currency": "Deutsche Mark",
        "Currency Code": "DEM"
    },
    {
        "Country": "Ghana",
        "Country Code (3-character)": "GHA",
        "Country Code (2-character)": "GH",
        "Currency": "Ghanaian Cedi",
        "Currency Code": "GHS"
    },
    {
        "Country": "Greece",
        "Country Code (3-character)": "GRC",
        "Country Code (2-character)": "GR",
        "Currency": "Greek Drachma",
        "Currency Code": "GRD"
    },
    {
        "Country": "Guatemala",
        "Country Code (3-character)": "GTM",
        "Country Code (2-character)": "GT",
        "Currency": "Guatemalan Quetzal",
        "Currency Code": "GTQ"
    },
    {
        "Country": "Guinea",
        "Country Code (3-character)": "GIN",
        "Country Code (2-character)": "GN",
        "Currency": "Guinean Franc",
        "Currency Code": "GNF"
    },
    {
        "Country": "Haiti",
        "Country Code (3-character)": "HTI",
        "Country Code (2-character)": "HT",
        "Currency": "Haitian Gourde",
        "Currency Code": "HTG"
    },
    {
        "Country": "Honduras",
        "Country Code (3-character)": "HND",
        "Country Code (2-character)": "HN",
        "Currency": "Honduran Lempira",
        "Currency Code": "HNL"
    },
    {
        "Country": "Hong Kong",
        "Country Code (3-character)": "HKG",
        "Country Code (2-character)": "HK",
        "Currency": "Hong Kong Dollar",
        "Currency Code": "HKD"
    },
    {
        "Country": "Hungary",
        "Country Code (3-character)": "HUN",
        "Country Code (2-character)": "HU",
        "Currency": "Hungarian Forint",
        "Currency Code": "HUF"
    },
    {
        "Country": "Iceland",
        "Country Code (3-character)": "ISL",
        "Country Code (2-character)": "IS",
        "Currency": "Icelandic Krona",
        "Currency Code": "ISK"
    },
    {
        "Country": "India",
        "Country Code (3-character)": "IND",
        "Country Code (2-character)": "IN",
        "Currency": "Indian Rupee",
        "Currency Code": "INR"
    },
    {
        "Country": "Indonesia",
        "Country Code (3-character)": "IDN",
        "Country Code (2-character)": "ID",
        "Currency": "Indonesian Rupiah",
        "Currency Code": "IDR"
    },
    {
        "Country": "Iran",
        "Country Code (3-character)": "IRN",
        "Country Code (2-character)": "IR",
        "Currency": "Iranian Rial",
        "Currency Code": "IRR"
    },
    {
        "Country": "Ireland",
        "Country Code (3-character)": "IRL",
        "Country Code (2-character)": "IE",
        "Currency": "Irish Pound",
        "Currency Code": "IEP"
    },
    {
        "Country": "Israel",
        "Country Code (3-character)": "ISR",
        "Country Code (2-character)": "IL",
        "Currency": "New Israeli Sheqel",
        "Currency Code": "ILS"
    },
    {
        "Country": "Italy",
        "Country Code (3-character)": "ITA",
        "Country Code (2-character)": "IT",
        "Currency": "Italian Lira",
        "Currency Code": "ITL"
    },
    {
        "Country": "Jamaica",
        "Country Code (3-character)": "JAM",
        "Country Code (2-character)": "JM",
        "Currency": "Jamaican Dollar",
        "Currency Code": "JMD"
    },
    {
        "Country": "Japan",
        "Country Code (3-character)": "JPN",
        "Country Code (2-character)": "JP",
        "Currency": "Japanese Yen",
        "Currency Code": "JPY"
    },
    {
        "Country": "Jordan",
        "Country Code (3-character)": "JOR",
        "Country Code (2-character)": "JO",
        "Currency": "Jordanian Dinar",
        "Currency Code": "JOD"
    },
    {
        "Country": "Kazakhstan",
        "Country Code (3-character)": "KAZ",
        "Country Code (2-character)": "KZ",
        "Currency": "Kazakhstani Tenge",
        "Currency Code": "KZT"
    },
    {
        "Country": "Kenya",
        "Country Code (3-character)": "KEN",
        "Country Code (2-character)": "KE",
        "Currency": "Kenyan Shilling",
        "Currency Code": "KES"
    },
    {
        "Country": "Korea, Republic of",
        "Country Code (3-character)": "KOR",
        "Country Code (2-character)": "KR",
        "Currency": "Korean Won",
        "Currency Code": "KRW"
    },
    {
        "Country": "Kuwait",
        "Country Code (3-character)": "KWT",
        "Country Code (2-character)": "KW",
        "Currency": "Kuwaiti Dinar",
        "Currency Code": "KWD"
    },
    {
        "Country": "Kyrgyzstan",
        "Country Code (3-character)": "KGZ",
        "Country Code (2-character)": "KG",
        "Currency": "Kyrgyzstani Som",
        "Currency Code": "KGS"
    },
    {
        "Country": "Latvia",
        "Country Code (3-character)": "LVA",
        "Country Code (2-character)": "LV",
        "Currency": "Latvia Lat",
        "Currency Code": "LVL"
    },
    {
        "Country": "Lebanon",
        "Country Code (3-character)": "LBN",
        "Country Code (2-character)": "LB",
        "Currency": "Lebanese Pound",
        "Currency Code": "LBP"
    },
    {
        "Country": "Lesotho",
        "Country Code (3-character)": "LSO",
        "Country Code (2-character)": "LS",
        "Currency": "Lesotho Loti",
        "Currency Code": "LSL"
    },
    {
        "Country": "Lithuania",
        "Country Code (3-character)": "LTU",
        "Country Code (2-character)": "LT",
        "Currency": "Lithuania Lita",
        "Currency Code": "LTL"
    },
    {
        "Country": "Luxembourg",
        "Country Code (3-character)": "LUX",
        "Country Code (2-character)": "LU",
        "Currency": "Luxembourg Franc",
        "Currency Code": "LUF"
    },
    {
        "Country": "Macao",
        "Country Code (3-character)": "MAC",
        "Country Code (2-character)": "MO",
        "Currency": "Macanese Pataca",
        "Currency Code": "MOP"
    },
    {
        "Country": "Macedonia",
        "Country Code (3-character)": "MKD",
        "Country Code (2-character)": "MK",
        "Currency": "Macedonian Denar",
        "Currency Code": "MKD"
    },
    {
        "Country": "Madagascar",
        "Country Code (3-character)": "MDG",
        "Country Code (2-character)": "MG",
        "Currency": "Malagasy Ariary",
        "Currency Code": "MGA"
    },
    {
        "Country": "Malawi",
        "Country Code (3-character)": "MWI",
        "Country Code (2-character)": "MW",
        "Currency": "Malawian Kwacha",
        "Currency Code": "MWK"
    },
    {
        "Country": "Malaysia",
        "Country Code (3-character)": "MYS",
        "Country Code (2-character)": "MY",
        "Currency": "Malaysian Ringgit",
        "Currency Code": "MYR"
    },
    {
        "Country": "Maldives",
        "Country Code (3-character)": "MDV",
        "Country Code (2-character)": "MV",
        "Currency": "Maldivian Rufiyaa",
        "Currency Code": "MVR"
    },
    {
        "Country": "Malta",
        "Country Code (3-character)": "MLT",
        "Country Code (2-character)": "MT",
        "Currency": "Maltese Lira",
        "Currency Code": "MTL"
    },
    {
        "Country": "Mauritania",
        "Country Code (3-character)": "MRT",
        "Country Code (2-character)": "MR",
        "Currency": "Mauritanian Ouguiya",
        "Currency Code": "MRO"
    },
    {
        "Country": "Mauritius",
        "Country Code (3-character)": "MUS",
        "Country Code (2-character)": "MU",
        "Currency": "Mauritian Rupee",
        "Currency Code": "MUR"
    },
    {
        "Country": "Mexico",
        "Country Code (3-character)": "MEX",
        "Country Code (2-character)": "MX",
        "Currency": "Mexican Peso",
        "Currency Code": "MXN"
    },
    {
        "Country": "Moldova",
        "Country Code (3-character)": "MDA",
        "Country Code (2-character)": "MD",
        "Currency": "Moldovan Leu",
        "Currency Code": "MDL"
    },
    {
        "Country": "Mongolia",
        "Country Code (3-character)": "MNG",
        "Country Code (2-character)": "MN",
        "Currency": "Mongolian Tugrik",
        "Currency Code": "MNT"
    },
    {
        "Country": "Morocco",
        "Country Code (3-character)": "MAR",
        "Country Code (2-character)": "MA",
        "Currency": "Moroccan Dirham",
        "Currency Code": "MAD"
    },
    {
        "Country": "Mozambique",
        "Country Code (3-character)": "MOZ",
        "Country Code (2-character)": "MZ",
        "Currency": "Mozambique Metical",
        "Currency Code": "MZN"
    },
    {
        "Country": "Namibia",
        "Country Code (3-character)": "NAM",
        "Country Code (2-character)": "NA",
        "Currency": "Namibian Dollar",
        "Currency Code": "NAD"
    },
    {
        "Country": "Nepal",
        "Country Code (3-character)": "NPL",
        "Country Code (2-character)": "NP",
        "Currency": "Nepalese Rupee",
        "Currency Code": "NPR"
    },
    {
        "Country": "Netherlands",
        "Country Code (3-character)": "NLD",
        "Country Code (2-character)": "NL",
        "Currency": "Netherlands Guilder",
        "Currency Code": "NLG"
    },
    {
        "Country": "Netherlands Antilles",
        "Country Code (3-character)": "ANT",
        "Country Code (2-character)": "AN",
        "Currency": "Netherlands Antillian Guilder",
        "Currency Code": "ANG"
    },
    {
        "Country": "New Zealand",
        "Country Code (3-character)": "NZL",
        "Country Code (2-character)": "NZ",
        "Currency": "New Zealand Dollar",
        "Currency Code": "NZD"
    },
    {
        "Country": "Nicaragua",
        "Country Code (3-character)": "NIC",
        "Country Code (2-character)": "NI",
        "Currency": "Nicaragua Gold Cordoba",
        "Currency Code": "NIO"
    },
    {
        "Country": "Nigeria",
        "Country Code (3-character)": "NGA",
        "Country Code (2-character)": "NG",
        "Currency": "Nigerian Naira",
        "Currency Code": "NGN"
    },
    {
        "Country": "Norway",
        "Country Code (3-character)": "NOR",
        "Country Code (2-character)": "NO",
        "Currency": "Norwegian Krone",
        "Currency Code": "NOK"
    },
    {
        "Country": "Oman",
        "Country Code (3-character)": "OMN",
        "Country Code (2-character)": "OM",
        "Currency": "Omani Rial",
        "Currency Code": "OMR"
    },
    {
        "Country": "Pakistan",
        "Country Code (3-character)": "PAK",
        "Country Code (2-character)": "PK",
        "Currency": "Pakistani Rupee",
        "Currency Code": "PKR"
    },
    {
        "Country": "Panama",
        "Country Code (3-character)": "PAN",
        "Country Code (2-character)": "PA",
        "Currency": "Panamanian Balboa",
        "Currency Code": "PAB"
    },
    {
        "Country": "Papua New Guinea",
        "Country Code (3-character)": "PNG",
        "Country Code (2-character)": "PG",
        "Currency": "Papua New Guinean Kina",
        "Currency Code": "PGK"
    },
    {
        "Country": "Paraguay",
        "Country Code (3-character)": "PRY",
        "Country Code (2-character)": "PY",
        "Currency": "Paraguayan Guarani",
        "Currency Code": "PYG"
    },
    {
        "Country": "Peru",
        "Country Code (3-character)": "PER",
        "Country Code (2-character)": "PE",
        "Currency": "Peruvian Nuevo Sol",
        "Currency Code": "PEN"
    },
    {
        "Country": "Philippines",
        "Country Code (3-character)": "PHL",
        "Country Code (2-character)": "PH",
        "Currency": "Philippine Peso",
        "Currency Code": "PHP"
    },
    {
        "Country": "Poland",
        "Country Code (3-character)": "POL",
        "Country Code (2-character)": "PL",
        "Currency": "Polish Zloty",
        "Currency Code": "PLN"
    },
    {
        "Country": "Portugal",
        "Country Code (3-character)": "PRT",
        "Country Code (2-character)": "PT",
        "Currency": "Portuguese Escudo",
        "Currency Code": "PTE"
    },
    {
        "Country": "Qatar",
        "Country Code (3-character)": "QAT",
        "Country Code (2-character)": "QA",
        "Currency": "Qatari Rial",
        "Currency Code": "QAR"
    },
    {
        "Country": "Romania",
        "Country Code (3-character)": "ROU",
        "Country Code (2-character)": "RO",
        "Currency": "New Romanian Leu",
        "Currency Code": "RON"
    },
    {
        "Country": "Russian Federation",
        "Country Code (3-character)": "RUS",
        "Country Code (2-character)": "RU",
        "Currency": "Russian Ruble",
        "Currency Code": "RUB"
    },
    {
        "Country": "Rwanda",
        "Country Code (3-character)": "RWA",
        "Country Code (2-character)": "RW",
        "Currency": "Rwandan Franc",
        "Currency Code": "RWF"
    },
    {
        "Country": "Samoa",
        "Country Code (3-character)": "WSM",
        "Country Code (2-character)": "WS",
        "Currency": "Samoan Tala",
        "Currency Code": "WST"
    },
    {
        "Country": "Saudi Arabia",
        "Country Code (3-character)": "SAU",
        "Country Code (2-character)": "SA",
        "Currency": "Saudi Arabian Riyal",
        "Currency Code": "SAR"
    },
    {
        "Country": "Serbia",
        "Country Code (3-character)": "SRB",
        "Country Code (2-character)": "RS",
        "Currency": "Serbian Dinar",
        "Currency Code": "RSD"
    },
    {
        "Country": "Seychelles",
        "Country Code (3-character)": "SYC",
        "Country Code (2-character)": "SC",
        "Currency": "Seychelles Rupee",
        "Currency Code": "SCR"
    },
    {
        "Country": "Sierra Leone",
        "Country Code (3-character)": "SLE",
        "Country Code (2-character)": "SL",
        "Currency": "Sierra Leonean Leone",
        "Currency Code": "SLL"
    },
    {
        "Country": "Singapore",
        "Country Code (3-character)": "SGP",
        "Country Code (2-character)": "SG",
        "Currency": "Singapore Dollar",
        "Currency Code": "SGD"
    },
    {
        "Country": "Slovakia",
        "Country Code (3-character)": "SVK",
        "Country Code (2-character)": "SK",
        "Currency": "Slovak Koruna",
        "Currency Code": "SKK"
    },
    {
        "Country": "Slovenia",
        "Country Code (3-character)": "SVN",
        "Country Code (2-character)": "SI",
        "Currency": "Slovenian Tolar",
        "Currency Code": "SIT"
    },
    {
        "Country": "Solomon Islands",
        "Country Code (3-character)": "SLB",
        "Country Code (2-character)": "SB",
        "Currency": "Solomon Islands Dollar",
        "Currency Code": "SBD"
    },
    {
        "Country": "South Africa",
        "Country Code (3-character)": "ZAF",
        "Country Code (2-character)": "ZA",
        "Currency": "South African Rand",
        "Currency Code": "ZAR"
    },
    {
        "Country": "Spain",
        "Country Code (3-character)": "ESP",
        "Country Code (2-character)": "ES",
        "Currency": "Spanish Peseta",
        "Currency Code": "ESP"
    },
    {
        "Country": "Special Drawing Rights",
        "Country Code (3-character)": "",
        "Country Code (2-character)": "",
        "Currency": "Special Drawing Rights",
        "Currency Code": "XDR"
    },
    {
        "Country": "Sri Lanka",
        "Country Code (3-character)": "LKA",
        "Country Code (2-character)": "LK",
        "Currency": "Sri Lanka Rupee",
        "Currency Code": "LKR"
    },
    {
        "Country": "Sudan",
        "Country Code (3-character)": "SDN",
        "Country Code (2-character)": "SD",
        "Currency": "Sudanese Pound",
        "Currency Code": "SDG"
    },
    {
        "Country": "Surinam",
        "Country Code (3-character)": "SUR",
        "Country Code (2-character)": "SR",
        "Currency": "Surinam Dollar",
        "Currency Code": "SRD"
    },
    {
        "Country": "Swaziland",
        "Country Code (3-character)": "SWZ",
        "Country Code (2-character)": "SZ",
        "Currency": "Swaziland Lilangeni",
        "Currency Code": "SZL"
    },
    {
        "Country": "Sweden",
        "Country Code (3-character)": "SWE",
        "Country Code (2-character)": "SE",
        "Currency": "Swedish Krona",
        "Currency Code": "SEK"
    },
    {
        "Country": "Switzerland",
        "Country Code (3-character)": "CHE",
        "Country Code (2-character)": "CH",
        "Currency": "Swiss Franc",
        "Currency Code": "CHF"
    },
    {
        "Country": "Taiwan, Province of China",
        "Country Code (3-character)": "TWN",
        "Country Code (2-character)": "TW",
        "Currency": "New Taiwan Dollar",
        "Currency Code": "TWD"
    },
    {
        "Country": "Tanzania",
        "Country Code (3-character)": "TZA",
        "Country Code (2-character)": "TZ",
        "Currency": "Tanzanian Shilling",
        "Currency Code": "TZS"
    },
    {
        "Country": "Thailand",
        "Country Code (3-character)": "THA",
        "Country Code (2-character)": "TH",
        "Currency": "Thai Baht",
        "Currency Code": "THB"
    },
    {
        "Country": "Tonga",
        "Country Code (3-character)": "TON",
        "Country Code (2-character)": "TO",
        "Currency": "Tongan Pa'anga",
        "Currency Code": "TOP"
    },
    {
        "Country": "Trinidad and Tobago",
        "Country Code (3-character)": "TTO",
        "Country Code (2-character)": "TT",
        "Currency": "Trinidad & Tobago Dollar",
        "Currency Code": "TTD"
    },
    {
        "Country": "Tunisia",
        "Country Code (3-character)": "TUN",
        "Country Code (2-character)": "TN",
        "Currency": "Tunisian Dinar",
        "Currency Code": "TND"
    },
    {
        "Country": "Turkey",
        "Country Code (3-character)": "TUR",
        "Country Code (2-character)": "TR",
        "Currency": "Turkish Lira",
        "Currency Code": "TRL"
    },
    {
        "Country": "Uganda",
        "Country Code (3-character)": "UGA",
        "Country Code (2-character)": "UG",
        "Currency": "Ugandan Shilling",
        "Currency Code": "UGX"
    },
    {
        "Country": "Ukraine",
        "Country Code (3-character)": "UKR",
        "Country Code (2-character)": "UA",
        "Currency": "Ukrainian Hryvnia",
        "Currency Code": "UAH"
    },
    {
        "Country": "United Arab Emirates",
        "Country Code (3-character)": "ARE",
        "Country Code (2-character)": "AE",
        "Currency": "United Arab Emirates Dirham",
        "Currency Code": "AED"
    },
    {
        "Country": "United Kingdom",
        "Country Code (3-character)": "GBR",
        "Country Code (2-character)": "GB",
        "Currency": "British Pound Sterling",
        "Currency Code": "GBP"
    },
    {
        "Country": "United States",
        "Country Code (3-character)": "USA",
        "Country Code (2-character)": "US",
        "Currency": "US Dollar",
        "Currency Code": "USD"
    },
    {
        "Country": "Uruguay",
        "Country Code (3-character)": "URY",
        "Country Code (2-character)": "UY",
        "Currency": "Uruguayan New Peso",
        "Currency Code": "UYU"
    },
    {
        "Country": "Uzbekistan",
        "Country Code (3-character)": "UZB",
        "Country Code (2-character)": "UZ",
        "Currency": "Uzbekistan Som",
        "Currency Code": "UZS"
    },
    {
        "Country": "Vanuatu",
        "Country Code (3-character)": "VUT",
        "Country Code (2-character)": "VU",
        "Currency": "Vanuatu Vatu",
        "Currency Code": "VUV"
    },
    {
        "Country": "Venezuela",
        "Country Code (3-character)": "VEN",
        "Country Code (2-character)": "VE",
        "Currency": "Venezuelan Bolivar Fuerte",
        "Currency Code": "VEF"
    },
    {
        "Country": "Viet Nam",
        "Country Code (3-character)": "VNM",
        "Country Code (2-character)": "VN",
        "Currency": "Vietnamese Dong",
        "Currency Code": "VND"
    },
    {
        "Country": "West Africa",
        "Country Code (3-character)": "",
        "Country Code (2-character)": "",
        "Currency": "West African Franc",
        "Currency Code": "XOF"
    },
    {
        "Country": "Yemen",
        "Country Code (3-character)": "YEM",
        "Country Code (2-character)": "YE",
        "Currency": "Yemeni Rial",
        "Currency Code": "YER"
    },
    {
        "Country": "Zambia",
        "Country Code (3-character)": "ZMB",
        "Country Code (2-character)": "ZM",
        "Currency": "Zambian Kwacha",
        "Currency Code": "ZMK"
    },
    {
        "Country": "Zimbabwe",
        "Country Code (3-character)": "ZWE",
        "Country Code (2-character)": "ZW",
        "Currency": "Zimbabwe Dollar",
        "Currency Code": "ZWL"
    }
]