[
    {
        "University Name": "Abilene Christian University",
        "University Location": "Abilene (TX)",
        "University Type": "Private"
    },
    {
        "University Name": "Adelphi University",
        "University Location": "Garden City (NY)",
        "University Type": "Private"
    },
    {
        "University Name": "Albany State University",
        "University Location": "Albany (GA)",
        "University Type": "Public"
    },
    {
        "University Name": "Alcorn State University",
        "University Location": "Alcorn State (MS)",
        "University Type": "Public"
    },
    {
        "University Name": "American International College",
        "University Location": "Springfield (MA)",
        "University Type": "Private"
    },
    {
        "University Name": "Anderson University",
        "University Location": "Anderson (IN)",
        "University Type": "Private"
    },
    {
        "University Name": "Andrews University",
        "University Location": "Berrien Springs (MI)",
        "University Type": "Private"
    },
    {
        "University Name": "Angelo State University",
        "University Location": "San Angelo (TX)",
        "University Type": "Public"
    },
    {
        "University Name": "Arizona State University",
        "University Location": "Tempe (AZ)",
        "University Type": "Public"
    },
    {
        "University Name": "Arkansas State University",
        "University Location": "State University (AR)",
        "University Type": "Public"
    },
    {
        "University Name": "Armstrong Atlantic State University",
        "University Location": "Savannah (GA)",
        "University Type": "Public"
    },
    {
        "University Name": "Ashland University",
        "University Location": "Ashland (OH)",
        "University Type": "Private"
    },
    {
        "University Name": "Auburn University",
        "University Location": "Auburn (AL)",
        "University Type": "Public"
    },
    {
        "University Name": "Auburn University - Montgomery",
        "University Location": "Montgomery (AL)",
        "University Type": "Public"
    },
    {
        "University Name": "Augusta State University",
        "University Location": "Augusta (GA)",
        "University Type": "Public"
    },
    {
        "University Name": "Augustana College",
        "University Location": "Sioux Falls (SD)",
        "University Type": "Private"
    },
    {
        "University Name": "Aurora University",
        "University Location": "Aurora (IL)",
        "University Type": "Private"
    },
    {
        "University Name": "Austin Peay State University",
        "University Location": "Clarksville (TN)",
        "University Type": "Public"
    },
    {
        "University Name": "Azusa Pacific University",
        "University Location": "Azusa (CA)",
        "University Type": "Private"
    },
    {
        "University Name": "Baker University",
        "University Location": "Baldwin City (KS)",
        "University Type": "Private"
    },
    {
        "University Name": "Ball State University",
        "University Location": "Muncie (IN)",
        "University Type": "Public"
    },
    {
        "University Name": "Barry University",
        "University Location": "Miami Shores (FL)",
        "University Type": "Private"
    },
    {
        "University Name": "Barton College",
        "University Location": "Wilson (NC)",
        "University Type": "Private"
    },
    {
        "University Name": "Baylor University",
        "University Location": "Waco (TX)",
        "University Type": "Private"
    },
    {
        "University Name": "Bellarmine University",
        "University Location": "Louisville (KY)",
        "University Type": "Private"
    },
    {
        "University Name": "Belmont University",
        "University Location": "Nashville (TN)",
        "University Type": "Private"
    },
    {
        "University Name": "Bethel University",
        "University Location": "Saint Paul (MN)",
        "University Type": "Private"
    },
    {
        "University Name": "Binghamton University",
        "University Location": "Binghamton (NY)",
        "University Type": "Public"
    },
    {
        "University Name": "Biola University",
        "University Location": "La Mirada (CA)",
        "University Type": "Private"
    },
    {
        "University Name": "Blessing-Rieman College of Nursing",
        "University Location": "Quincy (IL)",
        "University Type": "Private"
    },
    {
        "University Name": "Bloomsburg University",
        "University Location": "Bloomsburg (PA)",
        "University Type": "Public"
    },
    {
        "University Name": "Boise State University",
        "University Location": "Boise (ID)",
        "University Type": "Public"
    },
    {
        "University Name": "Boston College",
        "University Location": "Chestnut Hill (MA)",
        "University Type": "Private"
    },
    {
        "University Name": "Bowie State University",
        "University Location": "Bowie (MD)",
        "University Type": "Public"
    },
    {
        "University Name": "Bowling Green State University",
        "University Location": "Bowling Green (OH)",
        "University Type": "Public"
    },
    {
        "University Name": "Bradley University",
        "University Location": "Peoria (IL)",
        "University Type": "Private"
    },
    {
        "University Name": "Brenau University",
        "University Location": "Gainesville (GA)",
        "University Type": "Private"
    },
    {
        "University Name": "Brigham Young University",
        "University Location": "Provo (UT)",
        "University Type": "Private"
    },
    {
        "University Name": "Brigham Young University - Idaho",
        "University Location": "Rexburg (ID)",
        "University Type": "Private"
    },
    {
        "University Name": "California State University - Bakersfield",
        "University Location": "Bakersfield (CA)",
        "University Type": "Public"
    },
    {
        "University Name": "California State University - Chico",
        "University Location": "Chico (CA)",
        "University Type": "Public"
    },
    {
        "University Name": "California State University - Dominguez Hills",
        "University Location": "Carson (CA)",
        "University Type": "Public"
    },
    {
        "University Name": "California State University - Fresno",
        "University Location": "Fresno (CA)",
        "University Type": "Public"
    },
    {
        "University Name": "California State University - Fullerton",
        "University Location": "Fullerton (CA)",
        "University Type": "Public"
    },
    {
        "University Name": "California State University - Long Beach",
        "University Location": "Long Beach (CA)",
        "University Type": "Public"
    },
    {
        "University Name": "California State University - Los Angeles",
        "University Location": "Los Angeles (CA)",
        "University Type": "Public"
    },
    {
        "University Name": "California State University - Sacramento",
        "University Location": "Sacramento (CA)",
        "University Type": "Public"
    },
    {
        "University Name": "California State University - San Bernardino",
        "University Location": "San Bernardino (CA)",
        "University Type": "Public"
    },
    {
        "University Name": "California State University - Stanislaus",
        "University Location": "Turlock (CA)",
        "University Type": "Public"
    },
    {
        "University Name": "Calvin College",
        "University Location": "Grand Rapids (MI)",
        "University Type": "Private"
    },
    {
        "University Name": "Capital University",
        "University Location": "Columbus (OH)",
        "University Type": "Private"
    },
    {
        "University Name": "Cardinal Stritch University",
        "University Location": "Milwaukee (WI)",
        "University Type": "Private"
    },
    {
        "University Name": "Carlow College",
        "University Location": "Pittsburgh (PA)",
        "University Type": "Private"
    },
    {
        "University Name": "Carroll College",
        "University Location": "Helena (MT)",
        "University Type": "Private"
    },
    {
        "University Name": "Case Western Reserve University",
        "University Location": "Cleveland (OH)",
        "University Type": "Private"
    },
    {
        "University Name": "Castleton State College",
        "University Location": "Castleton (VT)",
        "University Type": "Public"
    },
    {
        "University Name": "Catholic University of America, The",
        "University Location": "Washington, D.C.",
        "University Type": "Private"
    },
    {
        "University Name": "Cedar Crest College",
        "University Location": "Allentown (PA)",
        "University Type": "Private"
    },
    {
        "University Name": "Cedarville University",
        "University Location": "Cedarville (OH)",
        "University Type": "Private"
    },
    {
        "University Name": "Central Connecticut State University",
        "University Location": "New Britain (CT)",
        "University Type": "Public"
    },
    {
        "University Name": "Central Missouri State University",
        "University Location": "Warrensburg (MO)",
        "University Type": "Public"
    },
    {
        "University Name": "Clarion University",
        "University Location": "Clarion (PA)",
        "University Type": "Public"
    },
    {
        "University Name": "Clarke College",
        "University Location": "Dubuque (IA)",
        "University Type": "Private"
    },
    {
        "University Name": "Clarkson College",
        "University Location": "Omaha (NE)",
        "University Type": "Private"
    },
    {
        "University Name": "Clemson University",
        "University Location": "Clemson (SC)",
        "University Type": "Public"
    },
    {
        "University Name": "Cleveland State University",
        "University Location": "Cleveland (OH)",
        "University Type": "Public"
    },
    {
        "University Name": "College of Mount St. Joseph",
        "University Location": "Cincinnati (OH)",
        "University Type": "Private"
    },
    {
        "University Name": "College of New Jersey, The",
        "University Location": "Ewing (NJ)",
        "University Type": "Public"
    },
    {
        "University Name": "College of New Rochelle, The",
        "University Location": "New Rochelle (NY)",
        "University Type": "Private"
    },
    {
        "University Name": "College of Saint Benedict | Saint John's University",
        "University Location": "Saint Joseph (MN)",
        "University Type": "Private"
    },
    {
        "University Name": "College of St. Catherine",
        "University Location": "Saint Paul (MN)",
        "University Type": "Private"
    },
    {
        "University Name": "College of St. Scholastica, The",
        "University Location": "Duluth (MN)",
        "University Type": "Private"
    },
    {
        "University Name": "College of Staten Island",
        "University Location": "Staten Island (NY)",
        "University Type": "Public"
    },
    {
        "University Name": "Colorado State University - Pueblo",
        "University Location": "Pueblo (CO)",
        "University Type": "Public"
    },
    {
        "University Name": "Columbia University",
        "University Location": "New York (NY)",
        "University Type": "Private"
    },
    {
        "University Name": "Concordia College",
        "University Location": "Moorhead (MN)",
        "University Type": "Private"
    },
    {
        "University Name": "Concordia University Wisconsin",
        "University Location": "Mequon (WI)",
        "University Type": "Private"
    },
    {
        "University Name": "Coppin State College",
        "University Location": "Baltimore (MD)",
        "University Type": "Public"
    },
    {
        "University Name": "Creighton University",
        "University Location": "Omaha (NE)",
        "University Type": "Private"
    },
    {
        "University Name": "Delaware State University",
        "University Location": "Dover (DE)",
        "University Type": "Public"
    },
    {
        "University Name": "Delta State University",
        "University Location": "Cleveland (MS)",
        "University Type": "Public"
    },
    {
        "University Name": "Depaul University",
        "University Location": "Chicago (IL)",
        "University Type": "Private"
    },
    {
        "University Name": "Dominican University of California",
        "University Location": "San Rafael (CA)",
        "University Type": "Private"
    },
    {
        "University Name": "Drexel University",
        "University Location": "Philadelphia (PA)",
        "University Type": "Private"
    },
    {
        "University Name": "Duke University",
        "University Location": "Durham (NC)",
        "University Type": "Private"
    },
    {
        "University Name": "Duquesne University",
        "University Location": "Pittsburgh (PA)",
        "University Type": "Private"
    },
    {
        "University Name": "D'Youville College",
        "University Location": "Buffalo (NY)",
        "University Type": "Private"
    },
    {
        "University Name": "East Carolina University",
        "University Location": "Greenville (NC)",
        "University Type": "Public"
    },
    {
        "University Name": "East Tennessee State University",
        "University Location": "Johnson City (TN)",
        "University Type": "Public"
    },
    {
        "University Name": "Eastern Kentucky University",
        "University Location": "Richmond (KY)",
        "University Type": "Public"
    },
    {
        "University Name": "Eastern Mennonite University",
        "University Location": "Harrisonburg (VA)",
        "University Type": "Private"
    },
    {
        "University Name": "Eastern Michigan University",
        "University Location": "Ypsilanti (MI)",
        "University Type": "Public"
    },
    {
        "University Name": "Eastern Washington University",
        "University Location": "Cheney (WA)",
        "University Type": "Public"
    },
    {
        "University Name": "Edgewood College",
        "University Location": "Madison (WI)",
        "University Type": "Private"
    },
    {
        "University Name": "Edinboro University",
        "University Location": "Edinboro (PA)",
        "University Type": "Public"
    },
    {
        "University Name": "Elms College",
        "University Location": "Chicopee (MA)",
        "University Type": "Private"
    },
    {
        "University Name": "Emory University",
        "University Location": "Atlanta (GA)",
        "University Type": "Private"
    },
    {
        "University Name": "Excelsior College",
        "University Location": "Albany (NY)",
        "University Type": "Private"
    },
    {
        "University Name": "Fairfield University",
        "University Location": "Fairfield (CT)",
        "University Type": "Private"
    },
    {
        "University Name": "Fairleigh Dickinson University",
        "University Location": "Teaneck (NJ)",
        "University Type": "Private"
    },
    {
        "University Name": "Fayetteville State University",
        "University Location": "Fayetteville (NC)",
        "University Type": "Public"
    },
    {
        "University Name": "Felician College",
        "University Location": "Lodi (NJ)",
        "University Type": "Private"
    },
    {
        "University Name": "Fitchburg State College",
        "University Location": "Fitchburg (MA)",
        "University Type": "Public"
    },
    {
        "University Name": "Florida A&M University",
        "University Location": "Tallahassee (FL)",
        "University Type": "Public"
    },
    {
        "University Name": "Florida Atlantic University",
        "University Location": "Boca Raton (FL)",
        "University Type": "Public"
    },
    {
        "University Name": "Florida Gulf Coast University",
        "University Location": "Fort Myers (FL)",
        "University Type": "Public"
    },
    {
        "University Name": "Florida International University",
        "University Location": "Miami (FL)",
        "University Type": "Public"
    },
    {
        "University Name": "Florida State University",
        "University Location": "Tallahassee (FL)",
        "University Type": "Public"
    },
    {
        "University Name": "Fort Hays State University",
        "University Location": "Hays (KS)",
        "University Type": "Public"
    },
    {
        "University Name": "Gardner-Webb University",
        "University Location": "Boiling Springs (NC)",
        "University Type": "Private"
    },
    {
        "University Name": "George Mason University",
        "University Location": "Fairfax (VA)",
        "University Type": "Public"
    },
    {
        "University Name": "Georgetown University",
        "University Location": "Washington, D.C.",
        "University Type": "Private"
    },
    {
        "University Name": "Georgia College & State University",
        "University Location": "Milledgeville (GA)",
        "University Type": "Public"
    },
    {
        "University Name": "Georgia Southern University",
        "University Location": "Statesboro (GA)",
        "University Type": "Public"
    },
    {
        "University Name": "Georgia State University",
        "University Location": "Atlanta (GA)",
        "University Type": "Public"
    },
    {
        "University Name": "Gonzaga University",
        "University Location": "Spokane (WA)",
        "University Type": "Private"
    },
    {
        "University Name": "Governors State University",
        "University Location": "University Park (IL)",
        "University Type": "Public"
    },
    {
        "University Name": "Grambling State University",
        "University Location": "Grambling (LA)",
        "University Type": "Public"
    },
    {
        "University Name": "Grand Valley State University",
        "University Location": "Allendale (MI)",
        "University Type": "Public"
    },
    {
        "University Name": "Gwynedd-Mercy College",
        "University Location": "Gwynedd Valley (PA)",
        "University Type": "Private"
    },
    {
        "University Name": "Hampton University",
        "University Location": "Hampton (VA)",
        "University Type": "Private"
    },
    {
        "University Name": "Harding University",
        "University Location": "Searcy (AR)",
        "University Type": "Private"
    },
    {
        "University Name": "Hardin-Simmons University",
        "University Location": "Abilene (TX)",
        "University Type": "Private"
    },
    {
        "University Name": "Hawaii Pacific University",
        "University Location": "Honolulu (HI)",
        "University Type": "Private"
    },
    {
        "University Name": "Holy Family University",
        "University Location": "Philadelphia (PA)",
        "University Type": "Private"
    },
    {
        "University Name": "Hope College",
        "University Location": "Holland (MI)",
        "University Type": "Private"
    },
    {
        "University Name": "Houston Baptist University",
        "University Location": "Houston (TX)",
        "University Type": "Private"
    },
    {
        "University Name": "Howard University",
        "University Location": "Washington, D.C.",
        "University Type": "Private"
    },
    {
        "University Name": "Humboldt State University",
        "University Location": "Arcata (CA)",
        "University Type": "Public"
    },
    {
        "University Name": "Hunter College",
        "University Location": "New York (NY)",
        "University Type": "Public"
    },
    {
        "University Name": "Husson College",
        "University Location": "Bangor (ME)",
        "University Type": "Private"
    },
    {
        "University Name": "Idaho State University",
        "University Location": "Pocatello (ID)",
        "University Type": "Public"
    },
    {
        "University Name": "Illinois State University",
        "University Location": "Normal (IL)",
        "University Type": "Public"
    },
    {
        "University Name": "Indiana State University",
        "University Location": "Terre Haute (IN)",
        "University Type": "Public"
    },
    {
        "University Name": "Indiana University",
        "University Location": "Bloomington (IN)",
        "University Type": "Public"
    },
    {
        "University Name": "Indiana University - Purdue University Fort Wayne",
        "University Location": "Fort Wayne (IN)",
        "University Type": "Public"
    },
    {
        "University Name": "Indiana University - Purdue University Indianapolis",
        "University Location": "Indianapolis (IN)",
        "University Type": "Public"
    },
    {
        "University Name": "Indiana University East",
        "University Location": "Richmond (IN)",
        "University Type": "Public"
    },
    {
        "University Name": "Indiana University Kokomo",
        "University Location": "Kokomo (IN)",
        "University Type": "Public"
    },
    {
        "University Name": "Indiana University Northwest",
        "University Location": "Gary (IN)",
        "University Type": "Public"
    },
    {
        "University Name": "Indiana University of Pennsylvania",
        "University Location": "Indiana (PA)",
        "University Type": "Public"
    },
    {
        "University Name": "Indiana University South Bend",
        "University Location": "South Bend (IN)",
        "University Type": "Public"
    },
    {
        "University Name": "Indiana University Southeast",
        "University Location": "New Albany (IN)",
        "University Type": "Public"
    },
    {
        "University Name": "Indiana Wesleyan University",
        "University Location": "Indiana (IN)",
        "University Type": "Private"
    },
    {
        "University Name": "Jacksonville State University",
        "University Location": "Jacksonville (AL)",
        "University Type": "Public"
    },
    {
        "University Name": "James Madison University",
        "University Location": "Harrisonburg (VA)",
        "University Type": "Public"
    },
    {
        "University Name": "Johns Hopkins University",
        "University Location": "Baltimore (MD)",
        "University Type": "Private"
    },
    {
        "University Name": "Kean University",
        "University Location": "Union (NJ)",
        "University Type": "Public"
    },
    {
        "University Name": "Kennesaw State University",
        "University Location": "Kennesaw (GA)",
        "University Type": "Public"
    },
    {
        "University Name": "Kent State University",
        "University Location": "Kent (OH)",
        "University Type": "Public"
    },
    {
        "University Name": "Kentucky Christian College",
        "University Location": "Grayson (KY)",
        "University Type": "Private"
    },
    {
        "University Name": "Kentucky State University",
        "University Location": "Frankfort (KY)",
        "University Type": "Public"
    },
    {
        "University Name": "Keuka College",
        "University Location": "Penn Yan (NY)",
        "University Type": "Private"
    },
    {
        "University Name": "La Salle University",
        "University Location": "Philadelphia (PA)",
        "University Type": "Private"
    },
    {
        "University Name": "Lamar University",
        "University Location": "Beaumont (TX)",
        "University Type": "Public"
    },
    {
        "University Name": "Lehman College",
        "University Location": "Bronx (NY)",
        "University Type": "Public"
    },
    {
        "University Name": "Lewis University",
        "University Location": "Romeoville (IL)",
        "University Type": "Private"
    },
    {
        "University Name": "Lewis-Clark State College",
        "University Location": "Lewiston (ID)",
        "University Type": "Public"
    },
    {
        "University Name": "Liberty University",
        "University Location": "Lynchburg (VA)",
        "University Type": "Private"
    },
    {
        "University Name": "Loma Linda University",
        "University Location": "Loma Linda (CA)",
        "University Type": "Private"
    },
    {
        "University Name": "Long Island University",
        "University Location": "Brookville (NY)",
        "University Type": "Private"
    },
    {
        "University Name": "Louisiana College",
        "University Location": "Pineville (LA)",
        "University Type": "Private"
    },
    {
        "University Name": "Louisiana State University Health Sciences Center - New Orleans",
        "University Location": "New Orleans (LA)",
        "University Type": "Public"
    },
    {
        "University Name": "Lourdes College",
        "University Location": "Sylvania (OH)",
        "University Type": "Private"
    },
    {
        "University Name": "Loyola University Chicago",
        "University Location": "Chicago (IL)",
        "University Type": "Private"
    },
    {
        "University Name": "Loyola University New Orleans",
        "University Location": "New Orleans (LA)",
        "University Type": "Private"
    },
    {
        "University Name": "Lynchburg College",
        "University Location": "Lynchburg (VA)",
        "University Type": "Private"
    },
    {
        "University Name": "MacMurray College",
        "University Location": "Jacksonville (IL)",
        "University Type": "Private"
    },
    {
        "University Name": "Madonna University",
        "University Location": "Livonia (MI)",
        "University Type": "Private"
    },
    {
        "University Name": "Malone College",
        "University Location": "Canton (OH)",
        "University Type": "Private"
    },
    {
        "University Name": "Mansfield University",
        "University Location": "Mansfield (PA)",
        "University Type": "Public"
    },
    {
        "University Name": "Marquette University",
        "University Location": "Milwaukee (WI)",
        "University Type": "Private"
    },
    {
        "University Name": "Marshall University",
        "University Location": "Huntington (WV)",
        "University Type": "Public"
    },
    {
        "University Name": "Marymount University",
        "University Location": "Arlington (VA)",
        "University Type": "Private"
    },
    {
        "University Name": "Maryville University",
        "University Location": "Saint Louis (MO)",
        "University Type": "Private"
    },
    {
        "University Name": "Marywood University",
        "University Location": "Scranton (PA)",
        "University Type": "Private"
    },
    {
        "University Name": "McNeese State University",
        "University Location": "Lake Charles (LA)",
        "University Type": "Public"
    },
    {
        "University Name": "Medical College of Georgia",
        "University Location": "Augusta (GA)",
        "University Type": "Public"
    },
    {
        "University Name": "Medical College of Ohio",
        "University Location": "Toledo (OH)",
        "University Type": "Public"
    },
    {
        "University Name": "Medical University of South Carolina",
        "University Location": "Charleston (SC)",
        "University Type": "Public"
    },
    {
        "University Name": "Mercer University",
        "University Location": "Macon (GA)",
        "University Type": "Private"
    },
    {
        "University Name": "Mercy College",
        "University Location": "Dobbs Ferry (NY)",
        "University Type": "Private"
    },
    {
        "University Name": "Messiah College",
        "University Location": "Grantham (PA)",
        "University Type": "Private"
    },
    {
        "University Name": "Metropolitan State College of Denver",
        "University Location": "Denver (CO)",
        "University Type": "Public"
    },
    {
        "University Name": "Metropolitan State University",
        "University Location": "Saint Paul (MN)",
        "University Type": "Public"
    },
    {
        "University Name": "MGH Institute of Health Professions",
        "University Location": "Boston (MA)",
        "University Type": "Private"
    },
    {
        "University Name": "Michigan State University",
        "University Location": "East Lansing (MI)",
        "University Type": "Public"
    },
    {
        "University Name": "Middle Tennessee State University",
        "University Location": "Murfreesboro (TN)",
        "University Type": "Public"
    },
    {
        "University Name": "Midwestern State University",
        "University Location": "Wichita Falls (TX)",
        "University Type": "Public"
    },
    {
        "University Name": "Millersville University",
        "University Location": "Millersville (PA)",
        "University Type": "Public"
    },
    {
        "University Name": "Minnesota State University - Mankato",
        "University Location": "Mankato (MN)",
        "University Type": "Public"
    },
    {
        "University Name": "Minnesota State University - Moorhead",
        "University Location": "Moorhead (MN)",
        "University Type": "Public"
    },
    {
        "University Name": "Minot State University",
        "University Location": "Minot (ND)",
        "University Type": "Public"
    },
    {
        "University Name": "Mississippi College",
        "University Location": "Clinton (MS)",
        "University Type": "Private"
    },
    {
        "University Name": "Mississippi University for Women",
        "University Location": "Columbus (MS)",
        "University Type": "Public"
    },
    {
        "University Name": "Molloy College",
        "University Location": "Rockville Centre (NY)",
        "University Type": "Private"
    },
    {
        "University Name": "Monmouth University",
        "University Location": "West Long Branch (NJ)",
        "University Type": "Private"
    },
    {
        "University Name": "Montana State University - Bozeman",
        "University Location": "Bozeman (MT)",
        "University Type": "Public"
    },
    {
        "University Name": "Morehead State University",
        "University Location": "Morehead (KY)",
        "University Type": "Public"
    },
    {
        "University Name": "Mount Carmel College of Nursing",
        "University Location": "Columbus (OH)",
        "University Type": "Private"
    },
    {
        "University Name": "Mount Marty College",
        "University Location": "Yankton (SD)",
        "University Type": "Private"
    },
    {
        "University Name": "Mount Mary College",
        "University Location": "Milwaukee (WI)",
        "University Type": "Private"
    },
    {
        "University Name": "Mount Saint Mary College",
        "University Location": "Newburgh (NY)",
        "University Type": "Private"
    },
    {
        "University Name": "Murray State University",
        "University Location": "Murray (KY)",
        "University Type": "Public"
    },
    {
        "University Name": "National University",
        "University Location": "San Diego (CA)",
        "University Type": "Private"
    },
    {
        "University Name": "Nazareth College",
        "University Location": "Rochester (NY)",
        "University Type": "Private"
    },
    {
        "University Name": "Nebraska Methodist College",
        "University Location": "Omaha (NE)",
        "University Type": "Private"
    },
    {
        "University Name": "Nebraska Wesleyan University",
        "University Location": "Lincoln (NE)",
        "University Type": "Private"
    },
    {
        "University Name": "Neumann College",
        "University Location": "Aston (PA)",
        "University Type": "Private"
    },
    {
        "University Name": "New Jersey City University",
        "University Location": "Jersey City (NJ)",
        "University Type": "Public"
    },
    {
        "University Name": "New Mexico State University",
        "University Location": "Las Cruces (NM)",
        "University Type": "Public"
    },
    {
        "University Name": "Newman University",
        "University Location": "Wichita (KS)",
        "University Type": "Private"
    },
    {
        "University Name": "Niagara University",
        "University Location": "Niagara University (NY)",
        "University Type": "Private"
    },
    {
        "University Name": "North Carolina A&T State University",
        "University Location": "Greensboro (NC)",
        "University Type": "Public"
    },
    {
        "University Name": "North Carolina Central University",
        "University Location": "Durham (NC)",
        "University Type": "Public"
    },
    {
        "University Name": "North Dakota State University",
        "University Location": "Fargo (ND)",
        "University Type": "Public"
    },
    {
        "University Name": "North Georgia College & State University",
        "University Location": "Dahlonega (GA)",
        "University Type": "Public"
    },
    {
        "University Name": "North Park University",
        "University Location": "Chicago (IL)",
        "University Type": "Private"
    },
    {
        "University Name": "Northeastern State University",
        "University Location": "Tahlequah (OK)",
        "University Type": "Public"
    },
    {
        "University Name": "Northeastern University",
        "University Location": "Boston (MA)",
        "University Type": "Private"
    },
    {
        "University Name": "Northern Arizona University",
        "University Location": "Flagstaff (AZ)",
        "University Type": "Public"
    },
    {
        "University Name": "Northern Illinois University",
        "University Location": "De Kalb (IL)",
        "University Type": "Public"
    },
    {
        "University Name": "Northern Kentucky University",
        "University Location": "Highland Heights (KY)",
        "University Type": "Public"
    },
    {
        "University Name": "Northern Michigan University",
        "University Location": "Marquette (MI)",
        "University Type": "Public"
    },
    {
        "University Name": "Northwest Nazarene University Idaho",
        "University Location": "Nampa (ID)",
        "University Type": "Private"
    },
    {
        "University Name": "Northwestern State University",
        "University Location": "Natchitoches (LA)",
        "University Type": "Public"
    },
    {
        "University Name": "Nova Southeastern University",
        "University Location": "Fort Lauderdale (FL)",
        "University Type": "Private"
    },
    {
        "University Name": "Oakland University",
        "University Location": "Rochester (MI)",
        "University Type": "Public"
    },
    {
        "University Name": "Oakwood College",
        "University Location": "Huntsville (AL)",
        "University Type": "Private"
    },
    {
        "University Name": "Ohio State University, The",
        "University Location": "Columbus (OH)",
        "University Type": "Public"
    },
    {
        "University Name": "Ohio University",
        "University Location": "Athens (OH)",
        "University Type": "Public"
    },
    {
        "University Name": "Oklahoma Baptist University",
        "University Location": "Shawnee (OK)",
        "University Type": "Private"
    },
    {
        "University Name": "Oklahoma City University",
        "University Location": "Oklahoma City (OK)",
        "University Type": "Private"
    },
    {
        "University Name": "Old Dominion University",
        "University Location": "Norfolk (VA)",
        "University Type": "Public"
    },
    {
        "University Name": "Olivet Nazarene University",
        "University Location": "Bourbonnais (IL)",
        "University Type": "Private"
    },
    {
        "University Name": "Oregon Health & Science University",
        "University Location": "Portland (OR)",
        "University Type": "Public"
    },
    {
        "University Name": "Otterbein College",
        "University Location": "Westerville (OH)",
        "University Type": "Private"
    },
    {
        "University Name": "Pace University",
        "University Location": "New York (NY)",
        "University Type": "Private"
    },
    {
        "University Name": "Pacific Lutheran University",
        "University Location": "Tacoma (WA)",
        "University Type": "Private"
    },
    {
        "University Name": "Pacific Union College",
        "University Location": "Angwin (CA)",
        "University Type": "Private"
    },
    {
        "University Name": "Palm Beach Atlantic University",
        "University Location": "West Palm Beach (FL)",
        "University Type": "Private"
    },
    {
        "University Name": "Pennsylvania State University",
        "University Location": "University Park (PA)",
        "University Type": "Public"
    },
    {
        "University Name": "Pittsburg State University",
        "University Location": "Pittsburg (KS)",
        "University Type": "Public"
    },
    {
        "University Name": "Point Loma Nazarene University",
        "University Location": "San Diego (CA)",
        "University Type": "Private"
    },
    {
        "University Name": "Prairie View A&M University",
        "University Location": "Prairie View (TX)",
        "University Type": "Public"
    },
    {
        "University Name": "Presentation College",
        "University Location": "Aberdeen (SD)",
        "University Type": "Private"
    },
    {
        "University Name": "Purdue University",
        "University Location": "West Lafayette (IN)",
        "University Type": "Public"
    },
    {
        "University Name": "Queens University of Charlotte",
        "University Location": "Charlotte (NC)",
        "University Type": "Private"
    },
    {
        "University Name": "Quincy University",
        "University Location": "Quincy (IL)",
        "University Type": "Private"
    },
    {
        "University Name": "Quinnipiac University",
        "University Location": "Hamden (CT)",
        "University Type": "Private"
    },
    {
        "University Name": "Radford University",
        "University Location": "Radford (VA)",
        "University Type": "Public"
    },
    {
        "University Name": "Regis College",
        "University Location": "Weston (MA)",
        "University Type": "Private"
    },
    {
        "University Name": "Rhode Island College",
        "University Location": "Providence (RI)",
        "University Type": "Public"
    },
    {
        "University Name": "Rivier College",
        "University Location": "Nashua (NH)",
        "University Type": "Private"
    },
    {
        "University Name": "Roberts Wesleyan College",
        "University Location": "Rochester (NY)",
        "University Type": "Private"
    },
    {
        "University Name": "Rush University",
        "University Location": "Chicago (IL)",
        "University Type": "Private"
    },
    {
        "University Name": "Rutgers University",
        "University Location": "New Brunswick (NJ)",
        "University Type": "Public"
    },
    {
        "University Name": "Rutgers University - Newark",
        "University Location": "Newark (NJ)",
        "University Type": "Public"
    },
    {
        "University Name": "Sacred Heart University",
        "University Location": "Fairfield (CT)",
        "University Type": "Private"
    },
    {
        "University Name": "Sage Graduate School",
        "University Location": "Troy (NY)",
        "University Type": "Private"
    },
    {
        "University Name": "Saginaw Valley State University",
        "University Location": "University Center (MI)",
        "University Type": "Public"
    },
    {
        "University Name": "Saint Ambrose University",
        "University Location": "Davenport (IA)",
        "University Type": "Private"
    },
    {
        "University Name": "Saint Joseph College",
        "University Location": "West Hartford (CT)",
        "University Type": "Private"
    },
    {
        "University Name": "Saint Louis University",
        "University Location": "Saint Louis (MO)",
        "University Type": "Private"
    },
    {
        "University Name": "Saint Mary's College",
        "University Location": "Notre Dame (IN)",
        "University Type": "Private"
    },
    {
        "University Name": "Saint Olaf College",
        "University Location": "Northfield (MN)",
        "University Type": "Private"
    },
    {
        "University Name": "Saint Peter's College",
        "University Location": "Jersey City (NJ)",
        "University Type": "Private"
    },
    {
        "University Name": "Saint Xavier University",
        "University Location": "Chicago (IL)",
        "University Type": "Private"
    },
    {
        "University Name": "Salem State College",
        "University Location": "Salem (MA)",
        "University Type": "Public"
    },
    {
        "University Name": "Salisbury University",
        "University Location": "Salisbury (MD)",
        "University Type": "Public"
    },
    {
        "University Name": "Salve Regina University",
        "University Location": "Newport (RI)",
        "University Type": "Private"
    },
    {
        "University Name": "Samford University",
        "University Location": "Birmingham (AL)",
        "University Type": "Private"
    },
    {
        "University Name": "Samuel Merritt College",
        "University Location": "Oakland (CA)",
        "University Type": "Private"
    },
    {
        "University Name": "San Diego State University",
        "University Location": "San Diego (CA)",
        "University Type": "Public"
    },
    {
        "University Name": "San Fransisco State University",
        "University Location": "San Francisco (CA)",
        "University Type": "Public"
    },
    {
        "University Name": "San Jose State University",
        "University Location": "San Jose (CA)",
        "University Type": "Public"
    },
    {
        "University Name": "Seattle Pacific University",
        "University Location": "Seattle (WA)",
        "University Type": "Private"
    },
    {
        "University Name": "Seattle University",
        "University Location": "Seattle (WA)",
        "University Type": "Private"
    },
    {
        "University Name": "Seton Hall University",
        "University Location": "South Orange (NJ)",
        "University Type": "Private"
    },
    {
        "University Name": "Shenandoah University",
        "University Location": "Winchester (VA)",
        "University Type": "Private"
    },
    {
        "University Name": "Simmons College",
        "University Location": "Boston (MA)",
        "University Type": "Private"
    },
    {
        "University Name": "Slippery Rock University",
        "University Location": "Slippery Rock (PA)",
        "University Type": "Public"
    },
    {
        "University Name": "Sonoma State University",
        "University Location": "Rohnert Park (CA)",
        "University Type": "Public"
    },
    {
        "University Name": "South Carolina State University",
        "University Location": "Orangeburg (SC)",
        "University Type": "Public"
    },
    {
        "University Name": "South Dakota State University",
        "University Location": "Brookings (SD)",
        "University Type": "Public"
    },
    {
        "University Name": "Southeast Missouri State University",
        "University Location": "Cape Girardeau (MO)",
        "University Type": "Public"
    },
    {
        "University Name": "Southeastern Louisiana University",
        "University Location": "Hammond (LA)",
        "University Type": "Public"
    },
    {
        "University Name": "Southern Adventist University",
        "University Location": "Collegedale (TN)",
        "University Type": "Private"
    },
    {
        "University Name": "Southern Arkansas University",
        "University Location": "Magnolia (AR)",
        "University Type": "Public"
    },
    {
        "University Name": "Southern Connecticut State University",
        "University Location": "New Haven (CT)",
        "University Type": "Public"
    },
    {
        "University Name": "Southern Illinois University - Edwardsville",
        "University Location": "Edwardsville (IL)",
        "University Type": "Public"
    },
    {
        "University Name": "Southern University - Baton Rouge",
        "University Location": "Baton Rouge (LA)",
        "University Type": "Public"
    },
    {
        "University Name": "Southwest Missouri State University",
        "University Location": "Springfield (MO)",
        "University Type": "Public"
    },
    {
        "University Name": "Southwestern Adventist University",
        "University Location": "Keene (TX)",
        "University Type": "Private"
    },
    {
        "University Name": "Southwestern Oklahoma State University",
        "University Location": "Weatherford (OK)",
        "University Type": "Public"
    },
    {
        "University Name": "Spalding University",
        "University Location": "Louisville (KY)",
        "University Type": "Private"
    },
    {
        "University Name": "St. Cloud State University",
        "University Location": "Saint Cloud (MN)",
        "University Type": "Public"
    },
    {
        "University Name": "St. John Fisher College",
        "University Location": "Rochester (NY)",
        "University Type": "Private"
    },
    {
        "University Name": "State University of West Georgia",
        "University Location": "Carrollton (GA)",
        "University Type": "Public"
    },
    {
        "University Name": "Stephen F. Austin State University",
        "University Location": "Nacogdoches (TX)",
        "University Type": "Public"
    },
    {
        "University Name": "Stony Brook University",
        "University Location": "Stony Brook (NY)",
        "University Type": "Public"
    },
    {
        "University Name": "SUNY - New Paltz",
        "University Location": "New Paltz (NY)",
        "University Type": "Public"
    },
    {
        "University Name": "SUNY - Plattsburgh",
        "University Location": "Plattsburgh (NY)",
        "University Type": "Public"
    },
    {
        "University Name": "SUNY Downstate Medical Center",
        "University Location": "Brooklyn (NY)",
        "University Type": "Public"
    },
    {
        "University Name": "SUNY Upstate Medical University",
        "University Location": "Syracuse (NY)",
        "University Type": "Public"
    },
    {
        "University Name": "Syracuse University",
        "University Location": "Syracuse (NY)",
        "University Type": "Private"
    },
    {
        "University Name": "Tarleton State University",
        "University Location": "Stephenville (TX)",
        "University Type": "Public"
    },
    {
        "University Name": "Temple University",
        "University Location": "Philadelphia (PA)",
        "University Type": "Public"
    },
    {
        "University Name": "Tennessee State University",
        "University Location": "Nashville (TN)",
        "University Type": "Public"
    },
    {
        "University Name": "Texas A&M International University",
        "University Location": "Laredo (TX)",
        "University Type": "Public"
    },
    {
        "University Name": "Texas A&M University-Corpus Christi",
        "University Location": "Corpus Christi (TX)",
        "University Type": "Public"
    },
    {
        "University Name": "Texas A&M University-Texarkana",
        "University Location": "Texarkana (TX)",
        "University Type": "Public"
    },
    {
        "University Name": "Texas Christian University",
        "University Location": "Fort Worth (TX)",
        "University Type": "Private"
    },
    {
        "University Name": "Texas Tech University HSC - Lubbock",
        "University Location": "Lubbock (TX)",
        "University Type": "Public"
    },
    {
        "University Name": "Texas Woman's University",
        "University Location": "Denton (TX)",
        "University Type": "Public"
    },
    {
        "University Name": "Thomas Jefferson University",
        "University Location": "Philadelphia (PA)",
        "University Type": "Private"
    },
    {
        "University Name": "Towson University",
        "University Location": "Towson (MD)",
        "University Type": "Public"
    },
    {
        "University Name": "Trinity Christian College",
        "University Location": "Palos Heights (IL)",
        "University Type": "Private"
    },
    {
        "University Name": "Troy State University",
        "University Location": "Troy (AL)",
        "University Type": "Public"
    },
    {
        "University Name": "Tuskegee University",
        "University Location": "Tuskegee (AL)",
        "University Type": "Private"
    },
    {
        "University Name": "Uniformed Services University of the Health Sciences",
        "University Location": "Bethesda (MD)",
        "University Type": "Public"
    },
    {
        "University Name": "Union University",
        "University Location": "Jackson (TN)",
        "University Type": "Private"
    },
    {
        "University Name": "University at Buffalo",
        "University Location": "Buffalo (NY)",
        "University Type": "Public"
    },
    {
        "University Name": "University of Akron, The",
        "University Location": "Akron (OH)",
        "University Type": "Public"
    },
    {
        "University Name": "University of Alabama - Birmingham",
        "University Location": "Birmingham (AL)",
        "University Type": "Public"
    },
    {
        "University Name": "University of Alabama - Huntsville",
        "University Location": "Huntsville (AL)",
        "University Type": "Public"
    },
    {
        "University Name": "University of Alabama - Tuscaloosa",
        "University Location": "Tuscaloosa (AL)",
        "University Type": "Public"
    },
    {
        "University Name": "University of Alaska Anchorage",
        "University Location": "Anchorage (AK)",
        "University Type": "Public"
    },
    {
        "University Name": "University of Arizona",
        "University Location": "Tucson (AZ)",
        "University Type": "Public"
    },
    {
        "University Name": "University of Arkansas - Fayetteville",
        "University Location": "Fayetteville (AR)",
        "University Type": "Public"
    },
    {
        "University Name": "University of Arkansas - Little Rock",
        "University Location": "Little Rock (AR)",
        "University Type": "Public"
    },
    {
        "University Name": "University of Arkansas - Monticello",
        "University Location": "Monticello (AR)",
        "University Type": "Public"
    },
    {
        "University Name": "University of Arkansas for Medical Sciences",
        "University Location": "Little Rock (AR)",
        "University Type": "Public"
    },
    {
        "University Name": "University of California - Los Angeles",
        "University Location": "Los Angeles (CA)",
        "University Type": "Public"
    },
    {
        "University Name": "University of California - San Francisco",
        "University Location": "San Francisco (CA)",
        "University Type": "Public"
    },
    {
        "University Name": "University of Central Arkansas",
        "University Location": "Conway (AR)",
        "University Type": "Public"
    },
    {
        "University Name": "University of Central Florida",
        "University Location": "Orlando (FL)",
        "University Type": "Public"
    },
    {
        "University Name": "University of Central Oklahoma",
        "University Location": "Edmond (OK)",
        "University Type": "Public"
    },
    {
        "University Name": "University of Cincinnati",
        "University Location": "Cincinnati (OH)",
        "University Type": "Public"
    },
    {
        "University Name": "University of Colorado - Colorado Springs",
        "University Location": "Colorado Springs (CO)",
        "University Type": "Public"
    },
    {
        "University Name": "University of Colorado Health Sciences Center",
        "University Location": "Denver (CO)",
        "University Type": "Public"
    },
    {
        "University Name": "University of Connecticut",
        "University Location": "Storrs (CT)",
        "University Type": "Public"
    },
    {
        "University Name": "University of Delaware",
        "University Location": "Newark (DE)",
        "University Type": "Public"
    },
    {
        "University Name": "University of Detroit Mercy",
        "University Location": "Detroit (MI)",
        "University Type": "Private"
    },
    {
        "University Name": "University of Evansville",
        "University Location": "Evansville (IN)",
        "University Type": "Private"
    },
    {
        "University Name": "University of Florida",
        "University Location": "Gainesville (FL)",
        "University Type": "Public"
    },
    {
        "University Name": "University of Hartford",
        "University Location": "West Hartford (CT)",
        "University Type": "Private"
    },
    {
        "University Name": "University of Hawaii - Manoa",
        "University Location": "Honolulu (HI)",
        "University Type": "Public"
    },
    {
        "University Name": "University of Illinois - Chicago",
        "University Location": "Chicago (IL)",
        "University Type": "Public"
    },
    {
        "University Name": "University of Indianapolis",
        "University Location": "Indianapolis (IN)",
        "University Type": "Private"
    },
    {
        "University Name": "University of Iowa",
        "University Location": "Iowa City (IA)",
        "University Type": "Public"
    },
    {
        "University Name": "University of Kansas Medical Center",
        "University Location": "Kansas City (KS)",
        "University Type": "Public"
    },
    {
        "University Name": "University of Kentucky",
        "University Location": "Lexington (KY)",
        "University Type": "Public"
    },
    {
        "University Name": "University of Louisiana - Lafayette",
        "University Location": "Lafayette (LA)",
        "University Type": "Public"
    },
    {
        "University Name": "University of Louisiana - Monroe",
        "University Location": "Monroe (LA)",
        "University Type": "Public"
    },
    {
        "University Name": "University of Louisville",
        "University Location": "Louisville (KY)",
        "University Type": "Public"
    },
    {
        "University Name": "University of Maine",
        "University Location": "Orono (ME)",
        "University Type": "Public"
    },
    {
        "University Name": "University of Mary",
        "University Location": "Bismarck (ND)",
        "University Type": "Private"
    },
    {
        "University Name": "University of Maryland - Baltimore",
        "University Location": "Baltimore (MD)",
        "University Type": "Public"
    },
    {
        "University Name": "University of Massachusetts - Amherst",
        "University Location": "Amherst (MA)",
        "University Type": "Public"
    },
    {
        "University Name": "University of Massachusetts - Boston",
        "University Location": "Boston (MA)",
        "University Type": "Public"
    },
    {
        "University Name": "University of Massachusetts - Dartmouth",
        "University Location": "North Dartmouth (MA)",
        "University Type": "Public"
    },
    {
        "University Name": "University of Massachusetts - Lowell",
        "University Location": "Lowell (MA)",
        "University Type": "Public"
    },
    {
        "University Name": "University of Massachusetts Medical School",
        "University Location": "Worcester (MA)",
        "University Type": "Public"
    },
    {
        "University Name": "University of Medicine & Dentistry of New Jersey",
        "University Location": "Newark (NJ)",
        "University Type": "Public"
    },
    {
        "University Name": "University of Memphis",
        "University Location": "Memphis (TN)",
        "University Type": "Public"
    },
    {
        "University Name": "University of Miami",
        "University Location": "Coral Gables (FL)",
        "University Type": "Private"
    },
    {
        "University Name": "University of Michigan - Ann Arbor",
        "University Location": "Ann Arbor (MI)",
        "University Type": "Public"
    },
    {
        "University Name": "University of Michigan - Flint",
        "University Location": "Flint (MI)",
        "University Type": "Public"
    },
    {
        "University Name": "University of Minnesota - Twincities",
        "University Location": "Minneapolis (MN)",
        "University Type": "Public"
    },
    {
        "University Name": "University of Mississippi Medical Center",
        "University Location": "Jackson (MS)",
        "University Type": "Public"
    },
    {
        "University Name": "University of Missouri - Columbia",
        "University Location": "Columbia (MO)",
        "University Type": "Public"
    },
    {
        "University Name": "University of Missouri - Kansas City",
        "University Location": "Kansas City (MO)",
        "University Type": "Public"
    },
    {
        "University Name": "University of Missouri - St. Louis",
        "University Location": "Saint Louis (MO)",
        "University Type": "Public"
    },
    {
        "University Name": "University of Mobile",
        "University Location": "Mobile (AL)",
        "University Type": "Private"
    },
    {
        "University Name": "University of Nebraska Medical Center",
        "University Location": "Omaha (NE)",
        "University Type": "Public"
    },
    {
        "University Name": "University of Nevada, Las Vegas",
        "University Location": "Las Vegas (NV)",
        "University Type": "Public"
    },
    {
        "University Name": "University of Nevada, Reno",
        "University Location": "Reno (NV)",
        "University Type": "Public"
    },
    {
        "University Name": "University of New England",
        "University Location": "Biddeford (ME)",
        "University Type": "Private"
    },
    {
        "University Name": "University of New Hampshire",
        "University Location": "Durham (NH)",
        "University Type": "Public"
    },
    {
        "University Name": "University of New Mexico",
        "University Location": "Albuquerque (NM)",
        "University Type": "Public"
    },
    {
        "University Name": "University of North Alabama",
        "University Location": "Florence (AL)",
        "University Type": "Public"
    },
    {
        "University Name": "University of North Carolina - Chapel Hill",
        "University Location": "Chapel Hill (NC)",
        "University Type": "Public"
    },
    {
        "University Name": "University of North Carolina - Greensboro",
        "University Location": "Greensboro (NC)",
        "University Type": "Public"
    },
    {
        "University Name": "University of North Carolina - Pembroke",
        "University Location": "Pembroke (NC)",
        "University Type": "Public"
    },
    {
        "University Name": "University of North Carolina - Wilmington",
        "University Location": "Wilmington (NC)",
        "University Type": "Public"
    },
    {
        "University Name": "University of North Dakota",
        "University Location": "Grand Forks (ND)",
        "University Type": "Public"
    },
    {
        "University Name": "University of North Florida",
        "University Location": "Jacksonville (FL)",
        "University Type": "Public"
    },
    {
        "University Name": "University of Northern Colorado",
        "University Location": "Greeley (CO)",
        "University Type": "Public"
    },
    {
        "University Name": "University of Oklahoma Health Sciences Center",
        "University Location": "Oklahoma City (OK)",
        "University Type": "Public"
    },
    {
        "University Name": "University of Pennsylvania",
        "University Location": "Philadelphia (PA)",
        "University Type": "Private"
    },
    {
        "University Name": "University of Pittsburgh",
        "University Location": "Pittsburgh (PA)",
        "University Type": "Public"
    },
    {
        "University Name": "University of Portland",
        "University Location": "Portland (OR)",
        "University Type": "Private"
    },
    {
        "University Name": "University of Rhode Island",
        "University Location": "Kingston (RI)",
        "University Type": "Public"
    },
    {
        "University Name": "University of Rochester",
        "University Location": "Rochester (NY)",
        "University Type": "Private"
    },
    {
        "University Name": "University of Saint Francis",
        "University Location": "Fort Wayne (IN)",
        "University Type": "Private"
    },
    {
        "University Name": "University of San Diego",
        "University Location": "San Diego (CA)",
        "University Type": "Private"
    },
    {
        "University Name": "University of San Francisco",
        "University Location": "San Francisco (CA)",
        "University Type": "Private"
    },
    {
        "University Name": "University of Scranton",
        "University Location": "Scranton (PA)",
        "University Type": "Private"
    },
    {
        "University Name": "University of South Alabama",
        "University Location": "Mobile (AL)",
        "University Type": "Public"
    },
    {
        "University Name": "University of South Carolina-Columbia",
        "University Location": "Columbia (SC)",
        "University Type": "Public"
    },
    {
        "University Name": "University of South Dakota",
        "University Location": "Vermillion (SD)",
        "University Type": "Public"
    },
    {
        "University Name": "University of South Florida",
        "University Location": "Tampa (FL)",
        "University Type": "Public"
    },
    {
        "University Name": "University of Southern Indiana",
        "University Location": "Evansville (IN)",
        "University Type": "Public"
    },
    {
        "University Name": "University of Southern Maine",
        "University Location": "Portland (ME)",
        "University Type": "Public"
    },
    {
        "University Name": "University of Southern Mississippi",
        "University Location": "Hattiesburg (MS)",
        "University Type": "Public"
    },
    {
        "University Name": "University of Tampa",
        "University Location": "Tampa (FL)",
        "University Type": "Private"
    },
    {
        "University Name": "University of Tennessee Health Science Center, The",
        "University Location": "Memphis (TN)",
        "University Type": "Public"
    },
    {
        "University Name": "University of Tennessee-Chattanooga",
        "University Location": "Chattanooga (TN)",
        "University Type": "Public"
    },
    {
        "University Name": "University of Tennessee-Knoxville",
        "University Location": "Knoxville (TN)",
        "University Type": "Public"
    },
    {
        "University Name": "University of Tennessee-Martin",
        "University Location": "Martin (TN)",
        "University Type": "Public"
    },
    {
        "University Name": "University of Texas - Arlington",
        "University Location": "Arlington (TX)",
        "University Type": "Public"
    },
    {
        "University Name": "University of Texas - Austin",
        "University Location": "Austin (TX)",
        "University Type": "Public"
    },
    {
        "University Name": "University of Texas - El Paso",
        "University Location": "El Paso (TX)",
        "University Type": "Public"
    },
    {
        "University Name": "University of Texas - Pan American",
        "University Location": "Edinburg (TX)",
        "University Type": "Public"
    },
    {
        "University Name": "University of Texas - Tyler",
        "University Location": "Tyler (TX)",
        "University Type": "Public"
    },
    {
        "University Name": "University of Texas Health Science Center - Houston",
        "University Location": "Houston (TX)",
        "University Type": "Public"
    },
    {
        "University Name": "University of Texas Health Science Center - San Antonio",
        "University Location": "San Antonio (TX)",
        "University Type": "Public"
    },
    {
        "University Name": "University of Texas Medical Branch",
        "University Location": "Galveston (TX)",
        "University Type": "Public"
    },
    {
        "University Name": "University of the Incarnate Word",
        "University Location": "San Antonio (TX)",
        "University Type": "Private"
    },
    {
        "University Name": "University of Utah",
        "University Location": "Salt Lake City (UT)",
        "University Type": "Public"
    },
    {
        "University Name": "University of Vermont",
        "University Location": "Burlington (VT)",
        "University Type": "Public"
    },
    {
        "University Name": "University of Virginia",
        "University Location": "Charlottesville (VA)",
        "University Type": "Public"
    },
    {
        "University Name": "University of Washington",
        "University Location": "Seattle (WA)",
        "University Type": "Public"
    },
    {
        "University Name": "University of Washington - Bothell",
        "University Location": "Bothell (WA)",
        "University Type": "Public"
    },
    {
        "University Name": "University of Washington - Tacoma",
        "University Location": "Tacoma (WA)",
        "University Type": "Public"
    },
    {
        "University Name": "University of West Florida",
        "University Location": "Pensacola (FL)",
        "University Type": "Public"
    },
    {
        "University Name": "University of Wisconsin - Eau Claire",
        "University Location": "Eau Claire (WI)",
        "University Type": "Public"
    },
    {
        "University Name": "University of Wisconsin - Green Bay",
        "University Location": "Green Bay (WI)",
        "University Type": "Public"
    },
    {
        "University Name": "University of Wisconsin - Madison",
        "University Location": "Madison (WI)",
        "University Type": "Public"
    },
    {
        "University Name": "University of Wisconsin - Milwaukee",
        "University Location": "Milwaukee (WI)",
        "University Type": "Public"
    },
    {
        "University Name": "University of Wisconsin - Oshkosh",
        "University Location": "Oshkosh (WI)",
        "University Type": "Public"
    },
    {
        "University Name": "University of Wyoming",
        "University Location": "Laramie (WY)",
        "University Type": "Public"
    },
    {
        "University Name": "Ursuline College",
        "University Location": "Pepper Pike (OH)",
        "University Type": "Private"
    },
    {
        "University Name": "Valdosta State University",
        "University Location": "Valdosta (GA)",
        "University Type": "Public"
    },
    {
        "University Name": "Valparaiso University",
        "University Location": "Valparaiso (IN)",
        "University Type": "Private"
    },
    {
        "University Name": "Vanderbilt University",
        "University Location": "Nashville (TN)",
        "University Type": "Private"
    },
    {
        "University Name": "Villanova University",
        "University Location": "Villanova (PA)",
        "University Type": "Private"
    },
    {
        "University Name": "Virginia Commonwealth University",
        "University Location": "Richmond (VA)",
        "University Type": "Public"
    },
    {
        "University Name": "Viterbo University",
        "University Location": "La Crosse (WI)",
        "University Type": "Private"
    },
    {
        "University Name": "Wagner College",
        "University Location": "Staten Island (NY)",
        "University Type": "Private"
    },
    {
        "University Name": "Walla Walla College",
        "University Location": "College Place (WA)",
        "University Type": "Private"
    },
    {
        "University Name": "Washburn University",
        "University Location": "Topeka (KS)",
        "University Type": "Public"
    },
    {
        "University Name": "Washington State University",
        "University Location": "Pullman (WA)",
        "University Type": "Public"
    },
    {
        "University Name": "Wayne State University",
        "University Location": "Detroit (MI)",
        "University Type": "Public"
    },
    {
        "University Name": "Webster University",
        "University Location": "Saint Louis (MO)",
        "University Type": "Private"
    },
    {
        "University Name": "Wesley College",
        "University Location": "Dover (DE)",
        "University Type": "Private"
    },
    {
        "University Name": "West Chester University",
        "University Location": "West Chester (PA)",
        "University Type": "Public"
    },
    {
        "University Name": "West Texas A&M University",
        "University Location": "Canyon (TX)",
        "University Type": "Public"
    },
    {
        "University Name": "West Virginia University",
        "University Location": "Morgantown (WV)",
        "University Type": "Public"
    },
    {
        "University Name": "Western Carolina University",
        "University Location": "Cullowhee (NC)",
        "University Type": "Public"
    },
    {
        "University Name": "Western Connecticut State University",
        "University Location": "Danbury (CT)",
        "University Type": "Public"
    },
    {
        "University Name": "Western Kentucky University",
        "University Location": "Bowling Green (KY)",
        "University Type": "Public"
    },
    {
        "University Name": "Western Michigan University",
        "University Location": "Kalamazoo (MI)",
        "University Type": "Public"
    },
    {
        "University Name": "Western University of Health Sciences",
        "University Location": "Pomona (CA)",
        "University Type": "Private"
    },
    {
        "University Name": "Westminster College",
        "University Location": "Salt Lake City (UT)",
        "University Type": "Private"
    },
    {
        "University Name": "Wheeling Jesuit University",
        "University Location": "Wheeling (WV)",
        "University Type": "Private"
    },
    {
        "University Name": "Wichita State University",
        "University Location": "Wichita (KS)",
        "University Type": "Public"
    },
    {
        "University Name": "Widener University",
        "University Location": "Chester (PA)",
        "University Type": "Private"
    },
    {
        "University Name": "Wilkes University",
        "University Location": "Wilkes-Barre (PA)",
        "University Type": "Private"
    },
    {
        "University Name": "William Paterson University",
        "University Location": "Wayne (NJ)",
        "University Type": "Public"
    },
    {
        "University Name": "Wilmington College",
        "University Location": "New Castle (DE)",
        "University Type": "Private"
    },
    {
        "University Name": "Winona State University",
        "University Location": "Winona (MN)",
        "University Type": "Public"
    },
    {
        "University Name": "Worcester State College",
        "University Location": "Worcester (MA)",
        "University Type": "Public"
    },
    {
        "University Name": "Wright State University",
        "University Location": "Dayton (OH)",
        "University Type": "Public"
    },
    {
        "University Name": "Xavier University",
        "University Location": "Cincinnati (OH)",
        "University Type": "Private"
    },
    {
        "University Name": "Yale University",
        "University Location": "New Haven (CT)",
        "University Type": "Private"
    },
    {
        "University Name": "Youngstown State University",
        "University Location": "Youngstown (OH)",
        "University Type": "Public"
    }
]