[
    {
        "Summit": "Allt Lwyd",
        "Height (m)": "654m",
        "Height (ft)": "2146ft",
        "Grid Reference": "SO079189",
        "Date": "19/09/2008",
        "col 6": ""
    },
    {
        "Summit": "Allt-fawr",
        "Height (m)": "698m",
        "Height (ft)": "2290ft",
        "Grid Reference": "SH682475",
        "Date": "",
        "col 6": ""
    },
    {
        "Summit": "Aran Benllyn",
        "Height (m)": "885m",
        "Height (ft)": "2904ft",
        "Grid Reference": "SH867243",
        "Date": "",
        "col 6": ""
    },
    {
        "Summit": "Aran Fawddwy",
        "Height (m)": "905m",
        "Height (ft)": "2969ft",
        "Grid Reference": "SH863224",
        "Date": "",
        "col 6": ""
    },
    {
        "Summit": "Arenig Fach",
        "Height (m)": "689m",
        "Height (ft)": "2260ft",
        "Grid Reference": "SH820415",
        "Date": "19/11/2006",
        "col 6": ""
    },
    {
        "Summit": "Arenig Fawr",
        "Height (m)": "854m",
        "Height (ft)": "2802ft",
        "Grid Reference": "SH827369",
        "Date": "",
        "col 6": ""
    },
    {
        "Summit": "Arenig Fawr South Ridge Top",
        "Height (m)": "712m",
        "Height (ft)": "2336ft",
        "Grid Reference": "SH827360",
        "Date": "",
        "col 6": ""
    },
    {
        "Summit": "Arenig Fawr South Top",
        "Height (m)": "836m",
        "Height (ft)": "2743ft",
        "Grid Reference": "SH827366",
        "Date": "",
        "col 6": ""
    },
    {
        "Summit": "Bache Hill",
        "Height (m)": "610m",
        "Height (ft)": "2001ft",
        "Grid Reference": "SO214636",
        "Date": "",
        "col 6": ""
    },
    {
        "Summit": "Bera Bach",
        "Height (m)": "807m",
        "Height (ft)": "2648ft",
        "Grid Reference": "SH672678",
        "Date": "30/05/2010",
        "col 6": ""
    },
    {
        "Summit": "Bera Mawr",
        "Height (m)": "794m",
        "Height (ft)": "2605ft",
        "Grid Reference": "SH675683",
        "Date": "30/05/2010",
        "col 6": ""
    },
    {
        "Summit": "Black Mixen",
        "Height (m)": "650m",
        "Height (ft)": "2133ft",
        "Grid Reference": "SO196644",
        "Date": "",
        "col 6": ""
    },
    {
        "Summit": "Black Mountain",
        "Height (m)": "703m",
        "Height (ft)": "2306ft",
        "Grid Reference": "SO255354",
        "Date": "20/09/2008",
        "col 6": ""
    },
    {
        "Summit": "Black Mountain South Top",
        "Height (m)": "637m",
        "Height (ft)": "2090ft",
        "Grid Reference": "SO266322",
        "Date": "20/09/2008",
        "col 6": ""
    },
    {
        "Summit": "Bwlch y Ddwyallt",
        "Height (m)": "754m",
        "Height (ft)": "2474ft",
        "Grid Reference": "SO054203",
        "Date": "19/09/2008",
        "col 6": ""
    },
    {
        "Summit": "Cadair Berwyn",
        "Height (m)": "827m",
        "Height (ft)": "2713ft",
        "Grid Reference": "SJ071323",
        "Date": "17/11/2006",
        "col 6": ""
    },
    {
        "Summit": "Cadair Berwyn New Top",
        "Height (m)": "830m",
        "Height (ft)": "2723ft",
        "Grid Reference": "SJ072327",
        "Date": "17/11/2006",
        "col 6": ""
    },
    {
        "Summit": "Cadair Bronwen",
        "Height (m)": "785m",
        "Height (ft)": "2575ft",
        "Grid Reference": "SJ077346",
        "Date": "",
        "col 6": ""
    },
    {
        "Summit": "Cadair Bronwen East Top",
        "Height (m)": "700m",
        "Height (ft)": "2297ft",
        "Grid Reference": "SJ087352",
        "Date": "",
        "col 6": "De-moted Sept 2007"
    },
    {
        "Summit": "Cadair Idris",
        "Height (m)": "893m",
        "Height (ft)": "2930ft",
        "Grid Reference": "SH711130",
        "Date": "26/08/2007",
        "col 6": ""
    },
    {
        "Summit": "Carnedd Dafydd",
        "Height (m)": "1044m",
        "Height (ft)": "3425ft",
        "Grid Reference": "SH663631",
        "Date": "31/05/2010",
        "col 6": ""
    },
    {
        "Summit": "Carnedd Llechwedd-llyfn",
        "Height (m)": "643m",
        "Height (ft)": "2110ft",
        "Grid Reference": "SH858445",
        "Date": "10/03/2006",
        "col 6": ""
    },
    {
        "Summit": "Carnedd Llewelyn",
        "Height (m)": "1064m",
        "Height (ft)": "3491ft",
        "Grid Reference": "SH684644",
        "Date": "31/05/2010",
        "col 6": ""
    },
    {
        "Summit": "Carnedd y Ddelw",
        "Height (m)": "688m",
        "Height (ft)": "2257ft",
        "Grid Reference": "SH708705",
        "Date": "",
        "col 6": ""
    },
    {
        "Summit": "Carnedd y Filiast (Arenigs)",
        "Height (m)": "669m",
        "Height (ft)": "2195ft",
        "Grid Reference": "SH871446",
        "Date": "10/03/2006",
        "col 6": ""
    },
    {
        "Summit": "Carnedd y Filiast (Glyders)",
        "Height (m)": "821m",
        "Height (ft)": "2694ft",
        "Grid Reference": "SH620628",
        "Date": "",
        "col 6": ""
    },
    {
        "Summit": "Carnedd y Filiast North Top",
        "Height (m)": "721m",
        "Height (ft)": "2365ft",
        "Grid Reference": "SH617631",
        "Date": "",
        "col 6": "Promoted Sept 2007"
    },
    {
        "Summit": "Castell y Gwynt",
        "Height (m)": "972m",
        "Height (ft)": "3189ft",
        "Grid Reference": "SH654581",
        "Date": "",
        "col 6": "Promoted Sept 2007"
    },
    {
        "Summit": "Cefn Gwyntog",
        "Height (m)": "615m",
        "Height (ft)": "2018ft",
        "Grid Reference": "SH976266",
        "Date": "18/11/2006",
        "col 6": ""
    },
    {
        "Summit": "Cefn yr Ystrad",
        "Height (m)": "617m",
        "Height (ft)": "2024ft",
        "Grid Reference": "SO087137",
        "Date": "23/09/2008",
        "col 6": ""
    },
    {
        "Summit": "Chwarel y Fan",
        "Height (m)": "679m",
        "Height (ft)": "2228ft",
        "Grid Reference": "SO258294",
        "Date": "20/09/2008",
        "col 6": ""
    },
    {
        "Summit": "Cnicht",
        "Height (m)": "689m",
        "Height (ft)": "2260ft",
        "Grid Reference": "SH645466",
        "Date": "",
        "col 6": ""
    },
    {
        "Summit": "Cnicht North Top",
        "Height (m)": "686m",
        "Height (ft)": "2251ft",
        "Grid Reference": "SH648468",
        "Date": "",
        "col 6": ""
    },
    {
        "Summit": "Corn Du",
        "Height (m)": "873m",
        "Height (ft)": "2864ft",
        "Grid Reference": "SO007213",
        "Date": "19/09/2008",
        "col 6": ""
    },
    {
        "Summit": "Craig Cerrig-gleisiad",
        "Height (m)": "629m",
        "Height (ft)": "2064ft",
        "Grid Reference": "SN961218",
        "Date": "18/09/2008",
        "col 6": ""
    },
    {
        "Summit": "Craig Cwm Amarch",
        "Height (m)": "791m",
        "Height (ft)": "2595ft",
        "Grid Reference": "SH711121",
        "Date": "26/08/2007",
        "col 6": ""
    },
    {
        "Summit": "Craig Cwm Silyn",
        "Height (m)": "734m",
        "Height (ft)": "2408ft",
        "Grid Reference": "SH525503",
        "Date": "",
        "col 6": ""
    },
    {
        "Summit": "Craig Eigiau",
        "Height (m)": "735m",
        "Height (ft)": "2411ft",
        "Grid Reference": "SH713655",
        "Date": "",
        "col 6": ""
    },
    {
        "Summit": "Craiglwyn",
        "Height (m)": "623m",
        "Height (ft)": "2044ft",
        "Grid Reference": "SH730608",
        "Date": "",
        "col 6": ""
    },
    {
        "Summit": "Craig-y-llyn",
        "Height (m)": "622m",
        "Height (ft)": "2041ft",
        "Grid Reference": "SH665119",
        "Date": "",
        "col 6": ""
    },
    {
        "Summit": "Craigysgafn",
        "Height (m)": "689m",
        "Height (ft)": "2260ft",
        "Grid Reference": "SH660443",
        "Date": "",
        "col 6": ""
    },
    {
        "Summit": "Creigiau Gleision",
        "Height (m)": "678m",
        "Height (ft)": "2224ft",
        "Grid Reference": "SH729615",
        "Date": "",
        "col 6": ""
    },
    {
        "Summit": "Creigiau Gleision North Top",
        "Height (m)": "634m",
        "Height (ft)": "2080ft",
        "Grid Reference": "SH734622",
        "Date": "",
        "col 6": ""
    },
    {
        "Summit": "Crib Goch",
        "Height (m)": "923m",
        "Height (ft)": "3028ft",
        "Grid Reference": "SH624552",
        "Date": "",
        "col 6": ""
    },
    {
        "Summit": "Crib y Ddysgl",
        "Height (m)": "1065m",
        "Height (ft)": "3494ft",
        "Grid Reference": "SH611552",
        "Date": "25/06/2006",
        "col 6": ""
    },
    {
        "Summit": "Cribin Fawr",
        "Height (m)": "659m",
        "Height (ft)": "2162ft",
        "Grid Reference": "SH795153",
        "Date": "",
        "col 6": ""
    },
    {
        "Summit": "Cribyn",
        "Height (m)": "795m",
        "Height (ft)": "2608ft",
        "Grid Reference": "SO024213",
        "Date": "19/09/2008",
        "col 6": ""
    },
    {
        "Summit": "Crib-y-rhiw",
        "Height (m)": "670m",
        "Height (ft)": "2198ft",
        "Grid Reference": "SH663249",
        "Date": "03/05/2008",
        "col 6": ""
    },
    {
        "Summit": "Cyfrwy",
        "Height (m)": "811m",
        "Height (ft)": "2661ft",
        "Grid Reference": "SH704133",
        "Date": "26/08/2007",
        "col 6": ""
    },
    {
        "Summit": "Cyrniau Nod",
        "Height (m)": "667m",
        "Height (ft)": "2188ft",
        "Grid Reference": "SH988279",
        "Date": "18/11/2006",
        "col 6": ""
    },
    {
        "Summit": "Dduallt",
        "Height (m)": "662m",
        "Height (ft)": "2172ft",
        "Grid Reference": "SH811274",
        "Date": "02/05/2008",
        "col 6": ""
    },
    {
        "Summit": "Diffwys",
        "Height (m)": "750m",
        "Height (ft)": "2461ft",
        "Grid Reference": "SH661234",
        "Date": "03/05/2008",
        "col 6": ""
    },
    {
        "Summit": "Diffwys West Top",
        "Height (m)": "642m",
        "Height (ft)": "2106ft",
        "Grid Reference": "SH648229",
        "Date": "03/05/2008",
        "col 6": ""
    },
    {
        "Summit": "Drosgl",
        "Height (m)": "758m",
        "Height (ft)": "2487ft",
        "Grid Reference": "SH664680",
        "Date": "30/05/2010",
        "col 6": ""
    },
    {
        "Summit": "Drum",
        "Height (m)": "770m",
        "Height (ft)": "2526ft",
        "Grid Reference": "SH708696",
        "Date": "",
        "col 6": ""
    },
    {
        "Summit": "Drygarn Fawr",
        "Height (m)": "641m",
        "Height (ft)": "2103ft",
        "Grid Reference": "SN862584",
        "Date": "",
        "col 6": ""
    },
    {
        "Summit": "Elidir Fawr",
        "Height (m)": "924m",
        "Height (ft)": "3031ft",
        "Grid Reference": "SH612613",
        "Date": "",
        "col 6": ""
    },
    {
        "Summit": "Erw y Ddafad-ddu",
        "Height (m)": "872m",
        "Height (ft)": "2861ft",
        "Grid Reference": "SH865234",
        "Date": "",
        "col 6": ""
    },
    {
        "Summit": "Esgeiriau Gwynion",
        "Height (m)": "671m",
        "Height (ft)": "2201ft",
        "Grid Reference": "SH890236",
        "Date": "",
        "col 6": ""
    },
    {
        "Summit": "Fan Brycheiniog",
        "Height (m)": "802m",
        "Height (ft)": "2631ft",
        "Grid Reference": "SN825218",
        "Date": "22/09/2008",
        "col 6": ""
    },
    {
        "Summit": "Fan Fawr",
        "Height (m)": "734m",
        "Height (ft)": "2408ft",
        "Grid Reference": "SN970193",
        "Date": "18/09/2008",
        "col 6": ""
    },
    {
        "Summit": "Fan Fraith",
        "Height (m)": "668m",
        "Height (ft)": "2192ft",
        "Grid Reference": "SN887184",
        "Date": "21/09/2008",
        "col 6": ""
    },
    {
        "Summit": "Fan Frynych",
        "Height (m)": "629m",
        "Height (ft)": "2064ft",
        "Grid Reference": "SN958228",
        "Date": "18/09/2008",
        "col 6": ""
    },
    {
        "Summit": "Fan Gyhirych",
        "Height (m)": "725m",
        "Height (ft)": "2379ft",
        "Grid Reference": "SN881191",
        "Date": "21/09/2008",
        "col 6": ""
    },
    {
        "Summit": "Fan Hir",
        "Height (m)": "761m",
        "Height (ft)": "2497ft",
        "Grid Reference": "SN831209",
        "Date": "22/09/2008",
        "col 6": ""
    },
    {
        "Summit": "Fan Llia",
        "Height (m)": "632m",
        "Height (ft)": "2073ft",
        "Grid Reference": "SN938186",
        "Date": "21/09/2008",
        "col 6": ""
    },
    {
        "Summit": "Fan Nedd",
        "Height (m)": "663m",
        "Height (ft)": "2175ft",
        "Grid Reference": "SN913184",
        "Date": "21/09/2008",
        "col 6": ""
    },
    {
        "Summit": "Fan y Big",
        "Height (m)": "719m",
        "Height (ft)": "2359ft",
        "Grid Reference": "SO036207",
        "Date": "19/09/2008",
        "col 6": ""
    },
    {
        "Summit": "Foel Boeth",
        "Height (m)": "616m",
        "Height (ft)": "2021ft",
        "Grid Reference": "SH779342",
        "Date": "",
        "col 6": ""
    },
    {
        "Summit": "Foel Cwm Sian Llwyd",
        "Height (m)": "648m",
        "Height (ft)": "2126ft",
        "Grid Reference": "SH996314",
        "Date": "",
        "col 6": ""
    },
    {
        "Summit": "Foel Goch (Arenigs)",
        "Height (m)": "611m",
        "Height (ft)": "2005ft",
        "Grid Reference": "SH953423",
        "Date": "",
        "col 6": ""
    },
    {
        "Summit": "Foel Goch (Berwyns)",
        "Height (m)": "613m",
        "Height (ft)": "2011ft",
        "Grid Reference": "SH943291",
        "Date": "18/11/2006",
        "col 6": ""
    },
    {
        "Summit": "Foel Grach",
        "Height (m)": "976m",
        "Height (ft)": "3202ft",
        "Grid Reference": "SH689659",
        "Date": "30/05/2010",
        "col 6": ""
    },
    {
        "Summit": "Foel Gron",
        "Height (m)": "629m",
        "Height (ft)": "2064ft",
        "Grid Reference": "SH560569",
        "Date": "",
        "col 6": ""
    },
    {
        "Summit": "Foel Hafod-fynydd",
        "Height (m)": "689m",
        "Height (ft)": "2260ft",
        "Grid Reference": "SH877227",
        "Date": "",
        "col 6": ""
    },
    {
        "Summit": "Foel Meirich",
        "Height (m)": "800m",
        "Height (ft)": "2625ft",
        "Grid Reference": "SH659637",
        "Date": "31/05/2010",
        "col 6": ""
    },
    {
        "Summit": "Foel Penolau",
        "Height (m)": "614m",
        "Height (ft)": "2014ft",
        "Grid Reference": "SH661348",
        "Date": "04/05/2008",
        "col 6": ""
    },
    {
        "Summit": "Foel Rhudd",
        "Height (m)": "659m",
        "Height (ft)": "2162ft",
        "Grid Reference": "SH896239",
        "Date": "",
        "col 6": ""
    },
    {
        "Summit": "Foel Wen",
        "Height (m)": "691m",
        "Height (ft)": "2267ft",
        "Grid Reference": "SJ099334",
        "Date": "17/11/2006",
        "col 6": ""
    },
    {
        "Summit": "Foel Wen South Top",
        "Height (m)": "687m",
        "Height (ft)": "2254ft",
        "Grid Reference": "SJ102330",
        "Date": "17/11/2006",
        "col 6": ""
    },
    {
        "Summit": "Foel y Geifr",
        "Height (m)": "626m",
        "Height (ft)": "2054ft",
        "Grid Reference": "SH937275",
        "Date": "18/11/2006",
        "col 6": ""
    },
    {
        "Summit": "Foel-fras",
        "Height (m)": "942m",
        "Height (ft)": "3091ft",
        "Grid Reference": "SH696682",
        "Date": "30/05/2010",
        "col 6": ""
    },
    {
        "Summit": "Foel-goch",
        "Height (m)": "831m",
        "Height (ft)": "2726ft",
        "Grid Reference": "SH629612",
        "Date": "",
        "col 6": ""
    },
    {
        "Summit": "Gallt y Daren",
        "Height (m)": "619m",
        "Height (ft)": "2031ft",
        "Grid Reference": "SH778345",
        "Date": "",
        "col 6": ""
    },
    {
        "Summit": "Gallt y Wenallt",
        "Height (m)": "619m",
        "Height (ft)": "2031ft",
        "Grid Reference": "SH642533",
        "Date": "",
        "col 6": ""
    },
    {
        "Summit": "Gallt yr Ogof",
        "Height (m)": "763m",
        "Height (ft)": "2503ft",
        "Grid Reference": "SH685586",
        "Date": "",
        "col 6": ""
    },
    {
        "Summit": "Garnedd Uchaf",
        "Height (m)": "926m",
        "Height (ft)": "3038ft",
        "Grid Reference": "SH687669",
        "Date": "30/05/2010",
        "col 6": ""
    },
    {
        "Summit": "Garnedd-goch",
        "Height (m)": "700m",
        "Height (ft)": "2297ft",
        "Grid Reference": "SH511495",
        "Date": "",
        "col 6": ""
    },
    {
        "Summit": "Garreg Las",
        "Height (m)": "635m",
        "Height (ft)": "2083ft",
        "Grid Reference": "SN777203",
        "Date": "22/09/2008",
        "col 6": ""
    },
    {
        "Summit": "Garreg Lwyd",
        "Height (m)": "616m",
        "Height (ft)": "2021ft",
        "Grid Reference": "SN740179",
        "Date": "21/09/2008",
        "col 6": ""
    },
    {
        "Summit": "Gau Graig",
        "Height (m)": "683m",
        "Height (ft)": "2241ft",
        "Grid Reference": "SH744141",
        "Date": "26/08/2007",
        "col 6": ""
    },
    {
        "Summit": "Glasgwm",
        "Height (m)": "780m",
        "Height (ft)": "2559ft",
        "Grid Reference": "SH837194",
        "Date": "27/08/2007",
        "col 6": ""
    },
    {
        "Summit": "Glyder Fach",
        "Height (m)": "994m",
        "Height (ft)": "3261ft",
        "Grid Reference": "SH656583",
        "Date": "",
        "col 6": ""
    },
    {
        "Summit": "Glyder Fawr",
        "Height (m)": "999m",
        "Height (ft)": "3278ft",
        "Grid Reference": "SH642579",
        "Date": "",
        "col 6": ""
    },
    {
        "Summit": "Godor",
        "Height (m)": "679m",
        "Height (ft)": "2228ft",
        "Grid Reference": "SJ094308",
        "Date": "17/11/2006",
        "col 6": ""
    },
    {
        "Summit": "Godor North Top",
        "Height (m)": "675m",
        "Height (ft)": "2215ft",
        "Grid Reference": "SJ089311",
        "Date": "17/11/2006",
        "col 6": ""
    },
    {
        "Summit": "Gorllwyn",
        "Height (m)": "613m",
        "Height (ft)": "2011ft",
        "Grid Reference": "SN918591",
        "Date": "",
        "col 6": ""
    },
    {
        "Summit": "Great Rhos",
        "Height (m)": "660m",
        "Height (ft)": "2165ft",
        "Grid Reference": "SO182639",
        "Date": "",
        "col 6": ""
    },
    {
        "Summit": "Gwaun Lydan",
        "Height (m)": "632m",
        "Height (ft)": "2073ft",
        "Grid Reference": "SH880212",
        "Date": "",
        "col 6": ""
    },
    {
        "Summit": "Gwaun y Llwyni",
        "Height (m)": "685m",
        "Height (ft)": "2247ft",
        "Grid Reference": "SH857205",
        "Date": "",
        "col 6": ""
    },
    {
        "Summit": "Gyrn Wigau",
        "Height (m)": "643m",
        "Height (ft)": "2110ft",
        "Grid Reference": "SH654675",
        "Date": "30/05/2010",
        "col 6": ""
    },
    {
        "Summit": "Llechog",
        "Height (m)": "718m",
        "Height (ft)": "2356ft",
        "Grid Reference": "SH606567",
        "Date": "",
        "col 6": ""
    },
    {
        "Summit": "Llechwedd Du",
        "Height (m)": "614m",
        "Height (ft)": "2014ft",
        "Grid Reference": "SH894224",
        "Date": "",
        "col 6": ""
    },
    {
        "Summit": "Lliwedd Bach",
        "Height (m)": "818m",
        "Height (ft)": "2684ft",
        "Grid Reference": "SH628532",
        "Date": "25/06/2006",
        "col 6": ""
    },
    {
        "Summit": "Llwytmor",
        "Height (m)": "849m",
        "Height (ft)": "2785ft",
        "Grid Reference": "SH689692",
        "Date": "30/05/2010",
        "col 6": ""
    },
    {
        "Summit": "Maesglase",
        "Height (m)": "676m",
        "Height (ft)": "2218ft",
        "Grid Reference": "SH817150",
        "Date": "",
        "col 6": ""
    },
    {
        "Summit": "Manod Mawr",
        "Height (m)": "661m",
        "Height (ft)": "2169ft",
        "Grid Reference": "SH724447",
        "Date": "11/03/2006",
        "col 6": ""
    },
    {
        "Summit": "Manod Mawr North Top",
        "Height (m)": "658m",
        "Height (ft)": "2159ft",
        "Grid Reference": "SH727458",
        "Date": "11/03/2006",
        "col 6": ""
    },
    {
        "Summit": "Moel Cynghorion",
        "Height (m)": "674m",
        "Height (ft)": "2211ft",
        "Grid Reference": "SH586564",
        "Date": "",
        "col 6": ""
    },
    {
        "Summit": "Moel Druman",
        "Height (m)": "676m",
        "Height (ft)": "2218ft",
        "Grid Reference": "SH671476",
        "Date": "",
        "col 6": ""
    },
    {
        "Summit": "Moel Eilio",
        "Height (m)": "726m",
        "Height (ft)": "2382ft",
        "Grid Reference": "SH556577",
        "Date": "",
        "col 6": ""
    },
    {
        "Summit": "Moel Fferna",
        "Height (m)": "630m",
        "Height (ft)": "2067ft",
        "Grid Reference": "SJ116398",
        "Date": "",
        "col 6": ""
    },
    {
        "Summit": "Moel Hebog",
        "Height (m)": "783m",
        "Height (ft)": "2569ft",
        "Grid Reference": "SH565469",
        "Date": "28/12/2005",
        "col 6": ""
    },
    {
        "Summit": "Moel Lefn",
        "Height (m)": "638m",
        "Height (ft)": "2093ft",
        "Grid Reference": "SH553485",
        "Date": "28/12/2005",
        "col 6": ""
    },
    {
        "Summit": "Moel Llyfnant",
        "Height (m)": "751m",
        "Height (ft)": "2464ft",
        "Grid Reference": "SH808352",
        "Date": "",
        "col 6": ""
    },
    {
        "Summit": "Moel Penamnen",
        "Height (m)": "620m",
        "Height (ft)": "2034ft",
        "Grid Reference": "SH716483",
        "Date": "11/03/2006",
        "col 6": ""
    },
    {
        "Summit": "Moel Siabod",
        "Height (m)": "872m",
        "Height (ft)": "2861ft",
        "Grid Reference": "SH705546",
        "Date": "",
        "col 6": ""
    },
    {
        "Summit": "Moel Sych",
        "Height (m)": "827m",
        "Height (ft)": "2713ft",
        "Grid Reference": "SJ066318",
        "Date": "17/11/2006",
        "col 6": ""
    },
    {
        "Summit": "Moel y Cerrig Duon",
        "Height (m)": "625m",
        "Height (ft)": "2051ft",
        "Grid Reference": "SH923242",
        "Date": "",
        "col 6": ""
    },
    {
        "Summit": "Moel yr Ewig",
        "Height (m)": "695m",
        "Height (ft)": "2280ft",
        "Grid Reference": "SJ080317",
        "Date": "17/11/2006",
        "col 6": ""
    },
    {
        "Summit": "Moel yr Ogof",
        "Height (m)": "655m",
        "Height (ft)": "2149ft",
        "Grid Reference": "SH556478",
        "Date": "28/12/2005",
        "col 6": ""
    },
    {
        "Summit": "Moel Ysgyfarnogod",
        "Height (m)": "623m",
        "Height (ft)": "2044ft",
        "Grid Reference": "SH658346",
        "Date": "04/05/2008",
        "col 6": ""
    },
    {
        "Summit": "Moelwyn Bach",
        "Height (m)": "710m",
        "Height (ft)": "2329ft",
        "Grid Reference": "SH660437",
        "Date": "",
        "col 6": ""
    },
    {
        "Summit": "Moelwyn Mawr",
        "Height (m)": "770m",
        "Height (ft)": "2526ft",
        "Grid Reference": "SH658449",
        "Date": "",
        "col 6": ""
    },
    {
        "Summit": "Moelwyn Mawr North Ridge Top",
        "Height (m)": "646m",
        "Height (ft)": "2119ft",
        "Grid Reference": "SH661453",
        "Date": "",
        "col 6": ""
    },
    {
        "Summit": "Moel-yr-hydd",
        "Height (m)": "648m",
        "Height (ft)": "2126ft",
        "Grid Reference": "SH672454",
        "Date": "",
        "col 6": ""
    },
    {
        "Summit": "Mynydd Drws-y-coed",
        "Height (m)": "695m",
        "Height (ft)": "2280ft",
        "Grid Reference": "SH549518",
        "Date": "",
        "col 6": ""
    },
    {
        "Summit": "Mynydd Graig Goch",
        "Height (m)": "610m",
        "Height (ft)": "2000ft",
        "Grid Reference": "SH497485",
        "Date": "",
        "col 6": "Promoted Sept 2008"
    },
    {
        "Summit": "Mynydd Llysiau",
        "Height (m)": "663m",
        "Height (ft)": "2175ft",
        "Grid Reference": "SO207279",
        "Date": "28/12/2001",
        "col 6": ""
    },
    {
        "Summit": "Mynydd Mawr",
        "Height (m)": "698m",
        "Height (ft)": "2290ft",
        "Grid Reference": "SH539547",
        "Date": "29/12/2005",
        "col 6": ""
    },
    {
        "Summit": "Mynydd Moel",
        "Height (m)": "863m",
        "Height (ft)": "2831ft",
        "Grid Reference": "SH727137",
        "Date": "26/08/2007",
        "col 6": ""
    },
    {
        "Summit": "Mynydd Perfedd",
        "Height (m)": "812m",
        "Height (ft)": "2664ft",
        "Grid Reference": "SH623619",
        "Date": "",
        "col 6": ""
    },
    {
        "Summit": "Mynydd Tal-y-mignedd",
        "Height (m)": "653m",
        "Height (ft)": "2142ft",
        "Grid Reference": "SH535514",
        "Date": "",
        "col 6": ""
    },
    {
        "Summit": "Mynydd Tarw",
        "Height (m)": "681m",
        "Height (ft)": "2234ft",
        "Grid Reference": "SJ113324",
        "Date": "17/11/2006",
        "col 6": ""
    },
    {
        "Summit": "Pen Allt-mawr",
        "Height (m)": "719m",
        "Height (ft)": "2359ft",
        "Grid Reference": "SO207243",
        "Date": "28/12/2001",
        "col 6": ""
    },
    {
        "Summit": "Pen Bwlch Llandrillo Top",
        "Height (m)": "621m",
        "Height (ft)": "2037ft",
        "Grid Reference": "SJ089369",
        "Date": "",
        "col 6": ""
    },
    {
        "Summit": "Pen Cerrig-calch",
        "Height (m)": "701m",
        "Height (ft)": "2300ft",
        "Grid Reference": "SO217223",
        "Date": "28/12/2001",
        "col 6": ""
    },
    {
        "Summit": "Pen Llithrig y Wrach",
        "Height (m)": "799m",
        "Height (ft)": "2621ft",
        "Grid Reference": "SH716623",
        "Date": "01/06/2010",
        "col 6": ""
    },
    {
        "Summit": "Pen Pumlumon Arwystli",
        "Height (m)": "741m",
        "Height (ft)": "2431ft",
        "Grid Reference": "SN815877",
        "Date": "",
        "col 6": ""
    },
    {
        "Summit": "Pen Pumlumon Llygad-bychan",
        "Height (m)": "727m",
        "Height (ft)": "2385ft",
        "Grid Reference": "SN799871",
        "Date": "",
        "col 6": ""
    },
    {
        "Summit": "Pen Twyn Glas",
        "Height (m)": "646m",
        "Height (ft)": "2119ft",
        "Grid Reference": "SO213257",
        "Date": "28/12/2001",
        "col 6": ""
    },
    {
        "Summit": "Pen Twyn Mawr",
        "Height (m)": "658m",
        "Height (ft)": "2159ft",
        "Grid Reference": "SO242267",
        "Date": "28/12/2001",
        "col 6": ""
    },
    {
        "Summit": "Pen y Boncyn Trefeilw",
        "Height (m)": "646m",
        "Height (ft)": "2119ft",
        "Grid Reference": "SH962283",
        "Date": "18/11/2006",
        "col 6": ""
    },
    {
        "Summit": "Pen y Bryn-fforchog",
        "Height (m)": "685m",
        "Height (ft)": "2247ft",
        "Grid Reference": "SH818179",
        "Date": "27/08/2007",
        "col 6": ""
    },
    {
        "Summit": "Pen y Castell",
        "Height (m)": "623m",
        "Height (ft)": "2044ft",
        "Grid Reference": "SH722689",
        "Date": "",
        "col 6": ""
    },
    {
        "Summit": "Pen y Fan",
        "Height (m)": "886m",
        "Height (ft)": "2907ft",
        "Grid Reference": "SO012216",
        "Date": "19/09/2008",
        "col 6": ""
    },
    {
        "Summit": "Pen y Gadair Fawr",
        "Height (m)": "800m",
        "Height (ft)": "2625ft",
        "Grid Reference": "SO229287",
        "Date": "28/12/2001",
        "col 6": ""
    },
    {
        "Summit": "Pen y Garn",
        "Height (m)": "610m",
        "Height (ft)": "2001ft",
        "Grid Reference": "SN798771",
        "Date": "",
        "col 6": ""
    },
    {
        "Summit": "Pen yr Allt Uchaf",
        "Height (m)": "620m",
        "Height (ft)": "2034ft",
        "Grid Reference": "SH871197",
        "Date": "",
        "col 6": ""
    },
    {
        "Summit": "Pen yr Helgi Du",
        "Height (m)": "833m",
        "Height (ft)": "2733ft",
        "Grid Reference": "SH698630",
        "Date": "01/06/2010",
        "col 6": ""
    },
    {
        "Summit": "Pen yr Ole Wen",
        "Height (m)": "978m",
        "Height (ft)": "3209ft",
        "Grid Reference": "SH655619",
        "Date": "31/05/2010",
        "col 6": ""
    },
    {
        "Summit": "Picws Du",
        "Height (m)": "749m",
        "Height (ft)": "2457ft",
        "Grid Reference": "SN811218",
        "Date": "22/09/2008",
        "col 6": ""
    },
    {
        "Summit": "Post Gwyn",
        "Height (m)": "665m",
        "Height (ft)": "2182ft",
        "Grid Reference": "SJ048294",
        "Date": "",
        "col 6": ""
    },
    {
        "Summit": "Pumlumon Fach",
        "Height (m)": "664m",
        "Height (ft)": "2178ft",
        "Grid Reference": "SN787874",
        "Date": "",
        "col 6": ""
    },
    {
        "Summit": "Pumlumon Fawr",
        "Height (m)": "752m",
        "Height (ft)": "2467ft",
        "Grid Reference": "SN790870",
        "Date": "",
        "col 6": ""
    },
    {
        "Summit": "Rhinog Fach",
        "Height (m)": "712m",
        "Height (ft)": "2336ft",
        "Grid Reference": "SH665270",
        "Date": "03/05/2008",
        "col 6": ""
    },
    {
        "Summit": "Rhinog Fawr",
        "Height (m)": "720m",
        "Height (ft)": "2362ft",
        "Grid Reference": "SH657290",
        "Date": "03/05/2008",
        "col 6": ""
    },
    {
        "Summit": "Rhobell Fawr",
        "Height (m)": "734m",
        "Height (ft)": "2408ft",
        "Grid Reference": "SH787257",
        "Date": "02/05/2008",
        "col 6": ""
    },
    {
        "Summit": "Rhos Dirion",
        "Height (m)": "713m",
        "Height (ft)": "2339ft",
        "Grid Reference": "SO211334",
        "Date": "20/09/2008",
        "col 6": ""
    },
    {
        "Summit": "Snowdon - Yr Wyddfa",
        "Height (m)": "1085m",
        "Height (ft)": "3560ft",
        "Grid Reference": "SH609544",
        "Date": "01/07/2001",
        "col 6": ""
    },
    {
        "Summit": "Stac Rhos",
        "Height (m)": "630m",
        "Height (ft)": "2067ft",
        "Grid Reference": "SH969279",
        "Date": "18/11/2006",
        "col 6": ""
    },
    {
        "Summit": "Tal y Fan",
        "Height (m)": "610m",
        "Height (ft)": "2001ft",
        "Grid Reference": "SH729727",
        "Date": "",
        "col 6": ""
    },
    {
        "Summit": "Tarren y Gesail",
        "Height (m)": "667m",
        "Height (ft)": "2188ft",
        "Grid Reference": "SH710059",
        "Date": "",
        "col 6": ""
    },
    {
        "Summit": "Tarrenhendre",
        "Height (m)": "634m",
        "Height (ft)": "2080ft",
        "Grid Reference": "SH683041",
        "Date": "",
        "col 6": ""
    },
    {
        "Summit": "Tomle",
        "Height (m)": "742m",
        "Height (ft)": "2434ft",
        "Grid Reference": "SJ085335",
        "Date": "17/11/2006",
        "col 6": ""
    },
    {
        "Summit": "Trum y Ddysgl",
        "Height (m)": "709m",
        "Height (ft)": "2326ft",
        "Grid Reference": "SH545516",
        "Date": "",
        "col 6": ""
    },
    {
        "Summit": "Trum y Gwrgedd",
        "Height (m)": "612m",
        "Height (ft)": "2008ft",
        "Grid Reference": "SH941284",
        "Date": "18/11/2006",
        "col 6": ""
    },
    {
        "Summit": "Tryfan",
        "Height (m)": "915m",
        "Height (ft)": "3002ft",
        "Grid Reference": "SH664594",
        "Date": "",
        "col 6": ""
    },
    {
        "Summit": "Twmpa",
        "Height (m)": "680m",
        "Height (ft)": "2231ft",
        "Grid Reference": "SO225350",
        "Date": "20/09/2008",
        "col 6": ""
    },
    {
        "Summit": "Tyrrau Mawr",
        "Height (m)": "661m",
        "Height (ft)": "2169ft",
        "Grid Reference": "SH677135",
        "Date": "",
        "col 6": ""
    },
    {
        "Summit": "Waun Camddwr",
        "Height (m)": "621m",
        "Height (ft)": "2037ft",
        "Grid Reference": "SH848206",
        "Date": "",
        "col 6": ""
    },
    {
        "Summit": "Waun Fach",
        "Height (m)": "811m",
        "Height (ft)": "2661ft",
        "Grid Reference": "SO215300",
        "Date": "28/12/2001",
        "col 6": ""
    },
    {
        "Summit": "Waun Garnedd-y-Filiast",
        "Height (m)": "650m",
        "Height (ft)": "2133ft",
        "Grid Reference": "SH874452",
        "Date": "10/03/2006",
        "col 6": ""
    },
    {
        "Summit": "Waun Lefrith",
        "Height (m)": "677m",
        "Height (ft)": "2221ft",
        "Grid Reference": "SN798215",
        "Date": "22/09/2008",
        "col 6": ""
    },
    {
        "Summit": "Waun Rydd",
        "Height (m)": "769m",
        "Height (ft)": "2523ft",
        "Grid Reference": "SO062206",
        "Date": "19/09/2008",
        "col 6": ""
    },
    {
        "Summit": "Waun-oer",
        "Height (m)": "670m",
        "Height (ft)": "2198ft",
        "Grid Reference": "SH786147",
        "Date": "",
        "col 6": ""
    },
    {
        "Summit": "Y Foel Goch",
        "Height (m)": "805m",
        "Height (ft)": "2641ft",
        "Grid Reference": "SH678582",
        "Date": "",
        "col 6": ""
    },
    {
        "Summit": "Y Garn (Glyders)",
        "Height (m)": "947m",
        "Height (ft)": "3107ft",
        "Grid Reference": "SH631596",
        "Date": "",
        "col 6": ""
    },
    {
        "Summit": "Y Garn (Moel Hebog)",
        "Height (m)": "633m",
        "Height (ft)": "2077ft",
        "Grid Reference": "SH551526",
        "Date": "",
        "col 6": ""
    },
    {
        "Summit": "Y Garn (Plumlumon)",
        "Height (m)": "684m",
        "Height (ft)": "2244ft",
        "Grid Reference": "SN776852",
        "Date": "",
        "col 6": ""
    },
    {
        "Summit": "Y Garn (Rhinogs)",
        "Height (m)": "629m",
        "Height (ft)": "2064ft",
        "Grid Reference": "SH702230",
        "Date": "05/05/2008",
        "col 6": ""
    },
    {
        "Summit": "Y Groes Fagl",
        "Height (m)": "659m",
        "Height (ft)": "2162ft",
        "Grid Reference": "SH988290",
        "Date": "18/11/2006",
        "col 6": ""
    },
    {
        "Summit": "Y Gyrn",
        "Height (m)": "619m",
        "Height (ft)": "2031ft",
        "Grid Reference": "SN989216",
        "Date": "18/09/2008",
        "col 6": ""
    },
    {
        "Summit": "Y Llethr",
        "Height (m)": "756m",
        "Height (ft)": "2480ft",
        "Grid Reference": "SH661258",
        "Date": "03/05/2008",
        "col 6": ""
    },
    {
        "Summit": "Y Lliwedd",
        "Height (m)": "898m",
        "Height (ft)": "2946ft",
        "Grid Reference": "SH622533",
        "Date": "25/06/2006",
        "col 6": ""
    },
    {
        "Summit": "Y Lliwedd East Top",
        "Height (m)": "893m",
        "Height (ft)": "2930ft",
        "Grid Reference": "SH623532",
        "Date": "25/06/2006",
        "col 6": ""
    },
    {
        "Summit": "Yr Aran",
        "Height (m)": "747m",
        "Height (ft)": "2451ft",
        "Grid Reference": "SH604515",
        "Date": "",
        "col 6": ""
    },
    {
        "Summit": "Yr Elen",
        "Height (m)": "962m",
        "Height (ft)": "3156ft",
        "Grid Reference": "SH674651",
        "Date": "31/05/2010",
        "col 6": ""
    },
    {
        "Summit": "Ysgafell Wen",
        "Height (m)": "672m",
        "Height (ft)": "2205ft",
        "Grid Reference": "SH667481",
        "Date": "",
        "col 6": ""
    },
    {
        "Summit": "Ysgafell Wen Far North Top",
        "Height (m)": "650m",
        "Height (ft)": "2133ft",
        "Grid Reference": "SH663488",
        "Date": "",
        "col 6": ""
    },
    {
        "Summit": "Ysgafell Wen North Top",
        "Height (m)": "669m",
        "Height (ft)": "2195ft",
        "Grid Reference": "SH663485",
        "Date": "",
        "col 6": ""
    }
]