[
    {
        "Fans' Rank": "101",
        "Title": "The Treasure of the Sierra Madre",
        "Year": "1948",
        "Director(s)": "John Huston",
        "Overall Rank": "92"
    },
    {
        "Fans' Rank": "102",
        "Title": "Groundhog Day",
        "Year": "1993",
        "Director(s)": "Harold Ramis",
        "Overall Rank": "130"
    },
    {
        "Fans' Rank": "103",
        "Title": "The Seventh Seal",
        "Year": "1957",
        "Director(s)": "Ingmar Bergman",
        "Overall Rank": "119"
    },
    {
        "Fans' Rank": "104",
        "Title": "Rash?mon",
        "Year": "1950",
        "Director(s)": "Akira Kurosawa",
        "Overall Rank": "84"
    },
    {
        "Fans' Rank": "105",
        "Title": "Duck Soup",
        "Year": "1933",
        "Director(s)": "Leo McCarey",
        "Overall Rank": "56"
    },
    {
        "Fans' Rank": "106",
        "Title": "City Lights",
        "Year": "1931",
        "Director(s)": "Charles Chaplin",
        "Overall Rank": "68"
    },
    {
        "Fans' Rank": "107",
        "Title": "Do the Right Thing",
        "Year": "1989",
        "Director(s)": "Spike Lee",
        "Overall Rank": "100"
    },
    {
        "Fans' Rank": "108",
        "Title": "Crouching Tiger, Hidden Dragon",
        "Year": "2000",
        "Director(s)": "Ang Lee",
        "Overall Rank": "165"
    },
    {
        "Fans' Rank": "109",
        "Title": "Manhattan",
        "Year": "1979",
        "Director(s)": "Woody Allen",
        "Overall Rank": "135"
    },
    {
        "Fans' Rank": "110",
        "Title": "Ben-Hur",
        "Year": "1959",
        "Director(s)": "William Wyler",
        "Overall Rank": "140"
    },
    {
        "Fans' Rank": "111",
        "Title": "M",
        "Year": "1931",
        "Director(s)": "Fritz Lang",
        "Overall Rank": "75"
    },
    {
        "Fans' Rank": "112",
        "Title": "Twelve Monkeys",
        "Year": "1995",
        "Director(s)": "Terry Gilliam",
        "Overall Rank": "341"
    },
    {
        "Fans' Rank": "113",
        "Title": "Trainspotting",
        "Year": "1996",
        "Director(s)": "Danny Boyle",
        "Overall Rank": "117"
    },
    {
        "Fans' Rank": "114",
        "Title": "Paths of Glory",
        "Year": "1957",
        "Director(s)": "Stanley Kubrick",
        "Overall Rank": "152"
    },
    {
        "Fans' Rank": "115",
        "Title": "Requiem for a Dream",
        "Year": "2000",
        "Director(s)": "Darren Aronofsky",
        "Overall Rank": "434"
    },
    {
        "Fans' Rank": "116",
        "Title": "The Apartment",
        "Year": "1960",
        "Director(s)": "Billy Wilder",
        "Overall Rank": "127"
    },
    {
        "Fans' Rank": "117",
        "Title": "Network",
        "Year": "1976",
        "Director(s)": "Sidney Lumet",
        "Overall Rank": "221"
    },
    {
        "Fans' Rank": "118",
        "Title": "Rain Man",
        "Year": "1988",
        "Director(s)": "Barry Levinson",
        "Overall Rank": "347"
    },
    {
        "Fans' Rank": "119",
        "Title": "This Is Spinal Tap",
        "Year": "1984",
        "Director(s)": "Rob Reiner",
        "Overall Rank": "78"
    },
    {
        "Fans' Rank": "120",
        "Title": "Dances with Wolves",
        "Year": "1990",
        "Director(s)": "Kevin Costner",
        "Overall Rank": "213"
    },
    {
        "Fans' Rank": "121",
        "Title": "Ran",
        "Year": "1985",
        "Director(s)": "Akira Kurosawa",
        "Overall Rank": "185"
    },
    {
        "Fans' Rank": "122",
        "Title": "Mr. Smith Goes to Washington",
        "Year": "1939",
        "Director(s)": "Frank Capra",
        "Overall Rank": "156"
    },
    {
        "Fans' Rank": "123",
        "Title": "Mulholland Dr.",
        "Year": "2001",
        "Director(s)": "David Lynch",
        "Overall Rank": "310"
    },
    {
        "Fans' Rank": "124",
        "Title": "The Bicycle Thief",
        "Year": "1948",
        "Director(s)": "Vittorio De Sica",
        "Overall Rank": "67"
    },
    {
        "Fans' Rank": "125",
        "Title": "High Noon",
        "Year": "1952",
        "Director(s)": "Fred Zinnemann",
        "Overall Rank": "58"
    },
    {
        "Fans' Rank": "126",
        "Title": "Metropolis",
        "Year": "1927",
        "Director(s)": "Fritz Lang",
        "Overall Rank": "53"
    },
    {
        "Fans' Rank": "127",
        "Title": "The Great Escape",
        "Year": "1963",
        "Director(s)": "John Sturges",
        "Overall Rank": "166"
    },
    {
        "Fans' Rank": "128",
        "Title": "Indiana Jones and the Last Crusade",
        "Year": "1989",
        "Director(s)": "Steven Spielberg",
        "Overall Rank": "450"
    },
    {
        "Fans' Rank": "129",
        "Title": "American History X",
        "Year": "1998",
        "Director(s)": "Tony Kaye",
        "Overall Rank": "706"
    },
    {
        "Fans' Rank": "130",
        "Title": "The Sting",
        "Year": "1973",
        "Director(s)": "George Roy Hill",
        "Overall Rank": "281"
    },
    {
        "Fans' Rank": "131",
        "Title": "Modern Times",
        "Year": "1936",
        "Director(s)": "Charles Chaplin",
        "Overall Rank": "108"
    },
    {
        "Fans' Rank": "132",
        "Title": "Being John Malkovich",
        "Year": "1999",
        "Director(s)": "Spike Jonze",
        "Overall Rank": "319"
    },
    {
        "Fans' Rank": "133",
        "Title": "Good Will Hunting",
        "Year": "1997",
        "Director(s)": "Gus Van Sant",
        "Overall Rank": "387"
    },
    {
        "Fans' Rank": "134",
        "Title": "West Side Story",
        "Year": "1961",
        "Director(s)": "Jerome Robbins and Robert Wise",
        "Overall Rank": "88"
    },
    {
        "Fans' Rank": "135",
        "Title": "Dog Day Afternoon",
        "Year": "1975",
        "Director(s)": "Sidney Lumet",
        "Overall Rank": "285"
    },
    {
        "Fans' Rank": "136",
        "Title": "The Professional",
        "Year": "1994",
        "Director(s)": "Luc Besson",
        "Overall Rank": "282"
    },
    {
        "Fans' Rank": "137",
        "Title": "King Kong",
        "Year": "1933",
        "Director(s)": "Merian C. Cooper and Ernest B. Schoedsack",
        "Overall Rank": "47"
    },
    {
        "Fans' Rank": "138",
        "Title": "Clerks.",
        "Year": "1994",
        "Director(s)": "Kevin Smith",
        "Overall Rank": "322"
    },
    {
        "Fans' Rank": "139",
        "Title": "A Streetcar Named Desire",
        "Year": "1951",
        "Director(s)": "Elia Kazan",
        "Overall Rank": "145"
    },
    {
        "Fans' Rank": "140",
        "Title": "The 400 Blows",
        "Year": "1959",
        "Director(s)": "Fran?ois Truffaut",
        "Overall Rank": "71"
    },
    {
        "Fans' Rank": "141",
        "Title": "Am?lie",
        "Year": "2001",
        "Director(s)": "Jean-Pierre Jeunet",
        "Overall Rank": "182"
    },
    {
        "Fans' Rank": "142",
        "Title": "Life Is Beautiful",
        "Year": "1997",
        "Director(s)": "Roberto Benigni",
        "Overall Rank": "238"
    },
    {
        "Fans' Rank": "143",
        "Title": "Rebel without a Cause",
        "Year": "1955",
        "Director(s)": "Nicholas Ray",
        "Overall Rank": "115"
    },
    {
        "Fans' Rank": "144",
        "Title": "Ed Wood",
        "Year": "1994",
        "Director(s)": "Tim Burton",
        "Overall Rank": "497"
    },
    {
        "Fans' Rank": "145",
        "Title": "The Big Sleep",
        "Year": "1946",
        "Director(s)": "Howard Hawks",
        "Overall Rank": "163"
    },
    {
        "Fans' Rank": "146",
        "Title": "The Truman Show",
        "Year": "1998",
        "Director(s)": "Peter Weir",
        "Overall Rank": "291"
    },
    {
        "Fans' Rank": "147",
        "Title": "Young Frankenstein",
        "Year": "1974",
        "Director(s)": "Mel Brooks",
        "Overall Rank": "260"
    },
    {
        "Fans' Rank": "148",
        "Title": "Cool Hand Luke",
        "Year": "1967",
        "Director(s)": "Stuart Rosenberg",
        "Overall Rank": "336"
    },
    {
        "Fans' Rank": "149",
        "Title": "The Elephant Man",
        "Year": "1980",
        "Director(s)": "David Lynch",
        "Overall Rank": "421"
    },
    {
        "Fans' Rank": "150",
        "Title": "The Untouchables",
        "Year": "1987",
        "Director(s)": "Brian De Palma",
        "Overall Rank": "408"
    },
    {
        "Fans' Rank": "151",
        "Title": "Patton",
        "Year": "1970",
        "Director(s)": "Franklin J. Schaffner",
        "Overall Rank": "241"
    },
    {
        "Fans' Rank": "152",
        "Title": "Ferris Bueller's Day Off",
        "Year": "1986",
        "Director(s)": "John Hughes",
        "Overall Rank": "295"
    },
    {
        "Fans' Rank": "153",
        "Title": "It Happened One Night",
        "Year": "1934",
        "Director(s)": "Frank Capra",
        "Overall Rank": "69"
    },
    {
        "Fans' Rank": "154",
        "Title": "The Conversation",
        "Year": "1974",
        "Director(s)": "Francis Ford Coppola",
        "Overall Rank": "155"
    },
    {
        "Fans' Rank": "155",
        "Title": "The Philadelphia Story",
        "Year": "1940",
        "Director(s)": "George Cukor",
        "Overall Rank": "109"
    },
    {
        "Fans' Rank": "156",
        "Title": "Glory",
        "Year": "1989",
        "Director(s)": "Edward Zwick",
        "Overall Rank": "395"
    },
    {
        "Fans' Rank": "157",
        "Title": "Das Boot",
        "Year": "1981",
        "Director(s)": "Wolfgang Petersen",
        "Overall Rank": "194"
    },
    {
        "Fans' Rank": "158",
        "Title": "The African Queen",
        "Year": "1951",
        "Director(s)": "John Huston",
        "Overall Rank": "120"
    },
    {
        "Fans' Rank": "159",
        "Title": "Once Upon a Time in America",
        "Year": "1984",
        "Director(s)": "Sergio Leone",
        "Overall Rank": "207"
    },
    {
        "Fans' Rank": "160",
        "Title": "The Grapes of Wrath",
        "Year": "1940",
        "Director(s)": "John Ford",
        "Overall Rank": "102"
    },
    {
        "Fans' Rank": "161",
        "Title": "Batman",
        "Year": "1989",
        "Director(s)": "Tim Burton",
        "Overall Rank": "451"
    },
    {
        "Fans' Rank": "162",
        "Title": "Raising Arizona",
        "Year": "1987",
        "Director(s)": "Joel Coen",
        "Overall Rank": "528"
    },
    {
        "Fans' Rank": "163",
        "Title": "Airplane!",
        "Year": "1980",
        "Director(s)": "Jerry Zucker, Jim Abrahams, and David Zucker",
        "Overall Rank": "175"
    },
    {
        "Fans' Rank": "164",
        "Title": "The Night of the Hunter",
        "Year": "1955",
        "Director(s)": "Charles Laughton",
        "Overall Rank": "61"
    },
    {
        "Fans' Rank": "165",
        "Title": "Stand by Me",
        "Year": "1986",
        "Director(s)": "Rob Reiner",
        "Overall Rank": "315"
    },
    {
        "Fans' Rank": "166",
        "Title": "Almost Famous",
        "Year": "2000",
        "Director(s)": "Cameron Crowe",
        "Overall Rank": "571"
    },
    {
        "Fans' Rank": "167",
        "Title": "Strangers on a Train",
        "Year": "1951",
        "Director(s)": "Alfred Hitchcock",
        "Overall Rank": "235"
    },
    {
        "Fans' Rank": "168",
        "Title": "Notorious",
        "Year": "1946",
        "Director(s)": "Alfred Hitchcock",
        "Overall Rank": "104"
    },
    {
        "Fans' Rank": "169",
        "Title": "The Sound of Music",
        "Year": "1965",
        "Director(s)": "Robert Wise",
        "Overall Rank": "79"
    },
    {
        "Fans' Rank": "170",
        "Title": "Boogie Nights",
        "Year": "1997",
        "Director(s)": "Paul Thomas Anderson",
        "Overall Rank": "373"
    },
    {
        "Fans' Rank": "171",
        "Title": "Rebecca",
        "Year": "1940",
        "Director(s)": "Alfred Hitchcock",
        "Overall Rank": "225"
    },
    {
        "Fans' Rank": "172",
        "Title": "Casino",
        "Year": "1995",
        "Director(s)": "Martin Scorsese",
        "Overall Rank": "488"
    },
    {
        "Fans' Rank": "173",
        "Title": "Bringing Up Baby",
        "Year": "1938",
        "Director(s)": "Howard Hawks",
        "Overall Rank": "52"
    },
    {
        "Fans' Rank": "174",
        "Title": "The Green Mile",
        "Year": "1999",
        "Director(s)": "Frank Darabont",
        "Overall Rank": "560"
    },
    {
        "Fans' Rank": "175",
        "Title": "The General",
        "Year": "1926",
        "Director(s)": "Clyde Bruckman and Buster Keaton",
        "Overall Rank": "45"
    },
    {
        "Fans' Rank": "176",
        "Title": "Mean Streets",
        "Year": "1973",
        "Director(s)": "Martin Scorsese",
        "Overall Rank": "190"
    },
    {
        "Fans' Rank": "177",
        "Title": "Moulin Rouge!",
        "Year": "2001",
        "Director(s)": "Baz Luhrmann",
        "Overall Rank": "219"
    },
    {
        "Fans' Rank": "178",
        "Title": "Life of Brian",
        "Year": "1979",
        "Director(s)": "Terry Jones",
        "Overall Rank": "147"
    },
    {
        "Fans' Rank": "179",
        "Title": "Halloween",
        "Year": "1978",
        "Director(s)": "John Carpenter",
        "Overall Rank": "131"
    },
    {
        "Fans' Rank": "180",
        "Title": "Ghostbusters",
        "Year": "1984",
        "Director(s)": "Ivan Reitman",
        "Overall Rank": "314"
    },
    {
        "Fans' Rank": "181",
        "Title": "Kill Bill: Vol. 1",
        "Year": "2003",
        "Director(s)": "Quentin Tarantino",
        "Overall Rank": "351"
    },
    {
        "Fans' Rank": "182",
        "Title": "The Fugitive",
        "Year": "1993",
        "Director(s)": "Andrew Davis",
        "Overall Rank": "496"
    },
    {
        "Fans' Rank": "183",
        "Title": "City of God",
        "Year": "2002",
        "Director(s)": "Fernando Meirelles",
        "Overall Rank": "227"
    },
    {
        "Fans' Rank": "184",
        "Title": "Planet of the Apes",
        "Year": "1968",
        "Director(s)": "Franklin J. Schaffner",
        "Overall Rank": "240"
    },
    {
        "Fans' Rank": "185",
        "Title": "Fantasia",
        "Year": "1940",
        "Director(s)": "James Algar, Samuel Armstrong, Ford Beebe, Norman Ferguson, Jim Handley, T. Hee, Wilfred Jackson, Hamilton Luske, Bill Roberts, and Paul Satterfield",
        "Overall Rank": "199"
    },
    {
        "Fans' Rank": "186",
        "Title": "Field of Dreams",
        "Year": "1989",
        "Director(s)": "Phil Alden Robinson",
        "Overall Rank": "245"
    },
    {
        "Fans' Rank": "187",
        "Title": "The Battleship Potemkin",
        "Year": "1925",
        "Director(s)": "Sergei M. Eisenstein",
        "Overall Rank": "74"
    },
    {
        "Fans' Rank": "188",
        "Title": "Breathless",
        "Year": "1960",
        "Director(s)": "Jean-Luc Godard",
        "Overall Rank": "81"
    },
    {
        "Fans' Rank": "189",
        "Title": "The French Connection",
        "Year": "1971",
        "Director(s)": "William Friedkin",
        "Overall Rank": "151"
    },
    {
        "Fans' Rank": "190",
        "Title": "The Birds",
        "Year": "1963",
        "Director(s)": "Alfred Hitchcock",
        "Overall Rank": "262"
    },
    {
        "Fans' Rank": "191",
        "Title": "Run Lola Run",
        "Year": "1998",
        "Director(s)": "Tom Tykwer",
        "Overall Rank": "494"
    },
    {
        "Fans' Rank": "192",
        "Title": "The Rules of the Game",
        "Year": "1939",
        "Director(s)": "Jean Renoir",
        "Overall Rank": "70"
    },
    {
        "Fans' Rank": "193",
        "Title": "Spartacus",
        "Year": "1960",
        "Director(s)": "Stanley Kubrick",
        "Overall Rank": "211"
    },
    {
        "Fans' Rank": "194",
        "Title": "The Best Years of Our Lives",
        "Year": "1946",
        "Director(s)": "William Wyler",
        "Overall Rank": "126"
    },
    {
        "Fans' Rank": "195",
        "Title": "Donnie Darko",
        "Year": "2001",
        "Director(s)": "Richard Kelly",
        "Overall Rank": "212"
    },
    {
        "Fans' Rank": "196",
        "Title": "Edward Scissorhands",
        "Year": "1990",
        "Director(s)": "Tim Burton",
        "Overall Rank": "287"
    },
    {
        "Fans' Rank": "197",
        "Title": "Persona",
        "Year": "1966",
        "Director(s)": "Ingmar Bergman",
        "Overall Rank": "158"
    },
    {
        "Fans' Rank": "198",
        "Title": "Beauty and the Beast",
        "Year": "1991",
        "Director(s)": "Gary Trousdale and Kirk Wise",
        "Overall Rank": "246"
    },
    {
        "Fans' Rank": "199",
        "Title": "The Passion of Joan of Arc",
        "Year": "1928",
        "Director(s)": "Carl Theodor Dreyer",
        "Overall Rank": "143"
    },
    {
        "Fans' Rank": "200",
        "Title": "La Dolce Vita",
        "Year": "1960",
        "Director(s)": "Federico Fellini",
        "Overall Rank": "134"
    }
]