[
    {
        "Fans' Rank": "442",
        "Title": "The Game",
        "Year": "1997",
        "Director(s)": "David Fincher",
        "Overall Rank": "1491"
    },
    {
        "Fans' Rank": "267",
        "Title": "Gandhi",
        "Year": "1982",
        "Director(s)": "Richard Attenborough",
        "Overall Rank": "251"
    },
    {
        "Fans' Rank": "505",
        "Title": "Gattaca",
        "Year": "1997",
        "Director(s)": "Andrew Niccol",
        "Overall Rank": "950"
    },
    {
        "Fans' Rank": "175",
        "Title": "The General",
        "Year": "1926",
        "Director(s)": "Clyde Bruckman and Buster Keaton",
        "Overall Rank": "45"
    },
    {
        "Fans' Rank": "486",
        "Title": "Ghost",
        "Year": "1990",
        "Director(s)": "Jerry Zucker",
        "Overall Rank": "416"
    },
    {
        "Fans' Rank": "432",
        "Title": "Ghost World",
        "Year": "2001",
        "Director(s)": "Terry Zwigoff",
        "Overall Rank": "815"
    },
    {
        "Fans' Rank": "180",
        "Title": "Ghostbusters",
        "Year": "1984",
        "Director(s)": "Ivan Reitman",
        "Overall Rank": "314"
    },
    {
        "Fans' Rank": "72",
        "Title": "Gladiator",
        "Year": "2000",
        "Director(s)": "Ridley Scott",
        "Overall Rank": "113"
    },
    {
        "Fans' Rank": "317",
        "Title": "Glengarry Glen Ross",
        "Year": "1992",
        "Director(s)": "James Foley",
        "Overall Rank": "612"
    },
    {
        "Fans' Rank": "156",
        "Title": "Glory",
        "Year": "1989",
        "Director(s)": "Edward Zwick",
        "Overall Rank": "395"
    },
    {
        "Fans' Rank": "1",
        "Title": "The Godfather",
        "Year": "1972",
        "Director(s)": "Francis Ford Coppola",
        "Overall Rank": "1"
    },
    {
        "Fans' Rank": "4",
        "Title": "The Godfather: Part II",
        "Year": "1974",
        "Director(s)": "Francis Ford Coppola",
        "Overall Rank": "14"
    },
    {
        "Fans' Rank": "256",
        "Title": "The Godfather: Part III",
        "Year": "1990",
        "Director(s)": "Francis Ford Coppola",
        "Overall Rank": "432"
    },
    {
        "Fans' Rank": "216",
        "Title": "The Gold Rush",
        "Year": "1925",
        "Director(s)": "Charles Chaplin",
        "Overall Rank": "97"
    },
    {
        "Fans' Rank": "240",
        "Title": "Goldfinger",
        "Year": "1964",
        "Director(s)": "Guy Hamilton",
        "Overall Rank": "186"
    },
    {
        "Fans' Rank": "46",
        "Title": "Gone with the Wind",
        "Year": "1939",
        "Director(s)": "Victor Fleming",
        "Overall Rank": "17"
    },
    {
        "Fans' Rank": "133",
        "Title": "Good Will Hunting",
        "Year": "1997",
        "Director(s)": "Gus Van Sant",
        "Overall Rank": "387"
    },
    {
        "Fans' Rank": "55",
        "Title": "The Good, the Bad and the Ugly",
        "Year": "1966",
        "Director(s)": "Sergio Leone",
        "Overall Rank": "118"
    },
    {
        "Fans' Rank": "6",
        "Title": "Goodfellas",
        "Year": "1990",
        "Director(s)": "Martin Scorsese",
        "Overall Rank": "26"
    },
    {
        "Fans' Rank": "352",
        "Title": "The Goonies",
        "Year": "1985",
        "Director(s)": "Richard Donner",
        "Overall Rank": "1036"
    },
    {
        "Fans' Rank": "43",
        "Title": "The Graduate",
        "Year": "1967",
        "Director(s)": "Mike Nichols",
        "Overall Rank": "39"
    },
    {
        "Fans' Rank": "201",
        "Title": "The Grand Illusion",
        "Year": "1937",
        "Director(s)": "Jean Renoir",
        "Overall Rank": "90"
    },
    {
        "Fans' Rank": "160",
        "Title": "The Grapes of Wrath",
        "Year": "1940",
        "Director(s)": "John Ford",
        "Overall Rank": "102"
    },
    {
        "Fans' Rank": "437",
        "Title": "Grave of the Fireflies",
        "Year": "1988",
        "Director(s)": "Isao Takahata",
        "Overall Rank": "771"
    },
    {
        "Fans' Rank": "299",
        "Title": "Grease",
        "Year": "1978",
        "Director(s)": "Randal Kleiser",
        "Overall Rank": "187"
    },
    {
        "Fans' Rank": "335",
        "Title": "The Great Dictator",
        "Year": "1940",
        "Director(s)": "Charles Chaplin",
        "Overall Rank": "369"
    },
    {
        "Fans' Rank": "127",
        "Title": "The Great Escape",
        "Year": "1963",
        "Director(s)": "John Sturges",
        "Overall Rank": "166"
    },
    {
        "Fans' Rank": "464",
        "Title": "Greed",
        "Year": "1924",
        "Director(s)": "Erich von Stroheim",
        "Overall Rank": "209"
    },
    {
        "Fans' Rank": "174",
        "Title": "The Green Mile",
        "Year": "1999",
        "Director(s)": "Frank Darabont",
        "Overall Rank": "560"
    },
    {
        "Fans' Rank": "512",
        "Title": "Grosse Pointe Blank",
        "Year": "1997",
        "Director(s)": "George Armitage",
        "Overall Rank": "745"
    },
    {
        "Fans' Rank": "102",
        "Title": "Groundhog Day",
        "Year": "1993",
        "Director(s)": "Harold Ramis",
        "Overall Rank": "130"
    },
    {
        "Fans' Rank": "179",
        "Title": "Halloween",
        "Year": "1978",
        "Director(s)": "John Carpenter",
        "Overall Rank": "131"
    },
    {
        "Fans' Rank": "293",
        "Title": "Hannah and Her Sisters",
        "Year": "1986",
        "Director(s)": "Woody Allen",
        "Overall Rank": "354"
    },
    {
        "Fans' Rank": "443",
        "Title": "Happiness",
        "Year": "1998",
        "Director(s)": "Todd Solondz",
        "Overall Rank": "763"
    },
    {
        "Fans' Rank": "492",
        "Title": "Happy Gilmore",
        "Year": "1996",
        "Director(s)": "Dennis Dugan",
        "Overall Rank": "1493"
    },
    {
        "Fans' Rank": "482",
        "Title": "Hard Boiled",
        "Year": "1992",
        "Director(s)": "John Woo",
        "Overall Rank": "693"
    },
    {
        "Fans' Rank": "270",
        "Title": "A Hard Day's Night",
        "Year": "1964",
        "Director(s)": "Richard Lester",
        "Overall Rank": "157"
    },
    {
        "Fans' Rank": "351",
        "Title": "Harold and Maude",
        "Year": "1971",
        "Director(s)": "Hal Ashby",
        "Overall Rank": "256"
    },
    {
        "Fans' Rank": "380",
        "Title": "Harvey",
        "Year": "1950",
        "Director(s)": "Henry Koster",
        "Overall Rank": "633"
    },
    {
        "Fans' Rank": "85",
        "Title": "Heat",
        "Year": "1995",
        "Director(s)": "Michael Mann",
        "Overall Rank": "150"
    },
    {
        "Fans' Rank": "445",
        "Title": "Heathers",
        "Year": "1988",
        "Director(s)": "Michael Lehmann",
        "Overall Rank": "717"
    },
    {
        "Fans' Rank": "339",
        "Title": "Heavenly Creatures",
        "Year": "1994",
        "Director(s)": "Peter Jackson",
        "Overall Rank": "710"
    },
    {
        "Fans' Rank": "324",
        "Title": "High Fidelity",
        "Year": "2000",
        "Director(s)": "Stephen Frears",
        "Overall Rank": "687"
    },
    {
        "Fans' Rank": "125",
        "Title": "High Noon",
        "Year": "1952",
        "Director(s)": "Fred Zinnemann",
        "Overall Rank": "58"
    },
    {
        "Fans' Rank": "206",
        "Title": "His Girl Friday",
        "Year": "1940",
        "Director(s)": "Howard Hawks",
        "Overall Rank": "72"
    },
    {
        "Fans' Rank": "431",
        "Title": "The Hudsucker Proxy",
        "Year": "1994",
        "Director(s)": "Joel Coen",
        "Overall Rank": "1435"
    },
    {
        "Fans' Rank": "458",
        "Title": "The Hunt for Red October",
        "Year": "1990",
        "Director(s)": "John McTiernan",
        "Overall Rank": "1468"
    },
    {
        "Fans' Rank": "236",
        "Title": "The Hustler",
        "Year": "1961",
        "Director(s)": "Robert Rossen",
        "Overall Rank": "222"
    },
    {
        "Fans' Rank": "461",
        "Title": "The Ice Storm",
        "Year": "1997",
        "Director(s)": "Ang Lee",
        "Overall Rank": "1072"
    },
    {
        "Fans' Rank": "263",
        "Title": "Ikiru",
        "Year": "1952",
        "Director(s)": "Akira Kurosawa",
        "Overall Rank": "331"
    },
    {
        "Fans' Rank": "378",
        "Title": "In the Heat of the Night",
        "Year": "1967",
        "Director(s)": "Norman Jewison",
        "Overall Rank": "343"
    },
    {
        "Fans' Rank": "473",
        "Title": "In the Mood for Love",
        "Year": "2000",
        "Director(s)": "Kar Wai Wong",
        "Overall Rank": "271"
    },
    {
        "Fans' Rank": "318",
        "Title": "Independence Day",
        "Year": "1996",
        "Director(s)": "Roland Emmerich",
        "Overall Rank": "431"
    },
    {
        "Fans' Rank": "128",
        "Title": "Indiana Jones and the Last Crusade",
        "Year": "1989",
        "Director(s)": "Steven Spielberg",
        "Overall Rank": "450"
    },
    {
        "Fans' Rank": "295",
        "Title": "Indiana Jones and the Temple of Doom",
        "Year": "1984",
        "Director(s)": "Steven Spielberg",
        "Overall Rank": "676"
    },
    {
        "Fans' Rank": "296",
        "Title": "The Insider",
        "Year": "1999",
        "Director(s)": "Michael Mann",
        "Overall Rank": "647"
    },
    {
        "Fans' Rank": "412",
        "Title": "Interview with the Vampire: The Vampire Chronicles",
        "Year": "1994",
        "Director(s)": "Neil Jordan",
        "Overall Rank": "1412"
    },
    {
        "Fans' Rank": "420",
        "Title": "Intolerance",
        "Year": "1916",
        "Director(s)": "D.W. Griffith",
        "Overall Rank": "181"
    },
    {
        "Fans' Rank": "306",
        "Title": "Invasion of the Body Snatchers",
        "Year": "1956",
        "Director(s)": "Don Siegel",
        "Overall Rank": "180"
    },
    {
        "Fans' Rank": "491",
        "Title": "The Iron Giant",
        "Year": "1999",
        "Director(s)": "Brad Bird",
        "Overall Rank": "463"
    },
    {
        "Fans' Rank": "153",
        "Title": "It Happened One Night",
        "Year": "1934",
        "Director(s)": "Frank Capra",
        "Overall Rank": "69"
    },
    {
        "Fans' Rank": "27",
        "Title": "It's a Wonderful Life",
        "Year": "1946",
        "Director(s)": "Frank Capra",
        "Overall Rank": "16"
    },
    {
        "Fans' Rank": "252",
        "Title": "Jackie Brown",
        "Year": "1997",
        "Director(s)": "Quentin Tarantino",
        "Overall Rank": "927"
    },
    {
        "Fans' Rank": "20",
        "Title": "Jaws",
        "Year": "1975",
        "Director(s)": "Steven Spielberg",
        "Overall Rank": "24"
    },
    {
        "Fans' Rank": "294",
        "Title": "Jerry Maguire",
        "Year": "1996",
        "Director(s)": "Cameron Crowe",
        "Overall Rank": "304"
    },
    {
        "Fans' Rank": "95",
        "Title": "JFK",
        "Year": "1991",
        "Director(s)": "Oliver Stone",
        "Overall Rank": "423"
    },
    {
        "Fans' Rank": "303",
        "Title": "Jules and Jim",
        "Year": "1962",
        "Director(s)": "Fran?ois Truffaut",
        "Overall Rank": "168"
    },
    {
        "Fans' Rank": "94",
        "Title": "Jurassic Park",
        "Year": "1993",
        "Director(s)": "Steven Spielberg",
        "Overall Rank": "149"
    },
    {
        "Fans' Rank": "181",
        "Title": "Kill Bill: Vol. 1",
        "Year": "2003",
        "Director(s)": "Quentin Tarantino",
        "Overall Rank": "351"
    },
    {
        "Fans' Rank": "224",
        "Title": "Kill Bill: Vol. 2",
        "Year": "2004",
        "Director(s)": "Quentin Tarantino",
        "Overall Rank": "701"
    },
    {
        "Fans' Rank": "327",
        "Title": "The Killer",
        "Year": "1989",
        "Director(s)": "John Woo",
        "Overall Rank": "398"
    },
    {
        "Fans' Rank": "439",
        "Title": "The Killing Fields",
        "Year": "1984",
        "Director(s)": "Roland Joff?",
        "Overall Rank": "620"
    },
    {
        "Fans' Rank": "349",
        "Title": "The Killing",
        "Year": "1956",
        "Director(s)": "Stanley Kubrick",
        "Overall Rank": "542"
    },
    {
        "Fans' Rank": "453",
        "Title": "Kind Hearts and Coronets",
        "Year": "1949",
        "Director(s)": "Robert Hamer",
        "Overall Rank": "170"
    },
    {
        "Fans' Rank": "137",
        "Title": "King Kong",
        "Year": "1933",
        "Director(s)": "Merian C. Cooper and Ernest B. Schoedsack",
        "Overall Rank": "47"
    },
    {
        "Fans' Rank": "407",
        "Title": "The King of Comedy",
        "Year": "1982",
        "Director(s)": "Martin Scorsese",
        "Overall Rank": "475"
    },
    {
        "Fans' Rank": "494",
        "Title": "Kramer vs. Kramer",
        "Year": "1979",
        "Director(s)": "Robert Benton",
        "Overall Rank": "535"
    },
    {
        "Fans' Rank": "52",
        "Title": "L.A. Confidential",
        "Year": "1997",
        "Director(s)": "Curtis Hanson",
        "Overall Rank": "82"
    },
    {
        "Fans' Rank": "466",
        "Title": "The Lady Eve",
        "Year": "1941",
        "Director(s)": "Preston Sturges",
        "Overall Rank": "138"
    },
    {
        "Fans' Rank": "480",
        "Title": "The Lady Vanishes",
        "Year": "1938",
        "Director(s)": "Alfred Hitchcock",
        "Overall Rank": "376"
    },
    {
        "Fans' Rank": "400",
        "Title": "The Last Emperor",
        "Year": "1987",
        "Director(s)": "Bernardo Bertolucci",
        "Overall Rank": "546"
    },
    {
        "Fans' Rank": "363",
        "Title": "The Last of the Mohicans",
        "Year": "1992",
        "Director(s)": "Michael Mann",
        "Overall Rank": "468"
    },
    {
        "Fans' Rank": "246",
        "Title": "The Last Picture Show",
        "Year": "1971",
        "Director(s)": "Peter Bogdanovich",
        "Overall Rank": "325"
    },
    {
        "Fans' Rank": "487",
        "Title": "Last Tango in Paris",
        "Year": "1972",
        "Director(s)": "Bernardo Bertolucci",
        "Overall Rank": "397"
    },
    {
        "Fans' Rank": "315",
        "Title": "The Last Temptation of Christ",
        "Year": "1988",
        "Director(s)": "Martin Scorsese",
        "Overall Rank": "865"
    },
    {
        "Fans' Rank": "501",
        "Title": "Last Year at Marienbad",
        "Year": "1961",
        "Director(s)": "Alain Resnais",
        "Overall Rank": "439"
    },
    {
        "Fans' Rank": "456",
        "Title": "Laura",
        "Year": "1944",
        "Director(s)": "Otto Preminger",
        "Overall Rank": "259"
    },
    {
        "Fans' Rank": "35",
        "Title": "Lawrence of Arabia",
        "Year": "1962",
        "Director(s)": "David Lean",
        "Overall Rank": "9"
    },
    {
        "Fans' Rank": "311",
        "Title": "Leaving Las Vegas",
        "Year": "1995",
        "Director(s)": "Mike Figgis",
        "Overall Rank": "793"
    },
    {
        "Fans' Rank": "308",
        "Title": "Lethal Weapon",
        "Year": "1987",
        "Director(s)": "Richard Donner",
        "Overall Rank": "794"
    },
    {
        "Fans' Rank": "142",
        "Title": "Life Is Beautiful",
        "Year": "1997",
        "Director(s)": "Roberto Benigni",
        "Overall Rank": "238"
    },
    {
        "Fans' Rank": "178",
        "Title": "Life of Brian",
        "Year": "1979",
        "Director(s)": "Terry Jones",
        "Overall Rank": "147"
    },
    {
        "Fans' Rank": "220",
        "Title": "The Lion King",
        "Year": "1994",
        "Director(s)": "Roger Allers and Rob Minkoff",
        "Overall Rank": "270"
    },
    {
        "Fans' Rank": "257",
        "Title": "Lock, Stock and Two Smoking Barrels",
        "Year": "1998",
        "Director(s)": "Guy Ritchie",
        "Overall Rank": "740"
    },
    {
        "Fans' Rank": "389",
        "Title": "Lolita",
        "Year": "1962",
        "Director(s)": "Stanley Kubrick",
        "Overall Rank": "806"
    },
    {
        "Fans' Rank": "44",
        "Title": "The Lord of the Rings: The Fellowship of the Ring",
        "Year": "2001",
        "Director(s)": "Peter Jackson",
        "Overall Rank": "60"
    },
    {
        "Fans' Rank": "78",
        "Title": "The Lord of the Rings: The Return of the King",
        "Year": "2003",
        "Director(s)": "Peter Jackson",
        "Overall Rank": "96"
    },
    {
        "Fans' Rank": "74",
        "Title": "The Lord of the Rings: The Two Towers",
        "Year": "2002",
        "Director(s)": "Peter Jackson",
        "Overall Rank": "123"
    },
    {
        "Fans' Rank": "495",
        "Title": "Lost Highway",
        "Year": "1997",
        "Director(s)": "David Lynch",
        "Overall Rank": "1322"
    },
    {
        "Fans' Rank": "281",
        "Title": "Lost in Translation",
        "Year": "2003",
        "Director(s)": "Sofia Coppola",
        "Overall Rank": "254"
    }
]