[
    {
        "Code": "GUM",
        "Airport Name": "Guam International Airport",
        "City": "Agana",
        "State": "GU"
    },
    {
        "Code": "ALB",
        "Airport Name": "Albany International Airport",
        "City": "Albany",
        "State": "NY"
    },
    {
        "Code": "ABQ",
        "Airport Name": "Albuquerque International Sunport",
        "City": "Albuquerque",
        "State": "NM"
    },
    {
        "Code": "ABE",
        "Airport Name": "Lehigh Valley International Airport",
        "City": "Allentown",
        "State": "PA"
    },
    {
        "Code": "AMA",
        "Airport Name": "Amarillo International Airport",
        "City": "Amarillo",
        "State": "TX"
    },
    {
        "Code": "ANC",
        "Airport Name": "Anchorage International Airport",
        "City": "Anchorage",
        "State": "AK"
    },
    {
        "Code": "ATL",
        "Airport Name": "Atlanta International Airport",
        "City": "Atlanta",
        "State": "GA"
    },
    {
        "Code": "AUS",
        "Airport Name": "Austin-Bergstrom International Airport",
        "City": "Austin",
        "State": "TX"
    },
    {
        "Code": "BTR",
        "Airport Name": "Baton Rouge International Airport",
        "City": "Baton Rouge",
        "State": "LA"
    },
    {
        "Code": "BIL",
        "Airport Name": "Billings Logan International Airport",
        "City": "Billings",
        "State": "MT"
    },
    {
        "Code": "BHM",
        "Airport Name": "Birmingham International Airport",
        "City": "Birmingham",
        "State": "AL"
    },
    {
        "Code": "BOI",
        "Airport Name": "Boise Airport",
        "City": "Boise",
        "State": "ID"
    },
    {
        "Code": "BOS",
        "Airport Name": "Boston Logan International Airport",
        "City": "Boston",
        "State": "MA"
    },
    {
        "Code": "BUF",
        "Airport Name": "Buffalo Niagara International Airport",
        "City": "Buffalo",
        "State": "NY"
    },
    {
        "Code": "BUR",
        "Airport Name": "Burbank Bob Hope Airport",
        "City": "Burbank",
        "State": "CA"
    },
    {
        "Code": "BWI",
        "Airport Name": "Baltimore/Washington International Airport",
        "City": "BWI Airport",
        "State": "MD"
    },
    {
        "Code": "CID",
        "Airport Name": "Cedar Rapids Eastern Iowa Airport",
        "City": "Cedar Rapids",
        "State": "IA"
    },
    {
        "Code": "CHS",
        "Airport Name": "Charleston International Airport",
        "City": "Charleston",
        "State": "SC"
    },
    {
        "Code": "CLT",
        "Airport Name": "Charlotte/Douglas International Airport",
        "City": "Charlotte",
        "State": "NC"
    },
    {
        "Code": "STT",
        "Airport Name": "Cyril E King Airport",
        "City": "Charlotte Amalie",
        "State": "VI"
    },
    {
        "Code": "MDW",
        "Airport Name": "Chicago Midway Airport",
        "City": "Chicago",
        "State": "IL"
    },
    {
        "Code": "ORD",
        "Airport Name": "Chicago O\u00ef\u00bf\u00bdHare International Airport",
        "City": "Chicago",
        "State": "IL"
    },
    {
        "Code": "CVG",
        "Airport Name": "Cincinnati/Northern Kentucky International Airport",
        "City": "Cincinnati",
        "State": "OH"
    },
    {
        "Code": "CLE",
        "Airport Name": "Cleveland Hopkins International Airport",
        "City": "Cleveland",
        "State": "OH"
    },
    {
        "Code": "COS",
        "Airport Name": "Colorado Springs Airport",
        "City": "Colorado Springs",
        "State": "CO"
    },
    {
        "Code": "CAE",
        "Airport Name": "Columbia Metropolitan Airport",
        "City": "Columbia",
        "State": "SC"
    },
    {
        "Code": "CMH",
        "Airport Name": "Port Columbus International Airport",
        "City": "Columbus",
        "State": "OH"
    },
    {
        "Code": "CRP",
        "Airport Name": "Corpus Christi International Airport",
        "City": "Corpus Christi",
        "State": "TX"
    },
    {
        "Code": "DAL",
        "Airport Name": "Dallas Love Field",
        "City": "Dallas",
        "State": "TX"
    },
    {
        "Code": "DFW",
        "Airport Name": "Dallas/Fort Worth International Airport",
        "City": "Dallas",
        "State": "TX"
    },
    {
        "Code": "DAY",
        "Airport Name": "Dayton International Airport",
        "City": "Dayton",
        "State": "OH"
    },
    {
        "Code": "DEN",
        "Airport Name": "Denver International Airport",
        "City": "Denver",
        "State": "CO"
    },
    {
        "Code": "DSM",
        "Airport Name": "Des Moines International Airport",
        "City": "Des Moines",
        "State": "IA"
    },
    {
        "Code": "DTW",
        "Airport Name": "Detroit Metro Airport",
        "City": "Detroit",
        "State": "MI"
    },
    {
        "Code": "ACY",
        "Airport Name": "Atlantic City International Airport",
        "City": "Egg Harbor Twp",
        "State": "NJ"
    },
    {
        "Code": "ELP",
        "Airport Name": "El Paso International Airport",
        "City": "El Paso",
        "State": "TX"
    },
    {
        "Code": "FAI",
        "Airport Name": "Fairbanks International Airport",
        "City": "Fairbanks",
        "State": "AK"
    },
    {
        "Code": "XNA",
        "Airport Name": "Northwest Arkansas Regional Airport",
        "City": "Fayetteville",
        "State": "AR"
    },
    {
        "Code": "FNT",
        "Airport Name": "Bishop International Airport",
        "City": "Flint",
        "State": "MI"
    },
    {
        "Code": "FLL",
        "Airport Name": "Fort Lauderdale Hollywood International Airport",
        "City": "Fort Lauderdale",
        "State": "FL"
    },
    {
        "Code": "RSW",
        "Airport Name": "Southwest Florida International Airport",
        "City": "Fort Myers",
        "State": "FL"
    },
    {
        "Code": "FAT",
        "Airport Name": "Fresno Air Terminal",
        "City": "Fresno",
        "State": "CA"
    },
    {
        "Code": "GCN",
        "Airport Name": "Grand Canyon National Park Airport",
        "City": "Grand Canyon",
        "State": "AZ"
    },
    {
        "Code": "GRR",
        "Airport Name": "Gerald R. Ford International Airport",
        "City": "Grand Rapids",
        "State": "MI"
    },
    {
        "Code": "GRB",
        "Airport Name": "Austin Straubel International Airport",
        "City": "Green Bay",
        "State": "WI"
    },
    {
        "Code": "GSO",
        "Airport Name": "Piedmont Triad International Airport",
        "City": "Greensboro",
        "State": "NC"
    },
    {
        "Code": "GSP",
        "Airport Name": "Greenville/Spartanburg Airport",
        "City": "Greenville",
        "State": "SC"
    },
    {
        "Code": "GPT",
        "Airport Name": "Gulfport-Biloxi International Airport",
        "City": "Gulfport",
        "State": "MS"
    },
    {
        "Code": "HRL",
        "Airport Name": "Valley International Airport",
        "City": "Harlingen",
        "State": "TX"
    },
    {
        "Code": "MDT",
        "Airport Name": "Harrisburg International Airport",
        "City": "Harrisburg",
        "State": "PA"
    },
    {
        "Code": "ITO",
        "Airport Name": "Hilo International Airport",
        "City": "Hilo",
        "State": "HI"
    },
    {
        "Code": "HNL",
        "Airport Name": "Honolulu International Airport",
        "City": "Honolulu",
        "State": "HI"
    },
    {
        "Code": "IAH",
        "Airport Name": "Bush Intercontinental Airport",
        "City": "Houston",
        "State": "TX"
    },
    {
        "Code": "HOU",
        "Airport Name": "Hobby Airport",
        "City": "Houston",
        "State": "TX"
    },
    {
        "Code": "HSV",
        "Airport Name": "Huntsville International Airport",
        "City": "Huntsville",
        "State": "AL"
    },
    {
        "Code": "IND",
        "Airport Name": "Indianapolis International Airport",
        "City": "Indianapolis",
        "State": "IN"
    },
    {
        "Code": "ISP",
        "Airport Name": "Macarthur Airport",
        "City": "Islip",
        "State": "NY"
    },
    {
        "Code": "JAN",
        "Airport Name": "Jackson-Evers International Airport",
        "City": "Jackson",
        "State": "MS"
    },
    {
        "Code": "JAX",
        "Airport Name": "Jacksonville International Airport",
        "City": "Jacksonville",
        "State": "FL"
    },
    {
        "Code": "JNU",
        "Airport Name": "Juneau International Airport",
        "City": "Juneau",
        "State": "AK"
    },
    {
        "Code": "OGG",
        "Airport Name": "Kahului Airport",
        "City": "Kahului",
        "State": "HI"
    },
    {
        "Code": "MCI",
        "Airport Name": "Kansas City International Airport",
        "City": "Kansas City",
        "State": "MO"
    },
    {
        "Code": "KOA",
        "Airport Name": "Kona International Airport",
        "City": "Keahole",
        "State": "HI"
    },
    {
        "Code": "TYS",
        "Airport Name": "Mcghee Tyson Airport",
        "City": "Knoxville",
        "State": "TN"
    },
    {
        "Code": "LAS",
        "Airport Name": "Mccarran International Airport",
        "City": "Las Vegas",
        "State": "NV"
    },
    {
        "Code": "LEX",
        "Airport Name": "Blue Grass Airport",
        "City": "Lexington",
        "State": "KY"
    },
    {
        "Code": "LIH",
        "Airport Name": "Lihue Airport",
        "City": "Lihue",
        "State": "HI"
    },
    {
        "Code": "LIT",
        "Airport Name": "Little Rock National Airport",
        "City": "Little Rock",
        "State": "AR"
    },
    {
        "Code": "LGB",
        "Airport Name": "Long Beach Airport",
        "City": "Long Beach",
        "State": "CA"
    },
    {
        "Code": "LAX",
        "Airport Name": "Los Angeles International Airport",
        "City": "Los Angeles",
        "State": "CA"
    },
    {
        "Code": "SDF",
        "Airport Name": "Louisville International Airport",
        "City": "Louisville",
        "State": "KY"
    },
    {
        "Code": "LBB",
        "Airport Name": "Lubbock International Airport",
        "City": "Lubbock",
        "State": "TX"
    },
    {
        "Code": "MSN",
        "Airport Name": "Dane County Regional Airport",
        "City": "Madison",
        "State": "WI"
    },
    {
        "Code": "MHT",
        "Airport Name": "Manchester Airport",
        "City": "Manchester",
        "State": "NH"
    },
    {
        "Code": "MEM",
        "Airport Name": "Memphis Airport",
        "City": "Memphis",
        "State": "TN"
    },
    {
        "Code": "MIA",
        "Airport Name": "Miami International Airport",
        "City": "Miami",
        "State": "FL"
    },
    {
        "Code": "MAF",
        "Airport Name": "Midland International Airport",
        "City": "Midland",
        "State": "TX"
    },
    {
        "Code": "MKE",
        "Airport Name": "General Mitchell International Airport",
        "City": "Milwaukee",
        "State": "WI"
    },
    {
        "Code": "MSP",
        "Airport Name": "Minneapolis/St. Paul International Airport",
        "City": "Minneapolis",
        "State": "MN"
    },
    {
        "Code": "MLI",
        "Airport Name": "Quad City International Airport",
        "City": "Moline",
        "State": "IL"
    },
    {
        "Code": "MYR",
        "Airport Name": "Myrtle Beach Airport",
        "City": "Myrtle Beach",
        "State": "SC"
    },
    {
        "Code": "BNA",
        "Airport Name": "Nashville International Airport",
        "City": "Nashville",
        "State": "TN"
    },
    {
        "Code": "MSY",
        "Airport Name": "New Orleans International Airport",
        "City": "New Orleans",
        "State": "LA"
    },
    {
        "Code": "JFK",
        "Airport Name": "John F. Kennedy International Airport",
        "City": "New York",
        "State": "NY"
    },
    {
        "Code": "LGA",
        "Airport Name": "La Guardia Airport",
        "City": "New York",
        "State": "NY"
    },
    {
        "Code": "EWR",
        "Airport Name": "Newark Liberty International Airport",
        "City": "Newark",
        "State": "NJ"
    },
    {
        "Code": "PHF",
        "Airport Name": "Newport News/Williamsburg International Airport",
        "City": "Newport News",
        "State": "VA"
    },
    {
        "Code": "ORF",
        "Airport Name": "Norfolk International Airport",
        "City": "Norfolk",
        "State": "VA"
    },
    {
        "Code": "CAK",
        "Airport Name": "Akron-Canton Airport",
        "City": "North Canton",
        "State": "OH"
    },
    {
        "Code": "OAK",
        "Airport Name": "Oakland International Airport",
        "City": "Oakland",
        "State": "CA"
    },
    {
        "Code": "OKC",
        "Airport Name": "Will Rogers World Airport",
        "City": "Oklahoma City",
        "State": "OK"
    },
    {
        "Code": "OMA",
        "Airport Name": "Eppley Airfield",
        "City": "Omaha",
        "State": "NE"
    },
    {
        "Code": "ONT",
        "Airport Name": "Ontario International Airport",
        "City": "Ontario",
        "State": "CA"
    },
    {
        "Code": "SNA",
        "Airport Name": "John Wayne Airport",
        "City": "Orange County",
        "State": "CA"
    },
    {
        "Code": "MCO",
        "Airport Name": "Orlando International Airport",
        "City": "Orlando",
        "State": "FL"
    },
    {
        "Code": "PSP",
        "Airport Name": "Palm Springs International Airport",
        "City": "Palm Springs",
        "State": "CA"
    },
    {
        "Code": "PNS",
        "Airport Name": "Pensacola Regional Airport",
        "City": "Pensacola",
        "State": "FL"
    },
    {
        "Code": "PHL",
        "Airport Name": "Philadelphia International Airport",
        "City": "Philadelphia",
        "State": "PA"
    },
    {
        "Code": "PHX",
        "Airport Name": "Phoenix Sky Harbor International Airport",
        "City": "Phoenix",
        "State": "AZ"
    },
    {
        "Code": "PIT",
        "Airport Name": "Pittsburgh International Airport",
        "City": "Pittsburgh",
        "State": "PA"
    },
    {
        "Code": "PDX",
        "Airport Name": "Portland International Airport",
        "City": "Portland",
        "State": "OR"
    },
    {
        "Code": "PWM",
        "Airport Name": "Portland International Jetport",
        "City": "Portland",
        "State": "ME"
    },
    {
        "Code": "PVD",
        "Airport Name": "T.F. Green Airport",
        "City": "Providence",
        "State": "RI"
    },
    {
        "Code": "RDU",
        "Airport Name": "Raleigh-Durham International Airport",
        "City": "Rdu Airport",
        "State": "NC"
    },
    {
        "Code": "RNO",
        "Airport Name": "Reno-Tahoe International Airport",
        "City": "Reno",
        "State": "NV"
    },
    {
        "Code": "RIC",
        "Airport Name": "Richmond International Airport",
        "City": "Richmond",
        "State": "VA"
    },
    {
        "Code": "ROC",
        "Airport Name": "Greater Rochester International Airport",
        "City": "Rochester",
        "State": "NY"
    },
    {
        "Code": "SMF",
        "Airport Name": "Sacramento International Airport",
        "City": "Sacramento",
        "State": "CA"
    },
    {
        "Code": "STL",
        "Airport Name": "Lambert-St. Louis International Airport",
        "City": "Saint Louis",
        "State": "MO"
    },
    {
        "Code": "PIE",
        "Airport Name": "St. Petersburg-Clearwater International Airport",
        "City": "Saint Petersburg",
        "State": "FL"
    },
    {
        "Code": "GSN",
        "Airport Name": "Saipan International Airport",
        "City": "Saipan Island",
        "State": "CQ"
    },
    {
        "Code": "SLC",
        "Airport Name": "Salt Lake City International Airport",
        "City": "Salt Lake City",
        "State": "UT"
    },
    {
        "Code": "SAT",
        "Airport Name": "San Antonio International Airport",
        "City": "San Antonio",
        "State": "TX"
    },
    {
        "Code": "SAN",
        "Airport Name": "San Diego International Airport",
        "City": "San Diego",
        "State": "CA"
    },
    {
        "Code": "SFO",
        "Airport Name": "San Francisco International Airport",
        "City": "San Francisco",
        "State": "CA"
    },
    {
        "Code": "SJC",
        "Airport Name": "San Jose International Airport",
        "City": "San Jose",
        "State": "CA"
    },
    {
        "Code": "SJU",
        "Airport Name": "Luis Munoz Marin International Airport",
        "City": "San Juan",
        "State": "PR"
    },
    {
        "Code": "SFB",
        "Airport Name": "Orlando Sanford International Airport",
        "City": "Sanford",
        "State": "FL"
    },
    {
        "Code": "SBA",
        "Airport Name": "Santa Barbara Airport",
        "City": "Santa Barbara",
        "State": "CA"
    },
    {
        "Code": "SRQ",
        "Airport Name": "Sarasota-Bradenton International Airport",
        "City": "Sarasota",
        "State": "FL"
    },
    {
        "Code": "SAV",
        "Airport Name": "Savannah/Hilton Head International Airport",
        "City": "Savannah",
        "State": "GA"
    },
    {
        "Code": "SEA",
        "Airport Name": "Seattle/Tacoma International Airport",
        "City": "Seattle",
        "State": "WA"
    },
    {
        "Code": "SBN",
        "Airport Name": "South Bend Regional Airport",
        "City": "South Bend",
        "State": "IN"
    },
    {
        "Code": "BTV",
        "Airport Name": "Burlington International Airport",
        "City": "South Burlington",
        "State": "VT"
    },
    {
        "Code": "GEG",
        "Airport Name": "Spokane International Airport",
        "City": "Spokane",
        "State": "WA"
    },
    {
        "Code": "SYR",
        "Airport Name": "Syracuse Hancock International Airport",
        "City": "Syracuse",
        "State": "NY"
    },
    {
        "Code": "TLH",
        "Airport Name": "Tallahassee Regional Airport",
        "City": "Tallahassee",
        "State": "FL"
    },
    {
        "Code": "TPA",
        "Airport Name": "Tampa International Airport",
        "City": "Tampa",
        "State": "FL"
    },
    {
        "Code": "TUS",
        "Airport Name": "Tucson International Airport",
        "City": "Tucson",
        "State": "AZ"
    },
    {
        "Code": "TUL",
        "Airport Name": "Tulsa International Airport",
        "City": "Tulsa",
        "State": "OK"
    },
    {
        "Code": "VPS",
        "Airport Name": "Fort Walton Beach Airport",
        "City": "Valparaiso",
        "State": "FL"
    },
    {
        "Code": "DCA",
        "Airport Name": "Ronald Reagan Washington National Airport",
        "City": "Washington",
        "State": "DC"
    },
    {
        "Code": "IAD",
        "Airport Name": "Washington Dulles International Airport",
        "City": "Washington",
        "State": "DC"
    },
    {
        "Code": "PBI",
        "Airport Name": "Palm Beach International Airport",
        "City": "West Palm Beach",
        "State": "FL"
    },
    {
        "Code": "HPN",
        "Airport Name": "Westchester County Airport",
        "City": "White Plains",
        "State": "NY"
    },
    {
        "Code": "ICT",
        "Airport Name": "Wichita Mid-Continent Airport",
        "City": "Wichita",
        "State": "KS"
    },
    {
        "Code": "BDL",
        "Airport Name": "Bradley International Airport",
        "City": "Windsor Locks",
        "State": "CT"
    }
]