[
    {
        "ENTITY": "Afghanistan",
        "CURRENCY": "Afghani",
        "ALPHABETIC CODE": "AFA",
        "NUMERIC CODE": "4"
    },
    {
        "ENTITY": "Albania",
        "CURRENCY": "Lek",
        "ALPHABETIC CODE": "ALL",
        "NUMERIC CODE": "8"
    },
    {
        "ENTITY": "Algeria",
        "CURRENCY": "Algerian Dinar",
        "ALPHABETIC CODE": "DZD",
        "NUMERIC CODE": "12"
    },
    {
        "ENTITY": "American Samoa",
        "CURRENCY": "US Dollar",
        "ALPHABETIC CODE": "USD",
        "NUMERIC CODE": "840"
    },
    {
        "ENTITY": "Andorra",
        "CURRENCY": "Spanish Peseta",
        "ALPHABETIC CODE": "ESP",
        "NUMERIC CODE": "724"
    },
    {
        "ENTITY": "",
        "CURRENCY": "French Franc",
        "ALPHABETIC CODE": "FRF",
        "NUMERIC CODE": "250"
    },
    {
        "ENTITY": "",
        "CURRENCY": "Andorran Peseta",
        "ALPHABETIC CODE": "ADP",
        "NUMERIC CODE": "20"
    },
    {
        "ENTITY": "Angola",
        "CURRENCY": "New Kwanza",
        "ALPHABETIC CODE": "AON",
        "NUMERIC CODE": "24"
    },
    {
        "ENTITY": "",
        "CURRENCY": "Kwanza Reajustado",
        "ALPHABETIC CODE": "AOR",
        "NUMERIC CODE": "982"
    },
    {
        "ENTITY": "Anguilla",
        "CURRENCY": "East Caribbean Dollar",
        "ALPHABETIC CODE": "XCD",
        "NUMERIC CODE": "951"
    },
    {
        "ENTITY": "Antarctica",
        "CURRENCY": "No universal currency",
        "ALPHABETIC CODE": "",
        "NUMERIC CODE": ""
    },
    {
        "ENTITY": "Antigua and Barbuda",
        "CURRENCY": "East Caribbean Dollar",
        "ALPHABETIC CODE": "XCD",
        "NUMERIC CODE": "951"
    },
    {
        "ENTITY": "Argentina",
        "CURRENCY": "Argentine Peso",
        "ALPHABETIC CODE": "ARS",
        "NUMERIC CODE": "32"
    },
    {
        "ENTITY": "Armenia",
        "CURRENCY": "Armenian Dram",
        "ALPHABETIC CODE": "AMD",
        "NUMERIC CODE": "51"
    },
    {
        "ENTITY": "Aruba",
        "CURRENCY": "Aruban Guilder",
        "ALPHABETIC CODE": "AWG",
        "NUMERIC CODE": "533"
    },
    {
        "ENTITY": "Australia",
        "CURRENCY": "Australian Dollar",
        "ALPHABETIC CODE": "AUD",
        "NUMERIC CODE": "36"
    },
    {
        "ENTITY": "Austria",
        "CURRENCY": "Schilling",
        "ALPHABETIC CODE": "ATS",
        "NUMERIC CODE": "40"
    },
    {
        "ENTITY": "Azerbaijan",
        "CURRENCY": "Azerbaijanian Manat",
        "ALPHABETIC CODE": "AZM",
        "NUMERIC CODE": "31"
    },
    {
        "ENTITY": "Bahamas",
        "CURRENCY": "Bahamian Dollar",
        "ALPHABETIC CODE": "BSD",
        "NUMERIC CODE": "44"
    },
    {
        "ENTITY": "Bahrain",
        "CURRENCY": "Bahraini Dinar",
        "ALPHABETIC CODE": "BHD",
        "NUMERIC CODE": "48"
    },
    {
        "ENTITY": "Bangladesh",
        "CURRENCY": "Taka",
        "ALPHABETIC CODE": "BDT",
        "NUMERIC CODE": "50"
    },
    {
        "ENTITY": "Barbados",
        "CURRENCY": "Barbados Dollar",
        "ALPHABETIC CODE": "BBD",
        "NUMERIC CODE": "52"
    },
    {
        "ENTITY": "Belarus",
        "CURRENCY": "Belarussian Ruble",
        "ALPHABETIC CODE": "BYR",
        "NUMERIC CODE": "974"
    },
    {
        "ENTITY": "Belgium",
        "CURRENCY": "Belgian Franc",
        "ALPHABETIC CODE": "BEF",
        "NUMERIC CODE": "56"
    },
    {
        "ENTITY": "Belize",
        "CURRENCY": "Belize Dollar",
        "ALPHABETIC CODE": "BZD",
        "NUMERIC CODE": "84"
    },
    {
        "ENTITY": "Benin",
        "CURRENCY": "CFA Franc BCEAO",
        "ALPHABETIC CODE": "XOF",
        "NUMERIC CODE": "952"
    },
    {
        "ENTITY": "Bermuda",
        "CURRENCY": "Bermudian Dollar",
        "ALPHABETIC CODE": "BMD",
        "NUMERIC CODE": "60"
    },
    {
        "ENTITY": "Bhutan",
        "CURRENCY": "Indian Rupee",
        "ALPHABETIC CODE": "INR",
        "NUMERIC CODE": "356"
    },
    {
        "ENTITY": "",
        "CURRENCY": "Ngultrum",
        "ALPHABETIC CODE": "BTN",
        "NUMERIC CODE": "64"
    },
    {
        "ENTITY": "Bosnia and Herzegovina",
        "CURRENCY": "Convertible Marks",
        "ALPHABETIC CODE": "BAM",
        "NUMERIC CODE": "977"
    },
    {
        "ENTITY": "Botswana",
        "CURRENCY": "Pula",
        "ALPHABETIC CODE": "BWP",
        "NUMERIC CODE": "72"
    },
    {
        "ENTITY": "Bouvet Island",
        "CURRENCY": "Norwegian Krone",
        "ALPHABETIC CODE": "NOK",
        "NUMERIC CODE": "578"
    },
    {
        "ENTITY": "Brazil",
        "CURRENCY": "Brazilian Real",
        "ALPHABETIC CODE": "BRL",
        "NUMERIC CODE": "986"
    },
    {
        "ENTITY": "British Indian Ocean Territory",
        "CURRENCY": "US Dollar",
        "ALPHABETIC CODE": "USD",
        "NUMERIC CODE": "840"
    },
    {
        "ENTITY": "Brunei Darussalam",
        "CURRENCY": "Brunei Dollar",
        "ALPHABETIC CODE": "BND",
        "NUMERIC CODE": "96"
    },
    {
        "ENTITY": "Bulgaria",
        "CURRENCY": "Lev",
        "ALPHABETIC CODE": "BGL",
        "NUMERIC CODE": "100"
    },
    {
        "ENTITY": "",
        "CURRENCY": "Bulgarian LEV",
        "ALPHABETIC CODE": "BGN",
        "NUMERIC CODE": "975"
    },
    {
        "ENTITY": "Burkina Faso",
        "CURRENCY": "CFA Franc BCEAO",
        "ALPHABETIC CODE": "XOF",
        "NUMERIC CODE": "952"
    },
    {
        "ENTITY": "Burundi",
        "CURRENCY": "Burundi Franc",
        "ALPHABETIC CODE": "BIF",
        "NUMERIC CODE": "108"
    },
    {
        "ENTITY": "Cambodia",
        "CURRENCY": "Riel",
        "ALPHABETIC CODE": "KHR",
        "NUMERIC CODE": "116"
    },
    {
        "ENTITY": "Cameroon",
        "CURRENCY": "CFA Franc BEAC",
        "ALPHABETIC CODE": "XAF",
        "NUMERIC CODE": "950"
    },
    {
        "ENTITY": "Canada",
        "CURRENCY": "Canadian Dollar",
        "ALPHABETIC CODE": "CAD",
        "NUMERIC CODE": "124"
    },
    {
        "ENTITY": "Cape Verde",
        "CURRENCY": "Cape Verde Escudo",
        "ALPHABETIC CODE": "CVE",
        "NUMERIC CODE": "132"
    },
    {
        "ENTITY": "Cayman Islands",
        "CURRENCY": "Cayman Islands Dollar",
        "ALPHABETIC CODE": "KYD",
        "NUMERIC CODE": "136"
    },
    {
        "ENTITY": "Central African Republic",
        "CURRENCY": "CFA Franc BEAC",
        "ALPHABETIC CODE": "XAF",
        "NUMERIC CODE": "950"
    },
    {
        "ENTITY": "Chad",
        "CURRENCY": "CFA Franc BEAC",
        "ALPHABETIC CODE": "XAF",
        "NUMERIC CODE": "950"
    },
    {
        "ENTITY": "Chile",
        "CURRENCY": "Chilean Peso",
        "ALPHABETIC CODE": "CLP",
        "NUMERIC CODE": "152"
    },
    {
        "ENTITY": "",
        "CURRENCY": "Unidades de fomento",
        "ALPHABETIC CODE": "CLF",
        "NUMERIC CODE": "990"
    },
    {
        "ENTITY": "China",
        "CURRENCY": "Yuan Renminbi",
        "ALPHABETIC CODE": "CNY",
        "NUMERIC CODE": "156"
    },
    {
        "ENTITY": "Christmas Island",
        "CURRENCY": "Australian Dollar",
        "ALPHABETIC CODE": "AUD",
        "NUMERIC CODE": "36"
    },
    {
        "ENTITY": "Cocos (Keeling) Islands",
        "CURRENCY": "Australian Dollar",
        "ALPHABETIC CODE": "AUD",
        "NUMERIC CODE": "36"
    },
    {
        "ENTITY": "Colombia",
        "CURRENCY": "Colombian Peso",
        "ALPHABETIC CODE": "COP",
        "NUMERIC CODE": "170"
    },
    {
        "ENTITY": "Comoros",
        "CURRENCY": "Comoro Franc",
        "ALPHABETIC CODE": "KMF",
        "NUMERIC CODE": "174"
    },
    {
        "ENTITY": "Congo",
        "CURRENCY": "CFA Franc BEAC",
        "ALPHABETIC CODE": "XAF",
        "NUMERIC CODE": "950"
    },
    {
        "ENTITY": "Congo, The Democratic Republic Of",
        "CURRENCY": "Franc Congolais",
        "ALPHABETIC CODE": "CDF",
        "NUMERIC CODE": "976"
    },
    {
        "ENTITY": "Cook Islands",
        "CURRENCY": "New Zealand Dollar",
        "ALPHABETIC CODE": "NZD",
        "NUMERIC CODE": "554"
    },
    {
        "ENTITY": "Costa Rica",
        "CURRENCY": "Costa Rican Colon",
        "ALPHABETIC CODE": "CRC",
        "NUMERIC CODE": "188"
    },
    {
        "ENTITY": "Cote D'ivoire",
        "CURRENCY": "CFA Franc BCEAO",
        "ALPHABETIC CODE": "XOF",
        "NUMERIC CODE": "952"
    },
    {
        "ENTITY": "Croatia",
        "CURRENCY": "Kuna",
        "ALPHABETIC CODE": "HRK",
        "NUMERIC CODE": "191"
    },
    {
        "ENTITY": "Cuba",
        "CURRENCY": "Cuban Peso",
        "ALPHABETIC CODE": "CUP",
        "NUMERIC CODE": "192"
    },
    {
        "ENTITY": "Cyprus",
        "CURRENCY": "Cyprus Pound",
        "ALPHABETIC CODE": "CYP",
        "NUMERIC CODE": "196"
    },
    {
        "ENTITY": "Czech Republic",
        "CURRENCY": "Czech Koruna",
        "ALPHABETIC CODE": "CZK",
        "NUMERIC CODE": "203"
    },
    {
        "ENTITY": "Denmark",
        "CURRENCY": "Danish Krone",
        "ALPHABETIC CODE": "DKK",
        "NUMERIC CODE": "208"
    },
    {
        "ENTITY": "Djibouti",
        "CURRENCY": "Djibouti Franc",
        "ALPHABETIC CODE": "DJF",
        "NUMERIC CODE": "262"
    },
    {
        "ENTITY": "Dominica",
        "CURRENCY": "East Caribbean Dollar",
        "ALPHABETIC CODE": "XCD",
        "NUMERIC CODE": "951"
    },
    {
        "ENTITY": "Dominican Republic",
        "CURRENCY": "Dominican Peso",
        "ALPHABETIC CODE": "DOP",
        "NUMERIC CODE": "214"
    },
    {
        "ENTITY": "East Timor",
        "CURRENCY": "Timor Escudo",
        "ALPHABETIC CODE": "TPE",
        "NUMERIC CODE": "626"
    },
    {
        "ENTITY": "",
        "CURRENCY": "Rupiah",
        "ALPHABETIC CODE": "IDR",
        "NUMERIC CODE": "360"
    },
    {
        "ENTITY": "Ecuador",
        "CURRENCY": "Sucre",
        "ALPHABETIC CODE": "ECS",
        "NUMERIC CODE": "218"
    },
    {
        "ENTITY": "",
        "CURRENCY": "Unidad de Valor Constante (UVC)",
        "ALPHABETIC CODE": "ECV",
        "NUMERIC CODE": "983"
    },
    {
        "ENTITY": "Egypt",
        "CURRENCY": "Egyptian Pound",
        "ALPHABETIC CODE": "EGP",
        "NUMERIC CODE": "818"
    },
    {
        "ENTITY": "El Salvador",
        "CURRENCY": "El Salvador Colon",
        "ALPHABETIC CODE": "SVC",
        "NUMERIC CODE": "222"
    },
    {
        "ENTITY": "Equatorial Guinea",
        "CURRENCY": "CFA Franc BEAC",
        "ALPHABETIC CODE": "XAF",
        "NUMERIC CODE": "950"
    },
    {
        "ENTITY": "Estonia",
        "CURRENCY": "Kroon",
        "ALPHABETIC CODE": "EEK",
        "NUMERIC CODE": "233"
    },
    {
        "ENTITY": "Eritrea",
        "CURRENCY": "Nakfa",
        "ALPHABETIC CODE": "ERN",
        "NUMERIC CODE": "232"
    },
    {
        "ENTITY": "Ethiopia",
        "CURRENCY": "Ethiopian Birr",
        "ALPHABETIC CODE": "ETB",
        "NUMERIC CODE": "230"
    },
    {
        "ENTITY": "Faeroe Islands",
        "CURRENCY": "Danish Krone",
        "ALPHABETIC CODE": "DKK",
        "NUMERIC CODE": "208"
    },
    {
        "ENTITY": "Falkland Islands (Malvinas)",
        "CURRENCY": "Pound",
        "ALPHABETIC CODE": "FKP",
        "NUMERIC CODE": "238"
    },
    {
        "ENTITY": "Fiji",
        "CURRENCY": "Fiji Dollar",
        "ALPHABETIC CODE": "FJD",
        "NUMERIC CODE": "242"
    },
    {
        "ENTITY": "Finland",
        "CURRENCY": "Markka",
        "ALPHABETIC CODE": "FIM",
        "NUMERIC CODE": "246"
    },
    {
        "ENTITY": "France",
        "CURRENCY": "French Franc",
        "ALPHABETIC CODE": "FRF",
        "NUMERIC CODE": "250"
    },
    {
        "ENTITY": "French Guiana",
        "CURRENCY": "French Franc",
        "ALPHABETIC CODE": "FRF",
        "NUMERIC CODE": "250"
    },
    {
        "ENTITY": "French Polynesia",
        "CURRENCY": "CFP Franc",
        "ALPHABETIC CODE": "XPF",
        "NUMERIC CODE": "953"
    },
    {
        "ENTITY": "French Southern Territories",
        "CURRENCY": "French Franc",
        "ALPHABETIC CODE": "FRF",
        "NUMERIC CODE": "250"
    },
    {
        "ENTITY": "Gabon",
        "CURRENCY": "CFA Franc BEAC",
        "ALPHABETIC CODE": "XAF",
        "NUMERIC CODE": "950"
    },
    {
        "ENTITY": "Gambia",
        "CURRENCY": "Dalasi",
        "ALPHABETIC CODE": "GMD",
        "NUMERIC CODE": "270"
    },
    {
        "ENTITY": "Georgia",
        "CURRENCY": "Lari",
        "ALPHABETIC CODE": "GEL",
        "NUMERIC CODE": "981"
    },
    {
        "ENTITY": "Germany",
        "CURRENCY": "Deutsche Mark",
        "ALPHABETIC CODE": "DEM",
        "NUMERIC CODE": "276"
    },
    {
        "ENTITY": "Ghana",
        "CURRENCY": "Cedi",
        "ALPHABETIC CODE": "GHC",
        "NUMERIC CODE": "288"
    },
    {
        "ENTITY": "Gibraltar",
        "CURRENCY": "Gibraltar Pound",
        "ALPHABETIC CODE": "GIP",
        "NUMERIC CODE": "292"
    },
    {
        "ENTITY": "Greece",
        "CURRENCY": "Drachma",
        "ALPHABETIC CODE": "GRD",
        "NUMERIC CODE": "300"
    },
    {
        "ENTITY": "Greenland",
        "CURRENCY": "Danish Krone",
        "ALPHABETIC CODE": "DKK",
        "NUMERIC CODE": "208"
    },
    {
        "ENTITY": "Grenada",
        "CURRENCY": "East Caribbean Dollar",
        "ALPHABETIC CODE": "XCD",
        "NUMERIC CODE": "951"
    },
    {
        "ENTITY": "Guadeloupe",
        "CURRENCY": "French Franc",
        "ALPHABETIC CODE": "FRF",
        "NUMERIC CODE": "250"
    },
    {
        "ENTITY": "Guam",
        "CURRENCY": "US Dollar",
        "ALPHABETIC CODE": "USD",
        "NUMERIC CODE": "840"
    },
    {
        "ENTITY": "Guatemala",
        "CURRENCY": "Quetzal",
        "ALPHABETIC CODE": "GTQ",
        "NUMERIC CODE": "320"
    },
    {
        "ENTITY": "Guinea",
        "CURRENCY": "Guinea Franc",
        "ALPHABETIC CODE": "GNF",
        "NUMERIC CODE": "324"
    },
    {
        "ENTITY": "Guinea-Bissau",
        "CURRENCY": "Guinea-Bissau Peso",
        "ALPHABETIC CODE": "GWP",
        "NUMERIC CODE": "624"
    },
    {
        "ENTITY": "",
        "CURRENCY": "CFA Franc BCEAO",
        "ALPHABETIC CODE": "XOF",
        "NUMERIC CODE": "952"
    },
    {
        "ENTITY": "Guyana",
        "CURRENCY": "Guyana Dollar",
        "ALPHABETIC CODE": "GYD",
        "NUMERIC CODE": "328"
    },
    {
        "ENTITY": "Haiti",
        "CURRENCY": "Gourde",
        "ALPHABETIC CODE": "HTG",
        "NUMERIC CODE": "332"
    },
    {
        "ENTITY": "",
        "CURRENCY": "US Dollar",
        "ALPHABETIC CODE": "USD",
        "NUMERIC CODE": "840"
    },
    {
        "ENTITY": "Heard and Mcdonald Islands",
        "CURRENCY": "Australian Dollar",
        "ALPHABETIC CODE": "AUD",
        "NUMERIC CODE": "36"
    },
    {
        "ENTITY": "Honduras",
        "CURRENCY": "Lempira",
        "ALPHABETIC CODE": "HNL",
        "NUMERIC CODE": "340"
    },
    {
        "ENTITY": "Hong Kong",
        "CURRENCY": "Hong Kong Dollar",
        "ALPHABETIC CODE": "HKD",
        "NUMERIC CODE": "344"
    },
    {
        "ENTITY": "Hungary",
        "CURRENCY": "Forint",
        "ALPHABETIC CODE": "HUF",
        "NUMERIC CODE": "348"
    },
    {
        "ENTITY": "Iceland",
        "CURRENCY": "Iceland Krona",
        "ALPHABETIC CODE": "ISK",
        "NUMERIC CODE": "352"
    },
    {
        "ENTITY": "India",
        "CURRENCY": "Indian Rupee",
        "ALPHABETIC CODE": "INR",
        "NUMERIC CODE": "356"
    },
    {
        "ENTITY": "Indonesia",
        "CURRENCY": "Rupiah",
        "ALPHABETIC CODE": "IDR",
        "NUMERIC CODE": "360"
    },
    {
        "ENTITY": "International Monetary Fund (Imf)",
        "CURRENCY": "SDR",
        "ALPHABETIC CODE": "XDR",
        "NUMERIC CODE": "960"
    },
    {
        "ENTITY": "Iran (Islamic Republic Of)",
        "CURRENCY": "Iranian Rial",
        "ALPHABETIC CODE": "IRR",
        "NUMERIC CODE": "364"
    },
    {
        "ENTITY": "Iraq",
        "CURRENCY": "Iraqi Dinar",
        "ALPHABETIC CODE": "IQD",
        "NUMERIC CODE": "368"
    },
    {
        "ENTITY": "Ireland",
        "CURRENCY": "Irish Pound",
        "ALPHABETIC CODE": "IEP",
        "NUMERIC CODE": "372"
    },
    {
        "ENTITY": "Israel",
        "CURRENCY": "New Israeli Sheqel",
        "ALPHABETIC CODE": "ILS",
        "NUMERIC CODE": "376"
    },
    {
        "ENTITY": "Italy",
        "CURRENCY": "Italian Lira",
        "ALPHABETIC CODE": "ITL",
        "NUMERIC CODE": "380"
    },
    {
        "ENTITY": "Jamaica",
        "CURRENCY": "Jamaican Dollar",
        "ALPHABETIC CODE": "JMD",
        "NUMERIC CODE": "388"
    },
    {
        "ENTITY": "Japan",
        "CURRENCY": "Yen",
        "ALPHABETIC CODE": "JPY",
        "NUMERIC CODE": "392"
    },
    {
        "ENTITY": "Jordan",
        "CURRENCY": "Jordanian Dinar",
        "ALPHABETIC CODE": "JOD",
        "NUMERIC CODE": "400"
    },
    {
        "ENTITY": "Kazakhstan",
        "CURRENCY": "Tenge",
        "ALPHABETIC CODE": "KZT",
        "NUMERIC CODE": "398"
    },
    {
        "ENTITY": "Kenya",
        "CURRENCY": "Kenyan Shilling",
        "ALPHABETIC CODE": "KES",
        "NUMERIC CODE": "404"
    },
    {
        "ENTITY": "Kiribati",
        "CURRENCY": "Australian Dollar",
        "ALPHABETIC CODE": "AUD",
        "NUMERIC CODE": "36"
    },
    {
        "ENTITY": "Korea, Democratic People's Republic Of",
        "CURRENCY": "North Korean Won",
        "ALPHABETIC CODE": "KPW",
        "NUMERIC CODE": "408"
    },
    {
        "ENTITY": "Korea, Republic Of",
        "CURRENCY": "Won",
        "ALPHABETIC CODE": "KRW",
        "NUMERIC CODE": "410"
    },
    {
        "ENTITY": "Kuwait",
        "CURRENCY": "Kuwaiti Dinar",
        "ALPHABETIC CODE": "KWD",
        "NUMERIC CODE": "414"
    },
    {
        "ENTITY": "Kyrgyzstan",
        "CURRENCY": "Som",
        "ALPHABETIC CODE": "KGS",
        "NUMERIC CODE": "417"
    },
    {
        "ENTITY": "Lao People's Democratic Republic",
        "CURRENCY": "Kip",
        "ALPHABETIC CODE": "LAK",
        "NUMERIC CODE": "418"
    },
    {
        "ENTITY": "Latvia",
        "CURRENCY": "Latvian Lats",
        "ALPHABETIC CODE": "LVL",
        "NUMERIC CODE": "428"
    },
    {
        "ENTITY": "Lebanon",
        "CURRENCY": "Lebanese Pound",
        "ALPHABETIC CODE": "LBP",
        "NUMERIC CODE": "422"
    },
    {
        "ENTITY": "Lesotho",
        "CURRENCY": "Rand",
        "ALPHABETIC CODE": "ZAR",
        "NUMERIC CODE": "710"
    },
    {
        "ENTITY": "",
        "CURRENCY": "(financial Rand)",
        "ALPHABETIC CODE": "ZAL",
        "NUMERIC CODE": "991"
    },
    {
        "ENTITY": "",
        "CURRENCY": "Loti",
        "ALPHABETIC CODE": "LSL",
        "NUMERIC CODE": "426"
    },
    {
        "ENTITY": "Liberia",
        "CURRENCY": "Liberian Dollar",
        "ALPHABETIC CODE": "LRD",
        "NUMERIC CODE": "430"
    },
    {
        "ENTITY": "Libyan Arab Jamahiriya",
        "CURRENCY": "Libyan Dinar",
        "ALPHABETIC CODE": "LYD",
        "NUMERIC CODE": "434"
    },
    {
        "ENTITY": "Liechtenstein",
        "CURRENCY": "Swiss Franc",
        "ALPHABETIC CODE": "CHF",
        "NUMERIC CODE": "756"
    },
    {
        "ENTITY": "Lithuania",
        "CURRENCY": "Lithuanian Litas",
        "ALPHABETIC CODE": "LTL",
        "NUMERIC CODE": "440"
    },
    {
        "ENTITY": "Luxembourg",
        "CURRENCY": "Luxembourg Franc",
        "ALPHABETIC CODE": "LUF",
        "NUMERIC CODE": "442"
    },
    {
        "ENTITY": "Macau",
        "CURRENCY": "Pataca",
        "ALPHABETIC CODE": "MOP",
        "NUMERIC CODE": "446"
    },
    {
        "ENTITY": "Macedonia, The Former Yugoslav Republic Of",
        "CURRENCY": "Denar",
        "ALPHABETIC CODE": "MKD",
        "NUMERIC CODE": "807"
    },
    {
        "ENTITY": "Madagascar",
        "CURRENCY": "Malagasy Franc",
        "ALPHABETIC CODE": "MGF",
        "NUMERIC CODE": "450"
    },
    {
        "ENTITY": "Malawi",
        "CURRENCY": "Kwacha",
        "ALPHABETIC CODE": "MWK",
        "NUMERIC CODE": "454"
    },
    {
        "ENTITY": "Malaysia",
        "CURRENCY": "Malaysian Ringgit",
        "ALPHABETIC CODE": "MYR",
        "NUMERIC CODE": "458"
    },
    {
        "ENTITY": "Maldives",
        "CURRENCY": "Rufiyaa",
        "ALPHABETIC CODE": "MVR",
        "NUMERIC CODE": "462"
    },
    {
        "ENTITY": "Mali",
        "CURRENCY": "CFA Franc BCEAO",
        "ALPHABETIC CODE": "XOF",
        "NUMERIC CODE": "952"
    },
    {
        "ENTITY": "Malta",
        "CURRENCY": "Maltese Lira",
        "ALPHABETIC CODE": "MTL",
        "NUMERIC CODE": "470"
    },
    {
        "ENTITY": "Marshall Islands",
        "CURRENCY": "US Dollar",
        "ALPHABETIC CODE": "USD",
        "NUMERIC CODE": "840"
    },
    {
        "ENTITY": "Martinique",
        "CURRENCY": "French Franc",
        "ALPHABETIC CODE": "FRF",
        "NUMERIC CODE": "250"
    },
    {
        "ENTITY": "Mauritania",
        "CURRENCY": "Ouguiya",
        "ALPHABETIC CODE": "MRO",
        "NUMERIC CODE": "478"
    },
    {
        "ENTITY": "Mauritius",
        "CURRENCY": "Mauritius Rupee",
        "ALPHABETIC CODE": "MUR",
        "NUMERIC CODE": "480"
    },
    {
        "ENTITY": "Mexico",
        "CURRENCY": "Mexican Peso",
        "ALPHABETIC CODE": "MXN",
        "NUMERIC CODE": "484"
    },
    {
        "ENTITY": "",
        "CURRENCY": "Mexican Unidad de Inversion (UDI)",
        "ALPHABETIC CODE": "MXV",
        "NUMERIC CODE": "979"
    },
    {
        "ENTITY": "Micronesia",
        "CURRENCY": "US Dollar",
        "ALPHABETIC CODE": "USD",
        "NUMERIC CODE": "840"
    },
    {
        "ENTITY": "Moldova, Republic Of",
        "CURRENCY": "Moldovan Leu",
        "ALPHABETIC CODE": "MDL",
        "NUMERIC CODE": "498"
    },
    {
        "ENTITY": "Monaco",
        "CURRENCY": "French Franc",
        "ALPHABETIC CODE": "FRF",
        "NUMERIC CODE": "250"
    },
    {
        "ENTITY": "Mongolia",
        "CURRENCY": "Tugrik",
        "ALPHABETIC CODE": "MNT",
        "NUMERIC CODE": "496"
    },
    {
        "ENTITY": "Montserrat",
        "CURRENCY": "East Caribbean Dollar",
        "ALPHABETIC CODE": "XCD",
        "NUMERIC CODE": "951"
    },
    {
        "ENTITY": "Morocco",
        "CURRENCY": "Moroccan Dirham",
        "ALPHABETIC CODE": "MAD",
        "NUMERIC CODE": "504"
    },
    {
        "ENTITY": "Mozambique",
        "CURRENCY": "Metical",
        "ALPHABETIC CODE": "MZM",
        "NUMERIC CODE": "508"
    },
    {
        "ENTITY": "Myanmar",
        "CURRENCY": "Kyat",
        "ALPHABETIC CODE": "MMK",
        "NUMERIC CODE": "104"
    },
    {
        "ENTITY": "Namibia",
        "CURRENCY": "Rand",
        "ALPHABETIC CODE": "ZAR",
        "NUMERIC CODE": "710"
    },
    {
        "ENTITY": "",
        "CURRENCY": "Namibia Dollar",
        "ALPHABETIC CODE": "NAD",
        "NUMERIC CODE": "516"
    },
    {
        "ENTITY": "Nauru",
        "CURRENCY": "Australian Dollar",
        "ALPHABETIC CODE": "AUD",
        "NUMERIC CODE": "36"
    },
    {
        "ENTITY": "Nepal",
        "CURRENCY": "Nepalese Rupee",
        "ALPHABETIC CODE": "NPR",
        "NUMERIC CODE": "524"
    },
    {
        "ENTITY": "Netherlands",
        "CURRENCY": "Netherlands Guilder",
        "ALPHABETIC CODE": "NLG",
        "NUMERIC CODE": "528"
    },
    {
        "ENTITY": "Netherlands Antilles",
        "CURRENCY": "Antillian Guilder",
        "ALPHABETIC CODE": "ANG",
        "NUMERIC CODE": "532"
    },
    {
        "ENTITY": "New Caledonia",
        "CURRENCY": "CFP Franc",
        "ALPHABETIC CODE": "XPF",
        "NUMERIC CODE": "953"
    },
    {
        "ENTITY": "New Zealand",
        "CURRENCY": "New Zealand Dollar",
        "ALPHABETIC CODE": "NZD",
        "NUMERIC CODE": "554"
    },
    {
        "ENTITY": "Nicaragua",
        "CURRENCY": "Cordoba Oro",
        "ALPHABETIC CODE": "NIO",
        "NUMERIC CODE": "558"
    },
    {
        "ENTITY": "Niger",
        "CURRENCY": "CFA Franc BCEAO",
        "ALPHABETIC CODE": "XOF",
        "NUMERIC CODE": "952"
    },
    {
        "ENTITY": "Nigeria",
        "CURRENCY": "Naira",
        "ALPHABETIC CODE": "NGN",
        "NUMERIC CODE": "566"
    },
    {
        "ENTITY": "Niue",
        "CURRENCY": "New Zealand Dollar",
        "ALPHABETIC CODE": "NZD",
        "NUMERIC CODE": "554"
    },
    {
        "ENTITY": "Norfolk Island",
        "CURRENCY": "Australian Dollar",
        "ALPHABETIC CODE": "AUD",
        "NUMERIC CODE": "36"
    },
    {
        "ENTITY": "Northern Mariana Islands",
        "CURRENCY": "US Dollar",
        "ALPHABETIC CODE": "USD",
        "NUMERIC CODE": "840"
    },
    {
        "ENTITY": "Norway",
        "CURRENCY": "Norwegian Krone",
        "ALPHABETIC CODE": "NOK",
        "NUMERIC CODE": "578"
    },
    {
        "ENTITY": "Oman",
        "CURRENCY": "Rial Omani",
        "ALPHABETIC CODE": "OMR",
        "NUMERIC CODE": "512"
    },
    {
        "ENTITY": "Pakistan",
        "CURRENCY": "Pakistan Rupee",
        "ALPHABETIC CODE": "PKR",
        "NUMERIC CODE": "586"
    },
    {
        "ENTITY": "Palau",
        "CURRENCY": "US Dollar",
        "ALPHABETIC CODE": "USD",
        "NUMERIC CODE": "840"
    },
    {
        "ENTITY": "Panama",
        "CURRENCY": "Balboa",
        "ALPHABETIC CODE": "PAB",
        "NUMERIC CODE": "590"
    },
    {
        "ENTITY": "",
        "CURRENCY": "US Dollar",
        "ALPHABETIC CODE": "USD",
        "NUMERIC CODE": "840"
    },
    {
        "ENTITY": "Papua New Guinea",
        "CURRENCY": "Kina",
        "ALPHABETIC CODE": "PGK",
        "NUMERIC CODE": "598"
    },
    {
        "ENTITY": "Paraguay",
        "CURRENCY": "Guarani",
        "ALPHABETIC CODE": "PYG",
        "NUMERIC CODE": "600"
    },
    {
        "ENTITY": "Peru",
        "CURRENCY": "Nuevo Sol",
        "ALPHABETIC CODE": "PEN",
        "NUMERIC CODE": "604"
    },
    {
        "ENTITY": "Philippines",
        "CURRENCY": "Philippine Peso",
        "ALPHABETIC CODE": "PHP",
        "NUMERIC CODE": "608"
    },
    {
        "ENTITY": "Pitcairn",
        "CURRENCY": "New Zealand Dollar",
        "ALPHABETIC CODE": "NZD",
        "NUMERIC CODE": "554"
    },
    {
        "ENTITY": "Poland",
        "CURRENCY": "Zloty",
        "ALPHABETIC CODE": "PLN",
        "NUMERIC CODE": "985"
    },
    {
        "ENTITY": "Portugal",
        "CURRENCY": "Portuguese Escudo",
        "ALPHABETIC CODE": "PTE",
        "NUMERIC CODE": "620"
    },
    {
        "ENTITY": "Puerto Rico",
        "CURRENCY": "US Dollar",
        "ALPHABETIC CODE": "USD",
        "NUMERIC CODE": "840"
    },
    {
        "ENTITY": "Qatar",
        "CURRENCY": "Qatari Rial",
        "ALPHABETIC CODE": "QAR",
        "NUMERIC CODE": "634"
    },
    {
        "ENTITY": "Reunion",
        "CURRENCY": "French Franc",
        "ALPHABETIC CODE": "FRF",
        "NUMERIC CODE": "250"
    },
    {
        "ENTITY": "Romania",
        "CURRENCY": "Leu",
        "ALPHABETIC CODE": "ROL",
        "NUMERIC CODE": "642"
    },
    {
        "ENTITY": "Russian Federation",
        "CURRENCY": "Russian Ruble",
        "ALPHABETIC CODE": "RUR",
        "NUMERIC CODE": "810"
    },
    {
        "ENTITY": "",
        "CURRENCY": "Russian Ruble",
        "ALPHABETIC CODE": "RUB",
        "NUMERIC CODE": "643"
    },
    {
        "ENTITY": "Rwanda",
        "CURRENCY": "Rwanda Franc",
        "ALPHABETIC CODE": "RWF",
        "NUMERIC CODE": "646"
    },
    {
        "ENTITY": "St Helena",
        "CURRENCY": "St Helena Pound",
        "ALPHABETIC CODE": "SHP",
        "NUMERIC CODE": "654"
    },
    {
        "ENTITY": "St Kitts - Nevis",
        "CURRENCY": "East Caribbean Dollar",
        "ALPHABETIC CODE": "XCD",
        "NUMERIC CODE": "951"
    },
    {
        "ENTITY": "Saint Lucia",
        "CURRENCY": "East Caribbean Dollar",
        "ALPHABETIC CODE": "XCD",
        "NUMERIC CODE": "951"
    },
    {
        "ENTITY": "St Pierre and Miquelon",
        "CURRENCY": "French Franc",
        "ALPHABETIC CODE": "FRF",
        "NUMERIC CODE": "250"
    },
    {
        "ENTITY": "Saint Vincent and The Grenadines",
        "CURRENCY": "East Caribbean Dollar",
        "ALPHABETIC CODE": "XCD",
        "NUMERIC CODE": "951"
    },
    {
        "ENTITY": "Samoa",
        "CURRENCY": "Tala",
        "ALPHABETIC CODE": "WST",
        "NUMERIC CODE": "882"
    },
    {
        "ENTITY": "San Marino",
        "CURRENCY": "Italian Lira",
        "ALPHABETIC CODE": "ITL",
        "NUMERIC CODE": "380"
    },
    {
        "ENTITY": "Sao Tome and Principe",
        "CURRENCY": "Dobra",
        "ALPHABETIC CODE": "STD",
        "NUMERIC CODE": "678"
    },
    {
        "ENTITY": "Saudi Arabia",
        "CURRENCY": "Saudi Riyal",
        "ALPHABETIC CODE": "SAR",
        "NUMERIC CODE": "682"
    },
    {
        "ENTITY": "Senegal",
        "CURRENCY": "CFA Franc BCEAO",
        "ALPHABETIC CODE": "XOF",
        "NUMERIC CODE": "952"
    },
    {
        "ENTITY": "Seychelles",
        "CURRENCY": "Seychelles Rupee",
        "ALPHABETIC CODE": "SCR",
        "NUMERIC CODE": "690"
    },
    {
        "ENTITY": "Sierra Leone",
        "CURRENCY": "Leone",
        "ALPHABETIC CODE": "SLL",
        "NUMERIC CODE": "694"
    },
    {
        "ENTITY": "Singapore",
        "CURRENCY": "Singapore Dollar",
        "ALPHABETIC CODE": "SGD",
        "NUMERIC CODE": "702"
    },
    {
        "ENTITY": "Slovakia",
        "CURRENCY": "Slovak Koruna",
        "ALPHABETIC CODE": "SKK",
        "NUMERIC CODE": "703"
    },
    {
        "ENTITY": "Slovenia",
        "CURRENCY": "Tolar",
        "ALPHABETIC CODE": "SIT",
        "NUMERIC CODE": "705"
    },
    {
        "ENTITY": "Solomon Islands",
        "CURRENCY": "Solomon Islands Dollar",
        "ALPHABETIC CODE": "SBD",
        "NUMERIC CODE": "90"
    },
    {
        "ENTITY": "Somalia",
        "CURRENCY": "Somali Shilling",
        "ALPHABETIC CODE": "SOS",
        "NUMERIC CODE": "706"
    },
    {
        "ENTITY": "South Africa",
        "CURRENCY": "Rand",
        "ALPHABETIC CODE": "ZAR",
        "NUMERIC CODE": "710"
    },
    {
        "ENTITY": "Spain",
        "CURRENCY": "Spanish Peseta",
        "ALPHABETIC CODE": "ESP",
        "NUMERIC CODE": "724"
    },
    {
        "ENTITY": "Sri Lanka",
        "CURRENCY": "Sri Lanka Rupee",
        "ALPHABETIC CODE": "LKR",
        "NUMERIC CODE": "144"
    },
    {
        "ENTITY": "Sudan",
        "CURRENCY": "Sudanese Dinar",
        "ALPHABETIC CODE": "SDD",
        "NUMERIC CODE": "736"
    },
    {
        "ENTITY": "Suriname",
        "CURRENCY": "Surinam Guilder",
        "ALPHABETIC CODE": "SRG",
        "NUMERIC CODE": "740"
    },
    {
        "ENTITY": "Svalbard and Jan Mayen Islands",
        "CURRENCY": "Norwegian Krone",
        "ALPHABETIC CODE": "NOK",
        "NUMERIC CODE": "578"
    },
    {
        "ENTITY": "Swaziland",
        "CURRENCY": "Lilangeni",
        "ALPHABETIC CODE": "SZL",
        "NUMERIC CODE": "748"
    },
    {
        "ENTITY": "Sweden",
        "CURRENCY": "Swedish Krona",
        "ALPHABETIC CODE": "SEK",
        "NUMERIC CODE": "752"
    },
    {
        "ENTITY": "Switzerland",
        "CURRENCY": "Swiss Franc",
        "ALPHABETIC CODE": "CHF",
        "NUMERIC CODE": "756"
    },
    {
        "ENTITY": "Syrian Arab Republic",
        "CURRENCY": "Syrian Pound",
        "ALPHABETIC CODE": "SYP",
        "NUMERIC CODE": "760"
    },
    {
        "ENTITY": "Taiwan, Province Of China",
        "CURRENCY": "New Taiwan Dollar",
        "ALPHABETIC CODE": "TWD",
        "NUMERIC CODE": "901"
    },
    {
        "ENTITY": "Tajikistan",
        "CURRENCY": "Somoni",
        "ALPHABETIC CODE": "TJS",
        "NUMERIC CODE": "972"
    },
    {
        "ENTITY": "Tajikistan (Old)",
        "CURRENCY": "Tajik Ruble (old)",
        "ALPHABETIC CODE": "TJR",
        "NUMERIC CODE": "762"
    },
    {
        "ENTITY": "Tanzania, United Republic Of",
        "CURRENCY": "Tanzanian Shilling",
        "ALPHABETIC CODE": "TZS",
        "NUMERIC CODE": "834"
    },
    {
        "ENTITY": "Thailand",
        "CURRENCY": "Baht",
        "ALPHABETIC CODE": "THB",
        "NUMERIC CODE": "764"
    },
    {
        "ENTITY": "Togo",
        "CURRENCY": "CFA Franc BCEAO",
        "ALPHABETIC CODE": "XOF",
        "NUMERIC CODE": "952"
    },
    {
        "ENTITY": "Tokelau",
        "CURRENCY": "New Zealand Dollar",
        "ALPHABETIC CODE": "NZD",
        "NUMERIC CODE": "554"
    },
    {
        "ENTITY": "Tonga",
        "CURRENCY": "Pa'anga",
        "ALPHABETIC CODE": "TOP",
        "NUMERIC CODE": "776"
    },
    {
        "ENTITY": "Trinidad and Tobago",
        "CURRENCY": "Trinidad and Tobago Dollar",
        "ALPHABETIC CODE": "TTD",
        "NUMERIC CODE": "780"
    },
    {
        "ENTITY": "Tunisia",
        "CURRENCY": "Tunisian Dinar",
        "ALPHABETIC CODE": "TND",
        "NUMERIC CODE": "788"
    },
    {
        "ENTITY": "Turkey",
        "CURRENCY": "Turkish Lira",
        "ALPHABETIC CODE": "TRL",
        "NUMERIC CODE": "792"
    },
    {
        "ENTITY": "Turkmenistan",
        "CURRENCY": "Manat",
        "ALPHABETIC CODE": "TMM",
        "NUMERIC CODE": "795"
    },
    {
        "ENTITY": "Turks and Caicos Islands",
        "CURRENCY": "US Dollar",
        "ALPHABETIC CODE": "USD",
        "NUMERIC CODE": "840"
    },
    {
        "ENTITY": "Tuvalu",
        "CURRENCY": "Australian Dollar",
        "ALPHABETIC CODE": "AUD",
        "NUMERIC CODE": "36"
    },
    {
        "ENTITY": "Uganda",
        "CURRENCY": "Uganda Shilling",
        "ALPHABETIC CODE": "UGX",
        "NUMERIC CODE": "800"
    },
    {
        "ENTITY": "Ukraine",
        "CURRENCY": "Hryvnia",
        "ALPHABETIC CODE": "UAH",
        "NUMERIC CODE": "980"
    },
    {
        "ENTITY": "United Arab Emirates",
        "CURRENCY": "UAE Dirham",
        "ALPHABETIC CODE": "AED",
        "NUMERIC CODE": "784"
    },
    {
        "ENTITY": "United Kingdom",
        "CURRENCY": "Pound Sterling",
        "ALPHABETIC CODE": "GBP",
        "NUMERIC CODE": "826"
    },
    {
        "ENTITY": "United States",
        "CURRENCY": "US Dollar",
        "ALPHABETIC CODE": "USD",
        "NUMERIC CODE": "840"
    },
    {
        "ENTITY": "",
        "CURRENCY": "(Same day)",
        "ALPHABETIC CODE": "USS",
        "NUMERIC CODE": "998"
    },
    {
        "ENTITY": "",
        "CURRENCY": "(Next day)",
        "ALPHABETIC CODE": "USN",
        "NUMERIC CODE": "997"
    },
    {
        "ENTITY": "United States Minor Outlaying Islands",
        "CURRENCY": "US Dollar",
        "ALPHABETIC CODE": "USD",
        "NUMERIC CODE": "840"
    },
    {
        "ENTITY": "Uruguay",
        "CURRENCY": "Peso Uruguayo",
        "ALPHABETIC CODE": "UYU",
        "NUMERIC CODE": "858"
    },
    {
        "ENTITY": "Uzbekistan",
        "CURRENCY": "Uzbekistan Sum",
        "ALPHABETIC CODE": "UZS",
        "NUMERIC CODE": "860"
    },
    {
        "ENTITY": "Vanuatu",
        "CURRENCY": "Vatu",
        "ALPHABETIC CODE": "VUV",
        "NUMERIC CODE": "548"
    },
    {
        "ENTITY": "Vatican City State (Holy See)",
        "CURRENCY": "Italian Lira",
        "ALPHABETIC CODE": "ITL",
        "NUMERIC CODE": "380"
    },
    {
        "ENTITY": "Venezuela",
        "CURRENCY": "Bolivar",
        "ALPHABETIC CODE": "VEB",
        "NUMERIC CODE": "862"
    },
    {
        "ENTITY": "Vietnam",
        "CURRENCY": "Dong",
        "ALPHABETIC CODE": "VND",
        "NUMERIC CODE": "704"
    },
    {
        "ENTITY": "Virgin Islands (British)",
        "CURRENCY": "US Dollar",
        "ALPHABETIC CODE": "USD",
        "NUMERIC CODE": "840"
    },
    {
        "ENTITY": "Virgin Islands (U.S.)",
        "CURRENCY": "US Dollar",
        "ALPHABETIC CODE": "USD",
        "NUMERIC CODE": "840"
    },
    {
        "ENTITY": "Wallis and Futuna Islands",
        "CURRENCY": "CFP Franc",
        "ALPHABETIC CODE": "XPF",
        "NUMERIC CODE": "953"
    },
    {
        "ENTITY": "Western Sahara",
        "CURRENCY": "Moroccan Dirham",
        "ALPHABETIC CODE": "MAD",
        "NUMERIC CODE": "504"
    },
    {
        "ENTITY": "Yemen",
        "CURRENCY": "Yemeni Rial",
        "ALPHABETIC CODE": "YER",
        "NUMERIC CODE": "886"
    },
    {
        "ENTITY": "Yugoslavia",
        "CURRENCY": "New Dinar",
        "ALPHABETIC CODE": "YUM",
        "NUMERIC CODE": "891"
    },
    {
        "ENTITY": "Zaire",
        "CURRENCY": "New Zaire",
        "ALPHABETIC CODE": "ZRN",
        "NUMERIC CODE": "180"
    },
    {
        "ENTITY": "Zambia",
        "CURRENCY": "Kwacha",
        "ALPHABETIC CODE": "ZMK",
        "NUMERIC CODE": "894"
    },
    {
        "ENTITY": "Zimbabwe",
        "CURRENCY": "Zimbabwe Dollar",
        "ALPHABETIC CODE": "ZWD",
        "NUMERIC CODE": "716"
    },
    {
        "ENTITY": "",
        "CURRENCY": "",
        "ALPHABETIC CODE": "",
        "NUMERIC CODE": ""
    },
    {
        "ENTITY": "",
        "CURRENCY": "Gold Bond Markets Units",
        "ALPHABETIC CODE": "XAU",
        "NUMERIC CODE": "959"
    },
    {
        "ENTITY": "",
        "CURRENCY": "Bond Markets Units",
        "ALPHABETIC CODE": "",
        "NUMERIC CODE": ""
    },
    {
        "ENTITY": "",
        "CURRENCY": "European Composite Unit (EURCO)",
        "ALPHABETIC CODE": "XBA",
        "NUMERIC CODE": "955"
    },
    {
        "ENTITY": "",
        "CURRENCY": "European Monetary Unit (E.M.U.-6)",
        "ALPHABETIC CODE": "XBB",
        "NUMERIC CODE": "956"
    },
    {
        "ENTITY": "",
        "CURRENCY": "European Unit of Account 9 (E.U.A.- 9)",
        "ALPHABETIC CODE": "XBC",
        "NUMERIC CODE": "957"
    },
    {
        "ENTITY": "",
        "CURRENCY": "European Unit of Account 17 (E.U.A.- 17)",
        "ALPHABETIC CODE": "XBD",
        "NUMERIC CODE": "958"
    },
    {
        "ENTITY": "",
        "CURRENCY": "Palladium",
        "ALPHABETIC CODE": "XPD",
        "NUMERIC CODE": "964"
    },
    {
        "ENTITY": "",
        "CURRENCY": "Platinum",
        "ALPHABETIC CODE": "XPT",
        "NUMERIC CODE": "962"
    },
    {
        "ENTITY": "",
        "CURRENCY": "Silver",
        "ALPHABETIC CODE": "XAG",
        "NUMERIC CODE": "961"
    },
    {
        "ENTITY": "",
        "CURRENCY": "",
        "ALPHABETIC CODE": "",
        "NUMERIC CODE": ""
    },
    {
        "ENTITY": "",
        "CURRENCY": "Special settlement currencies",
        "ALPHABETIC CODE": "",
        "NUMERIC CODE": ""
    },
    {
        "ENTITY": "",
        "CURRENCY": "UIC-Franc",
        "ALPHABETIC CODE": "XFU",
        "NUMERIC CODE": "Nil"
    },
    {
        "ENTITY": "",
        "CURRENCY": "Gold-Franc",
        "ALPHABETIC CODE": "XFO",
        "NUMERIC CODE": "Nil"
    },
    {
        "ENTITY": "",
        "CURRENCY": "Codes specifically reserved for testing purposes",
        "ALPHABETIC CODE": "XTS",
        "NUMERIC CODE": "963"
    },
    {
        "ENTITY": "",
        "CURRENCY": "The codes assigned for transactions where no currency is involved are:",
        "ALPHABETIC CODE": "XXX",
        "NUMERIC CODE": "999"
    },
    {
        "ENTITY": "",
        "CURRENCY": "Euro",
        "ALPHABETIC CODE": "EUR",
        "NUMERIC CODE": "978"
    }
]