[
    {
        "Company": "Sony / Sony Pictures",
        "Industry": "Audio & Video Equipment",
        "Sales": "$71 bil"
    },
    {
        "Company": "Dell",
        "Industry": "Computer Hardware",
        "Sales": "$47 bil"
    },
    {
        "Company": "Hitachi",
        "Industry": "Electronic Equipment",
        "Sales": "$83 bil"
    },
    {
        "Company": "Hewlett-Packard Company",
        "Industry": "Diversified Computer Systems",
        "Sales": "$78 bil"
    },
    {
        "Company": "Panasonic (Matsushita)",
        "Industry": "Electronics",
        "Sales": "$36 bil"
    },
    {
        "Company": "Pioneer",
        "Industry": "Electronic Equipment",
        "Sales": "$7 bil"
    },
    {
        "Company": "Philips",
        "Industry": "Electronic Equipment",
        "Sales": "$38 bil"
    },
    {
        "Company": "Samsung",
        "Industry": "Electronics",
        "Sales": "$41 bil"
    },
    {
        "Company": "Metro-Goldwyn-Mayer Inc. (MGM)",
        "Industry": "Move Production, Theaters",
        "Sales": "$2 bil"
    },
    {
        "Company": "The Walt Disney Co.",
        "Industry": "Entertainment - Diversified",
        "Sales": "$30 bil"
    }
]