[
    {
        "col 1": "Empedocles",
        "col 2": "c.B.C. - c.430 B.C.",
        "col 3": "Came up with four kinds of matter: air, earth, fire, water"
    },
    {
        "col 1": "Johann Gutenberg",
        "col 2": "c.1397-c.1468",
        "col 3": "printing press"
    },
    {
        "col 1": "Georg Bauer (Agricola)",
        "col 2": "1494-1555",
        "col 3": "mining and metallurgy book"
    },
    {
        "col 1": "Andreas Vesalius",
        "col 2": "1514-1603",
        "col 3": "Anatomist"
    },
    {
        "col 1": "William Gilbert",
        "col 2": "1540/4-1603",
        "col 3": "electricity and magnetism"
    },
    {
        "col 1": "Henri Poincare",
        "col 2": "1854-1912",
        "col 3": ""
    },
    {
        "col 1": "Arrhenius",
        "col 2": "",
        "col 3": ""
    },
    {
        "col 1": "Marie and Pierre Curie",
        "col 2": "",
        "col 3": "Shared 1903 Nobel prize"
    },
    {
        "col 1": "Laplace",
        "col 2": "",
        "col 3": ""
    },
    {
        "col 1": "Legendre",
        "col 2": "",
        "col 3": ""
    },
    {
        "col 1": "Edmund Halley",
        "col 2": "1656-1742",
        "col 3": "At 22 years old one of the most renowned astronomers"
    },
    {
        "col 1": "Jean Le Rond d?Alembert",
        "col 2": "11/1717-1783",
        "col 3": "French mathematician and philosopher. Figured out the precession of equinoxes"
    },
    {
        "col 1": "Marcello Malpighi",
        "col 2": "1628-1694",
        "col 3": "used the microscope to view capillaries and glands"
    },
    {
        "col 1": "Daniel Bernoulli",
        "col 2": "1700-1782",
        "col 3": "Bernoulli?s principle"
    },
    {
        "col 1": "Henry Cavendish",
        "col 2": "1731-1810",
        "col 3": "Measured Newton?s gravitational constant"
    },
    {
        "col 1": "Charles Augustin de Coulomb",
        "col 2": "1736-1806",
        "col 3": "elasticity"
    },
    {
        "col 1": "Joseph-Louis Lagrange",
        "col 2": "1736-1813",
        "col 3": "prof. of geometry at an artillery academy when he was 18. Analytic al mechanics"
    },
    {
        "col 1": "James Watt",
        "col 2": "1736-1819",
        "col 3": "steam engine"
    },
    {
        "col 1": "Claude Louis Berthollet",
        "col 2": "1748-1822",
        "col 3": ""
    },
    {
        "col 1": "Antoine Francois de Fourcroy",
        "col 2": "1755-1809",
        "col 3": ""
    },
    {
        "col 1": "James Smithson",
        "col 2": "1765-1829",
        "col 3": "English Chemist and mineralogist. Founded the Smithsonian Institution"
    },
    {
        "col 1": "Joseph Fourier",
        "col 2": "1768-1830",
        "col 3": "heat diffusion"
    },
    {
        "col 1": "Jean-Baptiste Biot",
        "col 2": "1774-1862",
        "col 3": "light polarization"
    },
    {
        "col 1": "Amadeo Avogadro",
        "col 2": "1776-1856",
        "col 3": "Avogadro?s number"
    },
    {
        "col 1": "David Brewster",
        "col 2": "1781-1868",
        "col 3": "Brewster?s Law of light"
    },
    {
        "col 1": "Augustin-Jean Fresnel",
        "col 2": "1788-1827",
        "col 3": "transverse nature of light"
    },
    {
        "col 1": "Georg Ohm",
        "col 2": "1789-1854",
        "col 3": "Ohm?s Law V = IR"
    },
    {
        "col 1": "Felix Savart",
        "col 2": "1791-1841",
        "col 3": "electromagnetism"
    },
    {
        "col 1": "Gabriel Lame",
        "col 2": "1795-1870",
        "col 3": "mathematical Lame?s functions"
    },
    {
        "col 1": "Sadi Carnot",
        "col 2": "1796-1832",
        "col 3": "thermodynamics"
    },
    {
        "col 1": "Joseph Henry",
        "col 2": "1797-1878",
        "col 3": "electromagnetics"
    },
    {
        "col 1": "Christian Doppler",
        "col 2": "1803-1853",
        "col 3": "sound waves"
    },
    {
        "col 1": "Wilhelm E. Weber",
        "col 2": "1804-1891",
        "col 3": "sensitive magnetometers"
    },
    {
        "col 1": "William Hamilton",
        "col 2": "1805-1865",
        "col 3": "Hamiltonian classical mechanics"
    },
    {
        "col 1": "Johann von Lamont",
        "col 2": "1805-1879",
        "col 3": "astronomer and magnetician"
    },
    {
        "col 1": "Karl Weierstrass",
        "col 2": "1815-1897",
        "col 3": ""
    },
    {
        "col 1": "Armand-Hippolyte-Louis Fizeau",
        "col 2": "1819-1896",
        "col 3": "First measured the speed of list"
    },
    {
        "col 1": "Jean-Bernard-Leon Foucault",
        "col 2": "1819-1868",
        "col 3": "accurately measured the speed of light"
    },
    {
        "col 1": "Hermann von Helmholtz",
        "col 2": "1821-1894",
        "col 3": "First Law of Thermodynamics: energy is conserved"
    },
    {
        "col 1": "Rudolf Clausius",
        "col 2": "1822-1888",
        "col 3": "Second Law of Thermo. entropy never decreases"
    },
    {
        "col 1": "Joseph Leidy",
        "col 2": "1823-1891",
        "col 3": "anatomy"
    },
    {
        "col 1": "Gustav Lirchhoff",
        "col 2": "1824-1887",
        "col 3": "Three laws of spectral analysis"
    },
    {
        "col 1": "Johann Balmer",
        "col 2": "1825-1898",
        "col 3": "Hydrogen spectrum"
    },
    {
        "col 1": "Bayer",
        "col 2": "",
        "col 3": "chemist"
    },
    {
        "col 1": "Enrico Fermi",
        "col 2": "1901-1954",
        "col 3": "atomic physics"
    },
    {
        "col 1": "Navier",
        "col 2": "",
        "col 3": "fluid dynamics"
    },
    {
        "col 1": "Lamarck",
        "col 2": "",
        "col 3": "Lamarckian example: giraffes constantly stretching their necks caused offspring to have longer necks"
    },
    {
        "col 1": "Sir Edward Frankland",
        "col 2": "1825-1899",
        "col 3": "chemist, valence theory"
    },
    {
        "col 1": "Percy Faraday Frankland",
        "col 2": "1858-1946",
        "col 3": "son of Edward"
    },
    {
        "col 1": "William Suddards Franklin",
        "col 2": "1863-1930",
        "col 3": ""
    },
    {
        "col 1": "Emile-Michel-Hyacinthe Lemoine",
        "col 2": "1840-1912",
        "col 3": "mathematician and engineer. Also a musician"
    },
    {
        "col 1": "Sir James George Frazier",
        "col 2": "1854-1941",
        "col 3": "anthropologist, author of The Golden Bow"
    },
    {
        "col 1": "Irving Langmuir",
        "col 2": "1881-1857",
        "col 3": "Nobel prize chemist"
    },
    {
        "col 1": "Rumford",
        "col 2": "",
        "col 3": ""
    },
    {
        "col 1": "Charles Friedel",
        "col 2": "1932-1899",
        "col 3": "Chemist"
    },
    {
        "col 1": "James Mason Crafts",
        "col 2": "",
        "col 3": "Chemist"
    },
    {
        "col 1": "Johann Heinrich Lambert",
        "col 2": "1827-1777",
        "col 3": "mathematician, physicist, astronomer, proved the irrationality of pi, hyperbolic trig functions, theorems on conics, theoretical photometry"
    },
    {
        "col 1": "Joseph WIlson Swan",
        "col 2": "1828-1914",
        "col 3": "carbon-filament incandescent light"
    },
    {
        "col 1": "Alfred Nobel",
        "col 2": "1833-1896",
        "col 3": "Started the Nobel prizes, with the money he made from inventing dynamite. 355 patents."
    },
    {
        "col 1": "Joseph Stefan",
        "col 2": "1835-1893",
        "col 3": "blackbody radiation"
    },
    {
        "col 1": "Ernst Mach",
        "col 2": "1838-1916",
        "col 3": "Refused to believe in atoms"
    },
    {
        "col 1": "Joseph Dewar",
        "col 2": "1842-1923",
        "col 3": "Liquified nitrogen, Dewar flask"
    },
    {
        "col 1": "Charles Lapworth",
        "col 2": "1842-1920",
        "col 3": "catalogued Ordovician strata"
    },
    {
        "col 1": "Ludwig Boltzmann",
        "col 2": "1844-1906",
        "col 3": "statistical mechanics"
    },
    {
        "col 1": "Georg Cantor",
        "col 2": "1845-1918",
        "col 3": ""
    },
    {
        "col 1": "WIllard F. Libby",
        "col 2": "1908-1980",
        "col 3": "1960 Nobel prize for radiocarbon dating"
    },
    {
        "col 1": "Roland Eotvos",
        "col 2": "1848-1919",
        "col 3": "gravitational and inertial mass equivalent"
    },
    {
        "col 1": "Roderick Murchison",
        "col 2": "",
        "col 3": "geologist"
    },
    {
        "col 1": "Sir Horace Lamb",
        "col 2": "1849-1934",
        "col 3": "math, hydrodynamics, wave theory"
    },
    {
        "col 1": "Ferdinand Georg Frobenius",
        "col 2": "1849-1917",
        "col 3": "mathematician"
    },
    {
        "col 1": "Oliver Heaviside",
        "col 2": "1850-1925",
        "col 3": "electromagnetism, operational calculus, vectors"
    },
    {
        "col 1": "Geroge Francis FitzGerald",
        "col 2": "1851-1901",
        "col 3": "Lorentz-FitzGerald contraction for Michelson-Morley experiment"
    },
    {
        "col 1": "John Henry Poiynting",
        "col 2": "1852-1914",
        "col 3": "Poynting?s vector for electromagnetic waves"
    },
    {
        "col 1": "Henri Poincare",
        "col 2": "1854-1912",
        "col 3": ""
    },
    {
        "col 1": "Janne Rydberg",
        "col 2": "1854-1919",
        "col 3": ""
    },
    {
        "col 1": "Edwin H. Hall",
        "col 2": "1855-1938",
        "col 3": ""
    },
    {
        "col 1": "Heinrich Hertz",
        "col 2": "1857-1894",
        "col 3": "electromagnetism"
    },
    {
        "col 1": "Nikola Tesla",
        "col 2": "1857-1943",
        "col 3": "alternating current"
    },
    {
        "col 1": "MORETOCOME",
        "col 2": "",
        "col 3": ""
    },
    {
        "col 1": "Alexander Mikhailovich Liapunov",
        "col 2": "1857-1918",
        "col 3": "mathematician"
    },
    {
        "col 1": "Sir William Maddock Bayliss",
        "col 2": "1860-1924",
        "col 3": "physiologist"
    },
    {
        "col 1": "William Shirley Bayley",
        "col 2": "1861-1943",
        "col 3": "geologist"
    },
    {
        "col 1": "Robert Thompson Leiper",
        "col 2": "1881-",
        "col 3": "biologist"
    },
    {
        "col 1": "Gilbert Newton Lewis",
        "col 2": "1875-1946",
        "col 3": "Lewis acids/bases"
    },
    {
        "col 1": "Bronsted",
        "col 2": "",
        "col 3": "chemist"
    },
    {
        "col 1": "Isidor Isaac Rabi",
        "col 2": "1898-1988",
        "col 3": "1944 Nobel Magnetic resonance"
    },
    {
        "col 1": "Otto Stern",
        "col 2": "1888-1969",
        "col 3": "1943 Nobel - magnetic moment of a proton"
    },
    {
        "col 1": "Robert Shapiro",
        "col 2": "",
        "col 3": "biochemist, wrote Origins : A Skeptics Guide to the Creation of Life on Earth"
    },
    {
        "col 1": "Chandra Wickamasinghe",
        "col 2": "",
        "col 3": ""
    },
    {
        "col 1": "Ignaz Semmelweiss",
        "col 2": "",
        "col 3": "reduced hospital mortality by having patients wash hands in chlorinated lime"
    },
    {
        "col 1": "Fred Hoyle",
        "col 2": "",
        "col 3": ""
    },
    {
        "col 1": "Morowitz",
        "col 2": "",
        "col 3": ""
    },
    {
        "col 1": "Edward Jenner",
        "col 2": "1749-1823",
        "col 3": "smallpox vaccine from cowpox. Son of a clergyman, he vaccinated many poor people for free"
    },
    {
        "col 1": "Max Born",
        "col 2": "",
        "col 3": ""
    },
    {
        "col 1": "Silliam Smith",
        "col 2": "1769-1839",
        "col 3": "Father of English geology"
    },
    {
        "col 1": "Charles Laveran",
        "col 2": "1845-1922",
        "col 3": "discovered the plasmodian that causes malaria"
    },
    {
        "col 1": "Nicola Tesla",
        "col 2": "1832-1943",
        "col 3": ""
    },
    {
        "col 1": "Ernest Rutherford",
        "col 2": "1871-1933",
        "col 3": ""
    },
    {
        "col 1": "Georg Simon Ohm",
        "col 2": "1787-1854",
        "col 3": ""
    },
    {
        "col 1": "Charles de Coulomb",
        "col 2": "1736-1806",
        "col 3": ""
    },
    {
        "col 1": "Joseph Henry",
        "col 2": "1797-1878",
        "col 3": ""
    },
    {
        "col 1": "Neinrich Rudolf Hertz",
        "col 2": "1857-1894",
        "col 3": ""
    },
    {
        "col 1": "James Prescott Joule",
        "col 2": "1818-1889",
        "col 3": ""
    },
    {
        "col 1": "Ernst Mach",
        "col 2": "1838-1916",
        "col 3": "physicist who refused to believe in atoms"
    },
    {
        "col 1": "Glenn T. Seborg",
        "col 2": "1912-1999",
        "col 3": "Shared 1951 Nobel prize in chemistry"
    },
    {
        "col 1": "George Wierstrauss",
        "col 2": "",
        "col 3": ""
    },
    {
        "col 1": "Alessandro Volta",
        "col 2": "1745-1827",
        "col 3": "Made the first battery"
    },
    {
        "col 1": "James Watt",
        "col 2": "1731-1819",
        "col 3": ""
    },
    {
        "col 1": "William Eduard Weber",
        "col 2": "1804-1891",
        "col 3": ""
    },
    {
        "col 1": "Fritz Haber",
        "col 2": "",
        "col 3": "1918 Nobel prize for ammonia synthesis"
    },
    {
        "col 1": "de Bakey",
        "col 2": "",
        "col 3": ""
    },
    {
        "col 1": "Cooley",
        "col 2": "",
        "col 3": ""
    },
    {
        "col 1": "Paul Chu",
        "col 2": "",
        "col 3": ""
    },
    {
        "col 1": "Albert A. Michelson",
        "col 2": "1852-1931",
        "col 3": "Precisely measured the speed of light. Nobel (physics)"
    },
    {
        "col 1": "Morley",
        "col 2": "",
        "col 3": ""
    },
    {
        "col 1": "Willem Einthoven",
        "col 2": "1860-1927",
        "col 3": "physiologist who invented the electrocardiogram"
    },
    {
        "col 1": "Gotthold Ferdinand Eisenstein",
        "col 2": "1823-1852",
        "col 3": "mathematician binary quadratic forms"
    },
    {
        "col 1": "Walfrid Van Ikman",
        "col 2": "1874-1954",
        "col 3": "oceanographer and physicist"
    },
    {
        "col 1": "Christaan Eijkman",
        "col 2": "1858-1939",
        "col 3": "vitamin deficiencies"
    },
    {
        "col 1": "George Theobald",
        "col 2": "1859-1934",
        "col 3": "Pathology. Killed bateria cultures can give immunity"
    },
    {
        "col 1": "Solomon Lefschetz",
        "col 2": "1884-1972",
        "col 3": "Topology"
    },
    {
        "col 1": "Frederic & Irene Joliot-Curie",
        "col 2": "1900-1958 1897-1956",
        "col 3": "co-discovered artificial radioactivity"
    },
    {
        "col 1": "John Cockcroft",
        "col 2": "1897-1967",
        "col 3": "co-invented particle accelerator"
    },
    {
        "col 1": "Anton van Leeuwenhook",
        "col 2": "1632-1723",
        "col 3": "made 250 microscopes up to 270X. First to see bacteria, protozoa, rotifers"
    },
    {
        "col 1": "Tsung Dae Lee (Chinese born American)",
        "col 2": "1926-",
        "col 3": "Nobel physicist"
    },
    {
        "col 1": "Maurice H. F. Wilkins",
        "col 2": "1916-",
        "col 3": "Shared the Nobel prize with Watson and Crick"
    },
    {
        "col 1": "Fermat",
        "col 2": "",
        "col 3": "corresponded with Pascal"
    },
    {
        "col 1": "Jack Kilby",
        "col 2": "",
        "col 3": "Nobel prize for co-inventing the transistor"
    },
    {
        "col 1": "Simon Newcout(sp?)",
        "col 2": "1835-1909",
        "col 3": "famous astronomer who taught that heavier than air flight was impossible."
    },
    {
        "col 1": "Louis-Victor de Broglie",
        "col 2": "",
        "col 3": "1929 Nobel prize in Physics"
    },
    {
        "col 1": "Paul Ehrenfest",
        "col 2": "",
        "col 3": "physicist and Einstein?s friend"
    },
    {
        "col 1": "Wheeler",
        "col 2": "",
        "col 3": ""
    },
    {
        "col 1": "WIlliam Gilbert",
        "col 2": "1544-1603",
        "col 3": "thought the earth is a giant magnet"
    },
    {
        "col 1": "Willebrod Snell",
        "col 2": "1580-1626",
        "col 3": "Snell?s Law of refraction"
    },
    {
        "col 1": "Joseph J. Thomson",
        "col 2": "",
        "col 3": "1906 Nobel (physics)"
    },
    {
        "col 1": "Conrad Lorenz",
        "col 2": "",
        "col 3": ""
    },
    {
        "col 1": "Johannes D. van der Waals",
        "col 2": "",
        "col 3": "1910 Nobel prize"
    },
    {
        "col 1": "Otto Hahn",
        "col 2": "1879-1968",
        "col 3": "1/2 1944 Nobel fission"
    },
    {
        "col 1": "Alexander Fleming",
        "col 2": "1881-1955",
        "col 3": "Observed penicillin"
    },
    {
        "col 1": "Erwin Schroedinger",
        "col 2": "1887-1961",
        "col 3": "Shared 1933 Nobel for atomic theory of wave mechanics"
    },
    {
        "col 1": "Wallace Hume Carothers",
        "col 2": "1896-1937",
        "col 3": "Chemist"
    },
    {
        "col 1": "John D. Cockroft",
        "col 2": "1897-1967",
        "col 3": "Shared 1951 Nobel transmuted elements"
    },
    {
        "col 1": "Patrick Maynard Stuart Blackett",
        "col 2": "1897-1974",
        "col 3": "developed the cloud chamber"
    },
    {
        "col 1": "Howard Walter Florey",
        "col 2": "1898-1968",
        "col 3": "co-discovered of penicillin"
    },
    {
        "col 1": "P.A.M. Dirac",
        "col 2": "",
        "col 3": ""
    },
    {
        "col 1": "Wolfgang Pauli",
        "col 2": "1900-1958",
        "col 3": "1954 Nobel Paul exclusion principle"
    },
    {
        "col 1": "Thomas Watson",
        "col 2": "",
        "col 3": ""
    },
    {
        "col 1": "Thomas R. Cech",
        "col 2": "",
        "col 3": "Shared 1989 Nobel prize for self-replicating RNA. Very careful in his speech to not say anything beyond what research demonstrates"
    },
    {
        "col 1": "Ernest Thomas Sinton Walton",
        "col 2": "1903-1995",
        "col 3": "Shared 1951 Nobel for transmuting elements"
    },
    {
        "col 1": "George Gamow (Russina-Amer.)",
        "col 2": "1904-1968",
        "col 3": "nuclear reactions in stars"
    },
    {
        "col 1": "Otto Frisch",
        "col 2": "1904-1979",
        "col 3": "Uranium fission"
    },
    {
        "col 1": "(Julius) Robert Oppenheimer",
        "col 2": "1904-1967",
        "col 3": "Worked on the atom bomb"
    },
    {
        "col 1": "Emilio Segre",
        "col 2": "1905-1989",
        "col 3": "Shared 1959 Nobel for anti-proton"
    },
    {
        "col 1": "Own Chamberlain",
        "col 2": "1920-",
        "col 3": "Shared 1959 Nobel for anti-proton"
    },
    {
        "col 1": "Nikolai Basov (Russian)",
        "col 2": "1922-2001",
        "col 3": "Theoretical basis of the maser"
    },
    {
        "col 1": "Lars Onsager",
        "col 2": "(1931)",
        "col 3": ""
    },
    {
        "col 1": "Max K.E.L. Planck",
        "col 2": "",
        "col 3": "1918 Nobel prize"
    },
    {
        "col 1": "Neils Bohr",
        "col 2": "1885-1962",
        "col 3": "1922 Nobel, electrons orbit in energy states"
    },
    {
        "col 1": "Hubble",
        "col 2": "",
        "col 3": ""
    },
    {
        "col 1": "Wilhelm Roentgen",
        "col 2": "",
        "col 3": "1901 Nobel prize"
    },
    {
        "col 1": "Antoine Cesar Becquerel",
        "col 2": "1788-1878",
        "col 3": "electrochemistry"
    },
    {
        "col 1": "Alexandre Becquerel",
        "col 2": "1820-1891",
        "col 3": ""
    },
    {
        "col 1": "Louis Alfred Becquerel",
        "col 2": "1814-1862",
        "col 3": ""
    },
    {
        "col 1": "Antoine Henri Becquerel",
        "col 2": "1852-1908",
        "col 3": "Shared 1903 Nobel prize"
    }
]