[
    {
        "Year": "2011",
        "Game": "The Elder Scrolls V: Skyrim",
        "Genre": "Open World: RPG",
        "Platform(s)": "Xbox 360, PlayStation 3, PC",
        "Developer(s)": "Bethesda Softworks"
    },
    {
        "Year": "2010",
        "Game": "Red Dead Redemption",
        "Genre": "Action Adventure",
        "Platform(s)": "PlayStation 3, Xbox 360",
        "Developer(s)": "Rockstar Games"
    },
    {
        "Year": "2009",
        "Game": "Call of Duty: Modern Warfare 2",
        "Genre": "First-person shooter, third-person shooter",
        "Platform(s)": "Microsoft Windows, PlayStation 3, Xbox 360",
        "Developer(s)": "Infinity Ward"
    },
    {
        "Year": "2008",
        "Game": "Fallout 3",
        "Genre": "RPG",
        "Platform(s)": "PlayStation 3, PC, Xbox 360",
        "Developer(s)": "Bethesda Softworks"
    },
    {
        "Year": "2007",
        "Game": "Call of Duty 4: Modern Warfare",
        "Genre": "First-person shooter",
        "Platform(s)": "PlayStation 3, Xbox 360, PC",
        "Developer(s)": "Infinity Ward"
    },
    {
        "Year": "2006",
        "Game": "The Legend of Zelda: Twilight Princess",
        "Genre": "Action-adventure",
        "Platform(s)": "Wii, Nintendo GameCube",
        "Developer(s)": "Nintendo EAD"
    },
    {
        "Year": "2005",
        "Game": "Civilization IV",
        "Genre": "Turn-based strategy game, 4X",
        "Platform(s)": "Windows, Mac OS X",
        "Developer(s)": "Firaxis Games"
    },
    {
        "Year": "2004",
        "Game": "Halo 2",
        "Genre": "First-person Shooter",
        "Platform(s)": "Windows, Xbox",
        "Developer(s)": "Bungie"
    },
    {
        "Year": "2003",
        "Game": "Star Wars: Knights of the Old Republic",
        "Genre": "RPG",
        "Platform(s)": "Xbox, Windows",
        "Developer(s)": "BioWare"
    },
    {
        "Year": "2002",
        "Game": "Metroid Prime",
        "Genre": "First-person adventure",
        "Platform(s)": "GameCube",
        "Developer(s)": "Retro Studios"
    },
    {
        "Year": "2001",
        "Game": "Grand Theft Auto III",
        "Genre": "Action",
        "Platform(s)": "PlayStation 2, Xbox, Windows",
        "Developer(s)": "DMA Design"
    },
    {
        "Year": "2000",
        "Game": "Deus Ex",
        "Genre": "Action RPG",
        "Platform(s)": "PlayStation 2, Windows, Mac OS",
        "Developer(s)": "Ion Storm Inc."
    },
    {
        "Year": "1999",
        "Game": "Unreal Tournament",
        "Genre": "First-person shooter",
        "Platform(s)": "Dreamcast, Linux, Mac OS, Mac OS X, PlayStation 2, Windows",
        "Developer(s)": "Epic Games, Digital Extremes"
    }
]