[
    {
        "Country": "United States",
        "Currency Name / Currency Code": "Dollar (USD)",
        "Rate Bank Will Buy From You:": "0.9660",
        "Rate Bank Will Sell To You:": "1.0178"
    },
    {
        "Country": "Euro",
        "Currency Name / Currency Code": "Euro (EUR)",
        "Rate Bank Will Buy From You:": "1.2525",
        "Rate Bank Will Sell To You:": "1.3594"
    },
    {
        "Country": "Great Britain",
        "Currency Name / Currency Code": "Pound (GBP)",
        "Rate Bank Will Buy From You:": "1.5200",
        "Rate Bank Will Sell To You:": "1.6250"
    },
    {
        "Country": "Switzerland",
        "Currency Name / Currency Code": "Franc (CHF)",
        "Rate Bank Will Buy From You:": "1.0379",
        "Rate Bank Will Sell To You:": "1.1269"
    },
    {
        "Country": "Japan",
        "Currency Name / Currency Code": "Yen (JPY)",
        "Rate Bank Will Buy From You:": "0.012475",
        "Rate Bank Will Sell To You:": "0.013479"
    },
    {
        "Country": "Australia",
        "Currency Name / Currency Code": "Dollar (AUD)",
        "Rate Bank Will Buy From You:": "1.0110",
        "Rate Bank Will Sell To You:": "1.1417"
    },
    {
        "Country": "New Zealand",
        "Currency Name / Currency Code": "Dollar (NZD)",
        "Rate Bank Will Buy From You:": "0.7849",
        "Rate Bank Will Sell To You:": "0.8866"
    },
    {
        "Country": "Denmark",
        "Currency Name / Currency Code": "Krone (DKK)",
        "Rate Bank Will Buy From You:": "0.1674",
        "Rate Bank Will Sell To You:": "0.1845"
    },
    {
        "Country": "Norway",
        "Currency Name / Currency Code": "Krone (NOK)",
        "Rate Bank Will Buy From You:": "0.1627",
        "Rate Bank Will Sell To You:": "0.1801"
    },
    {
        "Country": "Sweden",
        "Currency Name / Currency Code": "Krona (SEK)",
        "Rate Bank Will Buy From You:": "0.1412",
        "Rate Bank Will Sell To You:": "0.1562"
    },
    {
        "Country": "",
        "Currency Name / Currency Code": "",
        "Rate Bank Will Buy From You:": "",
        "Rate Bank Will Sell To You:": ""
    },
    {
        "Country": "Aruba",
        "Currency Name / Currency Code": "Florin (AWG)",
        "Rate Bank Will Buy From You:": "0.4601",
        "Rate Bank Will Sell To You:": "0.6090"
    },
    {
        "Country": "Austria",
        "Currency Name / Currency Code": "Schilling (ATS)",
        "Rate Bank Will Buy From You:": "0.08546",
        "Rate Bank Will Sell To You:": "Refer to Euro"
    },
    {
        "Country": "Bahamas",
        "Currency Name / Currency Code": "Dollar (BSD)",
        "Rate Bank Will Buy From You:": "N/A",
        "Rate Bank Will Sell To You:": "1.0254"
    },
    {
        "Country": "Bahrain",
        "Currency Name / Currency Code": "Dinar (BHD)",
        "Rate Bank Will Buy From You:": "2.3062",
        "Rate Bank Will Sell To You:": "2.8486"
    },
    {
        "Country": "Barbados",
        "Currency Name / Currency Code": "Dollar (BBD)",
        "Rate Bank Will Buy From You:": "0.4417",
        "Rate Bank Will Sell To You:": "0.5389"
    },
    {
        "Country": "Belgium",
        "Currency Name / Currency Code": "Franc (BEF)",
        "Rate Bank Will Buy From You:": "0.02915",
        "Rate Bank Will Sell To You:": "Refer to Euro"
    },
    {
        "Country": "Belize",
        "Currency Name / Currency Code": "Dollar (BZD)",
        "Rate Bank Will Buy From You:": "0.4526",
        "Rate Bank Will Sell To You:": "0.5389"
    },
    {
        "Country": "Bermuda",
        "Currency Name / Currency Code": "Dollar (BMD)",
        "Rate Bank Will Buy From You:": "0.8214",
        "Rate Bank Will Sell To You:": "1.0244"
    },
    {
        "Country": "Brazil",
        "Currency Name / Currency Code": "Real (BRL)",
        "Rate Bank Will Buy From You:": "0.5212",
        "Rate Bank Will Sell To You:": "0.6362"
    },
    {
        "Country": "Brunei",
        "Currency Name / Currency Code": "Dollar (BND)",
        "Rate Bank Will Buy From You:": "0.6916",
        "Rate Bank Will Sell To You:": "0.8575"
    },
    {
        "Country": "Cayman Islands",
        "Currency Name / Currency Code": "Dollar (KYD)",
        "Rate Bank Will Buy From You:": "1.0893",
        "Rate Bank Will Sell To You:": "1.2935"
    },
    {
        "Country": "Chile",
        "Currency Name / Currency Code": "Peso (CLP)",
        "Rate Bank Will Buy From You:": "0.001844",
        "Rate Bank Will Sell To You:": "0.002255"
    },
    {
        "Country": "China",
        "Currency Name / Currency Code": "Renminbi (CNY)",
        "Rate Bank Will Buy From You:": "0.1421",
        "Rate Bank Will Sell To You:": "0.1728"
    },
    {
        "Country": "Colombia",
        "Currency Name / Currency Code": "Peso (COP)",
        "Rate Bank Will Buy From You:": "0.000475",
        "Rate Bank Will Sell To You:": "0.000612"
    },
    {
        "Country": "Costa Rica",
        "Currency Name / Currency Code": "Colon (CRC)",
        "Rate Bank Will Buy From You:": "0.001797",
        "Rate Bank Will Sell To You:": "0.002182"
    },
    {
        "Country": "Cyprus",
        "Currency Name / Currency Code": "Pound (CYP)",
        "Rate Bank Will Buy From You:": "1.8348",
        "Rate Bank Will Sell To You:": "Refer to Euro"
    },
    {
        "Country": "Czech Republic",
        "Currency Name / Currency Code": "Koruna (CZK)",
        "Rate Bank Will Buy From You:": "0.04714",
        "Rate Bank Will Sell To You:": "0.05870"
    },
    {
        "Country": "Dominican Republic",
        "Currency Name / Currency Code": "Peso (DOP)",
        "Rate Bank Will Buy From You:": "0.0236",
        "Rate Bank Will Sell To You:": "0.0285"
    },
    {
        "Country": "East Caribbean",
        "Currency Name / Currency Code": "Dollar (XCD)",
        "Rate Bank Will Buy From You:": "0.3368",
        "Rate Bank Will Sell To You:": "0.4081"
    },
    {
        "Country": "Egypt",
        "Currency Name / Currency Code": "Pound (EGP)",
        "Rate Bank Will Buy From You:": "N/A",
        "Rate Bank Will Sell To You:": "N/A"
    },
    {
        "Country": "Estonia",
        "Currency Name / Currency Code": "Kroon (EEK)",
        "Rate Bank Will Buy From You:": "0.07010",
        "Rate Bank Will Sell To You:": "Refer to Euro"
    },
    {
        "Country": "Fiji",
        "Currency Name / Currency Code": "Dollar (FJD)",
        "Rate Bank Will Buy From You:": "0.5175",
        "Rate Bank Will Sell To You:": "0.6325"
    },
    {
        "Country": "Finland",
        "Currency Name / Currency Code": "Markka (FIM)",
        "Rate Bank Will Buy From You:": "N/A",
        "Rate Bank Will Sell To You:": "Refer to Euro"
    },
    {
        "Country": "France",
        "Currency Name / Currency Code": "Franc (FRF)",
        "Rate Bank Will Buy From You:": "N/A",
        "Rate Bank Will Sell To You:": "Refer to Euro"
    },
    {
        "Country": "Germany",
        "Currency Name / Currency Code": "Deutsche Mark (DEM)",
        "Rate Bank Will Buy From You:": "0.6013",
        "Rate Bank Will Sell To You:": "Refer to Euro"
    },
    {
        "Country": "Gibraltar",
        "Currency Name / Currency Code": "Pound (GIP)",
        "Rate Bank Will Buy From You:": "1.4494",
        "Rate Bank Will Sell To You:": "1.6525"
    },
    {
        "Country": "Greece",
        "Currency Name / Currency Code": "Drachma (GRD)",
        "Rate Bank Will Buy From You:": "N/A",
        "Rate Bank Will Sell To You:": "Refer to Euro"
    },
    {
        "Country": "Guatemala",
        "Currency Name / Currency Code": "Quetzal (GTQ)",
        "Rate Bank Will Buy From You:": "0.1165",
        "Rate Bank Will Sell To You:": "0.1394"
    },
    {
        "Country": "Guernsey",
        "Currency Name / Currency Code": "Pound (GSP)",
        "Rate Bank Will Buy From You:": "1.4808",
        "Rate Bank Will Sell To You:": "1.6525"
    },
    {
        "Country": "Honduras",
        "Currency Name / Currency Code": "Lempira (HNL)",
        "Rate Bank Will Buy From You:": "0.0481",
        "Rate Bank Will Sell To You:": "0.0575"
    },
    {
        "Country": "Hong Kong",
        "Currency Name / Currency Code": "Dollar (HKD)",
        "Rate Bank Will Buy From You:": "0.1197",
        "Rate Bank Will Sell To You:": "0.1376"
    },
    {
        "Country": "Hungary",
        "Currency Name / Currency Code": "Forint (HUF)",
        "Rate Bank Will Buy From You:": "0.00405",
        "Rate Bank Will Sell To You:": "0.00512"
    },
    {
        "Country": "Iceland",
        "Currency Name / Currency Code": "Krona (ISK)",
        "Rate Bank Will Buy From You:": "N/A",
        "Rate Bank Will Sell To You:": "0.01018"
    },
    {
        "Country": "India",
        "Currency Name / Currency Code": "Rupee (INR)",
        "Rate Bank Will Buy From You:": "0.01806",
        "Rate Bank Will Sell To You:": "0.02271"
    },
    {
        "Country": "Indonesia",
        "Currency Name / Currency Code": "Rupiah (IDR)",
        "Rate Bank Will Buy From You:": "0.000094",
        "Rate Bank Will Sell To You:": "0.000128"
    },
    {
        "Country": "Ireland",
        "Currency Name / Currency Code": "Punt (IEP)",
        "Rate Bank Will Buy From You:": "1.4269",
        "Rate Bank Will Sell To You:": "Refer to Euro"
    },
    {
        "Country": "Isle of Man",
        "Currency Name / Currency Code": "Pound (IMP)",
        "Rate Bank Will Buy From You:": "1.4808",
        "Rate Bank Will Sell To You:": "1.6525"
    },
    {
        "Country": "Israel",
        "Currency Name / Currency Code": "Shekel, New (ILS)",
        "Rate Bank Will Buy From You:": "0.2380",
        "Rate Bank Will Sell To You:": "0.2946"
    },
    {
        "Country": "Italy",
        "Currency Name / Currency Code": "Lira (ITL)",
        "Rate Bank Will Buy From You:": "N/A",
        "Rate Bank Will Sell To You:": "Refer to Euro"
    },
    {
        "Country": "Jamaica",
        "Currency Name / Currency Code": "Dollar (JMD)",
        "Rate Bank Will Buy From You:": "0.0103",
        "Rate Bank Will Sell To You:": "0.0131"
    },
    {
        "Country": "Jersey",
        "Currency Name / Currency Code": "Pound (JSP)",
        "Rate Bank Will Buy From You:": "1.4808",
        "Rate Bank Will Sell To You:": "1.6525"
    },
    {
        "Country": "Jordan",
        "Currency Name / Currency Code": "Dinar (JOD)",
        "Rate Bank Will Buy From You:": "1.2679",
        "Rate Bank Will Sell To You:": "1.5480"
    },
    {
        "Country": "Kenya",
        "Currency Name / Currency Code": "Shilling (KES)",
        "Rate Bank Will Buy From You:": "0.01053",
        "Rate Bank Will Sell To You:": "0.01382"
    },
    {
        "Country": "Kuwait",
        "Currency Name / Currency Code": "Dinar (KWD)",
        "Rate Bank Will Buy From You:": "3.2416",
        "Rate Bank Will Sell To You:": "3.8792"
    },
    {
        "Country": "Latvia",
        "Currency Name / Currency Code": "Lats (LVL)",
        "Rate Bank Will Buy From You:": "1.6560",
        "Rate Bank Will Sell To You:": "2.1000"
    },
    {
        "Country": "Lithuania",
        "Currency Name / Currency Code": "Litas (LTL)",
        "Rate Bank Will Buy From You:": "0.3368",
        "Rate Bank Will Sell To You:": "0.4311"
    },
    {
        "Country": "Luxembourg",
        "Currency Name / Currency Code": "Franc (LUF)",
        "Rate Bank Will Buy From You:": "0.02915",
        "Rate Bank Will Sell To You:": "Refer to Euro"
    },
    {
        "Country": "Malaysia",
        "Currency Name / Currency Code": "Ringgit (MYR)",
        "Rate Bank Will Buy From You:": "0.2740",
        "Rate Bank Will Sell To You:": "0.3664"
    },
    {
        "Country": "Malta",
        "Currency Name / Currency Code": "Lira (MTL)",
        "Rate Bank Will Buy From You:": "2.4935",
        "Rate Bank Will Sell To You:": "Refer to Euro"
    },
    {
        "Country": "Mauritius",
        "Currency Name / Currency Code": "Rupee (MUR)",
        "Rate Bank Will Buy From You:": "0.03019",
        "Rate Bank Will Sell To You:": "0.03894"
    },
    {
        "Country": "Mexico",
        "Currency Name / Currency Code": "Peso (MXN)",
        "Rate Bank Will Buy From You:": "0.0702",
        "Rate Bank Will Sell To You:": "0.0832"
    },
    {
        "Country": "Morocco",
        "Currency Name / Currency Code": "Dirham (MAD)",
        "Rate Bank Will Buy From You:": "0.1006",
        "Rate Bank Will Sell To You:": "0.1362"
    },
    {
        "Country": "Netherlands",
        "Currency Name / Currency Code": "Euro (EUR)",
        "Rate Bank Will Buy From You:": "Refer to Euro",
        "Rate Bank Will Sell To You:": "Refer to Euro"
    },
    {
        "Country": "Netherlands Antilles",
        "Currency Name / Currency Code": "N.A. Gulden (ANG)",
        "Rate Bank Will Buy From You:": "N/A",
        "Rate Bank Will Sell To You:": "N/A"
    },
    {
        "Country": "North Ireland",
        "Currency Name / Currency Code": "N. Ireland Pound (NIR)",
        "Rate Bank Will Buy From You:": "1.5161",
        "Rate Bank Will Sell To You:": "1.6250"
    },
    {
        "Country": "Oman",
        "Currency Name / Currency Code": "Rial (OMR)",
        "Rate Bank Will Buy From You:": "2.3312",
        "Rate Bank Will Sell To You:": "2.7910"
    },
    {
        "Country": "Pakistan",
        "Currency Name / Currency Code": "Rupee (PKR)",
        "Rate Bank Will Buy From You:": "0.00971",
        "Rate Bank Will Sell To You:": "0.01255"
    },
    {
        "Country": "Paraguay",
        "Currency Name / Currency Code": "Guarani (PYG)",
        "Rate Bank Will Buy From You:": "N/A",
        "Rate Bank Will Sell To You:": "N/A"
    },
    {
        "Country": "Peru",
        "Currency Name / Currency Code": "Neuvo Sol (PEN)",
        "Rate Bank Will Buy From You:": "0.3353",
        "Rate Bank Will Sell To You:": "0.4009"
    },
    {
        "Country": "Philippines",
        "Currency Name / Currency Code": "Peso (PHP)",
        "Rate Bank Will Buy From You:": "0.01891",
        "Rate Bank Will Sell To You:": "0.02552"
    },
    {
        "Country": "Poland",
        "Currency Name / Currency Code": "Zloty (PLN)",
        "Rate Bank Will Buy From You:": "0.2775",
        "Rate Bank Will Sell To You:": "0.3448"
    },
    {
        "Country": "Portugal",
        "Currency Name / Currency Code": "Escudo (PTE)",
        "Rate Bank Will Buy From You:": "N/A",
        "Rate Bank Will Sell To You:": "Refer to Euro"
    },
    {
        "Country": "Qatar",
        "Currency Name / Currency Code": "Rial (QAR)",
        "Rate Bank Will Buy From You:": "0.2479",
        "Rate Bank Will Sell To You:": "0.2956"
    },
    {
        "Country": "Russian Federation",
        "Currency Name / Currency Code": "Ruble (RUB)",
        "Rate Bank Will Buy From You:": "0.02916",
        "Rate Bank Will Sell To You:": "0.03621"
    },
    {
        "Country": "Saudi Arabia",
        "Currency Name / Currency Code": "Riyal (SAR)",
        "Rate Bank Will Buy From You:": "0.2413",
        "Rate Bank Will Sell To You:": "0.2909"
    },
    {
        "Country": "Scotland",
        "Currency Name / Currency Code": "Scottish Pound (SCO)",
        "Rate Bank Will Buy From You:": "1.5161",
        "Rate Bank Will Sell To You:": "1.6250"
    },
    {
        "Country": "Singapore",
        "Currency Name / Currency Code": "Dollar (SGD)",
        "Rate Bank Will Buy From You:": "0.7511",
        "Rate Bank Will Sell To You:": "0.8610"
    },
    {
        "Country": "Slovakia",
        "Currency Name / Currency Code": "Koruna (SKK)",
        "Rate Bank Will Buy From You:": "0.03434",
        "Rate Bank Will Sell To You:": "Refer to Euro"
    },
    {
        "Country": "Slovenia",
        "Currency Name / Currency Code": "Tolar (SIT)",
        "Rate Bank Will Buy From You:": "0.004281",
        "Rate Bank Will Sell To You:": "Refer to Euro"
    },
    {
        "Country": "South Africa",
        "Currency Name / Currency Code": "Rand (ZAR)",
        "Rate Bank Will Buy From You:": "0.1157",
        "Rate Bank Will Sell To You:": "0.1423"
    },
    {
        "Country": "South Korea",
        "Currency Name / Currency Code": "Won (KRW)",
        "Rate Bank Will Buy From You:": "0.000813",
        "Rate Bank Will Sell To You:": "0.000979"
    },
    {
        "Country": "Spain",
        "Currency Name / Currency Code": "Peseta (ESP)",
        "Rate Bank Will Buy From You:": "0.00675",
        "Rate Bank Will Sell To You:": "Refer to Euro"
    },
    {
        "Country": "Tahiti",
        "Currency Name / Currency Code": "Franc (XPF)",
        "Rate Bank Will Buy From You:": "0.009738",
        "Rate Bank Will Sell To You:": "0.012190"
    },
    {
        "Country": "Taiwan",
        "Currency Name / Currency Code": "Dollar (TWD)",
        "Rate Bank Will Buy From You:": "0.02775",
        "Rate Bank Will Sell To You:": "0.03751"
    },
    {
        "Country": "Thailand",
        "Currency Name / Currency Code": "Baht (THB)",
        "Rate Bank Will Buy From You:": "0.02804",
        "Rate Bank Will Sell To You:": "0.03663"
    },
    {
        "Country": "Trinidad & Tobago",
        "Currency Name / Currency Code": "Dollar (TTD)",
        "Rate Bank Will Buy From You:": "0.1416",
        "Rate Bank Will Sell To You:": "0.1732"
    },
    {
        "Country": "Tunisia",
        "Currency Name / Currency Code": "Dinar (TND)",
        "Rate Bank Will Buy From You:": "0.5188",
        "Rate Bank Will Sell To You:": "0.8346"
    },
    {
        "Country": "Turkey",
        "Currency Name / Currency Code": "Lira (TRL)",
        "Rate Bank Will Buy From You:": "N/A",
        "Rate Bank Will Sell To You:": "N/A"
    },
    {
        "Country": "United Arab Emirates",
        "Currency Name / Currency Code": "Dirham (AED)",
        "Rate Bank Will Buy From You:": "0.2460",
        "Rate Bank Will Sell To You:": "0.2967"
    },
    {
        "Country": "Uruguay",
        "Currency Name / Currency Code": "Peso (UYU)",
        "Rate Bank Will Buy From You:": "0.04638",
        "Rate Bank Will Sell To You:": "0.05703"
    },
    {
        "Country": "Venezuela",
        "Currency Name / Currency Code": "Bolivar (VEB)",
        "Rate Bank Will Buy From You:": "N/A",
        "Rate Bank Will Sell To You:": "N/A"
    }
]