[
    {
        "Fans' Rank": "111",
        "Title": "M",
        "Year": "1931",
        "Director(s)": "Fritz Lang",
        "Overall Rank": "75"
    },
    {
        "Fans' Rank": "223",
        "Title": "M*A*S*H",
        "Year": "1970",
        "Director(s)": "Robert Altman",
        "Overall Rank": "128"
    },
    {
        "Fans' Rank": "355",
        "Title": "The Magnificent Ambersons",
        "Year": "1942",
        "Director(s)": "Orson Welles",
        "Overall Rank": "201"
    },
    {
        "Fans' Rank": "346",
        "Title": "The Magnificent Seven",
        "Year": "1960",
        "Director(s)": "John Sturges",
        "Overall Rank": "318"
    },
    {
        "Fans' Rank": "79",
        "Title": "Magnolia",
        "Year": "1999",
        "Director(s)": "Paul Thomas Anderson",
        "Overall Rank": "202"
    },
    {
        "Fans' Rank": "368",
        "Title": "Malcolm X",
        "Year": "1992",
        "Director(s)": "Spike Lee",
        "Overall Rank": "582"
    },
    {
        "Fans' Rank": "57",
        "Title": "The Maltese Falcon",
        "Year": "1941",
        "Director(s)": "John Huston",
        "Overall Rank": "44"
    },
    {
        "Fans' Rank": "305",
        "Title": "The Man Who Shot Liberty Valance",
        "Year": "1962",
        "Director(s)": "John Ford",
        "Overall Rank": "288"
    },
    {
        "Fans' Rank": "92",
        "Title": "The Manchurian Candidate",
        "Year": "1962",
        "Director(s)": "John Frankenheimer",
        "Overall Rank": "124"
    },
    {
        "Fans' Rank": "109",
        "Title": "Manhattan",
        "Year": "1979",
        "Director(s)": "Woody Allen",
        "Overall Rank": "135"
    },
    {
        "Fans' Rank": "343",
        "Title": "Mary Poppins",
        "Year": "1964",
        "Director(s)": "Robert Stevenson",
        "Overall Rank": "252"
    },
    {
        "Fans' Rank": "34",
        "Title": "The Matrix",
        "Year": "1999",
        "Director(s)": "Andy and Larry Wachowski",
        "Overall Rank": "42"
    },
    {
        "Fans' Rank": "509",
        "Title": "McCabe & Mrs. Miller",
        "Year": "1971",
        "Director(s)": "Robert Altman",
        "Overall Rank": "290"
    },
    {
        "Fans' Rank": "176",
        "Title": "Mean Streets",
        "Year": "1973",
        "Director(s)": "Martin Scorsese",
        "Overall Rank": "190"
    },
    {
        "Fans' Rank": "59",
        "Title": "Memento",
        "Year": "2000",
        "Director(s)": "Christopher Nolan",
        "Overall Rank": "136"
    },
    {
        "Fans' Rank": "429",
        "Title": "Men in Black",
        "Year": "1997",
        "Director(s)": "Barry Sonnenfeld",
        "Overall Rank": "562"
    },
    {
        "Fans' Rank": "126",
        "Title": "Metropolis",
        "Year": "1927",
        "Director(s)": "Fritz Lang",
        "Overall Rank": "53"
    },
    {
        "Fans' Rank": "99",
        "Title": "Midnight Cowboy",
        "Year": "1969",
        "Director(s)": "John Schlesinger",
        "Overall Rank": "142"
    },
    {
        "Fans' Rank": "225",
        "Title": "Miller's Crossing",
        "Year": "1990",
        "Director(s)": "Joel Coen",
        "Overall Rank": "460"
    },
    {
        "Fans' Rank": "297",
        "Title": "Minority Report",
        "Year": "2002",
        "Director(s)": "Steven Spielberg",
        "Overall Rank": "796"
    },
    {
        "Fans' Rank": "485",
        "Title": "The Mirror",
        "Year": "1975",
        "Director(s)": "Andrei Tarkovsky",
        "Overall Rank": "887"
    },
    {
        "Fans' Rank": "513",
        "Title": "Misery",
        "Year": "1990",
        "Director(s)": "Rob Reiner",
        "Overall Rank": "1202"
    },
    {
        "Fans' Rank": "131",
        "Title": "Modern Times",
        "Year": "1936",
        "Director(s)": "Charles Chaplin",
        "Overall Rank": "108"
    },
    {
        "Fans' Rank": "440",
        "Title": "Monsters, Inc.",
        "Year": "2001",
        "Director(s)": "Pete Docter",
        "Overall Rank": "607"
    },
    {
        "Fans' Rank": "62",
        "Title": "Monty Python and the Holy Grail",
        "Year": "1975",
        "Director(s)": "Terry Gilliam and Terry Jones",
        "Overall Rank": "133"
    },
    {
        "Fans' Rank": "177",
        "Title": "Moulin Rouge!",
        "Year": "2001",
        "Director(s)": "Baz Luhrmann",
        "Overall Rank": "219"
    },
    {
        "Fans' Rank": "122",
        "Title": "Mr. Smith Goes to Washington",
        "Year": "1939",
        "Director(s)": "Frank Capra",
        "Overall Rank": "156"
    },
    {
        "Fans' Rank": "123",
        "Title": "Mulholland Dr.",
        "Year": "2001",
        "Director(s)": "David Lynch",
        "Overall Rank": "310"
    },
    {
        "Fans' Rank": "507",
        "Title": "Mutiny on the Bounty",
        "Year": "1935",
        "Director(s)": "Frank Lloyd",
        "Overall Rank": "447"
    },
    {
        "Fans' Rank": "279",
        "Title": "My Fair Lady",
        "Year": "1964",
        "Director(s)": "George Cukor",
        "Overall Rank": "164"
    },
    {
        "Fans' Rank": "384",
        "Title": "Mystic River",
        "Year": "2003",
        "Director(s)": "Clint Eastwood",
        "Overall Rank": "1511"
    },
    {
        "Fans' Rank": "247",
        "Title": "Nashville",
        "Year": "1975",
        "Director(s)": "Robert Altman",
        "Overall Rank": "86"
    },
    {
        "Fans' Rank": "261",
        "Title": "Natural Born Killers",
        "Year": "1994",
        "Director(s)": "Oliver Stone",
        "Overall Rank": "759"
    },
    {
        "Fans' Rank": "481",
        "Title": "The Natural",
        "Year": "1984",
        "Director(s)": "Barry Levinson",
        "Overall Rank": "908"
    },
    {
        "Fans' Rank": "117",
        "Title": "Network",
        "Year": "1976",
        "Director(s)": "Sidney Lumet",
        "Overall Rank": "221"
    },
    {
        "Fans' Rank": "364",
        "Title": "A Night at the Opera",
        "Year": "1935",
        "Director(s)": "Sam Wood",
        "Overall Rank": "253"
    },
    {
        "Fans' Rank": "164",
        "Title": "The Night of the Hunter",
        "Year": "1955",
        "Director(s)": "Charles Laughton",
        "Overall Rank": "61"
    },
    {
        "Fans' Rank": "229",
        "Title": "Night of the Living Dead",
        "Year": "1968",
        "Director(s)": "George A. Romero",
        "Overall Rank": "139"
    },
    {
        "Fans' Rank": "314",
        "Title": "The Nightmare Before Christmas",
        "Year": "1993",
        "Director(s)": "Henry Selick",
        "Overall Rank": "419"
    },
    {
        "Fans' Rank": "391",
        "Title": "Nights of Cabiria",
        "Year": "1957",
        "Director(s)": "Federico Fellini",
        "Overall Rank": "440"
    },
    {
        "Fans' Rank": "31",
        "Title": "North by Northwest",
        "Year": "1959",
        "Director(s)": "Alfred Hitchcock",
        "Overall Rank": "31"
    },
    {
        "Fans' Rank": "219",
        "Title": "Nosferatu",
        "Year": "1922",
        "Director(s)": "F.W. Murnau",
        "Overall Rank": "105"
    },
    {
        "Fans' Rank": "168",
        "Title": "Notorious",
        "Year": "1946",
        "Director(s)": "Alfred Hitchcock",
        "Overall Rank": "104"
    },
    {
        "Fans' Rank": "232",
        "Title": "O Brother, Where Art Thou?",
        "Year": "2000",
        "Director(s)": "Joel Coen",
        "Overall Rank": "776"
    },
    {
        "Fans' Rank": "283",
        "Title": "Office Space",
        "Year": "1999",
        "Director(s)": "Mike Judge",
        "Overall Rank": "774"
    },
    {
        "Fans' Rank": "51",
        "Title": "On the Waterfront",
        "Year": "1954",
        "Director(s)": "Elia Kazan",
        "Overall Rank": "40"
    },
    {
        "Fans' Rank": "159",
        "Title": "Once Upon a Time in America",
        "Year": "1984",
        "Director(s)": "Sergio Leone",
        "Overall Rank": "207"
    },
    {
        "Fans' Rank": "86",
        "Title": "Once Upon a Time in the West",
        "Year": "1968",
        "Director(s)": "Sergio Leone",
        "Overall Rank": "107"
    },
    {
        "Fans' Rank": "18",
        "Title": "One Flew over the Cuckoo's Nest",
        "Year": "1975",
        "Director(s)": "Milos Forman",
        "Overall Rank": "35"
    },
    {
        "Fans' Rank": "399",
        "Title": "Ordinary People",
        "Year": "1980",
        "Director(s)": "Robert Redford",
        "Overall Rank": "481"
    },
    {
        "Fans' Rank": "496",
        "Title": "The Others",
        "Year": "2001",
        "Director(s)": "Alejandro Amen?bar",
        "Overall Rank": "803"
    },
    {
        "Fans' Rank": "463",
        "Title": "Out of the Past",
        "Year": "1947",
        "Director(s)": "Jacques Tourneur",
        "Overall Rank": "242"
    },
    {
        "Fans' Rank": "448",
        "Title": "The Outlaw Josey Wales",
        "Year": "1976",
        "Director(s)": "Clint Eastwood",
        "Overall Rank": "645"
    },
    {
        "Fans' Rank": "199",
        "Title": "The Passion of Joan of Arc",
        "Year": "1928",
        "Director(s)": "Carl Theodor Dreyer",
        "Overall Rank": "143"
    },
    {
        "Fans' Rank": "387",
        "Title": "Pather Panchali",
        "Year": "1955",
        "Director(s)": "Satyajit Ray",
        "Overall Rank": "159"
    },
    {
        "Fans' Rank": "114",
        "Title": "Paths of Glory",
        "Year": "1957",
        "Director(s)": "Stanley Kubrick",
        "Overall Rank": "152"
    },
    {
        "Fans' Rank": "151",
        "Title": "Patton",
        "Year": "1970",
        "Director(s)": "Franklin J. Schaffner",
        "Overall Rank": "241"
    },
    {
        "Fans' Rank": "506",
        "Title": "Peeping Tom",
        "Year": "1960",
        "Director(s)": "Michael Powell",
        "Overall Rank": "258"
    },
    {
        "Fans' Rank": "197",
        "Title": "Persona",
        "Year": "1966",
        "Director(s)": "Ingmar Bergman",
        "Overall Rank": "158"
    },
    {
        "Fans' Rank": "471",
        "Title": "Philadelphia",
        "Year": "1993",
        "Director(s)": "Jonathan Demme",
        "Overall Rank": "898"
    },
    {
        "Fans' Rank": "155",
        "Title": "The Philadelphia Story",
        "Year": "1940",
        "Director(s)": "George Cukor",
        "Overall Rank": "109"
    },
    {
        "Fans' Rank": "476",
        "Title": "Pi",
        "Year": "1998",
        "Director(s)": "Darren Aronofsky",
        "Overall Rank": "945"
    },
    {
        "Fans' Rank": "287",
        "Title": "The Pianist",
        "Year": "2002",
        "Director(s)": "Roman Polanski",
        "Overall Rank": "470"
    },
    {
        "Fans' Rank": "307",
        "Title": "The Piano",
        "Year": "1993",
        "Director(s)": "Jane Campion",
        "Overall Rank": "247"
    },
    {
        "Fans' Rank": "435",
        "Title": "Pinocchio",
        "Year": "1940",
        "Director(s)": "Hamilton Luske and Ben Sharpsteen",
        "Overall Rank": "217"
    },
    {
        "Fans' Rank": "357",
        "Title": "Pirates of the Caribbean: The Curse of the Black Pearl",
        "Year": "2003",
        "Director(s)": "Gore Verbinski",
        "Overall Rank": "379"
    },
    {
        "Fans' Rank": "328",
        "Title": "Planes, Trains & Automobiles",
        "Year": "1987",
        "Director(s)": "John Hughes",
        "Overall Rank": "1017"
    },
    {
        "Fans' Rank": "184",
        "Title": "Planet of the Apes",
        "Year": "1968",
        "Director(s)": "Franklin J. Schaffner",
        "Overall Rank": "240"
    },
    {
        "Fans' Rank": "67",
        "Title": "Platoon",
        "Year": "1986",
        "Director(s)": "Oliver Stone",
        "Overall Rank": "122"
    },
    {
        "Fans' Rank": "289",
        "Title": "The Player",
        "Year": "1992",
        "Director(s)": "Robert Altman",
        "Overall Rank": "492"
    },
    {
        "Fans' Rank": "415",
        "Title": "Pleasantville",
        "Year": "1998",
        "Director(s)": "Gary Ross",
        "Overall Rank": "1260"
    },
    {
        "Fans' Rank": "341",
        "Title": "Predator",
        "Year": "1987",
        "Director(s)": "John McTiernan",
        "Overall Rank": "814"
    },
    {
        "Fans' Rank": "96",
        "Title": "The Princess Bride",
        "Year": "1987",
        "Director(s)": "Rob Reiner",
        "Overall Rank": "132"
    },
    {
        "Fans' Rank": "358",
        "Title": "Princess Mononoke",
        "Year": "1997",
        "Director(s)": "Hayao Miyazaki",
        "Overall Rank": "537"
    },
    {
        "Fans' Rank": "258",
        "Title": "The Producers",
        "Year": "1968",
        "Director(s)": "Mel Brooks",
        "Overall Rank": "184"
    },
    {
        "Fans' Rank": "136",
        "Title": "The Professional",
        "Year": "1994",
        "Director(s)": "Luc Besson",
        "Overall Rank": "282"
    },
    {
        "Fans' Rank": "14",
        "Title": "Psycho",
        "Year": "1960",
        "Director(s)": "Alfred Hitchcock",
        "Overall Rank": "7"
    },
    {
        "Fans' Rank": "2",
        "Title": "Pulp Fiction",
        "Year": "1994",
        "Director(s)": "Quentin Tarantino",
        "Overall Rank": "15"
    },
    {
        "Fans' Rank": "426",
        "Title": "Punch-Drunk Love",
        "Year": "2002",
        "Director(s)": "Paul Thomas Anderson",
        "Overall Rank": "1131"
    },
    {
        "Fans' Rank": "405",
        "Title": "The Quiet Man",
        "Year": "1952",
        "Director(s)": "John Ford",
        "Overall Rank": "307"
    },
    {
        "Fans' Rank": "502",
        "Title": "Quiz Show",
        "Year": "1994",
        "Director(s)": "Robert Redford",
        "Overall Rank": "1012"
    },
    {
        "Fans' Rank": "24",
        "Title": "Raging Bull",
        "Year": "1980",
        "Director(s)": "Martin Scorsese",
        "Overall Rank": "18"
    },
    {
        "Fans' Rank": "16",
        "Title": "Raiders of the Lost Ark",
        "Year": "1981",
        "Director(s)": "Steven Spielberg",
        "Overall Rank": "29"
    },
    {
        "Fans' Rank": "118",
        "Title": "Rain Man",
        "Year": "1988",
        "Director(s)": "Barry Levinson",
        "Overall Rank": "347"
    },
    {
        "Fans' Rank": "427",
        "Title": "Raise the Red Lantern",
        "Year": "1991",
        "Director(s)": "Yimou Zhang",
        "Overall Rank": "363"
    },
    {
        "Fans' Rank": "162",
        "Title": "Raising Arizona",
        "Year": "1987",
        "Director(s)": "Joel Coen",
        "Overall Rank": "528"
    },
    {
        "Fans' Rank": "121",
        "Title": "Ran",
        "Year": "1985",
        "Director(s)": "Akira Kurosawa",
        "Overall Rank": "185"
    },
    {
        "Fans' Rank": "104",
        "Title": "Rash?mon",
        "Year": "1950",
        "Director(s)": "Akira Kurosawa",
        "Overall Rank": "84"
    },
    {
        "Fans' Rank": "21",
        "Title": "Rear Window",
        "Year": "1954",
        "Director(s)": "Alfred Hitchcock",
        "Overall Rank": "34"
    },
    {
        "Fans' Rank": "171",
        "Title": "Rebecca",
        "Year": "1940",
        "Director(s)": "Alfred Hitchcock",
        "Overall Rank": "225"
    },
    {
        "Fans' Rank": "143",
        "Title": "Rebel without a Cause",
        "Year": "1955",
        "Director(s)": "Nicholas Ray",
        "Overall Rank": "115"
    },
    {
        "Fans' Rank": "337",
        "Title": "Red River",
        "Year": "1948",
        "Director(s)": "Howard Hawks",
        "Overall Rank": "234"
    },
    {
        "Fans' Rank": "475",
        "Title": "The Red Shoes",
        "Year": "1948",
        "Director(s)": "Michael Powell and Emeric Pressburger",
        "Overall Rank": "204"
    },
    {
        "Fans' Rank": "436",
        "Title": "The Remains of the Day",
        "Year": "1993",
        "Director(s)": "James Ivory",
        "Overall Rank": "594"
    },
    {
        "Fans' Rank": "428",
        "Title": "Repulsion",
        "Year": "1965",
        "Director(s)": "Roman Polanski",
        "Overall Rank": "350"
    },
    {
        "Fans' Rank": "115",
        "Title": "Requiem for a Dream",
        "Year": "2000",
        "Director(s)": "Darren Aronofsky",
        "Overall Rank": "434"
    },
    {
        "Fans' Rank": "32",
        "Title": "Reservoir Dogs",
        "Year": "1992",
        "Director(s)": "Quentin Tarantino",
        "Overall Rank": "66"
    },
    {
        "Fans' Rank": "58",
        "Title": "Return of the Jedi",
        "Year": "1983",
        "Director(s)": "Richard Marquand",
        "Overall Rank": "178"
    },
    {
        "Fans' Rank": "316",
        "Title": "The Right Stuff",
        "Year": "1983",
        "Director(s)": "Philip Kaufman",
        "Overall Rank": "371"
    },
    {
        "Fans' Rank": "408",
        "Title": "Rio Bravo",
        "Year": "1959",
        "Director(s)": "Howard Hawks",
        "Overall Rank": "279"
    },
    {
        "Fans' Rank": "392",
        "Title": "Road to Perdition",
        "Year": "2002",
        "Director(s)": "Sam Mendes",
        "Overall Rank": "1224"
    },
    {
        "Fans' Rank": "262",
        "Title": "The Road Warrior",
        "Year": "1981",
        "Director(s)": "George Miller",
        "Overall Rank": "306"
    },
    {
        "Fans' Rank": "421",
        "Title": "RoboCop",
        "Year": "1987",
        "Director(s)": "Paul Verhoeven",
        "Overall Rank": "495"
    },
    {
        "Fans' Rank": "433",
        "Title": "The Rock",
        "Year": "1996",
        "Director(s)": "Michael Bay",
        "Overall Rank": "1058"
    },
    {
        "Fans' Rank": "97",
        "Title": "Rocky",
        "Year": "1976",
        "Director(s)": "John G. Avildsen",
        "Overall Rank": "101"
    },
    {
        "Fans' Rank": "467",
        "Title": "The Rocky Horror Picture Show",
        "Year": "1975",
        "Director(s)": "Jim Sharman",
        "Overall Rank": "301"
    },
    {
        "Fans' Rank": "356",
        "Title": "Roman Holiday",
        "Year": "1953",
        "Director(s)": "William Wyler",
        "Overall Rank": "300"
    },
    {
        "Fans' Rank": "367",
        "Title": "Rope",
        "Year": "1948",
        "Director(s)": "Alfred Hitchcock",
        "Overall Rank": "1055"
    },
    {
        "Fans' Rank": "210",
        "Title": "Rosemary's Baby",
        "Year": "1968",
        "Director(s)": "Roman Polanski",
        "Overall Rank": "193"
    },
    {
        "Fans' Rank": "266",
        "Title": "The Royal Tenenbaums",
        "Year": "2001",
        "Director(s)": "Wes Anderson",
        "Overall Rank": "516"
    },
    {
        "Fans' Rank": "192",
        "Title": "The Rules of the Game",
        "Year": "1939",
        "Director(s)": "Jean Renoir",
        "Overall Rank": "70"
    },
    {
        "Fans' Rank": "191",
        "Title": "Run Lola Run",
        "Year": "1998",
        "Director(s)": "Tom Tykwer",
        "Overall Rank": "494"
    },
    {
        "Fans' Rank": "238",
        "Title": "Rushmore",
        "Year": "1998",
        "Director(s)": "Wes Anderson",
        "Overall Rank": "286"
    }
]