[
    {
        "Number": "1.",
        "IDF Host Hotels": "Grand Hyatt San Francisco",
        "Address": "345 Stockton Street San Francisco, CA 94108",
        "IDF 2011 Group Rate": "SOLD OUT",
        "Rewards Program": "Hyatt Gold Passport",
        "Approximate Distance from Moscone West": "5.5 blocks"
    },
    {
        "Number": "2.",
        "IDF Host Hotels": "Hilton San Francisco Union Square",
        "Address": "333 O'Farrell Street San Francisco, CA 94102",
        "IDF 2011 Group Rate": "SOLD OUT",
        "Rewards Program": "Hilton Honors",
        "Approximate Distance from Moscone West": "5 blocks"
    },
    {
        "Number": "3.",
        "IDF Host Hotels": "Hotel Palomar",
        "Address": "12 Fourth Street San Francisco, CA 94103",
        "IDF 2011 Group Rate": "SOLD OUT",
        "Rewards Program": "Kimpton InTouch Membership",
        "Approximate Distance from Moscone West": "1.5 blocks"
    },
    {
        "Number": "4.",
        "IDF Host Hotels": "InterContinental San Francisco",
        "Address": "888 Howard Street San Francisco, CA 94103",
        "IDF 2011 Group Rate": "SOLD OUT",
        "Rewards Program": "Priority Club",
        "Approximate Distance from Moscone West": "0.5 block"
    },
    {
        "Number": "5.",
        "IDF Host Hotels": "Marriott Courtyard San Francisco Downtown",
        "Address": "299 Second Street San Francisco, CA 94105",
        "IDF 2011 Group Rate": "SOLD OUT",
        "Rewards Program": "Marriott Rewards",
        "Approximate Distance from Moscone West": "4 blocks"
    },
    {
        "Number": "6.",
        "IDF Host Hotels": "Marriott Union Square",
        "Address": "480 Sutter Street San Francisco, CA 94108",
        "IDF 2011 Group Rate": "SOLD OUT",
        "Rewards Program": "Marriott Rewards",
        "Approximate Distance from Moscone West": "6.5 blocks"
    },
    {
        "Number": "7.",
        "IDF Host Hotels": "Palace Hotel - A Starwood Luxury Sheraton Hotel",
        "Address": "2 New Montgomery Street San Francisco, CA 94105",
        "IDF 2011 Group Rate": "SOLD OUT",
        "Rewards Program": "Starwood Preferred Guest (SPG)",
        "Approximate Distance from Moscone West": "2.5 blocks"
    },
    {
        "Number": "8.",
        "IDF Host Hotels": "Parc 55 Wyndham - Union Square",
        "Address": "55 Cyril Magnin Street San Francisco, CA 94102",
        "IDF 2011 Group Rate": "SOLD OUT",
        "Rewards Program": "Wyndham Rewards",
        "Approximate Distance from Moscone West": "4 blocks"
    },
    {
        "Number": "9.",
        "IDF Host Hotels": "San Francisco Marriott Marquis",
        "Address": "55 Fourth Street San Francisco, CA 94103",
        "IDF 2011 Group Rate": "SOLD OUT",
        "Rewards Program": "Marriott Rewards",
        "Approximate Distance from Moscone West": "1 block"
    },
    {
        "Number": "10.",
        "IDF Host Hotels": "W Hotel",
        "Address": "181 Third Street San Francisco, CA 94103",
        "IDF 2011 Group Rate": "SOLD OUT",
        "Rewards Program": "Starwood Preferred Guest (SPG)",
        "Approximate Distance from Moscone West": "1 block"
    },
    {
        "Number": "11.",
        "IDF Host Hotels": "Westin San Francisco Market Street",
        "Address": "50 Third Street San Francisco, CA 94103",
        "IDF 2011 Group Rate": "SOLD OUT",
        "Rewards Program": "Starwood Preferred Guest (SPG)",
        "Approximate Distance from Moscone West": "1.5 blocks"
    }
]