[
    {
        "COUNTRY": "ALBANIA",
        "CURRENCY": "ALL",
        "A1": "3740",
        "A2": "4180",
        "B1": "4540",
        "B2": "6145",
        "C1": "6600",
        "C2": "7480"
    },
    {
        "COUNTRY": "ALGERIA",
        "CURRENCY": "DZD",
        "A1": "3316",
        "A2": "4345",
        "B1": "4921",
        "B2": "5456",
        "C1": "5720",
        "C2": "5991"
    },
    {
        "COUNTRY": "ARAB EMIRATES",
        "CURRENCY": "EAU",
        "A1": "315",
        "A2": "370",
        "B1": "420",
        "B2": "525",
        "C1": "580",
        "C2": "630"
    },
    {
        "COUNTRY": "ARGENTINA",
        "CURRENCY": "ARS",
        "A1": "190",
        "A2": "245",
        "B1": "275",
        "B2": "315",
        "C1": "335",
        "C2": "355"
    },
    {
        "COUNTRY": "ARMENIA",
        "CURRENCY": "AMD",
        "A1": "14650",
        "A2": "15950",
        "B1": "17230",
        "B2": "24120",
        "C1": "26700",
        "C2": "28430"
    },
    {
        "COUNTRY": "AUSTRALIA",
        "CURRENCY": "AUD",
        "A1": "170",
        "A2": "210",
        "B1": "255",
        "B2": "290",
        "C1": "305",
        "C2": "315"
    },
    {
        "COUNTRY": "AUSTRIA",
        "CURRENCY": "EUR",
        "A1": "84",
        "A2": "95",
        "B1": "100",
        "B2": "140",
        "C1": "145",
        "C2": "150"
    },
    {
        "COUNTRY": "AZERBAIYAN",
        "CURRENCY": "AZN",
        "A1": "35",
        "A2": "40",
        "B1": "45",
        "B2": "60",
        "C1": "65",
        "C2": "70"
    },
    {
        "COUNTRY": "BAHAMAS",
        "CURRENCY": "BSD",
        "A1": "63",
        "A2": "76",
        "B1": "90",
        "B2": "104",
        "C1": "110",
        "C2": "116"
    },
    {
        "COUNTRY": "BANGLADESH",
        "CURRENCY": "BDT",
        "A1": "2200",
        "A2": "2300",
        "B1": "2600",
        "B2": "3700",
        "C1": "4300",
        "C2": "4700"
    },
    {
        "COUNTRY": "BELGIUM",
        "CURRENCY": "EUR",
        "A1": "82",
        "A2": "95",
        "B1": "104",
        "B2": "136",
        "C1": "145",
        "C2": "152"
    },
    {
        "COUNTRY": "BIELORUSSIA",
        "CURRENCY": "BYR",
        "A1": "95700",
        "A2": "105000",
        "B1": "111200",
        "B2": "157500",
        "C1": "173000",
        "C2": "185000"
    },
    {
        "COUNTRY": "BOLIVIA",
        "CURRENCY": "BOV",
        "A1": "386",
        "A2": "450",
        "B1": "550",
        "B2": "637",
        "C1": "690",
        "C2": "715"
    },
    {
        "COUNTRY": "BOSNIA-H.",
        "CURRENCY": "KM",
        "A1": "75",
        "A2": "85",
        "B1": "100",
        "B2": "125",
        "C1": "135",
        "C2": "145"
    },
    {
        "COUNTRY": "BRAZIL",
        "CURRENCY": "BRL",
        "A1": "115",
        "A2": "130",
        "B1": "145",
        "B2": "190",
        "C1": "225",
        "C2": "250"
    },
    {
        "COUNTRY": "BULGARY",
        "CURRENCY": "BGL",
        "A1": "75",
        "A2": "80",
        "B1": "90",
        "B2": "120",
        "C1": "135",
        "C2": "155"
    },
    {
        "COUNTRY": "CAMEROON",
        "CURRENCY": "XOF",
        "A1": "22300",
        "A2": "27000",
        "B1": "28800",
        "B2": "36800",
        "C1": "38300",
        "C2": "40400"
    },
    {
        "COUNTRY": "CANADA",
        "CURRENCY": "CAD",
        "A1": "117",
        "A2": "140",
        "B1": "175",
        "B2": "195",
        "C1": "210",
        "C2": "220"
    },
    {
        "COUNTRY": "CHILE",
        "CURRENCY": "CLP",
        "A1": "35500",
        "A2": "45000",
        "B1": "50600",
        "B2": "58600",
        "C1": "62500",
        "C2": "65600"
    },
    {
        "COUNTRY": "CHINA",
        "CURRENCY": "CNY",
        "A1": "435",
        "A2": "495",
        "B1": "560",
        "B2": "720",
        "C1": "790",
        "C2": "825"
    },
    {
        "COUNTRY": "COLOMBIA",
        "CURRENCY": "COP",
        "A1": "129100",
        "A2": "155000",
        "B1": "184000",
        "B2": "213000",
        "C1": "230000",
        "C2": "239000"
    },
    {
        "COUNTRY": "COSTA RICA",
        "CURRENCY": "CRC",
        "A1": "29000",
        "A2": "35000",
        "B1": "42000",
        "B2": "51000",
        "C1": "53000",
        "C2": "55000"
    },
    {
        "COUNTRY": "CROATIA",
        "CURRENCY": "HRK",
        "A1": "305",
        "A2": "382",
        "B1": "418",
        "B2": "514",
        "C1": "556",
        "C2": "595"
    },
    {
        "COUNTRY": "CUBA",
        "CURRENCY": "CUC",
        "A1": "52",
        "A2": "65",
        "B1": "74",
        "B2": "86",
        "C1": "90",
        "C2": "96"
    },
    {
        "COUNTRY": "CYPRUS",
        "CURRENCY": "EUR",
        "A1": "80",
        "A2": "95",
        "B1": "113",
        "B2": "133",
        "C1": "145",
        "C2": "154"
    },
    {
        "COUNTRY": "CZECK REPUBLIC",
        "CURRENCY": "CZK",
        "A1": "1230",
        "A2": "1530",
        "B1": "1740",
        "B2": "2060",
        "C1": "2300",
        "C2": "2400"
    },
    {
        "COUNTRY": "DENMARK",
        "CURRENCY": "DKK",
        "A1": "695",
        "A2": "850",
        "B1": "1075",
        "B2": "1155",
        "C1": "1200",
        "C2": "1245"
    },
    {
        "COUNTRY": "DOMINICAN REPUBLIC",
        "CURRENCY": "DOP",
        "A1": "2015",
        "A2": "2300",
        "B1": "2870",
        "B2": "3325",
        "C1": "3650",
        "C2": "3730"
    },
    {
        "COUNTRY": "ECUADOR",
        "CURRENCY": "EUR",
        "A1": "40",
        "A2": "45",
        "B1": "57",
        "B2": "66",
        "C1": "70",
        "C2": "74"
    },
    {
        "COUNTRY": "EGYPT",
        "CURRENCY": "EGP",
        "A1": "290",
        "A2": "350",
        "B1": "395",
        "B2": "480",
        "C1": "540",
        "C2": "590"
    },
    {
        "COUNTRY": "EQUATORIAL GUINEA",
        "CURRENCY": "XOF",
        "A1": "21710",
        "A2": "25145",
        "B1": "28035",
        "B2": "35740",
        "C1": "38305",
        "C2": "39270"
    },
    {
        "COUNTRY": "ESTONIA",
        "CURRENCY": "EEK",
        "A1": "532",
        "A2": "585",
        "B1": "626",
        "B2": "892",
        "C1": "990",
        "C2": "1158"
    },
    {
        "COUNTRY": "FINLAND",
        "CURRENCY": "EUR",
        "A1": "84",
        "A2": "95",
        "B1": "104",
        "B2": "140",
        "C1": "150",
        "C2": "155"
    },
    {
        "COUNTRY": "FRANCE",
        "CURRENCY": "EUR",
        "A1": "84",
        "A2": "95",
        "B1": "104",
        "B2": "140",
        "C1": "150",
        "C2": "155"
    },
    {
        "COUNTRY": "GABON",
        "CURRENCY": "XOF",
        "A1": "21500",
        "A2": "26000",
        "B1": "28000",
        "B2": "35400",
        "C1": "37950",
        "C2": "38900"
    },
    {
        "COUNTRY": "GEORGIA",
        "CURRENCY": "GEL",
        "A1": "80",
        "A2": "85",
        "B1": "90",
        "B2": "130",
        "C1": "145",
        "C2": "155"
    },
    {
        "COUNTRY": "GERMANY",
        "CURRENCY": "EUR",
        "A1": "83",
        "A2": "90",
        "B1": "98",
        "B2": "138",
        "C1": "145",
        "C2": "149"
    },
    {
        "COUNTRY": "GHANA",
        "CURRENCY": "EUR",
        "A1": "20",
        "A2": "25",
        "B1": "29",
        "B2": "34",
        "C1": "36",
        "C2": "37"
    },
    {
        "COUNTRY": "GUADALUPE",
        "CURRENCY": "EUR",
        "A1": "84",
        "A2": "95",
        "B1": "104",
        "B2": "140",
        "C1": "150",
        "C2": "155"
    },
    {
        "COUNTRY": "GREECE",
        "CURRENCY": "EUR",
        "A1": "88",
        "A2": "100",
        "B1": "125",
        "B2": "146",
        "C1": "165",
        "C2": "171"
    },
    {
        "COUNTRY": "HAITI",
        "CURRENCY": "HTG",
        "A1": "1420",
        "A2": "1670",
        "B1": "1875",
        "B2": "2325",
        "C1": "2715",
        "C2": "2970"
    },
    {
        "COUNTRY": "HUNGARY",
        "CURRENCY": "HUF",
        "A1": "10000",
        "A2": "11000",
        "B1": "12000",
        "B2": "16000",
        "C1": "18000",
        "C2": "20000"
    },
    {
        "COUNTRY": "ICELAND",
        "CURRENCY": "ISK",
        "A1": "10062",
        "A2": "11700",
        "B1": "12838",
        "B2": "16828",
        "C1": "18900",
        "C2": "20645"
    },
    {
        "COUNTRY": "INDIA",
        "CURRENCY": "INR",
        "A1": "1850",
        "A2": "2035",
        "B1": "2235",
        "B2": "3080",
        "C1": "3520",
        "C2": "3780"
    },
    {
        "COUNTRY": "INDONESIA",
        "CURRENCY": "IDR",
        "A1": "400700",
        "A2": "413400",
        "B1": "483400",
        "B2": "667800",
        "C1": "765500",
        "C2": "817300"
    },
    {
        "COUNTRY": "IRAN",
        "CURRENCY": "IRR",
        "A1": "440000",
        "A2": "480000",
        "B1": "535500",
        "B2": "733000",
        "C1": "790000",
        "C2": "850000"
    },
    {
        "COUNTRY": "IRELAND",
        "CURRENCY": "EUR",
        "A1": "85",
        "A2": "95",
        "B1": "107",
        "B2": "142",
        "C1": "152",
        "C2": "158"
    },
    {
        "COUNTRY": "ISRAEL",
        "CURRENCY": "NIS",
        "A1": "340",
        "A2": "420",
        "B1": "505",
        "B2": "570",
        "C1": "585",
        "C2": "600"
    },
    {
        "COUNTRY": "ITALY",
        "CURRENCY": "EUR",
        "A1": "73",
        "A2": "78",
        "B1": "83",
        "B2": "122",
        "C1": "140",
        "C2": "150"
    },
    {
        "COUNTRY": "IVORY COAST",
        "CURRENCY": "XOF",
        "A1": "16100",
        "A2": "18900",
        "B1": "23100",
        "B2": "27300",
        "C1": "28350",
        "C2": "30100"
    },
    {
        "COUNTRY": "JAMAICA",
        "CURRENCY": "JMD",
        "A1": "4300",
        "A2": "5200",
        "B1": "6300",
        "B2": "7200",
        "C1": "7600",
        "C2": "8090"
    },
    {
        "COUNTRY": "JAPAN",
        "CURRENCY": "JPY",
        "A1": "7600",
        "A2": "8900",
        "B1": "10100",
        "B2": "12700",
        "C1": "14200",
        "C2": "15200"
    },
    {
        "COUNTRY": "JORDAN",
        "CURRENCY": "JOD",
        "A1": "43",
        "A2": "50",
        "B1": "58",
        "B2": "71",
        "C1": "75",
        "C2": "77"
    },
    {
        "COUNTRY": "KAZAJSTAN",
        "CURRENCY": "KZT",
        "A1": "6000",
        "A2": "6300",
        "B1": "6900",
        "B2": "9700",
        "C1": "10700",
        "C2": "11400"
    },
    {
        "COUNTRY": "KENYA",
        "CURRENCY": "KES",
        "A1": "3400",
        "A2": "2800",
        "B1": "4000",
        "B2": "4700",
        "C1": "5000",
        "C2": "5200"
    },
    {
        "COUNTRY": "KIRGUISTAN",
        "CURRENCY": "KGS",
        "A1": "1850",
        "A2": "2000",
        "B1": "2150",
        "B2": "3050",
        "C1": "3350",
        "C2": "3590"
    },
    {
        "COUNTRY": "LATVIA",
        "CURRENCY": "LVL",
        "A1": "26",
        "A2": "32",
        "B1": "39",
        "B2": "43",
        "C1": "48",
        "C2": "55"
    },
    {
        "COUNTRY": "LEBANON",
        "CURRENCY": "LBP",
        "A1": "120000",
        "A2": "135000",
        "B1": "156600",
        "B2": "199500",
        "C1": "220000",
        "C2": "236000"
    },
    {
        "COUNTRY": "LIECHTENSTEIN",
        "CURRENCY": "CHF",
        "A1": "128",
        "A2": "142",
        "B1": "176",
        "B2": "214",
        "C1": "238",
        "C2": "256"
    },
    {
        "COUNTRY": "LITHUANIA",
        "CURRENCY": "LTL",
        "A1": "119",
        "A2": "145",
        "B1": "178",
        "B2": "196",
        "C1": "205",
        "C2": "255"
    },
    {
        "COUNTRY": "LUXEMBURG",
        "CURRENCY": "EUR",
        "A1": "90",
        "A2": "105",
        "B1": "110",
        "B2": "150",
        "C1": "185",
        "C2": "200"
    },
    {
        "COUNTRY": "MALAYSIA",
        "CURRENCY": "MYR",
        "A1": "210",
        "A2": "245",
        "B1": "270",
        "B2": "340",
        "C1": "490",
        "C2": "420"
    },
    {
        "COUNTRY": "MALTA",
        "CURRENCY": "EUR",
        "A1": "60",
        "A2": "70",
        "B1": "82",
        "B2": "102",
        "C1": "115",
        "C2": "122"
    },
    {
        "COUNTRY": "MARTINICA",
        "CURRENCY": "EUR",
        "A1": "84",
        "A2": "95",
        "B1": "104",
        "B2": "140",
        "C1": "150",
        "C2": "155"
    },
    {
        "COUNTRY": "MEXICO",
        "CURRENCY": "MXN",
        "A1": "770",
        "A2": "920",
        "B1": "1095",
        "B2": "1265",
        "C1": "1350",
        "C2": "1420"
    },
    {
        "COUNTRY": "MOLDAVIA",
        "CURRENCY": "MDL",
        "A1": "400",
        "A2": "450",
        "B1": "485",
        "B2": "680",
        "C1": "760",
        "C2": "800"
    },
    {
        "COUNTRY": "MOROCCO",
        "CURRENCY": "MAD",
        "A1": "340",
        "A2": "390",
        "B1": "440",
        "B2": "565",
        "C1": "595",
        "C2": "620"
    },
    {
        "COUNTRY": "NAMIBIA",
        "CURRENCY": "NAD",
        "A1": "326",
        "A2": "404",
        "B1": "453",
        "B2": "537",
        "C1": "562",
        "C2": "593"
    },
    {
        "COUNTRY": "NETHERLAND",
        "CURRENCY": "EUR",
        "A1": "86",
        "A2": "95",
        "B1": "105",
        "B2": "140",
        "C1": "150",
        "C2": "160"
    },
    {
        "COUNTRY": "N. ZEALAND",
        "CURRENCY": "NZD",
        "A1": "205",
        "A2": "260",
        "B1": "305",
        "B2": "345",
        "C1": "365",
        "C2": "380"
    },
    {
        "COUNTRY": "NIGERIA",
        "CURRENCY": "NGN",
        "A1": "4550",
        "A2": "5550",
        "B1": "6520",
        "B2": "7700",
        "C1": "8100",
        "C2": "8500"
    },
    {
        "COUNTRY": "NORWAY",
        "CURRENCY": "NOK",
        "A1": "895",
        "A2": "990",
        "B1": "1161",
        "B2": "1485",
        "C1": "1690",
        "C2": "1810"
    },
    {
        "COUNTRY": "PALESTINE",
        "CURRENCY": "NIS",
        "A1": "130",
        "A2": "160",
        "B1": "180",
        "B2": "210",
        "C1": "225",
        "C2": "240"
    },
    {
        "COUNTRY": "PANAMA",
        "CURRENCY": "PAB",
        "A1": "57",
        "A2": "70",
        "B1": "80",
        "B2": "95",
        "C1": "100",
        "C2": "106"
    },
    {
        "COUNTRY": "PERU",
        "CURRENCY": "PEN",
        "A1": "175",
        "A2": "210",
        "B1": "246",
        "B2": "290",
        "C1": "300",
        "C2": "320"
    },
    {
        "COUNTRY": "PHILIPPINES",
        "CURRENCY": "PHP",
        "A1": "1930",
        "A2": "2480",
        "B1": "2940",
        "B2": "3250",
        "C1": "3570",
        "C2": "3950"
    },
    {
        "COUNTRY": "POLAND",
        "CURRENCY": "PLZ",
        "A1": "235",
        "A2": "280",
        "B1": "340",
        "B2": "390",
        "C1": "410",
        "C2": "435"
    },
    {
        "COUNTRY": "PORTUGAL",
        "CURRENCY": "EUR",
        "A1": "75",
        "A2": "85",
        "B1": "97",
        "B2": "125",
        "C1": "130",
        "C2": "137"
    },
    {
        "COUNTRY": "ROMANIA",
        "CURRENCY": "RON",
        "A1": "150",
        "A2": "180",
        "B1": "200",
        "B2": "245",
        "C1": "280",
        "C2": "300"
    },
    {
        "COUNTRY": "RUSSIA",
        "CURRENCY": "RUB",
        "A1": "2040",
        "A2": "2365",
        "B1": "2920",
        "B2": "3430",
        "C1": "3795",
        "C2": "4175"
    },
    {
        "COUNTRY": "SENEGAL",
        "CURRENCY": "XOF",
        "A1": "16600",
        "A2": "20000",
        "B1": "23800",
        "B2": "28000",
        "C1": "30300",
        "C2": "31000"
    },
    {
        "COUNTRY": "SERBIA",
        "CURRENCY": "CSD",
        "A1": "3640",
        "A2": "4125",
        "B1": "4830",
        "B2": "6000",
        "C1": "6700",
        "C2": "7200"
    },
    {
        "COUNTRY": "SINGAPORE",
        "CURRENCY": "SGD",
        "A1": "120",
        "A2": "145",
        "B1": "165",
        "B2": "200",
        "C1": "220",
        "C2": "240"
    },
    {
        "COUNTRY": "SLOVAQUIA",
        "CURRENCY": "EUR",
        "A1": "35",
        "A2": "41",
        "B1": "48",
        "B2": "59",
        "C1": "66",
        "C2": "71"
    },
    {
        "COUNTRY": "SLOVENIA",
        "CURRENCY": "EUR",
        "A1": "41",
        "A2": "50",
        "B1": "58",
        "B2": "69",
        "C1": "75",
        "C2": "81"
    },
    {
        "COUNTRY": "SOUTH AFRICA",
        "CURRENCY": "ZAR",
        "A1": "540",
        "A2": "620",
        "B1": "740",
        "B2": "915",
        "C1": "985",
        "C2": "1060"
    },
    {
        "COUNTRY": "SOUTH KOREA",
        "CURRENCY": "KRW",
        "A1": "100000",
        "A2": "130000",
        "B1": "150000",
        "B2": "170000",
        "C1": "185000",
        "C2": "200000"
    },
    {
        "COUNTRY": "SPAIN",
        "CURRENCY": "EUR",
        "A1": "102",
        "A2": "117",
        "B1": "148",
        "B2": "170",
        "C1": "178",
        "C2": "185"
    },
    {
        "COUNTRY": "SWEDEN",
        "CURRENCY": "SEK",
        "A1": "1045",
        "A2": "1250",
        "B1": "1420",
        "B2": "1745",
        "C1": "1950",
        "C2": "2070"
    },
    {
        "COUNTRY": "SWITZERLAND",
        "CURRENCY": "CHF",
        "A1": "146",
        "A2": "180",
        "B1": "213",
        "B2": "243",
        "C1": "275",
        "C2": "292"
    },
    {
        "COUNTRY": "SYRIA",
        "CURRENCY": "SYP",
        "A1": "1900",
        "A2": "2200",
        "B1": "2800",
        "B2": "3200",
        "C1": "3500",
        "C2": "3900"
    }
]