[
    {
        "col 1": "Carlow",
        "col 2": "St Dympna",
        "col 3": ""
    },
    {
        "col 1": "Cavan",
        "col 2": "Cavan General Hospital",
        "col 3": ""
    },
    {
        "col 1": "Clare",
        "col 2": "Mid-Western Regional Hospital",
        "col 3": "Ennis"
    },
    {
        "col 1": "Cork",
        "col 2": "Bantry General Hospital",
        "col 3": "Bantry"
    },
    {
        "col 1": "",
        "col 2": "Bon Secours Hospital",
        "col 3": "Cork"
    },
    {
        "col 1": "",
        "col 2": "Cork Medical Centre",
        "col 3": "Cork"
    },
    {
        "col 1": "",
        "col 2": "Cork University Hospital",
        "col 3": "Cork"
    },
    {
        "col 1": "",
        "col 2": "Erinville Hospital",
        "col 3": "Cork"
    },
    {
        "col 1": "",
        "col 2": "Mallow General Hospital",
        "col 3": "Mallow"
    },
    {
        "col 1": "",
        "col 2": "Marymount Hospital",
        "col 3": "Cork"
    },
    {
        "col 1": "",
        "col 2": "Mercy Hospital",
        "col 3": "Cork"
    },
    {
        "col 1": "",
        "col 2": "Shanakiel Hospital",
        "col 3": "Cork"
    },
    {
        "col 1": "",
        "col 2": "South Infirmary Victoria University Hospital",
        "col 3": "Cork"
    },
    {
        "col 1": "",
        "col 2": "Bandon Community Hospital",
        "col 3": "Bandon"
    },
    {
        "col 1": "",
        "col 2": "St. Anthony's Hospital (Cork)",
        "col 3": "Dunmanway"
    },
    {
        "col 1": "",
        "col 2": "St. Finbarr's Hospital",
        "col 3": "Cork"
    },
    {
        "col 1": "",
        "col 2": "St. Mary's Orthopaedic Hospital",
        "col 3": "Cork"
    },
    {
        "col 1": "",
        "col 2": "St. Patrick's Hospital",
        "col 3": "Fermoy"
    },
    {
        "col 1": "",
        "col 2": "Tabor Lodge",
        "col 3": "Tabor"
    },
    {
        "col 1": "County Donegal",
        "col 2": "Donegal Hospital",
        "col 3": "Donegal"
    },
    {
        "col 1": "",
        "col 2": "Killybegs Community Hospital",
        "col 3": "Killybegs"
    },
    {
        "col 1": "",
        "col 2": "Letterkenny General Hospital",
        "col 3": "Letterkenny"
    },
    {
        "col 1": "",
        "col 2": "St. Conal's Psychiatric Hospital",
        "col 3": "Letterkenny"
    },
    {
        "col 1": "County Dublin",
        "col 2": "Beaumont Hospital",
        "col 3": "Dublin"
    },
    {
        "col 1": "",
        "col 2": "Blackrock Clinic",
        "col 3": "Blackrock"
    },
    {
        "col 1": "",
        "col 2": "Bloomfield Care Centre",
        "col 3": "Rathfarnham"
    },
    {
        "col 1": "",
        "col 2": "Bon Secours Hospital",
        "col 3": "Dublin"
    },
    {
        "col 1": "",
        "col 2": "Cappagh National Orthopaedic Hospital",
        "col 3": "Finglas"
    },
    {
        "col 1": "",
        "col 2": "Central Mental Hospital",
        "col 3": "Dundrum"
    },
    {
        "col 1": "",
        "col 2": "Cherry Orchard Hospital",
        "col 3": "Ballyfermot"
    },
    {
        "col 1": "",
        "col 2": "Children's University Hospital",
        "col 3": "Temple Street"
    },
    {
        "col 1": "",
        "col 2": "Clonskeagh Hospital",
        "col 3": "Clonskeagh"
    },
    {
        "col 1": "",
        "col 2": "Coombe Women's Hospital",
        "col 3": "Dolphin's Barn"
    },
    {
        "col 1": "",
        "col 2": "Hermitage Medical Clinic",
        "col 3": "Lucan"
    },
    {
        "col 1": "",
        "col 2": "Highfield Hospital",
        "col 3": "Whitehall"
    },
    {
        "col 1": "",
        "col 2": "Incorporated Orthopaedic Hospital of Ireland",
        "col 3": "Clontarf"
    },
    {
        "col 1": "",
        "col 2": "Connolly Hospital",
        "col 3": "Blanchardstown"
    },
    {
        "col 1": "",
        "col 2": "Dublin Dental Hospital",
        "col 3": "Lincoln Place"
    },
    {
        "col 1": "",
        "col 2": "Leopardstown Park Hospital",
        "col 3": "Foxrock"
    },
    {
        "col 1": "",
        "col 2": "Mater Misericordiae University Hospital",
        "col 3": "Dublin"
    },
    {
        "col 1": "",
        "col 2": "",
        "col 3": ""
    },
    {
        "col 1": "",
        "col 2": "Mater Private Hospital",
        "col 3": "Eccles Street"
    },
    {
        "col 1": "",
        "col 2": "Mount Carmel Hospital",
        "col 3": "Churchtown"
    },
    {
        "col 1": "",
        "col 2": "National Maternity Hospital",
        "col 3": "Holles Street"
    },
    {
        "col 1": "",
        "col 2": "National Rehabilitation Hospital",
        "col 3": "Dun Laoghaire"
    },
    {
        "col 1": "",
        "col 2": "Our Lady's Hospital for Sick Children",
        "col 3": "Crumlin"
    },
    {
        "col 1": "",
        "col 2": "Peamount Hospital",
        "col 3": "Newcastle"
    },
    {
        "col 1": "",
        "col 2": "The Rotunda Maternity Hospital",
        "col 3": ""
    },
    {
        "col 1": "",
        "col 2": "Royal City of Dublin Hospital",
        "col 3": "Baggot Street"
    },
    {
        "col 1": "",
        "col 2": "The Royal Hospital",
        "col 3": "Donnybroo"
    },
    {
        "col 1": "",
        "col 2": "Royal Victoria Eye and Ear Hospital",
        "col 3": "Adelaide Road"
    },
    {
        "col 1": "",
        "col 2": "St. Brendan's Hospital",
        "col 3": "Dublin"
    },
    {
        "col 1": "",
        "col 2": "St. Bricin's Military Hospital",
        "col 3": "Arbour Hill"
    },
    {
        "col 1": "",
        "col 2": "St. Columcille's Hospital",
        "col 3": "Loughlinstown"
    },
    {
        "col 1": "",
        "col 2": "St. Edmundsbury Hospital",
        "col 3": "Lucan"
    },
    {
        "col 1": "",
        "col 2": "St. Ita's Psychiatric Hospital",
        "col 3": "Portrane"
    },
    {
        "col 1": "",
        "col 2": "St. James's Hospital",
        "col 3": "Rialto"
    },
    {
        "col 1": "",
        "col 2": "St. John of God Hospital",
        "col 3": "Stillorgan"
    },
    {
        "col 1": "",
        "col 2": "St. Joseph's Hospital",
        "col 3": "Dublin"
    },
    {
        "col 1": "",
        "col 2": "St. Loman's Hospital",
        "col 3": "Palmerstown"
    },
    {
        "col 1": "",
        "col 2": "St. Mary's Hospital (Baldoyle)",
        "col 3": "Baldoyle"
    },
    {
        "col 1": "",
        "col 2": "",
        "col 3": ""
    },
    {
        "col 1": "",
        "col 2": "St. Mary's Hospital (Phoenix Park)",
        "col 3": "Phoenix Park"
    },
    {
        "col 1": "",
        "col 2": "St. Michael's Hospital",
        "col 3": "Dun Laoghaire"
    },
    {
        "col 1": "",
        "col 2": "St. Patrick's Hospital",
        "col 3": "Dublin 8"
    },
    {
        "col 1": "",
        "col 2": "St. Paul's Hospital",
        "col 3": "Dublin"
    },
    {
        "col 1": "",
        "col 2": "St. Vincent's Psychiatric Hospital",
        "col 3": "Fairview"
    },
    {
        "col 1": "",
        "col 2": "St. Vincent's Private Hospital",
        "col 3": "Merrion Road"
    },
    {
        "col 1": "",
        "col 2": "St. Vincent's University Hospital",
        "col 3": "Elm Park"
    },
    {
        "col 1": "",
        "col 2": "Tallaght Hospital",
        "col 3": "Tallaght"
    },
    {
        "col 1": "",
        "col 2": "UPMC Beacon Hospital",
        "col 3": "Sandyford"
    },
    {
        "col 1": "County Galway",
        "col 2": "Bon Secours Hospital",
        "col 3": "Galway"
    },
    {
        "col 1": "",
        "col 2": "",
        "col 3": ""
    },
    {
        "col 1": "",
        "col 2": "Galway Clinic",
        "col 3": "Galway"
    },
    {
        "col 1": "",
        "col 2": "Merlin Park Regional Hospital",
        "col 3": "Galway"
    },
    {
        "col 1": "",
        "col 2": "Portiuncula Hospital",
        "col 3": "Ballinasloe"
    },
    {
        "col 1": "",
        "col 2": "University College Hospital Galway",
        "col 3": "Galway"
    },
    {
        "col 1": "County Kerry",
        "col 2": "Bon Secours Hospital",
        "col 3": "Tralee"
    },
    {
        "col 1": "",
        "col 2": "Cahersiveen Community Hospital (St. Anne's)",
        "col 3": "Cahersiveen"
    },
    {
        "col 1": "",
        "col 2": "Dingle Community Hospital (St. Elizabeth's)",
        "col 3": "Dingle"
    },
    {
        "col 1": "",
        "col 2": "Kenmare Community Hospital",
        "col 3": "Kenmare"
    },
    {
        "col 1": "",
        "col 2": "Killarney Community Hospital",
        "col 3": "Killarney"
    },
    {
        "col 1": "",
        "col 2": "Listowel Community Hospital",
        "col 3": "Listowel"
    },
    {
        "col 1": "",
        "col 2": "St. Finan's Hospital",
        "col 3": "Killarney"
    },
    {
        "col 1": "",
        "col 2": "Tralee General Hospital",
        "col 3": "Tralee"
    },
    {
        "col 1": "County Kildare",
        "col 2": "Clane Hospital",
        "col 3": "Clane"
    },
    {
        "col 1": "",
        "col 2": "Naas General Hospital",
        "col 3": "Naas"
    },
    {
        "col 1": "",
        "col 2": "St. Vincent's Hospital",
        "col 3": "Athy"
    },
    {
        "col 1": "County Kilkenny",
        "col 2": "Aut Even Hospital",
        "col 3": "Kilkenny"
    },
    {
        "col 1": "",
        "col 2": "Castlecomer District Hospital",
        "col 3": "Castlecomer"
    },
    {
        "col 1": "",
        "col 2": "Lourdes Regional Orthopaedic Hospital",
        "col 3": "Kilcreene"
    },
    {
        "col 1": "",
        "col 2": "St. Canice's Psychiatric Hospital",
        "col 3": "Kilkenny"
    },
    {
        "col 1": "",
        "col 2": "St. Luke's General Hospital",
        "col 3": "Kilkenny"
    },
    {
        "col 1": "County Laois",
        "col 2": "Midland Regional Hospital",
        "col 3": "Portlaoise"
    },
    {
        "col 1": "County Leitrim",
        "col 2": "Our Lady's Hospital",
        "col 3": "Manorhamilton"
    },
    {
        "col 1": "County Limerick",
        "col 2": "Barringtons Hospital",
        "col 3": "Limerick"
    },
    {
        "col 1": "",
        "col 2": "Mid-Western Regional Hospital",
        "col 3": "Limerick"
    },
    {
        "col 1": "",
        "col 2": "Mid-Western Regional Orthopaedic Hospital",
        "col 3": "Croom"
    },
    {
        "col 1": "",
        "col 2": "St. Camillus' Geriatric Hospital",
        "col 3": "Limerick"
    },
    {
        "col 1": "",
        "col 2": "St. John's Hospital (Limerick)",
        "col 3": ""
    },
    {
        "col 1": "",
        "col 2": "St. Munchins Maternity Hospital",
        "col 3": "Limerick"
    },
    {
        "col 1": "County Louth",
        "col 2": "Louth County Hospital",
        "col 3": "Dundalk"
    },
    {
        "col 1": "",
        "col 2": "Our Lady of Lourdes Hospital",
        "col 3": "Drogheda"
    },
    {
        "col 1": "",
        "col 2": "St. Brigid's Psychiatric Hospital",
        "col 3": "Ardee"
    },
    {
        "col 1": "County Mayo",
        "col 2": "Mayo General Hospital",
        "col 3": "Castlebar"
    },
    {
        "col 1": "",
        "col 2": "Ballina District Hospital",
        "col 3": "Ballina"
    },
    {
        "col 1": "",
        "col 2": "Swinford District Hospital",
        "col 3": "Swinford"
    },
    {
        "col 1": "",
        "col 2": "Belmullet District Hospital",
        "col 3": "Belmullet"
    },
    {
        "col 1": "County Meath",
        "col 2": "Our Lady's Hospital",
        "col 3": "Navan"
    },
    {
        "col 1": "",
        "col 2": "St. Joseph's Hospital",
        "col 3": "Trim"
    },
    {
        "col 1": "County Monaghan",
        "col 2": "Monaghan Hospital",
        "col 3": "Monaghan"
    },
    {
        "col 1": "County Offaly",
        "col 2": "Birr District Hospital",
        "col 3": "Birr"
    },
    {
        "col 1": "",
        "col 2": "Midland Regional Hospital",
        "col 3": "Tullamore"
    },
    {
        "col 1": "County Roscommon",
        "col 2": "Roscommon County hospital Roscommon",
        "col 3": ""
    },
    {
        "col 1": "",
        "col 2": "Sacred Heart Hospital Roscommon",
        "col 3": ""
    },
    {
        "col 1": "County Sligo",
        "col 2": "Sligo General Hospital",
        "col 3": "Sligo"
    },
    {
        "col 1": "",
        "col 2": "St. John's Community Hospital",
        "col 3": "Sligo"
    },
    {
        "col 1": "",
        "col 2": "St. Joseph's Hospital",
        "col 3": "Sligo"
    },
    {
        "col 1": "County Tipperary",
        "col 2": "Mid-Western Regional Hospital",
        "col 3": "Nenagh"
    },
    {
        "col 1": "",
        "col 2": "South Tipperary General Hospital",
        "col 3": "Clonmel"
    },
    {
        "col 1": "",
        "col 2": "St. Brigid's District Hospital",
        "col 3": "Carrick on Suir"
    },
    {
        "col 1": "County Waterford",
        "col 2": "St. Joseph's Hospital",
        "col 3": "Dungarvan"
    },
    {
        "col 1": "",
        "col 2": "St. Otteran's Psychiatric Hospital",
        "col 3": "Waterford"
    },
    {
        "col 1": "",
        "col 2": "St. Vincent's District Hospital",
        "col 3": "Dungarvan"
    },
    {
        "col 1": "",
        "col 2": "Waterford Regional Hospital",
        "col 3": "Waterford"
    },
    {
        "col 1": "County Westmeath",
        "col 2": "Midland Regional Hospital",
        "col 3": "Mullingar"
    },
    {
        "col 1": "",
        "col 2": "St. Loman's Psychiatric Hospital",
        "col 3": "Mullingar"
    },
    {
        "col 1": "",
        "col 2": "St. Mary's Hospital (Mullingar)",
        "col 3": "Mullingar"
    },
    {
        "col 1": "",
        "col 2": "Saint Francis Private Hospital",
        "col 3": "Mullingar"
    },
    {
        "col 1": "County Wexford",
        "col 2": "Ely Hospital",
        "col 3": "Wexford"
    },
    {
        "col 1": "",
        "col 2": "Gorey District Hospital",
        "col 3": "Gorey"
    },
    {
        "col 1": "",
        "col 2": "New Houghton Hospital",
        "col 3": "New Ross"
    },
    {
        "col 1": "",
        "col 2": "St John's Hospital",
        "col 3": "Enniscorthy"
    },
    {
        "col 1": "",
        "col 2": "St Senan's Psychiatric Hospital",
        "col 3": "Enniscorthy"
    },
    {
        "col 1": "",
        "col 2": "Wexford General Hospital",
        "col 3": "Wexford"
    },
    {
        "col 1": "County Wicklow",
        "col 2": "St. Vincent's Hospital",
        "col 3": "Wicklow"
    }
]