[
    {
        "Rank": "1",
        "Title": "Super Smash Bros. Melee",
        "Category": "Fighting",
        "Publisher": "Nintendo"
    },
    {
        "Rank": "2",
        "Title": "Pikmin 2",
        "Category": "Strategy/Sim",
        "Publisher": "Nintendo"
    },
    {
        "Rank": "3",
        "Title": "Legend of Zelda: Collector's Edition",
        "Category": "RPG",
        "Publisher": "Nintendo"
    },
    {
        "Rank": "4",
        "Title": "Legend of Zelda: The Wind Waker",
        "Category": "Action Adventure",
        "Publisher": "Nintendo"
    },
    {
        "Rank": "5",
        "Title": "Metal Gear Solid: Twin Snakes",
        "Category": "Action Adventure",
        "Publisher": "Konami"
    },
    {
        "Rank": "6",
        "Title": "Mario Party 7",
        "Category": "Kids/Family",
        "Publisher": "Nintendo"
    },
    {
        "Rank": "7",
        "Title": "The Legend of Zelda: Twilight Princess",
        "Category": "Action Adventure",
        "Publisher": "Nintendo"
    },
    {
        "Rank": "8",
        "Title": "Mario Kart: Double Dash",
        "Category": "Racing",
        "Publisher": "Nintendo"
    },
    {
        "Rank": "9",
        "Title": "Wario World",
        "Category": "Action Adventure",
        "Publisher": "Nintendo"
    },
    {
        "Rank": "10",
        "Title": "Super Mario Sunshine",
        "Category": "Action Adventure",
        "Publisher": "Nintendo"
    }
]