[
    {
        "Species": "Horned Grebe",
        "Code": "HOGR",
        "1999": "X",
        "2000": "X",
        "2001": ""
    },
    {
        "Species": "Pied-billed Grebe *",
        "Code": "PBGR",
        "1999": "X",
        "2000": "X",
        "2001": "X"
    },
    {
        "Species": "Common Loon",
        "Code": "COLO",
        "1999": "X",
        "2000": "X",
        "2001": "X"
    },
    {
        "Species": "Herring Gull *",
        "Code": "HERG",
        "1999": "X",
        "2000": "X",
        "2001": "X"
    },
    {
        "Species": "Ring-billed Gull *",
        "Code": "RBGU",
        "1999": "X",
        "2000": "X",
        "2001": "X"
    },
    {
        "Species": "Franklin's Gull",
        "Code": "FRGU",
        "1999": "",
        "2000": "",
        "2001": ""
    },
    {
        "Species": "Greater Black-Backed Gull",
        "Code": "GBBG",
        "1999": "",
        "2000": "",
        "2001": "X"
    },
    {
        "Species": "Bonaparte's Gull",
        "Code": "BOGU",
        "1999": "X",
        "2000": "X",
        "2001": "X"
    },
    {
        "Species": "Caspian Tern *",
        "Code": "CATE",
        "1999": "X",
        "2000": "X",
        "2001": "X"
    },
    {
        "Species": "Forster's Tern *",
        "Code": "FOTE",
        "1999": "X",
        "2000": "X",
        "2001": "X"
    },
    {
        "Species": "Common Tern *",
        "Code": "COTE",
        "1999": "X",
        "2000": "X",
        "2001": ""
    },
    {
        "Species": "Black Tern *",
        "Code": "BLTE",
        "1999": "X",
        "2000": "X",
        "2001": ""
    },
    {
        "Species": "Double-crested Cormorant *",
        "Code": "DCCO",
        "1999": "X",
        "2000": "X",
        "2001": "X"
    },
    {
        "Species": "American White Pelican *",
        "Code": "AWPE",
        "1999": "X",
        "2000": "X",
        "2001": "X"
    },
    {
        "Species": "Common Merganser *",
        "Code": "COME",
        "1999": "X",
        "2000": "X",
        "2001": "X"
    },
    {
        "Species": "Red-breasted Merganser",
        "Code": "RBME",
        "1999": "X",
        "2000": "X",
        "2001": "X"
    },
    {
        "Species": "Hooded Merganser *",
        "Code": "HOME",
        "1999": "X",
        "2000": "X",
        "2001": "X"
    },
    {
        "Species": "Mallard *",
        "Code": "MALL",
        "1999": "X",
        "2000": "X",
        "2001": "X"
    },
    {
        "Species": "American Black Duck *",
        "Code": "ABDU",
        "1999": "X",
        "2000": "X",
        "2001": "X"
    },
    {
        "Species": "Gadwall *",
        "Code": "GADW",
        "1999": "X",
        "2000": "X",
        "2001": "X"
    },
    {
        "Species": "American Wigeon *",
        "Code": "AMWI",
        "1999": "X",
        "2000": "X",
        "2001": "X"
    },
    {
        "Species": "Eurasion Wigeon",
        "Code": "EUWI",
        "1999": "",
        "2000": "X",
        "2001": ""
    },
    {
        "Species": "Green-winged Teal *",
        "Code": "AGWT",
        "1999": "X",
        "2000": "X",
        "2001": "X"
    },
    {
        "Species": "Blue-winged Teal *",
        "Code": "BWTE",
        "1999": "X",
        "2000": "X",
        "2001": "X"
    },
    {
        "Species": "Northern Shoveler *",
        "Code": "NSHO",
        "1999": "X",
        "2000": "X",
        "2001": "X"
    },
    {
        "Species": "Northern Pintail *",
        "Code": "NOPI",
        "1999": "X",
        "2000": "X",
        "2001": "X"
    },
    {
        "Species": "Wood Duck *",
        "Code": "WODU",
        "1999": "X",
        "2000": "X",
        "2001": "X"
    },
    {
        "Species": "Redhead *",
        "Code": "REDH",
        "1999": "X",
        "2000": "X",
        "2001": "X"
    },
    {
        "Species": "Canvasback *",
        "Code": "CANV",
        "1999": "X",
        "2000": "X",
        "2001": "X"
    },
    {
        "Species": "Greater Scaup",
        "Code": "GRSC",
        "1999": "X",
        "2000": "X",
        "2001": "X"
    },
    {
        "Species": "Lesser Scaup *",
        "Code": "LESC",
        "1999": "X",
        "2000": "X",
        "2001": "X"
    },
    {
        "Species": "Ring-Necked Duck",
        "Code": "RNDU",
        "1999": "X",
        "2000": "X",
        "2001": "X"
    },
    {
        "Species": "Common Goldeneye",
        "Code": "COGO",
        "1999": "X",
        "2000": "X",
        "2001": "X"
    },
    {
        "Species": "Bufflehead",
        "Code": "BUFF",
        "1999": "X",
        "2000": "X",
        "2001": "X"
    },
    {
        "Species": "Oldsquaw",
        "Code": "OLDS",
        "1999": "X",
        "2000": "",
        "2001": ""
    },
    {
        "Species": "Harlequin Duck",
        "Code": "HARD",
        "1999": "",
        "2000": "X",
        "2001": ""
    },
    {
        "Species": "Black Scoter",
        "Code": "BLSC",
        "1999": "X",
        "2000": "X",
        "2001": ""
    },
    {
        "Species": "White-winged scoter",
        "Code": "WWSC",
        "1999": "X",
        "2000": "",
        "2001": ""
    },
    {
        "Species": "Ruddy Duck *",
        "Code": "RUDU",
        "1999": "X",
        "2000": "X",
        "2001": "X"
    },
    {
        "Species": "Snow Goose (Lesser, White Phase",
        "Code": "LSGO",
        "1999": "X",
        "2000": "",
        "2001": ""
    },
    {
        "Species": "Snow Goose (Lesser, Blue Phase",
        "Code": "BLGO",
        "1999": "X",
        "2000": "",
        "2001": ""
    },
    {
        "Species": "Canada Goose *",
        "Code": "CAGO",
        "1999": "X",
        "2000": "X",
        "2001": "X"
    },
    {
        "Species": "Tundra Swan",
        "Code": "WHSW",
        "1999": "X",
        "2000": "X",
        "2001": "X"
    },
    {
        "Species": "American Bittern *",
        "Code": "AMBI",
        "1999": "X",
        "2000": "X",
        "2001": ""
    },
    {
        "Species": "Least Bittern *",
        "Code": "LEBI",
        "1999": "",
        "2000": "X",
        "2001": ""
    },
    {
        "Species": "Great Blue Heron *",
        "Code": "GBHE",
        "1999": "X",
        "2000": "X",
        "2001": "X"
    },
    {
        "Species": "Great Egret *",
        "Code": "GREG",
        "1999": "X",
        "2000": "X",
        "2001": "X"
    },
    {
        "Species": "Snowy Egret *",
        "Code": "SNEG",
        "1999": "",
        "2000": "X",
        "2001": ""
    },
    {
        "Species": "Green Heron *",
        "Code": "GRHE",
        "1999": "X",
        "2000": "X",
        "2001": "X"
    },
    {
        "Species": "Black-crowned Night-Heron *",
        "Code": "BCNH",
        "1999": "X",
        "2000": "X",
        "2001": ""
    },
    {
        "Species": "Sandhill Crane *",
        "Code": "SACR",
        "1999": "X",
        "2000": "X",
        "2001": "X"
    },
    {
        "Species": "Virginia Rail *",
        "Code": "VIRA",
        "1999": "X",
        "2000": "",
        "2001": ""
    },
    {
        "Species": "Sora *",
        "Code": "SORA",
        "1999": "X",
        "2000": "X",
        "2001": "X"
    },
    {
        "Species": "Common Moorhen *",
        "Code": "COMO",
        "1999": "X",
        "2000": "",
        "2001": ""
    },
    {
        "Species": "American Coot *",
        "Code": "AMCO",
        "1999": "X",
        "2000": "X",
        "2001": "X"
    },
    {
        "Species": "Wilson's Phalarope",
        "Code": "WIPH",
        "1999": "",
        "2000": "X",
        "2001": ""
    },
    {
        "Species": "Red-necked Phalarope",
        "Code": "RNPH",
        "1999": "",
        "2000": "",
        "2001": ""
    },
    {
        "Species": "American Woodcock *",
        "Code": "AMWO",
        "1999": "X",
        "2000": "X",
        "2001": "X"
    },
    {
        "Species": "Common Snipe *",
        "Code": "COSN",
        "1999": "X",
        "2000": "X",
        "2001": "X"
    },
    {
        "Species": "Short-billed Dowitcher",
        "Code": "SBDO",
        "1999": "",
        "2000": "",
        "2001": "X"
    },
    {
        "Species": "Long-billed Dowitcher",
        "Code": "LBDO",
        "1999": "",
        "2000": "",
        "2001": ""
    },
    {
        "Species": "Red Knot",
        "Code": "REKN",
        "1999": "X",
        "2000": "",
        "2001": ""
    },
    {
        "Species": "Pectoral Sandpiper",
        "Code": "PESA",
        "1999": "X",
        "2000": "X",
        "2001": "X"
    },
    {
        "Species": "White-rumped Sandpiper",
        "Code": "WRSA",
        "1999": "",
        "2000": "",
        "2001": ""
    },
    {
        "Species": "Baird's Sandpiper",
        "Code": "BASA",
        "1999": "X",
        "2000": "X",
        "2001": "X"
    },
    {
        "Species": "Least Sandpiper",
        "Code": "LESA",
        "1999": "X",
        "2000": "X",
        "2001": "X"
    },
    {
        "Species": "Dunlin",
        "Code": "DUNL",
        "1999": "X",
        "2000": "X",
        "2001": "X"
    },
    {
        "Species": "Semipalmated Sandpiper",
        "Code": "SESA",
        "1999": "X",
        "2000": "X",
        "2001": "X"
    },
    {
        "Species": "Sanderling",
        "Code": "SAND",
        "1999": "X",
        "2000": "X",
        "2001": ""
    },
    {
        "Species": "Marbled Godwit",
        "Code": "MAGO",
        "1999": "X",
        "2000": "",
        "2001": ""
    },
    {
        "Species": "Hudsonian Godwit",
        "Code": "HUGO",
        "1999": "",
        "2000": "",
        "2001": ""
    },
    {
        "Species": "Greater Yellowlegs",
        "Code": "GRYE",
        "1999": "X",
        "2000": "X",
        "2001": "X"
    },
    {
        "Species": "Lesser Yellowlegs",
        "Code": "LEYE",
        "1999": "X",
        "2000": "X",
        "2001": "X"
    },
    {
        "Species": "Solitary Sandpiper",
        "Code": "SOSA",
        "1999": "X",
        "2000": "X",
        "2001": "X"
    },
    {
        "Species": "Willet",
        "Code": "WILL",
        "1999": "X",
        "2000": "",
        "2001": ""
    },
    {
        "Species": "Spotted Sandpiper *",
        "Code": "SPSA",
        "1999": "X",
        "2000": "X",
        "2001": "X"
    },
    {
        "Species": "Black-bellied Plover",
        "Code": "BBPL",
        "1999": "X",
        "2000": "X",
        "2001": "X"
    },
    {
        "Species": "American Golden Plover",
        "Code": "AMGP",
        "1999": "X",
        "2000": "",
        "2001": ""
    },
    {
        "Species": "Killdeer *",
        "Code": "KILL",
        "1999": "X",
        "2000": "X",
        "2001": "X"
    },
    {
        "Species": "Semipalmated Plover",
        "Code": "SEPL",
        "1999": "X",
        "2000": "X",
        "2001": "X"
    },
    {
        "Species": "Ruddy Turnstone",
        "Code": "RUTU",
        "1999": "X",
        "2000": "X",
        "2001": "X"
    },
    {
        "Species": "Ruffed Grouse *",
        "Code": "RUGR",
        "1999": "",
        "2000": "X",
        "2001": ""
    },
    {
        "Species": "Ring-necked Pheasant *",
        "Code": "RPHE",
        "1999": "X",
        "2000": "",
        "2001": ""
    },
    {
        "Species": "Wild Turkey *",
        "Code": "WITU",
        "1999": "",
        "2000": "X",
        "2001": "X"
    },
    {
        "Species": "Rock Dove *",
        "Code": "RODO",
        "1999": "X",
        "2000": "X",
        "2001": ""
    },
    {
        "Species": "Mourning Dove *",
        "Code": "MODO",
        "1999": "X",
        "2000": "X",
        "2001": "X"
    },
    {
        "Species": "Turkey Vulture",
        "Code": "TUVU",
        "1999": "X",
        "2000": "X",
        "2001": "X"
    },
    {
        "Species": "Northern Harrier *",
        "Code": "NOHA",
        "1999": "",
        "2000": "X",
        "2001": "X"
    },
    {
        "Species": "Sharp-shinned Hawk",
        "Code": "SSHA",
        "1999": "X",
        "2000": "X",
        "2001": "X"
    },
    {
        "Species": "Cooper's Hawk *",
        "Code": "COHA",
        "1999": "X",
        "2000": "X",
        "2001": "X"
    },
    {
        "Species": "Northern Goshawk",
        "Code": "NOGO",
        "1999": "",
        "2000": "",
        "2001": "X"
    },
    {
        "Species": "Red-tailed Hawk *",
        "Code": "RTHA",
        "1999": "X",
        "2000": "X",
        "2001": "X"
    },
    {
        "Species": "Broad-winged Hawk",
        "Code": "BWHA",
        "1999": "X",
        "2000": "",
        "2001": ""
    },
    {
        "Species": "Rough-legged Hawk",
        "Code": "RLHA",
        "1999": "X",
        "2000": "X",
        "2001": ""
    },
    {
        "Species": "Bald Eagle *",
        "Code": "BAEA",
        "1999": "X",
        "2000": "X",
        "2001": "X"
    },
    {
        "Species": "Peregrine Falcon *",
        "Code": "PEFA",
        "1999": "X",
        "2000": "",
        "2001": "X"
    },
    {
        "Species": "Merlin",
        "Code": "MERL",
        "1999": "X",
        "2000": "X",
        "2001": "X"
    },
    {
        "Species": "American Kestrel *",
        "Code": "AMKE",
        "1999": "",
        "2000": "",
        "2001": ""
    },
    {
        "Species": "Osprey",
        "Code": "OSPR",
        "1999": "X",
        "2000": "",
        "2001": "X"
    },
    {
        "Species": "Eastern Screech Owl *",
        "Code": "EASO",
        "1999": "",
        "2000": "",
        "2001": ""
    },
    {
        "Species": "Great Horned Owl *",
        "Code": "GHOW",
        "1999": "X",
        "2000": "X",
        "2001": "X"
    },
    {
        "Species": "Yellow-Billed Cuckoo *",
        "Code": "YBCU",
        "1999": "",
        "2000": "",
        "2001": ""
    },
    {
        "Species": "Black-Billed Cuckoo *",
        "Code": "BBCU",
        "1999": "X",
        "2000": "",
        "2001": "X"
    },
    {
        "Species": "Belted Kingfisher *",
        "Code": "BEKI",
        "1999": "X",
        "2000": "X",
        "2001": "X"
    },
    {
        "Species": "Hairy Woodpecker *",
        "Code": "HAWO",
        "1999": "X",
        "2000": "X",
        "2001": "X"
    },
    {
        "Species": "Downy Woodpecker *",
        "Code": "DOWO",
        "1999": "X",
        "2000": "X",
        "2001": "X"
    },
    {
        "Species": "Yellow-Bellied Sapsucker *",
        "Code": "YBSA",
        "1999": "X",
        "2000": "X",
        "2001": "X"
    },
    {
        "Species": "Red-headed Woodpecker *",
        "Code": "RHWO",
        "1999": "X",
        "2000": "X",
        "2001": "X"
    },
    {
        "Species": "Red-bellied Woodpecker *",
        "Code": "RBWO",
        "1999": "X",
        "2000": "X",
        "2001": "X"
    },
    {
        "Species": "Northern Flicker (Yellow-shafted) *",
        "Code": "YSFL",
        "1999": "X",
        "2000": "X",
        "2001": "X"
    },
    {
        "Species": "Whip-poor-will *",
        "Code": "WPWI",
        "1999": "X",
        "2000": "",
        "2001": ""
    },
    {
        "Species": "Common Nighthawk *",
        "Code": "CONI",
        "1999": "X",
        "2000": "X",
        "2001": ""
    },
    {
        "Species": "Chimney Swift *",
        "Code": "CHSW",
        "1999": "X",
        "2000": "X",
        "2001": "X"
    },
    {
        "Species": "Ruby-throated Hummingbird *",
        "Code": "RTHU",
        "1999": "X",
        "2000": "X",
        "2001": ""
    },
    {
        "Species": "Eastern Kingbird *",
        "Code": "EAKI",
        "1999": "X",
        "2000": "X",
        "2001": "X"
    },
    {
        "Species": "Great Crested Flycatcher *",
        "Code": "GCFL",
        "1999": "X",
        "2000": "X",
        "2001": "X"
    },
    {
        "Species": "Eastern Phoebe *",
        "Code": "EAPH",
        "1999": "X",
        "2000": "X",
        "2001": "X"
    },
    {
        "Species": "Olive-Sided Flycatcher",
        "Code": "OSFL",
        "1999": "X",
        "2000": "",
        "2001": ""
    },
    {
        "Species": "Eastern Wood-Pewee *",
        "Code": "EAWP",
        "1999": "X",
        "2000": "X",
        "2001": "X"
    },
    {
        "Species": "Yellow-bellied Flycatcher",
        "Code": "YBFL",
        "1999": "X",
        "2000": "X",
        "2001": ""
    },
    {
        "Species": "Willow Flycatcher *",
        "Code": "WIFL",
        "1999": "X",
        "2000": "X",
        "2001": ""
    },
    {
        "Species": "Alder Flycatcher *",
        "Code": "ALFL",
        "1999": "X",
        "2000": "X",
        "2001": ""
    },
    {
        "Species": "Least Flycatcher *",
        "Code": "LEFL",
        "1999": "X",
        "2000": "X",
        "2001": "X"
    },
    {
        "Species": "Blue Jay *",
        "Code": "BLJA",
        "1999": "X",
        "2000": "X",
        "2001": "X"
    },
    {
        "Species": "Black-Billed Magpie",
        "Code": "BBMA",
        "1999": "",
        "2000": "",
        "2001": ""
    },
    {
        "Species": "American Crow *",
        "Code": "AMCR",
        "1999": "X",
        "2000": "X",
        "2001": "X"
    },
    {
        "Species": "European Starling *",
        "Code": "EUST",
        "1999": "X",
        "2000": "X",
        "2001": "X"
    },
    {
        "Species": "Bobolink *",
        "Code": "BOBO",
        "1999": "",
        "2000": "X",
        "2001": ""
    },
    {
        "Species": "Brown-headed Cowbird *",
        "Code": "BHCO",
        "1999": "X",
        "2000": "X",
        "2001": "X"
    },
    {
        "Species": "Yellow-headed Blackbird *",
        "Code": "YHBL",
        "1999": "X",
        "2000": "",
        "2001": ""
    },
    {
        "Species": "Red-winged Blackbird *",
        "Code": "RWBL",
        "1999": "X",
        "2000": "X",
        "2001": "X"
    },
    {
        "Species": "Eastern Meadowlark *",
        "Code": "EAME",
        "1999": "X",
        "2000": "",
        "2001": ""
    },
    {
        "Species": "Orchard Oriole *",
        "Code": "OROR",
        "1999": "X",
        "2000": "",
        "2001": "X"
    },
    {
        "Species": "Baltimore Oriole *",
        "Code": "BAOR",
        "1999": "X",
        "2000": "X",
        "2001": "X"
    },
    {
        "Species": "Rusty Blackbird",
        "Code": "RUBL",
        "1999": "X",
        "2000": "X",
        "2001": "X"
    },
    {
        "Species": "Brewer's Blackbird*",
        "Code": "BRBL",
        "1999": "",
        "2000": "",
        "2001": "X"
    },
    {
        "Species": "Common Grackle *",
        "Code": "COGR",
        "1999": "X",
        "2000": "X",
        "2001": "X"
    },
    {
        "Species": "Evening Grosbeak",
        "Code": "EVGR",
        "1999": "",
        "2000": "X",
        "2001": ""
    },
    {
        "Species": "Purple Finch",
        "Code": "PUFI",
        "1999": "",
        "2000": "X",
        "2001": "X"
    },
    {
        "Species": "Common Redpoll",
        "Code": "CORE",
        "1999": "X",
        "2000": "",
        "2001": ""
    },
    {
        "Species": "American Goldfinch *",
        "Code": "AMGO",
        "1999": "X",
        "2000": "X",
        "2001": "X"
    },
    {
        "Species": "Pine Siskin",
        "Code": "PISI",
        "1999": "",
        "2000": "X",
        "2001": ""
    },
    {
        "Species": "Snow Bunting",
        "Code": "SNBU",
        "1999": "X",
        "2000": "X",
        "2001": ""
    },
    {
        "Species": "Lapland Longspur",
        "Code": "LALO",
        "1999": "",
        "2000": "",
        "2001": ""
    },
    {
        "Species": "White-crowned Sparrow",
        "Code": "WCSP",
        "1999": "",
        "2000": "X",
        "2001": ""
    },
    {
        "Species": "White-throated Sparrow",
        "Code": "WTSP",
        "1999": "X",
        "2000": "X",
        "2001": "X"
    },
    {
        "Species": "American Tree Sparrow",
        "Code": "ATSP",
        "1999": "X",
        "2000": "X",
        "2001": "X"
    },
    {
        "Species": "Chipping Sparrow *",
        "Code": "CHSP",
        "1999": "X",
        "2000": "",
        "2001": "X"
    },
    {
        "Species": "Dark-eyed Junco (Slate-colored)",
        "Code": "SCJU",
        "1999": "X",
        "2000": "X",
        "2001": "X"
    },
    {
        "Species": "Song Sparrow *",
        "Code": "SOSP",
        "1999": "X",
        "2000": "X",
        "2001": "X"
    },
    {
        "Species": "Lincoln's Sparrow",
        "Code": "LISP",
        "1999": "X",
        "2000": "X",
        "2001": "X"
    },
    {
        "Species": "Swamp Sparrow *",
        "Code": "SWSP",
        "1999": "X",
        "2000": "X",
        "2001": "X"
    },
    {
        "Species": "Fox Sparrow",
        "Code": "FOSP",
        "1999": "X",
        "2000": "X",
        "2001": "X"
    },
    {
        "Species": "Eastern Towhee *",
        "Code": "EATO",
        "1999": "X",
        "2000": "X",
        "2001": "X"
    },
    {
        "Species": "Northern Cardinal *",
        "Code": "NOCA",
        "1999": "X",
        "2000": "X",
        "2001": "X"
    },
    {
        "Species": "Rose-breasted Grosbeak *",
        "Code": "RBGR",
        "1999": "X",
        "2000": "X",
        "2001": "X"
    },
    {
        "Species": "Indigo Bunting *",
        "Code": "INBU",
        "1999": "X",
        "2000": "X",
        "2001": ""
    },
    {
        "Species": "Scarlet Tanager *",
        "Code": "SCTA",
        "1999": "X",
        "2000": "X",
        "2001": "X"
    },
    {
        "Species": "Purple Martin *",
        "Code": "PUMA",
        "1999": "X",
        "2000": "X",
        "2001": "X"
    },
    {
        "Species": "Cliff Swallow *",
        "Code": "CLSW",
        "1999": "X",
        "2000": "X",
        "2001": "X"
    },
    {
        "Species": "Barn Swallow *",
        "Code": "BARS",
        "1999": "X",
        "2000": "X",
        "2001": "X"
    },
    {
        "Species": "Tree Swallow *",
        "Code": "TRES",
        "1999": "X",
        "2000": "X",
        "2001": "X"
    },
    {
        "Species": "Bank Swallow *",
        "Code": "BASW",
        "1999": "",
        "2000": "",
        "2001": "X"
    },
    {
        "Species": "Northern Rough-winged Swallow *",
        "Code": "NRWS",
        "1999": "X",
        "2000": "X",
        "2001": "X"
    },
    {
        "Species": "Cedar Waxwing *",
        "Code": "CEDW",
        "1999": "X",
        "2000": "X",
        "2001": "X"
    },
    {
        "Species": "Northern Shrike",
        "Code": "NSHR",
        "1999": "",
        "2000": "",
        "2001": ""
    },
    {
        "Species": "Red-eyed Vireo *",
        "Code": "REVI",
        "1999": "X",
        "2000": "X",
        "2001": "X"
    },
    {
        "Species": "Philadelphia Vireo",
        "Code": "PHVI",
        "1999": "X",
        "2000": "X",
        "2001": "X"
    },
    {
        "Species": "Warbling Vireo *",
        "Code": "WAVI",
        "1999": "X",
        "2000": "X",
        "2001": "X"
    },
    {
        "Species": "Yellow-throated Vireo *",
        "Code": "YTVI",
        "1999": "",
        "2000": "X",
        "2001": "X"
    },
    {
        "Species": "Blue-headed Vireo",
        "Code": "BHVI",
        "1999": "X",
        "2000": "X",
        "2001": ""
    },
    {
        "Species": "Black-and-white Warbler *",
        "Code": "BAWW",
        "1999": "X",
        "2000": "X",
        "2001": "X"
    },
    {
        "Species": "Prothonotary Warbler",
        "Code": "PROW",
        "1999": "X",
        "2000": "",
        "2001": ""
    },
    {
        "Species": "Blue-winged Warbler",
        "Code": "BWWA",
        "1999": "X",
        "2000": "X",
        "2001": "X"
    },
    {
        "Species": "Golden-winged Warbler",
        "Code": "GWWA",
        "1999": "X",
        "2000": "X",
        "2001": "X"
    },
    {
        "Species": "Nashville Warbler",
        "Code": "NAWA",
        "1999": "X",
        "2000": "X",
        "2001": "X"
    },
    {
        "Species": "Orange-crowned Warbler",
        "Code": "OCWA",
        "1999": "X",
        "2000": "X",
        "2001": "X"
    },
    {
        "Species": "Tennessee Warbler",
        "Code": "TEWA",
        "1999": "X",
        "2000": "X",
        "2001": "X"
    },
    {
        "Species": "Northern Parula",
        "Code": "NOPA",
        "1999": "X",
        "2000": "X",
        "2001": "X"
    },
    {
        "Species": "Cape May Warbler",
        "Code": "CMWA",
        "1999": "X",
        "2000": "X",
        "2001": "X"
    },
    {
        "Species": "Yellow Warbler *",
        "Code": "YWAR",
        "1999": "X",
        "2000": "X",
        "2001": "X"
    },
    {
        "Species": "Black-throated Blue Warbler",
        "Code": "BTBW",
        "1999": "X",
        "2000": "",
        "2001": "X"
    },
    {
        "Species": "Yellow-rumped Warbler (Myrtle)",
        "Code": "MYWA",
        "1999": "X",
        "2000": "X",
        "2001": "X"
    },
    {
        "Species": "Magnolia Warbler",
        "Code": "MAWA",
        "1999": "X",
        "2000": "X",
        "2001": "X"
    },
    {
        "Species": "Chestnut-sided Warbler",
        "Code": "CSWA",
        "1999": "X",
        "2000": "X",
        "2001": "X"
    },
    {
        "Species": "Bay-breasted Warbler",
        "Code": "BBWA",
        "1999": "X",
        "2000": "X",
        "2001": "X"
    },
    {
        "Species": "Blackpoll Warbler",
        "Code": "BLPW",
        "1999": "X",
        "2000": "X",
        "2001": "X"
    },
    {
        "Species": "Blackburnian Warbler",
        "Code": "BLBW",
        "1999": "X",
        "2000": "X",
        "2001": "X"
    },
    {
        "Species": "Black-throated Green Warbler",
        "Code": "BTNW",
        "1999": "X",
        "2000": "X",
        "2001": "X"
    },
    {
        "Species": "Palm Warbler (Western)",
        "Code": "WPWA",
        "1999": "X",
        "2000": "X",
        "2001": "X"
    },
    {
        "Species": "Palm Warbler (Yellow)",
        "Code": "YPWA",
        "1999": "",
        "2000": "X",
        "2001": ""
    },
    {
        "Species": "Ovenbird *",
        "Code": "OVEN",
        "1999": "X",
        "2000": "X",
        "2001": "X"
    },
    {
        "Species": "Northern Waterthrush",
        "Code": "NOWA",
        "1999": "X",
        "2000": "X",
        "2001": "X"
    },
    {
        "Species": "Louisiana Waterthrush",
        "Code": "LOWA",
        "1999": "",
        "2000": "",
        "2001": ""
    },
    {
        "Species": "Mourning Warbler *",
        "Code": "MOWA",
        "1999": "X",
        "2000": "X",
        "2001": "X"
    },
    {
        "Species": "Common Yellowthroat *",
        "Code": "COYE",
        "1999": "X",
        "2000": "X",
        "2001": "X"
    },
    {
        "Species": "Yellow-breasted Chat",
        "Code": "YBCH",
        "1999": "",
        "2000": "",
        "2001": ""
    },
    {
        "Species": "Wilson's Warbler",
        "Code": "WIWA",
        "1999": "X",
        "2000": "X",
        "2001": "X"
    },
    {
        "Species": "Canada Warbler",
        "Code": "CAWA",
        "1999": "X",
        "2000": "X",
        "2001": ""
    },
    {
        "Species": "American Redstart *",
        "Code": "AMRE",
        "1999": "X",
        "2000": "X",
        "2001": "X"
    },
    {
        "Species": "House Sparrow *",
        "Code": "HOSP",
        "1999": "",
        "2000": "X",
        "2001": "X"
    },
    {
        "Species": "American Pipit",
        "Code": "AMPI",
        "1999": "X",
        "2000": "X",
        "2001": ""
    },
    {
        "Species": "Gray Catbird *",
        "Code": "GRCA",
        "1999": "X",
        "2000": "X",
        "2001": "X"
    },
    {
        "Species": "Brown Thrasher *",
        "Code": "BRTH",
        "1999": "X",
        "2000": "X",
        "2001": "X"
    },
    {
        "Species": "House Wren *",
        "Code": "HOWR",
        "1999": "X",
        "2000": "X",
        "2001": "X"
    },
    {
        "Species": "Winter Wren",
        "Code": "WIWR",
        "1999": "X",
        "2000": "X",
        "2001": "X"
    },
    {
        "Species": "Sedge Wren *",
        "Code": "SEWR",
        "1999": "X",
        "2000": "",
        "2001": ""
    },
    {
        "Species": "Marsh Wren *",
        "Code": "MAWR",
        "1999": "X",
        "2000": "X",
        "2001": ""
    },
    {
        "Species": "Brown Creeper",
        "Code": "BRCR",
        "1999": "X",
        "2000": "X",
        "2001": "X"
    },
    {
        "Species": "White-breasted Nuthatch *",
        "Code": "WBNU",
        "1999": "X",
        "2000": "X",
        "2001": "X"
    },
    {
        "Species": "Red-breasted Nuthatch *",
        "Code": "RBNU",
        "1999": "X",
        "2000": "X",
        "2001": ""
    },
    {
        "Species": "Black-capped Chickadee *",
        "Code": "BCCH",
        "1999": "X",
        "2000": "X",
        "2001": "X"
    },
    {
        "Species": "Golden-crowned Kinglet",
        "Code": "GCKI",
        "1999": "X",
        "2000": "X",
        "2001": "X"
    },
    {
        "Species": "Ruby-crowned Kinglet",
        "Code": "RCKI",
        "1999": "X",
        "2000": "X",
        "2001": "X"
    },
    {
        "Species": "Blue-gray Gnatcatcher *",
        "Code": "BGGN",
        "1999": "X",
        "2000": "X",
        "2001": "X"
    },
    {
        "Species": "Eastern Bluebird *",
        "Code": "EABL",
        "1999": "",
        "2000": "X",
        "2001": "X"
    },
    {
        "Species": "Wood Thrush *",
        "Code": "WOTH",
        "1999": "X",
        "2000": "X",
        "2001": "X"
    },
    {
        "Species": "Veery *",
        "Code": "VEER",
        "1999": "X",
        "2000": "X",
        "2001": "X"
    },
    {
        "Species": "Gray-cheeked Thrush",
        "Code": "GCTH",
        "1999": "X",
        "2000": "X",
        "2001": ""
    },
    {
        "Species": "Swainson's Thrush",
        "Code": "SWTH",
        "1999": "X",
        "2000": "X",
        "2001": ""
    },
    {
        "Species": "Hermit Thrush",
        "Code": "HETH",
        "1999": "X",
        "2000": "X",
        "2001": "X"
    },
    {
        "Species": "American Robin *",
        "Code": "AMRO",
        "1999": "X",
        "2000": "X",
        "2001": "X"
    }
]