[
    {
        "Everest": "K-2",
        "8.848": "8.611",
        "Nepal/Tibet": "Pakistan",
        "Asia": "Asia"
    },
    {
        "Everest": "Kangchenjunga",
        "8.848": "8.586",
        "Nepal/Tibet": "Nepal/India",
        "Asia": "Asia"
    },
    {
        "Everest": "Lhotse",
        "8.848": "8.511",
        "Nepal/Tibet": "Nepal",
        "Asia": "Asia"
    },
    {
        "Everest": "Makalu",
        "8.848": "8.463",
        "Nepal/Tibet": "Nepal/Tibet",
        "Asia": "Asia"
    },
    {
        "Everest": "Cho Oyu",
        "8.848": "8.201",
        "Nepal/Tibet": "Nepal/Tibet",
        "Asia": "Asia"
    },
    {
        "Everest": "Dhaulagiri",
        "8.848": "8.167",
        "Nepal/Tibet": "Nepal",
        "Asia": "Asia"
    },
    {
        "Everest": "Manaslu",
        "8.848": "8.163",
        "Nepal/Tibet": "Nepal",
        "Asia": "Asia"
    },
    {
        "Everest": "Nanga Parbat",
        "8.848": "8.125",
        "Nepal/Tibet": "Pakistan",
        "Asia": "Asia"
    },
    {
        "Everest": "Annapurna",
        "8.848": "8.091",
        "Nepal/Tibet": "Nepal",
        "Asia": "Asia"
    },
    {
        "Everest": "Gasherbrum I",
        "8.848": "8.068",
        "Nepal/Tibet": "Pakistan",
        "Asia": "Asia"
    },
    {
        "Everest": "Broad Peak",
        "8.848": "8.047",
        "Nepal/Tibet": "Pakistan",
        "Asia": "Asia"
    },
    {
        "Everest": "Gasherbrum II",
        "8.848": "8.035",
        "Nepal/Tibet": "Pakistan",
        "Asia": "Asia"
    },
    {
        "Everest": "Xixabangma Feng (Gosainthan)",
        "8.848": "8.012",
        "Nepal/Tibet": "China/Nepal",
        "Asia": "Asia"
    },
    {
        "Everest": "Distaghil Sar",
        "8.848": "7.885",
        "Nepal/Tibet": "Pakistan",
        "Asia": "Asia"
    },
    {
        "Everest": "Kunyang Chhist",
        "8.848": "7.852",
        "Nepal/Tibet": "Pakistan",
        "Asia": "Asia"
    },
    {
        "Everest": "Masherbrum",
        "8.848": "7.820",
        "Nepal/Tibet": "Pakistan",
        "Asia": "Asia"
    },
    {
        "Everest": "Nanda Devi",
        "8.848": "7.816",
        "Nepal/Tibet": "India",
        "Asia": "Asia"
    },
    {
        "Everest": "Aling Kangri",
        "8.848": "7.815",
        "Nepal/Tibet": "Tibet",
        "Asia": "Asia"
    },
    {
        "Everest": "Rakaposhi",
        "8.848": "7.788",
        "Nepal/Tibet": "Pakistan",
        "Asia": "Asia"
    },
    {
        "Everest": "Batura",
        "8.848": "7.785",
        "Nepal/Tibet": "Pakistan",
        "Asia": "Asia"
    },
    {
        "Everest": "Namjagbarwa Feng",
        "8.848": "7.756",
        "Nepal/Tibet": "Tibet",
        "Asia": "Asia"
    },
    {
        "Everest": "Kamet",
        "8.848": "7.756",
        "Nepal/Tibet": "India",
        "Asia": "Asia"
    },
    {
        "Everest": "Kamet",
        "8.848": "7.756",
        "Nepal/Tibet": "Tibet/India",
        "Asia": "Asia"
    },
    {
        "Everest": "Muztagh Ata",
        "8.848": "7.546",
        "Nepal/Tibet": "China",
        "Asia": "Asia"
    },
    {
        "Everest": "Saltoro Kangri",
        "8.848": "7.742",
        "Nepal/Tibet": "Pakistan",
        "Asia": "Asia"
    },
    {
        "Everest": "Muztag",
        "8.848": "7.723",
        "Nepal/Tibet": "China",
        "Asia": "Asia"
    },
    {
        "Everest": "Trivor",
        "8.848": "7.720",
        "Nepal/Tibet": "Pakistan",
        "Asia": "Asia"
    },
    {
        "Everest": "Konkur",
        "8.848": "7.719",
        "Nepal/Tibet": "China",
        "Asia": "Asia"
    },
    {
        "Everest": "Tirich Mir",
        "8.848": "7.690",
        "Nepal/Tibet": "Pakistan",
        "Asia": "Asia"
    },
    {
        "Everest": "Chogolisa",
        "8.848": "7.654",
        "Nepal/Tibet": "Pakistan",
        "Asia": "Asia"
    },
    {
        "Everest": "Shispar",
        "8.848": "7.619",
        "Nepal/Tibet": "Pakistan",
        "Asia": "Asia"
    },
    {
        "Everest": "Gongga (Minya Konka)",
        "8.848": "7.555",
        "Nepal/Tibet": "China",
        "Asia": "Asia"
    },
    {
        "Everest": "Kula Kangri",
        "8.848": "7.553",
        "Nepal/Tibet": "Bhutan",
        "Asia": "Asia"
    },
    {
        "Everest": "Muztaghata",
        "8.848": "7.546",
        "Nepal/Tibet": "China",
        "Asia": "Asia"
    },
    {
        "Everest": "Qullai Ismaili Somoni/ Qullai Kommunizma",
        "8.848": "7.495",
        "Nepal/Tibet": "Tajikistan",
        "Asia": "Asia"
    },
    {
        "Everest": "Nowshak",
        "8.848": "7.485",
        "Nepal/Tibet": "Afghanistan",
        "Asia": "Asia"
    },
    {
        "Everest": "Jengish Chokusu/ Pik Pobeda",
        "8.848": "7.439",
        "Nepal/Tibet": "China/Kyrgyzstan",
        "Asia": "Asia"
    },
    {
        "Everest": "Haramosh",
        "8.848": "7.406",
        "Nepal/Tibet": "Pakistan",
        "Asia": "Asia"
    },
    {
        "Everest": "Ultar",
        "8.848": "7.398",
        "Nepal/Tibet": "Pakistan",
        "Asia": "Asia"
    },
    {
        "Everest": "Chomo Lhari",
        "8.848": "7.313",
        "Nepal/Tibet": "Bhutan/Tibet",
        "Asia": "Asia"
    },
    {
        "Everest": "Malubiting",
        "8.848": "7.291",
        "Nepal/Tibet": "Pakistan",
        "Asia": "Asia"
    },
    {
        "Everest": "Ogre (Baintha Brak)",
        "8.848": "7.285",
        "Nepal/Tibet": "Pakistan",
        "Asia": "Asia"
    },
    {
        "Everest": "Minipin",
        "8.848": "7.273",
        "Nepal/Tibet": "Pakistan",
        "Asia": "Asia"
    },
    {
        "Everest": "Langtang Lirung",
        "8.848": "7.245",
        "Nepal/Tibet": "Nepal",
        "Asia": "Asia"
    },
    {
        "Everest": "Ganesh Himal",
        "8.848": "7.150",
        "Nepal/Tibet": "Nepal",
        "Asia": "Asia"
    },
    {
        "Everest": "Kampire Dior",
        "8.848": "7.142",
        "Nepal/Tibet": "Pakistan",
        "Asia": "Asia"
    },
    {
        "Everest": "Nun Kun",
        "8.848": "7.135",
        "Nepal/Tibet": "India",
        "Asia": "Asia"
    },
    {
        "Everest": "Pik Lenina",
        "8.848": "7.134",
        "Nepal/Tibet": "Tajikistan",
        "Asia": "Asia"
    },
    {
        "Everest": "Baruntse",
        "8.848": "7.129",
        "Nepal/Tibet": "Tibet",
        "Asia": "Asia"
    },
    {
        "Everest": "Pik Korzhenevskoj",
        "8.848": "7.105",
        "Nepal/Tibet": "Tajikistan",
        "Asia": "Asia"
    },
    {
        "Everest": "Jugal Himal",
        "8.848": "7.083",
        "Nepal/Tibet": "Nepal",
        "Asia": "Asia"
    },
    {
        "Everest": "Urgend II",
        "8.848": "7.060",
        "Nepal/Tibet": "Afghanistan",
        "Asia": "Asia"
    },
    {
        "Everest": "Kinjiroba",
        "8.848": "7.045",
        "Nepal/Tibet": "Nepal",
        "Asia": "Asia"
    },
    {
        "Everest": "Khan Tengri",
        "8.848": "6.995",
        "Nepal/Tibet": "Kyrgyzstan",
        "Asia": "Asia"
    },
    {
        "Everest": "Langtang Himal (Kyungka Ri)",
        "8.848": "6.979",
        "Nepal/Tibet": "Nepal",
        "Asia": "Asia"
    },
    {
        "Everest": "Aconcagua",
        "8.848": "6.962",
        "Nepal/Tibet": "Argentina",
        "Asia": "South America"
    },
    {
        "Everest": "Yamit",
        "8.848": "6.940",
        "Nepal/Tibet": "Afghanistan",
        "Asia": "Asia"
    },
    {
        "Everest": "Ojos del Salado",
        "8.848": "6.880",
        "Nepal/Tibet": "Chile",
        "Asia": "South America"
    },
    {
        "Everest": "Koyo Zom",
        "8.848": "6.872",
        "Nepal/Tibet": "Pakistan",
        "Asia": "Asia"
    },
    {
        "Everest": "Bonete",
        "8.848": "6.872",
        "Nepal/Tibet": "Argentina",
        "Asia": "South America"
    },
    {
        "Everest": "Ama Dablam",
        "8.848": "6.856",
        "Nepal/Tibet": "Nepal",
        "Asia": "Asia"
    },
    {
        "Everest": "Tirgaran",
        "8.848": "6.843",
        "Nepal/Tibet": "Afghanistan",
        "Asia": "Asia"
    },
    {
        "Everest": "Mercedario",
        "8.848": "6.770",
        "Nepal/Tibet": "Argentina/Chile",
        "Asia": "South America"
    },
    {
        "Everest": "Huascaran",
        "8.848": "6.768",
        "Nepal/Tibet": "Peru",
        "Asia": "South America"
    },
    {
        "Everest": "Tirgaran",
        "8.848": "6.755",
        "Nepal/Tibet": "Afghanistan",
        "Asia": "Asia"
    },
    {
        "Everest": "Llullaillaco",
        "8.848": "6.723",
        "Nepal/Tibet": "Argentina/Chile",
        "Asia": "South America"
    },
    {
        "Everest": "El Libertador",
        "8.848": "6.720",
        "Nepal/Tibet": "Argentina",
        "Asia": "South America"
    },
    {
        "Everest": "Mt Kailash",
        "8.848": "6.714",
        "Nepal/Tibet": "Tibet",
        "Asia": "Asia"
    },
    {
        "Everest": "Ghul Laast",
        "8.848": "6.665",
        "Nepal/Tibet": "Pakistan",
        "Asia": "Asia"
    },
    {
        "Everest": "Jaonli",
        "8.848": "6.632",
        "Nepal/Tibet": "India",
        "Asia": "Asia"
    },
    {
        "Everest": "Koheandaras",
        "8.848": "6.628",
        "Nepal/Tibet": "Afghanistan",
        "Asia": "Asia"
    },
    {
        "Everest": "Yerupaja",
        "8.848": "6.617",
        "Nepal/Tibet": "Peru",
        "Asia": "South America"
    },
    {
        "Everest": "Gangotri - I",
        "8.848": "6.600",
        "Nepal/Tibet": "India",
        "Asia": "Asia"
    },
    {
        "Everest": "Bremeh",
        "8.848": "6.575",
        "Nepal/Tibet": "India",
        "Asia": "Asia"
    },
    {
        "Everest": "Tupungato",
        "8.848": "6.550",
        "Nepal/Tibet": "Argentina/Chile",
        "Asia": "South America"
    },
    {
        "Everest": "Sajama",
        "8.848": "6.542",
        "Nepal/Tibet": "Bolivia",
        "Asia": "South America"
    },
    {
        "Everest": "Lasht",
        "8.848": "6.504",
        "Nepal/Tibet": "Afghanistan",
        "Asia": "Asia"
    },
    {
        "Everest": "Illimani",
        "8.848": "6.439",
        "Nepal/Tibet": "Bolivia",
        "Asia": "South America"
    },
    {
        "Everest": "East Ridge of Hiunchuli",
        "8.848": "6.441",
        "Nepal/Tibet": "Nepal",
        "Asia": "Asia"
    },
    {
        "Everest": "Ancohuma",
        "8.848": "6.427",
        "Nepal/Tibet": "Bolivia",
        "Asia": "South America"
    },
    {
        "Everest": "Coropuna",
        "8.848": "6.400",
        "Nepal/Tibet": "Peru",
        "Asia": "South America"
    },
    {
        "Everest": "Huantsan",
        "8.848": "6.395",
        "Nepal/Tibet": "Peru",
        "Asia": "South America"
    },
    {
        "Everest": "Huandoy",
        "8.848": "6.395",
        "Nepal/Tibet": "Peru",
        "Asia": "South America"
    },
    {
        "Everest": "El Toro",
        "8.848": "6.380",
        "Nepal/Tibet": "Argentina/Chile",
        "Asia": "South America"
    },
    {
        "Everest": "Ausangate",
        "8.848": "6.372",
        "Nepal/Tibet": "Peru",
        "Asia": "South America"
    },
    {
        "Everest": "Illampu",
        "8.848": "6.362",
        "Nepal/Tibet": "Bolivia",
        "Asia": "South America"
    },
    {
        "Everest": "Ampato",
        "8.848": "6.360",
        "Nepal/Tibet": "Peru",
        "Asia": "South America"
    },
    {
        "Everest": "Cerro Palermo",
        "8.848": "6.350",
        "Nepal/Tibet": "Argentina",
        "Asia": "South America"
    },
    {
        "Everest": "Las Tortolas",
        "8.848": "6.332",
        "Nepal/Tibet": "Argentina/Chile",
        "Asia": "South America"
    },
    {
        "Everest": "Parinacota",
        "8.848": "6.330",
        "Nepal/Tibet": "Bolivia",
        "Asia": "South America"
    },
    {
        "Everest": "Chimborazo",
        "8.848": "6.310",
        "Nepal/Tibet": "Ecuador",
        "Asia": "South America"
    },
    {
        "Everest": "Chinchey (Rurichichay)",
        "8.848": "6.309",
        "Nepal/Tibet": "Peru",
        "Asia": "South America"
    },
    {
        "Everest": "Juncal",
        "8.848": "6.300",
        "Nepal/Tibet": "Chile/Argentina",
        "Asia": "South America"
    },
    {
        "Everest": "Marmolejo",
        "8.848": "6.300",
        "Nepal/Tibet": "Chile/Argentina",
        "Asia": "South America"
    },
    {
        "Everest": "General Belgrano",
        "8.848": "6.300",
        "Nepal/Tibet": "Argentina",
        "Asia": "South America"
    },
    {
        "Everest": "Anyemaqen",
        "8.848": "6.282",
        "Nepal/Tibet": "China",
        "Asia": "Asia"
    },
    {
        "Everest": "Salcantay",
        "8.848": "6.271",
        "Nepal/Tibet": "Peru",
        "Asia": "South America"
    },
    {
        "Everest": "Olivares",
        "8.848": "6.252",
        "Nepal/Tibet": "Argentina/Chile",
        "Asia": "South America"
    },
    {
        "Everest": "Sigunaiang",
        "8.848": "6.250",
        "Nepal/Tibet": "China",
        "Asia": "Asia"
    },
    {
        "Everest": "Pomerape",
        "8.848": "6.240",
        "Nepal/Tibet": "Bolivia",
        "Asia": "South America"
    },
    {
        "Everest": "Chani",
        "8.848": "6.200",
        "Nepal/Tibet": "Argentina",
        "Asia": "South America"
    },
    {
        "Everest": "Aucanquilcha",
        "8.848": "6.200",
        "Nepal/Tibet": "Bolivia/Chile",
        "Asia": "South America"
    },
    {
        "Everest": "Huayna Potosi",
        "8.848": "6.194",
        "Nepal/Tibet": "Bolivia",
        "Asia": "South America"
    },
    {
        "Everest": "McKinley",
        "8.848": "6.194",
        "Nepal/Tibet": "Alaska",
        "Asia": "North America"
    },
    {
        "Everest": "Callaqui",
        "8.848": "6.164",
        "Nepal/Tibet": "Argentina/Chile",
        "Asia": "South America"
    },
    {
        "Everest": "Ranrapallca",
        "8.848": "6.162",
        "Nepal/Tibet": "Peru",
        "Asia": "South America"
    },
    {
        "Everest": "Stok Kangri",
        "8.848": "6.137",
        "Nepal/Tibet": "India",
        "Asia": "Asia"
    },
    {
        "Everest": "Queva",
        "8.848": "6.130",
        "Nepal/Tibet": "Argentina",
        "Asia": "South America"
    },
    {
        "Everest": "Chearoco",
        "8.848": "6.127",
        "Nepal/Tibet": "Bolivia",
        "Asia": "South America"
    },
    {
        "Everest": "Quemado",
        "8.848": "6.120",
        "Nepal/Tibet": "Argentina",
        "Asia": "South America"
    },
    {
        "Everest": "Chaupi Orco",
        "8.848": "6.100",
        "Nepal/Tibet": "Peru",
        "Asia": "South America"
    },
    {
        "Everest": "Chachacumani",
        "8.848": "6.094",
        "Nepal/Tibet": "Bolivia",
        "Asia": "South America"
    },
    {
        "Everest": "Solimani",
        "8.848": "6.093",
        "Nepal/Tibet": "Peru",
        "Asia": "South America"
    },
    {
        "Everest": "Copiapo",
        "8.848": "6.080",
        "Nepal/Tibet": "Argentina/Chile",
        "Asia": "South America"
    },
    {
        "Everest": "Pumasillo",
        "8.848": "6.070",
        "Nepal/Tibet": "Peru",
        "Asia": "South America"
    },
    {
        "Everest": "Guallatiri",
        "8.848": "6.060",
        "Nepal/Tibet": "Bolivia",
        "Asia": "South America"
    },
    {
        "Everest": "Chachani",
        "8.848": "6.057",
        "Nepal/Tibet": "Peru",
        "Asia": "South America"
    },
    {
        "Everest": "Acotango",
        "8.848": "6.050",
        "Nepal/Tibet": "Bolivia",
        "Asia": "South America"
    },
    {
        "Everest": "Cienaga",
        "8.848": "6.030",
        "Nepal/Tibet": "Argentina",
        "Asia": "South America"
    },
    {
        "Everest": "Nevado Acay",
        "8.848": "6.000",
        "Nepal/Tibet": "Argentina",
        "Asia": "South America"
    },
    {
        "Everest": "Tacora",
        "8.848": "5.988",
        "Nepal/Tibet": "Bolivia",
        "Asia": "South America"
    },
    {
        "Everest": "Sairecabur",
        "8.848": "5.971",
        "Nepal/Tibet": "Chile",
        "Asia": "South America"
    },
    {
        "Everest": "Kilimanjaro",
        "8.848": "5.895",
        "Nepal/Tibet": "Tanzania",
        "Asia": "Africa"
    },
    {
        "Everest": "Logan",
        "8.848": "5.951",
        "Nepal/Tibet": "Canada",
        "Asia": "North America"
    },
    {
        "Everest": "AlpaMayo",
        "8.848": "5.947",
        "Nepal/Tibet": "Peru",
        "Asia": "South America"
    },
    {
        "Everest": "Licancabur",
        "8.848": "5.921",
        "Nepal/Tibet": "Bolivia/Chile",
        "Asia": "South America"
    },
    {
        "Everest": "Ticlla",
        "8.848": "5.897",
        "Nepal/Tibet": "Peru",
        "Asia": "South America"
    },
    {
        "Everest": "Cotopaxi",
        "8.848": "5.896",
        "Nepal/Tibet": "Ecuador",
        "Asia": "South America"
    },
    {
        "Everest": "Hkakabo Razi",
        "8.848": "5.881",
        "Nepal/Tibet": "Burma",
        "Asia": "Asia"
    },
    {
        "Everest": "Mururata",
        "8.848": "5.868",
        "Nepal/Tibet": "Bolivia",
        "Asia": "South America"
    },
    {
        "Everest": "Volcan San Jose",
        "8.848": "5.850",
        "Nepal/Tibet": "Chile/Argentina",
        "Asia": "South America"
    },
    {
        "Everest": "Cayambe",
        "8.848": "5.840",
        "Nepal/Tibet": "Ecuador",
        "Asia": "South America"
    },
    {
        "Everest": "El Misti",
        "8.848": "5.822",
        "Nepal/Tibet": "Peru",
        "Asia": "South America"
    },
    {
        "Everest": "Champara",
        "8.848": "5.795",
        "Nepal/Tibet": "Peru",
        "Asia": "South America"
    },
    {
        "Everest": "Simon Bolivar",
        "8.848": "5.776",
        "Nepal/Tibet": "Colombia",
        "Asia": "South America"
    },
    {
        "Everest": "Cristobal Colon",
        "8.848": "5.776",
        "Nepal/Tibet": "Colombia",
        "Asia": "South America"
    },
    {
        "Everest": "Citlaltepetl (el Pico de Orizaba)",
        "8.848": "5.754",
        "Nepal/Tibet": "Mexico",
        "Asia": "North America"
    },
    {
        "Everest": "Antisana",
        "8.848": "5.753",
        "Nepal/Tibet": "Ecuador",
        "Asia": "South America"
    },
    {
        "Everest": "Huaycay Huilque",
        "8.848": "5.750",
        "Nepal/Tibet": "Peru",
        "Asia": "South America"
    },
    {
        "Everest": "Gigante Grande",
        "8.848": "5.748",
        "Nepal/Tibet": "Bolivia",
        "Asia": "South America"
    },
    {
        "Everest": "Urusa",
        "8.848": "5.735",
        "Nepal/Tibet": "Peru",
        "Asia": "South America"
    },
    {
        "Everest": "Tunshu",
        "8.848": "5.730",
        "Nepal/Tibet": "Peru",
        "Asia": "South America"
    },
    {
        "Everest": "Cashan",
        "8.848": "5.723",
        "Nepal/Tibet": "Peru",
        "Asia": "South America"
    },
    {
        "Everest": "Cayesh",
        "8.848": "5.721",
        "Nepal/Tibet": "Peru",
        "Asia": "South America"
    },
    {
        "Everest": "Santa Rosa",
        "8.848": "5.706",
        "Nepal/Tibet": "Peru",
        "Asia": "South America"
    },
    {
        "Everest": "Murrorajo",
        "8.848": "5.688",
        "Nepal/Tibet": "Peru",
        "Asia": "South America"
    },
    {
        "Everest": "Machu Sochi Conchi",
        "8.848": "5.679",
        "Nepal/Tibet": "Bolivia",
        "Asia": "South America"
    },
    {
        "Everest": "Lascar",
        "8.848": "5.675",
        "Nepal/Tibet": "Chile",
        "Asia": "South America"
    },
    {
        "Everest": "Damavand",
        "8.848": "5.671",
        "Nepal/Tibet": "Iran",
        "Asia": "Asia"
    },
    {
        "Everest": "Raujunte",
        "8.848": "5.650",
        "Nepal/Tibet": "Peru",
        "Asia": "South America"
    },
    {
        "Everest": "Condoriri",
        "8.848": "5.648",
        "Nepal/Tibet": "Bolivia",
        "Asia": "South America"
    },
    {
        "Everest": "Elbrus",
        "8.848": "5.633",
        "Nepal/Tibet": "Russia",
        "Asia": "Europe"
    },
    {
        "Everest": "Soral Oeste",
        "8.848": "5.640",
        "Nepal/Tibet": "Bolivia",
        "Asia": "South America"
    },
    {
        "Everest": "Katantica",
        "8.848": "5.592",
        "Nepal/Tibet": "Bolivia",
        "Asia": "South America"
    },
    {
        "Everest": "Jallacata",
        "8.848": "5.557",
        "Nepal/Tibet": "Peru",
        "Asia": "South America"
    },
    {
        "Everest": "Surihuiri",
        "8.848": "5.556",
        "Nepal/Tibet": "Peru",
        "Asia": "South America"
    },
    {
        "Everest": "Yankho Huyo",
        "8.848": "5.512",
        "Nepal/Tibet": "Bolivia",
        "Asia": "South America"
    },
    {
        "Everest": "Ritacuba Blanco",
        "8.848": "5.493",
        "Nepal/Tibet": "Colombia",
        "Asia": "South America"
    },
    {
        "Everest": "Mt St Elias",
        "8.848": "5.490",
        "Nepal/Tibet": "Canada",
        "Asia": "North America"
    },
    {
        "Everest": "Castillo",
        "8.848": "5.485",
        "Nepal/Tibet": "Argentina/Chile",
        "Asia": "South America"
    },
    {
        "Everest": "Yana Cuchilla",
        "8.848": "5.472",
        "Nepal/Tibet": "Peru",
        "Asia": "South America"
    },
    {
        "Everest": "El Altar (Obispo)",
        "8.848": "5.465",
        "Nepal/Tibet": "Ecuador",
        "Asia": "South America"
    },
    {
        "Everest": "Chinchina",
        "8.848": "5.463",
        "Nepal/Tibet": "Peru",
        "Asia": "South America"
    },
    {
        "Everest": "Popocatepetl",
        "8.848": "5.452",
        "Nepal/Tibet": "Mexico",
        "Asia": "North America"
    },
    {
        "Everest": "Cerro El Plomo",
        "8.848": "5.450",
        "Nepal/Tibet": "Chile",
        "Asia": "South America"
    },
    {
        "Everest": "Cerro Burro",
        "8.848": "5.450",
        "Nepal/Tibet": "Peru",
        "Asia": "South America"
    },
    {
        "Everest": "Bogda Shan",
        "8.848": "5.447",
        "Nepal/Tibet": "China",
        "Asia": "Asia"
    },
    {
        "Everest": "Cunurana",
        "8.848": "5.420",
        "Nepal/Tibet": "Peru",
        "Asia": "South America"
    },
    {
        "Everest": "Pico Mayor",
        "8.848": "5.365",
        "Nepal/Tibet": "Colombia",
        "Asia": "South America"
    },
    {
        "Everest": "Aricoma",
        "8.848": "5.350",
        "Nepal/Tibet": "Peru",
        "Asia": "South America"
    },
    {
        "Everest": "Nevado El Ruiz",
        "8.848": "5.335",
        "Nepal/Tibet": "Colombia",
        "Asia": "South America"
    },
    {
        "Everest": "Iliniza Sur",
        "8.848": "5.305",
        "Nepal/Tibet": "Ecuador",
        "Asia": "South America"
    },
    {
        "Everest": "Foraker",
        "8.848": "5.303",
        "Nepal/Tibet": "Alaska",
        "Asia": "North America"
    },
    {
        "Everest": "Cerro Quenamari",
        "8.848": "5.294",
        "Nepal/Tibet": "Peru",
        "Asia": "South America"
    },
    {
        "Everest": "Volcan Maipo",
        "8.848": "5.290",
        "Nepal/Tibet": "Argentina/Chile",
        "Asia": "South America"
    },
    {
        "Everest": "Ixaccihuatl",
        "8.848": "5.286",
        "Nepal/Tibet": "Mexico",
        "Asia": "North America"
    },
    {
        "Everest": "San Julian",
        "8.848": "5.275",
        "Nepal/Tibet": "Peru",
        "Asia": "South America"
    },
    {
        "Everest": "Sangay",
        "8.848": "5.230",
        "Nepal/Tibet": "Ecuador",
        "Asia": "South America"
    },
    {
        "Everest": "Lucania",
        "8.848": "5.228",
        "Nepal/Tibet": "Canada",
        "Asia": "North America"
    },
    {
        "Everest": "El Altar",
        "8.848": "5.222",
        "Nepal/Tibet": "Chile",
        "Asia": "South America"
    },
    {
        "Everest": "Tolima",
        "8.848": "5.215",
        "Nepal/Tibet": "Colombia",
        "Asia": "South America"
    },
    {
        "Everest": "Rustaveli",
        "8.848": "5.201",
        "Nepal/Tibet": "Georgia",
        "Asia": "Europe"
    },
    {
        "Everest": "Batian Peak (Mt Kenya)",
        "8.848": "5.201",
        "Nepal/Tibet": "Kenya",
        "Asia": "Africa"
    },
    {
        "Everest": "San Francisco",
        "8.848": "5.200",
        "Nepal/Tibet": "Chile",
        "Asia": "South America"
    },
    {
        "Everest": "Morado",
        "8.848": "5.200",
        "Nepal/Tibet": "Chile",
        "Asia": "South America"
    },
    {
        "Everest": "Kirinyaga",
        "8.848": "5.200",
        "Nepal/Tibet": "Kenya",
        "Asia": "Africa"
    },
    {
        "Everest": "Dykh-Tau",
        "8.848": "5.198",
        "Nepal/Tibet": "Georgia",
        "Asia": "Europe"
    },
    {
        "Everest": "Nelion",
        "8.848": "5.190",
        "Nepal/Tibet": "Kenya",
        "Asia": "Africa"
    },
    {
        "Everest": "Sosneado",
        "8.848": "5.189",
        "Nepal/Tibet": "Argentina/Chile",
        "Asia": "South America"
    },
    {
        "Everest": "Mt Ararat (Buyukagri Dagi)",
        "8.848": "5.165",
        "Nepal/Tibet": "Turkey",
        "Asia": "Asia"
    },
    {
        "Everest": "Shah Fuladi",
        "8.848": "5.143",
        "Nepal/Tibet": "Afganistan",
        "Asia": "Asia"
    },
    {
        "Everest": "Vinson Massif",
        "8.848": "5.140",
        "Nepal/Tibet": "Antarctica",
        "Asia": "The Poles"
    },
    {
        "Everest": "Margherita Peak",
        "8.848": "5.119",
        "Nepal/Tibet": "Zaire/Uganda",
        "Asia": "Africa"
    },
    {
        "Everest": "Iliniza Norte",
        "8.848": "5.116",
        "Nepal/Tibet": "Ecuador",
        "Asia": "South America"
    },
    {
        "Everest": "Stanley",
        "8.848": "5.110",
        "Nepal/Tibet": "Uganda/Zaire",
        "Asia": "Africa"
    },
    {
        "Everest": "Cerro Negro",
        "8.848": "5.100",
        "Nepal/Tibet": "Chile",
        "Asia": "South America"
    },
    {
        "Everest": "Cerro Guane Guane",
        "8.848": "5.097",
        "Nepal/Tibet": "Chile",
        "Asia": "South America"
    },
    {
        "Everest": "Tungurahua",
        "8.848": "5.087",
        "Nepal/Tibet": "Ecuador",
        "Asia": "South America"
    },
    {
        "Everest": "Steele",
        "8.848": "5.074",
        "Nepal/Tibet": "Canada",
        "Asia": "North America"
    },
    {
        "Everest": "Kazbek",
        "8.848": "5.047",
        "Nepal/Tibet": "Georgia",
        "Asia": "Europe"
    },
    {
        "Everest": "Mt Blackburn",
        "8.848": "5.037",
        "Nepal/Tibet": "Alaska",
        "Asia": "North America"
    },
    {
        "Everest": "Puncak Jaya",
        "8.848": "5.030",
        "Nepal/Tibet": "Indonesia/ New Guinea",
        "Asia": "Oceania"
    },
    {
        "Everest": "Pico Bolivar",
        "8.848": "5.007",
        "Nepal/Tibet": "Venezuela",
        "Asia": "South America"
    },
    {
        "Everest": "Mt Bona",
        "8.848": "5.006",
        "Nepal/Tibet": "Alaska",
        "Asia": "North America"
    },
    {
        "Everest": "La Paloma",
        "8.848": "5.000",
        "Nepal/Tibet": "Chile",
        "Asia": "South America"
    },
    {
        "Everest": "Mt Sanford",
        "8.848": "4.941",
        "Nepal/Tibet": "Alaska",
        "Asia": "North America"
    },
    {
        "Everest": "Mt Speke",
        "8.848": "4.890",
        "Nepal/Tibet": "Zaire/Uganda",
        "Asia": "Africa"
    },
    {
        "Everest": "Naga Pulu",
        "8.848": "4.862",
        "Nepal/Tibet": "Indonesia",
        "Asia": "Oceania"
    },
    {
        "Everest": "Mt Baker",
        "8.848": "4.844",
        "Nepal/Tibet": "Zaire/Uganda",
        "Asia": "Africa"
    },
    {
        "Everest": "Mt Wood",
        "8.848": "4.843",
        "Nepal/Tibet": "Canada",
        "Asia": "North America"
    },
    {
        "Everest": "Alum Kuh",
        "8.848": "4.840",
        "Nepal/Tibet": "Iran",
        "Asia": "Asia"
    },
    {
        "Everest": "Sabalon Kuh",
        "8.848": "4.821",
        "Nepal/Tibet": "Iran",
        "Asia": "Asia"
    },
    {
        "Everest": "Monte Bianco",
        "8.848": "4.807",
        "Nepal/Tibet": "France/Italy",
        "Asia": "Europe"
    },
    {
        "Everest": "Mt Emin",
        "8.848": "4.792",
        "Nepal/Tibet": "Zaire/Uganda",
        "Asia": "Africa"
    },
    {
        "Everest": "Mt Vancouver",
        "8.848": "4.786",
        "Nepal/Tibet": "Canada",
        "Asia": "North America"
    },
    {
        "Everest": "Pico Espejoe",
        "8.848": "4.765",
        "Nepal/Tibet": "Venezuela",
        "Asia": "South America"
    },
    {
        "Everest": "Volcan de Purace",
        "8.848": "4.756",
        "Nepal/Tibet": "Colombia",
        "Asia": "South America"
    },
    {
        "Everest": "Trikora",
        "8.848": "4.751",
        "Nepal/Tibet": "Indonesia/ New Guinea",
        "Asia": "Asia"
    },
    {
        "Everest": "Klyuchevskaya",
        "8.848": "4.750",
        "Nepal/Tibet": "Russia",
        "Asia": "Europe"
    },
    {
        "Everest": "Shakhak",
        "8.848": "4.750",
        "Nepal/Tibet": "Iran",
        "Asia": "Asia"
    },
    {
        "Everest": "Mt Gessi",
        "8.848": "4.717",
        "Nepal/Tibet": "Zaire/Uganda",
        "Asia": "Africa"
    },
    {
        "Everest": "Khersan",
        "8.848": "4.710",
        "Nepal/Tibet": "Iran",
        "Asia": "Asia"
    },
    {
        "Everest": "Ushba",
        "8.848": "4.710",
        "Nepal/Tibet": "Georgia",
        "Asia": "Europe"
    },
    {
        "Everest": "Mandala",
        "8.848": "4.701",
        "Nepal/Tibet": "Indonesia/ New Guinea",
        "Asia": "Asia"
    },
    {
        "Everest": "Mt Fairweather",
        "8.848": "4.671",
        "Nepal/Tibet": "Canada/Alaska",
        "Asia": "North America"
    },
    {
        "Everest": "Teyotl",
        "8.848": "4.660",
        "Nepal/Tibet": "Mexico",
        "Asia": "North America"
    },
    {
        "Everest": "Ras Dashen",
        "8.848": "4.620",
        "Nepal/Tibet": "Ethiopia",
        "Asia": "Africa"
    },
    {
        "Everest": "Takht-e-Solaiman",
        "8.848": "4.659",
        "Nepal/Tibet": "Iran",
        "Asia": "Asia"
    },
    {
        "Everest": "Monte Rosa",
        "8.848": "4.634",
        "Nepal/Tibet": "Italy/Switzerland",
        "Asia": "Europe"
    },
    {
        "Everest": "Mt Savoia",
        "8.848": "4.627",
        "Nepal/Tibet": "Zaire/Uganda",
        "Asia": "Africa"
    },
    {
        "Everest": "Siah Sang",
        "8.848": "4.600",
        "Nepal/Tibet": "Iran",
        "Asia": "Asia"
    },
    {
        "Everest": "Marjinkesh",
        "8.848": "4.580",
        "Nepal/Tibet": "Iran",
        "Asia": "Asia"
    },
    {
        "Everest": "Meru",
        "8.848": "4.565",
        "Nepal/Tibet": "Tanzania",
        "Asia": "Africa"
    },
    {
        "Everest": "Nevado de Toluca",
        "8.848": "4.564",
        "Nepal/Tibet": "Mexico",
        "Asia": "North America"
    },
    {
        "Everest": "Mt Hubbard",
        "8.848": "4.558",
        "Nepal/Tibet": "Canada",
        "Asia": "North America"
    },
    {
        "Everest": "Zardeh",
        "8.848": "4.548",
        "Nepal/Tibet": "Iran",
        "Asia": "Asia"
    },
    {
        "Everest": "Dom",
        "8.848": "4.545",
        "Nepal/Tibet": "Switzerland/Italy",
        "Asia": "Europe"
    },
    {
        "Everest": "Haftkhan",
        "8.848": "4.537",
        "Nepal/Tibet": "Iran",
        "Asia": "Asia"
    },
    {
        "Everest": "Kirkpatrick",
        "8.848": "4.528",
        "Nepal/Tibet": "Antarctica",
        "Asia": "The Poles"
    },
    {
        "Everest": "Mt Bear",
        "8.848": "4.527",
        "Nepal/Tibet": "Canada",
        "Asia": "North America"
    },
    {
        "Everest": "Chaloun",
        "8.848": "4.516",
        "Nepal/Tibet": "Iran",
        "Asia": "Asia"
    },
    {
        "Everest": "Mt Wilhelm",
        "8.848": "4.510",
        "Nepal/Tibet": "Papua New Guinea",
        "Asia": "Oceania"
    },
    {
        "Everest": "Karisimbi",
        "8.848": "4.507",
        "Nepal/Tibet": "Rwanda/Zaire",
        "Asia": "Africa"
    },
    {
        "Everest": "Mt Belukha",
        "8.848": "4.506",
        "Nepal/Tibet": "Russia",
        "Asia": "Asia"
    },
    {
        "Everest": "Mt Walsh",
        "8.848": "4.506",
        "Nepal/Tibet": "Canada",
        "Asia": "North America"
    },
    {
        "Everest": "Weisshorn",
        "8.848": "4.505",
        "Nepal/Tibet": "Switzerland",
        "Asia": "Europe"
    },
    {
        "Everest": "Siah Kamaan",
        "8.848": "4.504",
        "Nepal/Tibet": "Iran",
        "Asia": "Asia"
    },
    {
        "Everest": "Rostamnisht",
        "8.848": "4.500",
        "Nepal/Tibet": "Iran",
        "Asia": "Asia"
    },
    {
        "Everest": "Siahgug",
        "8.848": "4.500",
        "Nepal/Tibet": "Iran",
        "Asia": "Asia"
    },
    {
        "Everest": "Cervino (Matterhorn)",
        "8.848": "4.478",
        "Nepal/Tibet": "Italy/Switzerland",
        "Asia": "Europe"
    },
    {
        "Everest": "Waynobar",
        "8.848": "4.472",
        "Nepal/Tibet": "Ethiopia",
        "Asia": "Africa"
    },
    {
        "Everest": "Shanehkouh",
        "8.848": "4.465",
        "Nepal/Tibet": "Iran",
        "Asia": "Asia"
    },
    {
        "Everest": "Dena",
        "8.848": "4.450",
        "Nepal/Tibet": "Iran",
        "Asia": "Asia"
    },
    {
        "Everest": "La Malinche",
        "8.848": "4.461",
        "Nepal/Tibet": "Mexico",
        "Asia": "North America"
    },
    {
        "Everest": "Tliltepetl",
        "8.848": "4.453",
        "Nepal/Tibet": "Mexico",
        "Asia": "North America"
    },
    {
        "Everest": "Tzapotepetl",
        "8.848": "4.450",
        "Nepal/Tibet": "Mexico",
        "Asia": "North America"
    },
    {
        "Everest": "Hunter",
        "8.848": "4.445",
        "Nepal/Tibet": "Alaska",
        "Asia": "North America"
    },
    {
        "Everest": "Mikeno",
        "8.848": "4.437",
        "Nepal/Tibet": "Rwanda/Zaire",
        "Asia": "Africa"
    },
    {
        "Everest": "Buahit",
        "8.848": "4.437",
        "Nepal/Tibet": "Ethiopia",
        "Asia": "Africa"
    },
    {
        "Everest": "Suphan Dagi",
        "8.848": "4.434",
        "Nepal/Tibet": "Turkey",
        "Asia": "Europe"
    },
    {
        "Everest": "Mt Alverstone",
        "8.848": "4.421",
        "Nepal/Tibet": "Canada",
        "Asia": "North America"
    },
    {
        "Everest": "Hazar",
        "8.848": "4.420",
        "Nepal/Tibet": "Iran",
        "Asia": "Asia"
    },
    {
        "Everest": "Mt Whitney",
        "8.848": "4.421",
        "Nepal/Tibet": "California",
        "Asia": "North America"
    },
    {
        "Everest": "Abba Yared",
        "8.848": "4.416",
        "Nepal/Tibet": "Ethiopia",
        "Asia": "Africa"
    },
    {
        "Everest": "Kalahoo",
        "8.848": "4.412",
        "Nepal/Tibet": "Iran",
        "Asia": "Asia"
    },
    {
        "Everest": "Mt Elbert",
        "8.848": "4.399",
        "Nepal/Tibet": "Colorado",
        "Asia": "North America"
    },
    {
        "Everest": "Mt Massive",
        "8.848": "4.396",
        "Nepal/Tibet": "Colorado",
        "Asia": "North America"
    },
    {
        "Everest": "Mt Harvard",
        "8.848": "4.395",
        "Nepal/Tibet": "Colorado",
        "Asia": "North America"
    },
    {
        "Everest": "Mt Rainier",
        "8.848": "4.393",
        "Nepal/Tibet": "Washington",
        "Asia": "North America"
    },
    {
        "Everest": "Portal Peaks",
        "8.848": "4.391",
        "Nepal/Tibet": "Zaire/Uganda",
        "Asia": "Africa"
    },
    {
        "Everest": "Williamson",
        "8.848": "4.384",
        "Nepal/Tibet": "California",
        "Asia": "North America"
    },
    {
        "Everest": "Menareh",
        "8.848": "4.378",
        "Nepal/Tibet": "Iran",
        "Asia": "Asia"
    },
    {
        "Everest": "Kholeno",
        "8.848": "4.375",
        "Nepal/Tibet": "Iran",
        "Asia": "Asia"
    },
    {
        "Everest": "Azadkuh",
        "8.848": "4.375",
        "Nepal/Tibet": "Iran",
        "Asia": "Asia"
    },
    {
        "Everest": "Paloun Gardan",
        "8.848": "4.375",
        "Nepal/Tibet": "Iran",
        "Asia": "Asia"
    },
    {
        "Everest": "Mt Blanca",
        "8.848": "4.373",
        "Nepal/Tibet": "Colorado",
        "Asia": "North America"
    },
    {
        "Everest": "La Plata",
        "8.848": "4.370",
        "Nepal/Tibet": "Colorado",
        "Asia": "North America"
    },
    {
        "Everest": "Giluwe",
        "8.848": "4.368",
        "Nepal/Tibet": "Papua New Guinea",
        "Asia": "Oceania"
    },
    {
        "Everest": "Uncompahgre",
        "8.848": "4.362",
        "Nepal/Tibet": "Colorado",
        "Asia": "North America"
    },
    {
        "Everest": "Crestone Peak",
        "8.848": "4.357",
        "Nepal/Tibet": "Colorado",
        "Asia": "North America"
    },
    {
        "Everest": "Dente Blanche",
        "8.848": "4.357",
        "Nepal/Tibet": "Switzerland/Italy",
        "Asia": "Europe"
    },
    {
        "Everest": "Mt Lincoln",
        "8.848": "4.355",
        "Nepal/Tibet": "Colorado",
        "Asia": "North America"
    },
    {
        "Everest": "Mischigu",
        "8.848": "4.352",
        "Nepal/Tibet": "Ethiopia",
        "Asia": "Africa"
    },
    {
        "Everest": "Grays Peak",
        "8.848": "4.351",
        "Nepal/Tibet": "Colorado",
        "Asia": "North America"
    },
    {
        "Everest": "Lalezaar",
        "8.848": "4.351",
        "Nepal/Tibet": "Iran",
        "Asia": "Asia"
    },
    {
        "Everest": "Gardounkouh",
        "8.848": "4.350",
        "Nepal/Tibet": "Iran",
        "Asia": "Asia"
    },
    {
        "Everest": "Torreys Peak",
        "8.848": "4.350",
        "Nepal/Tibet": "Colorado",
        "Asia": "North America"
    },
    {
        "Everest": "Mt Antero",
        "8.848": "4.350",
        "Nepal/Tibet": "Colorado",
        "Asia": "North America"
    },
    {
        "Everest": "Nazer",
        "8.848": "4.350",
        "Nepal/Tibet": "Iran",
        "Asia": "Asia"
    },
    {
        "Everest": "Mt Evans",
        "8.848": "4.349",
        "Nepal/Tibet": "Colorado",
        "Asia": "North America"
    },
    {
        "Everest": "Castle Peak",
        "8.848": "4.349",
        "Nepal/Tibet": "Colorado",
        "Asia": "North America"
    },
    {
        "Everest": "Longs Peak",
        "8.848": "4.345",
        "Nepal/Tibet": "Colorado",
        "Asia": "North America"
    },
    {
        "Everest": "Mt Quandary",
        "8.848": "4.345",
        "Nepal/Tibet": "Colorado",
        "Asia": "North America"
    },
    {
        "Everest": "Mt Wilson",
        "8.848": "4.343",
        "Nepal/Tibet": "Colorado",
        "Asia": "North America"
    },
    {
        "Everest": "White Mountain",
        "8.848": "4.342",
        "Nepal/Tibet": "California",
        "Asia": "North America"
    },
    {
        "Everest": "North Palisade",
        "8.848": "4.341",
        "Nepal/Tibet": "California",
        "Asia": "North America"
    },
    {
        "Everest": "Mt Shavano",
        "8.848": "4.338",
        "Nepal/Tibet": "Colorado",
        "Asia": "North America"
    },
    {
        "Everest": "Mt Princeton",
        "8.848": "4.328",
        "Nepal/Tibet": "Colorado",
        "Asia": "North America"
    },
    {
        "Everest": "Polemonium Peak",
        "8.848": "4.328",
        "Nepal/Tibet": "California",
        "Asia": "North America"
    },
    {
        "Everest": "Starlight",
        "8.848": "4.328",
        "Nepal/Tibet": "California",
        "Asia": "North America"
    },
    {
        "Everest": "Nadelhorn",
        "8.848": "4.327",
        "Nepal/Tibet": "Switzerland/Italy",
        "Asia": "Europe"
    },
    {
        "Everest": "Crestone Needle",
        "8.848": "4.326",
        "Nepal/Tibet": "Colorado",
        "Asia": "North America"
    },
    {
        "Everest": "Borj",
        "8.848": "4.325",
        "Nepal/Tibet": "Iran",
        "Asia": "Asia"
    },
    {
        "Everest": "Elgon",
        "8.848": "4.321",
        "Nepal/Tibet": "Kenya/Uganda",
        "Asia": "Africa"
    },
    {
        "Everest": "Mt Bross",
        "8.848": "4.320",
        "Nepal/Tibet": "Colorado",
        "Asia": "North America"
    },
    {
        "Everest": "Dokhaharaan",
        "8.848": "4.318",
        "Nepal/Tibet": "Iran",
        "Asia": "Asia"
    },
    {
        "Everest": "El Diente",
        "8.848": "4.317",
        "Nepal/Tibet": "Colorado",
        "Asia": "North America"
    },
    {
        "Everest": "Mt Shasta",
        "8.848": "4.317",
        "Nepal/Tibet": "California",
        "Asia": "North America"
    },
    {
        "Everest": "Mt Tabequache",
        "8.848": "4.316",
        "Nepal/Tibet": "Colorado",
        "Asia": "North America"
    },
    {
        "Everest": "Mt Sill",
        "8.848": "4.314",
        "Nepal/Tibet": "California",
        "Asia": "North America"
    },
    {
        "Everest": "Sneffels",
        "8.848": "4.314",
        "Nepal/Tibet": "Colorado",
        "Asia": "North America"
    },
    {
        "Everest": "Grand Combin",
        "8.848": "4.314",
        "Nepal/Tibet": "Switzerland/Italy",
        "Asia": "Europe"
    },
    {
        "Everest": "Mt Democrat",
        "8.848": "4.311",
        "Nepal/Tibet": "Colorado",
        "Asia": "North America"
    },
    {
        "Everest": "Pikes Peak",
        "8.848": "4.302",
        "Nepal/Tibet": "Colorado",
        "Asia": "North America"
    },
    {
        "Everest": "Tres Hermans",
        "8.848": "4.300",
        "Nepal/Tibet": "Chile",
        "Asia": "South America"
    },
    {
        "Everest": "Cerro Arenas",
        "8.848": "4.300",
        "Nepal/Tibet": "Chile",
        "Asia": "South America"
    },
    {
        "Everest": "Kit Carson Peak",
        "8.848": "4.299",
        "Nepal/Tibet": "Colorado",
        "Asia": "North America"
    },
    {
        "Everest": "Snowmass Mountain",
        "8.848": "4.296",
        "Nepal/Tibet": "Colorado",
        "Asia": "North America"
    },
    {
        "Everest": "Windom",
        "8.848": "4.295",
        "Nepal/Tibet": "Colorado",
        "Asia": "North America"
    },
    {
        "Everest": "Mt Eolus",
        "8.848": "4.294",
        "Nepal/Tibet": "Colorado",
        "Asia": "North America"
    },
    {
        "Everest": "Lenspitze",
        "8.848": "4.294",
        "Nepal/Tibet": "Switzerland/Italy",
        "Asia": "Europe"
    },
    {
        "Everest": "Mt Russell",
        "8.848": "4.293",
        "Nepal/Tibet": "California",
        "Asia": "North America"
    },
    {
        "Everest": "Mt Humbolt",
        "8.848": "4.291",
        "Nepal/Tibet": "Colorado",
        "Asia": "North America"
    },
    {
        "Everest": "Mt Sunlight",
        "8.848": "4.286",
        "Nepal/Tibet": "Colorado",
        "Asia": "North America"
    },
    {
        "Everest": "Split Mountain",
        "8.848": "4.286",
        "Nepal/Tibet": "California",
        "Asia": "North America"
    },
    {
        "Everest": "Handies",
        "8.848": "4.283",
        "Nepal/Tibet": "Colorado",
        "Asia": "North America"
    },
    {
        "Everest": "Culebra Peak",
        "8.848": "4.282",
        "Nepal/Tibet": "Colorado",
        "Asia": "North America"
    },
    {
        "Everest": "Mt Lindsey",
        "8.848": "4.281",
        "Nepal/Tibet": "Colorado",
        "Asia": "North America"
    },
    {
        "Everest": "Mt Sherman",
        "8.848": "4.279",
        "Nepal/Tibet": "Colorado",
        "Asia": "North America"
    },
    {
        "Everest": "Mt Little Bear",
        "8.848": "4.279",
        "Nepal/Tibet": "Colorado",
        "Asia": "North America"
    },
    {
        "Everest": "Redcloud",
        "8.848": "4.279",
        "Nepal/Tibet": "Colorado",
        "Asia": "North America"
    },
    {
        "Everest": "Mt Pyramid",
        "8.848": "4.275",
        "Nepal/Tibet": "Colorado",
        "Asia": "North America"
    },
    {
        "Everest": "Finsteraarhorn",
        "8.848": "4.274",
        "Nepal/Tibet": "Switzerland",
        "Asia": "Europe"
    },
    {
        "Everest": "Wetterhorn",
        "8.848": "4.273",
        "Nepal/Tibet": "Colorado",
        "Asia": "North America"
    },
    {
        "Everest": "Wilson Peak",
        "8.848": "4.273",
        "Nepal/Tibet": "Colorado",
        "Asia": "North America"
    },
    {
        "Everest": "North Maroon Bell",
        "8.848": "4.272",
        "Nepal/Tibet": "Colorado",
        "Asia": "North America"
    },
    {
        "Everest": "Mt San Luis",
        "8.848": "4.272",
        "Nepal/Tibet": "Colorado",
        "Asia": "North America"
    },
    {
        "Everest": "Holy Cross",
        "8.848": "4.269",
        "Nepal/Tibet": "Colorado",
        "Asia": "North America"
    },
    {
        "Everest": "Sunshine",
        "8.848": "4.268",
        "Nepal/Tibet": "Colorado",
        "Asia": "North America"
    },
    {
        "Everest": "HarzehKouh",
        "8.848": "4.265",
        "Nepal/Tibet": "Iran",
        "Asia": "Asia"
    },
    {
        "Everest": "Mt Humphreys",
        "8.848": "4.264",
        "Nepal/Tibet": "California",
        "Asia": "North America"
    },
    {
        "Everest": "Mt Stewart",
        "8.848": "4.263",
        "Nepal/Tibet": "Colorado",
        "Asia": "North America"
    },
    {
        "Everest": "Lashgarak",
        "8.848": "4.256",
        "Nepal/Tibet": "Iran",
        "Asia": "Asia"
    },
    {
        "Everest": "Kherschal",
        "8.848": "4.253",
        "Nepal/Tibet": "Iran",
        "Asia": "Asia"
    },
    {
        "Everest": "Mitionchal",
        "8.848": "4.253",
        "Nepal/Tibet": "Iran",
        "Asia": "Asia"
    },
    {
        "Everest": "Ghareh Dagh",
        "8.848": "4.250",
        "Nepal/Tibet": "Iran",
        "Asia": "Asia"
    },
    {
        "Everest": "DoBerar",
        "8.848": "4.250",
        "Nepal/Tibet": "Iran",
        "Asia": "Asia"
    },
    {
        "Everest": "Siyalan",
        "8.848": "4.250",
        "Nepal/Tibet": "Iran",
        "Asia": "Asia"
    },
    {
        "Everest": "Cofre de Perote",
        "8.848": "4.250",
        "Nepal/Tibet": "Mexico",
        "Asia": "North America"
    },
    {
        "Everest": "Mt Kennedy",
        "8.848": "4.238",
        "Nepal/Tibet": "Canada",
        "Asia": "North America"
    },
    {
        "Everest": "Kamankouh",
        "8.848": "4.234",
        "Nepal/Tibet": "Iran",
        "Asia": "Asia"
    },
    {
        "Everest": "Zard Kouh",
        "8.848": "4.221",
        "Nepal/Tibet": "Iran",
        "Asia": "Asia"
    },
    {
        "Everest": "Divchal",
        "8.848": "4.220",
        "Nepal/Tibet": "Iran",
        "Asia": "Asia"
    },
    {
        "Everest": "Tajumulco",
        "8.848": "4.220",
        "Nepal/Tibet": "Guatemala",
        "Asia": "North America"
    },
    {
        "Everest": "Chichimeco",
        "8.848": "4.220",
        "Nepal/Tibet": "Mexico",
        "Asia": "North America"
    },
    {
        "Everest": "Mt Iron Nipple",
        "8.848": "4.216",
        "Nepal/Tibet": "Colorado",
        "Asia": "North America"
    },
    {
        "Everest": "Kooloon Bastak",
        "8.848": "4.210",
        "Nepal/Tibet": "Iran",
        "Asia": "Asia"
    },
    {
        "Everest": "Siounza",
        "8.848": "4.208",
        "Nepal/Tibet": "Iran",
        "Asia": "Asia"
    },
    {
        "Everest": "Gannett Peak",
        "8.848": "4.208",
        "Nepal/Tibet": "Wyoming",
        "Asia": "North America"
    },
    {
        "Everest": "Jorasses",
        "8.848": "4.208",
        "Nepal/Tibet": "Italy/France",
        "Asia": "Europe"
    },
    {
        "Everest": "Mauna Kea",
        "8.848": "4.205",
        "Nepal/Tibet": "Hawaii",
        "Asia": "North America"
    },
    {
        "Everest": "Sarkharsang",
        "8.848": "4.203",
        "Nepal/Tibet": "Iran",
        "Asia": "Asia"
    },
    {
        "Everest": "Grand Teton",
        "8.848": "4.197",
        "Nepal/Tibet": "Wyoming",
        "Asia": "North America"
    },
    {
        "Everest": "Aletschhorn",
        "8.848": "4.195",
        "Nepal/Tibet": "Switzerland",
        "Asia": "Europe"
    },
    {
        "Everest": "Yakhchal",
        "8.848": "4.194",
        "Nepal/Tibet": "Iran",
        "Asia": "Asia"
    },
    {
        "Everest": "Mt Morgan",
        "8.848": "4.191",
        "Nepal/Tibet": "California",
        "Asia": "North America"
    },
    {
        "Everest": "Mt Hayes",
        "8.848": "4.189",
        "Nepal/Tibet": "Alaska",
        "Asia": "North America"
    },
    {
        "Everest": "Dent d'Herens",
        "8.848": "4.171",
        "Nepal/Tibet": "Switzerland/Italy",
        "Asia": "Europe"
    },
    {
        "Everest": "Mauna Loa",
        "8.848": "4.170",
        "Nepal/Tibet": "Hawaii",
        "Asia": "North America"
    },
    {
        "Everest": "Toubkal",
        "8.848": "4.165",
        "Nepal/Tibet": "Morocco",
        "Asia": "Africa"
    },
    {
        "Everest": "Mt Tom",
        "8.848": "4.162",
        "Nepal/Tibet": "California",
        "Asia": "North America"
    },
    {
        "Everest": "Breithorn",
        "8.848": "4.159",
        "Nepal/Tibet": "Switzerland/Italy",
        "Asia": "Europe"
    },
    {
        "Everest": "Tlaloc",
        "8.848": "4.158",
        "Nepal/Tibet": "Mexico",
        "Asia": "North America"
    },
    {
        "Everest": "University Peak",
        "8.848": "4.156",
        "Nepal/Tibet": "California",
        "Asia": "North America"
    },
    {
        "Everest": "Sarakchal",
        "8.848": "4.156",
        "Nepal/Tibet": "Iran",
        "Asia": "Asia"
    },
    {
        "Everest": "Oshtoran Kuh",
        "8.848": "4.150",
        "Nepal/Tibet": "Iran",
        "Asia": "Asia"
    },
    {
        "Everest": "Gelyasm (Resko)",
        "8.848": "4.136",
        "Nepal/Tibet": "Turkey",
        "Asia": "Europe"
    },
    {
        "Everest": "Muhavura",
        "8.848": "4.127",
        "Nepal/Tibet": "Rwanda/Zaire",
        "Asia": "Africa"
    },
    {
        "Everest": "Kings Peak",
        "8.848": "4.124",
        "Nepal/Tibet": "Utah",
        "Asia": "North America"
    },
    {
        "Everest": "Schiwana",
        "8.848": "4.120",
        "Nepal/Tibet": "Ethiopia",
        "Asia": "Africa"
    },
    {
        "Everest": "Buzul (Suppadurek)",
        "8.848": "4.116",
        "Nepal/Tibet": "Turkey",
        "Asia": "Europe"
    },
    {
        "Everest": "Naz o Kahar",
        "8.848": "4.108",
        "Nepal/Tibet": "Iran",
        "Asia": "Asia"
    },
    {
        "Everest": "Jungfrau",
        "8.848": "4.105",
        "Nepal/Tibet": "Switzerland",
        "Asia": "Europe"
    },
    {
        "Everest": "Narges",
        "8.848": "4.103",
        "Nepal/Tibet": "Iran",
        "Asia": "Asia"
    },
    {
        "Everest": "Pic Lori",
        "8.848": "4.102",
        "Nepal/Tibet": "France",
        "Asia": "Europe"
    },
    {
        "Everest": "Catedral",
        "8.848": "4.100",
        "Nepal/Tibet": "Chile",
        "Asia": "South America"
    },
    {
        "Everest": "Kal",
        "8.848": "4.100",
        "Nepal/Tibet": "Iran",
        "Asia": "Asia"
    },
    {
        "Everest": "Cerro Retumbadero",
        "8.848": "4.100",
        "Nepal/Tibet": "Chile",
        "Asia": "South America"
    },
    {
        "Everest": "M\u00f6nch",
        "8.848": "4.099",
        "Nepal/Tibet": "Switzerland",
        "Asia": "Europe"
    },
    {
        "Everest": "Mt Gilbert",
        "8.848": "4.098",
        "Nepal/Tibet": "Utah",
        "Asia": "North America"
    },
    {
        "Everest": "Mt Emmons",
        "8.848": "4.097",
        "Nepal/Tibet": "Utah",
        "Asia": "North America"
    },
    {
        "Everest": "Cameroun",
        "8.848": "4.095",
        "Nepal/Tibet": "Cameroon",
        "Asia": "Africa"
    },
    {
        "Everest": "Kinabalu",
        "8.848": "4.094",
        "Nepal/Tibet": "Malaysia",
        "Asia": "Oceania"
    },
    {
        "Everest": "Wind River Peak",
        "8.848": "4.085",
        "Nepal/Tibet": "Wyoming",
        "Asia": "North America"
    },
    {
        "Everest": "Schreckhorn",
        "8.848": "4.078",
        "Nepal/Tibet": "Switzerland",
        "Asia": "Europe"
    },
    {
        "Everest": "Ober-Gabelhorn",
        "8.848": "4.063",
        "Nepal/Tibet": "Switzerland/Italy",
        "Asia": "Europe"
    },
    {
        "Everest": "Kahno",
        "8.848": "4.062",
        "Nepal/Tibet": "Iran",
        "Asia": "Asia"
    },
    {
        "Everest": "Gran Paradiso",
        "8.848": "4.061",
        "Nepal/Tibet": "Italy",
        "Asia": "Europe"
    },
    {
        "Everest": "Black Mt",
        "8.848": "4.051",
        "Nepal/Tibet": "California",
        "Asia": "North America"
    },
    {
        "Everest": "Diente del Diablo",
        "8.848": "4.050",
        "Nepal/Tibet": "Chile",
        "Asia": "South America"
    },
    {
        "Everest": "Pik Bernina",
        "8.848": "4.049",
        "Nepal/Tibet": "Switzerland/Italy",
        "Asia": "Europe"
    },
    {
        "Everest": "Taftan",
        "8.848": "4.042",
        "Nepal/Tibet": "Iran",
        "Asia": "Asia"
    },
    {
        "Everest": "Kharsoun",
        "8.848": "4.040",
        "Nepal/Tibet": "Iran",
        "Asia": "Asia"
    },
    {
        "Everest": "Mt Victoria",
        "8.848": "4.038",
        "Nepal/Tibet": "Papua New Guinea",
        "Asia": "Oceania"
    },
    {
        "Everest": "Mt Loveina",
        "8.848": "4.030",
        "Nepal/Tibet": "Utah",
        "Asia": "North America"
    },
    {
        "Everest": "Krestovski",
        "8.848": "4.030",
        "Nepal/Tibet": "Russia",
        "Asia": "Europe"
    },
    {
        "Everest": "Weissmies",
        "8.848": "4.023",
        "Nepal/Tibet": "Switzerland",
        "Asia": "Europe"
    },
    {
        "Everest": "Qurma",
        "8.848": "4.018",
        "Nepal/Tibet": "Iran",
        "Asia": "Asia"
    },
    {
        "Everest": "Marcus Baker",
        "8.848": "4.017",
        "Nepal/Tibet": "Alaska",
        "Asia": "North America"
    },
    {
        "Everest": "Cloud Peak",
        "8.848": "4.017",
        "Nepal/Tibet": "Wyoming",
        "Asia": "North America"
    },
    {
        "Everest": "Mt Waddington",
        "8.848": "4.017",
        "Nepal/Tibet": "Canada",
        "Asia": "North America"
    },
    {
        "Everest": "Silverthrone",
        "8.848": "4.015",
        "Nepal/Tibet": "Alaska",
        "Asia": "North America"
    },
    {
        "Everest": "Geant",
        "8.848": "4.013",
        "Nepal/Tibet": "Italy/France",
        "Asia": "Europe"
    },
    {
        "Everest": "Wheeler Peak",
        "8.848": "4.012",
        "Nepal/Tibet": "New Mexico",
        "Asia": "North America"
    },
    {
        "Everest": "Lagginhorn",
        "8.848": "4.010",
        "Nepal/Tibet": "Switzerland",
        "Asia": "Europe"
    },
    {
        "Everest": "Francs Peak",
        "8.848": "4.006",
        "Nepal/Tibet": "Wyoming",
        "Asia": "North America"
    },
    {
        "Everest": "Boundary Peak",
        "8.848": "4.006",
        "Nepal/Tibet": "California",
        "Asia": "North America"
    },
    {
        "Everest": "Ol Doinyo Lesatima",
        "8.848": "4.001",
        "Nepal/Tibet": "Kenya",
        "Asia": "Africa"
    },
    {
        "Everest": "Pasandkouh",
        "8.848": "4.000",
        "Nepal/Tibet": "Iran",
        "Asia": "Asia"
    },
    {
        "Everest": "Mt Lyell",
        "8.848": "3.998",
        "Nepal/Tibet": "California",
        "Asia": "North America"
    },
    {
        "Everest": "Fletschhorn",
        "8.848": "3.996",
        "Nepal/Tibet": "Switzerland",
        "Asia": "Europe"
    },
    {
        "Everest": "Trunchas Peak",
        "8.848": "3.995",
        "Nepal/Tibet": "New Mexico",
        "Asia": "North America"
    },
    {
        "Everest": "Mt Dana",
        "8.848": "3.995",
        "Nepal/Tibet": "California",
        "Asia": "North America"
    },
    {
        "Everest": "La Meije",
        "8.848": "3.983",
        "Nepal/Tibet": "France",
        "Asia": "Europe"
    },
    {
        "Everest": "Wheeler Peak",
        "8.848": "3.982",
        "Nepal/Tibet": "Nevada",
        "Asia": "North America"
    },
    {
        "Everest": "Tezerjan",
        "8.848": "3980",
        "Nepal/Tibet": "Iran",
        "Asia": "Asia"
    },
    {
        "Everest": "Wilson Peaks",
        "8.848": "3.979",
        "Nepal/Tibet": "Utah",
        "Asia": "North America"
    },
    {
        "Everest": "Acatenango",
        "8.848": "3.976",
        "Nepal/Tibet": "Guatemala",
        "Asia": "North America"
    },
    {
        "Everest": "Eiger",
        "8.848": "3.970",
        "Nepal/Tibet": "Switzerland",
        "Asia": "Europe"
    },
    {
        "Everest": "Grivola",
        "8.848": "3.969",
        "Nepal/Tibet": "Italy",
        "Asia": "Europe"
    },
    {
        "Everest": "Tochal",
        "8.848": "3.965",
        "Nepal/Tibet": "Iran",
        "Asia": "Asia"
    },
    {
        "Everest": "Mt Robson",
        "8.848": "3.954",
        "Nepal/Tibet": "Canada",
        "Asia": "North America"
    },
    {
        "Everest": "Yu Shan (Jade Mountain)",
        "8.848": "3.952",
        "Nepal/Tibet": "Taiwan",
        "Asia": "Asia"
    },
    {
        "Everest": "Mt Owens",
        "8.848": "3.946",
        "Nepal/Tibet": "Wyoming",
        "Asia": "North America"
    },
    {
        "Everest": "Mont Pelvoux",
        "8.848": "3.946",
        "Nepal/Tibet": "France",
        "Asia": "Europe"
    },
    {
        "Everest": "Kuna",
        "8.848": "3.938",
        "Nepal/Tibet": "California",
        "Asia": "North America"
    },
    {
        "Everest": "Bietschhorn",
        "8.848": "3.934",
        "Nepal/Tibet": "Switzerland",
        "Asia": "Europe"
    },
    {
        "Everest": "Kackar Dagi",
        "8.848": "3.932",
        "Nepal/Tibet": "Turkey",
        "Asia": "Europe"
    },
    {
        "Everest": "Ushkovski",
        "8.848": "3.930",
        "Nepal/Tibet": "Russia",
        "Asia": "Europe"
    },
    {
        "Everest": "Mt Parker",
        "8.848": "3.921",
        "Nepal/Tibet": "California",
        "Asia": "North America"
    },
    {
        "Everest": "Roseg",
        "8.848": "3.920",
        "Nepal/Tibet": "Switzerland/Italy",
        "Asia": "Europe"
    },
    {
        "Everest": "Seytan Bogazi",
        "8.848": "3.917",
        "Nepal/Tibet": "Turkey",
        "Asia": "Europe"
    },
    {
        "Everest": "Palu",
        "8.848": "3.908",
        "Nepal/Tibet": "Switzerland",
        "Asia": "Europe"
    },
    {
        "Everest": "Granite Peak",
        "8.848": "3.902",
        "Nepal/Tibet": "Montana",
        "Asia": "North America"
    },
    {
        "Everest": "Ortler",
        "8.848": "3.902",
        "Nepal/Tibet": "Italy",
        "Asia": "Europe"
    },
    {
        "Everest": "Mt Gibbs",
        "8.848": "3.891",
        "Nepal/Tibet": "California",
        "Asia": "North America"
    },
    {
        "Everest": "Hsuih Shan",
        "8.848": "3.884",
        "Nepal/Tibet": "Taiwan",
        "Asia": "Asia"
    },
    {
        "Everest": "Mt Peal",
        "8.848": "3.878",
        "Nepal/Tibet": "Utah",
        "Asia": "North America"
    },
    {
        "Everest": "Blacktop",
        "8.848": "3.875",
        "Nepal/Tibet": "California",
        "Asia": "North America"
    },
    {
        "Everest": "Mont Blanc de Cheilon",
        "8.848": "3.870",
        "Nepal/Tibet": "Switzerland/Italy",
        "Asia": "Europe"
    },
    {
        "Everest": "Mt Humphreys",
        "8.848": "3.862",
        "Nepal/Tibet": "Arizona",
        "Asia": "North America"
    },
    {
        "Everest": "Konigs",
        "8.848": "3.859",
        "Nepal/Tibet": "Italy",
        "Asia": "Europe"
    },
    {
        "Everest": "Borah Peak",
        "8.848": "3.858",
        "Nepal/Tibet": "Idaho",
        "Asia": "North America"
    },
    {
        "Everest": "La Grande Casse",
        "8.848": "3.855",
        "Nepal/Tibet": "France",
        "Asia": "Europe"
    },
    {
        "Everest": "Mt Wood",
        "8.848": "3.853",
        "Nepal/Tibet": "California",
        "Asia": "North America"
    },
    {
        "Everest": "Mirador del Morado",
        "8.848": "3.850",
        "Nepal/Tibet": "Chile",
        "Asia": "South America"
    },
    {
        "Everest": "Volcan Lanin",
        "8.848": "3.845",
        "Nepal/Tibet": "Argentina/Chile",
        "Asia": "South America"
    },
    {
        "Everest": "Gerdine",
        "8.848": "3.841",
        "Nepal/Tibet": "Alaska",
        "Asia": "North America"
    },
    {
        "Everest": "Monviso",
        "8.848": "3.841",
        "Nepal/Tibet": "Italy",
        "Asia": "Europe"
    },
    {
        "Everest": "Mt Deborah",
        "8.848": "3.823",
        "Nepal/Tibet": "Alaska",
        "Asia": "North America"
    },
    {
        "Everest": "Volcan de Colima",
        "8.848": "3.820",
        "Nepal/Tibet": "Mexico",
        "Asia": "North America"
    },
    {
        "Everest": "Dolent",
        "8.848": "3.820",
        "Nepal/Tibet": "Italy/France",
        "Asia": "Europe"
    },
    {
        "Everest": "Cerro Chirripo",
        "8.848": "3.819",
        "Nepal/Tibet": "Costa Rica",
        "Asia": "North America"
    },
    {
        "Everest": "Mt Simmons",
        "8.848": "3.812",
        "Nepal/Tibet": "California",
        "Asia": "North America"
    },
    {
        "Everest": "Kerintji",
        "8.848": "3.809",
        "Nepal/Tibet": "Indonesia",
        "Asia": "Oceania"
    },
    {
        "Everest": "Carpe",
        "8.848": "3.802",
        "Nepal/Tibet": "Alaska",
        "Asia": "North America"
    },
    {
        "Everest": "Grossglockner",
        "8.848": "3.797",
        "Nepal/Tibet": "Austria",
        "Asia": "Europe"
    },
    {
        "Everest": "Mt Erebus",
        "8.848": "3.794",
        "Nepal/Tibet": "Antarctica",
        "Asia": "The Poles"
    },
    {
        "Everest": "Mt Baldy",
        "8.848": "3.792",
        "Nepal/Tibet": "New Mexico",
        "Asia": "North America"
    },
    {
        "Everest": "Mt Santa Maria",
        "8.848": "3.789",
        "Nepal/Tibet": "Guatemala",
        "Asia": "North America"
    },
    {
        "Everest": "Mont Pourri",
        "8.848": "3.779",
        "Nepal/Tibet": "France",
        "Asia": "Europe"
    },
    {
        "Everest": "Mt Hagen",
        "8.848": "3.778",
        "Nepal/Tibet": "Papua New Guinea",
        "Asia": "Oceania"
    },
    {
        "Everest": "Fuji San",
        "8.848": "3.776",
        "Nepal/Tibet": "Japan",
        "Asia": "Asia"
    },
    {
        "Everest": "Wildspitze",
        "8.848": "3.772",
        "Nepal/Tibet": "Austria",
        "Asia": "Europe"
    },
    {
        "Everest": "Peutery",
        "8.848": "3.772",
        "Nepal/Tibet": "Italy/France",
        "Asia": "Europe"
    },
    {
        "Everest": "Mt Agassiz",
        "8.848": "3.766",
        "Nepal/Tibet": "Arizona",
        "Asia": "North America"
    },
    {
        "Everest": "Zufall",
        "8.848": "3.764",
        "Nepal/Tibet": "Italy",
        "Asia": "Europe"
    },
    {
        "Everest": "Cook",
        "8.848": "3.764",
        "Nepal/Tibet": "New Zealand",
        "Asia": "Oceania"
    },
    {
        "Everest": "Fuego",
        "8.848": "3.763",
        "Nepal/Tibet": "Guatemala",
        "Asia": "North America"
    },
    {
        "Everest": "Jabal Hadur",
        "8.848": "3.760",
        "Nepal/Tibet": "Yemen",
        "Asia": "Asia"
    },
    {
        "Everest": "Mt Waas",
        "8.848": "3.759",
        "Nepal/Tibet": "Utah",
        "Asia": "North America"
    },
    {
        "Everest": "Mt Adams",
        "8.848": "3.758",
        "Nepal/Tibet": "Washington",
        "Asia": "North America"
    },
    {
        "Everest": "Demirkazik",
        "8.848": "3.756",
        "Nepal/Tibet": "Turkey",
        "Asia": "Europe"
    },
    {
        "Everest": "Charbonnel",
        "8.848": "3.752",
        "Nepal/Tibet": "France",
        "Asia": "Europe"
    },
    {
        "Everest": "Grande Sassiere",
        "8.848": "3.751",
        "Nepal/Tibet": "France",
        "Asia": "Europe"
    },
    {
        "Everest": "Mt Lewis",
        "8.848": "3.749",
        "Nepal/Tibet": "California",
        "Asia": "North America"
    },
    {
        "Everest": "Mt Colombia",
        "8.848": "3.748",
        "Nepal/Tibet": "Canada",
        "Asia": "North America"
    },
    {
        "Everest": "Alvand",
        "8.848": "3.746",
        "Nepal/Tibet": "Iran",
        "Asia": "Asia"
    },
    {
        "Everest": "Lam Whoa Shan",
        "8.848": "3.740",
        "Nepal/Tibet": "Taiwan",
        "Asia": "Asia"
    },
    {
        "Everest": "Weisskugel",
        "8.848": "3.739",
        "Nepal/Tibet": "Austria/Italy",
        "Asia": "Europe"
    },
    {
        "Everest": "Trout Peak",
        "8.848": "3.733",
        "Nepal/Tibet": "Wyoming",
        "Asia": "North America"
    },
    {
        "Everest": "Jicarita Peak",
        "8.848": "3.733",
        "Nepal/Tibet": "New Mexico",
        "Asia": "North America"
    },
    {
        "Everest": "Rinjani",
        "8.848": "3.727",
        "Nepal/Tibet": "Indonesia",
        "Asia": "Oceania"
    },
    {
        "Everest": "Diamond Peak",
        "8.848": "3.719",
        "Nepal/Tibet": "Idaho",
        "Asia": "North America"
    },
    {
        "Everest": "Teide",
        "8.848": "3.718",
        "Nepal/Tibet": "Canary Is",
        "Asia": "Europe"
    },
    {
        "Everest": "Sahand",
        "8.848": "3.712",
        "Nepal/Tibet": "Iran",
        "Asia": "Asia"
    },
    {
        "Everest": "Mt Delano",
        "8.848": "3.711",
        "Nepal/Tibet": "Utah",
        "Asia": "North America"
    },
    {
        "Everest": "Visoke",
        "8.848": "3.711",
        "Nepal/Tibet": "Rwanda/Zaire",
        "Asia": "Africa"
    },
    {
        "Everest": "Jong Yong Gien Shan",
        "8.848": "3.703",
        "Nepal/Tibet": "Taiwan",
        "Asia": "Asia"
    },
    {
        "Everest": "Wetterhorn",
        "8.848": "3.701",
        "Nepal/Tibet": "Switzerland",
        "Asia": "Europe"
    },
    {
        "Everest": "La Dent Parrachee",
        "8.848": "3.697",
        "Nepal/Tibet": "France",
        "Asia": "Europe"
    },
    {
        "Everest": "Gunnbjorn Fjeld",
        "8.848": "3.694",
        "Nepal/Tibet": "Denmark/Greenland",
        "Asia": "Europe"
    },
    {
        "Everest": "Ibapah Peak",
        "8.848": "3.684",
        "Nepal/Tibet": "Utah",
        "Asia": "North America"
    },
    {
        "Everest": "Hyndman Peak",
        "8.848": "3.682",
        "Nepal/Tibet": "Idaho",
        "Asia": "North America"
    },
    {
        "Everest": "Ostri Tolbachik",
        "8.848": "3.682",
        "Nepal/Tibet": "Russia",
        "Asia": "Europe"
    },
    {
        "Everest": "Fortress Peak",
        "8.848": "3.681",
        "Nepal/Tibet": "Wyoming",
        "Asia": "North America"
    },
    {
        "Everest": "Semeru",
        "8.848": "3.677",
        "Nepal/Tibet": "Indonesia",
        "Asia": "Oceania"
    },
    {
        "Everest": "Mt Moriah",
        "8.848": "3.674",
        "Nepal/Tibet": "Nevada",
        "Asia": "North America"
    },
    {
        "Everest": "Grossvenediger",
        "8.848": "3.674",
        "Nepal/Tibet": "Austria",
        "Asia": "Europe"
    },
    {
        "Everest": "Les Bans",
        "8.848": "3.669",
        "Nepal/Tibet": "France",
        "Asia": "Europe"
    },
    {
        "Everest": "Sabinyo",
        "8.848": "3.669",
        "Nepal/Tibet": "Uganda/Rwanda/Zaire",
        "Asia": "Africa"
    },
    {
        "Everest": "Mont Collon",
        "8.848": "3.667",
        "Nepal/Tibet": "Switzerland/Italy",
        "Asia": "Europe"
    },
    {
        "Everest": "Mt Witherspoon",
        "8.848": "3.665",
        "Nepal/Tibet": "Alaska",
        "Asia": "North America"
    },
    {
        "Everest": "Blumlisalp",
        "8.848": "3.664",
        "Nepal/Tibet": "Switzerland",
        "Asia": "Europe"
    },
    {
        "Everest": "La Grand Motte",
        "8.848": "3.653",
        "Nepal/Tibet": "France",
        "Asia": "Europe"
    },
    {
        "Everest": "Cliarforon",
        "8.848": "3.642",
        "Nepal/Tibet": "Italy",
        "Asia": "Europe"
    },
    {
        "Everest": "Vioz",
        "8.848": "3.640",
        "Nepal/Tibet": "Italy",
        "Asia": "Europe"
    },
    {
        "Everest": "Mt Nebo",
        "8.848": "3.637",
        "Nepal/Tibet": "Utah",
        "Asia": "North America"
    },
    {
        "Everest": "Albaron",
        "8.848": "3.637",
        "Nepal/Tibet": "France",
        "Asia": "Europe"
    },
    {
        "Everest": "Sabinyo",
        "8.848": "3.634",
        "Nepal/Tibet": "Rwanda/Zaire",
        "Asia": "Africa"
    },
    {
        "Everest": "Dammastock",
        "8.848": "3.630",
        "Nepal/Tibet": "Switzerland",
        "Asia": "Europe"
    },
    {
        "Everest": "Forbes Peak",
        "8.848": "3.628",
        "Nepal/Tibet": "Canada",
        "Asia": "North America"
    },
    {
        "Everest": "Hintere Schwarze",
        "8.848": "3.628",
        "Nepal/Tibet": "Austria/Italy",
        "Asia": "Europe"
    },
    {
        "Everest": "North Schell",
        "8.848": "3.623",
        "Nepal/Tibet": "Nevada",
        "Asia": "North America"
    },
    {
        "Everest": "Assiniboine",
        "8.848": "3.619",
        "Nepal/Tibet": "Canada",
        "Asia": "North America"
    },
    {
        "Everest": "T\u0094di",
        "8.848": "3.614",
        "Nepal/Tibet": "Switzerland",
        "Asia": "Europe"
    },
    {
        "Everest": "Ronce",
        "8.848": "3.612",
        "Nepal/Tibet": "France",
        "Asia": "Europe"
    },
    {
        "Everest": "Chida Shan",
        "8.848": "3.605",
        "Nepal/Tibet": "Taiwan",
        "Asia": "Asia"
    },
    {
        "Everest": "Tsanteleina",
        "8.848": "3.605",
        "Nepal/Tibet": "France/Italy",
        "Asia": "Europe"
    },
    {
        "Everest": "Castle Peak",
        "8.848": "3.602",
        "Nepal/Tibet": "Idaho",
        "Asia": "North America"
    },
    {
        "Everest": "Mt Jefferson",
        "8.848": "3.600",
        "Nepal/Tibet": "Nevada",
        "Asia": "North America"
    },
    {
        "Everest": "Taiyabe Dome (Arc dome)",
        "8.848": "3.590",
        "Nepal/Tibet": "Nevada",
        "Asia": "North America"
    },
    {
        "Everest": "South Schell",
        "8.848": "3.587",
        "Nepal/Tibet": "Nevada",
        "Asia": "North America"
    },
    {
        "Everest": "Gallenstock",
        "8.848": "3.583",
        "Nepal/Tibet": "Switzerland",
        "Asia": "Europe"
    },
    {
        "Everest": "Mt Timpanogos",
        "8.848": "3.582",
        "Nepal/Tibet": "Utah",
        "Asia": "North America"
    },
    {
        "Everest": "Taft",
        "8.848": "3.577",
        "Nepal/Tibet": "Nevada",
        "Asia": "North America"
    },
    {
        "Everest": "Grosswiesbachhorn",
        "8.848": "3.565",
        "Nepal/Tibet": "Austria",
        "Asia": "Europe"
    },
    {
        "Everest": "Peclet",
        "8.848": "3.562",
        "Nepal/Tibet": "France",
        "Asia": "Europe"
    },
    {
        "Everest": "Presanella",
        "8.848": "3.556",
        "Nepal/Tibet": "Italy",
        "Asia": "Europe"
    },
    {
        "Everest": "Tronador",
        "8.848": "3.554",
        "Nepal/Tibet": "Argentina/Chile",
        "Asia": "South America"
    },
    {
        "Everest": "Adamello Peak",
        "8.848": "3.554",
        "Nepal/Tibet": "Italy",
        "Asia": "Europe"
    },
    {
        "Everest": "Leone",
        "8.848": "3.553",
        "Nepal/Tibet": "Switzerland",
        "Asia": "Europe"
    },
    {
        "Everest": "Mt Temple",
        "8.848": "3.547",
        "Nepal/Tibet": "Canada",
        "Asia": "North America"
    },
    {
        "Everest": "Vertain Spitze",
        "8.848": "3.544",
        "Nepal/Tibet": "Italy",
        "Asia": "Europe"
    },
    {
        "Everest": "Mt Bell",
        "8.848": "3.540",
        "Nepal/Tibet": "Idaho",
        "Asia": "North America"
    },
    {
        "Everest": "Atitlan",
        "8.848": "3.537",
        "Nepal/Tibet": "Guatemala",
        "Asia": "North America"
    },
    {
        "Everest": "Polset",
        "8.848": "3.534",
        "Nepal/Tibet": "France",
        "Asia": "Europe"
    },
    {
        "Everest": "Wazespitze",
        "8.848": "3.533",
        "Nepal/Tibet": "Austria",
        "Asia": "Europe"
    },
    {
        "Everest": "Currant Peak",
        "8.848": "3.510",
        "Nepal/Tibet": "Nevada",
        "Asia": "North America"
    },
    {
        "Everest": "Hochfeiler",
        "8.848": "3.510",
        "Nepal/Tibet": "Austria/Italy",
        "Asia": "Europe"
    },
    {
        "Everest": "Les Aiguilles D'Arves",
        "8.848": "3.510",
        "Nepal/Tibet": "France",
        "Asia": "Europe"
    },
    {
        "Everest": "Zuckerhutl",
        "8.848": "3.507",
        "Nepal/Tibet": "Austria",
        "Asia": "Europe"
    },
    {
        "Everest": "Sustenhorn",
        "8.848": "3.503",
        "Nepal/Tibet": "Switzerland",
        "Asia": "Europe"
    },
    {
        "Everest": "Yasus",
        "8.848": "3.500",
        "Nepal/Tibet": "Ethiopia",
        "Asia": "Africa"
    }
]