[
    {
        "Middle East": "Afghanistan",
        "Population": "31,056,997",
        "Life Ex.": "43.34",
        "Religion (T) Eschatology (E)": "80SunMus,19ShiMus,1Oth",
        "IQ": "*84",
        "Literacy": "36;51,21",
        "Inc PPP": "$800"
    },
    {
        "Middle East": "Bahrain",
        "Population": "698,585",
        "Life Ex.": "74.45",
        "Religion (T) Eschatology (E)": "81.2Mus,9Chr,9.8Oth",
        "IQ": "*83",
        "Literacy": "89.1;91.9,85",
        "Inc PPP": "$25,300"
    },
    {
        "Middle East": "Iran",
        "Population": "68,688,433",
        "Life Ex.": "70.26",
        "Religion (T) Eschatology (E)": "89ShiMus,9SunMus,2Oth",
        "IQ": "84",
        "Literacy": "79.4;85.6,73",
        "Inc PPP": "$8,900"
    },
    {
        "Middle East": "Iraq",
        "Population": "26,783,383",
        "Life Ex.": "69.01",
        "Religion (T) Eschatology (E)": "60ShiMus,37SunMus,3Oth",
        "IQ": "87",
        "Literacy": "40.4;55.9,24.4",
        "Inc PPP": "$2,900"
    },
    {
        "Middle East": "Israel",
        "Population": "6,352,117",
        "Life Ex.": "79.46",
        "Religion (T) Eschatology (E)": "76.4Jew,16Mus,5.5Oth,2.1Chr",
        "IQ": "95",
        "Literacy": "95.4;97.3,93.6",
        "Inc PPP": "$26,200"
    },
    {
        "Middle East": "Jordon",
        "Population": "5,906,760",
        "Life Ex.": "78.4",
        "Religion (T) Eschatology (E)": "92SunMus,6Chr,2Oth",
        "IQ": "84",
        "Literacy": "91.3;95.9,86.3",
        "Inc PPP": "$4,900"
    },
    {
        "Middle East": "Kuwait",
        "Population": "2,418,393",
        "Life Ex.": "77.2",
        "Religion (T) Eschatology (E)": "59.5SunMus,25.5ShiMus,15Oth",
        "IQ": "86",
        "Literacy": "83.5;85.1,81.7",
        "Inc PPP": "$21,600"
    },
    {
        "Middle East": "Lebanon",
        "Population": "3,874,050",
        "Life Ex.": "72.88",
        "Religion (T) Eschatology (E)": "59.7Mus,39Chr,1.3Oth",
        "IQ": "82",
        "Literacy": "87.4;93.1,82.2",
        "Inc PPP": "$5,500"
    },
    {
        "Middle East": "Oman",
        "Population": "3,102,229",
        "Life Ex.": "73.37",
        "Religion (T) Eschatology (E)": "75Mus,25Oth",
        "IQ": "*83",
        "Literacy": "75.8;83.1,67.2",
        "Inc PPP": "$14,100"
    },
    {
        "Middle East": "Qatar",
        "Population": "885,359",
        "Life Ex.": "73.9",
        "Religion (T) Eschatology (E)": "95Mus,5Oth",
        "IQ": "78",
        "Literacy": "89;89.1,88.6",
        "Inc PPP": "$29,400"
    },
    {
        "Middle East": "Saudi Arabia",
        "Population": "27,019,731",
        "Life Ex.": "75.67",
        "Religion (T) Eschatology (E)": "100Mus",
        "IQ": "*84",
        "Literacy": "78.8;84.7,70.8",
        "Inc PPP": "$13,800"
    },
    {
        "Middle East": "Syria",
        "Population": "18,881,361",
        "Life Ex.": "70.32",
        "Religion (T) Eschatology (E)": "74SunMus,16Mus,10Chr",
        "IQ": "83",
        "Literacy": "76.9;89.7,64",
        "Inc PPP": "$4,000"
    },
    {
        "Middle East": "Turkey",
        "Population": "70,413,958",
        "Life Ex.": "72.62",
        "Religion (T) Eschatology (E)": "99.8Mus,.2Oth",
        "IQ": "90",
        "Literacy": "86.5;94.3,78.8",
        "Inc PPP": "$8,900"
    },
    {
        "Middle East": "United Arab Emir.",
        "Population": "2,602,713",
        "Life Ex.": "75.44",
        "Religion (T) Eschatology (E)": "80Mus,16ShiMus,4Oth",
        "IQ": "*84",
        "Literacy": "77.9;76.1,81.7",
        "Inc PPP": "$49,700"
    },
    {
        "Middle East": "Yemen",
        "Population": "21,456,188",
        "Life Ex.": "62.12",
        "Religion (T) Eschatology (E)": "Mus",
        "IQ": "85",
        "Literacy": "50.2;70.5,30",
        "Inc PPP": "$900"
    },
    {
        "Middle East": "North Africa",
        "Population": "",
        "Life Ex.": "",
        "Religion (T) Eschatology (E)": "",
        "IQ": "",
        "Literacy": "",
        "Inc PPP": ""
    },
    {
        "Middle East": "Algeria",
        "Population": "32,930,091",
        "Life Ex.": "73.26",
        "Religion (T) Eschatology (E)": "99SunMus,1Chr/Jew",
        "IQ": "*83",
        "Literacy": "70;78.8,61",
        "Inc PPP": "$7,700"
    },
    {
        "Middle East": "Egypt",
        "Population": "78,887,007",
        "Life Ex.": "71.29",
        "Religion (T) Eschatology (E)": "90SunMus,10Oth",
        "IQ": "81",
        "Literacy": "57.7;68.3,46.9",
        "Inc PPP": "$4,200"
    },
    {
        "Middle East": "Libya",
        "Population": "5,900,754",
        "Life Ex.": "76.69",
        "Religion (T) Eschatology (E)": "97SunMus,3Oth",
        "IQ": "*83",
        "Literacy": "82.6;92.4,72",
        "Inc PPP": "$12,700"
    },
    {
        "Middle East": "Morocco",
        "Population": "33,241,259",
        "Life Ex.": "70.94",
        "Religion (T) Eschatology (E)": "98.7Mus,1.1Chr,.2Jew",
        "IQ": "84",
        "Literacy": "51.7;64.1,39.4",
        "Inc PPP": "$4,400"
    },
    {
        "Middle East": "Sudan",
        "Population": "41,236,378",
        "Life Ex.": "58.92",
        "Religion (T) Eschatology (E)": "70SunMus,25Sat,5Chr",
        "IQ": "71",
        "Literacy": "61.1;71.8,50.5",
        "Inc PPP": "$2,300"
    },
    {
        "Middle East": "Tunisia",
        "Population": "10,175,014",
        "Life Ex.": "75.12",
        "Religion (T) Eschatology (E)": "98Mus,1Chr,1Oth",
        "IQ": "*83",
        "Literacy": "74.3;83.4,65.3",
        "Inc PPP": "$8,600"
    },
    {
        "Middle East": "Western Europe",
        "Population": "",
        "Life Ex.": "",
        "Religion (T) Eschatology (E)": "",
        "IQ": "",
        "Literacy": "",
        "Inc PPP": ""
    },
    {
        "Middle East": "Andorra",
        "Population": "71,201",
        "Life Ex.": "83.51",
        "Religion (T) Eschatology (E)": "Cath",
        "IQ": "*98",
        "Literacy": "100",
        "Inc PPP": "$38,800"
    },
    {
        "Middle East": "Austria",
        "Population": "8,192,880",
        "Life Ex.": "79.07",
        "Religion (T) Eschatology (E)": "73.6Cath,17.5Oth,4.7Prot,4.2Mus",
        "IQ": "100",
        "Literacy": "98",
        "Inc PPP": "$35,500"
    },
    {
        "Middle East": "Belgium",
        "Population": "10,379,067",
        "Life Ex.": "78.77",
        "Religion (T) Eschatology (E)": "75Cath,25Oth",
        "IQ": "99",
        "Literacy": "99",
        "Inc PPP": "$31,800"
    },
    {
        "Middle East": "Cyprus",
        "Population": "784,301",
        "Life Ex.": "77.82",
        "Religion (T) Eschatology (E)": "78Ort,18Mus,4Oth",
        "IQ": "*91",
        "Literacy": "97.6;98.9,96.3",
        "Inc PPP": "$22,700"
    },
    {
        "Middle East": "Denmark",
        "Population": "5,450,661",
        "Life Ex.": "77.79",
        "Religion (T) Eschatology (E)": "95Prot,3Chr,2Mus",
        "IQ": "98",
        "Literacy": "99",
        "Inc PPP": "$37,000"
    },
    {
        "Middle East": "Finland",
        "Population": "5,231,372",
        "Life Ex.": "78.5",
        "Religion (T) Eschatology (E)": "85.3Prot,13.6Oth,1.1Ort",
        "IQ": "99",
        "Literacy": "100",
        "Inc PPP": "$32,800"
    },
    {
        "Middle East": "France",
        "Population": "62,752,136",
        "Life Ex.": "79.73",
        "Religion (T) Eschatology (E)": "85Cath,8Mus,5Oth,2Prot",
        "IQ": "98",
        "Literacy": "99",
        "Inc PPP": "$30,100"
    },
    {
        "Middle East": "Germany",
        "Population": "82,422,299",
        "Life Ex.": "78.8",
        "Religion (T) Eschatology (E)": "34Prot,34Cath,28.3Oth,3.7Mus",
        "IQ": "99",
        "Literacy": "99",
        "Inc PPP": "$31,400"
    },
    {
        "Middle East": "Greece",
        "Population": "10,688,058",
        "Life Ex.": "79.24",
        "Religion (T) Eschatology (E)": "98Ort,1.3Mus,.7Oth",
        "IQ": "92",
        "Literacy": "97.5;98.6,96.5",
        "Inc PPP": "$23,500"
    },
    {
        "Middle East": "Iceland",
        "Population": "299,388",
        "Life Ex.": "80.31",
        "Religion (T) Eschatology (E)": "89.1Prot,6.2Oth,2.7Chr,2Cath",
        "IQ": "101",
        "Literacy": "99",
        "Inc PPP": "$38,100"
    },
    {
        "Middle East": "Ireland",
        "Population": "4,062,235",
        "Life Ex.": "77.73",
        "Religion (T) Eschatology (E)": "88.4Cath,7Oth,4.6Chr",
        "IQ": "92",
        "Literacy": "99",
        "Inc PPP": "$43,600"
    },
    {
        "Middle East": "Italy",
        "Population": "58,133,509",
        "Life Ex.": "79.81",
        "Religion (T) Eschatology (E)": "90Cath,10Chr",
        "IQ": "102",
        "Literacy": "98.6;99,98.3",
        "Inc PPP": "$29,700"
    },
    {
        "Middle East": "Liechtenstein",
        "Population": "33,987",
        "Life Ex.": "79.68",
        "Religion (T) Eschatology (E)": "76.2Cath,16.8Oth,7Prot",
        "IQ": "",
        "Literacy": "100",
        "Inc PPP": "$25,000"
    },
    {
        "Middle East": "Luxembourg",
        "Population": "474,413",
        "Life Ex.": "78.89",
        "Religion (T) Eschatology (E)": "87Cath,13Oth",
        "IQ": "*100",
        "Literacy": "100",
        "Inc PPP": "$68,800"
    },
    {
        "Middle East": "Malta",
        "Population": "400,214",
        "Life Ex.": "79.01",
        "Religion (T) Eschatology (E)": "98Cath,2Oth",
        "IQ": "97",
        "Literacy": "92.8;92,93.6",
        "Inc PPP": "$20,300"
    },
    {
        "Middle East": "Monaco",
        "Population": "32,543",
        "Life Ex.": "79.69",
        "Religion (T) Eschatology (E)": "90Cath,10Oth",
        "IQ": "",
        "Literacy": "99",
        "Inc PPP": "$30,000"
    },
    {
        "Middle East": "Netherlands",
        "Population": "16,491,461",
        "Life Ex.": "78.96",
        "Religion (T) Eschatology (E)": "43.5Oth,31Cath,20Prot,5.5Mus",
        "IQ": "100",
        "Literacy": "99",
        "Inc PPP": "$31,700"
    },
    {
        "Middle East": "Norway",
        "Population": "4,610,820",
        "Life Ex.": "79.54",
        "Religion (T) Eschatology (E)": "89.4Chr,10.6Oth",
        "IQ": "100",
        "Literacy": "100",
        "Inc PPP": "$47,800"
    },
    {
        "Middle East": "Portugal",
        "Population": "10,605,870",
        "Life Ex.": "77.7",
        "Religion (T) Eschatology (E)": "94Cath,4Prot/Oth",
        "IQ": "95",
        "Literacy": "93.3;95.5,91.3",
        "Inc PPP": "$19,100"
    },
    {
        "Middle East": "San Marino",
        "Population": "29,251",
        "Life Ex.": "81.71",
        "Religion (T) Eschatology (E)": "Cath",
        "IQ": "",
        "Literacy": "96;97,95",
        "Inc PPP": "$34,100"
    },
    {
        "Middle East": "Spain",
        "Population": "40,397,842",
        "Life Ex.": "79.65",
        "Religion (T) Eschatology (E)": "94Cath,6Oth",
        "IQ": "98",
        "Literacy": "97.9;98.7,97.2",
        "Inc PPP": "$27,000"
    },
    {
        "Middle East": "Sweden",
        "Population": "9,016,596",
        "Life Ex.": "80.51",
        "Religion (T) Eschatology (E)": "87Prot,13Oth",
        "IQ": "99",
        "Literacy": "99",
        "Inc PPP": "$31,600"
    },
    {
        "Middle East": "Switzerland",
        "Population": "7,523,934",
        "Life Ex.": "80.51",
        "Religion (T) Eschatology (E)": "41.8Cath,35.3Prot,18.6Oth,4.3Mus",
        "IQ": "101",
        "Literacy": "99",
        "Inc PPP": "$33,600"
    },
    {
        "Middle East": "United Kingdom",
        "Population": "60,609,153",
        "Life Ex.": "78.54",
        "Religion (T) Eschatology (E)": "71.6Chr,25.7Oth,2.7Mus",
        "IQ": "100",
        "Literacy": "99",
        "Inc PPP": "$31,400"
    },
    {
        "Middle East": "Vatican",
        "Population": "932",
        "Life Ex.": "",
        "Religion (T) Eschatology (E)": "Cath",
        "IQ": "",
        "Literacy": "100",
        "Inc PPP": ""
    },
    {
        "Middle East": "Eastern Europe",
        "Population": "",
        "Life Ex.": "",
        "Religion (T) Eschatology (E)": "",
        "IQ": "",
        "Literacy": "",
        "Inc PPP": ""
    },
    {
        "Middle East": "Albania",
        "Population": "3,581,655",
        "Life Ex.": "77.43",
        "Religion (T) Eschatology (E)": "70Mus,20Ort,10Cath",
        "IQ": "*90",
        "Literacy": "86.5;93.3,79.5",
        "Inc PPP": "$5,600"
    },
    {
        "Middle East": "Armenia",
        "Population": "2,976,372",
        "Life Ex.": "71.84",
        "Religion (T) Eschatology (E)": "94.7Prot,4Chr,3Sat",
        "IQ": "*94",
        "Literacy": "98.6;99.4,98",
        "Inc PPP": "$5,400"
    },
    {
        "Middle East": "Azerbaijan",
        "Population": "7,961,619",
        "Life Ex.": "63.85",
        "Religion (T) Eschatology (E)": "93.4Mus,4.8Ort,1.8Oth",
        "IQ": "*87",
        "Literacy": "98.8;99.5,98.2",
        "Inc PPP": "$7,300"
    },
    {
        "Middle East": "Belarus",
        "Population": "70,293,011",
        "Life Ex.": "69.8",
        "Religion (T) Eschatology (E)": "80Ort,20Oth",
        "IQ": "*97",
        "Literacy": "99.6;99.8,99.5",
        "Inc PPP": "$7,800"
    },
    {
        "Middle East": "Bosnia/Herzegovina",
        "Population": "4,498,976",
        "Life Ex.": "78",
        "Religion (T) Eschatology (E)": "40Mus,31Ort,15Cath,14Oth",
        "IQ": "*90",
        "Literacy": "94.6;98.4,91.1",
        "Inc PPP": "$5,500"
    },
    {
        "Middle East": "Bulgaria",
        "Population": "7,385,367",
        "Life Ex.": "72.3",
        "Religion (T) Eschatology (E)": "82.6Ort,12.2Mus,5.2Oth",
        "IQ": "93",
        "Literacy": "98.6;99.1,98.2",
        "Inc PPP": "$10,400"
    },
    {
        "Middle East": "Croatia",
        "Population": "4,494,749",
        "Life Ex.": "74.68",
        "Religion (T) Eschatology (E)": "87.8Cath,7.8Oth,4.4Ort",
        "IQ": "90",
        "Literacy": "98.5;99.4,97.8",
        "Inc PPP": "$13,200"
    },
    {
        "Middle East": "Czech Republic",
        "Population": "10,235,455",
        "Life Ex.": "76.22",
        "Religion (T) Eschatology (E)": "71.1Oth,26.8Cath,2.1Prot",
        "IQ": "98",
        "Literacy": "99",
        "Inc PPP": "$21,600"
    },
    {
        "Middle East": "Estonia",
        "Population": "1,324,333",
        "Life Ex.": "72.04",
        "Religion (T) Eschatology (E)": "72.2Oth,15Prot,12.8Ort",
        "IQ": "99",
        "Literacy": "98.8",
        "Inc PPP": "$19,600"
    },
    {
        "Middle East": "Georgia",
        "Population": "4,661,473",
        "Life Ex.": "76.9",
        "Religion (T) Eschatology (E)": "83.9Ort,9.9Mus,6.2Oth",
        "IQ": "*94",
        "Literacy": "100",
        "Inc PPP": "$3,800"
    },
    {
        "Middle East": "Hungary",
        "Population": "9,981,334",
        "Life Ex.": "72.66",
        "Religion (T) Eschatology (E)": "51.9Cath,25.6Oth,22.5Prot",
        "IQ": "98",
        "Literacy": "99.4;99.5,99.3",
        "Inc PPP": "$17,300"
    },
    {
        "Middle East": "Kazakhstan",
        "Population": "15,233,244",
        "Life Ex.": "66.89",
        "Religion (T) Eschatology (E)": "47Mus,44Ort,7Oth,2Prot",
        "IQ": "*94",
        "Literacy": "98.4;99.1,97.7",
        "Inc PPP": "$9,100"
    },
    {
        "Middle East": "Kyrgyzstan",
        "Population": "5,213,898",
        "Life Ex.": "68.49",
        "Religion (T) Eschatology (E)": "75Mus,20Ort,5Oth",
        "IQ": "*90",
        "Literacy": "98.7;99.3,98.1",
        "Inc PPP": "$2,000"
    },
    {
        "Middle East": "Latvia",
        "Population": "2,274,735",
        "Life Ex.": "71.33",
        "Religion (T) Eschatology (E)": "Prot,Cath,Ort",
        "IQ": "*98",
        "Literacy": "99.8",
        "Inc PPP": "$15,400"
    },
    {
        "Middle East": "Lithuania",
        "Population": "3,585,906",
        "Life Ex.": "74.2",
        "Religion (T) Eschatology (E)": "79Cath,15Oth,4.1Ort,1.9Prot",
        "IQ": "91",
        "Literacy": "99.6;99.7,99.6",
        "Inc PPP": "$15,100"
    },
    {
        "Middle East": "Macedonia",
        "Population": "2,050,554",
        "Life Ex.": "73.97",
        "Religion (T) Eschatology (E)": "64.7Ort,33.3Mus,2Oth",
        "IQ": "*91",
        "Literacy": "96.1;98.2,94.1",
        "Inc PPP": "$8,200"
    },
    {
        "Middle East": "Moldova",
        "Population": "4,466,706",
        "Life Ex.": "65.65",
        "Religion (T) Eschatology (E)": "98Ort,1.5Jew,.5Oth",
        "IQ": "*96",
        "Literacy": "99.1;99.6,98.7",
        "Inc PPP": "$2,000"
    },
    {
        "Middle East": "Montenegro",
        "Population": "630,548",
        "Life Ex.": "",
        "Religion (T) Eschatology (E)": "Ort,Mus,Cath",
        "IQ": "",
        "Literacy": "",
        "Inc PPP": "$3,800"
    },
    {
        "Middle East": "Poland",
        "Population": "38,536,869",
        "Life Ex.": "74.97",
        "Religion (T) Eschatology (E)": "89.8Cath,10.2Oth",
        "IQ": "99",
        "Literacy": "99.8;99.8,99.7",
        "Inc PPP": "$14,100"
    },
    {
        "Middle East": "Romania",
        "Population": "22,303,552",
        "Life Ex.": "71.63",
        "Religion (T) Eschatology (E)": "86.8Ort,7.5Prot,4.7Cath,1Oth",
        "IQ": "94",
        "Literacy": "98.4;99.1,97.7",
        "Inc PPP": "$8,800"
    },
    {
        "Middle East": "Russia",
        "Population": "142,893,540",
        "Life Ex.": "67.08",
        "Religion (T) Eschatology (E)": "65Oth,20Ort,15Mus",
        "IQ": "97",
        "Literacy": "99.6;99.7,99.5",
        "Inc PPP": "$12,000"
    },
    {
        "Middle East": "Serbia",
        "Population": "9,393,411",
        "Life Ex.": "74",
        "Religion (T) Eschatology (E)": "Ort,Mus,Cath,Prot",
        "IQ": "89",
        "Literacy": "96.4;98.9,94.1",
        "Inc PPP": "$4,400"
    },
    {
        "Middle East": "Slovakia",
        "Population": "5,439,448",
        "Life Ex.": "74.73",
        "Religion (T) Eschatology (E)": "73Cath,16.2Oth,10.8Prot",
        "IQ": "96",
        "Literacy": "99.6;99.7,99.6",
        "Inc PPP": "$17,700"
    },
    {
        "Middle East": "Slovenia",
        "Population": "2,010,347",
        "Life Ex.": "76.33",
        "Religion (T) Eschatology (E)": "57.8Cath,39.8Oth,2.4Mus",
        "IQ": "96",
        "Literacy": "99.7;99.7,99.6",
        "Inc PPP": "$23,400"
    },
    {
        "Middle East": "Tajikistan",
        "Population": "7,320,815",
        "Life Ex.": "64.94",
        "Religion (T) Eschatology (E)": "85SunMus,10Oth,5ShiMus",
        "IQ": "*87",
        "Literacy": "99.4;99.6,99.1",
        "Inc PPP": "$1,300"
    },
    {
        "Middle East": "Turkmenistan",
        "Population": "5.042,920",
        "Life Ex.": "61.83",
        "Religion (T) Eschatology (E)": "89Mus,9Ort,2Oth",
        "IQ": "*87",
        "Literacy": "98.8;99.3,98.3",
        "Inc PPP": "$8,900"
    },
    {
        "Middle East": "Ukraine",
        "Population": "46,710,816",
        "Life Ex.": "69.98",
        "Religion (T) Eschatology (E)": "48.3Oth,45.7Ort,6Cath",
        "IQ": "*97",
        "Literacy": "99.7;99.8,99.6",
        "Inc PPP": "$7,600"
    },
    {
        "Middle East": "Uzbekistan",
        "Population": "27,307,134",
        "Life Ex.": "64.58",
        "Religion (T) Eschatology (E)": "88Mus,9Ort,3Oth",
        "IQ": "*87",
        "Literacy": "99.3;99.6,99",
        "Inc PPP": "$2,000"
    },
    {
        "Middle East": "East Asia",
        "Population": "",
        "Life Ex.": "",
        "Religion (T) Eschatology (E)": "",
        "IQ": "",
        "Literacy": "",
        "Inc PPP": ""
    },
    {
        "Middle East": "Hong Kong",
        "Population": "6,940,432",
        "Life Ex.": "81.59",
        "Religion (T) Eschatology (E)": "90Oth,10Chr",
        "IQ": "108",
        "Literacy": "93.5;96.9,89.6",
        "Inc PPP": "$36,500"
    },
    {
        "Middle East": "Peop. Rep. China",
        "Population": "1,313,973,713",
        "Life Ex.": "72.58",
        "Religion (T) Eschatology (E)": "Tao,Bud,3Chr,1Mus",
        "IQ": "105",
        "Literacy": "90.9;95.1,86.5",
        "Inc PPP": "$7,600"
    },
    {
        "Middle East": "Rep. China/Taiwan",
        "Population": "23,036,087",
        "Life Ex.": "77.43",
        "Religion (T) Eschatology (E)": "93Bud,Con,Tao,4.5Chr,2.5Oth",
        "IQ": "105",
        "Literacy": "96.1",
        "Inc PPP": "$29,000"
    },
    {
        "Middle East": "Japan",
        "Population": "127,463,611",
        "Life Ex.": "81.25",
        "Religion (T) Eschatology (E)": "84ShiBud,16Oth",
        "IQ": "105",
        "Literacy": "99",
        "Inc PPP": "$33,100"
    },
    {
        "Middle East": "Mongolia",
        "Population": "2,832,224",
        "Life Ex.": "64.89",
        "Religion (T) Eschatology (E)": "50Bud,40Oth,6Chr,4Mus",
        "IQ": "*101",
        "Literacy": "97.8;98.9,97.5",
        "Inc PPP": "$2,000"
    },
    {
        "Middle East": "North Korea",
        "Population": "23,113,019",
        "Life Ex.": "71.65",
        "Religion (T) Eschatology (E)": "Bud,Con,Chr",
        "IQ": "*106",
        "Literacy": "99",
        "Inc PPP": "$1,800"
    },
    {
        "Middle East": "South Korea",
        "Population": "48,846,823",
        "Life Ex.": "77.04",
        "Religion (T) Eschatology (E)": "47Oth,26Chr,26Bud,1Con",
        "IQ": "106",
        "Literacy": "97.9;99.2,96.6",
        "Inc PPP": "$24,200"
    },
    {
        "Middle East": "South Asia",
        "Population": "",
        "Life Ex.": "",
        "Religion (T) Eschatology (E)": "",
        "IQ": "",
        "Literacy": "",
        "Inc PPP": ""
    },
    {
        "Middle East": "Bangladesh",
        "Population": "147,365,352",
        "Life Ex.": "62.46",
        "Religion (T) Eschatology (E)": "83Mus,16Hin,1Oth",
        "IQ": "*82",
        "Literacy": "43.1;53.9,31.8",
        "Inc PPP": "$2,200"
    },
    {
        "Middle East": "Bhutan",
        "Population": "2,279,723",
        "Life Ex.": "54.78",
        "Religion (T) Eschatology (E)": "75Bud,25Hin",
        "IQ": "*80",
        "Literacy": "47;60,34",
        "Inc PPP": "$1,400"
    },
    {
        "Middle East": "India",
        "Population": "1,095,351,995",
        "Life Ex.": "64.71",
        "Religion (T) Eschatology (E)": "80.5Hin,13.4Mus,3.8Oth,2.3Chr",
        "IQ": "82",
        "Literacy": "59.5;70.2,48.3",
        "Inc PPP": "$3,700"
    },
    {
        "Middle East": "Maldives",
        "Population": "359,008",
        "Life Ex.": "64.41",
        "Religion (T) Eschatology (E)": "SunMus",
        "IQ": "*81",
        "Literacy": "97.2;97.1,97.3",
        "Inc PPP": "$3,900"
    },
    {
        "Middle East": "Nepal",
        "Population": "28,287,147",
        "Life Ex.": "60.18",
        "Religion (T) Eschatology (E)": "80.6Hin,10.7Bud,4.5Oth,4.2Mus",
        "IQ": "78",
        "Literacy": "48.6;62.7,34.9",
        "Inc PPP": "$1,500"
    },
    {
        "Middle East": "Pakistan",
        "Population": "165,803,560",
        "Life Ex.": "63.39",
        "Religion (T) Eschatology (E)": "77SunMus,20ShiMus,3Oth",
        "IQ": "84",
        "Literacy": "48.7;61.7,35.2",
        "Inc PPP": "$2,600"
    },
    {
        "Middle East": "Sri Lanka",
        "Population": "20,222,240",
        "Life Ex.": "73.41",
        "Religion (T) Eschatology (E)": "69.1Bud,10Oth,7.6Mus,7.1Hin,6.2Chr",
        "IQ": "79",
        "Literacy": "92.3;94.8,90",
        "Inc PPP": "$4,600"
    },
    {
        "Middle East": "Southeast Asia",
        "Population": "",
        "Life Ex.": "",
        "Religion (T) Eschatology (E)": "",
        "IQ": "",
        "Literacy": "",
        "Inc PPP": ""
    },
    {
        "Middle East": "Brunei",
        "Population": "379,444",
        "Life Ex.": "75.01",
        "Religion (T) Eschatology (E)": "67Mus,13Bud,10Chr,10Oth",
        "IQ": "*91",
        "Literacy": "93.9;96.3,91.4",
        "Inc PPP": "$25,600"
    },
    {
        "Middle East": "Cambodia",
        "Population": "13,881,427",
        "Life Ex.": "59.29",
        "Religion (T) Eschatology (E)": "95Bud,5Oth",
        "IQ": "*91",
        "Literacy": "73.6;84.7,64.1",
        "Inc PPP": "$2,600"
    },
    {
        "Middle East": "East Timor",
        "Population": "1,062,777",
        "Life Ex.": "66.26",
        "Religion (T) Eschatology (E)": "98Cath,1Mus,1Prot",
        "IQ": "*87",
        "Literacy": "58.6",
        "Inc PPP": "$800"
    },
    {
        "Middle East": "Indonesia",
        "Population": "245,452,739",
        "Life Ex.": "69.87",
        "Religion (T) Eschatology (E)": "88Mus,5Prot,4Oth,3Cath",
        "IQ": "87",
        "Literacy": "87.9;92.5,83.4",
        "Inc PPP": "$3,800"
    },
    {
        "Middle East": "Laos",
        "Population": "6,368,481",
        "Life Ex.": "55.49",
        "Religion (T) Eschatology (E)": "60Bud,40Oth",
        "IQ": "89",
        "Literacy": "66.4;77.4,55.5",
        "Inc PPP": "$2,100"
    },
    {
        "Middle East": "Malaysia",
        "Population": "24,385,858",
        "Life Ex.": "72.5",
        "Religion (T) Eschatology (E)": "Mus,Bud,Tao,Hin,Chr,Oth",
        "IQ": "92",
        "Literacy": "88.7;92,85.4",
        "Inc PPP": "$12,700"
    },
    {
        "Middle East": "Myanmar/Burma",
        "Population": "47,382,633",
        "Life Ex.": "60.97",
        "Religion (T) Eschatology (E)": "89Bud,4Chr,4Mus,3Oth",
        "IQ": "*87",
        "Literacy": "85.3;89.2,81.4",
        "Inc PPP": "$1,800"
    },
    {
        "Middle East": "Philippines",
        "Population": "89,468,677",
        "Life Ex.": "70.21",
        "Religion (T) Eschatology (E)": "80.9Cath,7.3Chr,6.8Oth,5Mus",
        "IQ": "86",
        "Literacy": "92.6;92.5,92.7",
        "Inc PPP": "$5,000"
    },
    {
        "Middle East": "Singapore",
        "Population": "4,492,150",
        "Life Ex.": "81.71",
        "Religion (T) Eschatology (E)": "42.5Bud,28Oth,14.9Mus,14.6Chr",
        "IQ": "108",
        "Literacy": "92.5;96.6,88.6",
        "Inc PPP": "$30,900"
    },
    {
        "Middle East": "Thailand",
        "Population": "64,631,595",
        "Life Ex.": "72.25",
        "Religion (T) Eschatology (E)": "94.6Bud,4.6Mus,.8Oth",
        "IQ": "91",
        "Literacy": "92.6;94.9,90.5",
        "Inc PPP": "$9,100"
    },
    {
        "Middle East": "Viet Nam",
        "Population": "84,402,966",
        "Life Ex.": "70.85",
        "Religion (T) Eschatology (E)": "84Oth,9.3Bud,6.7Cath",
        "IQ": "94",
        "Literacy": "90.3;93.9,86.9",
        "Inc PPP": "$3,100"
    },
    {
        "Middle East": "North America",
        "Population": "",
        "Life Ex.": "",
        "Religion (T) Eschatology (E)": "",
        "IQ": "",
        "Literacy": "",
        "Inc PPP": ""
    },
    {
        "Middle East": "Canada",
        "Population": "33,098,932",
        "Life Ex.": "80.22",
        "Religion (T) Eschatology (E)": "42.6Cath,27.80Oth,27.7Prot,1.9Mus",
        "IQ": "99",
        "Literacy": "99",
        "Inc PPP": "$35,200"
    },
    {
        "Middle East": "United States",
        "Population": "298,444,215",
        "Life Ex.": "77.85",
        "Religion (T) Eschatology (E)": "52Prot,24Cath,24Oth",
        "IQ": "98",
        "Literacy": "99",
        "Inc PPP": "$43,500"
    },
    {
        "Middle East": "Central America",
        "Population": "",
        "Life Ex.": "",
        "Religion (T) Eschatology (E)": "",
        "IQ": "",
        "Literacy": "",
        "Inc PPP": ""
    },
    {
        "Middle East": "Antigua/Barbuda",
        "Population": "69,108",
        "Life Ex.": "72.16",
        "Religion (T) Eschatology (E)": "Ang,Prot,Cath",
        "IQ": "*70",
        "Literacy": "85.8",
        "Inc PPP": "$10,900"
    },
    {
        "Middle East": "Bahamas",
        "Population": "303,770",
        "Life Ex.": "65.6",
        "Religion (T) Eschatology (E)": "52.5Prot,28.7Chr,15.1Ang,3.7Oth",
        "IQ": "*84",
        "Literacy": "95.6;94.7,96.5",
        "Inc PPP": "$21,300"
    },
    {
        "Middle East": "Barbados",
        "Population": "279,912",
        "Life Ex.": "72.79",
        "Religion (T) Eschatology (E)": "67Prot,29Oth,4Cath",
        "IQ": "80",
        "Literacy": "99.7",
        "Inc PPP": "$18,200"
    },
    {
        "Middle East": "Belize",
        "Population": "287,730",
        "Life Ex.": "68.3",
        "Religion (T) Eschatology (E)": "49.6Cath,27Prot,23.4Oth",
        "IQ": "*84",
        "Literacy": "94.1",
        "Inc PPP": "$8,400"
    },
    {
        "Middle East": "Bermuda",
        "Population": "65,773",
        "Life Ex.": "77.96",
        "Religion (T) Eschatology (E)": "34Oth,29Prot,23Ang,15Cath",
        "IQ": "90",
        "Literacy": "98;98,99",
        "Inc PPP": "$69,900"
    },
    {
        "Middle East": "Costa Rica",
        "Population": "4,075,261",
        "Life Ex.": "77.02",
        "Religion (T) Eschatology (E)": "76.3Cath,14.4Prot,9.3Oth",
        "IQ": "*89",
        "Literacy": "96;95.9,96.1",
        "Inc PPP": "$12,000"
    },
    {
        "Middle East": "Cuba",
        "Population": "11,382,820",
        "Life Ex.": "77.41",
        "Religion (T) Eschatology (E)": "85Cath,15Oth",
        "IQ": "85",
        "Literacy": "97;97.2,96.9",
        "Inc PPP": "$3,900"
    },
    {
        "Middle East": "Commw. Dominica",
        "Population": "68,910",
        "Life Ex.": "74.87",
        "Religion (T) Eschatology (E)": "77Cath,15Prot,8Oth",
        "IQ": "67",
        "Literacy": "94",
        "Inc PPP": "$3,800"
    },
    {
        "Middle East": "Dominican Rep.",
        "Population": "9,183,984",
        "Life Ex.": "71.73",
        "Religion (T) Eschatology (E)": "95Cath,5Oth",
        "IQ": "82",
        "Literacy": "84.7;84.6,84.8",
        "Inc PPP": "$8,000"
    },
    {
        "Middle East": "El Salvador",
        "Population": "6,822,378",
        "Life Ex.": "71.49",
        "Religion (T) Eschatology (E)": "83Cath,17Oth",
        "IQ": "*80",
        "Literacy": "80.2;82.8,77.7",
        "Inc PPP": "$4,900"
    },
    {
        "Middle East": "Grenada",
        "Population": "89,703",
        "Life Ex.": "64.87",
        "Religion (T) Eschatology (E)": "53Cath,33.2Prot,13.8Ang",
        "IQ": "*71",
        "Literacy": "96",
        "Inc PPP": "$3,900"
    },
    {
        "Middle East": "Guatemala",
        "Population": "12,291,545",
        "Life Ex.": "69.38",
        "Religion (T) Eschatology (E)": "Cath,Prot,Sat",
        "IQ": "79",
        "Literacy": "70.6;78,63.3",
        "Inc PPP": "$4,900"
    },
    {
        "Middle East": "Haiti",
        "Population": "8,308,504",
        "Life Ex.": "53.23",
        "Religion (T) Eschatology (E)": "80Cath,16Prot,4Oth",
        "IQ": "*67",
        "Literacy": "52.9;54.8,51.2",
        "Inc PPP": "$1,800"
    },
    {
        "Middle East": "Honduras",
        "Population": "7,326,496",
        "Life Ex.": "69.33",
        "Religion (T) Eschatology (E)": "97Cath,3Prot",
        "IQ": "81",
        "Literacy": "76.2;76.1,76.3",
        "Inc PPP": "$3,000"
    },
    {
        "Middle East": "Jamaica",
        "Population": "2,758,124",
        "Life Ex.": "73.24",
        "Religion (T) Eschatology (E)": "61.3Prot,34.7Sat,4Cath",
        "IQ": "71",
        "Literacy": "87.9;84.1,91.6",
        "Inc PPP": "$4,600"
    },
    {
        "Middle East": "Mexico",
        "Population": "107,449,525",
        "Life Ex.": "75.41",
        "Religion (T) Eschatology (E)": "89Cath,6Prot,5Oth",
        "IQ": "88",
        "Literacy": "92.2;94,90.5",
        "Inc PPP": "$10,600"
    },
    {
        "Middle East": "Nicaragua",
        "Population": "5,570,129",
        "Life Ex.": "70.63",
        "Religion (T) Eschatology (E)": "72.9Cath,16.7Prot,10.4Oth",
        "IQ": "*81",
        "Literacy": "67.5;67.2,67.8",
        "Inc PPP": "$3,000"
    },
    {
        "Middle East": "Panama",
        "Population": "3,191,319",
        "Life Ex.": "75.22",
        "Religion (T) Eschatology (E)": "85Cath,15Prot",
        "IQ": "*84",
        "Literacy": "92.6;93.2,91.9",
        "Inc PPP": "$7,900"
    },
    {
        "Middle East": "Puerto Rico",
        "Population": "3,927,188",
        "Life Ex.": "78.4",
        "Religion (T) Eschatology (E)": "85Cath,15Prot/Oth",
        "IQ": "84",
        "Literacy": "94.1;93.9,94.4",
        "Inc PPP": "$19,100"
    },
    {
        "Middle East": "St. Kitts/Nevis",
        "Population": "39,129",
        "Life Ex.": "72.4",
        "Religion (T) Eschatology (E)": "Ang,Prot,Cath",
        "IQ": "*67",
        "Literacy": "97.8",
        "Inc PPP": "$8,200"
    },
    {
        "Middle East": "St. Lucia",
        "Population": "168,458",
        "Life Ex.": "73.84",
        "Religion (T) Eschatology (E)": "67.5Cath,23.4Chr,9.1Oth",
        "IQ": "62",
        "Literacy": "90.1;89.5,90.6",
        "Inc PPP": "$4,800"
    },
    {
        "Middle East": "St. Vincent/Grenad",
        "Population": "117,848",
        "Life Ex.": "73.85",
        "Religion (T) Eschatology (E)": "47Ang,28Prot,13Cath,12Oth",
        "IQ": "71",
        "Literacy": "96",
        "Inc PPP": "$3,600"
    },
    {
        "Middle East": "Trinidad/Tobago",
        "Population": "1,065,842",
        "Life Ex.": "66.76",
        "Religion (T) Eschatology (E)": "26Cath,31.6Chr,22.5Hin,14.1Oth",
        "IQ": "*85",
        "Literacy": "98.6;99.1,98",
        "Inc PPP": "$19,700"
    },
    {
        "Middle East": "South America",
        "Population": "",
        "Life Ex.": "",
        "Religion (T) Eschatology (E)": "",
        "IQ": "",
        "Literacy": "",
        "Inc PPP": ""
    },
    {
        "Middle East": "Argentina",
        "Population": "39,921,833",
        "Life Ex.": "76.12",
        "Religion (T) Eschatology (E)": "92Cath,4Oth,2Prot,2Jew",
        "IQ": "93",
        "Literacy": "97.1",
        "Inc PPP": "$15,000"
    },
    {
        "Middle East": "Bolivia",
        "Population": "8,989,046",
        "Life Ex.": "65.84",
        "Religion (T) Eschatology (E)": "95Cath,5Prot",
        "IQ": "87",
        "Literacy": "87.2;93.1,81.6",
        "Inc PPP": "$3,000"
    },
    {
        "Middle East": "Brazil",
        "Population": "188,078,227",
        "Life Ex.": "71.97",
        "Religion (T) Eschatology (E)": "73.6Cath,15.4Prot,11Oth/Sat",
        "IQ": "87",
        "Literacy": "86.4;86.1,86.6",
        "Inc PPP": "$8,600"
    },
    {
        "Middle East": "Chile",
        "Population": "16,134,219",
        "Life Ex.": "76.77",
        "Religion (T) Eschatology (E)": "89Cath,11Prot",
        "IQ": "90",
        "Literacy": "96.2;96.4,96.1",
        "Inc PPP": "$12,700"
    },
    {
        "Middle East": "Colombia",
        "Population": "43,593,035",
        "Life Ex.": "71.99",
        "Religion (T) Eschatology (E)": "90Cath,10Oth",
        "IQ": "84",
        "Literacy": "92.5;92.4,92.6",
        "Inc PPP": "$8,400"
    },
    {
        "Middle East": "Ecuador",
        "Population": "13,547,510",
        "Life Ex.": "76.42",
        "Religion (T) Eschatology (E)": "95Cath,5Oth",
        "IQ": "88",
        "Literacy": "92.5;94,91",
        "Inc PPP": "$4,500"
    },
    {
        "Middle East": "Guyana",
        "Population": "767,245",
        "Life Ex.": "65.86",
        "Religion (T) Eschatology (E)": "50Chr,35Hin,10Mus,5Oth",
        "IQ": "*87",
        "Literacy": "98.8;99.1,98.5",
        "Inc PPP": "$4,700"
    },
    {
        "Middle East": "Paraguay",
        "Population": "6,506,464",
        "Life Ex.": "75.1",
        "Religion (T) Eschatology (E)": "90Cath,10Prot",
        "IQ": "84",
        "Literacy": "94;94.9,93",
        "Inc PPP": "$4,700"
    },
    {
        "Middle East": "Peru",
        "Population": "28,302,603",
        "Life Ex.": "69.84",
        "Religion (T) Eschatology (E)": "81Cath,91Oth",
        "IQ": "85",
        "Literacy": "87.7;93.5,82.1",
        "Inc PPP": "$6,400"
    },
    {
        "Middle East": "Suriname",
        "Population": "439,117",
        "Life Ex.": "69.01",
        "Religion (T) Eschatology (E)": "48Chr,27.4Hin,19.6Mus,5Sat",
        "IQ": "89",
        "Literacy": "88;92.3,84.1",
        "Inc PPP": "$7,100"
    },
    {
        "Middle East": "Uruguay",
        "Population": "3,431,932",
        "Life Ex.": "76.33",
        "Religion (T) Eschatology (E)": "66Cath,32Oth,2Prot",
        "IQ": "96",
        "Literacy": "98;97.6,98.4",
        "Inc PPP": "$10,700"
    },
    {
        "Middle East": "Venezuela",
        "Population": "25,730,435",
        "Life Ex.": "74.54",
        "Religion (T) Eschatology (E)": "96Cath,2Prot,2Oth",
        "IQ": "84",
        "Literacy": "93.4;93.8,93.1",
        "Inc PPP": "$6,900"
    },
    {
        "Middle East": "Africa",
        "Population": "",
        "Life Ex.": "",
        "Religion (T) Eschatology (E)": "",
        "IQ": "",
        "Literacy": "",
        "Inc PPP": ""
    },
    {
        "Middle East": "Angola",
        "Population": "12,127,071",
        "Life Ex.": "38.62",
        "Religion (T) Eschatology (E)": "47Sat,38Cath,15Prot",
        "IQ": "*68",
        "Literacy": "66.8;82.1,53.8",
        "Inc PPP": "$4,300"
    },
    {
        "Middle East": "Benin",
        "Population": "7,862,944",
        "Life Ex.": "53.04",
        "Religion (T) Eschatology (E)": "50Cath,30Chr,20Mus",
        "IQ": "*70",
        "Literacy": "33.6;46.4,22.6",
        "Inc PPP": "$1,100"
    },
    {
        "Middle East": "Botswana",
        "Population": "1,639,833",
        "Life Ex.": "33.74",
        "Religion (T) Eschatology (E)": "71.6Chr,28.4Oth",
        "IQ": "*70",
        "Literacy": "79.8;76.9,82.4",
        "Inc PPP": "$11,400"
    },
    {
        "Middle East": "Burkina Faso",
        "Population": "13,902,972",
        "Life Ex.": "48.85",
        "Religion (T) Eschatology (E)": "50Mus,40Sat,10Cath",
        "IQ": "*68",
        "Literacy": "26.6;36.9,16.6",
        "Inc PPP": "$1,300"
    },
    {
        "Middle East": "Burundi",
        "Population": "8,090,068",
        "Life Ex.": "50.81",
        "Religion (T) Eschatology (E)": "62Cath,223Sat,10Mus,5Prot",
        "IQ": "*69",
        "Literacy": "51.6;58.5,45.2",
        "Inc PPP": "$700"
    },
    {
        "Middle East": "Cameroon",
        "Population": "17,340,702",
        "Life Ex.": "51.16",
        "Religion (T) Eschatology (E)": "40Sat,40Chr,20Mus",
        "IQ": "64",
        "Literacy": "79;84.7,73.4",
        "Inc PPP": "$2,400"
    },
    {
        "Middle East": "Cape Verde",
        "Population": "420,979",
        "Life Ex.": "70.73",
        "Religion (T) Eschatology (E)": "Cath,Prot,Sat",
        "IQ": "*76",
        "Literacy": "76.6;85.8,69.2",
        "Inc PPP": "$6,000"
    },
    {
        "Middle East": "Central Afri. Rep.",
        "Population": "4,303,356",
        "Life Ex.": "43.54",
        "Religion (T) Eschatology (E)": "35Sat,25Prot,25Cath,15Mus",
        "IQ": "64",
        "Literacy": "51;63.3,39.9",
        "Inc PPP": "$1,100"
    },
    {
        "Middle East": "Chad",
        "Population": "9,944,201",
        "Life Ex.": "47.52",
        "Religion (T) Eschatology (E)": "51Mus,35Chr,14Sat",
        "IQ": "*68",
        "Literacy": "47.5;56,39.3",
        "Inc PPP": "$1,500"
    },
    {
        "Middle East": "Comoros",
        "Population": "690,948",
        "Life Ex.": "62.33",
        "Religion (T) Eschatology (E)": "98SunMus,2Cath",
        "IQ": "*77",
        "Literacy": "56.5;63.6,49.3",
        "Inc PPP": "$600"
    },
    {
        "Middle East": "Congo, Dem. Rep.",
        "Population": "62,660,551",
        "Life Ex.": "51.46",
        "Religion (T) Eschatology (E)": "50Cath,20Prot,20Sat,10Mus",
        "IQ": "64",
        "Literacy": "65.5;76.2,55.1",
        "Inc PPP": "$700"
    },
    {
        "Middle East": "Congo, Republic of",
        "Population": "3,702,314",
        "Life Ex.": "52.8",
        "Religion (T) Eschatology (E)": "50Chr,48Sat,2Mus",
        "IQ": "65",
        "Literacy": "83.8;89.6,78.4",
        "Inc PPP": "$1,300"
    },
    {
        "Middle East": "Cote d'Ivoire",
        "Population": "17,654,843",
        "Life Ex.": "48.82",
        "Religion (T) Eschatology (E)": "40Mus,40Sat,20Chr",
        "IQ": "*69",
        "Literacy": "50.9;57.9,43.6",
        "Inc PPP": "$1,600"
    },
    {
        "Middle East": "Djibouti",
        "Population": "486,530",
        "Life Ex.": "43.17",
        "Religion (T) Eschatology (E)": "94Mus,6Chr",
        "IQ": "*68",
        "Literacy": "67.9;78,58.4",
        "Inc PPP": "$1,000"
    },
    {
        "Middle East": "Equatorial Guinea",
        "Population": "540,109",
        "Life Ex.": "49.54",
        "Religion (T) Eschatology (E)": "Chr,Sat",
        "IQ": "59",
        "Literacy": "85.7;93.3,78.4",
        "Inc PPP": "$50,200"
    },
    {
        "Middle East": "Eritrea",
        "Population": "4,786,994",
        "Life Ex.": "59.03",
        "Religion (T) Eschatology (E)": "Mus,Chr,Cath,Prot",
        "IQ": "*68",
        "Literacy": "58.6;69.9,47.6",
        "Inc PPP": "$1,000"
    },
    {
        "Middle East": "Ethiopia",
        "Population": "74,777,981",
        "Life Ex.": "49.03",
        "Religion (T) Eschatology (E)": "50Mus,40Ort,10Sat",
        "IQ": "64",
        "Literacy": "42.7;50.3,35.1",
        "Inc PPP": "$1,000"
    },
    {
        "Middle East": "Gabon",
        "Population": "1,424,906",
        "Life Ex.": "54.49",
        "Religion (T) Eschatology (E)": "75Chr,24Sat,1Mus",
        "IQ": "*64",
        "Literacy": "63.2;73.7,53.3",
        "Inc PPP": "$7,200"
    },
    {
        "Middle East": "Gambia",
        "Population": "1,641,564",
        "Life Ex.": "54.14",
        "Religion (T) Eschatology (E)": "90Mus,9Chr,1Sat",
        "IQ": "*66",
        "Literacy": "40.1;47.8,32.8",
        "Inc PPP": "$2,000"
    },
    {
        "Middle East": "Ghana",
        "Population": "22,409,572",
        "Life Ex.": "58.87",
        "Religion (T) Eschatology (E)": "63Chr,21Sat,16Mus",
        "IQ": "71",
        "Literacy": "74.8;82.7,67.1",
        "Inc PPP": "$2,600"
    },
    {
        "Middle East": "Guinea",
        "Population": "9,690,222",
        "Life Ex.": "49.5",
        "Religion (T) Eschatology (E)": "85Mus,8Chr,7Sat",
        "IQ": "67",
        "Literacy": "35.9;49.9,21.9",
        "Inc PPP": "$2,000"
    },
    {
        "Middle East": "Guinea-Bissau",
        "Population": "1,442,029",
        "Life Ex.": "46.87",
        "Religion (T) Eschatology (E)": "50Sat,45Mus,5Chr",
        "IQ": "*67",
        "Literacy": "42.4;58.1,27.4",
        "Inc PPP": "$900"
    },
    {
        "Middle East": "Kenya",
        "Population": "34,707,817",
        "Life Ex.": "48.93",
        "Religion (T) Eschatology (E)": "45Prot,33Cath,12Sat,10Mus",
        "IQ": "72",
        "Literacy": "85.1;90.6,79.7",
        "Inc PPP": "$1,200"
    },
    {
        "Middle East": "Lesotho",
        "Population": "2,022,331",
        "Life Ex.": "34.4",
        "Religion (T) Eschatology (E)": "80Chr,20Sat",
        "IQ": "*67",
        "Literacy": "84.8;74.5,94.5",
        "Inc PPP": "$2,600"
    },
    {
        "Middle East": "Liberia",
        "Population": "3,042,004",
        "Life Ex.": "39.65",
        "Religion (T) Eschatology (E)": "40Sat,40Chr,20Mus",
        "IQ": "*67",
        "Literacy": "57.5;73.3,41.6",
        "Inc PPP": "$1,000"
    },
    {
        "Middle East": "Madagascar",
        "Population": "18,595,469",
        "Life Ex.": "57.34",
        "Religion (T) Eschatology (E)": "52Sat,41Chr,7Mus",
        "IQ": "82",
        "Literacy": "68.9;75.5,62.5",
        "Inc PPP": "$900"
    },
    {
        "Middle East": "Malawi",
        "Population": "13,013,926",
        "Life Ex.": "41.7",
        "Religion (T) Eschatology (E)": "79.9Chr,12.8Mus,7.3Oth",
        "IQ": "*69",
        "Literacy": "62.7;76.1,49.8",
        "Inc PPP": "$600"
    },
    {
        "Middle East": "Mali",
        "Population": "11,716,829",
        "Life Ex.": "49",
        "Religion (T) Eschatology (E)": "90Mus,9Sat,1Chr",
        "IQ": "*69",
        "Literacy": "46.4;53.5,39.6",
        "Inc PPP": "$1,200"
    },
    {
        "Middle East": "Mauritania",
        "Population": "3,177,388",
        "Life Ex.": "53.12",
        "Religion (T) Eschatology (E)": "100Mus",
        "IQ": "*76",
        "Literacy": "41.7;51.8,31.9",
        "Inc PPP": "$2,600"
    },
    {
        "Middle East": "Mauritius",
        "Population": "1,240,827",
        "Life Ex.": "72.63",
        "Religion (T) Eschatology (E)": "48Hin,23.6Cath,16.6Mus,8.6Chr,3.2Oth",
        "IQ": "89",
        "Literacy": "85.6;88.6,82.7",
        "Inc PPP": "$13,500"
    },
    {
        "Middle East": "Mozambique",
        "Population": "19,686,505",
        "Life Ex.": "39.82",
        "Religion (T) Eschatology (E)": "40.9Oth,23.8Cath,17.8Mus,17.5Chr",
        "IQ": "64",
        "Literacy": "47.8;63.5,32.7",
        "Inc PPP": "$1,500"
    },
    {
        "Middle East": "Namibia",
        "Population": "2,044,147",
        "Life Ex.": "43.39",
        "Religion (T) Eschatology (E)": "50Prot,40Chr,10Sat",
        "IQ": "*70",
        "Literacy": "84;84.4,83.7",
        "Inc PPP": "$7,400"
    },
    {
        "Middle East": "Niger",
        "Population": "12,525,094",
        "Life Ex.": "43.76",
        "Religion (T) Eschatology (E)": "80Mus,20Oth",
        "IQ": "*69",
        "Literacy": "17.6;25.8,9.7",
        "Inc PPP": "$1,000"
    },
    {
        "Middle East": "Nigeria",
        "Population": "131,859,731",
        "Life Ex.": "47.08",
        "Religion (T) Eschatology (E)": "50Mus,40Chr,10Oth",
        "IQ": "69",
        "Literacy": "68;75.7,60.6",
        "Inc PPP": "$1,400"
    },
    {
        "Middle East": "Rwanda",
        "Population": "8,648,248",
        "Life Ex.": "47.3",
        "Religion (T) Eschatology (E)": "56.5Cath,37.1Chr,4.6Mus,1.8Oth",
        "IQ": "*70",
        "Literacy": "70.4;76.3,64.7",
        "Inc PPP": "$1,600"
    },
    {
        "Middle East": "Sao Tome/Principe",
        "Population": "193,413",
        "Life Ex.": "67.31",
        "Religion (T) Eschatology (E)": "70.3Cath,22.5Oth,7.2Chr",
        "IQ": "*67",
        "Literacy": "79.3;85,62",
        "Inc PPP": "$1,200"
    },
    {
        "Middle East": "Senegal",
        "Population": "11,987,121",
        "Life Ex.": "59.25",
        "Religion (T) Eschatology (E)": "94Mus,5Chr,1Sat",
        "IQ": "*66",
        "Literacy": "40.2;50,30.7",
        "Inc PPP": "$1,800"
    },
    {
        "Middle East": "Seychelles",
        "Population": "81,541",
        "Life Ex.": "72.08",
        "Religion (T) Eschatology (E)": "82.3Cath,7.9Oth,6.4Ang,3.4Chr",
        "IQ": "*86",
        "Literacy": "91.9;91.4,92.3",
        "Inc PPP": "$7,800"
    },
    {
        "Middle East": "Sierra Leone",
        "Population": "6,005,250",
        "Life Ex.": "40.22",
        "Religion (T) Eschatology (E)": "60Mus,30Sat,10Chr",
        "IQ": "64",
        "Literacy": "29.6;39.8,20.5",
        "Inc PPP": "$900"
    },
    {
        "Middle East": "Somalia",
        "Population": "8,863,338",
        "Life Ex.": "48.47",
        "Religion (T) Eschatology (E)": "SunMus",
        "IQ": "*68",
        "Literacy": "37.8;49.7,25.8",
        "Inc PPP": "$600"
    },
    {
        "Middle East": "South Africa",
        "Population": "44,187,637",
        "Life Ex.": "42.73",
        "Religion (T) Eschatology (E)": "68.8Chr,20.3Oth,7.1Cath,3,8Ang",
        "IQ": "72",
        "Literacy": "86.4;87,85.7",
        "Inc PPP": "$13,000"
    },
    {
        "Middle East": "Swaziland",
        "Population": "1,136,334",
        "Life Ex.": "32.62",
        "Religion (T) Eschatology (E)": "40Sat,30Oth,20Cath,10Mus",
        "IQ": "*68",
        "Literacy": "81.6;82.6,80.8",
        "Inc PPP": "$5,500"
    },
    {
        "Middle East": "Tanzania",
        "Population": "37,445,392",
        "Life Ex.": "45.64",
        "Religion (T) Eschatology (E)": "35Mus,35Sat,30Chr",
        "IQ": "72",
        "Literacy": "78.2;85.9,70.7",
        "Inc PPP": "$800"
    },
    {
        "Middle East": "Togo",
        "Population": "5,548,702",
        "Life Ex.": "57.42",
        "Religion (T) Eschatology (E)": "51Sat,29Chr,20Mus",
        "IQ": "*70",
        "Literacy": "60.9;75.4,46.9",
        "Inc PPP": "$1,700"
    },
    {
        "Middle East": "Uganda",
        "Population": "28,195,754",
        "Life Ex.": "52.67",
        "Religion (T) Eschatology (E)": "33Cath,33Prot,18Sat,16Mus",
        "IQ": "73",
        "Literacy": "69.9;79.5,60.4",
        "Inc PPP": "$1,800"
    },
    {
        "Middle East": "Zambia",
        "Population": "11,502,010",
        "Life Ex.": "40.03",
        "Religion (T) Eschatology (E)": "75Chr,24Mus,Hin,1Sat",
        "IQ": "71",
        "Literacy": "80.6;86.8,74.8",
        "Inc PPP": "$1,000"
    },
    {
        "Middle East": "Zimbabwe",
        "Population": "12,236,805",
        "Life Ex.": "39.29",
        "Religion (T) Eschatology (E)": "74Sat,25Chr,1Oth",
        "IQ": "66",
        "Literacy": "90.7;94.2,87.2",
        "Inc PPP": "$2,000"
    },
    {
        "Middle East": "Oceania",
        "Population": "",
        "Life Ex.": "",
        "Religion (T) Eschatology (E)": "",
        "IQ": "",
        "Literacy": "",
        "Inc PPP": ""
    },
    {
        "Middle East": "Australia",
        "Population": "20,264,082",
        "Life Ex.": "80.5",
        "Religion (T) Eschatology (E)": "32.6Oth,26.4Cath,20.5Ang20.5Chr",
        "IQ": "98",
        "Literacy": "99",
        "Inc PPP": "$32,900"
    },
    {
        "Middle East": "Cook Islands",
        "Population": "21,388",
        "Life Ex.": "",
        "Religion (T) Eschatology (E)": "69.6Prot,16.8Cath,13.6Oth",
        "IQ": "89",
        "Literacy": "95",
        "Inc PPP": "$9,100"
    },
    {
        "Middle East": "Fiji",
        "Population": "905,949",
        "Life Ex.": "69.82",
        "Religion (T) Eschatology (E)": "52Chr,38Hin,8Mus,2Oth",
        "IQ": "85",
        "Literacy": "93.7;95.5,91.9",
        "Inc PPP": "$6,100"
    },
    {
        "Middle East": "Kiribati",
        "Population": "105,432",
        "Life Ex.": "62.08",
        "Religion (T) Eschatology (E)": "52Cath,40Prot,8Oth",
        "IQ": "*85",
        "Literacy": "",
        "Inc PPP": "$2,700"
    },
    {
        "Middle East": "Marshall Islands",
        "Population": "60,422",
        "Life Ex.": "70.31",
        "Religion (T) Eschatology (E)": "80.6Prot,8.4Cath,7.4Oth,3.6Chr",
        "IQ": "84",
        "Literacy": "93.7;93.6,93.7",
        "Inc PPP": "$2,900"
    },
    {
        "Middle East": "Micronesia",
        "Population": "108,004",
        "Life Ex.": "70.05",
        "Religion (T) Eschatology (E)": "50Cath,47Prot,3Oth",
        "IQ": "*84",
        "Literacy": "89;91,88",
        "Inc PPP": "$2,300"
    },
    {
        "Middle East": "Nauru",
        "Population": "13,287",
        "Life Ex.": "63.08",
        "Religion (T) Eschatology (E)": "70Prot,30Cath",
        "IQ": "",
        "Literacy": "",
        "Inc PPP": "$5,000"
    },
    {
        "Middle East": "New Caledonia",
        "Population": "219,246",
        "Life Ex.": "74.27",
        "Religion (T) Eschatology (E)": "60Cath,30Prot,10Oth",
        "IQ": "85",
        "Literacy": "91;92,90",
        "Inc PPP": "$15,000"
    },
    {
        "Middle East": "New Zealand",
        "Population": "4,076,140",
        "Life Ex.": "78.81",
        "Religion (T) Eschatology (E)": "46.5Oth,26.2Prot,14.9Ang,12.4Cath",
        "IQ": "99",
        "Literacy": "99",
        "Inc PPP": "$26,000"
    },
    {
        "Middle East": "Northern Mariana Is",
        "Population": "82,459",
        "Life Ex.": "76.09",
        "Religion (T) Eschatology (E)": "Chr",
        "IQ": "81",
        "Literacy": "97;97,96",
        "Inc PPP": "$12,500"
    },
    {
        "Middle East": "Palau",
        "Population": "20,579",
        "Life Ex.": "70.42",
        "Religion (T) Eschatology (E)": "41.6Cath,35.1Oth,23.3Prot",
        "IQ": "",
        "Literacy": "92;93,90",
        "Inc PPP": "$7,600"
    },
    {
        "Middle East": "Papua New Guinea",
        "Population": "5,670,544",
        "Life Ex.": "65,28",
        "Religion (T) Eschatology (E)": "39Prot,34Sat,22Cath,5Ang",
        "IQ": "83",
        "Literacy": "64.6;71.1,57.7",
        "Inc PPP": "$2,700"
    },
    {
        "Middle East": "Samoa",
        "Population": "176,908",
        "Life Ex.": "71",
        "Religion (T) Eschatology (E)": "64.4Chr,19.6Cath,16Oth",
        "IQ": "88",
        "Literacy": "99.7;99.6,99.7",
        "Inc PPP": "$2,100"
    },
    {
        "Middle East": "Solomon Islands",
        "Population": "552,438",
        "Life Ex.": "72.91",
        "Religion (T) Eschatology (E)": "78.1Chr,19Cath,2.9Oth",
        "IQ": "*84",
        "Literacy": "",
        "Inc PPP": "$600"
    },
    {
        "Middle East": "Tonga",
        "Population": "114,689",
        "Life Ex.": "69.82",
        "Religion (T) Eschatology (E)": "Chr",
        "IQ": "86",
        "Literacy": "98.9;98.8,99",
        "Inc PPP": "$2,200"
    },
    {
        "Middle East": "Tuvalu",
        "Population": "11,810",
        "Life Ex.": "68.32",
        "Religion (T) Eschatology (E)": "98.4Chr,1.6Oth",
        "IQ": "",
        "Literacy": "",
        "Inc PPP": "$1,600"
    },
    {
        "Middle East": "Vanuatu",
        "Population": "208,869",
        "Life Ex.": "62.85",
        "Religion (T) Eschatology (E)": "56Prot,13.4Ang,13.1Cath,11.9Oth,5.6Sat",
        "IQ": "*84",
        "Literacy": "74",
        "Inc PPP": "$2,900"
    },
    {
        "Middle East": "Antarctica",
        "Population": "",
        "Life Ex.": "",
        "Religion (T) Eschatology (E)": "",
        "IQ": "",
        "Literacy": "",
        "Inc PPP": ""
    },
    {
        "Middle East": "no indigenous pop.",
        "Population": "",
        "Life Ex.": "",
        "Religion (T) Eschatology (E)": "",
        "IQ": "",
        "Literacy": "",
        "Inc PPP": ""
    }
]