[
    {
        "Year": "1937",
        "Player": "Rogers Hornsby",
        "#": "n/a",
        "Team": "Cardinals",
        "rWAR w/tm": "88.3"
    },
    {
        "Year": "1939",
        "Player": "Lou Gehrig",
        "#": "4",
        "Team": "Yankees",
        "rWAR w/tm": "118.4"
    },
    {
        "Year": "",
        "Player": "",
        "#": "",
        "Team": "",
        "rWAR w/tm": ""
    },
    {
        "Year": "Year",
        "Player": "Player",
        "#": "#",
        "Team": "Team",
        "rWAR w/tm": "rWAR w/tm"
    },
    {
        "Year": "1940",
        "Player": "Willard Hershberger",
        "#": "5",
        "Team": "Reds",
        "rWAR w/tm": "2.0"
    },
    {
        "Year": "1944",
        "Player": "Carl Hubbell",
        "#": "11",
        "Team": "Giants",
        "rWAR w/tm": "64.4"
    },
    {
        "Year": "1948",
        "Player": "Babe Ruth",
        "#": "3",
        "Team": "Yankees",
        "rWAR w/tm": "149.3"
    },
    {
        "Year": "1949",
        "Player": "Mel Ott",
        "#": "4",
        "Team": "Giants",
        "rWAR w/tm": "109.3"
    },
    {
        "Year": "",
        "Player": "",
        "#": "",
        "Team": "",
        "rWAR w/tm": ""
    },
    {
        "Year": "Year",
        "Player": "Player",
        "#": "#",
        "Team": "Team",
        "rWAR w/tm": "rWAR w/tm"
    },
    {
        "Year": "1952",
        "Player": "Joe DiMaggio",
        "#": "5",
        "Team": "Yankees",
        "rWAR w/tm": "83.6"
    },
    {
        "Year": "1956",
        "Player": "Honus Wagner",
        "#": "33",
        "Team": "Pirates",
        "rWAR w/tm": "134.5"
    },
    {
        "Year": "1957",
        "Player": "Bob Feller",
        "#": "19",
        "Team": "Indians",
        "rWAR w/tm": "63.3"
    },
    {
        "Year": "",
        "Player": "",
        "#": "",
        "Team": "",
        "rWAR w/tm": ""
    },
    {
        "Year": "Year",
        "Player": "Player",
        "#": "#",
        "Team": "Team",
        "rWAR w/tm": "rWAR w/tm"
    },
    {
        "Year": "1962",
        "Player": "Robin Roberts",
        "#": "36",
        "Team": "Phillies",
        "rWAR w/tm": "82.7"
    },
    {
        "Year": "1963",
        "Player": "Stan Musial",
        "#": "6",
        "Team": "Cardinals",
        "rWAR w/tm": "127.8"
    },
    {
        "Year": "1965",
        "Player": "Warren Spahn",
        "#": "21",
        "Team": "Braves",
        "rWAR w/tm": "89.0"
    },
    {
        "Year": "1965",
        "Player": "Jim Umbricht",
        "#": "32",
        "Team": "Astros",
        "rWAR w/tm": "3.4"
    },
    {
        "Year": "1969",
        "Player": "Eddie Mathews",
        "#": "41",
        "Team": "Braves",
        "rWAR w/tm": "92.7"
    },
    {
        "Year": "1969",
        "Player": "Mickey Mantle",
        "#": "7",
        "Team": "Yankees",
        "rWAR w/tm": "120.2"
    },
    {
        "Year": "",
        "Player": "",
        "#": "",
        "Team": "",
        "rWAR w/tm": ""
    },
    {
        "Year": "Year",
        "Player": "Player",
        "#": "#",
        "Team": "Team",
        "rWAR w/tm": "rWAR w/tm"
    },
    {
        "Year": "1970",
        "Player": "Lou Boudreau",
        "#": "5",
        "Team": "Indians",
        "rWAR w/tm": "54.6"
    },
    {
        "Year": "1972",
        "Player": "Willie Mays",
        "#": "24",
        "Team": "Giants",
        "rWAR w/tm": "153.0"
    },
    {
        "Year": "1972",
        "Player": "Frank Robinson",
        "#": "20",
        "Team": "Orioles",
        "rWAR w/tm": "35.1"
    },
    {
        "Year": "1972",
        "Player": "Pie Traynor",
        "#": "20",
        "Team": "Pirates",
        "rWAR w/tm": "37.1"
    },
    {
        "Year": "1972",
        "Player": "Sandy Koufax",
        "#": "32",
        "Team": "Dodgers",
        "rWAR w/tm": "48.7"
    },
    {
        "Year": "1972",
        "Player": "Roy Campanella",
        "#": "39",
        "Team": "Dodgers",
        "rWAR w/tm": "36.2"
    },
    {
        "Year": "1972",
        "Player": "Jackie Robinson",
        "#": "42",
        "Team": "Dodgers",
        "rWAR w/tm": "63.2"
    },
    {
        "Year": "1972",
        "Player": "Yogi Berra",
        "#": "8",
        "Team": "Yankees",
        "rWAR w/tm": "61.9"
    },
    {
        "Year": "1972",
        "Player": "Bill Dickey",
        "#": "8",
        "Team": "Yankees",
        "rWAR w/tm": "54.4"
    },
    {
        "Year": "1973",
        "Player": "Roberto Clemente",
        "#": "21",
        "Team": "Pirates",
        "rWAR w/tm": "83.8"
    },
    {
        "Year": "1973",
        "Player": "Gil Hodges",
        "#": "14",
        "Team": "Mets",
        "rWAR w/tm": "0.5"
    },
    {
        "Year": "1974",
        "Player": "Harmon Killebrew",
        "#": "3",
        "Team": "Twins",
        "rWAR w/tm": "61.4"
    },
    {
        "Year": "1974",
        "Player": "Whitey Ford",
        "#": "16",
        "Team": "Yankees",
        "rWAR w/tm": "56.8"
    },
    {
        "Year": "1974",
        "Player": "Dizzy Dean",
        "#": "17",
        "Team": "Cardinals",
        "rWAR w/tm": "38.6"
    },
    {
        "Year": "",
        "Player": "",
        "#": "",
        "Team": "",
        "rWAR w/tm": ""
    },
    {
        "Year": "Year",
        "Player": "Player",
        "#": "#",
        "Team": "Team",
        "rWAR w/tm": "rWAR w/tm"
    },
    {
        "Year": "1975",
        "Player": "Bob Gibson",
        "#": "45",
        "Team": "Cardinals",
        "rWAR w/tm": "91.8"
    },
    {
        "Year": "1975",
        "Player": "Juan Marichal",
        "#": "27",
        "Team": "Giants",
        "rWAR w/tm": "63.5"
    },
    {
        "Year": "1975",
        "Player": "Willie McCovey",
        "#": "44",
        "Team": "Giants",
        "rWAR w/tm": "60.6"
    },
    {
        "Year": "1975",
        "Player": "Earl Averill",
        "#": "3",
        "Team": "Indians",
        "rWAR w/tm": "45.1"
    },
    {
        "Year": "1975",
        "Player": "Luke Appling",
        "#": "4",
        "Team": "White Sox",
        "rWAR w/tm": "69.3"
    },
    {
        "Year": "1975",
        "Player": "Don Wilson",
        "#": "40",
        "Team": "Astros",
        "rWAR w/tm": "29.0"
    },
    {
        "Year": "1976",
        "Player": "Nellie Fox",
        "#": "2",
        "Team": "White Sox",
        "rWAR w/tm": "42.7"
    },
    {
        "Year": "1976",
        "Player": "Hank Aaron",
        "#": "44",
        "Team": "Brewers",
        "rWAR w/tm": "0.4"
    },
    {
        "Year": "1977",
        "Player": "Hank Aaron",
        "#": "44",
        "Team": "Braves",
        "rWAR w/tm": "141.6"
    },
    {
        "Year": "1977",
        "Player": "Brooks Robinson",
        "#": "5",
        "Team": "Orioles",
        "rWAR w/tm": "69.1"
    },
    {
        "Year": "1978",
        "Player": "Jim Gilliam",
        "#": "19",
        "Team": "Dodgers",
        "rWAR w/tm": "39.1"
    },
    {
        "Year": "1979",
        "Player": "Richie Ashburn",
        "#": "1",
        "Team": "Phillies",
        "rWAR w/tm": "52.3"
    },
    {
        "Year": "1979",
        "Player": "Thurman Munson",
        "#": "15",
        "Team": "Yankees",
        "rWAR w/tm": "43.4"
    },
    {
        "Year": "1979",
        "Player": "Lou Brock",
        "#": "20",
        "Team": "Cardinals",
        "rWAR w/tm": "37.8"
    },
    {
        "Year": "",
        "Player": "",
        "#": "",
        "Team": "",
        "rWAR w/tm": ""
    },
    {
        "Year": "Year",
        "Player": "Player",
        "#": "#",
        "Team": "Team",
        "rWAR w/tm": "rWAR w/tm"
    },
    {
        "Year": "1980",
        "Player": "Duke Snider",
        "#": "4",
        "Team": "Dodgers",
        "rWAR w/tm": "66.5"
    },
    {
        "Year": "1980",
        "Player": "Al Kaline",
        "#": "6",
        "Team": "Tigers",
        "rWAR w/tm": "91.0"
    },
    {
        "Year": "1982",
        "Player": "Willie Stargell",
        "#": "8",
        "Team": "Pirates",
        "rWAR w/tm": "57.5"
    },
    {
        "Year": "1982",
        "Player": "Ernie Banks",
        "#": "14",
        "Team": "Cubs",
        "rWAR w/tm": "64.4"
    },
    {
        "Year": "1983",
        "Player": "Minnie Mi\u00f1oso",
        "#": "9",
        "Team": "White Sox",
        "rWAR w/tm": "42.7"
    },
    {
        "Year": "1983",
        "Player": "Ted Lyons",
        "#": "16",
        "Team": "White Sox",
        "rWAR w/tm": "62.9"
    },
    {
        "Year": "1983",
        "Player": "Billy Pierce",
        "#": "19",
        "Team": "White Sox",
        "rWAR w/tm": "48.0"
    },
    {
        "Year": "1983",
        "Player": "Charlie Gehringer",
        "#": "2",
        "Team": "Tigers",
        "rWAR w/tm": "80.9"
    },
    {
        "Year": "1983",
        "Player": "Hank Greenberg",
        "#": "5",
        "Team": "Tigers",
        "rWAR w/tm": "53.7"
    },
    {
        "Year": "1984",
        "Player": "Phil Niekro",
        "#": "35",
        "Team": "Braves",
        "rWAR w/tm": "86.7"
    },
    {
        "Year": "1984",
        "Player": "Bill Terry",
        "#": "3",
        "Team": "Giants",
        "rWAR w/tm": "55.4"
    },
    {
        "Year": "1984",
        "Player": "Ken Boyer",
        "#": "14",
        "Team": "Cardinals",
        "rWAR w/tm": "53.5"
    },
    {
        "Year": "1984",
        "Player": "Joe Cronin",
        "#": "4",
        "Team": "Red Sox",
        "rWAR w/tm": "26.9"
    },
    {
        "Year": "1984",
        "Player": "Ted Williams",
        "#": "9",
        "Team": "Red Sox",
        "rWAR w/tm": "125.3"
    },
    {
        "Year": "1984",
        "Player": "Pee Wee Reese",
        "#": "1",
        "Team": "Dodgers",
        "rWAR w/tm": "66.7"
    },
    {
        "Year": "1984",
        "Player": "Don Drysdale",
        "#": "53",
        "Team": "Dodgers",
        "rWAR w/tm": "69.8"
    },
    {
        "Year": "1984",
        "Player": "Roger Maris",
        "#": "9",
        "Team": "Yankees",
        "rWAR w/tm": "27.9"
    },
    {
        "Year": "1984",
        "Player": "Elston Howard",
        "#": "32",
        "Team": "Yankees",
        "rWAR w/tm": "28.7"
    },
    {
        "Year": "1984",
        "Player": "Johnny Bench",
        "#": "5",
        "Team": "Reds",
        "rWAR w/tm": "71.3"
    },
    {
        "Year": "1984",
        "Player": "Luis Aparicio",
        "#": "11",
        "Team": "White Sox",
        "rWAR w/tm": "31.5"
    },
    {
        "Year": "",
        "Player": "",
        "#": "",
        "Team": "",
        "rWAR w/tm": ""
    },
    {
        "Year": "Year",
        "Player": "Player",
        "#": "#",
        "Team": "Team",
        "rWAR w/tm": "rWAR w/tm"
    },
    {
        "Year": "1985",
        "Player": "Jim Palmer",
        "#": "22",
        "Team": "Orioles",
        "rWAR w/tm": "63.1"
    },
    {
        "Year": "1985",
        "Player": "Phil Rizzuto",
        "#": "10",
        "Team": "Yankees",
        "rWAR w/tm": "41.8"
    },
    {
        "Year": "1986",
        "Player": "Billy Martin",
        "#": "1",
        "Team": "Yankees",
        "rWAR w/tm": "7.2"
    },
    {
        "Year": "1987",
        "Player": "Ralph Kiner",
        "#": "4",
        "Team": "Pirates",
        "rWAR w/tm": "42.0"
    },
    {
        "Year": "1987",
        "Player": "Bill Mazeroski",
        "#": "9",
        "Team": "Pirates",
        "rWAR w/tm": "26.9"
    },
    {
        "Year": "1987",
        "Player": "Dick Howser",
        "#": "10",
        "Team": "Royals",
        "rWAR w/tm": "9.8"
    },
    {
        "Year": "1987",
        "Player": "Rod Carew",
        "#": "29",
        "Team": "Twins",
        "rWAR w/tm": "62.7"
    },
    {
        "Year": "1987",
        "Player": "Billy Williams",
        "#": "26",
        "Team": "Cubs",
        "rWAR w/tm": "55.2"
    },
    {
        "Year": "1988",
        "Player": "Christy Mathewson",
        "#": "n/a",
        "Team": "Giants",
        "rWAR w/tm": "91.1"
    },
    {
        "Year": "1988",
        "Player": "Bobby Doerr",
        "#": "1",
        "Team": "Red Sox",
        "rWAR w/tm": "47.7"
    },
    {
        "Year": "1988",
        "Player": "Tom Seaver",
        "#": "41",
        "Team": "Mets",
        "rWAR w/tm": "76.4"
    },
    {
        "Year": "1989",
        "Player": "Steve Garvey",
        "#": "6",
        "Team": "Padres",
        "rWAR w/tm": "35.9"
    },
    {
        "Year": "1989",
        "Player": "Steve Carlton",
        "#": "32",
        "Team": "Phillies",
        "rWAR w/tm": "66.1"
    },
    {
        "Year": "1989",
        "Player": "Carl Yastrzemski",
        "#": "8",
        "Team": "Red Sox",
        "rWAR w/tm": "88.7"
    },
    {
        "Year": "1989",
        "Player": "Harold Baines",
        "#": "3",
        "Team": "White Sox",
        "rWAR w/tm": "23.3"
    },
    {
        "Year": "",
        "Player": "",
        "#": "",
        "Team": "",
        "rWAR w/tm": ""
    },
    {
        "Year": "Year",
        "Player": "Player",
        "#": "#",
        "Team": "Team",
        "rWAR w/tm": "rWAR w/tm"
    },
    {
        "Year": "1990",
        "Player": "Catfish Hunter",
        "#": "27",
        "Team": "Athletics",
        "rWAR w/tm": "26.8"
    },
    {
        "Year": "1990",
        "Player": "Red Schoendienst",
        "#": "2",
        "Team": "Cardinals",
        "rWAR w/tm": "32.8"
    },
    {
        "Year": "1990",
        "Player": "Mel Harder",
        "#": "18",
        "Team": "Indians",
        "rWAR w/tm": "38.3"
    },
    {
        "Year": "1990",
        "Player": "Mike Schmidt",
        "#": "20",
        "Team": "Phillies",
        "rWAR w/tm": "108.3"
    },
    {
        "Year": "1991",
        "Player": "Tony Oliva",
        "#": "6",
        "Team": "Twins",
        "rWAR w/tm": "42.4"
    },
    {
        "Year": "1991",
        "Player": "Rod Carew",
        "#": "29",
        "Team": "Angels",
        "rWAR w/tm": "16.4"
    },
    {
        "Year": "1992",
        "Player": "Nolan Ryan",
        "#": "30",
        "Team": "Angels",
        "rWAR w/tm": "41.0"
    },
    {
        "Year": "1992",
        "Player": "Rollie Fingers",
        "#": "34",
        "Team": "Brewers",
        "rWAR w/tm": "7.7"
    },
    {
        "Year": "1992",
        "Player": "Jos\u00e9 Cruz",
        "#": "25",
        "Team": "Astros",
        "rWAR w/tm": "49.0"
    },
    {
        "Year": "1992",
        "Player": "Mike Scott",
        "#": "33",
        "Team": "Astros",
        "rWAR w/tm": "21.3"
    },
    {
        "Year": "1993",
        "Player": "Rollie Fingers",
        "#": "34",
        "Team": "Athletics",
        "rWAR w/tm": "11.0"
    },
    {
        "Year": "1993",
        "Player": "Rusty Staub",
        "#": "10",
        "Team": "Expos",
        "rWAR w/tm": "18.3"
    },
    {
        "Year": "1993",
        "Player": "Reggie Jackson",
        "#": "44",
        "Team": "Yankees",
        "rWAR w/tm": "16.9"
    },
    {
        "Year": "1994",
        "Player": "Dale Murphy",
        "#": "3",
        "Team": "Braves",
        "rWAR w/tm": "45.7"
    },
    {
        "Year": "1994",
        "Player": "George Brett",
        "#": "5",
        "Team": "Royals",
        "rWAR w/tm": "85.0"
    },
    {
        "Year": "1994",
        "Player": "Robin Yount",
        "#": "19",
        "Team": "Brewers",
        "rWAR w/tm": "76.9"
    },
    {
        "Year": "1994",
        "Player": "Larry Doby",
        "#": "14",
        "Team": "Indians",
        "rWAR w/tm": "41.5"
    },
    {
        "Year": "",
        "Player": "",
        "#": "",
        "Team": "",
        "rWAR w/tm": ""
    },
    {
        "Year": "Year",
        "Player": "Player",
        "#": "#",
        "Team": "Team",
        "rWAR w/tm": "rWAR w/tm"
    },
    {
        "Year": "1995",
        "Player": "Frank White",
        "#": "20",
        "Team": "Royals",
        "rWAR w/tm": "26.9"
    },
    {
        "Year": "1995",
        "Player": "Kent Hrbek",
        "#": "14",
        "Team": "Twins",
        "rWAR w/tm": "35.3"
    },
    {
        "Year": "1996",
        "Player": "Ozzie Smith",
        "#": "1",
        "Team": "Cardinals",
        "rWAR w/tm": "58.3"
    },
    {
        "Year": "1996",
        "Player": "Enos Slaughter",
        "#": "9",
        "Team": "Cardinals",
        "rWAR w/tm": "48.8"
    },
    {
        "Year": "1996",
        "Player": "Nolan Ryan",
        "#": "34",
        "Team": "Rangers",
        "rWAR w/tm": "13.8"
    },
    {
        "Year": "1996",
        "Player": "Nolan Ryan",
        "#": "34",
        "Team": "Astros",
        "rWAR w/tm": "22.9"
    },
    {
        "Year": "1997",
        "Player": "Andre Dawson",
        "#": "10",
        "Team": "Expos",
        "rWAR w/tm": "43.6"
    },
    {
        "Year": "1997",
        "Player": "Randy Jones",
        "#": "35",
        "Team": "Padres",
        "rWAR w/tm": "19.6"
    },
    {
        "Year": "1997",
        "Player": "Kirby Puckett",
        "#": "34",
        "Team": "Twins",
        "rWAR w/tm": "44.8"
    },
    {
        "Year": "1997",
        "Player": "Hal Newhouser",
        "#": "16",
        "Team": "Tigers",
        "rWAR w/tm": "56.6"
    },
    {
        "Year": "1997",
        "Player": "Don Mattingly",
        "#": "23",
        "Team": "Yankees",
        "rWAR w/tm": "39.8"
    },
    {
        "Year": "1997",
        "Player": "Carlton Fisk",
        "#": "72",
        "Team": "White Sox",
        "rWAR w/tm": "29.6"
    },
    {
        "Year": "1998",
        "Player": "Frank Robinson",
        "#": "20",
        "Team": "Reds",
        "rWAR w/tm": "61.5"
    },
    {
        "Year": "1998",
        "Player": "Joe Morgan",
        "#": "8",
        "Team": "Reds",
        "rWAR w/tm": "61.3"
    },
    {
        "Year": "1998",
        "Player": "Eddie Murray",
        "#": "33",
        "Team": "Orioles",
        "rWAR w/tm": "54.8"
    },
    {
        "Year": "1998",
        "Player": "Bob Lemon",
        "#": "21",
        "Team": "Indians",
        "rWAR w/tm": "51.0"
    },
    {
        "Year": "1998",
        "Player": "Ted Kluszewski",
        "#": "18",
        "Team": "Reds",
        "rWAR w/tm": "29.7"
    },
    {
        "Year": "1998",
        "Player": "Jim Fregosi",
        "#": "11",
        "Team": "Angels",
        "rWAR w/tm": "44.1"
    },
    {
        "Year": "1998",
        "Player": "Don Sutton",
        "#": "20",
        "Team": "Dodgers",
        "rWAR w/tm": "48.7"
    },
    {
        "Year": "1999",
        "Player": "Paul Molitor",
        "#": "4",
        "Team": "Brewers",
        "rWAR w/tm": "60.6"
    },
    {
        "Year": "1999",
        "Player": "Orlando Cepeda",
        "#": "30",
        "Team": "Giants",
        "rWAR w/tm": "28.9"
    },
    {
        "Year": "",
        "Player": "",
        "#": "",
        "Team": "",
        "rWAR w/tm": ""
    },
    {
        "Year": "Year",
        "Player": "Player",
        "#": "#",
        "Team": "Team",
        "rWAR w/tm": "rWAR w/tm"
    },
    {
        "Year": "2000",
        "Player": "Ty Cobb",
        "#": "n/a",
        "Team": "Tigers",
        "rWAR w/tm": "153.8"
    },
    {
        "Year": "2000",
        "Player": "Wade Boggs",
        "#": "12",
        "Team": "Rays",
        "rWAR w/tm": "0.4"
    },
    {
        "Year": "2000",
        "Player": "Tony Perez",
        "#": "24",
        "Team": "Reds",
        "rWAR w/tm": "43.8"
    },
    {
        "Year": "2000",
        "Player": "Willie Horton",
        "#": "23",
        "Team": "Tigers",
        "rWAR w/tm": "25.0"
    },
    {
        "Year": "2000",
        "Player": "Carlton Fisk",
        "#": "27",
        "Team": "Red Sox",
        "rWAR w/tm": "37.7"
    },
    {
        "Year": "2001",
        "Player": "Grover Cleveland Alexander",
        "#": "n/a",
        "Team": "Phillies",
        "rWAR w/tm": "54.5"
    },
    {
        "Year": "2001",
        "Player": "Chuck Klein",
        "#": "n/a",
        "Team": "Phillies",
        "rWAR w/tm": "30.9"
    },
    {
        "Year": "2001",
        "Player": "Dave Winfield",
        "#": "31",
        "Team": "Padres",
        "rWAR w/tm": "30.4"
    },
    {
        "Year": "2001",
        "Player": "Jim Bunning",
        "#": "14",
        "Team": "Phillies",
        "rWAR w/tm": "30.8"
    },
    {
        "Year": "2001",
        "Player": "Cal Ripken, Jr.",
        "#": "8",
        "Team": "Orioles",
        "rWAR w/tm": "89.9"
    },
    {
        "Year": "2002",
        "Player": "Larry Dierker",
        "#": "49",
        "Team": "Astros",
        "rWAR w/tm": "34.0"
    },
    {
        "Year": "2002",
        "Player": "Tony Gwynn",
        "#": "19",
        "Team": "Padres",
        "rWAR w/tm": "68.4"
    },
    {
        "Year": "2003",
        "Player": "Gary Carter",
        "#": "8",
        "Team": "Expos",
        "rWAR w/tm": "52.6"
    },
    {
        "Year": "2003",
        "Player": "Ron Guidry",
        "#": "49",
        "Team": "Yankees",
        "rWAR w/tm": "44.4"
    },
    {
        "Year": "2003",
        "Player": "Ron Santo",
        "#": "10",
        "Team": "Cubs",
        "rWAR w/tm": "68.5"
    },
    {
        "Year": "2004",
        "Player": "Reggie Jackson",
        "#": "9",
        "Team": "Athletics",
        "rWAR w/tm": "49.2"
    },
    {
        "Year": "2004",
        "Player": "Tim Raines",
        "#": "30",
        "Team": "Expos",
        "rWAR w/tm": "46.5"
    },
    {
        "Year": "",
        "Player": "",
        "#": "",
        "Team": "",
        "rWAR w/tm": ""
    },
    {
        "Year": "Year",
        "Player": "Player",
        "#": "#",
        "Team": "Team",
        "rWAR w/tm": "rWAR w/tm"
    },
    {
        "Year": "2005",
        "Player": "Jimmy Wynn",
        "#": "24",
        "Team": "Astros",
        "rWAR w/tm": "44.4"
    },
    {
        "Year": "2005",
        "Player": "Gaylord Perry",
        "#": "36",
        "Team": "Giants",
        "rWAR w/tm": "36.8"
    },
    {
        "Year": "2005",
        "Player": "Dennis Eckersley",
        "#": "43",
        "Team": "Athletics",
        "rWAR w/tm": "15.8"
    },
    {
        "Year": "2005",
        "Player": "Ryne Sandberg",
        "#": "23",
        "Team": "Cubs",
        "rWAR w/tm": "62.1"
    },
    {
        "Year": "2006",
        "Player": "Bruce Sutter",
        "#": "42",
        "Team": "Cardinals",
        "rWAR w/tm": "7.3"
    },
    {
        "Year": "2007",
        "Player": "Paul Waner",
        "#": "11",
        "Team": "Pirates",
        "rWAR w/tm": "69.4"
    },
    {
        "Year": "2007",
        "Player": "Dave Concepci\u00f3n",
        "#": "13",
        "Team": "Reds",
        "rWAR w/tm": "33.6"
    },
    {
        "Year": "2007",
        "Player": "Jeff Bagwell",
        "#": "5",
        "Team": "Astros",
        "rWAR w/tm": "79.9"
    },
    {
        "Year": "2008",
        "Player": "Craig Biggio",
        "#": "7",
        "Team": "Astros",
        "rWAR w/tm": "66.2"
    },
    {
        "Year": "2008",
        "Player": "Johnny Pesky",
        "#": "6",
        "Team": "Red Sox",
        "rWAR w/tm": "30.6"
    },
    {
        "Year": "2009",
        "Player": "Greg Maddux",
        "#": "31",
        "Team": "Cubs",
        "rWAR w/tm": "31.7"
    },
    {
        "Year": "2009",
        "Player": "Ferguson Jenkins",
        "#": "31",
        "Team": "Cubs",
        "rWAR w/tm": "53.7"
    },
    {
        "Year": "2009",
        "Player": "Greg Maddux",
        "#": "31",
        "Team": "Braves",
        "rWAR w/tm": "61.7"
    },
    {
        "Year": "2009",
        "Player": "Jim Rice",
        "#": "14",
        "Team": "Red Sox",
        "rWAR w/tm": "41.5"
    },
    {
        "Year": "2009",
        "Player": "Rickey Henderson",
        "#": "24",
        "Team": "Athletics",
        "rWAR w/tm": "75.3"
    },
    {
        "Year": "2010",
        "Player": "Monte Irvin",
        "#": "20",
        "Team": "Giants",
        "rWAR w/tm": "18.1"
    },
    {
        "Year": "2010",
        "Player": "Tom Glavine",
        "#": "47",
        "Team": "Braves",
        "rWAR w/tm": "58.9"
    },
    {
        "Year": "",
        "Player": "",
        "#": "",
        "Team": "",
        "rWAR w/tm": ""
    },
    {
        "Year": "Year",
        "Player": "Player",
        "#": "#",
        "Team": "Team",
        "rWAR w/tm": "rWAR w/tm"
    },
    {
        "Year": "2010",
        "Player": "Luis Gonzalez",
        "#": "20",
        "Team": "Diamondbacks",
        "rWAR w/tm": "25.6"
    },
    {
        "Year": "2010",
        "Player": "Frank Thomas",
        "#": "35",
        "Team": "White Sox",
        "rWAR w/tm": "70.6"
    },
    {
        "Year": "2011",
        "Player": "Bert Blyleven",
        "#": "28",
        "Team": "Twins",
        "rWAR w/tm": "44.8"
    }
]