col0,col1,col2,col3
2014 Challenger Ciudad de Guayaquil,G. Pella,P. Cuevas,P. Cuevas
2014 Challenger Banque Nationale de Saguenay,N. Slater,N. Slater,J. Coin
2014 Challenger Banque Nationale de Rimouski,D. Smethurst,S. Groth,S. Groth
2014 Challenger Banque Nationale de Granby,M. Daniell,M. Daniell,H. Moriya
2014 Campeonato Internacional de Tênis de Campinas,F. Bagnis,F. Bagnis,D. S. Schwartzman
2014 Campeonato Internacional de Tenis de Santos,M. González,M. González,M. González
2014 Campeonato Internacional de Tênis de Campinas,F. Bagnis,F. Bagnis,D. S. Schwartzman
2014 CIT Paraguay Open,S. Luini,G. P. Rojas,B. Botto
2014 Boyd Tinsley Women's Clay Court Classic,T. Townsend,T. Townsend,T. Townsend
2014 Blossom Cup,X. Yifan,Z. Diyas,Z. Diyas
2014 Bet-at-home Cup Kitzbühel,J. Nieminen,J. Nieminen,D. Goffin
2014 Bendigo Women's International,J. Moore,J. Moore,L. Fangzhou
2014 Bendigo Women's International,J. Moore,J. Moore,E. Hozumi
2014 Bauer Watertechnology Cup,R. Bemelmans,R. Bemelmans,R. Bemelmans
2014 Banja Luka Challenger,A. Šančić,V. Troicki,V. Troicki
2014 BNP Paribas de Nouvelle-Calédonie,A. Krajicek,A. Falla,A. Falla
2014 BNP Paribas Open,B. Bryan,M. Bryan,N. Djokovic
2014 BGL Luxembourg Open,T. Bacsinszky,A. Beck,A. Beck
2014 Australian Open,Ł. Kubot,K. Mladenovic,S. Wawrinka
2014 Audi Melbourne Pro Tennis Classic,T. Townsend,T. Townsend,T. Townsend
2014 Astana Challenger,A. Bury,A. Golubev,A. Golubev
2014 Arimex Challenger Trophy,R. Jebavý,R. Jebavý,A. Haider-Maurer
2014 Apia International Sydney,T. Babos,N. Zimonjić,T. Pironkova
2014 Ankara Cup,E. Gorgodze,A. Krunić,A. Krunić
2014 Amex-Istanbul Challenger,C. Fleming,A. Mannarino,A. Mannarino
2014 Al Habtoor Tennis Challenge,A. Panova,A. Dulgheru,A. Dulgheru
2014 Aircel Chennai Open,F. Nielsen,S. Wawrinka,S. Wawrinka
2014 Aegon Trophy,C. Guccione,M. Baghdatis,M. Baghdatis
2014 Aegon Nottingham Challenge,M. Venus,A. Rodionova,N. Kyrgios
2014 Aegon Classic,A. Spears,A. Spears,A. Ivanovic
2014 Aegon Championships,B. Soares,B. Soares,G. Dimitrov
2014 Adidas International Gimcheon,S. Groth,S. Groth,G. Müller
2014 Abierto Tampico,P. Martić,P. Martić,M. Duque
2014 Aberto de São Paulo,G. Kretschmer,J. Souza,J. Souza
2014 ASB Classic,S. Fichman,S. Fichman,A. Ivanovic
2014 ABN AMRO World Tennis Tournament,N. Mahut,T. Berdych,T. Berdych
2013 Yeongwol Challenger Tennis,M. Draganja,B. Klahn,B. Klahn
2013 Yakima Regional Hospital Challenger,A. Will,N. Gibbs,N. Gibbs
2013 Wimbledon Championships,D. Nestor,K. Mladenovic,M. Bartoli
2013 Western & Southern Open,M. Bryan,V. Azarenka,R. Nadal
2013 Visit Panamá Cup,J. Aguilar,R. R. Hidalgo,R. R. Hidalgo
2013 Viccourt Cup,R. Voráčová,R. Voráčová,E. Svitolina
2013 Vanessa Phillips Women's Tournament,A. Kudryavtseva,A. Kudryavtseva,E. Svitolina
2013 Uruguay Open,M. Cuevas,P. Cuevas,T. Bellucci
2013 US Open,A. Hlaváčková,S. Williams,R. Nadal
2013 U.S. National Indoor Tennis Championships,B. Bryan,B. Bryan,K. Nishikori
2013 Türk Telecom İzmir Cup,A. Krajicek,A. Krajicek,M. Kukushkin
2013 Tunis Open,D. Meffert,A. Ungur,A. Ungur
2013 Trofeul Popeci,A. Balducci,K. Kučová,K. Kučová
2013 Trabzon Cup,A. Krunić,Serbia,A. Friedsam
2013 Trabzon Cup,M. Zanevska,A. Krunić,A. Krunić
2013 Torneo Internacional AGT,C. Guccione,C. Guccione,D. Young
2013 The Oaks Club Challenger,A. Spears,A. Spears,M. Duque
2013 Tevlin Women's Challenger,V. Duval,V. Duval,V. Duval
2013 Tetra Pak Tennis Cup,M. González,M. González,G. Clezar
2013 Tennis Napoli Cup,P. Starace,P. Starace,P. Starace
2013 Telavi Open,M. E. Camerin,M. E. Camerin,A. Panova
2013 Tatarstan Open,K. Kozlova,A. Friedsam,A. Friedsam
2013 Tashkent Challenger,T. Gabashvili,D. Sela,D. Sela
2013 Taroii Open de Tênis,J. Duckworth,J. Duckworth,Rogério Dutra da Silva
2013 Tampere Open,H. Kontinen,H. Kontinen,J. H. Galung
2013 Tallahassee Tennis Challenger,A. Krajicek,D. Kudla,D. Kudla
2013 TEAN International,Antal van der Duim,D. Seguel,D. Gimeno-Traver
2013 Türk Telecom İzmir Cup,A. Krajicek,A. Krajicek,M. Kukushkin
2013 São Paulo Challenger de Tênis,L. Pigossi,L. Pigossi,B. Botto
2013 Swedish Open,A. M. Garrigues,S. Williams,S. Williams
2013 Suzhou Ladies Open,M. Krajicek,M. Krajicek,S. Pe'er
2013 Sparta Prague Open,B. Záhlavová-Strýcová,R. Voráčová,L. Šafářová
2013 Sparkasse ATP Challenger,C. Kas,T. Puetz,A. Seppi
2013 Soweto Open,C. Simmonds,C. Simmonds,V. Pospisil
2013 South Seas Island Resort Women's Pro Classic,G. Dabrowski,M. Minella,M. Minella
2013 Soho Square Ladies Tournament,T. Bacsinszky,T. Bacsinszky,V. Kan
2013 Slovak Open,H. Kontinen,H. Kontinen,L. Lacko
2013 Seguros Bolívar Open Medellín,E. Gómez,A. González,A. González
2013 Seguros Bolívar Open Cali,E. Schwank,E. Schwank,F. Bagnis
2013 Seguros Bolívar Open Barranquilla,F. Delbonis,F. Delbonis,F. Delbonis
2013 Seguros Bolívar Open Medellín,E. Gómez,A. González,A. González
2013 Seguros Bolívar Open Cali,E. Schwank,E. Schwank,F. Bagnis
2013 Seguros Bolívar Open Barranquilla,F. Delbonis,F. Delbonis,F. Delbonis
2013 Save Cup,S. Vogt,S. Vogt,C. Feuerstein
2013 Samsung Securities Cup,M. Draganja,M. Draganja,D. Lajović
2013 Samarkand Challenger,F. Dustov,F. Dustov,T. Gabashvili
2013 Sacramento Challenger,M. Reid,D. Young,D. Young
2013 São Paulo Challenger de Tênis,L. Pigossi,L. Pigossi,B. Botto
2013 Rogers Cup,J. Janković,S. Williams,R. Nadal
2013 Reinert Open,A. Tatishvili,D. Pfizenmaier,D. Pfizenmaier
2013 Rai Open,A. Beck,M. Fischer,J. Reister
2013 Qatar Open,P. Kohlschreiber,P. Kohlschreiber,R. Gasquet
2013 Proton Malaysian Open,R. Klaasen,E. Butorac,J. Sousa
2013 Prosperita Open,O. Rochus,O. Rochus,J. Veselý
2013 President's Cup,L. Kichenok,D. Sela,D. Sela
2013 Poznań Open,Germany,Germany,A. Haider-Maurer
2013 Peugeot Tennis Cup,T. d. Bakker,A. Velotti,A. Velotti
2013 Pekao Szczecin Open,K. Skupski,K. Skupski,O. Nedovyesov
2013 Party Rock Open,T. Paszek,T. Paszek,M. Oudin
2013 PTT Cup,F. Martin,B. Becker,B. Becker
2013 Oregon Challenger,N. Melichar,N. Melichar,K. Nara
2013 Open de Rennes,F. Mergea,N. Mahut,N. Mahut
2013 Open d'Orléans,S. Stakhovsky,R. Štěpánek,R. Štěpánek
2013 Open Saint-Gaudens Midi-Pyrénées,J. Glushko,J. Glushko,P. Ormaechea
2013 Open Harmonie mutuelle,A. Siljeström,T. Bednarek,J. H. Galung
2013 Open GDF Suez de Touraine,J. Coin,M. Lučić-Baroni,M. Lučić-Baroni
2013 Open GDF Suez de Cagnes-sur-Mer Alpes-Maritimes,A. Rus,A. Rus,C. Garcia
2013 Open GDF Suez de Biarritz,O. Savchuk,S. Vogt,S. Vogt
2013 Open GDF Suez Seine-et-Marne,A. Friedsam,A. Friedsam,A. Keothavong
2013 Open GDF Suez Région Limousin,V. Golubic,V. Golubic,K. Plíšková
2013 Open GDF Suez Nantes Atlantique,M. Krajicek,M. Krajicek,A. Sasnovich
2013 Open Féminin de Marseille,S. Klemenschits,A. Petkovic,A. Petkovic
2013 Open BNP Paribas Banque de Bretagne,J. Brunström,M. Copil,M. Copil
2013 Open 88 Contrexéville,A. Hesse,A. Hesse,T. Bacsinszky
2013 Odlum Brown Vancouver Open,S. Fichman,S. Fichman,V. Pospisil
2013 OEC Taipei WTA Ladies Open,C. Garcia,A. V. Uytvanck,A. V. Uytvanck
2013 Nürnberger Versicherungscup,V. Solovyeva,S. Halep,S. Halep
2013 Ningbo International Women's Tennis Open,C. Yung-jan,B. Jovanovski,B. Jovanovski
