col0,col1,col2,col3
WEGM,1890,R&R,WCTA-FM(1996-2001)
WDVI,37546,R&R,WVOR-FM (1963-2006)
WDIN,27954,R&R,WCHQ-FM(1978-1997)
WDEZ,70522,R&R,WRIG-FM
WCZT,39914,R&R,WFNN (1992-1998)
WCMQ-FM,61640,R&R,WHMS-FM (1969-1974)
WCLU-FM,61047,R&R,WLOC-FM (1979-1996)
WBYT,51723,R&R,WLTA (1991-1994)
WBYR,55659,R&R,WERT-FM (1979-1987)
WBYA,41105,R&R,WAYD (1999–2001)
WBVX,30191,R&R,WCAK (1994-1997)
WBVR-FM,71244,R&R,WAKQ (1976-1984)
WBOW,51153,R&R,WACF (1974-2006)
WBOB,53588,R&R,WBWL (1996-2010)
WBGG-FM,11965,R&R,WAXY (1971-1983)
WAZZ,72058,R&R,WFLB (2/18/48-3/01/97)
WASN,72100,R&R,WGFT
WAMR-FM,61658,R&R,WIGL (1974-1979)
WAKY-FM,70495,R&R,WAKY (2007-2014)
WAJI,59132,R&R,WFWQ (1982-1985)
WAIX,41582,R&R,WABY (2002-2014)
WAFL,53482,R&R,WAFL (1973-1981)
WAAC,72122,R&R,WGOV-FM (1978-1984)
KZMZ,63199,R&R,KALB-FM (1947-1979)
KYSE,39612,R&R,KAMA-FM (1991-1992)
KXCA,61593,R&R,KCCO (1956-1987)
KWVE,54760,R&R,"KGDP (January 22, 1990 to November 2009)"
KWPW,57377,R&R,KAND-FM (1985-1994)
KWML,63950,R&R,KGRT (02/2014-12/2014)
KUSJ,60803,R&R,KIXS(1987-1990)
KTRC,12970,R&R,KVSF (1992-2002)
KTBB-FM,17835,R&R,KWRW (?-2015)
KSTT-FM,42066,R&R,KIQO (?-2016)
KSTE,22883,R&R,KMCE (1987-1991)
KSOF,54560,R&R,KJOI (1990-1997)
KSMA,4123,R&R,KSMA (?-2007)
KRZI,87179,R&R,KAXY (1998–1999)
KRXR,2805,R&R,KIDI (1985-1986)
KROM,67071,R&R,KITY(1947-1990)
KRMG-FM,47102,Nielsen Audio Quarterly Report,KKCM (2005-2009)
KRKR,54707,R&R,KJUS (1985-1987)
KRIV-FM,27534,R&R,KHME (1991-2015)
KRDO-FM,50402,R&R,KBZE (1989–1991)
KQRT,51731,R&R,KRBO (1989–1996)
KQNT,60421,R&R,KAQQ (1986-2002)
KPSI,67355,R&R,KDES (1987-1994)
KPLY,50304,R&R,KHIT(1996-1998)
KOYE,70387,R&R,KLIS (?-2001)
KOY,63914,R&R,KAMJ (1990-1991)
KOOI,70740,R&R,KEBE-FM (1968-1975)
KOND,26266,R&R,KCML (1991-1993)
KOAS,25692,R&R,KBYE (2000-2001)
KOAI,16770,Nielsen Audiohttp://ratings.radio-online.com/cgi-bin/rol.exe/arb057,KFMR (1996-2005)
KLOK-FM,49100,R&R,KKHI-FM (1994-1994)
KLNZ,48738,R&R,"KCWB (1993-1993, CP)"
KLMJ,25914,R&R,KWGG(1982-1993)
KLFX,60090,R&R,KKFF (1993-1994)
KKUS,68651,R&R,KGKB (1989-1990)
KKHB,61580,R&R,KECA (1988-1993)
KKCY,52507,R&R,KKLU (1989-1990)
KKCD,74103,R&R,KKVU(1990-1991)
KJMN,10056,R&R,KADX (1984-1988)
KIXW,4,R&R,KQKL(1989–1991)
KIBG,83460,R&R,KSIL (1996-2004)
KHTN,20334,R&R,KLBS-FM (1978-1982)
KHMY,37122,R&R,KDGB (1998-2003)
KHIT-FM,51845,R&R,KJDN (1990-1992)
KHHZ,50709,R&R,KEWE (1979-1996)
KFRO,70455,Radio-info,KFRO (1935-Present)
KEGA,89255,R&R,KKIK (2003-2003)
KECH-FM,1163,R&R,KWRU(1988)
KDVV,62237,R&R,KTOP-FM (1960-1976)
KCYY,48718,R&R,KBER-FM (1966-1974)
KCST-FM,12139,R&R,KPVX (7/1992-11/1992)
KCHJ-FM,35108,R&R,KIWI (1963-2003)
KCCY-FM,40847,R&R,KCCY (1979-2012)
KCBS,9637,Nielsen (San Francisco market),KQW (1921-1949)
KBZS,52074,R&R,KTLT(1984-2003)
KBYN,15005,R&R,DKBYN(1994-1995)
KBRQ,60805,R&R,KJNE(1983-1994)
KBLS,65598,R&R,KXDJ(1990–1991)
KBKK,86913,R&R,KBFU (1998-1998)
KBGO,33724,R&R,KCKR(1993-2003)
KBCE,67947,R&R,KFQM(1981-1982)
KAMZ,77643,R&R,KAWD (1997-2000)
KAHL,67070,R&R,KONJ (1993-1993)
