col0,col1,col2,col3
Wivelsfield,Lewes,69,59545
Withyham,Wealden,72,48280
Willingdon and Jevington,Wealden,583,82076
Whatlington,Rother,66,75639
Westmeston,Lewes,36,65983
Westham,Wealden,411,82076
"Westfield, East Sussex",Rother,137,82076
Wartling,Wealden,35,78857
Warbleton,Wealden,43,67592
Wadhurst,Wealden,120,57936
Udimore,Rother,31,83685
Uckfield,Wealden,1857,61155
Ticehurst,Rother,105,62764
Telscombe,Lewes,1493,77248
Tarring Neville,Lewes,8,77248
Streat,Lewes,34,64373
St John Without,Lewes,13,65983
St Ann Without,Lewes,16,70811
"Southwick, West Sussex",Adur,1529,74029
Southease,Lewes,44,75639
South Heighton,Lewes,130,78857
