col0,col1,col2,col3
Ç. İlhan,İzmir,http://dbpedia.org/resource/Heart_attack,1936-08-08
Z. Mostel,Brooklyn,http://dbpedia.org/resource/Aortic_aneurysm,1915-02-28
Z. Cully,"Worcester, Massachusetts",http://dbpedia.org/resource/Lung_Cancer,1892-01-26
Y. Mizutani,"Ama District, Aichi",http://dbpedia.org/resource/Breast_cancer,1964-11-04
Y. D. Carlo,Vancouver,http://dbpedia.org/resource/Heart_failure,1922-09-01
Y. Craig,Illinois,http://dbpedia.org/resource/Breast_cancer,1937-05-16
Y. Wilson,California,http://dbpedia.org/resource/Cervical_cancer,1964-03-06
Y. Cauchois,France,http://dbpedia.org/resource/Bronchitis,1908-12-19
Y. Brynner,Vladivostok,http://dbpedia.org/resource/Lung_cancer,1920-07-11
Y. Ninagawa,Japan,http://dbpedia.org/resource/Pneumonia,1935-10-15
Y. Tanaka,"Adachi, Tokyo",http://dbpedia.org/resource/Breast_cancer,1956-04-08
Y. Joyce,England,http://dbpedia.org/resource/Liver_failure,1927-08-20
Y. Mizutani,"Ama District, Aichi",http://dbpedia.org/resource/Breast_cancer,1964-11-04
X. Montsalvatge,Girona,http://dbpedia.org/resource/Emphysema,1912-03-11
W. Parfrey,New York City,http://dbpedia.org/resource/Myocardial_infarction,1922-10-05
W. Jack,Brooklyn,http://dbpedia.org/resource/Heart_attack,1938-01-21
W. Rekert,British Columbia,http://dbpedia.org/resource/Cancer,1949-7-10
W. Rushton,"Chelsea, London",http://dbpedia.org/resource/Myocardial_infarction,1937-08-18
W. Fung,China,http://dbpedia.org/resource/Coronary_occlusion,1896-03-03
W. Windom,New York,http://dbpedia.org/resource/Heart_failure,1923-09-28
W. Talman,Detroit,http://dbpedia.org/resource/Lung_cancer,1915-02-04
W. Rotsler,Los Angeles,http://dbpedia.org/resource/Throat_cancer,1926-07-03
W. Powell,Pennsylvania,http://dbpedia.org/resource/Heart_failure,1892-07-29
W. Hopper,New York,http://dbpedia.org/resource/Pneumonia,1915-01-26
W. Holden,"O'Fallon, Illinois",http://dbpedia.org/resource/Exsanguination,1918-04-17
W. Hartnell,London,http://dbpedia.org/resource/Congestive_heart_failure,1908-01-08
W. Hanna,New Mexico,http://dbpedia.org/resource/Throat_cancer,1910-07-14
W. Haines,"Staunton, Virginia",http://dbpedia.org/resource/Lung_cancer,1900-01-02
W. Garwood,"Springfield, Missouri",http://dbpedia.org/resource/Cirrhosis,1884-04-28
W. Fawcett,Minnesota,http://dbpedia.org/resource/Cardiovascular_disease,1894-09-08
W. Demarest,"Saint Paul, Minnesota",http://dbpedia.org/resource/Pneumonia,1892-02-27
W. Boyett,"Akron, Ohio",http://dbpedia.org/resource/Kidney_failure,1927-01-03
W. Boyd,Ohio,http://dbpedia.org/resource/Heart_failure,1895-06-05
W. Bakewell,Los Angeles,http://dbpedia.org/resource/Leukemia,1908-05-02
W. Ninja,"Middletown, Orange County, New York",http://dbpedia.org/resource/AIDS,1961-04-12
W. Parker,New York,http://dbpedia.org/resource/Myocardial_infarction,1912-02-05
W. Wright,California,http://dbpedia.org/resource/Cancer,1891-3-26
W. Lawson,England,http://dbpedia.org/resource/Heart_attack,1900-01-14
W. Houston,"Newark, New Jersey",http://dbpedia.org/resource/Drowning,1963-08-09
W. Blake,California,http://dbpedia.org/resource/Esophageal_cancer,1926-02-20
W. Mayo,New York,http://dbpedia.org/resource/Myocardial_infarction,1930-11-15
W. Bissell,New York,http://dbpedia.org/resource/Parkinson's_disease,1909-10-25
W. Craven,Cleveland,http://dbpedia.org/resource/Brain_cancer,1939-08-02
W. Klemperer,Cologne,http://dbpedia.org/resource/Cancer,1920-03-22
W. Richard,North Riding of Yorkshire,http://dbpedia.org/resource/Metastatic_breast_cancer,1943-07-20
W. O. Williams,"Rochester, New York",http://dbpedia.org/resource/Suicide_methods,1949-05-28
W. Wagner,United States,http://dbpedia.org/resource/Cancer,1941-12-06
W. Rogers,"Birmingham, Alabama",http://dbpedia.org/resource/Pneumonia,1933-04-07
W. Allwine,"Glendale, California",http://dbpedia.org/resource/Diabetes,1947-02-07
W. Flowers,"Dawson, Georgia",http://dbpedia.org/resource/AIDS,1939-11-26
W. Preston,Colorado,http://dbpedia.org/resource/Colon_cancer,1929-09-10
W. William,"Aitkin, Minnesota",http://dbpedia.org/resource/Multiple_myeloma,1894-12-02
W. Vanders,California,http://dbpedia.org/resource/Lung_cancer,1930-05-23
W. Oates,Kentucky,http://dbpedia.org/resource/Myocardial_infarction,1928-07-05
W. Hull,"Gasport, New York",http://dbpedia.org/resource/Heart_failure,1903-01-17
W. Casey,New York,http://dbpedia.org/resource/AIDS,1935-04-20
W. Oland,Sweden,http://dbpedia.org/resource/Bronchial_pneumonia,1879-10-03
W. Baxter,"Columbus, Ohio",http://dbpedia.org/resource/Pneumonia,1889-03-29
W. Bond,"Benkelman, Nebraska",http://dbpedia.org/resource/Heart_attack,1903-04-09
W. Sande,Colorado,http://dbpedia.org/resource/Myocardial_infarction,1906-07-09
W. Huston,Toronto,http://dbpedia.org/resource/Aortic_aneurysm,1883-04-05
W. Cronkite,"St. Joseph, Missouri",http://dbpedia.org/resource/Cerebrovascular_disease,1916-11-04
W. Connolly,Cincinnati,http://dbpedia.org/resource/Stroke,1887-04-08
W. Catlett,San Francisco,http://dbpedia.org/resource/Stroke,1889-02-04
W. Brennan,"Lynn, Massachusetts",http://dbpedia.org/resource/Emphysema,1894-07-25
W. Cox,Detroit,http://dbpedia.org/resource/Myocardial_infarction,1924-12-06
W. Reid,Missouri,http://dbpedia.org/resource/Morphine_addiction,1891-04-15
W. Beery,"Kansas City, Missouri",http://dbpedia.org/resource/Heart_attack,1885-04-01
W. Edmiston,Missouri,http://dbpedia.org/resource/Cancer,1925-02-06
W. Fox,"Hilton, Virginia",http://dbpedia.org/resource/Heart_attack,1920-06-02
V. McGee,San Francisco,http://dbpedia.org/resource/Cardiac_arrest,1945-01-14
V. Sokoloff,Moscow,http://dbpedia.org/resource/Stroke,1889-12-26
V. Sheybal,Second Polish Republic,http://dbpedia.org/resource/Aortic_aneurysm,1923-03-12
V. Leigh,British Raj,http://dbpedia.org/resource/Tuberculosis,1913-11-05
V. Vance,"Cherryvale, Kansas",http://dbpedia.org/resource/Bone_cancer,1909-07-26
