col0,col1,col2,col3
Swimming at the 2012 Summer Olympics – Men's 100 metre breaststroke,Swimming at the 2016 Summer Olympics – Men's 100 metre breaststroke,B. Hansen,Swimming at the 2008 Summer Olympics – Men's 100 metre breaststroke
Swimming at the 2012 Summer Olympics – Men's 100 metre backstroke,Swimming at the 2016 Summer Olympics – Men's 100 metre backstroke,R. Irie,Swimming at the 2008 Summer Olympics – Men's 100 metre backstroke
Swimming at the 2012 Summer Olympics – Women's marathon 10 kilometre,Swimming at the 2016 Summer Olympics – Women's marathon 10 kilometre,M. Grimaldi,Swimming at the 2008 Summer Olympics – Women's marathon 10 kilometre
Swimming at the 2012 Summer Olympics – Women's 800 metre freestyle,Swimming at the 2016 Summer Olympics – Women's 800 metre freestyle,R. Adlington,Swimming at the 2008 Summer Olympics – Women's 800 metre freestyle
Swimming at the 2012 Summer Olympics – Women's 50 metre freestyle,Swimming at the 2016 Summer Olympics – Women's 50 metre freestyle,M. Veldhuis,Swimming at the 2008 Summer Olympics – Women's 50 metre freestyle
Swimming at the 2012 Summer Olympics – Women's 4 × 200 metre freestyle relay,Swimming at the 2016 Summer Olympics – Women's 4 × 200 metre freestyle relay,C. Balmy,Swimming at the 2008 Summer Olympics – Women's 4 × 200 metre freestyle relay
Swimming at the 2012 Summer Olympics – Women's 4 × 100 metre medley relay,Swimming at the 2016 Summer Olympics – Women's 4 × 100 metre medley relay,Y. Kato,Swimming at the 2008 Summer Olympics – Women's 4 × 100 metre medley relay
Swimming at the 2012 Summer Olympics – Women's 4 × 100 metre freestyle relay,Swimming at the 2016 Summer Olympics – Women's 4 × 100 metre freestyle relay,N. Coughlin,Swimming at the 2008 Summer Olympics – Women's 4 × 100 metre freestyle relay
Swimming at the 2012 Summer Olympics – Women's 400 metre individual medley,Swimming at the 2016 Summer Olympics – Women's 400 metre individual medley,L. Xuanxu,Swimming at the 2008 Summer Olympics – Women's 400 metre individual medley
Swimming at the 2012 Summer Olympics – Women's 400 metre freestyle,Swimming at the 2016 Summer Olympics – Women's 400 metre freestyle,R. Adlington,Swimming at the 2008 Summer Olympics – Women's 400 metre freestyle
Swimming at the 2012 Summer Olympics – Women's 200 metre individual medley,Swimming at the 2016 Summer Olympics – Women's 200 metre individual medley,C. Leverenz,Swimming at the 2008 Summer Olympics – Women's 200 metre individual medley
Swimming at the 2012 Summer Olympics – Women's 200 metre freestyle,Swimming at the 2016 Summer Olympics – Women's 200 metre freestyle,B. Barratt,Swimming at the 2008 Summer Olympics – Women's 200 metre freestyle
Swimming at the 2012 Summer Olympics – Women's 200 metre butterfly,Swimming at the 2016 Summer Olympics – Women's 200 metre butterfly,N. Hoshi,Swimming at the 2008 Summer Olympics – Women's 200 metre butterfly
Swimming at the 2012 Summer Olympics – Women's 200 metre breaststroke,Swimming at the 2016 Summer Olympics – Women's 200 metre breaststroke,Y. Yefimova,Swimming at the 2008 Summer Olympics – Women's 200 metre breaststroke
Swimming at the 2012 Summer Olympics – Women's 200 metre backstroke,Swimming at the 2016 Summer Olympics – Women's 200 metre backstroke,E. Beisel,Swimming at the 2008 Summer Olympics – Women's 200 metre backstroke
Swimming at the 2012 Summer Olympics – Women's 100 metre freestyle,Swimming at the 2016 Summer Olympics – Women's 100 metre freestyle,T. Yi,Swimming at the 2008 Summer Olympics – Women's 100 metre freestyle
Swimming at the 2012 Summer Olympics – Women's 100 metre butterfly,Swimming at the 2016 Summer Olympics – Women's 100 metre butterfly,A. Coutts,Swimming at the 2008 Summer Olympics – Women's 100 metre butterfly
Swimming at the 2012 Summer Olympics – Women's 100 metre breaststroke,Swimming at the 2016 Summer Olympics – Women's 100 metre breaststroke,S. Suzuki,Swimming at the 2008 Summer Olympics – Women's 100 metre breaststroke
Swimming at the 2012 Summer Olympics – Women's 100 metre backstroke,Swimming at the 2016 Summer Olympics – Women's 100 metre backstroke,A. Terakawa,Swimming at the 2008 Summer Olympics – Women's 100 metre backstroke
Swimming at the 2012 Summer Olympics – Men's marathon 10 kilometre,Swimming at the 2016 Summer Olympics – Men's marathon 10 kilometre,R. Weinberger,Swimming at the 2008 Summer Olympics – Men's marathon 10 kilometre
Swimming at the 2012 Summer Olympics – Men's 50 metre freestyle,Swimming at the 2016 Summer Olympics – Men's 50 metre freestyle,C. Cielo,Swimming at the 2008 Summer Olympics – Men's 50 metre freestyle
Swimming at the 2012 Summer Olympics – Men's 4 × 200 metre freestyle relay,Swimming at the 2016 Summer Olympics – Men's 4 × 200 metre freestyle relay,S. Yang,Swimming at the 2008 Summer Olympics – Men's 4 × 200 metre freestyle relay
Swimming at the 2012 Summer Olympics – Men's 4 × 100 metre medley relay,Swimming at the 2016 Summer Olympics – Men's 4 × 100 metre medley relay,J. Magnussen,Swimming at the 2008 Summer Olympics – Men's 4 × 100 metre medley relay
Swimming at the 2012 Summer Olympics – Men's 4 × 100 metre freestyle relay,Swimming at the 2016 Summer Olympics – Men's 4 × 100 metre freestyle relay,D. Izotov,Swimming at the 2008 Summer Olympics – Men's 4 × 100 metre freestyle relay
Swimming at the 2012 Summer Olympics – Men's 400 metre individual medley,Swimming at the 2016 Summer Olympics – Men's 400 metre individual medley,K. Hagino,Swimming at the 2008 Summer Olympics – Men's 400 metre individual medley
Swimming at the 2012 Summer Olympics – Men's 400 metre freestyle,Swimming at the 2016 Summer Olympics – Men's 400 metre freestyle,P. Vanderkaay,Swimming at the 2008 Summer Olympics – Men's 400 metre freestyle
Swimming at the 2012 Summer Olympics – Men's 200 metre individual medley,Swimming at the 2016 Summer Olympics – Men's 200 metre individual medley,L. Cseh,Swimming at the 2008 Summer Olympics – Men's 200 metre individual medley
Swimming at the 2012 Summer Olympics – Men's 200 metre butterfly,Swimming at the 2016 Summer Olympics – Men's 200 metre butterfly,T. Matsuda,Swimming at the 2008 Summer Olympics – Men's 200 metre butterfly
Swimming at the 2012 Summer Olympics – Men's 200 metre breaststroke,Swimming at the 2016 Summer Olympics – Men's 200 metre breaststroke,R. Tateishi,Swimming at the 2008 Summer Olympics – Men's 200 metre breaststroke
Swimming at the 2012 Summer Olympics – Men's 200 metre backstroke,Swimming at the 2016 Summer Olympics – Men's 200 metre backstroke,R. Lochte,Swimming at the 2008 Summer Olympics – Men's 200 metre backstroke
Swimming at the 2012 Summer Olympics – Men's 1500 metre freestyle,Swimming at the 2016 Summer Olympics – Men's 1500 metre freestyle,O. Mellouli,Swimming at the 2008 Summer Olympics – Men's 1500 metre freestyle
Swimming at the 2012 Summer Olympics – Men's 100 metre freestyle,Swimming at the 2016 Summer Olympics – Men's 100 metre freestyle,B. Hayden,Swimming at the 2008 Summer Olympics – Men's 100 metre freestyle
Swimming at the 2012 Summer Olympics – Men's 100 metre breaststroke,Swimming at the 2016 Summer Olympics – Men's 100 metre breaststroke,B. Hansen,Swimming at the 2008 Summer Olympics – Men's 100 metre breaststroke
Swimming at the 2012 Summer Olympics – Men's 100 metre backstroke,Swimming at the 2016 Summer Olympics – Men's 100 metre backstroke,R. Irie,Swimming at the 2008 Summer Olympics – Men's 100 metre backstroke
Swimming at the 2008 Summer Olympics – Women's 800 metre freestyle,Swimming at the 2012 Summer Olympics – Women's 800 metre freestyle,L. Friis,Swimming at the 2004 Summer Olympics – Women's 800 metre freestyle
Swimming at the 2008 Summer Olympics – Women's 50 metre freestyle,Swimming at the 2012 Summer Olympics – Women's 50 metre freestyle,C. Campbell,Swimming at the 2004 Summer Olympics – Women's 50 metre freestyle
Swimming at the 2008 Summer Olympics – Women's 4 × 200 metre freestyle relay,Swimming at the 2012 Summer Olympics – Women's 4 × 200 metre freestyle relay,N. Coughlin,Swimming at the 2004 Summer Olympics – Women's 4 × 200 metre freestyle relay
Swimming at the 2008 Summer Olympics – Women's 4 × 100 metre medley relay,Swimming at the 2012 Summer Olympics – Women's 4 × 100 metre medley relay,Z. Jing,Swimming at the 2004 Summer Olympics – Women's 4 × 100 metre medley relay
Swimming at the 2008 Summer Olympics – Women's 4 × 100 metre freestyle relay,Swimming at the 2012 Summer Olympics – Women's 4 × 100 metre freestyle relay,S. Reese,Swimming at the 2004 Summer Olympics – Women's 4 × 100 metre freestyle relay
Swimming at the 2008 Summer Olympics – Women's 400 metre individual medley,Swimming at the 2012 Summer Olympics – Women's 400 metre individual medley,K. Hoff,Swimming at the 2004 Summer Olympics – Women's 400 metre individual medley
Swimming at the 2008 Summer Olympics – Women's 400 metre freestyle,Swimming at the 2012 Summer Olympics – Women's 400 metre freestyle,J. Jackson,Swimming at the 2004 Summer Olympics – Women's 400 metre freestyle
Swimming at the 2008 Summer Olympics – Women's 200 metre individual medley,Swimming at the 2012 Summer Olympics – Women's 200 metre individual medley,N. Coughlin,Swimming at the 2004 Summer Olympics – Women's 200 metre individual medley
Swimming at the 2008 Summer Olympics – Women's 200 metre freestyle,Swimming at the 2012 Summer Olympics – Women's 200 metre freestyle,P. Jiaying,Swimming at the 2004 Summer Olympics – Women's 200 metre freestyle
Swimming at the 2008 Summer Olympics – Women's 200 metre butterfly,Swimming at the 2012 Summer Olympics – Women's 200 metre butterfly,J. Schipper,Swimming at the 2004 Summer Olympics – Women's 200 metre butterfly
Swimming at the 2008 Summer Olympics – Women's 200 metre breaststroke,Swimming at the 2012 Summer Olympics – Women's 200 metre breaststroke,S. Nordenstam,Swimming at the 2004 Summer Olympics – Women's 200 metre breaststroke
Swimming at the 2008 Summer Olympics – Women's 200 metre backstroke,Swimming at the 2012 Summer Olympics – Women's 200 metre backstroke,R. Nakamura,Swimming at the 2004 Summer Olympics – Women's 200 metre backstroke
Swimming at the 2008 Summer Olympics – Women's 100 metre freestyle,Swimming at the 2012 Summer Olympics – Women's 100 metre freestyle,N. Coughlin,Swimming at the 2004 Summer Olympics – Women's 100 metre freestyle
Swimming at the 2008 Summer Olympics – Women's 100 metre butterfly,Swimming at the 2012 Summer Olympics – Women's 100 metre butterfly,J. Schipper,Swimming at the 2004 Summer Olympics – Women's 100 metre butterfly
Swimming at the 2008 Summer Olympics – Women's 100 metre breaststroke,Swimming at the 2012 Summer Olympics – Women's 100 metre breaststroke,M. Jukić,Swimming at the 2004 Summer Olympics – Women's 100 metre breaststroke
Swimming at the 2008 Summer Olympics – Women's 100 metre backstroke,Swimming at the 2012 Summer Olympics – Women's 100 metre backstroke,M. Hoelzer,Swimming at the 2004 Summer Olympics – Women's 100 metre backstroke
Swimming at the 2008 Summer Olympics – Men's 50 metre freestyle,Swimming at the 2012 Summer Olympics – Men's 50 metre freestyle,A. Bernard,Swimming at the 2004 Summer Olympics – Men's 50 metre freestyle
Swimming at the 2008 Summer Olympics – Men's 4 × 200 metre freestyle relay,Swimming at the 2012 Summer Olympics – Men's 4 × 200 metre freestyle relay,N. Ffrost,Swimming at the 2004 Summer Olympics – Men's 4 × 200 metre freestyle relay
Swimming at the 2008 Summer Olympics – Men's 4 × 100 metre medley relay,Swimming at the 2012 Summer Olympics – Men's 4 × 100 metre medley relay,J. Miyashita,Swimming at the 2004 Summer Olympics – Men's 4 × 100 metre medley relay
Swimming at the 2008 Summer Olympics – Men's 4 × 100 metre freestyle relay,Swimming at the 2012 Summer Olympics – Men's 4 × 100 metre freestyle relay,E. Sullivan,Swimming at the 2004 Summer Olympics – Men's 4 × 100 metre freestyle relay
Swimming at the 2008 Summer Olympics – Men's 400 metre individual medley,Swimming at the 2012 Summer Olympics – Men's 400 metre individual medley,R. Lochte,Swimming at the 2004 Summer Olympics – Men's 400 metre individual medley
Swimming at the 2008 Summer Olympics – Men's 400 metre freestyle,Swimming at the 2012 Summer Olympics – Men's 400 metre freestyle,L. Jensen,Swimming at the 2004 Summer Olympics – Men's 400 metre freestyle
Swimming at the 2008 Summer Olympics – Men's 200 metre individual medley,Swimming at the 2012 Summer Olympics – Men's 200 metre individual medley,R. Lochte,Swimming at the 2004 Summer Olympics – Men's 200 metre individual medley
Swimming at the 2008 Summer Olympics – Men's 200 metre freestyle,Swimming at the 2012 Summer Olympics – Men's 200 metre freestyle,P. Vanderkaay,Swimming at the 2004 Summer Olympics – Men's 200 metre freestyle
Swimming at the 2008 Summer Olympics – Men's 200 metre butterfly,Swimming at the 2012 Summer Olympics – Men's 200 metre butterfly,T. Matsuda,Swimming at the 2004 Summer Olympics – Men's 200 metre butterfly
Swimming at the 2008 Summer Olympics – Men's 200 metre breaststroke,Swimming at the 2012 Summer Olympics – Men's 200 metre breaststroke,H. Duboscq,Swimming at the 2004 Summer Olympics – Men's 200 metre breaststroke
Swimming at the 2008 Summer Olympics – Men's 200 metre backstroke,Swimming at the 2012 Summer Olympics – Men's 200 metre backstroke,A. Vyatchanin,Swimming at the 2004 Summer Olympics – Men's 200 metre backstroke
Swimming at the 2008 Summer Olympics – Men's 1500 metre freestyle,Swimming at the 2012 Summer Olympics – Men's 1500 metre freestyle,R. Cochrane,Swimming at the 2004 Summer Olympics – Men's 1500 metre freestyle
Swimming at the 2008 Summer Olympics – Men's 100 metre freestyle,Swimming at the 2012 Summer Olympics – Men's 100 metre freestyle,C. Cielo,Swimming at the 2004 Summer Olympics – Men's 100 metre freestyle
Swimming at the 2008 Summer Olympics – Men's 100 metre butterfly,Swimming at the 2012 Summer Olympics – Men's 100 metre butterfly,A. Lauterstein,Swimming at the 2004 Summer Olympics – Men's 100 metre butterfly
Swimming at the 2008 Summer Olympics – Men's 100 metre breaststroke,Swimming at the 2012 Summer Olympics – Men's 100 metre breaststroke,H. Duboscq,Swimming at the 2004 Summer Olympics – Men's 100 metre breaststroke
Swimming at the 2008 Summer Olympics – Men's 100 metre backstroke,Swimming at the 2012 Summer Olympics – Men's 100 metre backstroke,H. Stoeckel,Swimming at the 2004 Summer Olympics – Men's 100 metre backstroke
Swimming at the 2008 Summer Olympics – Women's 800 metre freestyle,Swimming at the 2012 Summer Olympics – Women's 800 metre freestyle,L. Friis,Swimming at the 2004 Summer Olympics – Women's 800 metre freestyle
Swimming at the 2008 Summer Olympics – Women's 50 metre freestyle,Swimming at the 2012 Summer Olympics – Women's 50 metre freestyle,C. Campbell,Swimming at the 2004 Summer Olympics – Women's 50 metre freestyle
Swimming at the 2008 Summer Olympics – Women's 4 × 200 metre freestyle relay,Swimming at the 2012 Summer Olympics – Women's 4 × 200 metre freestyle relay,N. Coughlin,Swimming at the 2004 Summer Olympics – Women's 4 × 200 metre freestyle relay
Swimming at the 2008 Summer Olympics – Women's 4 × 100 metre medley relay,Swimming at the 2012 Summer Olympics – Women's 4 × 100 metre medley relay,Z. Jing,Swimming at the 2004 Summer Olympics – Women's 4 × 100 metre medley relay
Swimming at the 2008 Summer Olympics – Women's 4 × 100 metre freestyle relay,Swimming at the 2012 Summer Olympics – Women's 4 × 100 metre freestyle relay,C. Campbell,Swimming at the 2004 Summer Olympics – Women's 4 × 100 metre freestyle relay
Swimming at the 2008 Summer Olympics – Women's 400 metre individual medley,Swimming at the 2012 Summer Olympics – Women's 400 metre individual medley,K. Hoff,Swimming at the 2004 Summer Olympics – Women's 400 metre individual medley
Swimming at the 2008 Summer Olympics – Women's 400 metre freestyle,Swimming at the 2012 Summer Olympics – Women's 400 metre freestyle,J. Jackson,Swimming at the 2004 Summer Olympics – Women's 400 metre freestyle
Swimming at the 2008 Summer Olympics – Women's 200 metre individual medley,Swimming at the 2012 Summer Olympics – Women's 200 metre individual medley,N. Coughlin,Swimming at the 2004 Summer Olympics – Women's 200 metre individual medley
Swimming at the 2008 Summer Olympics – Women's 200 metre freestyle,Swimming at the 2012 Summer Olympics – Women's 200 metre freestyle,P. Jiaying,Swimming at the 2004 Summer Olympics – Women's 200 metre freestyle
Swimming at the 2008 Summer Olympics – Women's 200 metre butterfly,Swimming at the 2012 Summer Olympics – Women's 200 metre butterfly,J. Schipper,Swimming at the 2004 Summer Olympics – Women's 200 metre butterfly
Swimming at the 2008 Summer Olympics – Women's 200 metre breaststroke,Swimming at the 2012 Summer Olympics – Women's 200 metre breaststroke,S. Nordenstam,Swimming at the 2004 Summer Olympics – Women's 200 metre breaststroke
Swimming at the 2008 Summer Olympics – Women's 200 metre backstroke,Swimming at the 2012 Summer Olympics – Women's 200 metre backstroke,R. Nakamura,Swimming at the 2004 Summer Olympics – Women's 200 metre backstroke
Swimming at the 2008 Summer Olympics – Women's 100 metre freestyle,Swimming at the 2012 Summer Olympics – Women's 100 metre freestyle,N. Coughlin,Swimming at the 2004 Summer Olympics – Women's 100 metre freestyle
Swimming at the 2008 Summer Olympics – Women's 100 metre butterfly,Swimming at the 2012 Summer Olympics – Women's 100 metre butterfly,J. Schipper,Swimming at the 2004 Summer Olympics – Women's 100 metre butterfly
Swimming at the 2008 Summer Olympics – Women's 100 metre breaststroke,Swimming at the 2012 Summer Olympics – Women's 100 metre breaststroke,M. Jukić,Swimming at the 2004 Summer Olympics – Women's 100 metre breaststroke
Swimming at the 2008 Summer Olympics – Women's 100 metre backstroke,Swimming at the 2012 Summer Olympics – Women's 100 metre backstroke,M. Hoelzer,Swimming at the 2004 Summer Olympics – Women's 100 metre backstroke
Swimming at the 2008 Summer Olympics – Men's 50 metre freestyle,Swimming at the 2012 Summer Olympics – Men's 50 metre freestyle,A. Bernard,Swimming at the 2004 Summer Olympics – Men's 50 metre freestyle
Swimming at the 2008 Summer Olympics – Men's 4 × 200 metre freestyle relay,Swimming at the 2012 Summer Olympics – Men's 4 × 200 metre freestyle relay,G. Hackett,Swimming at the 2004 Summer Olympics – Men's 4 × 200 metre freestyle relay
Swimming at the 2008 Summer Olympics – Men's 4 × 100 metre medley relay,Swimming at the 2012 Summer Olympics – Men's 4 × 100 metre medley relay,J. Miyashita,Swimming at the 2004 Summer Olympics – Men's 4 × 100 metre medley relay
Swimming at the 2008 Summer Olympics – Men's 4 × 100 metre freestyle relay,Swimming at the 2012 Summer Olympics – Men's 4 × 100 metre freestyle relay,E. Sullivan,Swimming at the 2004 Summer Olympics – Men's 4 × 100 metre freestyle relay
Swimming at the 2008 Summer Olympics – Men's 400 metre individual medley,Swimming at the 2012 Summer Olympics – Men's 400 metre individual medley,R. Lochte,Swimming at the 2004 Summer Olympics – Men's 400 metre individual medley
Swimming at the 2008 Summer Olympics – Men's 400 metre freestyle,Swimming at the 2012 Summer Olympics – Men's 400 metre freestyle,L. Jensen,Swimming at the 2004 Summer Olympics – Men's 400 metre freestyle
Swimming at the 2008 Summer Olympics – Men's 200 metre individual medley,Swimming at the 2012 Summer Olympics – Men's 200 metre individual medley,R. Lochte,Swimming at the 2004 Summer Olympics – Men's 200 metre individual medley
Swimming at the 2008 Summer Olympics – Men's 200 metre freestyle,Swimming at the 2012 Summer Olympics – Men's 200 metre freestyle,P. Vanderkaay,Swimming at the 2004 Summer Olympics – Men's 200 metre freestyle
Swimming at the 2008 Summer Olympics – Men's 200 metre butterfly,Swimming at the 2012 Summer Olympics – Men's 200 metre butterfly,T. Matsuda,Swimming at the 2004 Summer Olympics – Men's 200 metre butterfly
Swimming at the 2008 Summer Olympics – Men's 200 metre breaststroke,Swimming at the 2012 Summer Olympics – Men's 200 metre breaststroke,H. Duboscq,Swimming at the 2004 Summer Olympics – Men's 200 metre breaststroke
Swimming at the 2008 Summer Olympics – Men's 200 metre backstroke,Swimming at the 2012 Summer Olympics – Men's 200 metre backstroke,A. Vyatchanin,Swimming at the 2004 Summer Olympics – Men's 200 metre backstroke
Swimming at the 2008 Summer Olympics – Men's 1500 metre freestyle,Swimming at the 2012 Summer Olympics – Men's 1500 metre freestyle,R. Cochrane,Swimming at the 2004 Summer Olympics – Men's 1500 metre freestyle
Swimming at the 2008 Summer Olympics – Men's 100 metre freestyle,Swimming at the 2012 Summer Olympics – Men's 100 metre freestyle,C. Cielo,Swimming at the 2004 Summer Olympics – Men's 100 metre freestyle
Swimming at the 2008 Summer Olympics – Men's 100 metre butterfly,Swimming at the 2012 Summer Olympics – Men's 100 metre butterfly,A. Lauterstein,Swimming at the 2004 Summer Olympics – Men's 100 metre butterfly
Swimming at the 2008 Summer Olympics – Men's 100 metre breaststroke,Swimming at the 2012 Summer Olympics – Men's 100 metre breaststroke,H. Duboscq,Swimming at the 2004 Summer Olympics – Men's 100 metre breaststroke
Swimming at the 2008 Summer Olympics – Men's 100 metre backstroke,Swimming at the 2012 Summer Olympics – Men's 100 metre backstroke,H. Stoeckel,Swimming at the 2004 Summer Olympics – Men's 100 metre backstroke
Swimming at the 2004 Summer Olympics – Women's 800 metre freestyle,Swimming at the 2008 Summer Olympics – Women's 800 metre freestyle,D. Munz,Swimming at the 2000 Summer Olympics – Women's 800 metre freestyle
Swimming at the 2004 Summer Olympics – Women's 50 metre freestyle,Swimming at the 2008 Summer Olympics – Women's 50 metre freestyle,L. Lenton,Swimming at the 2000 Summer Olympics – Women's 50 metre freestyle
Swimming at the 2004 Summer Olympics – Women's 4 × 200 metre freestyle relay,Swimming at the 2008 Summer Olympics – Women's 4 × 200 metre freestyle relay,F. v. Almsick,Swimming at the 2000 Summer Olympics – Women's 4 × 200 metre freestyle relay
Swimming at the 2004 Summer Olympics – Women's 4 × 100 metre medley relay,Swimming at the 2008 Summer Olympics – Women's 4 × 100 metre medley relay,F. v. Almsick,Swimming at the 2000 Summer Olympics – Women's 4 × 100 metre medley relay
Swimming at the 2004 Summer Olympics – Women's 4 × 100 metre freestyle relay,Swimming at the 2008 Summer Olympics – Women's 4 × 100 metre freestyle relay,C. Groot,Swimming at the 2000 Summer Olympics – Women's 4 × 100 metre freestyle relay
Swimming at the 2004 Summer Olympics – Women's 400 metre individual medley,Swimming at the 2008 Summer Olympics – Women's 400 metre individual medley,G. Bardach,Swimming at the 2000 Summer Olympics – Women's 400 metre individual medley
Swimming at the 2004 Summer Olympics – Women's 400 metre freestyle,Swimming at the 2008 Summer Olympics – Women's 400 metre freestyle,K. Sandeno,Swimming at the 2000 Summer Olympics – Women's 400 metre freestyle
Swimming at the 2004 Summer Olympics – Women's 200 metre individual medley,Swimming at the 2008 Summer Olympics – Women's 200 metre individual medley,K. Coventry,Swimming at the 2000 Summer Olympics – Women's 200 metre individual medley
Swimming at the 2004 Summer Olympics – Women's 200 metre freestyle,Swimming at the 2008 Summer Olympics – Women's 200 metre freestyle,S. Figuès,Swimming at the 2000 Summer Olympics – Women's 200 metre freestyle
Swimming at the 2004 Summer Olympics – Women's 200 metre butterfly,Swimming at the 2008 Summer Olympics – Women's 200 metre butterfly,Y. Nakanishi,Swimming at the 2000 Summer Olympics – Women's 200 metre butterfly
Swimming at the 2004 Summer Olympics – Women's 200 metre breaststroke,Swimming at the 2008 Summer Olympics – Women's 200 metre breaststroke,A. Poleska,Swimming at the 2000 Summer Olympics – Women's 200 metre breaststroke
Swimming at the 2004 Summer Olympics – Women's 200 metre backstroke,Swimming at the 2008 Summer Olympics – Women's 200 metre backstroke,R. Nakamura,Swimming at the 2000 Summer Olympics – Women's 200 metre backstroke
Swimming at the 2004 Summer Olympics – Women's 100 metre freestyle,Swimming at the 2008 Summer Olympics – Women's 100 metre freestyle,N. Coughlin,Swimming at the 2000 Summer Olympics – Women's 100 metre freestyle
Swimming at the 2004 Summer Olympics – Women's 100 metre butterfly,Swimming at the 2008 Summer Olympics – Women's 100 metre butterfly,I. d. Bruijn,Swimming at the 2000 Summer Olympics – Women's 100 metre butterfly
Swimming at the 2004 Summer Olympics – Women's 100 metre breaststroke,Swimming at the 2008 Summer Olympics – Women's 100 metre breaststroke,L. Jones,Swimming at the 2000 Summer Olympics – Women's 100 metre breaststroke
Swimming at the 2004 Summer Olympics – Women's 100 metre backstroke,Swimming at the 2008 Summer Olympics – Women's 100 metre backstroke,L. Manaudou,Swimming at the 2000 Summer Olympics – Women's 100 metre backstroke
Swimming at the 2004 Summer Olympics – Men's 50 metre freestyle,Swimming at the 2008 Summer Olympics – Men's 50 metre freestyle,R. M. Schoeman,Swimming at the 2000 Summer Olympics – Men's 50 metre freestyle
Swimming at the 2004 Summer Olympics – Men's 4 × 200 metre freestyle relay,Swimming at the 2008 Summer Olympics – Men's 4 × 200 metre freestyle relay,E. Brembilla,Swimming at the 2000 Summer Olympics – Men's 4 × 200 metre freestyle relay
Swimming at the 2004 Summer Olympics – Men's 4 × 100 metre medley relay,Swimming at the 2008 Summer Olympics – Men's 4 × 100 metre medley relay,K. Kitajima,Swimming at the 2000 Summer Olympics – Men's 4 × 100 metre medley relay
Swimming at the 2004 Summer Olympics – Men's 4 × 100 metre freestyle relay,Swimming at the 2008 Summer Olympics – Men's 4 × 100 metre freestyle relay,M. Phelps,Swimming at the 2000 Summer Olympics – Men's 4 × 100 metre freestyle relay
Swimming at the 2004 Summer Olympics – Men's 400 metre individual medley,Swimming at the 2008 Summer Olympics – Men's 400 metre individual medley,L. Cseh,Swimming at the 2000 Summer Olympics – Men's 400 metre individual medley
Swimming at the 2004 Summer Olympics – Men's 400 metre freestyle,Swimming at the 2008 Summer Olympics – Men's 400 metre freestyle,K. Keller,Swimming at the 2000 Summer Olympics – Men's 400 metre freestyle
Swimming at the 2004 Summer Olympics – Men's 200 metre individual medley,Swimming at the 2008 Summer Olympics – Men's 200 metre individual medley,G. Bovell,Swimming at the 2000 Summer Olympics – Men's 200 metre individual medley
Swimming at the 2004 Summer Olympics – Men's 200 metre freestyle,Swimming at the 2008 Summer Olympics – Men's 200 metre freestyle,M. Phelps,Swimming at the 2000 Summer Olympics – Men's 200 metre freestyle
Swimming at the 2004 Summer Olympics – Men's 200 metre butterfly,Swimming at the 2008 Summer Olympics – Men's 200 metre butterfly,S. Parry,Swimming at the 2000 Summer Olympics – Men's 200 metre butterfly
Swimming at the 2004 Summer Olympics – Men's 200 metre breaststroke,Swimming at the 2008 Summer Olympics – Men's 200 metre breaststroke,B. Hansen,Swimming at the 2000 Summer Olympics – Men's 200 metre breaststroke
Swimming at the 2004 Summer Olympics – Men's 200 metre backstroke,Swimming at the 2008 Summer Olympics – Men's 200 metre backstroke,R. Florea,Swimming at the 2000 Summer Olympics – Men's 200 metre backstroke
Swimming at the 2004 Summer Olympics – Men's 1500 metre freestyle,Swimming at the 2008 Summer Olympics – Men's 1500 metre freestyle,D. Davies,Swimming at the 2000 Summer Olympics – Men's 1500 metre freestyle
Swimming at the 2004 Summer Olympics – Men's 100 metre freestyle,Swimming at the 2008 Summer Olympics – Men's 100 metre freestyle,I. Thorpe,Swimming at the 2000 Summer Olympics – Men's 100 metre freestyle
Swimming at the 2004 Summer Olympics – Men's 100 metre butterfly,Swimming at the 2008 Summer Olympics – Men's 100 metre butterfly,A. Serdinov,Swimming at the 2000 Summer Olympics – Men's 100 metre butterfly
Swimming at the 2004 Summer Olympics – Men's 100 metre breaststroke,Swimming at the 2008 Summer Olympics – Men's 100 metre breaststroke,H. Duboscq,Swimming at the 2000 Summer Olympics – Men's 100 metre breaststroke
Swimming at the 2004 Summer Olympics – Men's 100 metre backstroke,Swimming at the 2008 Summer Olympics – Men's 100 metre backstroke,T. Morita,Swimming at the 2000 Summer Olympics – Men's 100 metre backstroke
Swimming at the 2004 Summer Olympics – Women's 800 metre freestyle,Swimming at the 2008 Summer Olympics – Women's 800 metre freestyle,D. Munz,Swimming at the 2000 Summer Olympics – Women's 800 metre freestyle
Swimming at the 2004 Summer Olympics – Women's 50 metre freestyle,Swimming at the 2008 Summer Olympics – Women's 50 metre freestyle,L. Lenton,Swimming at the 2000 Summer Olympics – Women's 50 metre freestyle
Swimming at the 2004 Summer Olympics – Women's 4 × 200 metre freestyle relay,Swimming at the 2008 Summer Olympics – Women's 4 × 200 metre freestyle relay,F. v. Almsick,Swimming at the 2000 Summer Olympics – Women's 4 × 200 metre freestyle relay
Swimming at the 2004 Summer Olympics – Women's 4 × 100 metre medley relay,Swimming at the 2008 Summer Olympics – Women's 4 × 100 metre medley relay,F. v. Almsick,Swimming at the 2000 Summer Olympics – Women's 4 × 100 metre medley relay
Swimming at the 2004 Summer Olympics – Women's 4 × 100 metre freestyle relay,Swimming at the 2008 Summer Olympics – Women's 4 × 100 metre freestyle relay,C. Groot,Swimming at the 2000 Summer Olympics – Women's 4 × 100 metre freestyle relay
Swimming at the 2004 Summer Olympics – Women's 400 metre individual medley,Swimming at the 2008 Summer Olympics – Women's 400 metre individual medley,G. Bardach,Swimming at the 2000 Summer Olympics – Women's 400 metre individual medley
Swimming at the 2004 Summer Olympics – Women's 400 metre freestyle,Swimming at the 2008 Summer Olympics – Women's 400 metre freestyle,K. Sandeno,Swimming at the 2000 Summer Olympics – Women's 400 metre freestyle
Swimming at the 2004 Summer Olympics – Women's 200 metre individual medley,Swimming at the 2008 Summer Olympics – Women's 200 metre individual medley,K. Coventry,Swimming at the 2000 Summer Olympics – Women's 200 metre individual medley
Swimming at the 2004 Summer Olympics – Women's 200 metre freestyle,Swimming at the 2008 Summer Olympics – Women's 200 metre freestyle,S. Figuès,Swimming at the 2000 Summer Olympics – Women's 200 metre freestyle
