col0,col1,col2,col3
Myelofibrosis,"C94.4,D47.4","9932,",D055728
Myelodysplastic syndrome,D46,9980/0-,D009190
Multiple endocrine neoplasia type 1,D44.8,8360/1,D018761
Multiple endocrine neoplasia,E31.20,8360/1,D009377
Mucinous cystadenocarcinoma,C56.9,8470/3,D018282
Monoclonal gammopathy of undetermined significance,D47.2,9765/1,D008998
Mesothelioma,C45,-9055,D008654
Merkel-cell carcinoma,C44(ILDSC44.L44),M8247/3,D015266
Menkes disease,E83.0,?,D007706
Mastocytosis,"Q82.2,C96.2",9741/3,D008415
Mastocytoma,"C96.2,D47.0",M9740/1,D034801
Lymphomatoid papulosis,L41.2,9718/1,D017731
Lymphoma,C81–C96,9590–9999,D008223
Lymphangioleiomyomatosis,J84.81,9174/1,D018192
Luteoma,C56.9,8610/0,D018311
Leukemia,C91-C95,9800-9940,D007938
