col0,col1,col2,col3
Snoras,1225,Bankruptcy,true
Northern Rock,6000,Sold toVirgin Money,true
Kaupthing Bank,3330,"Government custodianship, moratorium on payments",true
HBOS,72000,Acquired byLloyds Banking Group,true
Glitnir,1980,"Government custodianship, moratorium on payments",true
Bradford & Bingley,2862,"Nationalised due to insolvency. Its deposits were sold toAbbey Nationalplc, which was eventually renamedSantander UKplc. Its mortgages are still held by Bradford & Bingley.",true
Bipop Carire,2815,absorbed by UniCredit,true
Bank of Moscow,10504,merged,true
