col0,col1,col2,col3
SM UC-64,1916-01-12,3,1917-02-22
SM UC-63,1916-01-12,3,1917-01-30
SM UC-62,1916-01-12,3,1917-01-08
SM UC-61,1916-01-12,3,1916-12-13
SM UC-60,1916-01-12,3,1917-06-25
SM UC-59,1916-01-12,3,1917-05-12
SM UC-58,1916-01-12,3,1917-03-12
SM UC-57,1916-01-12,3,1917-01-22
SM UC-56,1916-01-12,3,1916-12-18
SM UC-55,1916-01-12,3,1916-11-15
SM UC-54,1916-01-12,3,1917-05-10
SM UC-53,1916-01-12,3,1917-04-05
SM UC-52,1916-01-12,3,1917-03-15
SM UC-51,1916-01-12,3,1917-01-06
SM UC-50,1916-01-12,3,1916-12-21
SM UC-49,1916-01-12,3,1916-12-02
SM UC-48,1915-11-20,3,1916-11-06
SM UC-47,1915-11-20,3,1916-10-13
SM UC-46,1915-11-20,3,1916-09-15
SM UC-45,1915-11-20,3,1916-11-18
SM UC-44,1915-11-20,3,1916-11-04
SM UC-43,1915-11-20,3,1916-10-25
SM UC-42,1915-11-20,3,1916-11-18
SM UC-41,1915-11-20,3,1916-10-11
SM UC-40,1915-11-20,3,1916-10-01
SM UC-39,1915-11-20,3,1916-10-31
SM UC-38,1915-11-20,3,1916-10-26
SM UC-37,1915-11-20,3,1916-10-17
SM UC-36,1915-11-20,3,1916-10-10
SM UC-35,1915-11-20,3,1916-10-02
SM UC-33,1915-08-29,3,1916-09-25
SM UC-32,1915-08-29,3,1916-09-13
SM UC-31,1915-08-29,3,1916-09-02
SM UC-30,1915-08-29,3,1916-08-22
SM UC-29,1915-08-29,3,1916-08-15
SM UC-28,1915-08-29,3,1916-08-06
SM UC-27,1915-08-29,3,1916-07-25
SM UC-26,1915-08-29,3,1916-07-18
SM UC-25,1915-08-29,3,1916-06-28
SM UC-24,1915-08-26,3,1916-08-15
SM UC-23,1915-08-26,3,1916-07-17
SM UC-22,1915-08-26,3,1916-06-30
SM UC-21,1915-08-26,3,1916-09-12
SM UC-20,1915-08-26,3,1916-09-07
SM UC-19,1915-08-26,3,1916-08-21
SM UC-18,1915-08-26,3,1916-08-15
SM UC-17,1915-08-29,3,1916-07-21
SM UC-16,1915-08-29,3,1916-06-18
SM UC-15,1914-11-23,3,1915-06-28
SM UC-14,1914-11-23,3,1915-06-05
SM UC-13,1914-11-23,3,1915-05-15
SM UC-12,1914-11-23,3,1915-05-02
SM UC-11,1914-11-23,3,1915-04-23
SM UC-105,1916-01-12,5,1918-10-28
SM UC-104,1916-01-12,5,1918-10-18
SM UC-103,1916-01-12,5,1918-10-21
SM UC-102,1916-01-12,5,1918-10-14
SM UC-101,1916-01-12,5,1918-10-08
