col0,col1,col2,col3
W. Roberts,United States of America,2014-08-22,2014
T. Kelley,United States,1984-01-08,1984
P. Laval,United States,1966-02-20,1966
P. Stern,United States,2014-12-13,2014
E. Stoller,United States,2004-10-29,2004
A. Pollitzer,United States,1975-07-03,1975
