col0,col1,col2,col3,col4
Q. Rollins,Green Bay Packers,Green Bay Packers,1992-07-15,62
Q. Enunwa,New York Jets,New York Jets,1992-05-31,209
Q. Griffin,Denver Broncos,Kiel Baltic Hurricanes,1981-01-12,108
Q. Diggs,Detroit Lions,Detroit Lions,1991-11-07,200
P. C. Iworah,San Francisco 49ers,San Francisco 49ers,1993-03-11,249
P. Amukamara,Jacksonville Jaguars,Jacksonville Jaguars,1989-06-06,19
P. Smith,Washington Redskins,Washington Redskins,1992-11-17,38
P. Brown,Buffalo Bills,Buffalo Bills,1992-10-27,73
P. Garçon,Indianapolis Colts,Washington Redskins,1986-08-08,205
P. Desir,Cleveland Browns,San Diego Chargers,1990-09-08,127
P. Gaines,Kansas City Chiefs,Kansas City Chiefs,1991-04-04,87
P. Dorsett,Indianapolis Colts,Indianapolis Colts,1993-01-05,29
P. Wheeler,Atlanta Falcons,Atlanta Falcons,1984-12-12,93
P. Rivers,San Diego Chargers,San Diego Chargers,1981-12-8,4
P. Blake,Arizona Cardinals,Montreal Alouettes,1985-11-27,108
P. Taylor,Cleveland Browns,Free agent,1988-04-07,21
P. Cooper,Los Angeles Rams,Los Angeles Rams,1995-03-07,117
P. Riley,Oakland Raiders,Oakland Raiders,1988-05-03,103
P. Lynch,Denver Broncos,Denver Broncos,1994-02-12,26
P. Soliai,Atlanta Falcons,Carolina Panthers,1983-12-30,108
P. Richardson,Seattle Seahawks,Seattle Seahawks,1992-04-13,45
P. Perkins,New York Giants,New York Giants,1994-11-16,149
P. Dawson,Cincinnati Bengals,Cincinnati Bengals,1993-01-13,99
P. Robinson,Indianapolis Colts,Indianapolis Colts,1987-09-07,32
P. Sims,Cincinnati Bengals,Cincinnati Bengals,1985-1-29,77
P. Ehinger,Kansas City Chiefs,Kansas City Chiefs,1992-12-20,105
P. J. Williams,New Orleans Saints,New Orleans Saints,1993-06-01,78
O. Odighizuwa,New York Giants,New York Giants,1992-04-01,74
O. Scandrick,Dallas Cowboys,Dallas Cowboys,1987-02-10,143
O. Vernon,Miami Dolphins,New York Giants,1990-10-07,72
O. B. Jr.,New York Giants,New York Giants,1965-1-6,12
O. Aboushi,Houston Texans,Houston Texans,1991-06-05,141
O. Gwacham,New Orleans Saints,New Orleans Saints,1991-03-20,209
N. Spence,Tampa Bay Buccaneers,Tampa Bay Buccaneers,1994-0-0,39
N. Bradham,Buffalo Bills,Philadelphia Eagles,1989-09-04,105
N. Johnson,Cincinnati Bengals,Free agent,1990-06-19,99
N. Williams,Kansas City Chiefs,Miami Dolphins,1990-02-21,223
N. Vigil,Cincinnati Bengals,Cincinnati Bengals,1993-08-20,87
N. Vannett,Seattle Seahawks,Seattle Seahawks,1993-03-06,94
N. Perry,Green Bay Packers,Green Bay Packers,1990-04-12,28
N. O'Leary,Buffalo Bills,Buffalo Bills,1992-08-31,194
N. Martin,Houston Texans,Houston Texans,1993-0-0,50
N. Kwiatkoski,Chicago Bears,Chicago Bears,1993-5-26,113
N. Fairley,Detroit Lions,New Orleans Saints,1988-01-23,13
N. Boyle,Baltimore Ravens,Baltimore Ravens,1993-02-17,171
N. Lawson,Detroit Lions,Detroit Lions,1991-04-23,133
N. Agholor,Philadelphia Eagles,Philadelphia Eagles,1993-05-24,20
N. Ball,Oakland Raiders,Oakland Raiders,1992-08-20,161
N. Sterling,Jacksonville Jaguars,Jacksonville Jaguars,1992-01-14,220
N. Suh,Detroit Lions,Miami Dolphins,1987-01-06,2
N. Enderle,Chicago Bears,Free agent,1988-01-12,160
N. Stupar,Atlanta Falcons,New Orleans Saints,1988-03-14,230
N. Solder,New England Patriots,New England Patriots,1988-04-12,17
N. Palmer,Green Bay Packers,Tennessee Titans,1989-09-23,193
N. Orchard,Cleveland Browns,Cleveland Browns,1993-01-05,51
N. Berhe,New York Giants,New York Giants,1991-07-06,152
N. Bowman,San Francisco 49ers,San Francisco 49ers,1988-05-28,91
M. Jack,Jacksonville Jaguars,Jacksonville Jaguars,1995-09-03,36
M. Thompson,New York Giants,New York Giants,1993-04-22,144
M. Rivera,Oakland Raiders,Oakland Raiders,1990-09-08,184
M. Kendricks,Philadelphia Eagles,Philadelphia Eagles,1990-09-28,46
M. Pruitt,Minnesota Vikings,Minnesota Vikings,1992-03-24,143
M. Wilkerson,New York Jets,New York Jets,1989-10-22,30
M. Trent,Cincinnati Bengals,Free agent,1985-12-14,179
M. Moses,Washington Redskins,Washington Redskins,1991-03-03,66
M. Ball,Denver Broncos,Free agent,1990-12-05,58
M. Sanu,Cincinnati Bengals,Atlanta Falcons,1989-08-23,83
M. Schwartz,Cleveland Browns,Kansas City Chiefs,1989-06-08,37
M. Morse,Kansas City Chiefs,Kansas City Chiefs,1992-04-21,49
M. Vrabel,Kansas City Chiefs,Houston Texans,1975-08-14,91
M. Thomas,Los Angeles Rams,Los Angeles Rams,1994-08-16,206
M. Sullivan,Chicago Bears,Tennessee Titans,1967-12-22,153
M. Munchak,Houston Oilers,Pittsburgh Steelers,1960-3-6,8
M. Jones,Kansas City Chiefs,Tennessee State Tigers football,1960-04-14,159
M. James,Detroit Lions,Detroit Lions,1991-04-13,189
M. Glennon,Tampa Bay Buccaneers,Tampa Bay Buccaneers,1989-12-12,73
M. Gillislee,Arizona Cardinals,Buffalo Bills,1990-11-01,164
M. Evans,Tampa Bay Buccaneers,Tampa Bay Buccaneers,1993-08-21,7
M. Davis,San Francisco 49ers,San Francisco 49ers,1993-02-19,126
M. Daniels,Green Bay Packers,Green Bay Packers,1989-05-05,132
M. Adams,Chicago Bears,Chicago Bears,1990-03-10,56
M. Williams,Detroit Lions,New England Patriots,1990-09-08,211
M. Thomas,New Orleans Saints,New Orleans Saints,1993-03-03,47
M. Smith,New York Jets,Free agent,1988-08-09,212
M. Schofield,Denver Broncos,Denver Broncos,1990-11-15,95
M. Floyd,Arizona Cardinals,Arizona Cardinals,1989-11-27,13
M. Burton,Detroit Lions,Detroit Lions,1992-02-01,168
M. Brockers,History of the St. Louis Rams,Los Angeles Rams,1990-12-21,14
M. Bennett,Jacksonville Jaguars,Jacksonville Jaguars,1993-02-24,180
M. Hyde,Green Bay Packers,Green Bay Packers,1990-12-31,159
M. Watson,Oakland Raiders,Oakland Raiders,1988-12-22,42
M. Ingram,San Diego Chargers,San Diego Chargers,1989-4-26,18
M. Gordon,San Diego Chargers,San Diego Chargers,1993-4-13,15
M. Williams,Baltimore Ravens,Baltimore Ravens,1994-04-12,55
M. Valles,Buffalo Bills,Buffalo Bills,1994-08-05,179
M. Unger,New Orleans Saints,New Orleans Saints,1986-4-14,49
M. Tuerk,San Diego Chargers,San Diego Chargers,1994-01-27,66
M. Garcia,Denver Broncos,Denver Broncos,1991-11-09,133
M. Canady,Baltimore Ravens,Baltimore Ravens,1993-0-0,209
M. Alexander,Los Angeles Rams,Los Angeles Rams,1991-02-16,110
M. Slater,New England Patriots,New England Patriots,1985-09-09,153
M. Ware,Arizona Cardinals,Toronto Argonauts,1982-12-02,89
M. Slauson,Chicago Bears,San Diego Chargers,1986-02-18,193
M. Shaughnessy,Oakland Raiders,New Orleans Saints,1986-09-23,71
M. Schaub,Atlanta Falcons,Atlanta Falcons,1981-6-25,90
M. Ryan,Atlanta Falcons,Atlanta Falcons,1985-05-17,3
M. Paradis,Denver Broncos,Denver Broncos,1989-10-12,207
M. Kalil,Minnesota Vikings,Minnesota Vikings,1989-07-06,4
M. Jones,Washington Redskins,Washington Redskins,1993-03-07,95
M. Ioannidis,Washington Redskins,Washington Redskins,1994-01-11,152
M. Bosher,Atlanta Falcons,Atlanta Falcons,1987-10-18,192
M. Barkley,Arizona Cardinals,Chicago Bears,1990-9-8,98
M. Jones,Cincinnati Bengals,Detroit Lions,1990-03-12,166
M. Spaight,Washington Redskins,Washington Redskins,1993-08-05,141
M. Wilson,New Orleans Saints,Toronto Argonauts,1988-09-21,72
M. Bennett,Chicago Bears,New England Patriots,1987-03-10,61
M. Bryant,Pittsburgh Steelers,Pittsburgh Steelers,1991-12-20,118
M. Yanda,Baltimore Ravens,Baltimore Ravens,1984-09-15,86
M. Flowers,Cincinnati Bengals,Cincinnati Bengals,1992-02-16,212
M. Christian,Arizona Cardinals,Los Angeles Rams,1994-10-27,167
M. Huff,Baltimore Ravens,Baltimore Ravens,1992-04-06,122
M. Wilson,Chicago Bears,Chicago Bears,1992-09-14,236
M. Lee,Jacksonville Jaguars,Jacksonville Jaguars,1991-11-25,39
M. White,Tampa Bay Buccaneers,Saskatchewan Roughriders,1987-11-25,224
M. Wheaton,Pittsburgh Steelers,Pittsburgh Steelers,1991-2-7,79
M. Paul,Chicago Bears,New York Giants,1966-04-01,95
M. Golden,Arizona Cardinals,Arizona Cardinals,1991-03-13,58
M. Sanchez,Philadelphia Eagles,Dallas Cowboys,1986-11-11,5
M. Glowinski,Seattle Seahawks,Seattle Seahawks,1992-05-03,134
M. Barron,Los Angeles Rams,Los Angeles Rams,1989-10-27,7
M. Asper,Minnesota Vikings,Free agent,1985-11-08,178
M. Williams,Buffalo Bills,Miami Dolphins,1985-01-31,1
M. E. Jr.,Oakland Raiders,Oakland Raiders,1994-01-25,35
M. Hunt,Cincinnati Bengals,Cincinnati Bengals,1987-07-14,53
M. S. II,Philadelphia Eagles,Philadelphia Eagles,1992-03-31,26
M. Smith,Baltimore Ravens,Free agent,1985-01-11,106
M. Peters,Kansas City Chiefs,Kansas City Chiefs,1993-1-9,18
M. Murphy,New Orleans Saints,New Orleans Saints,1991-10-03,230
M. Martin,San Francisco 49ers,San Francisco 49ers,1993-11-29,70
M. Mariota,Tennessee Titans,Tennessee Titans,1993-10-30,2
M. Hardison,Cincinnati Bengals,Cincinnati Bengals,1992-02-14,135
M. Te'o,San Diego Chargers,San Diego Chargers,1991-01-26,38
M. Collins,Dallas Cowboys,Dallas Cowboys,1995-04-08,67
M. Brown,New England Patriots,New England Patriots,1994-02-02,32
M. Williams,New England Patriots,Free agent,1987-11-22,219
M. Smith,Oakland Raiders,Oakland Raiders,1989-07-05,242
M. Mitchell,New England Patriots,New England Patriots,1993-07-20,112
M. Johnson,Cleveland Browns,Cleveland Browns,1992-08-11,195
M. Bernadeau,Carolina Panthers,Free agent,1986-1-3,250
M. Alexander,Minnesota Vikings,Minnesota Vikings,1993-11-12,54
L. Willson,Seattle Seahawks,Seattle Seahawks,1990-01-15,158
L. Stocker,Tampa Bay Buccaneers,Tampa Bay Buccaneers,1988-07-17,104
L. Kuechly,Carolina Panthers,Carolina Panthers,1991-04-20,9
L. Joeckel,Jacksonville Jaguars,Jacksonville Jaguars,1991-11-06,2
L. Taliaferro,Baltimore Ravens,Baltimore Ravens,1991-12-23,138
L. Mauldin,New York Jets,New York Jets,1992-10-01,82
L. Doss,Denver Broncos,Denver Broncos,1994-04-22,164
L. Ballentine,Houston Texans,Houston Texans,1993-04-23,256
L. Ryan,New England Patriots,New England Patriots,1991-02-09,83
L. Toilolo,Atlanta Falcons,Atlanta Falcons,1991-07-30,133
L. Guion,Green Bay Packers,Green Bay Packers,1987-06-21,152
L. Walton,Pittsburgh Steelers,Pittsburgh Steelers,1992-03-31,199
L. Carroo,Miami Dolphins,Miami Dolphins,1994-01-24,86
L. Williams,New York Jets,New York Jets,1994-06-20,6
