col0,col1,col2,col3
You Can't Take It with You,M. Hart,English language,Alice Sycamore
Yellow Fever,R. Shiomi,English language,Sam Shikaze
Women of Trachis,Sophocles,Ancient Greek,Deianeira
Wit,M. Edson,English language,Dr Bearing's Students
Usha Parinayam,V. V. Sastry,Telugu language,Anirudha
Two Small Bodies,N. Bell,English language,Eileen Maloney
Twelve Dreams,J. Lapine,English language,Charles Hatrick
Torch Song Trilogy,H. Fierstein,English language,Alan
Tonight We Improvise,L. Pirandello,Italian language,Character Actress/Signora Ignazia
Thunder Rock,R. Ardrey,English,"Charleston, Streeter,  Nonny, Inspector Flanning, Captain Joshua, Briggs, Dr. Stephan Kurtz, Melanie, Anne Marie, Miss Kirby, Chang"
Three Tall Women,E. Albee,English language,The Boy
Theristai,Euripides,Ancient Greek,Satyrs
The Woods,D. Mamet,English language,Nick
The Wild Duck,H. Ibsen,Norwegian language,Gina Ekdal
The White Liars,P. Shaffer,English language,Frank
The Walworth Farce,E. Walsh,English language,Blake
The Trojan Women,Euripides,Ancient Greek,Andromache
The Trial of God,E. Wiesel,French Language,Avrémel
The Tooth of Crime,S. Shepard,English language,Becky Lou
The Teahouse of the August Moon,J. Patrick,English language,Ancient Man
The Suppliants,Euripides,Ancient Greek,Adrastus
The Sunset Limited,C. McCarthy,English language,Black
The Subject Was Roses,F. D. Gilroy,English language,John Cleary
The Star Without a Name,M. Sebastian,Romanian language,*  Elevi
The Squaw Man,E. M. Royle,English language,Capt. James Wynnegate aka Jim Carson
The Son,W. Hasenclever,German language,Adrienne
The Skin of Our Teeth,T. Wilder,English language,Chair Pusher
The Shrike,J. Kramm,English language,Ann Downs
The Shadow of the Hummingbird,A. Fugard,English language,Boba
The Shadow Box,M. Cristofer,English language,Agnes
The Seafarer,C. McPherson,English language,Ivan
The Rose Tattoo,T. Williams,English language,Alvaro Mangiacavallo
The Revengers' Comedies,A. Ayckbourn,English language,Henry Bell
The Retreat from Moscow,W. Nicholson,English language,Alice
The Public,F. G. Lorca,Spanish language,Ballerina Costume
The Post Office,R. Tagore,Bengali language,"Amal, his adopted child"
The Plough and the Stars,S. O'Casey,English language,Cpl. Stoddart
The Phoney Civilization,D. Voynikov,Bulgaria,Anka
The Phoenician Women,Euripides,Ancient Greek,Antigone
The Persians,Aeschylus,Ancient Greek,Atossa
The Motherfucker with the Hat,S. A. Guirgis,English language,Cousin Julio
The Morality of Mrs. Dulska,G. Zapolska,Polish language,*Aniela Dulska
The Miser,Molière,French language,* A clerk
The Miracle Worker,W. Gibson,English language,Anagnos
The Lesson,E. Ionesco,French language,Professor • Pupil • Maid
The Lady from the Sea,H. Ibsen,Norwegian language,Arnholm
The House of Bernarda Alba,F. G. Lorca,Spanish language,Adela (20)
The Hook,A. Miller,English language,"Marty Ferarra, Therese Ferrara, Irene Ferrara, Mama, Barney, Rocky"
The Heidi Chronicles,W. Wasserstein,English language,Fran
The Great White Hope,H. Sackler,English language,Al Cameron
The Good Fairy,F. Molnár,Hungarian language,Dr. Sporum
"The Goat, or Who Is Sylvia?",E. Albee,English language,Billy
The Gin Game,D. L. Coburn,English language,Fonsia Dorsey
The Gas Heart,T. Tzara,French language,Ear
The Freedom of the City,B. Friel,English language,"""Skinner"" Fitzgerald"
The Field,J. B. Keane,English language,"""Bird"" O'Donnell"
The Female of the Species,J. Murray-Smith,English language,Bryan Thornton
The Elephant Man,B. Pomerance,English language,Carr Gomm
The Diary of Anne Frank,A. Hackett,English language,1st Man
The Devil,H. Javid,Azerbaijani language,Arif
The Desperate Hours,J. Hayes,English language,Chuck Wright
The Condemned of Altona,J. Sartre,French language,Father
The Colleen Bawn,D. Boucicault,English language,Anne Chute
The Cocktail Party,T. S. Eliot,English language,Alexander MacColgie Gibbs
The Chickencoop Chinaman,F. Chin,English,Charley Popcorn
The Chalk Circle,L. Qianfu,China,Bao Zheng
The Bald Soprano,E. Ionesco,French language,"*Mary, the maid"
The Bacchae,Euripides,Ancient Greek,Agave
That Championship Season,J. Miller,English language,George Sitkowski
Tereus,Sophocles,Ancient Greek,Possibly maidens fromThrace
Sunrise at Campobello,D. Schary,English language,Eleanor Roosevelt
Suicide in B Flat,S. Shepard,English language,Laureen
Street Scene,E. Rice,English language,* Anna Maurrant
Strawhead,N. Mailer,English language,Arthur Miller
Strange Interlude,E. O'Neill,English language,Charles Marsden
State of the Union,R. Crouse,English language,Bill Nolard Hardy
Star Spangled,R. Ardrey,English,"Mrs. Mary Dzieszienewski, Gregory, Stan, Vincent, Anna, Professor Niebieski, Czysko, Steve, Masters"
Sri Krishna Rayabaram,T. V. Kavulu,Telugu language,Arjuna
Sleep No More,M. Doyle,English language,"Annie Darcy,"
Slavs!,T. Kushner,English language,Kathrerina Serafima Gleb
Sive,J. B. Keane,English language,Carthalawn
Sing Me No Lullaby,R. Ardrey,English,"Mike Hertzog, Christine Collinger, Ben Collinger, Clay Dixon, Abe Levene, Maddy Hertzog, Fanny Collinger, Johnny Colton Smith, Parrish"
Silence,H. Pinter,English language,Bates
Side Man,W. Leight,English language,Al
Sheikh Sanan,H. Javid,Azerbaijani language,Khumar
Seven Deadly Sins Four Deadly Sinners,M. Sinden,English language,Four well-known actresses
Seascape,E. Albee,English language,Charlie
Scapin the Schemer,Molière,France,; Argante
Sarangadhara,G. Apparao,Telugu language,Chitrangi
Sangeet Sharada,G. B. Deval,Marathi language,*Bhadreshwar Dixit
Sanctuary,D. Williamson,English language,Bob King
Rough for Theatre II,S. Beckett,French language,A (Bertrand)
