col0,col1,col2,col3
Teoponte,Teoponte,426,-4
Teoponte,Teoponte,426,-4
"Silverton, British Columbia",British Columbia,550,-8
"Pritchard, British Columbia",British Columbia,360,-8
Port Blandford,Newfoundland and Labrador,39,-2:30
"Parker's Cove, Newfoundland and Labrador",Newfoundland and Labrador,90,-2:30
"Norton, North Carolina",North Carolina,1115,-4
"Hampden, Newfoundland and Labrador",Newfoundland and Labrador,100,-2:30
"Gay, North Carolina",North Carolina,701,-4
"Frank, North Carolina",North Carolina,908,-4
Cumbal,Colombia,4764,-5
Cumbal,Colombia,4764,-5
Comfort Cove-Newstead,Newfoundland and Labrador,11,-2:30
"Balfour, British Columbia",British Columbia,571,-8
