col0,col1,col2,col3,col4
J. Kolehmainen,Ottawa Senators,Finland,KalPa,1986-03-22
J. Juvonen,Nashville Predators,Finland,Lahti Pelicans,1994-10-03
J. Jokila,Columbus Blue Jackets,Finland,Milton Keynes Lightning,1982-04-22
J. Grönvall,Toronto Maple Leafs,Finland,Tappara,1973-07-17
J. Rita,Edmonton Oilers,Finland,Jokerit,1981-07-25
J. Lajunen,Nashville Predators,Espoo,Tappara,1990-06-16
J. Hurme,Ottawa Senators,Finland,Ilves,1975-01-07
J. Hakanpää,St. Louis Blues,Finland,Oulun Kärpät,1992-03-31
J. Zapletal,Tampa Bay Lightning,Czech Republic,Tampa Bay Lightning,1986-08-21
J. Srdínko,New Jersey Devils,Benešov,HC Slovan Bratislava,1974-02-22
J. Snopek,Edmonton Oilers,Czechoslovakia,HC České Budějovice,1976-06-21
J. Sandström,Mighty Ducks of Anaheim,Sweden,Luleå HF,1978-01-24
J. Němeček,Los Angeles Kings,Czechoslovakia,Los Angeles Kings,1976-02-14
J. Muršak,Detroit Red Wings,Socialist Federal Republic of Yugoslavia,HC CSKA Moscow,1988-01-20
J. Košťálek,Winnipeg Jets,Czech Republic,Winnipeg Jets,1995-02-17
J. Fadrný,Pittsburgh Penguins,Czechoslovakia,IHC Písek,1980-06-14
J. Chovan,Toronto Maple Leafs,Bratislava,HC Slovan Bratislava,1983-09-07
J. Bulis,Washington Capitals,Czechoslovakia,Traktor Chelyabinsk,1978-03-18
J. Juutilainen,Chicago Blackhawks,Espoo,KooKoo,1988-01-05
J. Tardif,Calgary Flames,Welland,Adler Mannheim,1985-01-23
J. Phillips,Winnipeg Jets,"Caledonia, Ontario",Winnipeg Jets,1993-03-24
J. Oleksiak,Dallas Stars,Toronto,Dallas Stars,1992-12-21
J. McGinn,San Jose Sharks,"Fergus, Ontario",Arizona Coyotes,1988-08-05
J. McBain,Carolina Hurricanes,"Edina, Minnesota",Arizona Coyotes,1988-02-25
J. Lundmark,New York Rangers,Alberta,EC KAC,1981-01-16
J. Devane,Toronto Maple Leafs,Canada,Stockton Heat,1991-02-20
J. Benn,Dallas Stars,"Victoria, British Columbia",Dallas Stars,1989-07-18
J. Arniel,Boston Bruins,Canada,Dornbirner EC,1989-11-16
J. v. Riemsdyk,Philadelphia Flyers,"Middletown Township, New Jersey",Toronto Maple Leafs,1989-05-04
J. Wright,Tampa Bay Lightning,Canada,Admiral Vladivostok,1990-03-24
J. Sheppard,Minnesota Wild,Canada,EHC Kloten,1988-04-25
J. Reimer,Toronto Maple Leafs,Winnipeg,Florida Panthers,1988-03-15
J. Neal,Dallas Stars,Oshawa,Nashville Predators,1987-09-03
J. Livingston,St. Louis Blues,History of Halifax,Dornbirner EC,1990-03-08
J. Desmarais,St. Louis Blues,Canada,Belfast Giants,1979-04-04
J. Pollock,St. Louis Blues,Canada,Thomas Sabo Ice Tigers,1979-06-16
J. Magloire,Charlotte Hornets,Toronto,Toronto Raptors,1978-05-21
J. Čutta,Washington Capitals,Czechoslovakia,SaiPa,1981-12-29
J. Zbořil,Boston Bruins,Czech Republic,Boston Bruins,1997-02-21
J. Vrána,Washington Capitals,Czech Republic,Washington Capitals,1996-02-28
J. Voráček,Columbus Blue Jackets,Czechoslovakia,Philadelphia Flyers,1989-08-15
J. Kovář,Philadelphia Flyers,Czechoslovakia,Severstal Cherepovets,1988-07-19
J. Koreis,Phoenix Coyotes,Czechoslovakia,HC Kometa Brno,1984-06-26
J. Klepiš,Ottawa Senators,Czechoslovakia,HC Oceláři Třinec,1984-06-05
J. Kindl,Detroit Red Wings,Czechoslovakia,Florida Panthers,1987-02-10
J. Culek,Ottawa Senators,Czech Republic,HC Plzeň,1992-09-07
J. Čutta,Washington Capitals,Czechoslovakia,SaiPa,1981-12-29
J. Silfverberg,Ottawa Senators,Sweden,Anaheim Ducks,1990-10-13
J. Forsbacka-Karlsson,Boston Bruins,Stockholm,Boston University,1996-10-31
J. Chychrun,Arizona Coyotes,"Boca Raton, Florida",Arizona Coyotes,1998-03-31
J. Virtanen,Vancouver Canucks,New Westminster,Vancouver Canucks,1996-08-17
J. Muzzin,Pittsburgh Penguins,"Woodstock, Ontario",Los Angeles Kings,1989-02-21
J. McCabe,Buffalo Sabres,"Eau Claire, Wisconsin",Buffalo Sabres,1993-10-12
J. Hansen,Columbus Blue Jackets,Minnesota,Ässät,1989-08-21
J. Gardiner,Anaheim Ducks,"Minneapolis, Minnesota",Toronto Maple Leafs,1990-07-04
J. Dowell,Chicago Blackhawks,United States,Rockford IceHogs,1985-03-04
J. Dotchin,Tampa Bay Lightning,"Cambridge, Ontario",Tampa Bay Lightning,1994-03-24
J. DeBrusk,Boston Bruins,Alberta,Boston Bruins,1996-10-17
J. Bean,Carolina Hurricanes,"Calgary, Alberta",Carolina Hurricanes,1998-06-09
J. Allen,St. Louis Blues,Fredericton,St. Louis Blues,1990-08-07
J. Schwartz,St. Louis Blues,"Melfort, Saskatchewan",St. Louis Blues,1992-06-25
Jacob de la Rose,Montreal Canadiens,Sweden,Montreal Canadiens,1995-05-20
J. Trouba,Winnipeg Jets,"Rochester, Michigan",Winnipeg Jets,1994-02-26
J. Moverare,Los Angeles Kings,Sweden,HV71,1998-08-31
J. Markström,Florida Panthers,Gävle,Vancouver Canucks,1990-01-31
J. Larsson,Anaheim Ducks,Sweden,Anaheim Ducks,1997-04-29
J. Lagace,Buffalo Sabres,"Beloeil, Quebec",Luleå HF,1990-01-09
J. Josefson,New Jersey Devils,Stockholm,New Jersey Devils,1991-03-02
J. DeSerres,Philadelphia Flyers,Alberta,Alaska Aces,1990-03-18
J. Cederholm,Winnipeg Jets,Sweden,HV71,1998-01-30
J. Skille,Chicago Blackhawks,United States,Vancouver Canucks,1987-05-19
J. Roslovic,Winnipeg Jets,Ohio,Winnipeg Jets,1997-01-29
J. Johnson,Carolina Hurricanes,Indianapolis,Columbus Blue Jackets,1987-01-13
J. Glover,Winnipeg Jets,Minnesota,Minnesota Golden Gophers men's ice hockey,1996-05-17
J. Eichel,Buffalo Sabres,Massachusetts,Buffalo Sabres,1996-10-28
J. Dougherty,Nashville Predators,Minnesota,Nashville Predators,1996-05-25
J. Campbell,Dallas Stars,"Port Huron, Michigan",Los Angeles Kings,1992-01-09
J. Slavin,Carolina Hurricanes,Colorado,Carolina Hurricanes,1994-05-01
J. Lipon,Winnipeg Jets,Canada,Winnipeg Jets,1993-07-10
J. T. Miller,New York Rangers,"East Palestine, Ohio",New York Rangers,1993-03-14
J. T. Compher,Buffalo Sabres,Illinois,Colorado Avalanche,1995-04-08
J. D. Watt,Calgary Flames,"Cremona, Alberta",SAIT Trojans,1987-05-25
J. Rēdlihs,Columbus Blue Jackets,Riga,Piráti Chomutov,1982-03-29
J. Sprukts,Florida Panthers,Riga,HC Fribourg-Gottéron,1982-01-31
J. Gauthier-Leduc,Buffalo Sabres,Canada,HC Dynamo Pardubice,1992-07-30
J. Roy,San Jose Sharks,Canada,San Jose Sharks,1997-05-14
J. Vas,Dallas Stars,Hungary,Alba Volán Székesfehérvár,1984-01-29
J. Tabaček,Anaheim Ducks,Czechoslovakia,HC Slovan Bratislava,1980-04-07
J. Lipiansky,Philadelphia Flyers,Bratislava,HC Slovan Bratislava,1974-07-23
I. Vishnevskiy,Dallas Stars,Russian Soviet Federative Socialist Republic,Torpedo Nizhny Novgorod,1988-02-18
I. Telegin,Atlanta Thrashers,Novokuznetsk,HC CSKA Moscow,1992-02-28
I. Rachůnek,Tampa Bay Lightning,Czechoslovakia,HC Sparta Praha,1981-07-06
I. Provorov,Philadelphia Flyers,Russia,Philadelphia Flyers,1997-01-13
I. Nepryaev,Washington Capitals,Soviet Union,Avangard Omsk,1982-02-04
I. Nalimov,Chicago Blackhawks,Novokuznetsk,Admiral Vladivostok,1994-08-12
I. Majeský,Florida Panthers,Czechoslovakia,Linköpings HC,1976-09-02
I. Huml,Boston Bruins,Czechoslovakia,Oulun Kärpät,1981-09-06
I. Fedotov,Philadelphia Flyers,Russia,Philadelphia Flyers,1996-11-28
I. Dornič,New York Rangers,Bratislava,MHC Martin,1985-04-14
I. Barbashev,St. Louis Blues,Moscow,St. Louis Blues,1995-12-14
I. Baranka,New York Rangers,Czechoslovakia,HC Vítkovice Steel,1985-05-19
I. Zubov,Ottawa Senators,Soviet Union,Avangard Omsk,1987-02-14
I. Sorokin,New York Islanders,Russia,HC CSKA Moscow,1995-08-04
I. Solaryov,Tampa Bay Lightning,Soviet Union,Danbury Whalers,1982-08-02
I. Samsonov,Washington Capitals,Russia,Metallurg Magnitogorsk,1997-02-22
I. Nikulin,Atlanta Thrashers,Moscow,Ak Bars Kazan,1982-03-12
I. Krikunov,Vancouver Canucks,Moscow,HC Sochi,1984-02-27
I. Kovalchuk,Atlanta Thrashers,Russian Soviet Federative Socialist Republic,SKA Saint Petersburg,1983-04-15
I. Kablukov,Vancouver Canucks,Moscow,SKA Saint Petersburg,1988-01-18
I. Gorokhov,New York Rangers,Russia,HC Sochi,1977-08-23
I. Pikkarainen,New Jersey Devils,Sonkajärvi,HC TPS,1981-04-19
I. Mikkola,Montreal Canadiens,Oulu,Oulun Kärpät,1979-01-18
I. Pakarinen,Florida Panthers,Suonenjoki,Edmonton Oilers,1991-08-25
I. Volkov,New York Islanders,Soviet Union,HC CSKA Moscow,1983-01-24
I. Valeev,St. Louis Blues,Russia,Chelmet Chelyabinsk,1981-01-09
I. Shestyorkin,New York Rangers,Moscow,SKA Saint Petersburg,1995-12-30
I. Radulov,Chicago Blackhawks,Soviet Union,HC Sochi,1982-08-23
I. Mirnov,Ottawa Senators,Soviet Union,Ak Bars Kazan,1984-09-15
I. Makarov,Chicago Blackhawks,Moscow,HC CSKA Moscow,1987-09-19
I. Karpenko,Mighty Ducks of Anaheim,Kiev,Sokil Kyiv,1976-07-23
I. Ignatushkin,Washington Capitals,Russian Soviet Federative Socialist Republic,HC Sochi,1984-04-07
I. Grigorenko,Detroit Red Wings,Soviet Union,Salavat Yulaev Ufa,1983-04-09
I. Bobkov,Anaheim Ducks,Russian Soviet Federative Socialist Republic,Admiral Vladivostok,1991-01-02
I. Schultz,St. Louis Blues,Alberta,Edinburgh Capitals,1990-02-04
I. McCoshen,Florida Panthers,United States,Florida Panthers,1995-08-05
I. Cole,St. Louis Blues,"Ann Arbor, Michigan",Pittsburgh Penguins,1989-02-21
H. Shinkaruk,Vancouver Canucks,Calgary,Calgary Flames,1994-10-13
H. Fasching,Los Angeles Kings,United States,Buffalo Sabres,1995-07-28
H. Zetterberg,Detroit Red Wings,Sundsvall,Detroit Red Wings,1980-10-09
H. Tömmernes,Vancouver Canucks,Sweden,Frölunda HC,1990-08-28
H. Sedin,Vancouver Canucks,Örnsköldsvik,Vancouver Canucks,1980-09-26
H. Samuelsson,Phoenix Coyotes,Pennsylvania,Arizona Coyotes,1994-02-07
H. Petré,Washington Capitals,Sweden,HC Slovan Bratislava,1979-04-09
H. Lundqvist,New York Rangers,Åre,New York Rangers,1982-03-02
H. Borgström,Florida Panthers,Finland,Denver Pioneers men's ice hockey,1997-08-06
H. Björklund,Calgary Flames,Karlstad,Färjestads BK,1990-09-22
