col0,col1,col2,col3
L. Walton,San Diego,Arizona Wildcats men's basketball,Los Angeles Lakers
L. Ridnour,"Coeur d'Alene, Idaho",Oregon Ducks men's basketball,Seattle SuperSonics
L. Jackson,"Eugene, Oregon",Oregon Ducks men's basketball,Cleveland Cavaliers
L. Harangody,"Decatur, Illinois",Notre Dame Fighting Irish men's basketball,Boston Celtics
L. Babbitt,Cincinnati,Nevada Wolf Pack men's basketball,Minnesota Timberwolves
L. Flores,Santo Domingo,Manhattan Jaspers basketball,Houston Rockets
L. Allen,"Kansas City, Kansas",UCLA Bruins men's basketball,Seattle SuperSonics
L. Jackson,"San Marcos, Texas",Texas–Pan American Broncs men's basketball,Philadelphia 76ers
L. Harris,California,Long Beach State 49ers men's basketball,Dallas Mavericks
Luc Mbah a Moute,Cameroon,UCLA Bruins men's basketball,Milwaukee Bucks
L. Longley,Melbourne,New Mexico Lobos men's basketball,Minnesota Timberwolves
L. Vaught,"Grand Rapids, Michigan",Michigan Wolverines men's basketball,Los Angeles Clippers
L. Petersen,"Anaheim, California",Oregon State Beavers men's basketball,Chicago Bulls
L. Moore,"Mount Vernon, New York",West Virginia Mountaineers men's basketball,New Jersey Nets
L. Bullock,"Washington, D.C.",Michigan Wolverines men's basketball,Minnesota Timberwolves
L. Nelson,Los Angeles,Washington Huskies men's basketball,Capital Bullets
L. Dampier,Indianapolis,Kentucky Wildcats men's basketball,Cincinnati Royals
L. Tsioropoulos,"Lynn, Massachusetts",Kentucky Wildcats men's basketball,Boston Celtics
L. Roe,"Atlantic City, New Jersey",UMass Minutemen basketball,Detroit Pistons
L. Pucillo,"Philadelphia, Pennsylvania",NC State Wolfpack men's basketball,St. Louis Hawks
L. Hudson,"Greensboro, North Carolina",Minnesota Golden Gophers men's basketball,St. Louis Hawks
L. Nero,"Baton Rouge, Louisiana",Auburn Tigers women's basketball,Houston Comets
L. Charles,Brooklyn,NC State Wolfpack men's basketball,Atlanta Hawks
L. Brown,"Roswell, Georgia",NC State Wolfpack men's basketball,Minnesota Timberwolves
L. Wright,"Memphis, Tennessee",Memphis Tigers men's basketball,Los Angeles Clippers
L. Woods,"St. Louis, Missouri",Wake Forest Demon Deacons men's basketball,Minnesota Timberwolves
L. Meyer,"Emmetsburg, Iowa",Iowa State Cyclones men's basketball,Dallas Mavericks
L. Moore,"Carson, California",Tennessee Lady Volunteers basketball,New York Liberty
L. Baxter,"Silver Spring, Maryland",Maryland Terrapins men's basketball,Chicago Bulls
L. Shelton,"Bakersfield, California",Oregon State Beavers men's basketball,New York Knicks
L. Lynn,Chicago,Upper Iowa Peacocks men's basketball,St. Louis Hawks
L. Walton,Chicago,Moberly Area Community College,Milwaukee Bucks
L. Sharrar,"Meadville, Pennsylvania",West Virginia Mountaineers men's basketball,Philadelphia Warriors
L. Neal,"Talbotton, Georgia",Tennessee State Tigers basketball,Portland Trail Blazers
L. Batts,Chicago,Cincinnati Bearcats men's basketball,Kansas City–Omaha Kings
L. Moeggenberg,"Empire, Michigan",Michigan State Spartans women's basketball,Phoenix Mercury
L. Cambage,London,"Padua College, Melbourne",Tulsa Shock
L. Green,"Pascagoula, Mississippi",Georgia Bulldogs basketball,Chicago Bulls
L. Willis,"Long Beach, California",UCLA Bruins women's basketball,Los Angeles Sparks
L. Leslie,"Gardena, California",USC Trojans women's basketball,Los Angeles Sparks
L. Harrison,"Louisville, Kentucky",Tennessee Lady Volunteers basketball,Phoenix Mercury
L. Simmons,Philadelphia,La Salle Explorers men's basketball,Sacramento Kings
L. Hollins,"Arkansas City, Kansas",Dixie State University,Portland Trail Blazers
L. Chalmers,"Albany, New York",Xavier Musketeers men's basketball,Los Angeles Clippers
L. Townes,"Richmond, Virginia",James Madison Dukes men's basketball,Portland Trail Blazers
L. Yamasaki,"Oregon City, Oregon",Stanford Cardinal women's basketball,Miami Sol
L. Pluimer,"Lakewood, California",UCLA Bruins women's basketball,Washington Mystics
L. Moore,"Tacoma, Washington",Nebraska Cornhuskers women's basketball,Minnesota Lynx
L. Hunter,"Utica, Mississippi",Alcorn State Braves men's basketball,Detroit Pistons
L. Harding,"Mobile, Alabama",Duke Blue Devils women's basketball,Phoenix Mercury
L. Wisdom-Hylton,"Naperville, Illinois",Purdue Boilermakers women's basketball,Los Angeles Sparks
L. Whalen,"Hutchinson, Minnesota",Minnesota Golden Gophers women's basketball,Connecticut Sun
L. Taylor,"Poway, California",UC Santa Barbara Gauchos,Houston Comets
L. Fröhlich,Pforzheim,UNLV Rebels women's basketball,New York Liberty
L. Kleiza,Soviet Union,Missouri Tigers men's basketball,Portland Trail Blazers
L. Lloyd,Philadelphia,New Mexico Military Institute,Golden State Warriors
L. Brown,Los Angeles,UNLV Runnin' Rebels basketball,Milwaukee Bucks
L. Massey,"Charlotte, North Carolina",Charlotte 49ers men's basketball,Los Angeles Lakers
L. Hitch,"Griggsville, Illinois",Kansas State Wildcats men's basketball,Minneapolis Lakers
L. Tart,"Marion, South Carolina",Bradley Braves men's basketball,Boston Celtics
L. Lane,"Purcell, Oklahoma",Oklahoma Sooners men's basketball,Philadelphia Warriors
L. Hudson,"Memphis, Tennessee",Tennessee–Martin Skyhawks men's basketball,Boston Celtics
L. Conner,"Memphis, Tennessee",Chabot College,Golden State Warriors
L. Jepsen,"Bowbells, North Dakota",Iowa Hawkeyes men's basketball,Golden State Warriors
L. Hunter,"Nashville, Tennessee",Loyola Ramblers men's basketball,Detroit Pistons
L. Wright,New York City,Pacific Tigers men's basketball,Boston Celtics
L. Loggins,"New Brunswick, New Jersey",Fairmont State University,Detroit Pistons
L. Gray,"Kansas City, Kansas",Long Beach State 49ers men's basketball,Seattle SuperSonics
L. Wood,"Columbia, South Carolina",Arizona Wildcats men's basketball,Philadelphia 76ers
L. Powe,"Oakland, California",California Golden Bears men's basketball,Denver Nuggets
L. Douglas,"Leighton, Alabama",Alabama Crimson Tide men's basketball,Detroit Pistons
L. Blevins,"Black Oak, Arkansas",Phoenix College,Indianapolis Olympians
L. Benbow,"Columbia, South Carolina",Jacksonville Dolphins men's basketball,Chicago Bulls
L. Rautins,Toronto,Syracuse Orange men's basketball,Philadelphia 76ers
L. Katkaveck,"Manchester, Connecticut",NC State Wolfpack men's basketball,Washington Capitols
L. Byrd,"Huntington, West Virginia",Marshall Thundering Herd men's basketball,Cincinnati Royals
L. Barnhorst,Indianapolis,Notre Dame Fighting Irish men's basketball,Indianapolis Jets
L. Austria,Philippines,Lyceum of the Philippines University,Shell Turbo Chargers
L. Wilkens,Brooklyn,Providence Friars men's basketball,St. Louis Hawks
L. Rzeszewski,"South Bend, Indiana",Indiana State Sycamores men's basketball,Fort Wayne Pistons
L. Rosenbluth,New York City,North Carolina Tar Heels men's basketball,Philadelphia Warriors
L. Kosmalski,Cleveland,Tennessee Volunteers basketball,Kansas City–Omaha Kings
L. Elmore,New York City,Maryland Terrapins men's basketball,Washington Bullets
L. Chappell,"Portage, Pennsylvania",Wake Forest Demon Deacons men's basketball,Syracuse Nationals
L. Bias,"Landover, Maryland",Maryland Terrapins men's basketball,Boston Celtics
L. Lampley,Chicago,DePaul Blue Demons men's basketball,Seattle SuperSonics
L. Mitchell,"Kiln, Mississippi",Pearl River Community College,St. Louis Hawks
L. Mitchell,"Richland, Washington",Idaho Vandals,Phoenix Mercury
L. Winfield,"St. Louis, Missouri",North Texas Mean Green men's basketball,Seattle SuperSonics
L. Shaffer,Chicago,North Carolina Tar Heels men's basketball,Syracuse Nationals
L. Nailon,"South Bend, Indiana",Butler Community College,Charlotte Hornets
L. Mayberry,"Tulsa, Oklahoma",Arkansas Razorbacks men's basketball,Milwaukee Bucks
L. Jung-suk,Korea,Yonsei University,Anyang KGC Pro Basketball Club
L. Johnson,"Plumerville, Arkansas",Texas A&M University–Commerce,Houston Rockets
L. Eackles,"Baton Rouge, Louisiana",San Jacinto College,Washington Bullets
L. Ellis,Queens,St. John's Red Storm men's basketball,Los Angeles Lakers
L. Ellis,Los Angeles,Kentucky Wildcats men's basketball,Los Angeles Clippers
L. Hayward,"Buffalo, New York",Marquette Golden Eagles men's basketball,Washington Wizards
L. Clarendon,"San Bernardino, California",California Golden Bears women's basketball,Indiana Fever
L. Roberts,Houston,Baylor Bears basketball,Seattle SuperSonics
L. Moten,"Washington, D.C.",Syracuse Orange men's basketball,Vancouver Grizzlies
L. Funderburke,"Columbus, Ohio",Indiana Hoosiers men's basketball,Sacramento Kings
L. Butler,"Glasgow, Missouri",Idaho State Bengals men's basketball,Chicago Bulls
L. Boston,Cleveland,Maryland Terrapins men's basketball,Washington Bullets
L. Allen,"Trenton, New Jersey",Temple Owls men's basketball,Philadelphia 76ers
L. Postell,"Albany, New York",St. John's Red Storm men's basketball,New York Knicks
L. Ervin,"Inglewood, California",Arkansas Lady Razorbacks basketball,Connecticut Sun
L. Harper,Philadelphia,Maryland Terrapins women's basketball,Sacramento Monarchs
L. Sprewell,Milwaukee,Three Rivers Community College,Golden State Warriors
L. Hansen,Copenhagen,Washington Huskies men's basketball,Chicago Bulls
L. Wright,"Monroe, Louisiana",Grambling State Tigers men's basketball,Washington Bullets
L. Steele,"Greencastle, Indiana",Kentucky Wildcats men's basketball,Portland Trail Blazers
L. Staverman,"Newport, Kentucky",Thomas More College,Cincinnati Royals
L. Spriggs,"Cheverly, Maryland",San Jacinto College,Houston Rockets
L. Smith,"Rolling Fork, Mississippi",Alcorn State Braves basketball,Golden State Warriors
L. Siegfried,"Shelby, Ohio",Ohio State Buckeyes men's basketball,Cincinnati Royals
L. Sanders,"Fort Pierce, Florida",VCU Rams men's basketball,Milwaukee Bucks
L. N. Jr.,"Akron, Ohio",Wyoming Cowboys basketball,Los Angeles Lakers
L. Nance,"Anderson, South Carolina",Clemson Tigers men's basketball,Phoenix Suns
L. Moffett,"Mobile, Alabama",UNLV Runnin' Rebels basketball,Houston Rockets
L. Miller,"Allentown, Pennsylvania",North Carolina Tar Heels men's basketball,Philadelphia 76ers
L. Mikan,"St. Louis Park, Minnesota",Minnesota Golden Gophers men's basketball,Los Angeles Lakers
L. Micheaux,Houston,Houston Cougars men's basketball,Chicago Bulls
L. McNeill,"Hoke County, North Carolina",Marquette Golden Eagles men's basketball,Kansas City–Omaha Kings
L. Krystkowiak,"Missoula, Montana",Montana Grizzlies men's basketball,Chicago Bulls
L. Killick,"Burlington, Vermont",Vermont Catamounts men's basketball,Baltimore Bullets
L. Kenon,"Birmingham, Alabama",Memphis Tigers men's basketball,Detroit Pistons
L. Jones,"Columbus, Ohio",Toledo Rockets men's basketball,Philadelphia 76ers
L. Johnson,"Tyler, Texas",UNLV Runnin' Rebels basketball,Charlotte Hornets
L. Johnson,"Morganfield, Kentucky",Kentucky Wildcats men's basketball,Buffalo Braves
L. Hughes,"St. Louis, Missouri",Saint Louis Billikens men's basketball,Philadelphia 76ers
L. Hennessy,"New Rochelle, New York",Villanova Wildcats men's basketball,Philadelphia Warriors
L. Friend,Chicago,California Golden Bears men's basketball,New York Knicks
L. Foust,"Painesville, Ohio",La Salle Explorers men's basketball,Chicago Stags
L. Fogle,Brooklyn,Canisius Golden Griffins men's basketball,New York Knicks
L. Drew,"Kansas City, Kansas",Missouri Tigers men's basketball,Detroit Pistons
L. Demic,"Gary, Indiana",Arizona Wildcats men's basketball,New York Knicks
L. Costello,"Minoa, New York",Niagara Purple Eagles men's basketball,Philadelphia Warriors
L. Cannon,Philadelphia,La Salle Explorers men's basketball,Chicago Bulls
L. Brown,Brooklyn,North Carolina Tar Heels men's basketball,Baltimore Bullets
L. Bird,"West Baden Springs, Indiana",Indiana State Sycamores men's basketball,Boston Celtics
L. Bergh,"Williston, North Dakota",Weber State Wildcats men's basketball,Chicago Bulls
L. Profit,"Charleston, South Carolina",Maryland Terrapins men's basketball,Orlando Magic
L. Ketner,Philadelphia,UMass Minutemen basketball,Chicago Bulls
L. Fields,"Long Beach, California",Stanford Cardinal men's basketball,New York Knicks
L. Stephenson,Brooklyn,Cincinnati Bearcats men's basketball,Indiana Pacers
L. Blanks,"Del Rio, Texas",Virginia Cavaliers men's basketball,Detroit Pistons
L. Gordon,"Jackson, Mississippi",Louisville Cardinals men's basketball,Los Angeles Clippers
L. Strothers,"Nansemond County, Virginia",Christopher Newport University,Golden State Warriors
L. Murray,"Pasadena, California",California Golden Bears men's basketball,Los Angeles Clippers
L. Patterson,"Lancaster, Pennsylvania",Pittsburgh Panthers men's basketball,Milwaukee Bucks
L. Odom,Queens,Rhode Island Rams men's basketball,Los Angeles Clippers
L. Green,"Birmingham, Alabama",Morehead State Eagles men's basketball,Phoenix Suns
L. Thomas,"Greenville, Mississippi",Mississippi State Lady Bulldogs basketball,Cleveland Rockers
L. Sanders,Nuremberg,North Carolina Tar Heels women's basketball,Phoenix Mercury
L. Bond,"Decatur, Illinois",Missouri Tigers women's basketball,Charlotte Sting
L. Barrett,"Jackson, Mississippi",LSU Lady Tigers basketball,Washington Mystics
L. Thompson,Cincinnati,Texas Longhorns men's basketball,Kansas City Kings
L. Martin,Chicago,Loyola Ramblers men's basketball,Portland Trail Blazers
L. Ellis,"East St. Louis, Illinois",Notre Dame Fighting Irish men's basketball,Denver Nuggets
L. Caufield,"Stroud, Oklahoma",Oklahoma Sooners women's basketball,Utah Starzz
L. Aldridge,Dallas,Texas Longhorns men's basketball,Chicago Bulls
L. Smith,"Bay City, Texas",Louisville Cardinals men's basketball,Washington Bullets
K. Irving,Melbourne,Duke Blue Devils men's basketball,Cleveland Cavaliers
