col0,col1,col2,col3
Zonocypretta,Cyprididae,VU,IUCN2.3
Zarigani,Cambaridae,DD,iucn3.1
Uramphisopus,Phreatoicidae,VU,IUCN2.3
Typhlocypris trigonella,Candonidae,VU,IUCN2.3
Typhlocypris cavicola,Candonidae,VU,IUCN2.3
Tropocyclops nananae,Cyclopidae,VU,IUCN2.3
Tropocyclops federensis,Cyclopidae,VU,IUCN2.3
Troglocaris anophthalmus,Atyidae,LC,IUCN3.1
Troglocambarus,Cambaridae,NT,iucn3.1
Thymopsis nilenta,Lobster,LC,iucn3.1
Thymops,Lobster,LC,iucn3.1
Thermosphaeroma thermophilum,Sphaeromatidae,EW,iucn2.3
Thermomesochra,Canthocamptidae,DD,IUCN2.3
Thermocyclops parvus,Cyclopidae,LR/cd,IUCN2.3
Thenus,Slipper lobster,LC,iucn3.1
Tenuibranchiurus,Parastacidae,EN,iucn3.1
Tasmanian giant freshwater crayfish,Parastacidae,EN,iucn3.1
Tachypleus tridentatus,Limulidae,DD,iucn2.3
Syntripsa flavichela,Parathelphusidae,LC,iucn3.1
Syncaris pasadenae,Atyidae,EX,IUCN2.3
Syncaris pacifica,Atyidae,EN,IUCN2.3
Stygodiaptomus petkovskii,Diaptomidae,VU,IUCN2.3
Stygodiaptomus kieferi,Diaptomidae,VU,IUCN2.3
Stygobromus pecki,Crangonyctidae,G1,TNC
Stygobromus lucifugus,Crangonyctidae,EX,IUCN2.3
Stygobromus kenki,Crangonyctidae,G2,TNC
Stygobromus hayi,Crangonyctidae,G1,TNC
Streptocephalus woottoni,Streptocephalidae,EN,IUCN2.3
Streptocephalus moorei,Streptocephalidae,CR,IUCN2.3
Streptocephalus kargesi,Streptocephalidae,DD,IUCN2.3
Streptocephalus guzmani,Streptocephalidae,EN,IUCN2.3
Streptocephalus gracilis,Streptocephalidae,CR,IUCN2.3
Streptocephalus dendyi,Streptocephalidae,EN,IUCN2.3
Streptocephalus dendrophorus,Streptocephalidae,EN,IUCN2.3
Sri Lanka tree crab,Gecarcinucidae,LC,iucn3.1
Speocirolana thermydronis,Cirolanidae,EN,IUCN2.3
Speleophria scottodicarloi,Speleophriidae,CR,IUCN2.3
Speleophria bivexilla,Speleophriidae,CR,IUCN2.3
Speleoithona bermudensis,Speleoithonidae,CR,IUCN2.3
Spelaeorchestia,Talitridae,EN,iucn2.3
Spelaeodiaptomus,Diaptomidae,DD,IUCN2.3
Smalleyus,Pseudothelphusidae,DD,iucn3.1
Signal crayfish,Astacidae,LC,iucn3.1
