col0,col1,col2,col3,col4,col5
"William Pitt, 1st Earl of Chatham",England,"Hester Pitt, Countess of Chatham","Trinity College, Oxford",England,1708-11-15
"William Lamb, 2nd Viscount Melbourne",Hertfordshire,L. C. Lamb,"Trinity College, Cambridge",London,1779-03-15
"William Cavendish-Bentinck, 3rd Duke of Portland",Buckinghamshire,"Dorothy Bentinck, Duchess of Portland","Christ Church, Oxford",Nottinghamshire,1738-04-14
V. Holubovych,Soviet Union,T. Kardynalovska,Kiev Polytechnic Institute,Russian Empire,1885-2-1
T. Bratteli,Norway,R. Bratteli,University of Oslo,Norway,1910-01-11
T. Padoa-Schioppa,Rome,F. Kostoris,Massachusetts Institute of Technology,Belluno,1940-07-23
"Thomas Pelham-Holles, 1st Duke of Newcastle",London,"Harriet Pelham-Holles, Duchess of Newcastle-upon-Tyne","Clare College, Cambridge",London,1693-07-21
T. Miki,Empire of Japan,M. Miki,University of Southern California,Empire of Japan,1907-03-17
T. Erlander,Stockholm,A. Erlander,Lund University,Ransäter,1901-06-13
S. Baldwin,Stourport-on-Severn,"Lucy Baldwin, Countess Baldwin of Bewdley","Trinity College, Cambridge",Bewdley,1867-08-03
R. Walpole,Kingdom of Great Britain,M. L. Walpole,"King's College, Cambridge",Kingdom of England,1676-08-26
"Robert Gascoyne-Cecil, 3rd Marquess of Salisbury","Hatfield, Hertfordshire","Georgina Gascoyne-Cecil, Marchioness of Salisbury","Christ Church, Oxford","Hatfield, Hertfordshire",1830-02-03
O. Awolowo,Ogun State,Hannah Idowu Dideolu Awolowo,University of London,"Western Region, Nigeria",1909-03-06
M. Imru,Addis Ababa,Ethiopian aristocratic and court titles,Oxford University,Addis Ababa,1929-11-10
L. S. Laurent,Quebec,J. Renault,Université Laval,"Compton, Quebec",1882-02-01
Jan Kappeyne van de Coppello,Netherlands,Bachelor,University of Leiden,Netherlands,1822-10-02
J. Parizeau,Montreal,L. Lapointe,London School of Economics,Montreal,1930-08-09
"Henry John Temple, 3rd Viscount Palmerston",Hertfordshire,"Emily Lamb, Countess Cowper",University of Cambridge,Westminster,1784-10-20
H. Campbell-Bannerman,London,C. L. Campbell-Bannerman,"Trinity College, Cambridge",Glasgow,1836-09-07
