col0,col1,col2,col3,col4
P. Lund,"Rice Lake, Wisconsin",Minneapolis,Minnesota Golden Gophers football,1913-04-08
O. Pommerening,"Ann Arbor, Michigan","West Bloomfield Township, Michigan",Michigan Wolverines football,1904-01-26
O. Kuhn,"Nashville, Tennessee","Tampa, Florida",Notre Dame Fighting Irish football,1898-08-14
N. Caton,"River Falls, Alabama","Birmingham, Alabama",Auburn Tigers football,1897-02-17
N. Storter,"Everglades City, Florida","Brownsville, Texas",Florida Gators football,1890-10-03
L. McClung,"Knoxville, Tennessee",London,Yale Bulldogs football,1870-03-26
L. Kelley,"Conneaut, Ohio","Hightstown, New Jersey",Yale Bulldogs football,1915-05-30
L. Dupree,"Baker County, Florida","Macclenny, Florida",Florida Gators football,1943-12-22
L. Sarra,Florida,"Jacksonville, Florida",Florida Gators football,1904-09-11
J. DeWitt,"Phillipsburg, New Jersey",New York City,Princeton Tigers football,1881-10-29
J. Steele,"Tampa, Florida","Hillsborough County, Florida",Florida Gators football,1909-12-11
J. Berwanger,"Dubuque, Iowa","Oak Brook, Illinois",Chicago Maroons football,1914-03-19
J. P. Lee,New York City,"Southampton, New York",Columbia University,1870-06-06
H. D. Phillips,Philadelphia,"Boone, North Carolina",Sewanee Tigers football,1882-01-16
H. Dowling,"Savannah, Georgia","Tallahassee, Florida",Georgia Tech Yellow Jackets football,1895-11-12
G. Goldstein,New Jersey,"Miami-Dade County, Florida",Florida Gators football,1904-07-17
G. Gipp,Michigan,"South Bend, Indiana",Notre Dame Fighting Irish football,1895-02-18
G. Adee,"Stonington, Connecticut",New York City,Yale Bulldogs football,1874-01-04
F. Steketee,"Grand Rapids, Michigan","Lansing, Michigan",Michigan Wolverines football,1900-04-26
F. K. Ferguson,San Marco,"Coral Gables, Florida",Florida Gators football,1919-06-21
E. Hart,"Exeter, New Hampshire",Toronto,Princeton Tigers football,1887-05-26
E. Taylor,"Ashland, Kansas","Gainesville, Florida",Florida Gators football,1891-02-02
E. R. Moulton,"Mobile, Alabama","Rome, Georgia",Auburn Tigers football,1900-04-21
D. Blanchard,South Carolina,"Bulverde, Texas",North Carolina Tar Heels,1924-12-11
D. Kazmaier,Maumee River,Boston,Princeton Tigers football,1930-11-23
D. V. Sickel,"Eatonton, Georgia","Newport Beach, California",Florida Gators football,1907-11-29
C. Frank,"St. Louis, Missouri","Evanston, Illinois",Yale Bulldogs football,1915-09-13
C. LaPradd,"St. Augustine, Florida","Gainesville, Florida",Florida Gators football,1927-08-24
C. Chadwick,"Brooklyn, New York",Boston,Yale Bulldogs football,1874-11-19
B. B. Edwards,"Lisle, New York",Manhattan,Princeton Tigers football,1877-02-23
A. Pew,"Damascus, Georgia",Paris,Georgia Bulldogs football,1898-03-26
A. Newton,"Camden, Arkansas","Nashville, Tennessee",Hendrix College,1903-01-31
A. Benbrook,"Chicago, Illinois",Dallas,Michigan Wolverines football,1887-08-24
