col0,col1,col2,col3,col4
Carlyle Lake,"Carlyle, Illinois",Kaskaskia River,3,136794
Caniapiscau Reservoir,"Caniapiscau, Quebec",Caniapiscau River,49,4850000
Candlewood Lake,"Danbury, Connecticut",Housatonic River,12,96560
Canandaigua Lake,Canandaigua,Canandaigua Outlet,38,57936
Brandy Pond,"Naples, Maine",Songo River,4,9977
Brabrand Lake,Aarhus,Aarhus River,0,8000
Blue River Reservoir,Unincorporated area,Blue River,27,27358
Baskatong Reservoir,"Grand-Remous, Quebec",Gatineau River,96,2800000
Baltic Sea,Copenhagen,Danish Straits,55,8000000
Balch Pond,"Acton, Maine",Little Ossipee River,3,16254
Albysjön,Botkyrka,Vårbyfjärden,8,6470
Adriatic Sea,Ancona,Ionian Sea,252,3739100
