col0,col1,col2,col3
Catch My Soul,W. Shakespeare,Othello,R. Pohlman
Catch Me If You Can,T. McNally,Catch Me If You Can,M. Shaiman
Carrie,L. D. Cohen,Stephen King,M. Gore
Carousel,O. H. II,Ferenc Molnár,R. Rodgers
Carnival in Flanders,P. Sturges,Cinema of France,J. V. Heusen
Carnival!,M. Stewart,Lili,B. Merrill
Carmen Jones,O. H. II,Georges Bizet,G. Bizet
Carmelina,A. J. Lerner,"Buona Sera, Mrs. Campbell",B. Lane
Canterbury Tales,N. Coghill,Canterbury Tales,R. Hill
Candide,H. Wheeler,Candide,L. Bernstein
Camelot,A. J. Lerner,T. H. White,F. Loewe
Calamity Jane,R. Hanmer,Calamity Jane,S. Fain
Cabaret,J. Masteroff,Christopher Isherwood,J. Kander
By Jeeves,A. Ayckbourn,P. G. Wodehouse,A. L. Webber
Busker Alley,A. Carothers,Sidewalks of London,R. B. Sherman
Bugs Bunny on Broadway,G. Daugherty,Looney Tunes,M. Franklyn
Bubble Boy,C. Paul,Bubble Boy,C. Paul
Bring It On the Musical,J. Whitty,Bring It On,L. Miranda
Bring Back Birdie,M. Stewart,Bye Bye Birdie,C. Strouse
Bridget Jones' Diary,H. Fielding,Bridget Jones's Diary,L. Allen
Breakfast at Tiffany's,E. Albee,Breakfast at Tiffany's,B. Merrill
Black Nativity,L. Hughes,Nativity play,L. Hughes
Billy Elliot the Musical,L. Hall,Billy Elliot,E. John
Billy Bishop Goes to War,J. M. Gray,Billy Bishop,J. M. Gray
