col0,col1,col2,col3
A. Hughes,Canada,New York Americans,1969-11-07
A. Holway,Canada,National Hockey League,1968-11-20
A. Suomi,Illinois,Chicago Blackhawks,2014-09-23
A. Rollins,Alberta,Chicago Blackhawks,1996-07-27
A. Purvis,British Columbia,Edmonton Mercurys,2009-08-13
A. Murray,Canada,New York Americans,1982-01-07
A. Millar,Florida,Boston Bruins,1987-12-20
A. Huggins,Canada,Montreal Maroons,1991-07-28
A. Kukulowicz,Canada,New York Rangers,2008-09-26
A. S. John,Austria,Innsbrucker EV,2009-12-18
A. Bailey,Canada,Toronto Maple Leafs,1992-04-07
A. Newell,California,Vancouver Maroons,1967-05-05
A. Newsome,Alberta,Edmonton Mercurys,1979-0-0
A. DeMarco,Canada,Boston Bruins,1989-05-26
A. Honkavaara,Tampere,International Hockey League,2016-03-22
Ē. Koņeckis,Dortmund,Krefeld Pinguine,2006-02-02
É. Bouchard,Canada,Montreal Canadiens,2012-04-14
