col0,col1,col2,col3
Torna!,M. Serandrei,R. Matarazzo,A. D. Benedetti
Torment,M. Serandrei,R. Matarazzo,R. Matarazzo
Torment,O. Rosander,A. Sjöberg,I. Bergman
Torchy Blane in Chinatown,F. Richards,W. Beaudine,M. Leinster
Torch Song,A. Akst,C. Walters,J. M. Hayes
Torch Singer,E. Warren,A. Hall,L. J. Coffee
Tora! Tora! Tora!,J. E. Newcom,K. Fukasaku,A. Kurosawa
Topper Returns,J. Newcom,R. D. Ruth,J. Latimer
Topaze,W. Hamilton,D. D'Arrast,B. Hecht
Topaz,W. H. Ziegler,A. Hitchcock,S. A. Taylor
Top o' the Morning,A. P. Schmidt,D. Miller,R. L. Breen
Top Star,P. Gok-ji,P. Joong-hoon,P. Joong-hoon
Top Speed,H. Young,M. LeRoy,B. Kalmar
Top Secret!,F. Bonnot,D. Zucker,M. Burke
Top Hat,W. Hamilton,M. Sandrich,D. Taylor
Top Gun,H. Adams,R. Nazarro,R. Schayer
Top Gun,C. Lebenzon,T. Scott,J. Cash
Tootsie,F. Steinkamp,S. Pollack,B. Levinson
Toothache,A. Kiarostami,A. Kiarostami,A. Kiarostami
Tooth Fairy,D. Finfer,M. Lembeck,L. Ganz
Toomorrow,A. Osbiston,V. Guest,V. Guest
Toomelah,I. Sen,I. Sen,I. Sen
Too Young to Kiss,C. A. Nervig,R. Z. Leonard,A. Hackett
Too Much Johnson,D. Arzner,D. Crisp,T. J. Geraghty
Too Much Johnson,O. Welles,O. Welles,O. Welles
Too Much Harmony,R. C. Currier,A. E. Sutherland,J. L. Mankiewicz
Too Many Parents,E. Dmytryk,R. F. McGowan,V. V. Upp
Too Many Husbands,W. A. Lyon,W. Ruggles,C. Binyon
Too Many Girls,W. Hamilton,G. Abbott,J. Twist
Too Many Crooks,B. Lewthwaite,M. Zampi,C. Rochefort
Too Many Cooks,A. Roberts,W. A. Seiter,J. Murfin
Too Many Blondes,B. W. Burton,T. Freeland,M. Shane
Too Late the Hero,M. Luciano,R. Aldrich,R. Aldrich
Too Late Blues,A.C.E.,J. Cassavetes,J. Cassavetes
Too Hot to Handle,L. Carruthers,T. Young,H. Kretzmer
Too Busy to Work,A. Troffey,J. G. Blystone,P. Klein
Tony Rome,R. L. Simpson,G. Douglas,R. L. Breen
Tons of Money,M. Rogers,T. Walls,H. Wilcox
Tonio Kröger,H. Genée,R. Thiele,E. Mann
Tonight or Never,N. Companéez,M. Deville,M. Deville
Tonight and Every Night,V. Lawrence,V. Saville,L. Samuels
Tonight We Sing,D. Spencer,M. Leisen,S. Hurok
Toni,M. Renoir,J. Renoir,J. Renoir
Tomorrow at Dawn,Y. Kergoat,D. Dercourt,D. Dercourt
Tomorrow We Live,D. Milner,E. G. Ulmer,B. Lytton
Tomorrow Never Comes,J. Shirley,P. Collinson,S. Banks
"Tomorrow, the World!",A. Bauchens,L. Fenton,R. L. Jr.
"Tomorrow, When the War Began",M. D'Arcy,S. Beattie,S. Beattie
Tommy Tricker and the Stamp Traveller,A. Corriveau,M. Rubbo,M. Rubbo
Tommy Atkins,S. Simmonds,N. Walker,I. Hay
Tommy,S. Baird,K. Russell,K. Russell
Tommaso,M. Spoletini,K. R. Stuart,K. R. Stuart
Tomfoolery,H. Wolff,W. Forst,W. Forst
Tomcats,H. Keramidas,G. Poirier,G. Poirier
Tombstone,F. J. Urioste,G. P. Cosmatos,K. Jarre
Tom on Mars,A. Severny,A. Severny,A. Severny
Tom at the Farm,X. Dolan,X. Dolan,X. Dolan
"Tom Sawyer, Detective",E. Hoagland,L. King,L. R. Foster
Tom Jones,A. Gibbs,T. Richardson,J. Osborne
"Tom, Dick and Harry",J. Sturges,G. Kanin,P. Jarrico
Tol'able David,W. D. Mansfield,H. King,E. Goulding
Tokyo Rose,H. Adams,L. Landers,M. Shane
Tokyo Pop,K. Boden,F. R. Kuzui,F. R. Kuzui
Tokyo Joe,V. Lawrence,S. Heisler,C. Hume
Tokyo Gore Police,Y. Nishimura,Y. Nishimura,Y. Nishimura
Tokyo Fist,S. Tsukamoto,S. Tsukamoto,S. Tsukamoto
Together Alone,P. J. Castellaneta,P. J. Castellaneta,P. J. Castellaneta
Todo un hombre,C. Rinaldi,P. Chenal,H. Manzi
Today and Tomorrow,N. Goldbart,A. Chomski,A. Chomski
Today,R. Mirkarimi,R. Mirkarimi,R. Mirkarimi
Toby McTeague,Y. Langlois,J. Lord,J. Maguire
Tobruk,R. C. Jones,A. Hiller,L. Gordon
To the Four Winds,J. Busto,A. F. Bustamante,A. F. Bustamante
To a Tee,M. Riddlehoover,M. Riddlehoover,M. Riddlehoover
"To Wong Foo, Thanks for Everything! Julie Newmar",A. Mondshein,B. Kidron,D. C. Beane
To Stay Alive,D. Mehrjui,D. Mehrjui,D. Mehrjui
To Rome with Love,A. Lepselter,W. Allen,W. Allen
To Please a Lady,R. Kern,C. Brown,B. Lyndon
To New Shores,M. Harbich,D. Sirk,D. Sirk
To Live,Y. Bykov,Y. Bykov,Y. Bykov
To Live,G. Fatigati,G. Brignone,G. Brignone
To Kill a Mockingbird,A.C.E.,R. Mulligan,H. Foote
To Kill a Child,G. Werner,G. Werner,S. Dagerman
To Joy,O. Rosander,I. Bergman,I. Bergman
To Jennifer,J. C. Bressack,J. C. Bressack,J. C. Bressack
To Have and to Hold,J. Needs,G. Grayson,G. Grayson
To Have and Have Not,C. Nyby,H. Hawks,W. Faulkner
To Fly!,A. Hammid,G. MacGillivray,G. MacGillivray
To Each His Own,A. Macrorie,M. Leisen,D. Smith
To Each His Life,J. Busto,J. Bracho,J. Bracho
To Dorothy a Son,A. Roome,M. Box,R. MacDougall
To Catch a Thief,G. Tomasini,A. Hitchcock,J. M. Hayes
To Catch a Spy,J. Bloom,D. Clement,D. Clement
To Be or Not to Be,D. Spencer,E. Lubitsch,M. Lengyel
To Be and to Have,N. Philibert,N. Philibert,N. Philibert
To Age or Not to Age,R. K. Pappas,R. K. Pappas,R. K. Pappas
Tkaronto,J. O'Connor,S. Belcourt,S. Belcourt
Titus,F. Bonnot,J. Taymor,J. Taymor
Titli,N. Rao,K. Behl,S. Katariya
Titicut Follies,F. Wiseman,F. Wiseman,F. Wiseman
Titanic,R. A. Harris,J. Cameron,J. Cameron
Titanic,L. R. Loeffler,J. Negulesco,C. Brackett
Tish,R. Kern,S. S. Simon,M. R. Rinehart
Tirza,J. t. Burg,Rudolf van den Berg,A. Grunberg
Tired Theodore,M. Dübber,G. v. Cziffra,M. Neal
Tip-Off Girls,E. Hoagland,L. King,M. Shane
Tiovivo c. 1950,J. L. Garci,J. L. Garci,J. L. Garci
Tin Pan Alley,W. A. Thompson,W. Lang,R. Ellis
Tin Men,S. Linder,B. Levinson,B. Levinson
Timeslip,G. Muller,K. Hughes,C. E. Maine
Times and Winds,R. Erdem,R. Erdem,R. Erdem
Timeline,R. Marks,R. Donner,G. Nolfi
Timeless,A. Tuschinski,A. Tuschinski,A. Tuschinski
Time of Love,M. Makhmalbaf,M. Makhmalbaf,M. Makhmalbaf
Time of Indifference,R. Mastroianni,F. Maselli,F. Maselli
Time for Revenge,E. López,A. Aristarain,A. Aristarain
Time for Loving,R. Crociani,C. Vanzina,C. Vanzina
Time and Tide,M. Mak,T. Hark,T. Hark
Time Without Pity,A. Osbiston,J. Losey,B. Barzman
Time Out of Mind,T. J. Kent,R. Siodmak,R. Field
Time Out,R. Campillo,L. Cantet,L. Cantet
Time Limit,A. Stell,K. Malden,H. Denker
Time Lapse,T. Cross,B. D. King,B. Cooper
Time Bandits,J. Doyle,T. Gilliam,T. Gilliam
Time After Time,D. Cambern,N. Meyer,N. Meyer
Time,S. Urs,G. Krishna,G. Krishna
Timberjack,Richard L. Van Enger,J. Kane,A. Rivkin
Timber Queen,V. Lewis,F. McDonald,M. Shane
Tim and Eric's Billion Dollar Movie,D. Lussenhop,E. Wareheim,E. Wareheim
Tim Tyler's Luck,A. Todd,F. Beebe,L. Young
Tilva Roš,N. Ležaić,N. Ležaić,N. Ležaić
Tilly of Bloomsbury,T. Dickinson,J. Raymond,W. P. Lipscomb
Till the Clouds Roll By,H. S. Sr.,B. Berkeley,J. L. Mahin
Till We Meet Again,E. Veron,F. Borzage,L. J. Coffee
Till Marriage Do Us Part,N. Baragli,L. Comencini,L. Comencini
Till I Come Back to You,A. Bauchens,C. B. DeMille,J. MacPherson
Tik Tik Tik,K. V. Rao,P. Bharathiraja,P. Bharathiraja
Tight Spot,V. Lawrence,P. Karlson,W. Bowers
Tigers in Lipstick,F. Fraticelli,L. Zampa,T. Guerra
Tigerland,M. Stevens,J. Schumacher,M. McGruther
Tiger Shark,T. Pratt,H. Hawks,H. Branch
Tiger Fangs,G. M. Merrick,S. Newfield,A. S. Claire
Tiger Bay,S. Hayers,J. L. Thompson,J. Hawkesworth
Tiefland,L. Riefenstahl,L. Riefenstahl,L. Riefenstahl
Tideland,L. Walker,T. Gilliam,T. Gilliam
Tide of Empire,B. Sewell,A. Dwan,W. Young
Tiara Tahiti,A. Gibbs,T. Kotcheff,I. Foxwell
Thérèse Raquin,H. Rust,M. Carné,É. Zola
Thursday's Child,F. Newton,R. Ackland,R. Ackland
Thuppakki,A. S. Prasad,A. Murugadoss,A. Murugadoss
Thunichal,M. S. Suriya,Majith,Majith
Thundering Thompson,E. Turner,B. F. Wilson,R. Dillon
Thunderbolt and Lightfoot,F. Webster,M. Cimino,M. Cimino
Thunderbolt,C. Ka-fai,G. Chan,G. Chan
Thunderbirds,M. Walsh,J. Frakes,M. McCullers
Thunderbirds,Richard L. Van Enger,J. H. Auer,"Mary C. McCall, Jr."
Thunderball,P. R. Hunt,T. Young,R. Maibaum
Thunder on the Hill,T. J. Kent,D. Sirk,A. Solt
