col0,col1,col2,col3,col4,col5,col6
Roman Catholic Archdiocese of Visakhapatnam,Visakhapatnam,Visakhapatnam,Visakhapatnam,Visakhapatnam,25950000000,25950000000
Roman Catholic Archdiocese of Vilnius,Vilnius,Vilnius,Vilnius,Vilnius,9644000000,9644000000
Roman Catholic Archdiocese of Villavicencio,Villavicencio,Villavicencio,Villavicencio,Villavicencio,65470000000,65470000000
Roman Catholic Archdiocese of Veszprém,Veszprém,Veszprém,Veszprém,Veszprém,6920000000,6920000000
Roman Catholic Archdiocese of Vercelli,Vercelli,Vercelli,Vercelli,Vercelli,1658000000,1658000000
Roman Catholic Archdiocese of Venice,Venice,Venice,Venice,Venice,871000000,871000000
Roman Catholic Archdiocese of Valencia in Spain,Valencia,Valencia,Valencia,Valencia,13060000000,13060000000
Roman Catholic Archdiocese of Urbino-Urbania-Sant'Angelo in Vado,Roman Catholic Archdiocese of Pesaro,Roman Catholic Archdiocese of Pesaro,Roman Catholic Archdiocese of Pesaro,Roman Catholic Archdiocese of Pesaro,781000000,781000000
Roman Catholic Archdiocese of Udine,Udine,Udine,Udine,Udine,4500000000,4500000000
Roman Catholic Archdiocese of Uberaba,Uberaba,Uberaba,Uberaba,Uberaba,27228000000,27228000000
Roman Catholic Archdiocese of Tuguegarao,Tuguegarao,Tuguegarao,Tuguegarao,Tuguegarao,9000000000,9000000000
Roman Catholic Archdiocese of Trivandrum,Thiruvananthapuram,Thiruvananthapuram,Thiruvananthapuram,Thiruvananthapuram,686000000,686000000
Roman Catholic Archdiocese of Trento,Trento,Provincia di Trento,Trento,Provincia di Trento,6212000000,6212000000
Roman Catholic Archdiocese of Trani-Barletta-Bisceglie,Roman Catholic Archdiocese of Bari-Bitonto,Roman Catholic Archdiocese of Bari-Bitonto,Roman Catholic Archdiocese of Bari-Bitonto,Roman Catholic Archdiocese of Bari-Bitonto,701000000,701000000
Roman Catholic Archdiocese of Tours,Tours,Tours,Tours,Tours,6158000000,6158000000
Roman Catholic Archdiocese of Toulouse,Toulouse,Toulouse,Toulouse,Toulouse,6372000000,6372000000
Roman Catholic Archdiocese of Toledo,"Toledo, Spain","Toledo, Spain","Toledo, Spain","Toledo, Spain",19333000000,19333000000
Roman Catholic Archdiocese of Tokyo,Tokyo,Tokyo,Tokyo,Tokyo,7316000000,7316000000
Roman Catholic Archdiocese of Tlalnepantla,Tlalnepantla de Baz,Tlalnepantla de Baz,Tlalnepantla de Baz,Tlalnepantla de Baz,681166873,681166873
Roman Catholic Archdiocese of Tegucigalpa,Tegucigalpa,Tegucigalpa,Tegucigalpa,Tegucigalpa,15167000000,15167000000
Roman Catholic Archdiocese of Taunggyi,Taunggyi,Taunggyi,Taunggyi,Taunggyi,26850000000,26850000000
Roman Catholic Archdiocese of Tarragona,Tarragona,Tarragona,Tarragona,Tarragona,3146000000,3146000000
Roman Catholic Archdiocese of Taranto,Taranto,Taranto,Taranto,Taranto,1056000000,1056000000
Roman Catholic Archdiocese of Taiyuan,Taiyuan,Taiyuan,Taiyuan,Taiyuan,16000000000,16000000000
Roman Catholic Archdiocese of Taipei,Taipei,Taipei,Taipei,Taipei,4590000000,4590000000
Roman Catholic Archdiocese of São Luís do Maranhão,São Luís do Maranhão,São Luís do Maranhão,São Luís do Maranhão,São Luís do Maranhão,11622000000,11622000000
Roman Catholic Archdiocese of Sydney,Sydney,Sydney,Sydney,Sydney,1264000000,1264000000
Roman Catholic Archdiocese of Sucre,Sucre,Sucre,Sucre,Sucre,49975000000,49975000000
Roman Catholic Archdiocese of St. Louis,"St. Louis County, Missouri","St. Louis County, Missouri","St. Louis County, Missouri","St. Louis County, Missouri",15457049042,15457049042
Roman Catholic Archdiocese of Spoleto-Norcia,Holy See,Holy See,Holy See,Holy See,1836000000,1836000000
Roman Catholic Archdiocese of Split-Makarska,"Split, Croatia","Split, Croatia","Split, Croatia","Split, Croatia",4088000,4088000
Roman Catholic Archdiocese of Southwark,Province of Southwark,Province of Southwark,Province of Southwark,Province of Southwark,3000000000,3000000000
Roman Catholic Archdiocese of Sorrento-Castellammare di Stabia,Roman Catholic Archdiocese of Naples,Roman Catholic Archdiocese of Naples,Roman Catholic Archdiocese of Naples,Roman Catholic Archdiocese of Naples,205000000,205000000
Roman Catholic Archdiocese of Sorocaba,Sorocaba,Sorocaba,Sorocaba,Sorocaba,4178000000,4178000000
Roman Catholic Archdiocese of Shillong,Shillong,Shillong,Shillong,Shillong,5196000000,5196000000
Roman Catholic Archdiocese of Seville,Seville,Seville,Seville,Seville,14036000000,14036000000
Roman Catholic Archdiocese of Sens,Roman Catholic Archdiocese of Dijon,Roman Catholic Archdiocese of Dijon,Roman Catholic Archdiocese of Dijon,Roman Catholic Archdiocese of Dijon,7460000000,7460000000
Roman Catholic Archdiocese of Semarang,Semarang,Semarang,Semarang,Semarang,21196000000,21196000000
Roman Catholic Archdiocese of Sassari,Sassari,Sassari,Sassari,Sassari,1978000000,1978000000
Roman Catholic Archdiocese of Santa Maria,"Santa Maria, Rio Grande do Sul","Santa Maria, Rio Grande do Sul","Santa Maria, Rio Grande do Sul","Santa Maria, Rio Grande do Sul",18866000000,18866000000
Roman Catholic Archdiocese of Santa Fe de Antioquia,Santa Fe de Antioquia,Santa Fe de Antioquia,Santa Fe de Antioquia,Santa Fe de Antioquia,11803000000,11803000000
Roman Catholic Archdiocese of Santa Fe,"Santa Fe County, New Mexico","Santa Fe County, New Mexico","Santa Fe County, New Mexico","Santa Fe County, New Mexico",158357053042,158357053042
Roman Catholic Archdiocese of Santa Cruz de la Sierra,Santa Cruz de la Sierra,Santa Cruz de la Sierra,Santa Cruz de la Sierra,Santa Cruz de la Sierra,50000000000,50000000000
Roman Catholic Archdiocese of Sant'Angelo dei Lombardi-Conza-Nusco-Bisaccia,Roman Catholic Archdiocese of Benevento,Roman Catholic Archdiocese of Benevento,Roman Catholic Archdiocese of Benevento,Roman Catholic Archdiocese of Benevento,1290000000,1290000000
Roman Catholic Archdiocese of San Juan de Puerto Rico,List of the Roman Catholic dioceses of the United States,List of the Roman Catholic dioceses of the United States,List of the Roman Catholic dioceses of the United States,List of the Roman Catholic dioceses of the United States,914265802,914265802
Roman Catholic Archdiocese of San Antonio,List of the Roman Catholic dioceses of the United States,List of the Roman Catholic dioceses of the United States,List of the Roman Catholic dioceses of the United States,List of the Roman Catholic dioceses of the United States,72107858979,72107858979
Roman Catholic Archdiocese of Samarinda,Samarinda,Samarinda,Samarinda,Samarinda,114810000000,114810000000
Roman Catholic Archdiocese of Salta,Salta,Salta,Salta,Salta,92860000000,92860000000
Roman Catholic Archdiocese of Saint Paul and Minneapolis,Saint Paul,Saint Paul,Saint Paul,Saint Paul,16024256438,16024256438
Roman Catholic Archdiocese of São Luís do Maranhão,São Luís do Maranhão,São Luís do Maranhão,São Luís do Maranhão,São Luís do Maranhão,11622000000,11622000000
Roman Catholic Archdiocese of Rouen,Rouen,Rouen,Rouen,Rouen,4228000000,4228000000
Roman Catholic Archdiocese of Rossano-Cariati,Roman Catholic Archdiocese of Cosenza-Bisignano,Roman Catholic Archdiocese of Cosenza-Bisignano,Roman Catholic Archdiocese of Cosenza-Bisignano,Roman Catholic Archdiocese of Cosenza-Bisignano,1415000000,1415000000
Roman Catholic Archdiocese of Rosario,Rosario,Rosario,Rosario,Rosario,13500000000,13500000000
Roman Catholic Archdiocese of Riga,Riga,Riga,Riga,Riga,23587000000,23587000000
Roman Catholic Archdiocese of Rennes,Rennes,Rennes,Rennes,Rennes,6775000000,6775000000
Roman Catholic Archdiocese of Reims,Reims,Reims,Reims,Reims,6931000000,6931000000
Roman Catholic Archdiocese of Ranchi,Ranchi,Ranchi,Ranchi,Ranchi,5299000000,5299000000
Roman Catholic Archdiocese of Raipur,Raipur,Raipur,Raipur,Raipur,60819000000,60819000000
Roman Catholic Archdiocese of Quebec,Quebec,Quebec,Quebec,Quebec,35180000000,35180000000
Roman Catholic Archdiocese of Puerto Montt,Puerto Montt,Puerto Montt,Puerto Montt,Puerto Montt,18205000000,18205000000
Roman Catholic Archdiocese of Pretoria,Pretoria,Pretoria,Pretoria,Pretoria,16573000000,16573000000
Roman Catholic Archdiocese of Porto Alegre,Porto Alegre,Porto Alegre,Porto Alegre,Porto Alegre,13530000000,13530000000
Roman Catholic Archdiocese of Portland in Oregon,List of the Roman Catholic dioceses of the United States,List of the Roman Catholic dioceses of the United States,List of the Roman Catholic dioceses of the United States,List of the Roman Catholic dioceses of the United States,76937000000,76937000000
Roman Catholic Archdiocese of Port of Spain,Port of Spain,Port of Spain,Port of Spain,Port of Spain,13281459029,13281459029
Roman Catholic Archdiocese of Popayán,Popayán,Popayán,Popayán,Popayán,17087000000,17087000000
Roman Catholic Archdiocese of Pontianak,"Pontianak, Indonesia","Pontianak, Indonesia","Pontianak, Indonesia","Pontianak, Indonesia",39840000000,39840000000
Roman Catholic Archdiocese of Pondicherry and Cuddalore,Cuddalore,Cuddalore,Cuddalore,Cuddalore,11348000000,11348000000
Roman Catholic Archdiocese of Poitiers,Poitiers,Poitiers,Poitiers,Poitiers,13098000000,13098000000
Roman Catholic Archdiocese of Pisa,Pisa,Pisa,Pisa,Pisa,847000000,847000000
Roman Catholic Archdiocese of Philadelphia,List of the Catholic bishops of the United States,List of the Catholic bishops of the United States,List of the Catholic bishops of the United States,List of the Catholic bishops of the United States,5653944044,5653944044
Roman Catholic Archdiocese of Pesaro,Pesaro,Pesaro,Pesaro,Pesaro,287000000,287000000
Roman Catholic Archdiocese of Perth,"Perth, Western Australia","Perth, Western Australia","Perth, Western Australia","Perth, Western Australia",427377000000,427377000000
Roman Catholic Archdiocese of Pelotas,Pelotas,Pelotas,Pelotas,Pelotas,20737000000,20737000000
Roman Catholic Archdiocese of Patna,Patna,Patna,Patna,Patna,28808000000,28808000000
Roman Catholic Archdiocese of Passo Fundo,Passo Fundo,Passo Fundo,Passo Fundo,Passo Fundo,12200000000,12200000000
Roman Catholic Archdiocese of Paraná,"Paraná, Entre Ríos","Paraná, Entre Ríos","Paraná, Entre Ríos","Paraná, Entre Ríos",30348000000,30348000000
Roman Catholic Archdiocese of Pamplona y Tudela,Pamplona,Pamplona,Pamplona,Pamplona,10421000000,10421000000
Roman Catholic Archdiocese of Palo,Leyte,Leyte,Leyte,Leyte,4620000000,4620000000
Roman Catholic Archdiocese of Palermo,Palermo,Palermo,Palermo,Palermo,1366000000,1366000000
Roman Catholic Archdiocese of Palembang,Palembang,Palembang,Palembang,Palembang,157000000000,157000000000
Roman Catholic Archdiocese of Paderborn,Paderborn,Paderborn,Paderborn,Paderborn,14754000000,14754000000
Roman Catholic Archdiocese of Ozamiz,Ozamiz,Ozamiz,Ozamiz,Ozamiz,1939000000,1939000000
Roman Catholic Archdiocese of Ottawa,List of Roman Catholic dioceses in Canada,List of Roman Catholic dioceses in Canada,List of Roman Catholic dioceses in Canada,List of Roman Catholic dioceses in Canada,5818000000,5818000000
Roman Catholic Archdiocese of Otranto,Roman Catholic Archdiocese of Lecce,Roman Catholic Archdiocese of Lecce,Roman Catholic Archdiocese of Lecce,Roman Catholic Archdiocese of Lecce,800000000,800000000
Roman Catholic Archdiocese of Osaka,Osaka,Osaka,Osaka,Osaka,15000000000,15000000000
Roman Catholic Archdiocese of Omaha,List of the Roman Catholic dioceses of the United States,List of the Roman Catholic dioceses of the United States,List of the Roman Catholic dioceses of the United States,List of the Roman Catholic dioceses of the United States,36391922938,36391922938
Roman Catholic Archdiocese of Nueva Pamplona,Nueva Pamplona,Nueva Pamplona,Nueva Pamplona,Nueva Pamplona,6571000000,6571000000
Roman Catholic Archdiocese of New York,New York,New York,New York,New York,12212000000,12212000000
Roman Catholic Archdiocese of Naples,Naples,Naples,Naples,Naples,274000000,274000000
Roman Catholic Archdiocese of Nagasaki,"Nagasaki, Nagasaki","Nagasaki, Nagasaki","Nagasaki, Nagasaki","Nagasaki, Nagasaki",4192000000,4192000000
Roman Catholic Archdiocese of Munich and Freising,Freising,Freising,Freising,Freising,11998000000,11998000000
Roman Catholic Archdiocese of Montevideo,Montevideo,Montevideo,Montevideo,Montevideo,540000000,540000000
Roman Catholic Archdiocese of Monreale,Roman Catholic Archdiocese of Palermo,Roman Catholic Archdiocese of Palermo,Roman Catholic Archdiocese of Palermo,Roman Catholic Archdiocese of Palermo,1509000000,1509000000
Roman Catholic Archdiocese of Moncton,Moncton,Moncton,Moncton,Moncton,12000000000,12000000000
Roman Catholic Archdiocese of Milwaukee,"Milwaukee County, Wisconsin","Milwaukee County, Wisconsin","Milwaukee County, Wisconsin","Milwaukee County, Wisconsin",12323163428,12323163428
Roman Catholic Archdiocese of Merauke,Merauke,Merauke,Merauke,Merauke,90000000000,90000000000
Roman Catholic Archdiocese of Mendoza,"Mendoza, Argentina","Mendoza, Argentina","Mendoza, Argentina","Mendoza, Argentina",63839000000,63839000000
Roman Catholic Archdiocese of Melbourne,Roman Catholic Ecclesiastical Province of Melbourne,Roman Catholic Ecclesiastical Province of Melbourne,Roman Catholic Ecclesiastical Province of Melbourne,Roman Catholic Ecclesiastical Province of Melbourne,27194000000,27194000000
Roman Catholic Archdiocese of Medan,Medan,Medan,Medan,Medan,102738000000,102738000000
Roman Catholic Archdiocese of Mechelen-Brussels,Mechelen-Brussel,Mechelen-Brussel,Mechelen-Brussel,Mechelen-Brussel,3700000000,3700000000
Roman Catholic Archdiocese of Matera-Irsina,Roman Catholic Archdiocese of Potenza-Muro Lucano-Marsico Nuovo,Roman Catholic Archdiocese of Potenza-Muro Lucano-Marsico Nuovo,Roman Catholic Archdiocese of Potenza-Muro Lucano-Marsico Nuovo,Roman Catholic Archdiocese of Potenza-Muro Lucano-Marsico Nuovo,2020000000,2020000000
Roman Catholic Archdiocese of Mary Most Holy in Astana,Astana,Astana,Astana,Astana,576400000000,576400000000
Roman Catholic Archdiocese of Marseille,Marseille,Marseille,Marseille,Marseille,650000000,650000000
Roman Catholic Archdiocese of Maracaibo,Maracaibo,Maracaibo,Maracaibo,Maracaibo,10761000000,10761000000
Roman Catholic Archdiocese of Manizales,Manizales,Manizales,Manizales,Manizales,3848000000,3848000000
Roman Catholic Archdiocese of Manfredonia-Vieste-S. Giovanni Rotondo,Roman Catholic Archdiocese of Foggia-Bovino,Roman Catholic Archdiocese of Foggia-Bovino,Roman Catholic Archdiocese of Foggia-Bovino,Roman Catholic Archdiocese of Foggia-Bovino,1665000000,1665000000
Roman Catholic Archdiocese of Mandalay,Mandalay,Mandalay,Mandalay,Mandalay,212407000000,212407000000
Roman Catholic Archdiocese of Malta,Malta,Malta,Malta,Malta,246000000,246000000
Roman Catholic Archdiocese of Makassar,Makassar,Makassar,Makassar,Makassar,116252000000,116252000000
Roman Catholic Archdiocese of Madurai,Madurai,Madurai,Madurai,Madurai,8910000000,8910000000
Roman Catholic Archdiocese of Madras and Mylapore,Madras,Madras,Madras,Madras,3160000000,3160000000
Roman Catholic Archdiocese of Lyon,List of the Roman Catholic dioceses of France,List of the Roman Catholic dioceses of France,List of the Roman Catholic dioceses of France,List of the Roman Catholic dioceses of France,5087000000,5087000000
Roman Catholic Archdiocese of Lviv,Lviv,Lviv,Lviv,Lviv,68000000000,68000000000
Roman Catholic Archdiocese of Lucca,Holy See,Holy See,Holy See,Holy See,1520000000,1520000000
Roman Catholic Archdiocese of Los Angeles,List of the Roman Catholic dioceses of the United States,List of the Roman Catholic dioceses of the United States,List of the Roman Catholic dioceses of the United States,List of the Roman Catholic dioceses of the United States,14019000000,14019000000
Roman Catholic Archdiocese of Liverpool,Province of Liverpool,Province of Liverpool,Province of Liverpool,Province of Liverpool,1165000000,1165000000
Roman Catholic Archdiocese of Lipa,"Lipa, Batangas","Lipa, Batangas","Lipa, Batangas","Lipa, Batangas",3165000000,3165000000
Roman Catholic Archdiocese of Lingayen-Dagupan,Pangasinan,Pangasinan,Pangasinan,Pangasinan,1565000000,1565000000
Roman Catholic Archdiocese of Lima,Lima,Lima,Lima,Lima,639000000,639000000
Roman Catholic Archdiocese of Lille,Lille,Lille,Lille,Lille,2288000000,2288000000
Roman Catholic Archdiocese of Lecce,Lecce,Lecce,Lecce,Lecce,750000000,750000000
Roman Catholic Archdiocese of Lanzhou,Lanzhou,Lanzhou,Lanzhou,Lanzhou,250000000000,250000000000
Roman Catholic Archdiocese of Lanciano-Ortona,Roman Catholic Archdiocese of Chieti-Vasto,Roman Catholic Archdiocese of Chieti-Vasto,Roman Catholic Archdiocese of Chieti-Vasto,Roman Catholic Archdiocese of Chieti-Vasto,305000000,305000000
Roman Catholic Archdiocese of Lahore,Lahore,Lahore,Lahore,Lahore,23069000000,23069000000
Roman Catholic Archdiocese of La Serena,"La Serena, Chile","La Serena, Chile","La Serena, Chile","La Serena, Chile",30596000000,30596000000
Roman Catholic Archdiocese of La Paz,La Paz,La Paz,La Paz,La Paz,10975000000,10975000000
Roman Catholic Archdiocese of L'Aquila,L'Aquila,L'Aquila,L'Aquila,L'Aquila,1516000000,1516000000
Roman Catholic Archdiocese of Kupang,Kupang,Kupang,Kupang,Kupang,11285000000,11285000000
Roman Catholic Archdiocese of Kunming,Kunming,Kunming,Kunming,Kunming,150000000000,150000000000
Roman Catholic Archdiocese of Kuching,Kuching,Kuching,Kuching,Kuching,19173000000,19173000000
Roman Catholic Archdiocese of Kuala Lumpur,Kuala Lumpur,Kuala Lumpur,Kuala Lumpur,Kuala Lumpur,63763000000,63763000000
Roman Catholic Archdiocese of Košice,Košice,Košice,Košice,Košice,10403000000,10403000000
Roman Catholic Archdiocese of Kota Kinabalu,Kota Kinabalu,Kota Kinabalu,Kota Kinabalu,Kota Kinabalu,55215000000,55215000000
Roman Catholic Archdiocese of Košice,Košice,Košice,Košice,Košice,10403000000,10403000000
Roman Catholic Archdiocese of Kingston in Jamaica,Jamaica,Jamaica,Jamaica,Jamaica,3267000000,3267000000
Roman Catholic Archdiocese of Katowice,Katowice,Katowice,Katowice,Katowice,2400000000,2400000000
Roman Catholic Archdiocese of Karachi,Karachi,Karachi,Karachi,Karachi,180000000000,180000000000
Roman Catholic Archdiocese of Kansas City in Kansas,Kansas,Kansas,Kansas,Kansas,32437011093,32437011093
Roman Catholic Archdiocese of Kaduna,Kaduna,Kaduna,Kaduna,Kaduna,17094000000,17094000000
Roman Catholic Archdiocese of Johannesburg,Johannesburg,Johannesburg,Johannesburg,Johannesburg,14517000000,14517000000
Roman Catholic Archdiocese of Jinan,Jinan,Jinan,Jinan,Jinan,25000000000,25000000000
Roman Catholic Archdiocese of Jaro,Iloilo,Iloilo,Iloilo,Iloilo,5303000000,5303000000
Roman Catholic Archdiocese of Ibagué,Ibagué,Ibagué,Ibagué,Ibagué,6044000000,6044000000
Roman Catholic Archdiocese of Hyderabad,"Hyderabad, Andhra Pradesh","Hyderabad, Andhra Pradesh","Hyderabad, Andhra Pradesh","Hyderabad, Andhra Pradesh",25319000000,25319000000
Roman Catholic Archdiocese of Honiara,Honiara,Honiara,Honiara,Honiara,10728000000,10728000000
Roman Catholic Archdiocese of Hobart,Hobart,Hobart,Hobart,Hobart,67914000000,67914000000
Roman Catholic Archdiocese of Harare,Harare,Harare,Harare,Harare,63555000000,63555000000
Roman Catholic Archdiocese of Hanoi,List of Roman Catholic dioceses in Vietnam,List of Roman Catholic dioceses in Vietnam,List of Roman Catholic dioceses in Vietnam,List of Roman Catholic dioceses in Vietnam,6000000000,6000000000
Roman Catholic Archdiocese of Hankou,Hankou,Hankou,Hankou,Hankou,12120000000,12120000000
Roman Catholic Archdiocese of Hangzhou,Hangzhou,Hangzhou,Hangzhou,Hangzhou,34000000000,34000000000
Roman Catholic Archdiocese of Hamburg,Hamburg,Hamburg,Hamburg,Hamburg,32493000000,32493000000
Roman Catholic Archdiocese of Gwangju,Gwangju,Gwangju,Gwangju,Gwangju,12596000000,12596000000
Roman Catholic Archdiocese of Guwahati,Guwahati,Guwahati,Guwahati,Guwahati,17551000000,17551000000
Roman Catholic Archdiocese of Guiyang,Guiyang,Guiyang,Guiyang,Guiyang,100000000000,100000000000
Roman Catholic Archdiocese of Guangzhou,Guangzhou,Guangzhou,Guangzhou,Guangzhou,43332000000,43332000000
Roman Catholic Archdiocese of Granada,Granada,Granada,Granada,Granada,6945000000,6945000000
Roman Catholic Archdiocese of Gorizia,Gorizia,Gorizia,Gorizia,Gorizia,1030000000,1030000000
Roman Catholic Archdiocese of Goiânia,Goiânia,Goiânia,Goiânia,Goiânia,13855000000,13855000000
Roman Catholic Archdiocese of Goa and Daman,Goa,Goa,Goa,Goa,4194000000,4194000000
Roman Catholic Archdiocese of Glasgow,Glasgow,Glasgow,Glasgow,Glasgow,1165000000,1165000000
Roman Catholic Archdiocese of Genoa,Genoa,Genoa,Genoa,Genoa,966000000,966000000
Roman Catholic Archdiocese of Gandhinagar,Gandhinagar,Gandhinagar,Gandhinagar,Gandhinagar,29940000000,29940000000
Roman Catholic Archdiocese of Fuzhou,Fuzhou,Fuzhou,Fuzhou,Fuzhou,32348000000,32348000000
Roman Catholic Archdiocese of Freiburg,Freiburg,Freiburg,Freiburg,Freiburg,16229000000,16229000000
Roman Catholic Archdiocese of Fortaleza,Fortaleza,Fortaleza,Fortaleza,Fortaleza,14813000000,14813000000
Roman Catholic Archdiocese of Florianópolis,Florianópolis,Florianópolis,Florianópolis,Florianópolis,7862000000,7862000000
Roman Catholic Archdiocese of Florence,Florence,Florence,Florence,Florence,2205000000,2205000000
Roman Catholic Archdiocese of Ferrara-Comacchio,Roman Catholic Archdiocese of Bologna,Roman Catholic Archdiocese of Bologna,Roman Catholic Archdiocese of Bologna,Roman Catholic Archdiocese of Bologna,3138000000,3138000000
Roman Catholic Archdiocese of Fermo,Fermo,Fermo,Fermo,Fermo,1318000000,1318000000
Roman Catholic Archdiocese of Feira de Santana,Feira de Santana,Feira de Santana,Feira de Santana,Feira de Santana,16878000000,16878000000
Roman Catholic Archdiocese of Evora,Évora,Évora,Évora,Évora,13547000000,13547000000
Roman Catholic Archdiocese of Esztergom-Budapest,Esztergom,Esztergom,Esztergom,Esztergom,1541042925,1541042925
Roman Catholic Archdiocese of Ende,"Ende, Indonesia","Ende, Indonesia","Ende, Indonesia","Ende, Indonesia",5084000000,5084000000
Roman Catholic Archdiocese of Eger,Eger,Eger,Eger,Eger,11500000000,11500000000
