col0,col1,col2,col3,col4
The Texas Chain Saw Massacre,D. Pearl,J. Larroquette,T. Hooper,5040
The Ten Commandments,L. Griggs,C. B. DeMille,E. Bernstein,13200
The Story of Ruth,A. E. Arling,E. Franz,F. Waxman,7920
The St. Valentine's Day Massacre,M. R. Krasner,P. Frees,F. Steiner,6000
The Spanish Earth,J. Ivens,O. Welles,M. Blitzstein,3120
The Song of Ceylon,B. Wright,L. Wendt,W. Leigh,2280
The Solid Gold Cadillac,C. Lang,G. Burns,C. J. Mockridge,5940
The Snows of Kilimanjaro,L. Shamroy,G. Peck,B. Herrmann,7020
The Smurfs 2,P. Meheux,T. Kane,H. Pereira,6300
The Smurfs,P. Meheux,T. Kane,H. Pereira,6180
The Simple-Minded Murderer,J. Persson,S. Skarsgård,G. Verdi,6480
The Shiralee,P. Beeson,C. Tingwell,J. Addison,5940
The Shaggy Dog,E. Colman,P. Frees,P. Smith,6240
The Serpent and the Rainbow,J. Lindley,B. Pullman,B. Fiedel,5880
The Sea Around Us,D. Harrison,T. v. Eltz,C. Bakaleinikoff,3660
The Salton Sea,A. Mokri,V. Kilmer,T. Newman,6180
The Saint of Fort Washington,F. Elmes,D. Glover,J. N. Howard,5940
The Royal Tenenbaums,R. Yeoman,A. Baldwin,M. Mothersbaugh,6540
The Road,J. Aguirresarobe,V. Mortensen,N. Cave,6660
The Rise of Catherine the Great,G. Périnal,A. Kerensky,E. Toch,5640
The Right Stuff,C. Deschanel,L. Helm,B. Conti,11520
The Return of Don Camillo,A. Brizzi,E. Cigoli,A. Cicognini,6900
The Resurrection of Broncho Billy,N. Castle,R. Hussey,J. Carpenter,1380
The Reivers,R. Moore,B. Meredith,J. Williams,6420
The Red Badge of Courage,H. Rosson,J. Whitmore,B. Kaper,4140
The Railway Children,A. Ibbetson,J. Agutter,J. Douglas,6600
The Quiet Man,W. Hoch,W. Bond,V. Young,7740
The Princess Bride,A. Biddle,P. Falk,M. Knopfler,5880
The Powerpuff Girls Movie,G. Tartakovsky,T. Kenny,J. L. Venable,4500
The Poppy Is Also a Flower,H. Alekan,G. Kelly,G. Garvarentz,4800
The Plunderers,G. Polito,J. Chandler,L. Rosenman,5640
The Picture of Dorian Gray,H. Stradling,C. Hardwicke,H. Stothart,6600
The Perfect Holiday,T. Maniaci,Q. Latifah,C. Lennertz,5760
The Other Guys,O. Wood,Ice-T,J. Brion,6420
The Oscar,J. Ruttenberg,T. Bennett,P. Faith,7140
The Old Man and the Sea,U. photography,S. Tracy,D. Tiomkin,5160
The Notebook,R. Fraisse,J. Garner,A. Zigman,7440
The Night Before,B. Trost,T. Morgan,M. Beltrami,6060
The NeverEnding Story,J. Vacano,A. Oppenheimer,G. Moroder,5580
The Naked City,W. H. Daniels,M. Hellinger,M. Rózsa,5760
The Mirror,G. Rerberg,A. Tarkovsky,E. Artemyev,6360
The Message,J. Hildyard,R. Johnson,M. Jarre,10680
The Married Couple of the Year Two,C. Renoir,J. Marielle,M. Legrand,5880
The Manchurian Candidate,L. Lindon,P. Frees,D. Amram,7560
The Magnificent Ambersons,S. Cortez,O. Welles,T. M. Ambersons,5280
The Lover,R. Fraisse,J. Moreau,G. Yared,6900
The Long Walk Home,R. Deakins,M. Steenburgen,G. Fenton,5820
The Long Ships,C. Challis,E. Judd,D. Radić,7560
The Long Gray Line,C. Lang,T. Power,G. Duning,8280
The Long Days of Summer,C. Correll,C. Aidman,W. Scharf,4860
The Living Desert,N. Paul Kenworthy Jr.,W. Hibler,P. Smith,4140
The Lion Has Wings,O. Borradaile,L. Thomas,R. Addinsell,4560
The Legend of Pancho Barnes and the Happy Bottom Riding Club,C. Westervelt,T. Skerritt,N. Wang,3840
The Legend of Lobo,J. Couffer,R. Allen,R. B. Sherman,4020
The Legend of Bagger Vance,M. Ballhaus,J. Lemmon,R. Portman,7560
The Last of England,D. Jarman,N. Terry,D. Galás,5220
The Last Airbender,A. Lesnie,N. Peltz,J. N. Howard,6180
The Land That Time Forgot,A. Hume,D. McClure,D. Gamley,5460
The Lady from Shanghai,R. Maté,O. Welles,H. Roemheld,5220
The Killing,L. Ballard,A. Gilmore,G. Fried,5100
The Killer That Stalked New York,J. F. Biroc,R. Hadley,H. J. Salter,4740
The Keys of the Kingdom,A. C. Miller,S. C. Hardwicke,A. Newman,8160
The Jungle Book,B. Pope,B. Kingsley,J. Debney,6300
The Iron Curtain,C. G. Clarke,R. Hadley,A. Newman,5220
The Inner Eye,S. Roy,S. Ray,S. Ray,1200
The Informant!,P. Andrews,M. Damon,M. Hamlisch,6480
The Incredible Journey,K. Peach,R. Allen,O. Wallace,4800
The Huntsman: Winter's War,P. Papamichael,L. Neeson,J. N. Howard,6840
The House on 92nd Street,N. Brodine,R. Hadley,D. Buttolph,5280
The Hotel New Hampshire,D. Watkin,R. Lowe,J. Offenbach,6600
The Horseman on the Roof,T. Arbogast,J. Weber,J. Petit,8100
The Hire,R. Richardson,C. Owen,H. Gregson-Williams,3840
The Highwayman,H. Neumann,B. Aherne,H. B. Gilbert,4920
The Hateful Eight,R. Richardson,Q. Tarantino,E. Morricone,10080
The Guns of Navarone,O. Morris,J. R. Justice,D. Tiomkin,9480
The Green Glove,C. Renoir,J. Dehner,J. Kosma,5340
The Greatest Show on Earth,G. Barnes,C. B. DeMille,V. Young,9120
The Great Northfield Minnesota Raid,B. Surtees,P. Frees,D. Grusin,5460
The Great Gatsby,S. Duggan,T. Maguire,C. Armstrong,8520
The Great Ecstasy of Woodcarver Steiner,J. Schmidt-Reitwein,W. Herzog,P. Vuh,2700
The Great American Cowboy,R. Smoot,J. McCrea,H. Farberman,5340
The Grass Harp,J. A. Alonzo,B. Gaines,P. Williams,6420
The Gospel of John,M. Baszak,C. Plummer,J. Danna,10800
The Gentle Sex,R. Krasker,L. Howard,John D. H. Greenwood,5520
The Gallant Hours,J. MacDonald,R. Montgomery,R. Wagner,6900
The Fourth Estate,J. E. Rogers,N. Hannen,W. Leigh,3780
The Forgotten Village,A. Hammid,B. Meredith,H. Eisler,4020
The Forbidden Street,G. Périnal,M. O'Hara,M. Arnold,5400
The First Wives Club,D. E. Thorin,D. Keaton,M. Shaiman,6180
The Endless Summer,B. Brown,B. Brown,T. Sandals,5700
The Enchanted Cottage,T. Tetzlaff,H. Marshall,R. Webb,5460
The Dukes of Hazzard,L. Sher,J. Brown,N. Barr,6360
The Dirty Picture,B. Singh,E. Hashmi,Vishal-Shekhar,8640
The Devil's Disciple,J. Hildyard,P. Leeds,R. R. Bennett,4980
The Devil's Backbone,G. Navarro,F. Luppi,J. Navarrete,6420
The Desert Rats,L. Ballard,M. Rennie,L. Harline,5280
The Desert Hawk,R. Metty,J. Chandler,F. Skinner,4620
