col0,col1,col2,col3,col4,col5
"Magnus, Duke of Östergötland",Vadstena Abbey,Stockholm,Linköping Municipality,Gustav Vasa of Sweden,1595-06-26
M. o. Valois,Edinburgh,Kingdom of France,Edinburgh,C. o. France,1537-07-07
Mécia Lopes de Haro,Santa María la Real of Nájera,Biscay,Palencia,Lope Díaz II de Haro,1270-1-1
"Léopold Clément, Hereditary Prince of Lorraine","Nancy, France",Château de Lunéville,Lunéville,"Leopold, Duke of Lorraine",1723-06-04
Lysimachus,Thrace,Crannon,Sardis,A. o. Pella,-281-1-1
Lunalilo,Kawaiahaʻo Church,Honolulu,Waikiki,Kekāuluohi,1874-02-03
Lulach,Iona,Moray,Aberdeenshire,Gille Coemgáin of Moray,1058-03-17
"Luitpold, Prince Regent of Bavaria",Bavaria,Würzburg,Bavaria,Ludwig I of Bavaria,1912-12-12
Ludwig I of Bavaria,"St. Boniface's Abbey, Munich",Kingdom of France,Nice,Maximilian I Joseph of Bavaria,1868-02-29
Ludwig II of Bavaria,Munich,Kingdom of Bavaria,German Empire,Maximilian II of Bavaria,1886-06-13
