col0,col1,col2,col3
Z. Lowe,1973-08-07,1973-08-07,Alexander Zane Reid Lowe
W. B. Williams,1923-08-06,1923-08-06,William Breitbard
W. Slow,1990-08-15,1990-08-15,Warwick Slow
W. Chapman,1969-0-0,1969-0-0,Walesi Leslie Chapman
V. Galloway,1972-08-04,1972-08-04,Michael Galloway
V. Corea,1927-09-11,1927-09-11,Hector Vernon Ivan Corea
T. Haynes,1926-11-23,1926-11-23,Gertrude Daniels
T. Delroy,1953-1-1,1953-1-1,Anthony Eric Delroy
T. Neal,1976-02-17,1976-02-17,Tanisha Yarndriciaes Delores Neal
T. Griswold,1953-04-22,1953-04-22,Thomas Bruce Griswold
T. Crowther,1958-11-19,1958-11-19,Tim Crowther
T. Tevan,1933-03-01,1933-03-01,"Theodore ""Oral"" Tevan"
T. Quillin,1930-02-17,1930-02-17,Theodore Quillin
S. Waldman,1946-09-07,1946-09-07,Suzyn Waldman
S. Wright,1954-08-26,1954-08-26,Stephen Richard Wright
S. Lamacq,1964-10-16,1964-10-16,Stephen Paul Lamacq
S. Arterburn,1953-06-18,1953-06-18,Stephen Arterburn
S. Capen,1946-02-28,1946-02-28,Stephen Harold Capen
S. Mayo,1958-09-21,1958-09-21,Simon Andrew Hicks Mayo
S. Barnett,1967-03-23,1967-03-23,Simon Andrew Barnett
S. Connors,1952-0-0,1952-0-0,David Jeffrey Newfield
R. Lyons,1905-10-04,1905-10-04,Ruth Evelyn Reeves
R. Martin,1960-10-04,1960-10-04,Russell Dale Martin
R. Masters,1928-04-02,1928-04-02,Reuben Obermeister
R. Leonard,1931-01-19,1931-01-19,LeRoy Stewart Leonard
R. Bingenheimer,1947-12-15,1947-12-15,Rodney Bingenheimer
R. W. Morgan,1937-07-23,1937-07-23,Robert Wilbur Morgan
R. Stenders,1965-04-18,1965-04-18,Rob Zieltjens
R. Sharp,1953-1-1,1953-1-1,Rhoderick Sharp
R. Rayner,1919-07-23,1919-07-23,Raymond M. Rahner
P. Robert,1955-08-01,1955-08-01,William Pierre Robert
P. Price,1946-01-25,1946-01-25,Peter Lloyd Price
P. W. Smith,1953-0-0,1953-0-0,Paul William Smith
N. L. Vegas,1984-12-18,1984-12-18,Nina Elizabeth Agzarian
N. Barraclough,1951-1-1,1951-1-1,Nicholas Stanley Barraclough
Nessa,1981-5-6,1981-5-6,Nessa Diab
N. Rogers,1942-11-05,1942-11-05,Nelson Roger Behelfer
N. Sawyer,1979-10-23,1979-10-23,Natalie Lorraine Sawyer
M. Stone,1958-1-1,1958-1-1,Michael Stone
M. O'Meara,1959-06-22,1959-06-22,Michael Sean Patrick O'Meara
M. Greenberg,1967-08-06,1967-08-06,Michael Darrow Greenberg
M. Tearson,1948-1-1,1948-1-1,Michael Tearson
M. Bannister,1957-03-16,1957-03-16,Richard Matthew Bannister
M. A. Guzmán,1984-10-04,1984-10-04,María Alejandra Guzmán Carmona
M. Kelner,1949-1-1,1949-1-1,Martin Barry Kelner
M. Ingram,1965-3-21,1965-3-21,Martin Ingram
M. Krabbé,1968-03-26,1968-03-26,Martijn Joop Krabbé
M. Radcliffe,1958-06-29,1958-06-29,Mark Radcliffe
M. Levin,1957-09-21,1957-09-21,Mark Reed Levin
M. Chapman,1973-10-11,1973-10-11,Andrew Mark Chapman
M. A. Guzmán,1984-10-04,1984-10-04,María Alejandra Guzmán Carmona
L. García,1977-04-15,1977-04-15,Luz Margarita Cecilia García Guzmán
L. Burbank,1976-05-08,1976-05-08,Luke Burbank
L. Wilde,1971-10-27,1971-10-27,Anne Whittemore
L. a. Davey,1988-07-02,1988-07-02,* Alexander Gough
L. Laporte,1956-11-29,1956-11-29,Leo Gordon Laporte
K. Sandilands,1971-06-10,1971-06-10,Kyle Dalton Sandilands
K. Lee,1960-07-15,1960-07-15,Theresa Renee Rose
K. Nnamdi,1945-1-8,1945-1-8,Rex Orville Montague Paul
K. K. Rike,1944-07-12,1944-07-12,Kjell Kristian Rike
K. Wilbur,1953-11-11,1953-11-11,Kirby Allen Wilbur
K. Kraddick,1959-08-22,1959-08-22,David Peter Cradick
K. Prewitt,1946-12-14,1946-12-14,Kenneth Bernard Prewitt
K. Bruce,1951-02-02,1951-02-02,Kenneth Robertson Bruce
K. Keech,1895-06-28,1895-06-28,Kelvin Kirkwood Keech
K. Lengyelová,1972-07-11,1972-07-11,Katarína Mravcová
K-Swift,1978-10-19,1978-10-19,Khia Danielle Edgerton
J. Adenuga,1988-07-15,1988-07-15,Julie Adenuga
J. Lund,1979-04-24,1979-04-24,Jules Lund
J. Pryor,1982-1-1,1982-1-1,Jonathan Richard Pryor
J. Faine,1956-09-21,1956-09-21,Jonathan Eric Faine
J. Dare,1968-08-27,1968-08-27,John William Caprefoli
J. Walker,1945-03-30,1945-03-30,Peter Waters Dingley
J. Gilliland,1935-10-18,1935-10-18,"John Sanford Gilliland, Jr."
J. Dease,1906-05-26,1906-05-26,Conly John Paget Dease
J. Taruc,1947-09-17,1947-09-17,"Jose Malgapo Taruc, Jr."
J. Whiley,1965-07-04,1965-07-04,Johanne Whiley
J. Good,1955-01-15,1955-01-15,JoAnne Dorothy Good
J. Wallington,1907-09-15,1907-09-15,James Wallington
J. Staggs,1935-10-07,1935-10-07,Jimmy Pearson Staggs
J. Rome,1964-10-14,1964-10-14,James Phillip Rome
J. Gellatly,1968-03-04,1968-03-04,James Norman Gellatly
J. Riley,1982-02-02,1982-02-02,Jill Riley
J. Blavat,1940-07-03,1940-07-03,Gerald Joseph Blavat
J. Wells,1977-01-19,1977-01-19,Jeremy Wells
J. Ace,1897-10-12,1897-10-12,Jane Epstein
J. Naughtie,1951-08-09,1951-08-09,Alexander James Naughtie
J. Weaver,1920-09-03,1920-09-03,Jackson J. Weaver
J. P. McCarthy,1933-03-22,1933-03-22,Joseph Priestley McCarthy II
I. Fermín,1984-12-03,1984-12-03,Iamdra Fermín Hernández
