col0,col1,col2,col3
USS La Salle,1960-08-08,25,1964-02-22
USS La Jolla,1973-12-10,10,1981-10-24
USS L. Mendel Rivers,1969-07-01,9,1975-02-01
USS Koelsch,1963-03-21,13,1968-10-19
USS Knox,1964-07-22,14,1969-04-12
USS Kirk,1966-08-25,14,1972-09-09
USS King,1955-11-18,15,1960-11-17
USS Kidd,1978-03-23,16,1981-03-27
USS Kidd,1998-03-06,20,2007-06-09
USS Kentucky,1885-03-02,21,1900-05-15
USS Kennebec,1939-11-01,20,1942-02-04
USS Kansas,1903-03-03,23,1907-04-18
USS Kamehameha,1962-08-31,10,1965-12-10
USS Juneau,1963-05-23,25,1969-07-12
USS Julius A. Furer,1963-05-24,13,1967-11-11
USS Jouett,1961-09-20,16,1966-12-03
USS Josephus Daniels,1961-05-18,16,1965-05-08
USS Joseph Strauss,1959-07-21,14,1963-04-20
USS Joseph Hewes,1966-08-25,14,1971-04-24
USS John Marshall,1959-07-01,10,1962-05-21
USS John King,1957-03-28,14,1961-02-04
USS John C. Calhoun,1961-07-20,10,1964-09-15
USS John Adams,1960-07-23,10,1964-05-12
USS Jimmy Carter,1996-06-29,12,2005-02-19
USS Jesse L. Brown,1966-08-25,14,1973-02-17
USS James Monroe,1961-02-03,10,1963-12-07
USS James Madison,1961-07-20,10,1964-07-28
USS James E. Williams,1998-03-06,20,2004-12-11
USS Jacksonville,1972-01-24,10,1981-05-16
USS Jack,1959-03-13,9,1967-03-31
USS Iwo Jima,1995-02-28,33,2001-06-30
USS Iowa,1939-07-01,32,1943-02-22
USS Indianapolis,1929-02-13,20,1932-11-15
USS Independence,1954-07-02,39,1959-01-10
USS Inchon,1966-06-16,31,1970-06-20
USS Idaho,1903-03-03,23,1908-04-01
USS Hurricane,1990-08-03,7,1993-10-15
USS Howard,1996-06-20,20,2001-10-20
USS Houston,1924-12-18,20,1930-06-17
USS Hornet,1939-03-30,25,1941-10-20
USS Horne,1961-09-20,16,1967-04-15
USS Honolulu,1929-02-13,18,1938-06-15
USS Hoel,1958-01-17,14,1962-06-16
USS Hepburn,1964-07-22,14,1969-07-03
USS Henry Clay,1961-02-03,10,1964-02-20
USS Henry B. Wilson,1957-03-28,14,1960-12-17
USS Helena,1929-02-13,18,1939-09-18
USS Hawkbill,1964-12-18,9,1971-02-04
USS Hawaii,1998-09-30,10,2007-05-05
USS Haven,1942-02-19,21,1945-05-05
USS Harry E. Yarnell,1958-07-11,16,1963-02-02
USS Harpers Ferry,1988-06-17,25,1995-01-07
USS Harold E. Holt,1964-07-22,14,1971-03-26
USS Hammerhead,1964-05-28,9,1968-06-28
USS Halsey,1998-03-06,20,2005-07-30
USS Haddo,1959-03-03,9,1964-12-16
USS Gwin,1896-06-10,3,1898-04-04
USS Gurnard,1963-10-24,9,1968-12-06
USS Guitarro,1964-12-18,9,1972-09-09
USS Guam,1959-12-21,25,1965-01-16
USS Guam,1940-09-09,27,1944-09-17
USS Guadalcanal,1959-12-21,25,1963-07-20
USS Growler,1954-07-31,8,1958-08-30
USS Gridley,1998-03-06,20,2007-02-10
USS Greeneville,1988-12-14,10,1996-02-16
USS Green Bay,2000-05-30,29,2009-01-24
USS Grayback,1951-03-10,8,1958-03-07
USS Gray,1964-07-22,14,1970-04-04
USS Goldsborough,1897-03-03,6,1908-04-09
USS Goldsborough,1960-03-25,14,1963-11-09
USS Germantown,1982-03-26,25,1986-02-08
USS George Washington,1957-12-31,10,1959-12-30
USS George C. Marshall,1963-07-29,10,1966-04-29
USS George Bancroft,1962-11-01,10,1966-01-22
USS General George M. Randall,1942-01-16,22,1944-04-15
USS Gato,1960-07-09,9,1968-01-25
USS Galveston,1899-03-03,13,1905-02-15
USS Galena,1861-09-16,10,1862-04-21
USS Gage,1943-04-20,18,1944-11-12
USS Fulton,1911-03-04,10,1914-12-07
USS Frederick,1966-07-15,21,1970-04-11
USS Francis Scott Key,1963-07-29,10,1966-12-03
USS Francis Hammond,1964-07-22,14,1970-07-25
USS Fox,1896-06-10,4,1899-07-08
USS Fox,1962-01-16,16,1966-05-08
USS Fort McHenry,1985-12-11,25,1987-08-08
USS Forrestal,1951-07-12,39,1955-10-01
USS Forrest Sherman,1998-03-06,20,2006-01-28
USS Forrest Sherman,1951-03-10,13,1955-11-09
USS Foote,1894-07-26,4,1897-08-07
USS Flying Fish,1966-07-15,9,1970-04-29
USS Florikan,1940-12-30,12,1943-04-05
USS Firebolt,1991-07-19,7,1995-06-10
USS Finback,1965-03-09,9,1970-02-04
USS Farragut,1896-06-10,6,1899-03-22
USS Farragut,1998-03-06,20,2006-06-10
USS Farragut,1956-01-27,15,1960-12-10
USS Fanshaw Bay,1942-06-18,19,1943-12-09
USS Fanning,1964-07-22,14,1971-07-23
USS Fall River,1942-07-09,21,1945-07-01
USS Fairfax County,1966-07-15,21,1971-10-16
USS Ethan Allen,1958-07-17,10,1961-08-08
USS Essex,1986-09-10,32,1992-10-17
USS Essex,1873-02-10,10,1876-10-03
USS Erie,1933-11-01,12,1936-07-01
USS Ericsson,1890-06-30,4,1897-02-18
USS Enterprise,1957-11-15,40,1961-11-25
USS Elmer Montgomery,1966-08-25,14,1971-10-30
USS Dyess,1940-07-19,12,1945-05-21
USS Dunderberg,1862-07-03,22,1867-08-07
USS Duluth,1961-09-21,25,1965-12-18
USS Dubuque,1963-01-25,25,1967-09-01
USS Du Pont,1895-03-02,5,1897-09-23
USS Du Pont,1954-07-30,13,1957-07-01
USS Drum,1967-03-15,9,1972-04-15
USS Drum,1940-06-12,8,1941-11-01
USS Downes,1964-07-22,14,1971-08-28
USS Donald B. Beary,1966-08-25,14,1972-07-22
USS Dolphin,1960-08-10,6,1968-08-17
USS Dixon,1966-04-20,25,1971-08-07
USS Dextrous,1989-12-12,11,1994-07-09
USS Dewey,2002-09-13,20,2010-03-06
USS Detroit,1917-03-04,16,1923-07-31
USS Detroit,1965-12-29,32,1970-03-14
USS Des Moines,1899-03-03,13,1904-03-05
USS Des Moines,1943-09-25,23,1948-11-16
USS Denver,1899-03-03,13,1904-05-17
USS DeLong,1898-05-04,5,1902-10-27
USS Davis,1896-06-10,4,1899-05-10
USS Davis,1954-02-03,13,1957-02-28
USS Davidson,1962-01-03,13,1965-12-01
USS Daniel Webster,1961-02-03,10,1964-04-09
USS Daniel Boone,1961-07-21,10,1964-04-23
USS Dale,1958-11-07,16,1963-11-23
USS Dahlgren,1896-06-10,4,1900-06-16
USS Dahlgren,1956-07-23,15,1961-04-08
USS Cyclone,1990-08-01,7,1993-08-07
USS Cushing,1886-08-03,4,1890-04-22
USS Craven,1896-06-10,4,1900-06-09
USS Corregidor,1942-08-20,19,1943-08-31
USS Coronado,1964-05-15,32,1970-05-23
USS Coral Sea,1943-06-14,34,1947-10-01
USS Cook,1966-08-25,14,1971-12-18
USS Conyngham,1959-07-21,14,1963-07-13
USS Connole,1964-07-22,14,1969-08-30
USS Connecticut,1991-05-03,12,1998-12-11
USS Connecticut,1902-07-01,23,1906-09-29
USS Concord,1916-08-29,16,1923-11-03
USS Comstock,1984-11-26,25,1990-02-03
USS Columbus,1940-09-09,21,1945-06-08
USS Columbia,1890-06-30,17,1894-04-23
USS Colorado,1916-08-29,29,1923-08-30
USS Cochrane,1960-03-25,14,1964-03-21
