col0,col1,col2,col3
M. Winkelhock,1980 Italian Grand Prix,0,1951-10-6
M. Hellings,1950 Indianapolis 500,0,1915-9-14
Mário de Araújo Cabral,1959 Portuguese Grand Prix,0,1934-1-15
L. Botha,1967 South African Grand Prix,0,1930-1-16
L. Bueno,1973 Brazilian Grand Prix,0,1937-1-16
L. Pérez-Sala,1988 Brazilian Grand Prix,0,1959-5-15
L. Villoresi,1950 Monaco Grand Prix,0,1909-5-16
L. Taramazzo,1958 Monaco Grand Prix,0,1932-5-5
L. Piotti,1955 Italian Grand Prix,0,1913-10-27
L. Musso,1953 Italian Grand Prix,1,1924-7-28
L. Fagioli,1950 British Grand Prix,1,1898-6-9
L. Fischer,1952 German Grand Prix,0,1915-12-17
L. Scarfiotti,1963 Dutch Grand Prix,1,1933-10-18
L. Bianchi,1959 Monaco Grand Prix,0,1934-11-10
L. Burti,2000 Austrian Grand Prix,0,1975-3-5
L. Badoer,1993 South African Grand Prix,0,1971-1-25
L. Rosier,1950 British Grand Prix,0,1905-11-5
L. Chiron,1950 British Grand Prix,0,1899-8-3
L. Kessel,1976 Spanish Grand Prix,0,1950-4-1
L. Bandini,1961 Belgian Grand Prix,1,1935-12-21
L. Casner,1961 Glover Trophy,0,1928-8-30
L. Thorne,1954 British Grand Prix,0,1916-6-23
L. Marr,1954 British Grand Prix,0,1922-8-14
L. Johnson,1950 British Grand Prix,0,1912-3-22
L. Leston,1956 Italian Grand Prix,0,1920-12-16
L. Kinnunen,1974 Belgian Grand Prix,0,1943-8-5
L. Sutton,1956 Indianapolis 500,0,1925-8-9
L. Duncan,1953 Indianapolis 500,0,1911-7-25
L. Lombardi,1974 British Grand Prix,0,1941-3-26
L. Wallard,1950 Indianapolis 500,1,1910-9-7
L. Perkins,1976 Spanish Grand Prix,0,1950-03-18
L. Crockett,1954 Indianapolis 500,0,1926-10-23
L. Reventlow,1960 Monaco Grand Prix,0,1936-02-24
L. Macklin,1952 Swiss Grand Prix,0,1919-9-2
L. Leoni,1977 Italian Grand Prix,0,1953-5-24
K. Kuhnke,1963 German Grand Prix,0,1910-4-30
K. A. Jr.,1968 German Grand Prix,0,1940-4-19
K. Adolff,1953 German Grand Prix,0,1921-11-5
K. Cogan,1980 Canadian Grand Prix,0,1956-3-31
K. Acheson,1983 British Grand Prix,0,1957-11-27
K. McAlpine,1952 British Grand Prix,0,1920-9-21
K. Wharton,1952 Swiss Grand Prix,0,1916-3-21
K. Richardson,1951 Italian Grand Prix,0,1911-8-21
K. Downing,1952 British Grand Prix,0,1917-12-5
K. Rosberg,1978 South African Grand Prix,5,1948-12-6
K. Greene,1959 British Grand Prix,0,1938-1-5
K. Andrews,1955 Indianapolis 500,0,1920-6-15
K. Hoshino,1976 Japanese Grand Prix,0,1947-7-1
K. Nakajima,2007 Brazilian Grand Prix,0,1985-1-11
K. Oppitzhauser,1976 Austrian Grand Prix,0,1941-10-4
K. Kling,1954 French Grand Prix,0,1910-9-16
J. Bailey,1988 Brazilian Grand Prix,0,1961-10-9
J. Bianchi,2013 Australian Grand Prix,0,1989-8-3
J. Larson,1952 Indianapolis 500,0,1923-1-21
J. M. Fangio,1950 British Grand Prix,24,1911-6-24
J. M. Bordeu,1961 French Grand Prix,0,1934-1-28
J. Jover,1951 Spanish Grand Prix,0,1903-11-23
J. F. González,1950 Monaco Grand Prix,2,1922-10-5
J. Dolhem,1974 French Grand Prix,0,1944-4-26
J. Peters,1952 German Grand Prix,0,1914-9-16
J. Verstappen,1994 Brazilian Grand Prix,0,1972-3-4
J. F. González,1950 Monaco Grand Prix,2,1922-10-5
J. Dolhem,1974 French Grand Prix,0,1944-4-26
J. Daponte,1954 Argentine Grand Prix,0,1923-6-5
J. Williams,1967 Mexican Grand Prix,0,1942-10-26
J. Palmer,1983 European Grand Prix,0,1956-11-7
J. Chitwood,1950 Indianapolis 500,0,1912-4-14
J. Thomson,1953 Indianapolis 500,0,1922-4-9
J. Servoz-Gavin,1967 Monaco Grand Prix,0,1942-1-18
J. McDowell,1950 Indianapolis 500,0,1915-1-29
J. Herbert,1989 Brazilian Grand Prix,3,1964-6-25
J. Claes,1950 British Grand Prix,0,1916-8-11
J. Boyd,1955 Indianapolis 500,0,1926-8-19
J. Tolan,1951 Indianapolis 500,0,1917-10-22
J. Parsons,1950 Indianapolis 500,1,1918-7-4
J. Watson,1973 British Grand Prix,5,1946-5-4
J. Taylor,1964 British Grand Prix,0,1933-3-23
J. Riseley-Prichard,1954 British Grand Prix,0,1924-1-17
J. Rhodes,1965 British Grand Prix,0,1927-8-18
J. Nicholson,1974 British Grand Prix,0,1941-10-6
J. Miles,1969 French Grand Prix,0,1943-6-14
J. Love,1962 South African Grand Prix,0,1924-12-7
J. James,1951 British Grand Prix,0,1914-5-10
J. Fitch,1953 Italian Grand Prix,0,1917-8-4
"John Crichton-Stuart, 7th Marquess of Bute",1986 Brazilian Grand Prix,0,1958-4-26
J. Cordts,1969 Canadian Grand Prix,0,1935-7-23
J. Cannon,1971 United States Grand Prix,0,1933-6-21
J. Campbell-Jones,1962 Belgian Grand Prix,0,1930-1-21
J. Barber,1953 Argentine Grand Prix,0,1929-7-22
J. Kelly,1950 British Grand Prix,0,1913-3-13
J. James,1950 Indianapolis 500,0,1925-5-23
J. Fry,1950 British Grand Prix,0,1915-10-26
J. Scheckter,1972 United States Grand Prix,10,1950-1-29
J. Rindt,1964 Austrian Grand Prix,6,1942-4-18
J. Mass,1973 Argentine Grand Prix,1,1946-9-30
J. Bonnier,1956 Italian Grand Prix,1,1930-1-31
J. Winkelhock,1989 Brazilian Grand Prix,0,1960-10-24
J. Vonlanthen,1975 Austrian Grand Prix,0,1942-5-31
J. Siffert,1962 Monaco Grand Prix,2,1936-7-7
J. Schlesser,1966 German Grand Prix,0,1928-5-18
J. Gartner,1984 San Marino Grand Prix,0,1954-1-24
J. Stewart,1953 British Grand Prix,0,1931-3-6
J. Reece,1952 Indianapolis 500,0,1929-11-17
J. Jackson,1950 Indianapolis 500,0,1910-7-25
J. Daywalt,1951 Indianapolis 500,0,1924-8-28
J. Davies,1950 Indianapolis 500,0,1929-8-18
J. Bryan,1951 Indianapolis 500,1,1926-1-28
J. Rigsby,1950 Indianapolis 500,0,1923-6-6
J. Rathmann,1950 Indianapolis 500,1,1928-7-16
J. McWithey,1956 Indianapolis 500,0,1927-7-4
J. Hall,1960 United States Grand Prix,0,1935-7-23
J. Crawford,1975 British Grand Prix,0,1948-2-13
J. Clark,1960 Dutch Grand Prix,25,1936-3-4
J. Iglesias,1955 Argentine Grand Prix,0,1922-2-22
J. U. Jr.,1958 Indianapolis 500,0,1932-11-15
J. Hoyt,1950 Indianapolis 500,0,1929-1-29
J. Porporato,Targa Florio,1,1881-0-0
J. Lucienbonnet,1959 Monaco Grand Prix,0,1923-1-7
J. Lucas,1955 Italian Grand Prix,0,1917-4-25
J. Behra,1952 Swiss Grand Prix,0,1921-2-16
J. Jarier,1971 Italian Grand Prix,0,1946-7-10
J. Jabouille,1974 French Grand Prix,2,1942-10-1
J. Gounon,1993 Japanese Grand Prix,0,1963-1-1
J. Schlesser,1983 French Grand Prix,0,1948-9-12
J. Délétraz,1994 Australian Grand Prix,0,1963-10-1
J. Rudaz,1964 Italian Grand Prix,0,1942-7-23
J. Boullion,1995 Monaco Grand Prix,0,1969-12-27
J. Chamberlain,1962 British Grand Prix,0,1925-12-29
J. Lammers,1979 Argentine Grand Prix,0,1956-6-2
J. Flinterman,1952 Dutch Grand Prix,0,1919-10-2
J. Hunt,1973 Monaco Grand Prix,10,1947-8-29
J. Villeneuve,1981 Canadian Grand Prix,0,1953-11-4
J. Swaters,1951 German Grand Prix,0,1926-10-30
J. Pollet,1954 French Grand Prix,0,1922-7-2
J. Laffite,1974 German Grand Prix,6,1943-11-21
J. Ickx,1966 German Grand Prix,8,1945-1-1
J. Stewart,1965 South African Grand Prix,27,1939-6-11
J. Pretorius,1965 South African Grand Prix,0,1934-11-22
J. Oliver,1967 German Grand Prix,0,1942-8-14
J. Lewis,1961 Belgian Grand Prix,0,1936-11-1
J. Holmes,1950 Indianapolis 500,0,1920-9-4
J. Turner,1956 Indianapolis 500,0,1920-2-12
J. McGrath,1950 Indianapolis 500,0,1919-10-8
J. Fairman,1953 British Grand Prix,0,1913-3-15
J. Brabham,1955 British Grand Prix,14,1926-4-2
J. Nellemann,1976 Swedish Grand Prix,0,1944-4-19
J. Lehto,1989 Portuguese Grand Prix,0,1966-1-31
I. Bueb,1957 Monaco Grand Prix,0,1923-6-6
I. Capelli,1985 European Grand Prix,0,1963-5-24
I. Ireland,1959 Dutch Grand Prix,1,1930-6-12
I. Hoffmann,1976 Brazilian Grand Prix,0,1953-2-28
I. Giunti,1970 Belgian Grand Prix,0,1941-8-30
I. Scheckter,1974 South African Grand Prix,0,1947-8-22
I. Raby,1963 British Grand Prix,0,1921-9-22
I. Burgess,1958 British Grand Prix,0,1930-7-6
I. Ashley,1974 German Grand Prix,0,1947-10-26
H. Rebaque,1977 Belgian Grand Prix,0,1956-2-5
H. Rothengatter,1984 Canadian Grand Prix,0,1954-10-8
H. Hahne,1966 German Grand Prix,0,1935-3-28
H. Ganley,1971 South African Grand Prix,0,1941-12-24
H. Gould,1954 British Grand Prix,0,1918-9-20
H. Fushida,1975 Dutch Grand Prix,0,1946-3-10
