col0,col1,col2,col3
Boca Raton Old City Hall,A. Mizner,4046,1980-10-16
Blume High School,F. Packard,8093,1996-08-22
Blue Hills Reservation Parkways,C. Eliot,182108,2003-08-11
Blue Hills Parkway,C. Eliot,48562,2003-06-23
Blairsville Armory,W.G. Wilkins & Co.,809,1989-12-22
Blaine Smith House,E. B. MacNaughton,2023,1991-06-19
Blackstone Viaduct,Boston,11776,2002-02-05
Blackberry River Inn,T. &. Levi,36421,1984-02-17
Black Rock Gardens Historic District,R. C. Sturgis,28327,1990-09-26
Black Point,A. Cudell,24281,1994-09-15
Bismarck Cathedral Area Historic District,"Purcell, Feick & Elmslie",5260,1980-05-08
Bishop Mackay-Smith House,T. P. Chandler,1214,1980-01-25
Binghamton City Hall,I. &. Almirall,36421,1971-03-18
Bigelow-Ben Lomond Hotel,H. &. McClenahan,6474,1990-04-19
Beulah School,F. W. Keith,6879,1997-09-30
Bethany Congregational Church,"J. Williams Beal, Sons",3237,1989-09-20
Beth Sholom Congregation,F. L. Wright,15782,2007-03-29
Beth Israel School,A. Sutton,404,1978-08-10
Berwick Armory,W. W. Co.,3237,1991-11-14
Bertha M. and Marie A. Green House,W. H. Pipes,809,1992-10-15
Berry Hill Plantation,J. E. Johnson,5159741,1969-11-25
Berger Park,W. C. Zimmerman,13516,2010-01-12
Bergen County Court House,J. R. Gordon,23876,1983-01-11
Benton Commercial Historic District,F. Ginocchio,43706,2008-07-24
Bent's Old Fort National Historic Site,C. Bent,3233438,1966-10-15
Benson Building,B. &. Pennington,809,1980-03-26
Benjamin F. Greene House,C. A. Hall,4046,1979-04-06
"Benevolent and Protective Order of Elks, Lodge Number 878",T. B. Company,2792,2014-11-19
Bender's Restaurant,G. Tilden,4046,1987-07-21
Belvidere,J. W. Holt,63940,1992-11-12
Belleview-Biltmore Hotel,M. J. Miller,16187,1979-12-26
Bellefonte Armory,J. F. Kuntz,31970,1989-12-22
Belle Meade Apartments,E. Dougherty,10117,1984-04-19
Bell House,F. Lockwood,4046,1999-02-12
Belgravia Hotel,S. Webber,1214,1982-11-14
Beech Grove Cemetery,M. S. Mahurin,424919,1999-06-25
Bedford Springs Hotel Historic District,D. Ross,1214056,1984-12-20
Beaver Creek Ranger Station,C. C. Corps,190202,1993-06-10
"Beauport, Sleeper-McCann House",H. M. Hanson,3035,1976-04-26
Battell Park Historic District,W. P. Administration,44515,1996-01-11
Basilica of St. Fidelis,J. T. Comes,12140,1971-05-14
Basilica of Saint Mary,E. L. Masqueray,10117,1975-03-26
Baruh–Zell House,H. Brookman,1497,2007-04-05
Bartow County Courthouse,M. Brothers,4046,1980-09-18
Barton Academy,J. H. Dakin,7284,1970-02-16
Barnum-Palliser Historic District,P. &. Co.,23876,1982-12-16
Barnes County Courthouse,"Toltz, King & Day",12545,1985-11-14
Bardwell Illinois Central Railroad Station,I. C. Railroad,4046,1976-07-19
Barboursville,T. Jefferson,0,1969-11-12
Banker's House,G. Appleget,20234,1975-05-06
Bank of Onslow and Jacksonville Masonic Temple,H. E. Bonitz,404,1989-11-13
Bank of California Building,A. E. Doyle,404,1978-03-14
Bandelier CCC Historic District,L. Bennett,218530,1987-05-28
Bancroft Tower,E. &. Fisher,4046,1980-03-05
Baltusrol Golf Club,A. W. Tillinghast,1918209,2005-05-06
Baltimore County Circuit Courthouses,B. &. Pennington,16187,1972-10-27
Balsam Lake Mountain Fire Observation Station,A. Corporation,44110,2001-09-23
Ball–Ehrman House,A. E. Doyle,2023,1991-02-22
Balfour–Guthrie Building,M. H. Whitehouse,404,2002-08-01
Bald Mountain Hot Springs,T. &. Hummel,8093,1982-11-17
Balch House,S. Hannaford,4046,1980-03-03
Bailey Colony Farm,D. Williams,8093,1991-06-21
B. V. Sargent House,W. H. Weeks,1214,1980-10-20
B. Harley Bradley House,F. L. Wright,4046,2009-06-02
B. F. Grady School,L. B. Sr.,12140,1994-02-24
B. A. and Ruth Stover House,H. Thompson,809,1992-02-20
B'nai Israel Synagogue and Montefiore Cemetery,J. B. DeRemer,4046,2011-10-13
Ayden Historic District,L. R. Wilburn,590841,1994-08-26
Avondale Bridge,P. B. Co.,404,1985-02-04
Avon Congregational Church,D. Hoadley,4046,1972-11-07
Aviary,F. &. Chesterman,4046,1980-07-30
Autun,E. B. Gilchrist,20234,1984-09-06
Automobile Club of Buffalo,E. &. Johnson,133262,2012-06-20
Auto Freight Transport Building of Oregon and Washington,H. a. Dougan,3439,2005-06-30
"Austin, Nichols and Company Warehouse",C. Gilbert,4046,2007-06-28
