col0,col1,col2,col3
W. Pennington,University of Reading,T. G. Tutin,1915-10-08
W. P. Cockerell,Stanford University,Theodore Dru Alison Cockerell,1869-0-0
W. L. Culberson,University of Paris,C. F. Culberson,1929-04-05
W. H. Lewis,University of Michigan,M. R. Lewis,1870-06-17
W. C. Allee,University of Chicago,M. H. Allee,1885-06-05
W. Bodmer,University of Cambridge,J. Bodmer,1936-01-10
Wallace L. W. Sargent,University of Manchester,A. Sargent,1935-02-15
W. E. B. Du Bois,Harvard University,Shirley Graham Du Bois,1868-02-23
V. Mazya,Leningrad University,T. O. Shaposhnikova,1937-12-31
V. V. Nemytskii,Moscow State University,N. Bari,1900-11-22
V. Sarabhai,University of Cambridge,M. Sarabhai,1919-08-12
U. Frith,University of London,C. Frith,1941-05-25
U. v. Euler,Karolinska Institutet,D. Cronstedt,1905-02-07
T. Robbins,"Jesus College, Cambridge",B. Sahakian,1949-11-26
T. D. Snyder,"Balliol College, Oxford",M. Shore,1969-08-18
T. Hunt,University of Cambridge,M. Collins,1943-02-19
T. Stadtman,Cornell University,E. R. Stadtman,1920-02-12
T. Willis,"Christ Church, Oxford",S. Fell,1621-01-27
T. C. Südhof,RWTH Aachen University,L. Chen,1955-12-22
T. A. Steitz,Harvard University,J. A. Steitz,1940-08-23
T. Dray,Massachusetts Institute of Technology,C. Manogue,1956-03-17
T. Shaposhnikova,Leningrad University,V. G. Maz'ya,1946-1-1
S. P. Gage,Cornell University,S. H. Gage,1857-0-0
"Susan Greenfield, Baroness Greenfield","St Hilda's College, Oxford",P. Atkins,1950-10-01
S. Gadgil,Pune University,M. Gadgil,1944-0-0
S. Weinberg,Cornell University,L. Weinberg,1933-05-03
S. Pinker,Harvard University,R. Goldstein,1954-09-18
S. Jones,University of Edinburgh,N. Percy,1944-03-24
S. J. Gould,Columbia University,R. R. Shearer,1941-09-10
S. Hawking,"University College, Oxford",J. Hawking,1942-01-08
S. Wojcicki,Harvard University,E. Wojcicki,1937-03-30
S. Chen,McMaster University,C. Chen,1935-1-1
S. Singh,Imperial College London,A. Anand,1964-09-19
S. Farber,Harvard Medical School,N. Farber,1903-09-30
S. Ayyadurai,Massachusetts Institute of Technology,F. Drescher,1963-12-2
S. L. Quimby,Columbia University,E. Quimby,1893-08-21
S. Papert,University of Cambridge,S. Turkle,1928-02-29
S. M. Carroll,Harvard University,J. Ouellette,1966-10-05
S. Sassen,University of Notre Dame,R. Sennett,1947-01-05
S. Trivedi,California Institute of Technology,S. Tole,1963-04-05
S. M. Rapoport,University of Vienna,I. Rapoport,1912-11-27
S. Bagenstos,University of North Carolina,M. Schlanger,1970-1-1
S. Moncada,University of London,Princess Marie-Esméralda of Belgium,1944-12-03
R. Lynden-Bell,"Newnham College, Cambridge",D. Lynden-Bell,1937-12-07
R. Hubbard,Radcliffe College,G. Wald,1924-03-03
R. Pitt-Rivers,Bedford College,George Henry Lane-Fox Pitt-Rivers,1907-03-07
R. Beddington,"Brasenose College, Oxford",R. Denniston,1956-03-23
Rolla M. Tryon Jr.,Harvard University,A. F. Tryon,1916-0-0
R. Dahlgren,George Washington University,G. Dahlgren,1932-07-07
R. Needham,University of Cambridge,K. S. Jones,1935-02-09
R. Bingham,University College London,S. Rodwell,1948-1-1
R. Lakoff,Harvard University,G. Lakoff,1942-05-24
R. Longhi,University of Turin,L. Lopresti,1890-12-28
R. W. Floyd,University of Chicago,C. Floyd,1936-06-08
R. Thurman,Harvard University,N. v. Schlebrügge,1941-08-03
R. O. Doremus,New York University,E. S. Doremus,1824-01-11
R. Keohane,Harvard University,N. O. Keohane,1941-10-03
R. J. Cotter,Johns Hopkins University,C. C. Fenselau,1943-07-15
R. Edwards,Bangor University,R. F. Edwards,1925-09-27
R. Harradence,Oxford University,J. Cornforth,1915-09-16
R. N. Frye,Harvard University,E. Naby,1920-01-10
R. M. Durbin,University Cambridge,J. Ahringer,1960-12-30
R. Levins,Columbia University,M. P. Rico,1930-06-01
R. Dell,Victoria University of Wellington,M. Dell,1920-07-11
R. Dawkins,"Balliol College, Oxford",L. Ward,1941-03-26
R. C. Cabot,Harvard University,E. L. Cabot,1868-05-21
R. Axel,Columbia University,C. Bargmann,1946-07-02
R. Hisar,Sorbonne University,R. S. Gürsey,1902-1-1
R. R. Gates,Mount Allison University,M. Stopes,1882-05-01
R. W. Brink,Electrical engineering,C. R. Brink,1890-01-04
R. Merkle,Stanford University,C. Shaw,1952-02-02
R. J. G. Savage,Queen's University Belfast,S. Coryndon,1927-07-02
Q. Xuesen,California Institute of Technology,J. Ying,1911-12-11
P. Sinha,University of Calcutta,S. C. Sinha,1927-10-12
