col0,col1,col2,col3
Yunnanilus pleurotaenia,Nemacheilidae,VU,IUCN3.1
Yunnanilus pachycephalus,Nemacheilidae,LC,IUCN3.1
Yunnanilus nigromaculatus,Nemacheilidae,EN,IUCN3.1
Yunnanilus niger,Nemacheilidae,VU,IUCN2.3
Yunnanilus macrogaster,Nemacheilidae,VU,IUCN2.3
Yunnanilus longibarbatus,Nemacheilidae,NE,IUCN3.1
Yunnan red-backed vole,Cricetidae,LC,iucn3.1
Yunnan nuthatch,Sittidae,NT,IUCN3.1
Yunnan lar gibbon,Hylobatidae,DD,iucn3.1
Yunnan hare,Leporidae,LC,iucn3.1
Yunnan fulvetta,Pellorneidae,NR,IUCN3.1
Yunnan bush rat,Muridae,DD,iucn3.1
Yunnan box turtle,Geoemydidae,CR,iucn3.1
Yungas tyrannulet,Tyrannidae,VU,IUCN3.1
Yungas tree frog,Hylidae,LC,IUCN3.1
Yungas tody-tyrant,Tyrannidae,LC,IUCN3.1
Yungas screech owl,Strigidae,LC,IUCN3.1
Yungas pygmy owl,Strigidae,LC,IUCN3.1
Yungas manakin,Pipridae,LC,IUCN3.1
Yungas dove,Columbidae,LC,IUCN3.1
Yungas antwren,Thamnophilidae,LC,IUCN3.1
Yuma myotis,Vespertilionidae,LC,IUCN3.1
Yulungshan vole,Cricetidae,LC,IUCN3.1
Yule Island tree frog,Hylidae,LC,IUCN3.1
Yucatán mushroomtongue salamander,Plethodontidae,LC,IUCN3.1
Yucatan yellow bat,Vespertilionidae,LC,IUCN3.1
Yucatan wren,Troglodytidae,NT,IUCN3.1
Yucatan woodpecker,Picidae,LC,IUCN3.1
Yucatan vireo,Vireonidae,LC,IUCN3.1
Yucatan squirrel,Sciuridae,LC,iucn3.1
Yucatan spider monkey,Atelidae,EN,iucn3.1
Yucatan small-eared shrew,Soricidae,LC,IUCN3.1
Yucatan poorwill,Caprimulgidae,LC,IUCN3.1
Yucatan nightjar,Caprimulgidae,LC,IUCN3.1
Yucatan jay,Corvidae,LC,IUCN3.1
Yucatan flycatcher,Tyrannidae,LC,IUCN3.1
Yucatan deer mouse,Cricetidae,LC,IUCN3.1
Yucatan bobwhite,Odontophoridae,LC,IUCN3.1
Yucatan amazon,Neotropical parrot,LC,IUCN3.1
Yucatán mushroomtongue salamander,Plethodontidae,LC,IUCN3.1
Yssolebias martae,Rivulidae,NE,IUCN3.1
Yoyo loach,Botiidae,LC,IUCN3.1
Yonenaga's Atlantic spiny rat,Echimyidae,EN,iucn3.1
Yonahlossee salamander,Plethodontidae,LC,IUCN3.1
Yolanda's tuco-tuco,Ctenomyidae,DD,IUCN3.1
Yoke darter,Percidae,LC,IUCN3.1
Yoga pyrops,Gobiidae,NE,iucn3.1
Yiwu salamander,Asiatic salamander,VU,IUCN3.1
Yinnietharra rock dragon,Agamidae,VU,IUCN2.3
Yermo xanthocephalus,Asteraceae,G1,TNC
Yerba mate,Aquifoliaceae,LR/nt,IUCN2.3
Yepes's mulita,Dasypodidae,DD,iucn3.1
Yenyuan stream salamander,Hynobiidae,VU,IUCN3.1
Yemeni mouse,Muridae,LC,IUCN3.1
Yemen warbler,Sylviidae,VU,IUCN3.1
Yemen thrush,Turdidae,VU,IUCN3.1
Yemen serin,Carduelinae,LC,IUCN3.1
Yemen linnet,Fringillidae,LC,IUCN3.1
Yellowtail tubelip,Labridae,LC,iucn3.1
Yellowtail snapper,Lutjanidae,NE,IUCN3.1
