col0,col1,col2,col3
Australia at the 1968 Summer Olympics,5,7,5
Australia at the 1964 Summer Olympics,10,2,6
Australia at the 1960 Summer Olympics,6,8,8
Australia at the 1956 Summer Olympics,14,8,13
Australia at the 1952 Summer Olympics,3,2,6
Australia at the 1948 Summer Olympics,5,6,2
Australia at the 1936 Summer Olympics,1,0,0
Australia at the 1932 Summer Olympics,1,1,3
Australia at the 1928 Summer Olympics,1,2,1
Australia at the 1924 Summer Olympics,2,1,3
Australia at the 1920 Summer Olympics,1,2,0
Australia at the 1906 Intercalated Games,3,0,0
Australia at the 1900 Summer Olympics,3,0,2
Australia at the 1896 Summer Olympics,0,0,2
