col0,col1,col2,col3
Red Prophet,Prentice Alvin,Seventh Son,PS3553.A655 R43 1988
Reckless,Unforgettable,Notorious,MLCS 2006/45268
Reborn,Reprisal,The Touch,PS3573.I45695 R4 1990
Raven Rise,The Soldiers of Halla,The Pilgrims of Rayne,PZ7.M177535 Rav 2008
Rama II,The Garden of Rama,Rendezvous with Rama,PR6005.L36 R36 1989b
Raise the Titanic!,Vixen 03,Iceberg,PZ4.C9856 Rai PS3553.U75
Rainbow Six,The Bear and the Dragon,Executive Orders,PS3553.L245 R35 1998
Ragamuffin,Sly Mongoose,Crystal Rain,PS3602.U2635 R34 2007
Racso and the Rats of NIMH,"R-T, Margaret, and the Rats of NIMH",Mrs. Frisby and the Rats of NIMH,PZ7.C761846 Ras 1986
Rabbit Redux,Rabbit is Rich,"Rabbit, Run",PZ4.U64 Raap 1971 PS3571.P4
Rabbit Is Rich,Rabbit At Rest,Rabbit Redux,PS3571.P4 R25 1981
Queer,Gregory Corso,Junkie,PS3552.U75 Q8 1985
Puzzles of the Black Widowers,The Return of the Black Widowers,Banquets of the Black Widowers,PS3551.S5 P8 1990
Put on By Cunning,The Speaker of Mandarin,A Sleeping Life,PR6068.E63 P87 1981
Pursuit of the Deadly Diamonds,The Secret of the Third Watch,Duel for the Samurai Sword,CPB Box no. 2802 vol. 20
Pure Drivel,Shopgirl,Picasso at the Lapin Agile,PS3563.A7293 P87 1998
Prochownik's Dream,Landscape of Farewell,Journey to the Stone Country,PR9619.3.M469 P76 2005
Prince Caspian,The Voyage of the Dawn Treader,"The Lion, the Witch and the Wardrobe",PZ8.L48 Pr
Priestess of Avalon,The Mists of Avalon,Lady of Avalon,PS3552.R228 P75 2000
Pretties,Specials,Uglies,PZ7.W5197 Pr 2005
Presumed Innocent,The Burden of Proof,One L,PS3570.U754 P7 1987
Prentice Alvin,Alvin Journeyman,Red Prophet,PS3553.A655 P74 1989
Predator,Book of the Dead,Trace,PS3553.O692 P74 2005
Power to the People,The Obama Diaries,"Shut Up & Sing: How Elites from Hollywood, Politics, and the UN Are Subverting America",HN65 .I64 2007
Postern of Fate,Poems,Elephants Can Remember,PZ3.C4637 Pq3 PR6005.H66
Postcards from No Man's Land,This is All: The Pillow Book of Cordelia Kenn,The Toll Bridge,PZ7.C3557 Po 2002
Post Captain,HMS Surprise,Master and Commander,PZ3.O1285 Po PR6029.B55
Possible Side Effects,A Wolf at the Table,Magical Thinking,PS3552.U745 Z475 2006
Polaris,Seeker,A Talent for War,PS3563.C3556 P65 2004
Polar Star,Red Square,Gorky Park,CPB Box no. 1797 vol. 10
Poirot's Early Cases,Curtain,Poems,PZ3.C4637 Poj3 PR6005.H66
Point Blanc,Skeleton Key,Stormbreaker,PZ7.H7875 Po 2001
Poems,Poirot's Early Cases,Postern of Fate,PR6005.H66 A6 1973b
Plum Lucky,Fearless Fourteen,Lean Mean Thirteen,PS3555.V2126 P58 2008b
Plum Lovin',Plum Lucky,Twelve Sharp,PS3555.V2126 P56 2007b
Please Pass the Guilt,A Family Affair,Death of a Dude,PZ3.S8894 Pj PS3537.T733
Plan of Attack,"State of Denial: Bush at War, Part III",Bush at War,DS79.76 .W66 2004b
Plague Ship,Corsair,Skeleton Coast,PS3553.U75 P55 2008b
Pirateology: A Pirate Hunter's Companion,"Mythology: Greek Gods, Heroes, & Monsters",Wizardology: The Book of the Secrets of Merlin,G535 .S755 2006
Pirate King,Garment of Shadows,The God of the Hive,PS3561.I4813 P57 2011
Pigeon Post,We Didn't Mean To Go To Sea,Coot Club,PZ7.R175 Pi
Pieces of Modesty,The Silver Mistress,The Impossible Virgin,PR6029.D55 P5 1986
Physics of the Impossible,Physics of the Future,Parallel Worlds,QC75 .K18 2008
Physics of the Future,The Future of the Mind,Physics of the Impossible,Q175.5 .K257 2011
Phantom,Confessor,Chainfire,PS3557.O5826 P44 2006
Phaic Tăn,San Sombrèro,Molvanîa,PN6231.T7 C57 2004
Peter and the Shadow Thieves,Peter and the Secret of Rundoon,Peter and the Starcatchers,PZ7.B278 Pdh 2006
Peter and the Secret of Rundoon,Peter and the Sword of Mercy,Peter and the Shadow Thieves,PZ7.B278 Pde 2007
Pet Peeve,Stork Naked,Currant Events,PS3551.N73 P47 2005
Persuader,The Enemy,Without Fail,PS3553.H4838 P4 2003
Personal Injuries,Reversible Errors,The Laws of Our Fathers,PS3570.U754 P47 1999b
Peril's Gate,Traitor's Knot,Grand Conspiracy,PR6073.U78 P47 2002
People of the River,People of the Lakes,People of the Sea,PS3557.E19 P46 1992
Patriot Games,Red Rabbit,Without Remorse,PS3553.L245 P38 1987
Patrimony,Flinx Transcendent,Trouble Magnet,PS3556.O756 P38 2007
Passenger to Frankfurt,Nemesis,Hallowe'en Party,PZ3.C4637 Pas PR6005.H66
Passage to Pluto,"Tony Hale, Space Detective",First Contact?,PZ7.W1715 Pas
Passage,Horizon,Legacy,PS3552.U397 S56 2008
Parallel Worlds,Physics of the Impossible,Visions,QB981 .K134 2005
Paper Doll,Walking Shadow,Double Deuce,PS3566.A686 P33 1993
Pandora's Curse,River of Ruin,The Medusa Stone,CPB Box no. 1838 vol. 3
Paleo,The Evil That Men Do,Ghoul Trouble,CPB Box no. 2209 vol. 27
Pale Kings and Princes,Crimson Joy,Taming a Sea Horse,PS3566.A686 P3 1987
Pale Horse Coming,Havana,Hot Springs,PS3558.U494 P35 2001
Pale Blue Dot,The Demon-Haunted World,Shadows of Forgotten Ancestors,QB500.262 .S24 1994
Paladin of Souls,The Hallowed Hunt,The Curse of Chalion,PS3552.U397 P355 2003
Oz: Into the Wild,These Our Actors,The Lost Slayer,PS3557.O35927 O98 2002
Outliers,What the Dog Saw: And Other Adventures,Blink,BF637.S8 G533 2008
Otherwise Known as Sheila the Great,Super Fudge,Tales of a Fourth Grade Nothing,PZ7.B6265 Ot
Other People,Money,Success,PR6051.M5 O8 1981b
Oscar and Lucinda,The Tax Inspector,Illywhacker,MLCM 91/08820 (P) PR9619.3.C36
Orange Crush,Triggerfish Twist,Hammerhead Ranch Motel,PS3554.O719 O73 2001
Only Revolutions,"The Familiar, Volume 1: One Rainy Day in May",The Fifty Year Sword,PS3554.A5596 O55 2006
One Good Knight,Fortune's Fool,The Fairy Godmother,CPB Box no. 2660 vol. 7
One False Note,The Sword Thief,The Maze of Bones,PZ7.K8369 One 2008
On the Way Home,West From Home,The First Four Years,F598 .W54
On the Bus with Rosa Parks,American Smooth,Mother Love,PS3554.O884 O52 1999
On the Banks of Plum Creek,By the Shores of Silver Lake,Little House on the Prairie,PZ7.W6461 On
On Wings of Eagles,Lie Down with Lions,The Man from St. Petersburg,E183.8.I55 F64 1983
Ombria in Shadow,In the Forests of Serre,The Tower at Stony Wood,PS3563.C38 O43 2002
Old Angel Midnight,Atop an Underwood: Early Stories and Other Writings,Scattered Poems,PS3521.E735 O43 1993
"Oh, the Places You'll Go!",Daisy-Head Mayzie,I Am NOT Going to Get Up Today!,PZ8.3.G276 Og 1990
Of Wee Sweetie Mice and Men,Turbulent Priests,Divorcing Jack,PR6052.A773 O37 1996
Obsidian Butterfly,Narcissus in Chains,Blue Moon,PS3558.A443357 O7 2000
O Jerusalem,Justice Hall,The Moor,PS3561.I4813 O15 1999
Notorious,Reckless,The It Girl,PZ7.V94 Nov 2006
Nothing Lasts Forever,"Morning, Noon and Night",The Stars Shine Down,PS3569.H3927 N67 1994
Not the End of the World,One Fine Day in the Middle of the Night,Country of the Blind,PR6052.R58158 N68 1998
Northern Lights,The Subtle Knife,Once Upon a Time in the North,PZ7.P968 Go 1996
No Humans Involved,Personal Demon,Broken,PS3551.R4678 N6 2007
No Dominion,Half the Blood of Brooklyn,Already Dead,PS3608.U855 N6 2006
Night Probe!,Pacific Vortex!,Vixen 03,PS3553.U75 N5 1981
Night Game,Conspiracy Game,Mind Game,CPB Box no. 2410 vol. 22
Night Fall,Wild Fire,The Lion's Game,PS3554.E472 N54 2004
Nicolae,Soul Harvest,Tribulation Force,PS3562.A315 N53 1997
New Moon,Eclipse,Twilight,PZ7.M5717515 New 2006
Neveryóna,Flight from Nevèrÿon,Tales of Nevèrÿon,PS3554.E437 N4 1983
Never Let Me Go,Nocturnes,When We Were Orphans,PR6059.S5 N48 2005
Nemesis,The Golden Ball and Other Stories,Passenger to Frankfurt,PR6005.H66 N4 1971b
Necklace and Calabash,Poets and Murder,Judge Dee at Work,PR9130.9.G8 N43 1992
Narcissus in Chains,Cerulean Sins,Obsidian Butterfly,PS3558.A443357 N37 2001
Narcissus and Goldmund,Journey to the East,Steppenwolf,PT2617.E85 N413 2003
Napalm and Silly Putty,When Will Jesus Bring the Pork Chops?,Brain Droppings,PN6162 .C276 2001
Naked Empire,Chainfire,The Pillars of Creation,PS3557.O5826 N35 2003
Naked,Holidays on Ice,Barrel Fever,PS3569.E314 Z469 1997
Mystery of the Samurai Sword,The Pentagon Spy,Night of the Werewolf,PZ7.D644 Myk 1979b
Mystery of the Glowing Eye,The Secret of the Forgotten City,The Double Jinx Mystery,PZ7.K23 Nan no. 51
Mystery of Smugglers Cove,The Stone Idol,The Mummy Case,PZ7.D644 Myar
Mystery of Crocodile Island,The Thirteenth Pearl,The Strange Message in the Parchment,PZ7.K23 Nan no. 55
My Many Colored Days,Hooray for Diffendoofer Day!,The Secret Art of Dr. Seuss,PZ8.3.G276 My 1996
My Life,Giving: How Each of Us Can Change the World,Between Hope and History,E886 .A3 2004
My Dateless Diary,The Man-Eater of Malgudi,The Guide,PR9499.3.N3 Z472 1988
Murphy's Stand,Murphy's Ambush,Murphy's War,PS3566.A834 M88 1993
Murphy's Herd,Murphy's War,Murphy's Gold,PS3566.A834 M87 1989
Murphy's Gold,Murphy's Herd,Murphy,PS3566.A834 M85 1988
Murphy's Ambush,Murphy's Trail,Murphy's Stand,PS3566.A834 M83 1995
Murder in Canton,The Phantom of the Temple,The Willow Pattern,PR9130.G8 M87 1993
Murder Being Once Done,Some Lie And Some Die,No More Dying Then,PZ4.R4132 Mu PR6068.E63
Multitude: War and Democracy in the Age of Empire,Commonwealth,Empire,JC423 .H364 2004
"Much Obliged, Jeeves",Aunts Aren't Gentlemen,"Stiff Upper Lip, Jeeves",PZ3.W817 Ms FT MEADE
Mr. Sampath – The Printer of Malgudi,The Financial Expert,The English Teacher,PR9499.3.N3 A6 2006b
Mr. Monk in Outer Space,Mr. Monk Goes to Germany,Mr. Monk and the Two Assistants,PS3557.O3577 M77 2007
Mr. Monk and the Two Assistants,Mr. Monk in Outer Space,Mr. Monk and the Blue Flu,PS3557.O3577 M725 2007
Mr. Monk and the Blue Flu,Mr. Monk and the Two Assistants,Mr. Monk Goes to Hawaii,CPB Box no. 2704 vol. 4
Mr. Monk Is Miserable,Mr. Monk and the Dirty Cop,Mr. Monk Goes to Germany,PS3557.O3577 M78 2008
Mr. Monk Goes to Hawaii,Mr. Monk and the Blue Flu,Mr. Monk Goes to the Firehouse,CPB Box no. 2468 vol. 16
Mountain of Black Glass,Sea of Silver Light,River of Blue Fire,PS3573.I45563 M68 1999
Motherless Brooklyn,Kafka Americana,Girl in Landscape,PS3562.E8544 M68 1999
Mortalis,Ascendance,The Demon Apostle,PS3569.A462345 M67 2000
Mortal Stakes,Promised Land,God Save the Child,PZ4.P244 Mo PS3566.A686
Mortal Danger,Blood Lines,Tempting Danger,CPB Box no. 2407 vol. 18
Morgawr,Jarka Ruus,Antrax,PS3552.R6596 M67 2002
Moreta: Dragonlady of Pern,Nerilka's Story,Dragondrums,PS3563.A255 M6 1983
More Tales of the City,Further Tales of the City,Tales of the City,PS3563.A878 M67
More Information Than You Require,That Is All,The Areas of My Expertise,PN6165 .H65 2008
More Flanimals,Flanimals of the Deep,Flanimals,PZ7.G3265 Mor 2006
Morality for Beautiful Girls,The Kalahari Typing School for Men,Tears Of The Giraffe,PR6063.C326 M67 2001
Moonrise,Dawn,Midnight,PZ7.H916625Mo 2005
Monty: His Part in My Victory,Mussolini: His Part in My Downfall,"""Rommel?"" ""Gunner Who?""",D745.2 .M52
Monk's Hood,Saint Peter's Fair,One Corpse Too Many,PR6031.A49 M6 1980
Mixed Magics,Conrad's Fate,The Lives of Christopher Chant,PZ7.J684 Mi 2001 (US)
Mistral's Kiss,A Lick of Frost,A Stroke of Midnight,PS3558.A443357 M57 2006
Mistborn: The Well of Ascension,Mistborn: The Hero of Ages,Mistborn: The Final Empire,PS3619.A533 W45 2007
Mistborn: The Alloy of Law,Mistborn: Shadows of Self,Mistborn: The Hero of Ages,PS3619.A533
Mistborn: Shadows of Self,Mistborn: The Bands of Mourning,Mistborn: The Alloy of Law,PS3619.A533
Missee Lee,The Picts And The Martyrs,The Big Six,PZ7.R175 Mi 2001
Mind Game,Night Game,Shadow Game,CPB Box no. 2257 vol. 14
Midnight Tides,The Bonehunters,House of Chains,PR9199.4.E745
Midnight: A Gangster Love Story,Midnight and the Meaning of Love,The Coldest Winter Ever,PS3569.O7374 M53 2008
Microserfs,Polaroids from the Dead,Life After God,PS3553.O855 M53 1995
Michael Tolliver Lives,Mary Ann in Autumn,Sure of You,PS3563.A878 M53 2007
Micah,Danse Macabre,Incubus Dreams,CPB Box no. 2450 vol. 12
Messenger,Son,Gathering Blue,PZ7.L9673 Me 2004
Merrick,Blood and Gold,The Vampire Armand,PS3568.I265 M48 2000
Mendoza in Hollywood,The Graveyard Game,Sky Coyote,PS3552.A4313 M46 2000
Memnoch the Devil,The Vampire Armand,The Tale of the Body Thief,PS3568.I265 M46 1995
Me Talk Pretty One Day,Dress Your Family in Corduroy and Denim,Holidays on Ice,PS3569.E314 M4 2000
Matriarch,Ally,The World Before,CPB Box no. 2665 vol. 12
Marvin K. Mooney Will You Please Go Now!,Did I Ever Tell You How Lucky You Are?,The Lorax,PZ8.3.G276 Mar
Many Waters,An Acceptable Time,A Swiftly Tilting Planet,PZ7.L5385 Man 1986
Manufacturing Consent,Necessary Illusions,"The Fateful Triangle: The United States, Israel, and the Palestinians",P96.E25 H47 2002
Manifold: Origin,Phase Space,Manifold: Space,PR6052.A849 M34 2002
Man vs Beast,The Fall,Divine Madness,PZ7.M869647 Ma 2006
Magical Thinking,Possible Side Effects,Dry,PS3552.U745 Z472 2004
Magic in Ithkar 3,Magic in Ithkar 4,Magic in Ithkar 2,PS648.F3 M283 1986
Magic in Ithkar 2,Magic in Ithkar 3,Magic in Ithkar,PS648.F3 M282 1985
Lyra's Oxford,The Book of Dust,The Amber Spyglass,PZ7.P968 Ly 2003
Lost Light,The Narrows,City of Bones,PS3553.O51165 L67 2003
Lost City,Polar Shift,White Death,PS3553.U75 L67 2004
