col0,col1,col2,col3
Growth hormone-binding protein,2690,P10912,4263
Growth hormone–releasing hormone,2691,P01286,4265
Growth hormone,2688,P01241,4261
Group 1 CD1,909,P06126,1634
Gremlin,26585,O60565,17655
Granin,1113,P05060,10575
Gq alpha subunit,2767,O95837,4379
Gonadotropin-releasing hormone receptor,114814,P30968,16341
Glycoprotein IIb/IIIa,3674,P05106,6138
Glycophorin C,2995,P04921,4704
Glyceronephosphate O-acyltransferase,8443,O15228,4416
Glutathione synthetase,2937,P48637,4624
Glutamyl aminopeptidase,2028,Q07075,3355
Glucokinase regulatory protein,2646,Q14397,4196
Glia maturation factor,2764,O60234,4373
Gi alpha subunit,2770,P04899,4384
Gastric lipase,8513,P07098,6622
Gastric inhibitory polypeptide,2695,P09681,4270
Gamma-glutamyl transpeptidase,2678,P19440,4250
Galanin receptor,2587,O43603,4132
Galanin-like peptide,85569,Q9UBC7,24840
Galactokinase,2584,P51570,4118
G protein-coupled receptor kinase 7,131890,Q8WTQ7,17031
G protein-coupled inwardly-rectifying potassium channel,3760,P48051,6264
GSK-3,2931,P49840,4616
GRINL1B,84534,Q9BZD3,15712
GRIK4,2900,Q16099,4582
GPR137B,7107,O60478,11862
GPD1L,23171,Q8N335,28956
GPATCH11,253635,Q8N954,26768
GMP reductase,2766,P36959,4376
GLYCAM1,644076,Q8IVK1,18023
GLIS2,84662,Q9BZE0,29450
GHB receptor,79581,Q9HAB3,30224
GDP-fucose protein O-fucosyltransferase 2,23275,Q9Y2G5,14683
GDP-fucose protein O-fucosyltransferase 1,23509,Q9H488,14988
GABAB receptor,2550,O75899,4070
GABAA-rho receptor,200959,P24046,17969
G12/G13 alpha subunits,10672,Q03113,4380
Fukutin-related protein,79147,Q9H9S5,17997
Frzb,2487,Q92765,3959
"Fructose 1,6-bisphosphatase",2203,P09467,3606
Free fatty acid receptor,2864,O14842,4498
Formyl peptide receptor,2357,P21462,3826
Formins,342184,Q68DA7,14074
Formimidoyltransferase cyclodeaminase,10841,O95954,3974
Follicle-stimulating hormone,1081,P01215,1885
Fibrocystin,5314,Q8TCZ9,9016
Fibrinogen,2243,P02671,3661
Fibrillin,2200,P35555,18794
Fetuin,197,P02765,349
Ferritin,2495,P02792,17345
Ferredoxin,2230,P10109,3638
Fcα/μR,83953,Q96SA2,24692
Fascin,25794,O14926,11148
Fam221b,392307,A6H8Z2,30762
Factor XIII,2162,P00488,3531
Factor D,1675,P00746,2771
FXYD6,53826,Q9H0Q3,4030
FUT4,2526,P22083,4015
FKBP6,8468,O75344,3722
FGF22,27006,Q9HCT0,3679
FGF20,26281,Q9NP95,3677
FGF16,8823,O43320,3672
FGF11,2256,Q92914,3667
FCER1,2205,P12319,3609
FANCM,57697,Q8IYD8,23168
Extracellular signal–regulated kinases,5594,P27361,6871
Estrogen receptor,2099,P03372,3467
Estrogen-related receptor,2101,O95718,3471
Erythroferrone,151176,Q4G0M1,26727
Epididymal secretory protein E1,10577,P61916,14537
Enoyl-CoA hydratase,1962,Q08426,3247
Enkephalin,5179,P01210,8831
Endothelin receptor,1909,P24530,3179
Endothelin,1906,P05305,3176
Endothelial lipase,9388,Q9Y5X9,6623
Emopamil binding protein,10682,Q15125,3133
Electron-transferring-flavoprotein dehydrogenase,2110,Q16134,3483
EVC,2121,P57679,3497
EVC2,132884,Q86UK5,19747
ERM transcription factor,2119,P41161,3494
ELMO3,79767,Q96BJ8,17289
EIF4A,1973,P38919,18683
EID2,163126,Q8N6I1,28292
EGF module-containing mucin-like hormone receptor,2015,Q14246,19240
Dystrobrevin,1837,O60941,3057
Dynorphin,5173,P01213,8820
Duodenal cytochrome B,79901,Q53TN4,20797
Doubletime,1454,P49674,2453
Dipeptidase 2,64174,Q9H4A9,23028
Dihydroorotase,790,P27708,1424
Diacylglycerol lipase,221955,Q8NCG7,1165
Destrin,11034,P60981,15750
Deoxyribonuclease II,1777,O00115,28875
Delta catenin,1500,O60716,2515
DNA damage-binding protein,1642,Q16531,2717
DNA clamp,5111,P12004,8729
DHH,50846,O43323,2865
D1–D2 dopamine receptor heteromer,1812,P14416,3020
D-amino acid oxidase activator,267012,P59103,21191
Cytochrome b5,1528,P00167,2570
Cytochrome C1,1537,P08574,2579
Cyclophilin,5478,Q3KQW3,9253
Cyclin E2,9134,O96020,1590
Cyclin E,898,O96020,1589
Cyclin D,595,P24385,1582
Cyclin B,85417,O95067,1579
Cyclin A,890,P20248,1577
Cycle,406,O00327,701
Cubam,8029,O60494,14604
Corticotropin-releasing hormone receptor,1394,P34998,2357
Corticotropin-like intermediate peptide,5443,P01189,9201
Complement receptor of the immunoglobulin family,11326,Q9Y279,17032
Complement component 9,735,P02748,1358
Complement component 7,730,P10643,1346
Complement component 5a,727,P01031,1331
Complement component 4,720,P0C0L4,1323
Complement component 1s,716,P09871,1247
Complement component 1R,715,P00736,1246
Collectin liver 1,10584,Q3SYH6,2220
Collagenase,4312,P03956,7155
"Collagen, type XI, alpha 2",1302,P13942,2187
Cocaine and amphetamine regulated transcript,9607,Q16568,24323
Clathrin,1211,P09496,2091
Citrin,10165,Q9UJS0,10983
Ciliary neurotrophic factor receptor,1271,P26992,2170
Chymase,1215,P23946,2097
Chordin,8646,Q9H2X0,1949
Cholinesterase,43,P06276,108
Cholecystokinin receptor,886,P32238,1570
Chimerin 1,1123,P15882,1943
Chicken ovalbumin upstream promoter-transcription factor,7025,P10589,7975
Chemerin peptide,5919,Q99969,9868
Channel-inducing factor 4,53828,Q6UWZ1,4028
Ceramide synthase 5,91012,Q8N5B7,23749
Ceramide synthase 4,79603,Q9HA82,23747
Cellular apoptosis susceptibility protein,1434,P55060,2431
Caveolin,857,P51636,1527
Cation channels of sperm,117144,Q7RTX7,17116
Caspase 5,838,P51878,1506
Caspase 4,837,P49662,1505
Caspase 12,120329,Q6UXS9,19004
Casein kinase 2,1457,P19784,2457
Carnitine-acylcarnitine translocase,788,O43772,1421
Cardiotrophin 1,1489,Q16619,2499
Carboxypeptidase B,1360,P15086,2299
Carbamoyl phosphate synthetase I,1373,P31327,2323
Cannabinoid receptor,1268,P21554,2159
Calsequestrin,844,O14958,1512
Calponin,1264,P51911,2155
Calcitonin gene-related peptide,796,P06881,1437
Calcineurin,5530,P16298,9314
Calbindin,793,P05937,1434
CXCL6,6372,P80162,10643
CXCL2,2920,P19875,4603
CXCL16,58191,Q9H2A7,16642
CXCL14,9547,O95715,10640
CSF2RB,1439,P32927,2436
CORO1B,57175,Q9BR76,2253
COPII,10802,O95486,10701
CLEC4C,170482,Q8WTT0,13258
