col0,col1,col2,col3
K. Randall,Canada,Montreal Wanderers,1947-06-14
K. Mallen,"Morrisburg, Ontario",Quebec Bulldogs,1930-04-23
K. Kilrea,Florida,Detroit Red Wings,1990-01-14
K. Broderick,Canada,Boston Bruins,2016-03-13
K. McCreary,Toronto,Atlanta Flames,2003-12-09
K. Magnuson,Canada,Chicago Blackhawks,2003-12-15
K. Campbell,Canada,Pittsburgh Yellow Jackets,1981-07-25
K. Allen,Pennsylvania,Detroit Red Wings,2014-02-04
K. Astašenko,Latvia,Belfast Giants,2012-11-20
K. Rachůnek,Russia,New Jersey Devils,2011-09-07
K. Skrastiņš,Russia,Colorado Avalanche,2011-09-07
J. Widing,British Columbia,Edmonton Oilers,1984-12-30
J. McAtee,Oklahoma,Detroit Red Wings,2011-02-22
J. McCormick,Canada,Pittsburgh Yellow Jackets,1934-1-22
J. Cattarinich,Louisiana,Montreal Canadiens,1938-12-07
J. Vašíček,Russia,Carolina Hurricanes,2011-09-07
J. Delisle,"Beauceville, Quebec",Montreal Canadiens,2006-03-16
J. Wilson,Detroit,Chicago Blackhawks,2011-12-27
J. Quilty,Ottawa,Boston Bruins,1969-09-12
J. Holota,Colorado,Detroit Red Wings,1951-03-10
J. Harms,British Columbia,Chicago Blackhawks,2003-01-05
J. Gottselig,United States,Chicago Blackhawks,1986-05-15
J. Petro,Canada,East York Lyndhursts,1998-10-23
J. Michaluk,Calgary,Chicago Blackhawks,1998-12-18
J. McLellan,"Agincourt, Meurthe-et-Moselle",Cleveland Barons,1979-10-27
J. McCreedy,Canada,Toronto Maple Leafs,1979-12-07
J. Mariucci,Minneapolis,Chicago Black Hawks,1987-03-23
J. Mahaffy,Canada,Montreal Canadiens,2015-05-02
J. Kordic,Canada,National Hockey League,1992-08-08
J. Ingoldsby,Canada,Toronto Maple Leafs,1982-08-10
J. Hanna,Canada,National Hockey League,2005-11-20
J. F. Sr.,Canada,Montreal Canadiens,2007-07-14
J. Davies,Edmonton,Edmonton Mercurys,2009-01-19
J. Brophy,"Antigonish, Nova Scotia",Milwaukee Chiefs,2016-05-23
J. Brackenborough,Florida,Boston Bruins,1993-07-08
J. Shack,England,New York Rangers,1987-05-05
J. Schmidt,Canada,Boston Bruins,2000-09-30
J. Schertzl,Canada,Hershey Bears,1979-12-02
J. Primeau,Canada,Toronto Maple Leafs,1989-05-14
J. Nolan,New York,Toledo Mercurys,1986-09-29
J. Malone,Montreal,Montreal Canadiens,1969-05-15
J. Levandoski,Canada,New York Rangers,2001-12-20
J. Krol,Alberta,New York Rangers,1993-10-26
J. Klukay,Canada,OHA Senior A League,2006-02-03
J. Junkin,Pennsylvania,Boston Bruins,2014-01-11
J. Hall,Seattle,Montreal Canadiens,1919-04-05
J. Dennison,Canada,Ottawa Senators,1958-09-21
J. Bretto,Minnesota,Chicago Blackhawks,2007-01-27
J. Benoit,United States,Montreal Canadiens,1981-10-19
J. Bell,Seattle,New York Rangers,2014-02-17
J. Beaton,England,Wembley Lions,1965-1-1
J. v. Bethmann-Hollweg,England,SC Riessersee,2001-08-13
J. Ward,Oregon,Montreal Canadiens,1990-11-15
J. Spence,Scotland,Nottingham Panthers,2004-09-09
J. Kilburn,Alberta,Edmonton Mercurys,2008-02-23
J. Herbert,"Buffalo, New York",Boston Bruins,1968-12-05
J. Gibson,Canada,Victoria Cougars,1964-05-28
J. Gardner,Canada,Montreal Canadiens,1940-11-07
J. Chappell,United States,Fife Flyers,1973-04-03
J. Borland,Canada,Wembley Monarchs,1970-01-31
J. Seaborn,"Kansas City, Missouri",Vancouver Millionaires,1964-01-15
J. Russell,Canada,Buffalo Bisons,1977-09-03
J. Ross,Ontario,New York Rangers,2016-01-01
J. Roberts,Missouri,St. Louis Blues,2015-10-23
J. Pritchard,British Columbia,World Hockey Association,2014-04-01
J. Mikol,Florida,New York Rangers,2014-03-15
J. Mallen,"Morrisburg, Ontario",Halifax Crescents,1954-12-17
J. Laird,"Lebanon, Connecticut",Buffalo,1970-08-16
J. Henry,Winnipeg,Boston Bruins,2004-01-21
J. Fairburn,British Columbia,Minneapolis Millers,2015-03-28
J. Cunningham,Minnesota,Philadelphia Flyers,2011-04-29
J. Burton,United States,American Hockey League,2015-01-05
J. Ballantine,Michigan,Columbus Chill,2002-01-04
J. Potz,Frankfurt,Frankfurt Lions,2000-01-27
J. Toppazzini,Canada,Boston Bruins,2012-04-21
J. McDill,Canada,Chicago Blackhawks,2012-11-03
J. Brownschidle,New York,Hartford Whalers,1996-12-13
J. Pusie,Canada,Boston Bruins,1956-04-21
J. Marois,Canada,Chicago Blackhawks,1996-01-03
J. Gauthier,Quebec,Philadelphia Flyers,2013-02-20
J. Béliveau,Canada,Montreal Canadiens,2014-12-02
J. Bourcier,Quebec,Montreal Canadiens,1989-06-20
J. Béliveau,Canada,Montreal Canadiens,2014-12-02
J. Gladu,Canada,Boston Bruins,2015-02-01
J. Morissette,Canada,Montreal Canadiens,2011-03-22
J. Jiřík,Czech Republic,HC Kometa Brno,2011-07-11
J. Holík,Czech Republic,Dukla Jihlava,2015-04-17
J. Wasama,Finland,SM-liiga,1966-02-02
J. Petač,Ljubljana,HDD Olimpija Ljubljana,2011-05-23
J. Palouš,Czechoslovakia,HC Slavia Praha,1971-09-25
J. Marek,Russia,HC CSKA Moscow,2011-09-07
J. Syme,Canada,Paisley Pirates,1973-08-22
J. Jamieson,Brantford,New York Rangers,1985-12-26
J. Forbes,"Hamilton, Ontario",Hamilton Tigers,1985-12-30
J. Richard,"Notre-Dame-du-Sacré-Cœur-d'Issoudun, Quebec",Atlanta Flames,2002-10-08
J. Plante,Geneva,National Hockey League,1986-02-27
J. Winchester,Alberta,Montreal Shamrocks,1911-05-07
J. Walker,Seattle,Detroit Red Wings,1950-02-16
J. Ulrich,British Columbia,Victoria Cougars,1953-01-12
J. Stoddard,Canada,New York Rangers,2014-01-29
J. Stewart,Michigan,Chicago Blackhawks,1983-05-25
J. Schmidt,Etobicoke,Boston Bruins,2004-11-15
