col0,col1,col2,col3
Widow Donaldson Place,1775,1987-11-05,87001983
Widner-Magers Farm Historic District,1912,2007-01-29,6001325
Widehall,1769,1972-10-31,72000584
Wicks Building,1915,1983-03-03,83000141
Wicklow Hall Plantation,1840,1978-08-29,78002511
Wickliffe Presbyterian Church,1889,1978-05-22,78001761
Wickliffe Church,1846,1995-03-17,95000241
Wickland,1901,1984-09-28,84002023
Wickland,1815,1973-02-16,73000824
Wickham Road Historic District,1735,1996-07-25,96000781
Wickham House,1812,1969-06-11,69000329
Wickfield Round Barn,1919,1986-06-30,86001447
Wickersham House,1904,1979-04-27,79003757
Wicker Apartments,1945,2016-01-09,15000962
Wickapogue Road Historic District,1684,1986-10-02,86002697
Wickaboag Valley Historic District,1669,2000-10-27,1201
Wick Park Historic District,1889,1990-04-05,90000601
Wick Building,1910,1980-02-08,80003153
Wichita City Carnegie Library Building,1915,1987-06-25,87000971
Wichita-Sedgwick County Historical Museum,1888,1971-05-14,71000327
Wiawaka bateaux,1758,1992-06-14,92000624
Wiawaka Holiday House,1873,1998-07-15,98000874
Wianno Historic District,1879,1987-11-10,87000316
Wianno Club,1887,1979-03-02,79000325
Wholesale Row,1872,1977-09-19,77000800
"Wholesale District, Indianapolis",1863,1982-07-14,82000067
Whittington Park Historic District,1913,2012-12-19,12001055
Whittier School,1935,2007-01-25,6001309
Whittier Friends Meeting House,1893,1993-07-29,93000653
Whittier Bridge,1870,1984-03-15,84002558
Whittenton Mills Complex,1805,1984-07-05,84002275
Whittenton Fire and Police Station,1888,1984-07-05,84002271
Whittemore House,1894,1973-07-16,73002126
Whittemore House,1700,1990-03-09,90000218
Whittemore House,1850,1985-04-18,85001050
Whittemore's Tavern,1724,1986-09-04,86001896
Whittall Mills,1890,1980-03-05,80000490
Whittaker Memorial Hospital,1943,2009-09-30,9000794
Whittaker Chambers Farm,1941,1988-05-17,88001824
Whitsett Historic District,1903,1995-07-21,95000883
Whitsett Historic District,1919,1999-05-05,99000532
Whitpain Public School,1895,2006-12-20,6001150
Whitneyville Congregational Church,1869,1979-06-26,79000170
Whitneyville Congregational Church,1834,1995-07-28,95000906
Whitney Young Birthplace and Museum,1921,1972-10-18,72000543
Whitney Tavern Stand,1853,2007-02-01,6001326
Whitney Tavern,1782,1996-06-12,96000304
Whitney Section House,1917,2004-10-06,4001106
Whitney School,1926,1982-11-08,82000255
Whitney Plantation Historic District,1803,1992-11-24,92001566
Whitney Museum of American Art,1838,1992-04-27,92001877
Whitney Mansion,1849,1974-01-17,74001283
Whitney Mansion,1840,1979-10-04,79003242
Whitney Mansion,1849,1972-12-05,72000795
Whitney Farm,1825,2015-03-17,15000087
Whitney & Company,1893,1989-06-08,89000440
Whitney-Farrington-Cook House,1858,1989-09-28,89001510
Whitman Park,1880,2004-03-18,4000187
Whitman Mission National Historic Site,1836,1966-10-15,66000749
Whitman Mills,1896,2003-08-29,3000844
Whitman Memorial Library,1910,1995-01-12,94001549
Whitman House,1764,1986-09-10,86002028
Whitman-Place House,1810,1985-09-26,85002550
Whitman-Cobb House,1861,1982-01-18,82002057
Whitley Court,1903,2004-07-28,4000732
Whitley County Courthouse,1888,1979-02-16,79000029
Whitinsville Historic District,1770,1983-04-07,83000613
Whitingham Village Historic District,1860,2006-03-15,6000140
Whiting Memorial Community House,1923,1980-02-08,80000044
Whiting House,1897,1998-12-04,98001480
Whiting Homestead,1790,1987-08-03,87001291
Whitford Hall,1796,1984-09-06,84003319
Whitford Garne,1905,1984-09-06,84003317
Whitford G. Smith House,1894,2005-05-04,5000375
Whitewater Hotel,1894,2010-01-21,9001273
Whitewater Canal,1836,1973-06-13,73000272
Whitethorn,1855,1989-11-13,89001879
Whitesville School,1931,2013-12-18,13000955
Whitestown Town Hall,1807,1973-11-26,73001231
Whiteside Theatre,1922,2009-02-25,9000060
"Whiteside, Barnett and Co. Agricultural Works",1850,2001-02-22,1157
Whitesel Brothers,1939,2005-05-18,5000472
Whitescarver Hall,1912,1990-02-05,89002317
Whitelaw Reid House,1823,1973-05-07,73001448
Whitelaw Hotel,1919,1993-07-14,93000595
Whitehouse Block,1865,1986-05-02,86001698
Whitehill-Gleason Motors,1920,1999-07-22,99000878
Whitehead Lifesaving Station,1874,1988-10-12,88001839
Whitehead-Fogleman Farm,1838,1985-07-05,85001462
Whitehaven Historic District,1687,1980-01-09,80001843
Whitehall Museum House,1729,1970-04-28,70000016
Whitehall Mansion,1771,1979-04-12,79002647
Whitehall Farm,1842,1980-07-31,80003031
Whitehall Armory,1899,1995-03-02,95000079
Whitehall Apartments,1925,1983-12-28,83004238
Whitehall,1893,1980-08-21,80003697
Whitehall,1813,1969-08-05,69000168
Whitehall,1839,1978-01-31,78002622
Whitehall,1787,1966-10-15,66000387
"Whitehall, Aiken County, South Carolina",1928,1984-11-27,84000527
Whiteford,1000,1966-10-15,66000350
Whitefield Union Hall,1900,2007-02-07,7000014
Whitefield House and Gray Cottage,1740,1980-05-01,80003589
Whited Grist Mill,1903,1976-01-01,76001554
White and Company's Goose Lake Tile Works,1855,1998-08-06,98000976
White and Company's Goose Lake Stoneware Manufactury,1855,1998-08-06,98000982
White Street-Valdese Avenue Historic District,1885,1987-11-09,87001927
White Springs Historic District,1840,1997-09-19,97001143
White Sands V-2 Launching Site,1945,1985-10-03,85003541
White Sands National Monument,1936,1988-06-23,88000751
White River Mess Hall and Dormitory,1933,1991-03-13,91000328
White River Bridge,1929,1991-03-13,91000200
White Post Historic District,1875,1983-09-29,83003278
White Plains Rural Cemetery,1854,2003-09-19,3000247
White Plains Armory,1909,1980-04-16,80002796
White Plains,1822,1985-10-10,85003141
White Plains,1848,2009-08-11,9000538
White Pines State Park Lodge and Cabins,1933,1985-03-04,85002404
White Pine County Courthouse,1908,1986-09-11,86001958
White Park,1884,1982-11-09,82000623
"White Oaks, New Mexico",1879,1970-09-04,70000403
White Oak Plantation,1792,1978-02-07,78001966
White Oak New Town Historic District,1920,1992-04-03,92000176
White Oak Historic District,1925,1984-12-06,84000631
White Oak Hall,1874,2003-02-05,2001757
White Memorial Building,1876,1973-02-06,73001237
White Meetinghouse,1844,1980-05-15,80000274
White House of the Confederacy,1818,1966-10-15,66000924
White House of the Chickasaws,1895,1971-08-05,71000662
