col0,col1,col2,col3
Zombie Hunter,K. Hirai,Y. Kyung-il,4
Zettai Karen Children,G. Mikumo,T. Shiina,5
Zetsuai 1989,M. Ozaki,M. Ozaki,1
Yurikuma Arashi,K. Ikuhara,A. Morishima,2
Yu-Gi-Oh!,K. Takahashi,K. Takahashi,38
Yakushiji Ryōko no Kaiki Jikenbo,Y. Tanaka,N. Kakinouchi,8
XxxHolic,N. Isin,Clamp,3
Wounded Man,K. Koike,R. Ikegami,11
White Album,Leaf,C. Abeno,3
Welcome to the N.H.K.,T. Takimoto,Y. ABe,8
Wedding Peach,S. Tomita,N. Yazawa,1
Watashitachi no Tamura-kun,Y. Takemiya,Yasu,2
Violence Jack,G. Nagai,G. Nagai,1
Usotsuki Mii-kun to Kowareta Maa-chan,H. Iruma,Hidari,1
Until the Full Moon,S. Matoh,S. Matoh,2
Umineko When They Cry,Ryukishi07,E. Mizuno,1
Tytania,Y. Tanaka,H. Mikimoto,3
Toradora!,Y. Takemiya,Yasu,3
Tomoyo After: It's a Wonderful Life,Key,Y. Sumiyoshi,1
Tokyo Mew Mew,R. Yoshida,M. Ikumi,2
Tokyo Ghoul,S. Ishida,S. Ishida,1
To Love-Ru,S. Hasemi,K. Yabuki,16
The World God Only Knows,T. Wakaki,T. Wakaki,26
The Twelve Kingdoms,F. Ono,A. Yamada,8
The Sword of Paros,K. Kurimoto,Y. Igarashi,3
The Mystic Archives of Dantalian,G. Mikumo,C. Abeno,1
The Kurosagi Corpse Delivery Service,E. Ōtsuka,H. Yamazaki,20
The Kindaichi Case Files,S. Kibayashi,F. Satō,1
The Heroic Legend of Arslan,Y. Tanaka,Y. Amano,5
The Familiar of Zero,N. Yamaguchi,E. Usatsuka,2
Sword Gai,T. Inoue,K. Amemiya,6
Sword Art Online,K. Sigsawa,K. Kuroboshi,4
Suzuka,K. Seo,K. Seo,18
Strike Witches,H. Shimada,H. Shimada,1
Strawberry Panic!,S. Kimino,C. Maki,2
Strain,Buronson,R. Ikegami,5
Steam Detectives,K. Asamiya,K. Asamiya,2
Starship Operators,R. Mizuno,K. Yamane,6
Star of the Giants,I. Kajiwara,N. Kawasaki,19
Star of Guidance,I. Ogawa,R. Murata,4
Star Wars,G. Lucas,K. Asamiya,2
Spriggan,H. Takashige,R. Minagawa,11
Spider-Man: The Manga,K. Hirai,R. Ikegami,5
Spice and Wolf,I. Hasekura,J. Ayakura,13
Sorcerer Hunters,S. Akahori,R. Omishi,3
Sola,N. Hisaya,C. Abeno,2
Sohryuden: Legend of the Dragon Kings,Y. Tanaka,Y. Amano,5
Slayers,H. Kanzaka,Slayers,1
Skull Man,S. Ishinomori,Meimu,2
Sket Dance,K. Shinohara,K. Shinohara,32
Shōnen Onmyōji,M. Yūki,S. Asagi,1
Shutendoji,G. Nagai,G. Nagai,2
Shuffle!,Navel,H. Suzuhira,6
Shishunki Miman Okotowari,Y. Watase,Y. Watase,1
Shion no Ō,N. Hayashiba,J. Ando,8
Shina Dark,B. Nakayama,Y. Higa,4
Shiki,F. Ono,R. Fujisaki,2
Shattered Angels,Kaishaku,Kaishaku,3
Shakugan no Shana,Y. Takahashi,N. Ito,5
Shōnen Onmyōji,M. Yūki,S. Asagi,1
Seraph of the End,T. Kagami,Y. Yamamoto,1
Sankarea: Undying Love,M. Hattori,M. Hattori,11
Sanctuary,Buronson,R. Ikegami,12
Samurai Executioner,K. Koike,G. Kojima,10
Rurouni Kenshin,N. Watsuki,N. Watsuki,1
Red Data Girl,N. Ogiwara,M. Kishida,4
Record of Lodoss War,R. Mizuno,A. Yamada,2
Reborn!,A. Amano,A. Amano,5
Queen Millennia,L. Matsumoto,L. Matsumoto,2
Psychometrer Eiji,Y. Ando,M. Asaki,9
Psycho Busters,T. Agi,R. Ayamine,3
Princess Ai,C. Love,A. Yazawa,2
Pokémon Adventures,H. Kusaka,S. Yamamoto,52
Platinum End,T. Ohba,T. Obata,3
Pita-Ten,Koge-Donbo,Koge-Donbo,3
Patlabor,M. Oshii,M. Yuki,2
Path of the Assassin,K. Koike,G. Kojima,15
Pandora in the Crimson Shell: Ghost Urn,M. Shirow,K. Rikudō,8
Otome wa Boku ni Koishiteru,C. Box,K. Araki,2
One-Punch Man,One,Y. Murata,11
Old Boy,G. Tsuchiya,N. Minegishi,8
Oi! Ryoma,T. Takeda,Y. Koyama,23
Ohayō! Spank,S. Yukimuro,S. Takanashi,7
Oh My Goddess!,Y. Tōma,K. Fujishima,48
Nurse Angel Ririka SOS,Y. Akimoto,K. Ikeno,4
Nisekoi,N. Komi,N. Komi,2
Multiple Personality Detective Psycho,E. Ōtsuka,S. Tajima,24
Moribito: Guardian of the Spirit,N. Uehashi,K. Fujiwara,2
Mobile Suit Gundam: Char's Counterattack,Y. Tomino,K. Tokita,1
Mermaid Melody Pichi Pichi Pitch,M. Yokote,P. Hanamori,7
Meg and Seron,K. Sigsawa,K. Kuroboshi,7
Medaka Box,N. Isin,A. Akatsuki,22
Maze,S. Akahori,R. Omishi,6
Mayoi Neko Overrun!,T. Matsu,K. Yabuki,2
Marriage Royale,Navel,H. Suzuhira,7
Marmalade Boy,W. Yoshizumi,W. Yoshizumi,4
Mardock Scramble,T. Ubukata,K. Terada,3
Mahoromatic,B. Nakayama,B. Ditama,8
Madara,E. Otsuka,S. Tajima,5
Maboroshi Panty,Y. Nagai,G. Nagai,3
Lucky Star,K. Yoshimizu,K. Yoshimizu,1
Loveless,Y. Kōga,Y. Kōga,12
Love Stage!!,E. Eiki,M. Tsuda,3
Lord,Buronson,R. Ikegami,22
Lone Wolf and Cub,K. Koike,G. Kojima,28
"Listen to Me, Girls. I Am Your Father!",T. Matsu,T. Ejiri,1
List of Pokémon Black and White chapters,H. Kusaka,S. Yamamoto,20
Lillia and Treize,K. Sigsawa,K. Kuroboshi,2
Library War,H. Arikawa,S. Adabana,1
Legend of the Galactic Heroes,Y. Tanaka,N. Kato,4
Lady Snowblood,K. Koike,K. Kamimura,4
Kuroko's Basketball,T. Fujimaki,T. Fujimaki,2
Kure-nai,K. Katayama,Y. Yamamoto,4
Kitchen Princess,M. Kobayashi,N. Andō,1
Kino's Journey,K. Sigsawa,K. Kuroboshi,19
Kiddy Grade,F. Shimo,H. Kimura,2
Kiddy Girl-and,H. Kimura,M. Kadonosono,2
Kerberos Panzer Cop,M. Oshii,K. Fujiwara,1
Kenji,M. Ryuchi,Y. Fujiwara,21
Kekko Kamen,G. Nagai,G. Nagai,2
Kashimashi: Girl Meets Girl,S. Akahori,Y. Katsura,5
Karasuma Kyoko no Jikenbo,O. Hiroi,Y. Kozaki,10
Karakuri Dôji Ultimo,S. Lee,H. Takei,12
Kara no Kyōkai,K. Nasu,T. Takeuchi,2
Kanon,Key,I. Hinoue,2
Kamen Rider Spirits,S. Ishinomori,K. Muraeda,10
Kamasutra,G. Nagai,G. Nagai,4
Judgement Chime,Navel,A. Nishimata,1
Joshiraku,K. Kumeta,Yasu,6
JoJo's Bizarre Adventure,N. Isin,H. Araki,117
Japan,Buronson,K. Miura,1
Humanity Has Declined,R. Tanaka,S. Tobe,1
Hulk: The Manga,K. Koike,H. Trimpe,23
HoneyComing,Hooksoft,Y. Kiriga,1
Hikaru no Go,Y. Hotta,T. Obata,23
Higurashi When They Cry,Ryukishi07,K. Suzuragi,4
Highschool of the Dead,D. Satō,S. Satō,7
High School DxD,I. Ishibumi,Miyama-Zero,9
Hidamari Sketch,U. Aoki,U. Aoki,2
Hibiki's Magic,J. Maeda,R. Izumi,4
Heaven's Memo Pad,H. Sugii,M. Kishida,3
Heaven's Lost Property,S. Minazuki,S. Minazuki,20
Heat,Buronson,R. Ikegami,17
Hayate the Combat Butler,K. Hata,K. Hata,2
Haruhi Suzumiya,N. Tanigawa,N. Ito,1
Haru Natsu Aki Fuyu,E. Eiki,T. Zaou,1
Happiness!,Windmill,R. Fujii,2
Hanappe Bazooka,K. Koike,G. Nagai,10
Guin Saga,K. Kurimoto,Y. Amano,3
Ground Control to Psychoelectric Girl,H. Iruma,Buriki,4
Grendizer,G. Nagai,G. Ota,1
God Mazinger,G. Nagai,G. Nagai,4
Gin Tama,H. Sorachi,H. Sorachi,5
Gift,M. Komao,Yukiwo,2
Getter Robo Armageddon,G. Nagai,K. Ishikawa,1
GetBackers,S. Kibayashi,R. Ayamine,39
Georgie!,M. Izawa,Y. Igarashi,5
Genshiken,S. Kio,S. Kio,9
Gemini Knives,H. Kimura,K. Gotoh,2
Garōden,B. Yumemakura,K. Itagaki,13
Gakuen Utopia Manabi Straight!,Ufotable,T. Check,2
Fushigi Yûgi,Y. Watase,Y. Watase,13
Fullmetal Alchemist,H. Arakawa,H. Arakawa,10
Full Metal Panic!,S. Gatoh,R. Tateo,2
"Fluffy, Fluffy Cinnamoroll",Y. Tsukirino,Y. Tsukirino,5
Fist of the North Star,Buronson,T. Hara,27
Fist of the Blue Sky,Buronson,T. Hara,22
Figure 17,S. Yonemura,Y. Chiba,2
Fate/Zero,G. Urobuchi,T. Takeuchi,4
Eyeshield 21,R. Inagaki,Y. Murata,37
Erased,K. Sanbe,K. Sanbe,1
Elemental Gelade,M. Azuma,M. Azuma,8
Durarara!!,R. Narita,S. Yasuda,2
Dragon Quest Retsuden: Roto no Monshō,C. Kawamata,K. Fujiwara,21
Dragon Quest: Dai no Daibōken,R. Sanjo,K. Inada,37
Dororon Enma-kun,G. Nagai,G. Nagai,1
Dokkoida?!,T. Achi,Y. Yagami,3
Dirty Pair,H. Takachiho,Y. Yasuhiko,8
Dirty Pair,H. Takachiho,Y. Yasuhiko,8
Devilman,G. Nagai,G. Nagai,1
Detective School Q,S. Amagi,F. Satō,22
Despera,C. J. Konaka,Y. ABe,1
Denpa teki na Kanojo,K. Katayama,Y. Yamamoto,3
Defense Devil,Y. In-wan,Y. Kyung-il,10
Death Note,T. Ohba,T. Obata,12
Darker than Black,T. Okamura,Y. Iwahara,2
Danganronpa 2: Goodbye Despair,S. Chunsoft,K. Suzuragi,1
D.Gray-man,K. Hoshino,K. Hoshino,3
D-Live!!,R. Minagawa,R. Minagawa,15
Cutie Honey,G. Nagai,K. Ishikawa,1
Crying Freeman,K. Koike,R. Ikegami,9
Crusher Joe,H. Takachiho,F. Hosono,1
