col0,col1,col2,col3,col4,col5
Metallomics,Royal Society of Chemistry,2009,1756-5901,METAJS,437817445
Metabolic Engineering,Elsevier,1999,1096-7176,MEENFM,37861577
Metabolic Brain Disease,Springer Science+Business Media,1986,0885-7490,MBDIEE,12712938
"Mental Health, Religion & Culture",Routledge,1998,1367-4676,MHRCA2,45010288
Menopause,Lippincott Williams & Wilkins,1994,1072-3714,MENOF2,28934287
Memórias do Instituto Oswaldo Cruz,Oswaldo Cruz Foundation,1909,0074-0276,MIOCAS,1197361
Memory & Cognition,Springer Science+Business Media,1973,0090-502X,MYCGAO,907921555
Memórias do Instituto Oswaldo Cruz,Oswaldo Cruz Foundation,1909,0074-0276,MIOCAS,1197361
Medicine,Wolters Kluwer,1922,0025-7974,MEDIAV,807498951
Medicine & Science in Sports & Exercise,Lippincott Williams & Wilkins,1969,0195-9131,MSPEDA,846855575
Medical Mycology,Oxford University Press,1962,1369-3786,MEMYFR,38873464
Medical Microbiology and Immunology,Springer Science+Business Media,1886,0300-8584,MMIYAO,478963984
Medical Law International,SAGE Publications,1993,0968-5332,MLINFN,30062912
Medical Hypotheses,Elsevier,1975,0306-9877,MEHYDY,1357097
Medical History,Cambridge University Press,1957,0025-7273,MDHIAA,715771375
Medical Decision Making,SAGE Publications,1981,0272-989X,MDMADE,300296676
Medical Care,Lippincott Williams & Wilkins,1963,0025-7079,MDLCBD,42662144
Medical Anthropology Quarterly,Society for Medical Anthropology,1983,0745-5194,MAQUD5,9250614
Medical Anthropology,Routledge,1977,0145-9740,MDANES,884651771
Medical & Biological Engineering & Computing,Springer Science+Business Media,1963,0140-0118,MBECDY,464907294
Mechanisms of Development,Elsevier,1972,0925-4773,MEDVE6,22927690
Measurement Science and Technology,IOP Publishing,1923,0957-0233,MSTCEP,20943814
Mayo Clinic Proceedings,Elsevier,1926,0025-6196,MACPAJ,822709
Maturitas,Elsevier,1978,0378-5122,MATUDK,16310829
Matrix Biology,Elsevier,1981,0945-053X,MTBOEC,30091752
Mathematics of Operations Research,Institute for Operations Research and the Management Sciences,1976,0364-765X,MOREDQ,692909490
Mathematics of Computation,American Mathematical Society,1943,0025-5718,MCMPAF,24991469
Mathematics & Mechanics of Solids,SAGE Publications,1996,1081-2865,MMESFP,40810423
Mathematical Social Sciences,Elsevier,1980,0165-4896,MSOSDD,7346213
Mathematical Biosciences,Elsevier,1967,0025-5564,MABIAR,1681432
Materials Today,Elsevier,1998,1369-7021,MTOUAN,49407176
Materials Horizons,Royal Society of Chemistry,2014,2051-6347,MHAOBM,869908360
Materials Chemistry and Physics,Elsevier,1983,0254-0584,MCHPDR,613315777
Materials,MDPI,2008,1996-1944,MATEG9,405940410
Materials & Design,Elsevier,1978,0264-1275,MADSD2,300759070
Marine Mammal Science,Wiley-Blackwell,1985,0824-0469,MMSCEC,637552943
Marine Biology,Springer Science+Business Media,1967,0025-3162,MBIOAJ,299662112
Manufacturing & Service Operations Management,Institute for Operations Research and the Management Sciences,1999,1523-4614,MSOMFV,60637557
Mankind Quarterly,Ulster Institute for Social Research,1961,0025-2344,MAQUE6,149980257
Management Science,Institute for Operations Research and the Management Sciences,1954,0025-1909,MSCIAM,1641131
Mammalian Species,American Society of Mammalogists,1969,0076-3519,MLNSBP,46381503
Malaria Journal,BioMed Central,2002,1475-2875,MJAOAZ,891213153
Magnetic Resonance in Medicine,John Wiley & Sons,1984,0740-3194,MRMEEN,637620172
Magnetic Resonance in Chemistry,John Wiley & Sons,1969,0749-1581,MRCHEG,639062734
Macromolecules,American Chemical Society,1968,0024-9297,MAMOBX,802629926
Macromolecular Theory and Simulations,John Wiley & Sons,1992,1022-1344,MTHSEK,613411322
Macromolecular Chemistry and Physics,Wiley-VCH,1947,1022-1352,MCHPES,231476857
Machine Vision and Applications,Springer Science+Business Media,1988,0932-8092,MVAPEO,41233993
Luminescence,John Wiley & Sons,1986,1522-7235,LUMIFC,488597914
Low Temperature Physics,American Institute of Physics,1997,1063-777X,LTPHEG,37356102
Linear Algebra and its Applications,Elsevier,1968,0024-3795,LAAPAW,859638087
Lighting Research & Technology,Sage Publications,1969,1477-0938,LRTEA9,516681060
Life Sciences,Elsevier,1962,0024-3205,LIFSAK,1715961
