col0,col1,col2,col3,col4
P. Bordeleau,Minnesota Wild,Canada,Cardiff Devils,1986-03-23
P. Cormier,New Jersey Devils,Canada,Manitoba Moose,1990-06-14
P. Bergeron,Boston Bruins,Canada men's national ice hockey team,Boston Bruins,1985-07-24
P. Hörnqvist,Nashville Predators,Sollentuna Municipality,Pittsburgh Penguins,1987-01-01
P. Vesterholm,Vancouver Canucks,Sweden,Brynäs IF,1992-01-06
P. Kavanagh,Philadelphia Flyers,Canada,Vienna Capitals,1979-03-14
P. Salonen,Washington Capitals,Finland,Ässät,1985-12-18
P. Petriläinen,New Jersey Devils,Finland,HDD Olimpija Ljubljana,1978-05-05
P. K. Subban,Montreal Canadiens,"Toronto, Ontario",Nashville Predators,1989-05-13
P. A. Parenteau,Anaheim Ducks,"Hull, Quebec",New Jersey Devils,1983-03-24
P. Bäcker,Detroit Red Wings,Sweden,AaB Ishockey,1982-01-04
O. Fussey,Washington Capitals,Canada,Coventry Blaze,1983-04-02
O. Koivula,New York Islanders,"Nokia, Finland",Ilves Tampere,1998-09-01
O. Louhivaara,Ottawa Senators,Finland,JYP Jyväskylä,1983-08-31
O. Bārtulis,Philadelphia Flyers,Soviet Union,Admiral Vladivostok,1987-01-21
O. Korpikari,Montreal Canadiens,Finland,Jokerit,1984-04-05
O. Sundqvist,Pittsburgh Penguins,"Boden, Sweden",Pittsburgh Penguins,1994-03-23
O. Steen,Boston Bruins,Sweden,Färjestad BK,1998-03-09
O. Osala,Washington Capitals,Finland,Metallurg Magnitogorsk,1987-12-26
O. Lindblom,Philadelphia Flyers,Gävle,Philadelphia Flyers,1996-08-15
O. Möller,Los Angeles Kings,Stockholm,Skellefteå AIK,1989-01-22
O. Lindberg,Phoenix Coyotes,Skellefteå,New York Rangers,1991-10-29
O. Klefbom,Edmonton Oilers,Karlstad,Edmonton Oilers,1993-07-20
O. Hedman,Washington Capitals,Örnsköldsvik,Modo Hockey,1986-04-21
O. Dansk,Columbus Blue Jackets,Stockholm,Columbus Blue Jackets,1994-02-28
O. Roman,Dallas Stars,Czechoslovakia,HC Vítkovice Steel,1989-02-08
O. Pavelec,Atlanta Thrashers,Czechoslovakia,Winnipeg Jets,1987-08-31
O. Palát,Tampa Bay Lightning,Czechoslovakia,Tampa Bay Lightning,1991-03-28
O. Němec,Pittsburgh Penguins,Czech Republic,HC Severstal Cherepovets,1984-04-18
O. Kaše,Anaheim Ducks,Czech Republic,Anaheim Ducks,1995-11-08
O. Fiala,Minnesota Wild,Czechoslovakia,Orli Znojmo,1987-11-04
O. Roman,Dallas Stars,Czechoslovakia,HC Vítkovice Steel,1989-02-08
O. Pavelec,Atlanta Thrashers,Czechoslovakia,Winnipeg Jets,1987-08-31
O. Palát,Tampa Bay Lightning,Czechoslovakia,Tampa Bay Lightning,1991-03-28
O. Němec,Pittsburgh Penguins,Czech Republic,HC Severstal Cherepovets,1984-04-18
O. Kaše,Anaheim Ducks,Czech Republic,Anaheim Ducks,1995-11-08
O. Fiala,Minnesota Wild,Czechoslovakia,Orli Znojmo,1987-11-04
O. Määttä,Pittsburgh Penguins,Jyväskylä,Pittsburgh Penguins,1994-08-22
O. Malmivaara,Chicago Blackhawks,Finland,Espoo Blues,1982-03-13
O. Määttä,Pittsburgh Penguins,Jyväskylä,Pittsburgh Penguins,1994-08-22
O. Juolevi,Vancouver Canucks,Helsinki,Vancouver Canucks,1998-05-05
O. Roy,Edmonton Oilers,Canada,EC VSV,1991-07-12
O. Magnan,New Jersey Devils,Canada,Dornbirner EC,1986-05-01
O. Setzinger,Nashville Predators,Austria,Graz 99ers,1983-07-11
O. Lauridsen,Philadelphia Flyers,Denmark,Jokerit,1989-03-24
O. Kylington,Calgary Flames,Stockholm,Calgary Flames,1997-05-19
O. Ekman-Larsson,Phoenix Coyotes,Karlskrona,Arizona Coyotes,1991-07-17
O. Bjorkstrand,Columbus Blue Jackets,Herning,Columbus Blue Jackets,1995-04-10
O. Tverdovsky,Mighty Ducks of Anaheim,Donetsk,Salavat Yulaev Ufa,1976-05-18
O. Smirnov,Edmonton Oilers,Soviet Union,HC Ryazan,1980-04-08
O. Saprykin,Calgary Flames,Moscow,Salavat Yulaev Ufa,1981-02-12
O. Petrov,Montreal Canadiens,Moscow,HC Spartak Moscow,1971-04-18
O. Kvasha,Florida Panthers,Moscow,Barys Astana,1978-07-26
O. Tollefsen,Columbus Blue Jackets,Norway,Färjestad BK,1984-03-29
N. Milley,Buffalo Sabres,Canada,Düsseldorfer EG,1980-02-14
N. Yonkman,Washington Capitals,Canada,JYP Jyväskylä,1981-04-01
N. Welch,Pittsburgh Penguins,"Brighton, Boston",Malmö Redhawks,1982-08-26
N. Rod,San Jose Sharks,Switzerland,Genève-Servette HC,1996-06-07
N. Juulsen,Montreal Canadiens,British Columbia,Montreal Canadiens,1997-04-02
N. Hanifin,Carolina Hurricanes,"Boston, Massachusetts",Carolina Hurricanes,1997-01-25
N. Clarke,Los Angeles Kings,California,Augsburger Panther,1979-06-11
N. Niederreiter,New York Islanders,Switzerland men's national ice hockey team,Minnesota Wild,1992-09-08
N. Zherdev,Columbus Blue Jackets,Ukraine,Torpedo Nizhny Novgorod,1984-11-05
N. Kulemin,Toronto Maple Leafs,Russian Soviet Federative Socialist Republic,New York Islanders,1986-07-14
N. Goldobin,San Jose Sharks,Moscow,San Jose Sharks,1995-10-07
N. Ehlers,Winnipeg Jets,Aalborg,Winnipeg Jets,1996-02-14
N. Prokhorkin,Los Angeles Kings,Russia,Salavat Yulaev Ufa,1993-09-17
N. Lemtyugov,St. Louis Blues,USSR,Atlant Moscow Oblast,1986-01-15
N. Snellman,Nashville Predators,Finland,Jokipojat,1988-03-12
N. Mikkola,St. Louis Blues,Finland,KalPa,1996-04-27
N. Kapanen,Dallas Stars,Finland,HPK,1978-04-29
N. Hovinen,Minnesota Wild,Finland,KHL Medveščak Zagreb,1988-03-16
N. Dimitrakos,San Jose Sharks,Massachusetts,Ilves,1979-05-21
N. Tikkinen,Phoenix Coyotes,Espoo,Timrå IK,1994-06-01
N. Lundström,St. Louis Blues,Sweden,IF Björklöven,1993-01-10
N. Kronwall,Detroit Red Wings,Stockholm,Detroit Red Wings,1981-01-12
N. Hjalmarsson,Chicago Blackhawks,Sweden men's national ice hockey team,Chicago Blackhawks,1987-06-06
N. Hansson,Dallas Stars,Sweden,Rögle BK,1995-01-08
N. Hagman,Florida Panthers,Espoo,Oulun Kärpät,1979-12-05
N. Anger,Montreal Canadiens,Stockholm,EHC Basel,1977-07-14
N. Zadorov,Buffalo Sabres,Moscow,Colorado Avalanche,1995-04-16
N. Tryamkin,Vancouver Canucks,Russia,Vancouver Canucks,1994-08-30
N. Scherbak,Montreal Canadiens,Moscow,Montreal Canadiens,1995-12-30
N. Nesterov,Tampa Bay Lightning,Russia,Tampa Bay Lightning,1993-03-28
N. Kucherov,Tampa Bay Lightning,Russia,Tampa Bay Lightning,1993-06-17
N. Korovkin,Philadelphia Flyers,USSR,Traktor Chelyabinsk,1983-12-03
N. Gusev,Tampa Bay Lightning,Moscow,Tampa Bay Lightning,1992-07-08
N. Filatov,Columbus Blue Jackets,Moscow,Admiral Vladivostok,1990-05-25
N. Antropov,Toronto Maple Leafs,Kazakh SSR,Barys Astana,1980-02-18
N. Dawes,New York Rangers,Canada,Barys Astana,1985-02-09
N. Petan,Winnipeg Jets,British Columbia,Winnipeg Jets,1995-03-22
N. Meloche,Colorado Avalanche,Canada,Gatineau Olympiques,1997-07-18
N. Deslauriers,Los Angeles Kings,Canada,Buffalo Sabres,1991-02-22
N. Deschamps,Anaheim Ducks,Canada,IK Oskarshamn,1990-01-06
N. Riopel,Philadelphia Flyers,Canada,Syracuse Crunch,1989-02-20
N. Lucenius,Atlanta Thrashers,Finland,Dinamo Riga,1989-05-03
N. Bergfors,New Jersey Devils,Sweden,Amur Khabarovsk,1987-03-07
N. Andersén,Los Angeles Kings,Grums Municipality,Avtomobilist Yekaterinburg,1988-04-28
N. Almari,Pittsburgh Penguins,Espoo,HPK,1998-05-11
N. Lasu,Atlanta Thrashers,Sweden,Frölunda HC,1989-09-16
N. Jensen,Vancouver Canucks,Denmark,New York Rangers,1993-03-06
N. Grossmann,Dallas Stars,Stockholm,Calgary Flames,1985-01-22
N. Danielsson,Vancouver Canucks,Uppsala,Lausanne HC,1984-12-07
N. Bäckström,Washington Capitals,Gävle,Washington Capitals,1987-11-23
N. Tarnasky,Tampa Bay Lightning,Alberta,San Diego Gulls,1984-11-25
N. Sörensen,Anaheim Ducks,Denmark,Anaheim Ducks,1994-10-23
N. Spaling,Nashville Predators,Canada,Genève-Servette HC,1988-09-19
N. Shore,Los Angeles Kings,Denver,Los Angeles Kings,1992-09-26
N. Schultz,Minnesota Wild,Canada,Philadelphia Flyers,1982-08-25
N. Schmaltz,Chicago Blackhawks,"Madison, Wisconsin",Chicago Blackhawks,1996-02-23
N. Sörensen,Anaheim Ducks,Denmark,Anaheim Ducks,1994-10-23
N. Ross,Phoenix Coyotes,Alberta,HC TWK Innsbruck,1989-02-10
N. Ritchie,Anaheim Ducks,"Orangeville, Ontario",Anaheim Ducks,1995-12-05
N. Petersen,Pittsburgh Penguins,Canada,Eisbären Berlin,1989-05-27
N. Paul,Dallas Stars,Canada,Ottawa Senators,1995-03-20
N. Palmieri,New Jersey Devils,New York,HCB South Tyrol,1989-07-12
N. Naumenko,St. Louis Blues,Chicago,SCL Tigers,1974-07-07
N. Merkley,Arizona Coyotes,Alberta,Arizona Coyotes,1997-05-23
N. Leddy,Minnesota Wild,"Eden Prairie, Minnesota",New York Islanders,1991-03-20
N. Johnson,Pittsburgh Penguins,Alberta,Brynäs IF,1985-12-24
N. Jensen,Detroit Red Wings,Minnesota,Detroit Red Wings,1990-09-21
N. Foligno,Ottawa Senators,"Buffalo, New York",Columbus Blue Jackets,1987-10-31
N. Crawford,Buffalo Sabres,Canada,Dornbirner EC,1990-02-23
N. Cousins,Philadelphia Flyers,"Belleville, Ontario",Philadelphia Flyers,1993-07-20
N. Boucher,Pittsburgh Penguins,Alberta,Fort Wayne Komets,1980-12-29
N. Bonino,San Jose Sharks,"Hartford, Connecticut",Pittsburgh Penguins,1988-04-20
N. Bjugstad,Florida Panthers,Minneapolis,Florida Panthers,1992-07-17
N. Baptiste,Buffalo Sabres,Canada,Buffalo Sabres,1995-08-05
N. Torp,Montreal Canadiens,Jönköping,Leksands IF,1989-04-10
N. Kerdiles,Anaheim Ducks,Texas,Anaheim Ducks,1994-01-11
N. Dowd,Los Angeles Kings,Alabama,Los Angeles Kings,1990-05-27
N. Petruic,Ottawa Senators,Canada,Hamilton Bulldogs,1982-07-30
N. Lukacevic,Los Angeles Kings,Podgorica,GKS Katowice,1986-02-11
N. Kadri,Toronto Maple Leafs,"London, Ontario",Toronto Maple Leafs,1990-10-06
N. Walker,Washington Capitals,Cardiff,Washington Capitals,1994-02-07
N. Saunders,Anaheim Ducks,Canada,Texas Brahmas,1985-04-25
N. Perkovich,New Jersey Devils,Michigan,KHL Medveščak Zagreb,1985-10-15
N. Paetsch,Buffalo Sabres,Canada,Grand Rapids Griffins,1983-03-30
N. MacKinnon,Colorado Avalanche,"Halifax, Nova Scotia",Colorado Avalanche,1995-09-01
N. Lieuwen,Buffalo Sabres,"Abbotsford, British Columbia",San Antonio Rampage,1991-08-08
N. Horton,Florida Panthers,Canada,Toronto Maple Leafs,1985-05-29
N. Gerbe,Buffalo Sabres,"Oxford, Michigan",Genève-Servette HC,1987-07-24
N. Beaulieu,Montreal Canadiens,Strathroy-Caradoc,Montreal Canadiens,1992-12-05
N. Thompson,Boston Bruins,"Anchorage, Alaska",Anaheim Ducks,1984-10-05
N. Guenin,New York Rangers,"Aliquippa, Pennsylvania",Anaheim Ducks,1982-12-10
N. Yakupov,Edmonton Oilers,Nizhnekamsk,St. Louis Blues,1993-10-06
M. Karsums,Boston Bruins,Latvian Soviet Socialist Republic,HC Dynamo Moscow,1986-02-26
M. Bližňák,Vancouver Canucks,Czechoslovakia,HC Plzeň,1987-03-06
M. Madsen,Minnesota Wild,Denmark,Karlskrona HK,1987-01-16
M. Rielly,Toronto Maple Leafs,Vancouver,Toronto Maple Leafs,1994-03-09
M. Klimchuk,Calgary Flames,Canada,Calgary Flames,1995-03-02
M. Ellis,Montreal Canadiens,Canada,St. Louis Blues,1992-04-30
M. Stephens,Tampa Bay Lightning,Canada,Tampa Bay Lightning,1997-02-05
M. Marner,Toronto Maple Leafs,"Markham, Ontario",Toronto Maple Leafs,1997-05-05
M. Heard,Colorado Avalanche,Canada,Charlotte Checkers,1992-03-12
