col0,col1,col2,col3
The Valley of the Lost,The Maze of the Beast,CPB Box no. 1918 vol. 1,0-439-25329-2
The Valley of Horses,The Clan of the Cave Bear,PS3551.U36 V3 1982,0-517-54489-X
The Valley-Westside War,The Gladiator,PS3570.U76 V35 2008,0-7653-1487-8
The Urth of the New Sun,The Book of the New Sun,PS3573.O52 U78 1987,0-575-04116-1
The Unusual Suspects,The Fairy-Tale Detectives,PZ7.B882323 Siu 2005,0-8109-5926-7
The Unquiet Earth,Storming Heaven,PS3557.I136 U57 1992,0-393-03096-2
The Universe in a Nutshell,Black Holes and Baby Universes and Other Essays,QC174.12 .H39 2001,0-553-80202-X
The Unexpected,The Test,CPB Box no. 1879 vol. 5,0-439-11518-3
The Underground,The Warning,CPB Box no. 1776 vol. 8,0-590-49436-8
The Unbeheaded King,The Clocks of Iraz,PS3507.E2344 U5 1983,0-345-30773-9
The Trouble with Physics,Three Roads to Quantum Gravity,QC6 .S6535 2006,978-0-618-55105-7
The Trial of Martin Ross,Made in U.S.A.,PZ4.K4 Tr PS3561.E57,0-393-08637-2
The Tree Bride,Desirable Daughters,PR9499.3.M77 T74 2004,1-4013-0058-8
The Towers of Silence,The Day of the Scorpion,PZ4.S428 To PR6069.C596,0-434-68110-5
The Tokyo-Montana Express,Revenge of the Lawn,PS3503.R2736 T64 1980,0-440-08770-8
The Titan's Curse,Percy Jackson and the Sea of Monsters,PZ7.R4829 Tit 2007,978-1-4231-0145-1
The Tightrope Men,The Freedom Trap,PZ4.B147 Ti3 PR6052.A315,0-385-04827-0
The Throne of Fire,The Red Pyramid,PZ7.R4829 Th 2011b,978-1-4231-4056-6
The Three-Minute Universe,Timetrap,CPB Box no. 2534 vol. 20,0-671-65816-6
The Thirteen Gun Salute,The Letter of Marque,PR6029.B56 T45 1991,0-00-223460-2
The Third Kingdom,The Omen Machine,PS3557.O5826 T48 2013,0-7653-3599-9
The Thing on the Doorstep and Other Weird Stories,The Call of Cthulhu and Other Weird Stories,PS3523.O833 A6 2001,0-14-218003-3
The Thief Queen's Daughter,The Floating Island,PZ7.H313889 Th5 2007 PS3558.A82896,978-0-7653-0868-9
The Thanatos Syndrome,Love in the Ruins,PS3566.E6912 T46 1987,0-374-27354-5
The Test,The Journey,CPB Box no. 1879 vol. 4,0-439-11517-5
The Terminal Man,The Andromeda Strain,PZ4.C9178 Te PS3553.R48,0-394-44768-9
The Tenth Power,The Waterless Sea,PZ7.C7656 Wat 2005,0-439-55482-9
The Tenants,Pictures of Fidelman,PS3563.A4,374521026
The Temple of Dawn,Runaway Horses,PZ3.M6878 Se vol. 3 PL833.I7,0-394-46614-4
The Telling,Four Ways to Forgiveness,PS3562.E42 T45 2000,0-15-100567-2
The Teeth of the Tiger,The Bear and the Dragon,PS3553.L245 T44 2003,0-399-15079-X
The Te of Piglet,The Tao of Pooh,PR6025.I65 Z69 1992,0-525-93496-0
The Talismans of Shannara,The Elf Queen of Shannara,PS3552.R6596 T3 1993,0-345-36300-0
The Tale of the Body Thief,The Queen of the Damned,PS3568.I265 T34 1992,978-0-679-40528-3
The Taggerung,Lord Brocktree,PZ7.J15317 Tag 2001b,0-09-176928-0
The System of the World,The Confusion,PS3569.T3868 S97 2004,0-06-052387-5
The Sweetest Fig,The Widow's Broom,PZ7.V266 Sw 1993,978-0-395-67346-1
The Swami's Ring,The Greek Symbol Mystery,PZ7.K23 Nan no. 61,0-671-42344-4
The Survivor,Three Cheers for the Paraclete,PZ4.K336 Su PR9619.3.K46,0-207-95312-0
The Sunrise Lands,A Meeting at Corvallis,PS3569.T543 S86 2007,0-451-46170-3
