col0,col1,col2,col3
V. Ulyanich,Moscow,Soviet Union,1949-02-26
S. Stepashkin,Moscow,Moscow,1940-09-01
R. Romanchuk,Odessa,Lviv Oblast,1979-06-03
R. Balado,Havana,Matanzas Province,1969-02-15
R. Carmody,Saigon,Brooklyn,1938-09-04
P. Nolasco,"La Romana, Dominican Republic","La Romana, Dominican Republic",1962-02-20
O. Andrén,Stockholm,Stockholm,1899-11-07
O. Tandberg,Nacka Municipality,Stockholm,1918-10-10
N. Ramm,Linköping,Stockholm,1903-01-01
L. Błażyński,Śląskie,Ełk,1949-03-05
J. Kajdi,Budapest,Hungary,1939-12-30
J. Aguilar,Guantánamo,Guantánamo,1958-11-24
J. Kulej,Poland,Poland,1940-10-19
J. Wallington,Indiana,Pennsylvania,1944-07-28
J. Kajdi,Budapest,Hungary,1939-12-30
H. D. Jr.,"Plantation, Florida","Glen Cove, New York",1956-02-14
H. Soltani,France,Boumerdès,1972-12-27
H. Średnicki,Piotrków Trybunalski,Siemianowice Śląskie,1955-01-17
H. Wolff,Stockholm,Nyköping,1905-07-02
H. Siljander,Espoo,Helsinki,1922-12-10
H. Mallin,Lewisham,London,1892-06-01
G. Bergman,Stockholm,Stockholm,1898-02-08
G. Carrillo,Cuba,Cuba,1951-08-16
G. Hernández,"Yonkers, New York","La Romana, La Romana",1973-07-13
F. Nagy,Budapest,Cegléd,1916-10-27
D. Rodríguez,Havana,Havana,1950-06-03
B. Kuznetsov,Astrakhan,Soviet Union,1947-02-23
B. Ward,"Gladstone, Queensland",Bundaberg,1993-07-16
B. v. Klaveren,Rotterdam,Rotterdam,1907-09-26
A. Oliver,Indiana,Mississippi,1911-03-25
A. Fedchuk,Ivano-Frankivsk,Ivano-Frankivsk,1980-01-12
