col0,col1,col2,col3
B. Wanless,"Kalkaska, Michigan","Springfield, Illinois",All-American Girls Professional Baseball League
B. Wagoner,"South Bend, Indiana","Lebanon, Missouri",All-American Girls Professional Baseball League
B. Tucker,"Tucson, Arizona","Detroit, Michigan",All-American Girls Professional Baseball League
B. Trezza,"Brooklyn, New York","Brooklyn, New York",All-American Girls Professional Baseball League
B. Russell,"Tonto Basin, Arizona","Globe, Arizona",All-American Girls Professional Baseball League
B. McKenna,Ohio,"Lisbon, Ohio",All-American Girls Professional Baseball League
B. Luna,Los Angeles,"Dallas, Texas",All-American Girls Professional Baseball League
B. J. Fritz,"Solon Springs, Wisconsin","Oshkosh, Wisconsin",All-American Girls Professional Baseball League
B. J. Cornett,"Reserve Township, Allegheny County, Pennsylvania","Pittsburgh, Pennsylvania",All-American Girls Professional Baseball League
B. Foss,"Metropolis, Illinois","Metropolis, Illinois",All-American Girls Professional Baseball League
B. Goldsmith,"Orlando, Florida","Elgin, Illinois",All-American Girls Professional Baseball League
B. Melin,"Rockford, Illinois","Rockford, Illinois",All-American Girls Professional Baseball League
B. Kemmerer,"South Bend, Indiana","Center Valley, Pennsylvania",All-American Girls Professional Baseball League
B. Rotvig,"Ann Arbor, Michigan","Duluth, Minnesota",All-American Girls Professional Baseball League
B. Liebrich,"Port Charlotte, Florida","Providence, Rhode Island",All-American Girls Professional Baseball League
A. Wagner,"Rock Springs, Wyoming","Bensenville, Illinois",All-American Girls Professional Baseball League
A. Bleiler,"Camden, New Jersey","Philadelphia, Pennsylvania",All-American Girls Professional Baseball League
