col0,col1,col2,col3
R. Lemieux,Montreal,Buffalo Sabres,1975-10-24
R. Chevrefils,Canada,Boston Bruins,1981-01-08
R. Crawford,Canada,Quebec Bulldogs,1971-12-19
R. McCrimmon,Pennsylvania,Edmonton Eskimos,1934-06-24
R. McConnell,Gulf of St. Lawrence,Montreal Royals,1942-09-07
R. Bowie,Canada,Montreal Victorias,1959-04-08
R. Brayshaw,British Columbia,Chicago Blackhawks,1993-02-26
R. Blinco,Canada,Chicago Blackhawks,1982-06-28
R. Salei,Russia,Anaheim Ducks,2011-09-07
R. Zunich,Michigan,Detroit Red Wings,1974-03-14
R. Migay,Ontario,Toronto Maple Leafs,2016-01-16
R. Ahlin,Minnesota,Chicago Blackhawks,1976-05-06
R. Vojta,Austria,Wiener EV,1984-11-0
R. Brandow,California,Edmonton Eskimos,1932-11-20
R. Worters,Canada,Montreal Canadiens,1957-11-07
R. McGiffin,Texas,Toronto Blueshirts,1918-08-30
