col0,col1,col2,col3,col4,col5
W. Polk,J. K. Polk,"Mecklenburg County, North Carolina","Raleigh, North Carolina","Raleigh, North Carolina",William Polk Col Sig.jpg
V. Sargsyan,A. Sargsyan,Ararat,Yerablur,Yerevan,Vazgen Sargsyan signature.svg
T. Roosevelt,R. family,New York,New York,"Oyster Bay, New York",Theodore Roosevelt Signature-2.svg
T. Kennedy,K. family,Boston,"Arlington County, Virginia","Hyannis Port, Massachusetts",Ted Kennedy Signature 2.svg
J. Breckinridge,B. family,Colony of Virginia,Lexington Cemetery,"Lexington, Kentucky",John Breckinridge Signature.svg
C. Scott,F. P. Blair,"Goochland County, Virginia",Frankfort Cemetery,"Clark County, Kentucky",Governor Charles Scott signature.svg
