col0,col1,col2,col3,col4
V. Williams,C. Williams,R. Fox,United States,1963-03-18
S. Loren,A. Mussolini,C. Ponti,Italian nationality law,1934-09-20
L. Lopilato,D. Lopilato,M. Bublé,Argentine,1987-05-18
L. Vondráčková,H. Vondráčková,T. Plekanec,Czechs,1980-03-08
K. Black,G. Brown,L. M. Kit Carson,United States,1939-07-01
D. Dash,S. Dash,R. Roy,Americans,1971-05-03
C. Goyco,First cousin once removed,E. Ortíz,People of the Dominican Republic,1949-5-23
A. Sudano,B. Sudano,A. Ramirez,Americans,1982-08-11
