col0,col1,col2,col3
Wilkesboro Presbyterian Church,1849,1982-08-24,82003528
Wilkesboro-Smithey Hotel,1891,1982-08-24,82003529
Wilkes Hosiery Mills,1923,2008-04-30,8000369
Wilkes County Courthouse,1903,1979-05-10,79001764
Wilkes County Courthouse,1904,1980-09-18,80001267
Wilkerson Place,1830,1986-10-23,86002899
Wilkens-Robins Building,1871,1980-12-03,80001792
Wilhelmina Mohle House,1890,1989-03-08,89000081
Wilhelm Mansion and Carriage House,1877,1982-03-01,82003763
Wilhauf House,1838,1974-08-27,74000473
Wilford H. Fawcett House,1922,1980-05-23,80002036
Wilfong–Wilson Farm,1830,1990-06-21,90000858
Wiley and Jane Vann Brown House,1850,2007-02-13,7000073
Wiley and Elizabeth Forbus House,1931,2005-04-28,5000348
Wiley United Methodist Church,1886,1979-08-01,79002443
Wiley Hose Company Building,1900,1995-08-10,95000962
Wiley H. Bates High School,1932,1994-07-26,92001267
Wiley-Ringland House,1893,2000-11-22,1392
Wildwood Plantation,1850,1988-06-30,88000977
Wildwood Park Historic District,1914,2013-09-18,13000720
Wildwood House,1857,2006-04-05,6000234
Wildwood Hall,1893,1978-10-02,78000237
Wildwood Cottage,1865,1988-01-14,86003240
Wildwood Cemetery and Mary Lyon Fisher Memorial Chapel,1906,2011-06-27,11000403
Wildwood Cemetery,1851,1989-07-05,89000658
Wildwood,1893,2001-10-05,1001076
Wildwood,1884,1976-10-08,76000411
Wildwood,1835,1970-08-25,70000665
Wilds Hall,1839,1985-10-10,85003142
Wilds-Edwards House,1856,1988-02-10,88000034
Wildfell,1854,1973-09-20,73000927
Wilder Street Historic District,1875,1995-05-26,95000662
Wilder Homestead,1842,2014-11-19,9000720
Wilder Building,1887,1985-10-04,85002863
Wilder Apartments,1927,2006-08-23,6000727
Wilder-Swaim House,1815,1981-05-20,81000438
Wilder-Holton House,1780,1975-06-11,75000231
Wildcliff,1852,2002-12-31,2001656
Wildcat Creek Bridge,1925,1979-11-29,79002089
Wild Heron,1754,1977-12-16,77000415
Wild Basin Ranger Station,1932,1988-01-29,87001126
Wild Basin House,1931,1988-01-29,87001125
Wild's Mill Complex,1828,1982-06-14,82003353
Wilcox Octagon House,1856,1983-07-28,83001756
Wilcox Female Institute,1845,1975-04-03,75000330
Wilcox Farmhouse,1839,1990-09-06,90001331
Wilcox Building,1911,1989-02-23,89000058
Wilcox-Cutts House,1789,1974-12-02,74000202
"Wilcox, Crittenden Mill",1814,1986-12-03,86003349
Wilburn House,1875,1991-09-05,91001177
Wilbur and Martha Carter House,1951,2008-08-13,8000777
Wilbur Wynant House,1916,2002-10-18,2001168
Wilbur School,1876,1993-05-27,93000473
Wilbur J. Cohen Federal Building,1939,2007-07-06,7000639
Wilbur House,1873,1980-05-06,80002651
Wilbur Cahoon House,1826,1978-04-06,78002104
Wilbor House,1690,2007-03-06,7000125
Wigwam Motel,1950,2002-05-02,2000419
Wightman School,1897,1986-09-30,86002717
Wigglesworth Building,1873,1982-10-21,82000486
Wiggins-Rolph House,1848,1985-09-26,85002551
Wiggins-Collamer House,1835,2007-10-31,7001127
Wiggin Memorial Library,1912,1993-12-10,93001381
Wieting Theater,1912,1979-04-26,79000944
Wientjes Barn and Ranch Yard,1909,2013-07-30,13000572
Wieland Brewery Building,1901,1982-05-20,82003257
Widow Piper's Tavern,1735,1974-01-17,74001779
Widow Maloby's Tavern,1764,1972-03-16,72001175
Widow Haviland's Tavern,1730,1974-04-16,74001322
