col0,col1,col2,col3
J. Kinloch,1849-1-1,1849-1-1,1910-1-1
John Henry Greville Smyth,1836-1-2,1836-1-2,1901-9-27
J. Esplen,1863-0-0,1863-0-0,1930-2-7
J. B. Edwards,1889-1-12,1889-1-12,1922-8-22
J. Aubrey-Fletcher,1912-8-22,1912-8-22,1992-6-19
J. Armytage,1732-7-13,1732-7-13,1758-9-10
J. Lucas,1889-8-27,1889-8-27,1980-5-2
Jehangir Cowasji Jehangir Readymoney,1853-6-8,1853-6-8,1934-7-26
J. Rushout,1644-3-22,1644-3-22,1698-2-16
J. Rivett-Carnac,1784-11-11,1784-11-11,1846-1-28
J. E. Home,1798-10-25,1798-10-25,1853-11-1
J. Bellingham,1623-9-8,1623-9-8,1650-10-26
H. Evelyn,1769-1-31,1769-1-31,1848-8-28
H. Mackworth,1687-9-7,1687-9-7,1765-8-20
H. Cory,1857-2-2,1857-2-2,1933-2-2
H. Stracey,1802-1-1,1802-1-1,1885-1-1
H. Peek,1825-2-26,1825-2-26,1898-8-26
H. Hibbert,1850-4-4,1850-4-4,1927-11-15
H. Benyon,1884-1-1,1884-1-1,1959-1-1
H. Meysey-Thompson,1809-8-11,1809-8-11,1874-5-17
H. Mallaby-Deeley,1863-10-27,1863-10-27,1937-2-4
H. Hope,1865-1-1,1865-1-1,1959-1-1
H. A. Wernher,1893-1-16,1893-1-16,1973-6-30
H. Lever,1869-4-18,1869-4-18,1947-7-1
H. Kerr,1903-8-1,1903-8-1,1974-12-26
G. Foster,1866-6-10,1866-6-10,1931-1-1
G. Tapps-Gervis-Meyrick,1827-9-1,1827-9-1,1896-3-7
G. Tapps-Gervis,1795-5-24,1795-5-24,1842-8-26
G. Stucley,1812-8-17,1812-8-17,1900-3-13
G. Sleight,1853-3-26,1853-3-26,1921-3-19
G. Holcroft,1856-0-0,1856-0-0,1951-4-19
G. C. Williams,1878-1-1,1878-1-1,1958-1-1
G. B. Smith,1912-12-12,1912-12-12,1976-9-18
G. Bisshopp,1791-7-5,1791-7-5,1834-3-22
G. Cornewall,1869-5-7,1869-5-7,1951-1-21
F. Orr-Lewis,1860-02-11,1860-02-11,1921-11-18
F. Milner,1849-11-7,1849-11-7,1931-6-8
F. Sanderson,1880-1-1,1880-1-1,1965-7-18
F. Freeling,1764-8-25,1764-8-25,1836-7-10
F. Champneys,1848-3-25,1848-3-25,1930-2-4
"Francis Blackwood, 10th Baron Dufferin and Claneboye",1916-5-20,1916-5-20,1991-11-13
F. Dalberg-Acton,1801-7-24,1801-7-24,1837-1-31
E. M. Harvey,1867-0-0,1867-0-0,1955-0-0
E. Craig,1859-0-0,1859-0-0,1933-4-9
