col0,col1,col2,col3
Yamaha Motor Company,"Iwata, Shizuoka",52664,1955-07-01
Opel,Hesse,35428,1863-01-21
Nismo,Tokyo,205,1984-09-17
Naftna Industrija Srbije,Novi Sad,7629,2005-10-01
Krung Thai Bank,Bangkok,23014,1966-03-14
Korea Electric Power Corporation,Naju,20603,1961-07-01
EMI Music Japan,Japan,327,1960-10-01
