col0,col1,col2,col3
Dutch Art,Medicean,Machiavellian,Spectrum
Duramente,King Kamehameha,Kingmambo,Sunday Silence
Dunkirk,Unbridled's Song,Unbridled,A.P. Indy
Dunfermline,Royal Palace,Ballymoss,St. Paddy
Dundeel,High Chaparral,Sadler's Wells,Zabeel
Duke of Marmalade,Danehill,Danzig,Kingmambo
Dubai Millennium,Seeking The Gold,Mr. Prospector,Shareef Dancer
Dubai Destination,Kingmambo,Mr Prospector,Alleged
Drumtop,Round Table,Princequillo,Nasrullah
Dreaming of Anna,Rahy,Blushing Groom,Broad Brush
Dream Well,Sadler's Wells,Northern Dancer,Alleged
Dream Ahead,Diktat,Warning,Cadeaux Genereux
Dr Fong,Kris S,Roberto,Miswaki
Dr Devious,Ahonoora,Lorenzaccio,Alleged
Doyoun,Mill Reef,Never Bend,Kashmir
Doyen,Sadler's Wells,Northern Dancer,Kris
Dowsing,Riverman,Never Bend,Mr Prospector
Dotted Swiss,Counterpoint,Count Fleet,Pavot
Donor,Challedon,Challenger,Purchase
Doncaster,Stockwell,The Baron,Teddington
Don Enrique,Hastings,Spendthrift,Hermit
Don't Push It,Old Vic,Sadler's Wells,Alleged
Dodging Bullets,Dubawi,Dubai Millennium,Kris S.
Djebel,Tourbillon,Ksar,Gay Crusader
Dixie Union,Dixieland Band,Northern Dancer,Capote
Dixie Commander,Dixie Union,Dixieland Band,Go for Gin
Dixie Brass,Dixieland Band,Northern Dancer,Sham
Divine Proportions,Kingmambo,Mr. Prospector,Sadler's Wells
Distorted Humor,Forty Niner,Mr. Prospector,Danzig
Distant View,Mr Prospector,Raise A Native,Irish River
Distant Music,Distant View,Mr Prospector,Nijinsky
Discreetly Mine,Mineshaft,A.P. Indy,Private Account
Diminuendo,Diesis,Sharpen Up,Tom Rolfe
Dilshaan,Darshaan,Shirley Heights,Ajdal
Diktat,Warning,Known Fact,Sadler's Wells
Diamond Shoal,Mill Reef,Never Bend,Graustark
Diamond Jubilee,St. Simon,Galopin,Hampton
Diadem,Orby,Orme,Donovan
Devil's Bag,Halo,Hail To Reason,Herbager
Determine,Alibhai,Hyperion,Mahmoud
Destiny,Sultan,Selim,Filho da Puta
Designs On Rome,Holy Roman Emperor,Danehill,Alleged
Desert Wine,Damascus,Sword Dancer,Never Bend
Desert Prince,Green Desert,Danzig,Bustino
Desert King,Danehill,Danzig,Nureyev
Derring-Do,Darius,Dante,Abernant
Dernier Empereur,Trempolino,Sharpen Up,In Reality
Delta Blues,Dance in the Dark,Sunday Silence,Dixieland Band
Dehere,Deputy Minister,Vice Regent,Secretariat
Deep Sky,Agnes Tachyon,Sunday Silence,Chief's Crown
Declaration of War,War Front,Danzig,Rahy
Deceit Dancer,Vice Regent,Northern Dancer,Prince John
Deceit,Prince John,Princequillo,Double Jay
Decathlon,Olympia,Heliopolis,Bull Dog
De La Rose,Nijinsky II,Northern Dancer,Round Table
Daylami,Doyoun,Mill Reef,Miswaki
Dayjur,Danzig,Northern Dancer,Mr. Prospector
David Junior,Pleasant Tap,Pleasant Colony,Irish River
Darlan,Milan,Sadler's Wells,Doyoun
Dark Secret,Flying Ebony,The Finn,King James
Darci Brahma,Danehill,Danzig,Zabeel
Dapper Dan,Ribot,Tenerani,Nasrullah
Danzig Connection,Danzig,Northern Dancer,Sir Ivor
Dansili,Danehill,Danzig,Kahyasi
Dano-Mast,Unfuwain,Northern Dancer,Kalaglow
Dank,Dansili,Danehill,Darshaan
Danever,Danehill,Danzig,Irish River
Danehill Dancer,Danehill,Danzig,Sharpen Up
Danehill,Danzig,Northern Dancer,His Majesty
Dancing Time,Colombo,Manna,Son-in-Law
Dancing Maid,Lyphard,Northern Dancer,Val de Loir
Dancethruthedawn,Mr. Prospector,Raise a Native,Danzig
Dancer's Image,Native Dancer,Polynesian,Noor
Dance in the Dark,Sunday Silence,Halo,Nijinsky II
Dance Smartly,Danzig,Northern Dancer,Smarten
Dance Partner,Sunday Silence,Halo,Nijinsky
Dance Number,Northern Dancer,Nearctic,Buckpasser
Damrosch,Rock Sand,Sainfoin,Hanover
Daliapour,Sadler's Wells,Northern Dancer,Doyoun
Dalakhani,Darshaan,Shirley Heights,Miswaki
Daiwa Scarlet,Agnes Tachyon,Sunday Silence,Northern Taste
Daiwa Major,Sunday Silence,Halo,Northern Taste
Dactylographer,Secretariat,Bold Ruler,Ribot
Cyllene,Bona Vista,Bend Or,Isonomy
Curlin,Smart Strike,Mr. Prospector,Deputy Minister
Cum Laude Laurie,Hail To Reason,Turn-to,Swaps
Cryptocloser,Cryptoclearance,Fappiano,Vice Regent
Cryptoclearance,Fappiano,Mr. Prospector,Hoist The Flag
Crusader,Man o' War,Fair Play,Star Shoot
Crowned Prince,Raise A Native,Native Dancer,Royal Charger
