col0,col1,col2,col3,col4,col5
Cricothyroid muscle,External laryngeal nerve,236,1081,m_22,12548712
Cremaster muscle,Genital branch of genitofemoral nerve,118,414,m_22,12548678
Corrugator supercilii muscle,Facial nerve,106,381,m_22,12548671
Coracobrachialis muscle,Musculocutaneous nerve,124,443,m_22,12548663
Coccygeus muscle,Pudendal nerve,119,424,m_22,12548603
Ciliary muscle,Oculomotor nerve,225,1011,m_22,12548589
Bulbospongiosus muscle,Pudendal nerve,120,428,m_22,12548543
Buccinator muscle,Buccal branch of the facial nerve,108,384,m_22,12548520
Brachioradialis,Radial nerve,125,451,m_22,12548506
Brachialis muscle,Musculocutaneous nerve,124,444,m_22,12548498
Biceps femoris muscle,Common fibular nerve,128,478,m_22,12548483
Aryepiglottic muscle,Inferior laryngeal nerve,236,1082,p_07,12616305
Articularis genus muscle,Femoral nerve,128,471,m_22,12548413
Articularis cubiti muscle,Radial nerve,124,445,m_22,12548404
Antitragicus,Facial nerve,229,1035,m_22,12548383
Anterior auricular muscle,Temporal branches of the facial nerve,229,1035,m_22,12548449
Anconeus muscle,Radial nerve,125,454,m_22,12548375
Adductor magnus muscle,Tibial nerve,128,473,m_22,12548349
Adductor hallucis muscle,Lateral plantar nerve,131,493,m_22,12548332
Abductor pollicis longus muscle,Deep branch of radial nerve,125,455,m_22,12548315
Abductor hallucis muscle,Medial plantar nerve,131,491,m_22,12548299
Abductor digiti minimi muscle of hand,Deep branch of ulnar nerve,126,463,m_22,12548273
Abductor digiti minimi muscle of foot,Lateral plantar nerve,131,492,m_22,12548282
Abdominal external oblique muscle,Subcostal nerve,118,409,m_22,12549865
