col0,col1,col2,col3
Canosa di Puglia,Province of Barletta-Andria-Trani,249,149000000
Bütschwil-Ganterschwil,Toggenburg,942,21810000
Bütschwil,Toggenburg,942,13790000
"Büren, Solothurn",Dorneck,727,6230000
Bättwil,Dorneck,530,1670000
Bäretswil,Hinwil,1074,22230000
Burtigny,Nyon District,896,5690000
"Buchs, St. Gallen",Werdenberg,2232,15950000
Brunslar,Melsungen,273,16410000
"Brunello, Lombardy",Province of Varese,423,1600000
Brugg,Brugg,516,5560000
Brittnau,Zofingen,614,13690000
Brienz,Interlaken-Oberhasli,2928,48000000
Brescia,Province of Brescia,874,90300000
