col0,col1,col2,col3,col4
Y. Starr,Kiev,1990-1-1,1905-08-11,1905-08-11
W. Stephens,"Stanton, Kentucky",1998-08-22,1913-09-01,1913-09-01
W. F. Mulholland,"Lexington, Kentucky",1968-07-12,1883-08-27,1883-08-27
W. W. Stephens,United States,1987-07-10,1922-11-21,1922-11-21
W. J. Hirsch,California,1997-10-25,1909-01-11,1909-01-11
W. Day,United Kingdom,1908-0-0,1823-0-0,1823-0-0
W. C. Marshall,England,2005-11-01,1918-08-14,1918-08-14
W. B. Finnegan,New York,1970-10-18,1890-09-19,1890-09-19
W. A. Hurley,"Rochester, New York",1952-09-12,1871-1-1,1871-1-1
W. L. Proctor,"Lampasas, Texas",1998-10-30,1915-12-11,1915-12-11
"Warren A. Croll, Jr.","Bryn Mawr, Pennsylvania",2008-06-06,1920-03-09,1920-03-09
W. Earl,Bohemia,1950-0-0,1890-0-0,1890-0-0
W. Dunn,Canada,2004-04-21,1911-12-04,1911-12-04
V. J. Nickerson,Boston,2004-03-26,1928-12-25,1928-12-25
V. R. Wright,"Gallatin, Tennessee",1966-07-24,1921-01-21,1921-01-21
V. Longden,California,2003-01-07,1930-03-14,1930-03-14
T. J. Kelly,"Baltimore, Maryland",2013-04-19,1919-09-23,1919-09-23
T. J. Barry,Ireland,1987-0-0,1907-07-27,1907-07-27
T. H. Sr.,United States,1941-09-29,1860-11-23,1860-11-23
S. Veitch,United States,1996-02-14,1910-02-24,1910-02-24
S. Hine,New York,2000-03-17,1931-01-09,1931-01-09
S. W. Ward,Florida,1984-02-23,1911-03-14,1911-03-14
S. Hildreth,United States,1929-09-24,1866-05-16,1866-05-16
R. Price,Surrey,1986-08-16,1912-08-16,1912-08-16
R. Rash,United States,1996-03-01,1959-07-14,1959-07-14
R. L. Wheeler,"Crawford, Nebraska",1992-04-12,1920-06-21,1920-06-21
R. J. Frankel,Brooklyn,2009-11-16,1941-07-09,1941-07-09
R. E. Holthus,United States,2011-11-22,1934-06-24,1934-06-24
R. O'Connell,Brooklyn,2004-02-28,1949-12-14,1949-12-14
Richard E. Dutrow Sr.,United States,1999-02-19,1937-03-08,1937-03-08
R. Dawson,Ireland,1955-1-1,1865-1-1,1865-1-1
R. W. Walden,New York City,1905-04-28,1843-0-0,1843-0-0
P. M. Burch,United States,1978-04-08,1884-08-25,1884-08-25
P. Martin,Cuba,2012-07-18,1925-12-03,1925-12-03
P. Prendergast,Carlow,1980-06-20,1909-1-1,1909-1-1
O. White,"Pittsville, Maryland",1983-0-0,1908-08-27,1908-08-27
N. Murless,United Kingdom,1987-05-09,1910-03-24,1910-03-24
N. Threewitt,United States,2010-09-17,1911-02-24,1911-02-24
M. Jolley,Tennessee,1976-0-0,1910-03-23,1910-03-23
M. Jarvis,England,2011-09-20,1938-10-14,1938-10-14
M. Tenney,Arizona,1993-11-06,1907-11-16,1907-11-16
M. Hirsch,"Fredericksburg, Texas",1969-04-03,1880-07-12,1880-07-12
M. Zilber,Cairo,2008-12-21,1920-0-0,1920-0-0
M. Dawson,Great Britain,1898-08-18,1820-01-09,1820-01-09
M. Marsh,United Kingdom,1983-1-1,1904-1-1,1904-1-1
L. Feustel,United States,1970-07-07,1884-01-02,1884-01-02
L. Barrera,Cuba,1991-04-25,1924-05-08,1924-05-08
L. W. Jennings,"Baltimore, Maryland",1992-07-06,1917-10-04,1917-10-04
J. Lawson,United Kingdom,1964-1-1,1881-1-1,1881-1-1
J. A. Martin,Cuba,2006-11-22,1943-0-0,1943-0-0
J. Scott,Great Britain,1871-1-1,1794-1-1,1794-1-1
J. P. Campo,New York,2005-11-13,1938-02-24,1938-02-24
"John M. Gaver, Sr.",United States,1982-07-11,1900-10-29,1900-10-29
J. G. Canty,Ireland,1992-01-07,1917-01-30,1917-01-30
J. Day,United Kingdom,1883-1-1,1819-1-1,1819-1-1
J. W. Maloney,United States,1984-03-10,1909-04-01,1909-04-01
J. E. Ryan,Ireland,1976-07-26,1900-08-30,1900-08-30
J. E. Fitzsimmons,New York,1966-03-11,1874-07-23,1874-07-23
J. E. Burch,United States,2011-01-30,1924-03-03,1924-03-03
I. G. Balding,England,2005-01-20,1908-05-23,1908-05-23
H. Luro,Argentina,1991-12-16,1901-02-27,1901-02-27
H. A. Jones,"Parnell, Missouri",2001-09-02,1906-11-24,1906-11-24
H. Forrest,United States,1975-04-05,1907-07-07,1907-07-07
H. Cecil,Aberdeen,2013-06-11,1943-01-11,1943-01-11
H. L. Vanier,United States,2013-12-01,1924-04-21,1924-04-21
H. G. Bedwell,"Roseburg, Oregon",1951-12-31,1874-6-22,1874-6-22
H. A. Jerkens,Islip,2015-03-18,1929-04-21,1929-04-21
G. D. Cameron,California,1952-07-11,1894-0-0,1894-0-0
G. M. Odom,United States,1964-07-29,1882-07-08,1882-07-08
G. Lambton,London,1945-7-23,1860-12-23,1860-12-23
F. Darling,United Kingdom,1953-1-1,1884-1-1,1884-1-1
F. Boutin,France,1995-02-01,1937-01-21,1937-01-21
Frank Y. Whiteley Jr.,United States,2008-05-02,1915-01-31,1915-01-31
F. McCabe,"Paterson, New Jersey",1924-1-1,1859-03-10,1859-03-10
F. Butters,Austria,1957-1-1,1878-1-1,1878-1-1
F. Boutin,France,1995-02-01,1937-01-21,1937-01-21
