col0,col1,col2,col3
Xiao Shan Going Home,J. Zhangke,J. Zhangke,J. Zhangke
Xero Error,A. Ghori,A. Ghori,A. Ghori
X the Unknown,J. Needs,J. Losey,J. Sangster
X Marks the Spot,A. Roberts,G. Sherman,R. Murphy
XXX,S. Rosenblum,R. Cohen,S. Kinberg
XXX,C. Lebenzon,R. Cohen,R. Wilkes
XXX: State of the Union,S. Rosenblum,L. Tamahori,S. Kinberg
XX/XY,W. A. Anderson,A. Chick,A. Chick
X2,E. Graham,B. Singer,D. Harris
X-Men,S. Rosenblum,B. Singer,D. Hayter
X-Men: The Last Stand,M. Goldblatt,B. Ratner,S. Kinberg
X-Men: Days of Future Past,J. Ottman,B. Singer,S. Kinberg
X-15,S. Rabjohn,R. Donner,J. W. Bellah
Wyrmwood,K. Roache-Turner,K. Roache-Turner,K. Roache-Turner
Wyoming Wildcat,L. Orlebeck,G. Sherman,A. Coldeway
Wyoming,A. Roberts,J. Kane,G. Geraghty
Wyoming,R. Kern,R. Thorpe,H. Butler
Wyatt Earp,C. Littleton,L. Kasdan,D. Gordon
Wuthering Heights,D. Mandell,W. Wyler,B. Hecht
Wu yen,L. Wing-Cheong,J. To,W. Ka-Fai
"Wrong Number, Miss",F. Tropea,E. Emo,H. Rosenfeld
Wrong Cops,Q. Dupieux,Q. Dupieux,Q. Dupieux
Wrong Again,R. C. Currier,L. McCarey,L. McCarey
Wrong,Q. Dupieux,Q. Dupieux,Q. Dupieux
Wrestling Ernest Hemingway,P. Hirsch,R. Haines,S. Conrad
Wrecking Crew,W. H. Ziegler,F. McDonald,R. Murphy
Woyzeck,B. Mainka-Jellinghaus,W. Herzog,W. Herzog
Would You Marry Me?,J. Gárate,E. Carreras,A. Santacruz
World of Tomorrow,D. Hertzfeldt,D. Hertzfeldt,D. Hertzfeldt
World in My Pocket,A. Ludwig,A. Rakoff,F. Harvey
World for Ransom,M. Luciano,R. Aldrich,H. Butler
World Without End,E. Warren,E. Bernds,E. Bernds
World War Z,R. Barton,M. Forster,D. Lindelof
World Trade Center,D. Brenner,O. Stone,A. Berloff
World Premiere,A. Marshek,T. Tetzlaff,E. Felton
Working Girl,S. O'Steen,M. Nichols,K. Wade
Work Is a Four-Letter Word,J. Harris,P. Hall,H. Livings
Work,C. Chaplin,C. Chaplin,C. Chaplin
Words for Battle,S. McAllister,H. Jennings,H. Jennings
Words and Pictures,P. Honess,F. Schepisi,G. D. Pego
Words and Music,F. Webster,N. Taurog,F. F. Finklehoffe
Words Upon the Window Pane,K. Pan,M. McGuckian,W. B. Yeats
Woodchipper Massacre,J. McBride,J. McBride,J. McBride
Wonderstruck,A. Gonçalves,T. Haynes,B. Selznick
Wonder Woman,M. Walsh,P. Jenkins,A. Heinberg
Wonder Boys,D. Allen,C. Hanson,S. Kloves
Wonder Bar,G. Amy,B. Berkeley,E. Baldwin
Wonder,M. Livolsi,S. Chbosky,S. Conrad
Women on the Verge of a Nervous Breakdown,J. Salcedo,P. Almodóvar,P. Almodóvar
Women of the World,G. Jacopetti,G. Jacopetti,G. Jacopetti
Women of Glamour,O. Meyer,G. Wiles,L. Starling
Women in the Night,D. Milner,W. Rowland,W. Rowland
Women in Revolt,P. Morrissey,P. Morrissey,P. Morrissey
Women for Golden Hill,E. Kobler,E. Waschneck,H. Bertram
