col0,col1,col2,col3,col4,col5
H. Glencross,Dundee,United Kingdom,Electric guitar,1978-02-13,1978-02-13
G. Green,England,United Kingdom,Mandolin,1950-11-20,1950-11-20
G. Sager,Edinburgh,United Kingdom,Guitar,1960-1-1,1960-1-1
D. Taylor,Dartford,United Kingdom,Gibson Les Paul,1943-01-28,1943-01-28
C. Urbanowicz,Aslockton,United Kingdom,Guitar,1981-06-22,1981-06-22
B. Schwarz,Suffolk,United Kingdom,Saxophone,1947-03-25,1947-03-25
B. Whalley,Lancashire,United Kingdom,Guitar,1961-01-01,1961-01-01
B. Lurie,London,United Kingdom,Guitar,1968-06-13,1968-06-13
A. Dunlop,Scotland,United Kingdom,Accordion,1972-03-16,1972-03-16
A. White,England,United Kingdom,Fender Telecaster,1974-08-28,1974-08-28
A. Rankine,Bridge of Allan,United Kingdom,Guitar,1958-05-17,1958-05-17
