col0,col1,col2,col3
InternetQ,London,150,104420000
International Meal Company,São Paulo,13175,578700000
International Bank of Azerbaijan,Baku,1304,630000000
Interfor Corporation,Vancouver,3400,1400000000
Intercell,Vienna,410,34200000
Interactive Data Corporation,Massachusetts,2500,867700000
Interactive Brokers Group,"Greenwich, Connecticut",901,1000000000
Inter RAO,Moscow,15879,18240000000
Inter Pipeline,Calgary,659,1187
"Integrated Medical Systems International, Inc.",Alabama,1200,117000000
Integral Systems,"Columbia, Maryland",769,160170000
Intact Financial,Toronto,12000,8
Institute for Research in Economics and Business Administration,Bergen,60,65000000
Institute for Information Industry,Taipei City,1800,4100000000
Insight Enterprises,"Tempe, Arizona",5700,5400000000
Ingram Industries,"Belle Meade, Tennessee",5000,2120000000
Ingra,Zagreb,123,252300000
Ingles,North Carolina,18800,3740000000
Infusionsoft,"Chandler, Arizona",650,80000000
Infrabel,Brussels,12875,1309000000
Information Control Corporation,"Columbus, Ohio",500,60000000
Information Builders,New York City,1400,315000000
Informatica,"Redwood City, California",3500,1050000000
Infor,New York,15000,2800000000
Infineon Technologies,Neubiberg,35400,5795000000
Indykpol,Olsztyn,1521,858900000
Industrial Alliance,"Quebec City, Quebec",5019,3
Indus Towers,New Delhi,2500,2000000000
Indorama Ventures,Bangkok,14000,7000000000
Inditex,Arteixo,152854,20900000000
Indigo Books and Music,Ontario,6500,1017000000
Indesit Company,Fabriano,16000,2900000000
Impulse,Hertfordshire,150,9000000
Imperial Brands,Bristol,36400,25289000000
Impax Laboratories,California,1000,596000000
Imlek a.d.,Belgrade,2504,346000000
Imerco,Herlev Municipality,1100,1100
Imagination Technologies,Kings Langley,1700,170800000
Iliad SA,Paris,7795,4160000000
Ikon Office Solutions,"Malvern, Pennsylvania",20000,4
Ikarbus,Belgrade,321,8690000
Iggesund Paperboard,"Iggesund, Hudiksvall",1473,4618000000
Idexx Laboratories,"Westbrook, Maine",5500,1
Icos,"Bothell, Washington",700,71410000
Ichibanya,"Ichinomiya, Aichi",775,38043
Icahn Enterprises,New York,90807,14604000000
Iarnród Éireann,Dublin,3796,233900000
IXYS Corporation,"Milpitas, California",1010,313
IRC Limited,Hong Kong,2492,160854000
IProperty Group,Kuala Lumpur,350,24003266
INKAS,Ontario,200,50000000
ING Belgium,Brussels,11576,3073000000
IN2,Croatia,2,125190000
IMK 14. oktobar Kruševac,Kruševac,31,2320000
IMEC,Leuven,2500,363000000
IMC Global,Illinois,5017,2200000000
IHeartMedia,Texas,20800,6318000000
IGo Inc,"Scottsdale, Arizona",38,20
IG Port,Tokyo,236,5989000000
IFS AB,Linköping,2700,3000000000
IEC Electronics,"Newark, New York",809,140
IDT Biologika,Germany,1400,172000000
ICT Group,"Newtown, Bucks County, Pennsylvania",18000,453621000
IBM,New York,377757,81741000000
IBC SOLAR,Bad Staffelstein,400,857000000
IAC,New York,5000,3230000000
I.D. Systems,New Jersey,103,39950000
Hyundai Motor Company,Seoul,104731,76000000000
Hyundai Assan Otomotiv,Constantinople,2350,961900000
Hyster-Yale Materials Handling,"Cleveland, Ohio",5400,2578
Hymer,Bad Waldsee,2600,2780
Hydrogenics,Ontario,140,42400000
Hydro-Québec,Montreal,19794,13754000
Hutchison Whampoa,"Admiralty, Hong Kong",253983,54035000000
Husqvarna Group,Huskvarna,14156,36193
Huntsman Corporation,Texas,16000,10299000000
Huhtamäki,Espoo,15844,2700000000
Hugo Boss,Metzingen,13764,2809000000
Hughes Aircraft Company,"Culver City, California",84000,11
Hubert Burda Media,Offenburg,9241,2450000000
Hub Group,"Oak Brook, Illinois",2605,3500000000
HubSpot,"Cambridge, Massachusetts",785,186
Huawei,Guangdong,170000,60839000000
Htoo Group of Companies,Yangon,40000,65100000
Houston Advanced Research Center,"The Woodlands, Texas",45,20000000
Hospital Corporation of America,"Nashville, Tennessee",204000,39678000000
Horween Leather Company,Chicago,160,25000000
Hormel,"Austin, Minnesota",19700,8230000000
Hongkong Land,"Central, Hong Kong",1503,1900000000
Home Properties,"Rochester, New York",1200,580000000
Home Capital Group,Toronto,644,533
Holland & Barrett,Nuneaton,7000,640
Hokuriku Electric Power Company,Toyama Prefecture,6711,495118
Hokkaido Electric Power Company,Sapporo,6711,603032
HoeBowl,Poughkeepsie,40,1000000
Hexis S.A.,Frontignan,250,63000000
Hewlett Packard Enterprise Services,"Plano, Texas",136000,34900000000
Hesburger,Turku,6000,260000000
Hershey Creamery Company,"Harrisburg, Pennsylvania",450,44800000
Heron Foods,"Melton, East Riding of Yorkshire",2438,194700000
Heritage Internet Technologies,"Provo, Utah",200,11600000
Herbalife,L.A. Live,7800,3825000000
Heracles General Cement,Athens,1781,421690000
Henry Ford Health System,Detroit,3632,3700000000
Henkell & Co. Sektkellerei,Wiesbaden,2023,674600000
Hempel Group,Lyngby-Taarbæk Municipality,5500,1563
Hemofarm a.d.,Vršac,2484,258540000
Hellenic Post,Athens,12500,475150000
Hellenic Petroleum,Athens,15,26520000000
Hellenic Duty Free Shops,Attica,6300,234300000
Hellenic Aerospace Industry,Tanagra,1369,98020000
Heiwa Corporation,Tokyo,821,1675000000
Heinz,Pennsylvania,32200,11640000000
Heineken International,Amsterdam,76136,19257000000
Healthways,"Franklin, Tennessee",2500,742183000
Hayneedle,"Omaha, Nebraska",500,350000000
Hayleys,Colombo,33224,572300000
Haworth,"Holland, Michigan",7000,1800000000
Haven Holidays,Hemel Hempstead,2802,271
Haulotte Group,L'Horme,1970,648100000
Hasselblad,Gothenburg,210,290
Hasbro,Rhode Island,5200,4070000000
Harzwasserwerke,Hildesheim,220,40490000
Harvey Norman,"Homebush West, New South Wales",407,5300000000
Harvey Nash,London,3500,533000000
Hartmarx,"Chicago, Illinois",3800,564870000
Harmonic Inc.,"San Jose, California",1148,530460000
Hario,Tokyo,200,5
Haribo,Bonn,6000,1
Hargreaves Lansdown,Bristol,950,395100000
Hans Adler,Bonndorf,320,100000000
Hana Micron,Asan,1300,260
Hamilton Sundstrand,"Windsor Locks, Connecticut",17158,6200000000
Hamilton Bradshaw,London,30,400000000
Halyvourgiki Hellenic Steel Industry S.A.,Athens,3,1958000000
Hallmark Cards,"Kansas City, Missouri",16000,3800000000
Halfords Autocentre,Redditch,1500,97
Halfords,Redditch,11221,1025
HTC,New Taipei City,14332,132
HPE COXA,Modena,140,21000000
HPE 3PAR,"Fremont, California",657,194280000
HMV,Puddle Dock,2500,1956
HMS Industrial Networks,Halmstad,450,57000000
HMS Holdings,"Irving, Texas",2425,503
HKS,Shizuoka Prefecture,276,8514000000
HIP-Petrohemija,Pančevo,1787,249060000
HCL Technologies,Noida,107968,6100000000
H. T. Hackney Company,"Knoxville, Tennessee",3400,3600000000
H&M,Stockholm,148000,21730000000
Gunns,Tasmania,645,406000000
Gul Ahmed Group,Karachi,7000,300000000
Guinness Nigeria,Ikeja,1332,123663125000
Gueudet,Amiens,2800,1134000000
Gruppo Torinese Trasporti,Turin,5500,403000000
