col0,col1,col2,col3,col4
W. H. Spaulding,Wisconsin,Los Angeles,1880-05-04,1–0
W. B. Woodson,"Fort Worth, Texas",Dallas,1903-02-24,6–2–1
S. Fulton,"Brosville, Virginia","Farmville, Virginia",1929-10-24,0–2
S. Stahley,"Lebanon, Pennsylvania","Portland, Oregon",1908-09-22,1–1
R. Graves,"Knoxville, Tennessee","Clearwater, Florida",1918-12-31,4–1
R. Sasse,"Wilmington, Delaware","Rehoboth Beach, Delaware",1889-07-19,0–1
P. Warner,"Springville, New York","Palo Alto, California",1871-04-05,1–1–2
M. Warmath,"Humboldt, Tennessee","Bloomington, Minnesota",1912-12-26,1–1
M. Huerta,"Tampa, Florida","Tampa, Florida",1924-10-31,2–1
L. Casanova,"Ferndale, California","Eugene, Oregon",1905-06-12,2–2
J. Vaught,Texas,"Oxford, Mississippi",1909-05-06,10–8
J. Pont,"Canton, Ohio","Oxford, Ohio",1927-11-13,0–2
J. Paterno,Brooklyn,Pennsylvania,1926-12-21,24–12–1
J. Crowley,Chicago,"Scranton, Pennsylvania",1902-09-10,1–1
J. B. Wilson,"Buffalo, New York","Clarence, New York",1896-07-08,0–1
J. Pardee,"Exira, Iowa",Denver,1936-04-19,0–1
J. Elway,"Hoquiam, Washington","Palm Springs, California",1931-05-30,0–2
I. Armstrong,"Fort Madison, Iowa","Corona del Mar, Newport Beach",1895-06-08,1–1
