col0,col1,col2,col3
SM UC-100,1916-01-12,5,1918-09-30
SM UC-10,1914-11-14,3,1915-07-17
SM UB-99,1917-02-08,5,1918-09-04
SM UB-98,1917-02-08,5,1918-08-08
SM UB-97,1917-02-08,5,1918-07-25
SM UB-96,1917-02-08,5,1918-07-03
SM UB-95,1917-02-08,5,1918-06-20
SM UB-94,1917-02-08,5,1918-06-01
SM UB-93,1917-02-08,5,1918-05-15
SM UB-92,1917-02-08,5,1918-04-27
SM UB-91,1917-02-08,5,1918-04-11
SM UB-90,1917-02-08,5,1918-03-21
SM UB-9,1914-10-15,3,1915-02-18
SM UB-89,1917-02-08,5,1918-02-25
SM UB-88,1917-02-08,5,1918-01-26
SM UB-87,1916-09-23,5,1917-12-27
SM UB-86,1916-09-23,5,1917-11-10
SM UB-85,1916-09-23,5,1917-11-24
SM UB-84,1916-09-23,5,1917-10-31
SM UB-83,1916-09-23,5,1917-10-15
SM UB-82,1916-09-23,5,1917-10-02
SM UB-81,1916-09-23,5,1917-09-18
SM UB-80,1916-09-23,5,1917-09-08
SM UB-8,1914-10-15,3,1915-04-23
SM UB-79,1916-09-23,5,1917-10-27
SM UB-78,1916-09-23,5,1917-10-20
SM UB-77,1916-09-23,5,1917-10-02
SM UB-76,1916-09-23,5,1917-09-23
SM UB-75,1916-09-23,5,1917-09-11
SM UB-74,1916-09-23,5,1917-10-24
SM UB-73,1916-09-23,5,1917-10-02
SM UB-72,1916-09-23,5,1917-09-09
SM UB-71,1916-05-20,5,1917-11-23
SM UB-70,1916-05-20,5,1917-10-12
SM UB-7,1914-10-15,3,1915-05-06
SM UB-69,1916-05-20,5,1917-10-12
SM UB-68,1916-05-20,5,1917-10-05
SM UB-67,1916-05-20,5,1917-08-23
SM UB-66,1916-05-20,5,1917-08-01
SM UB-65,1916-05-20,5,1917-08-18
SM UB-64,1916-05-20,5,1917-08-05
SM UB-63,1916-05-20,5,1917-07-23
SM UB-62,1916-05-20,5,1917-07-09
SM UB-61,1916-05-20,5,1917-06-23
SM UB-60,1916-05-20,5,1917-06-06
SM UB-6,1914-11-15,3,1915-04-08
SM UB-59,1916-05-20,5,1917-08-25
SM UB-58,1916-05-20,5,1917-08-10
SM UB-57,1916-05-20,5,1917-07-30
SM UB-56,1916-05-20,5,1917-07-19
SM UB-55,1916-05-20,5,1917-07-01
SM UB-54,1916-05-20,5,1917-06-12
SM UB-53,1916-05-20,5,1917-08-21
SM UB-52,1916-05-20,5,1917-08-09
SM UB-51,1916-05-20,5,1917-07-26
SM UB-50,1916-05-20,5,1917-07-12
SM UB-5,1914-11-15,3,1915-03-25
SM UB-49,1916-05-20,5,1917-06-28
SM UB-48,1916-05-20,5,1917-06-11
SM UB-47,1915-07-31,3,1916-07-04
SM UB-46,1915-07-31,3,1916-06-12
SM UB-45,1915-07-31,3,1916-05-26
SM UB-44,1915-07-31,3,1916-05-11
SM UB-43,1915-07-31,3,1916-04-24
SM UB-42,1915-07-31,3,1916-03-23
SM UB-41,1915-07-22,3,1916-08-25
SM UB-40,1915-07-22,3,1916-08-17
SM UB-4,1914-11-15,3,1915-03-23
SM UB-39,1915-07-22,3,1916-04-29
SM UB-38,1915-07-22,3,1916-07-19
SM UB-37,1915-07-22,3,1916-06-17
SM UB-36,1915-07-22,3,1916-05-22
SM UB-35,1915-07-22,3,1916-06-22
SM UB-34,1915-07-22,3,1916-06-10
SM UB-33,1915-07-22,3,1916-04-22
SM UB-32,1915-07-22,3,1916-04-11
SM UB-31,1915-07-22,3,1916-03-25
SM UB-30,1915-07-22,3,1916-03-18
SM UB-3,1914-11-15,3,1915-03-14
SM UB-29,1915-04-30,3,1916-01-18
SM UB-28,1915-04-30,3,1915-12-27
SM UB-27,1915-04-30,3,1916-02-23
SM UB-26,1915-04-30,3,1916-01-07
SM UB-25,1915-04-30,3,1915-12-11
SM UB-24,1915-04-30,3,1915-11-18
SM UB-23,1915-04-30,3,1916-03-13
SM UB-22,1915-04-30,3,1916-03-02
SM UB-21,1915-04-30,3,1916-02-20
SM UB-20,1915-04-30,3,1916-02-10
SM UB-2,1914-11-15,3,1915-02-10
SM UB-19,1915-04-30,3,1915-12-16
SM UB-18,1915-04-30,3,1915-12-11
SM UB-17,1914-11-25,3,1915-05-04
SM UB-16,1914-11-25,3,1915-05-12
SM UB-150,1917-06-27,5,1919-03-27
SM UB-149,1917-06-27,5,1918-10-22
SM UB-148,1917-06-27,5,1918-09-19
SM UB-143,1917-06-27,5,1918-10-03
SM UB-142,1917-06-27,5,1918-08-31
SM UB-14,1914-10-15,3,1915-03-25
SM UB-132,1917-02-08,5,1918-07-25
SM UB-131,1917-02-08,5,1918-07-04
