col0,col1,col2,col3
X. Montsalvatge,Barcelona,Barcelona,Spain
T. Bosley,"Palm Springs, California",Forest Lawn Memorial Park,United States
S. Unwin,Northamptonshire,Northamptonshire,English people
S. Shamsuddin,Bukit Batok,Lim Chu Kang,Singapore
J. Baker,France,Monaco Cemetery,French people
G. Cambridge,"Ridgefield, Connecticut",Los Angeles,Americans
D. Kelly,Dublin,Mount Jerome Cemetery & Crematorium,Irish people
