col0,col1,col2,col3,col4,col5,col6
A. o. Brunswick-Lüneburg,Szczecin,Szczecin,Celle,Henry I of Lüneburg,1568-11-06,1502-12-06
"Anna of Brandenburg, Duchess of Mecklenburg",Schwerin Cathedral,Lübz,Berlin,"Elisabeth of Denmark, Electress of Brandenburg",1567-06-19,1507-01-01
Anna Sophia of Prussia,Schwerin Cathedral,Lübz,Königsberg,"Dorothea of Denmark, Duchess of Prussia",1591-02-06,1527-06-11
Anna Maria of Hesse-Kassel,Saarbrücken,"Neunkirchen, Saarland",Kassel,"William IV, Landgrave of Hesse-Kassel",1626-11-21,1567-01-27
Anna Maria of Brandenburg-Ansbach,"St. George's Collegiate Church, Tübingen",Nürtingen,Jägerndorf,"George, Margrave of Brandenburg-Ansbach",1589-05-20,1526-12-28
Anna Eleonore of Stolberg-Wernigerode,Köthen,Köthen,Ilsenburg,"Henry Ernest, Count of Stolberg",1690-01-27,1651-03-26
Ana Francisca de Borja y Doria,"Madrid, Spain",Madrid,Gandia,D. o. Gandia,1706-1-1,1640-1-1
A. Khan,Afghanistan,Zürich,Paghman,H. Khan,1960-4-25,1892-6-1
"Amadeus III, Count of Savoy",Nicosia,Nicosia,Carignano,"Gisela of Burgundy, Countess of Savoy",1148-1-1,1095-1-1
A. Enríquez,Palencia,"Guadalupe, Cáceres","Guadalcanal, Seville","Fadrique Alfonso, Lord of Haro",1429-0-0,1354-0-0
Alexander I of Scotland,Dunfermline Abbey,Stirling Castle,Dunfermline,Malcolm III of Scotland,1124-4-23,1078-1-1
A. Hochberg,Pollença,Pollença,London,"Daisy, Princess of Pless",1984-02-22,1905-02-01
"Albert III, Duke of Bavaria",Andechs,Munich,Munich,E. Visconti,1460-02-29,1401-03-27
"Albert III, Duke of Austria","St. Stephen's Cathedral, Vienna",Laxenburg castles,Duchy of Austria,J. o. Pfirt,1395-08-29,1349-09-09
"Albert II, Margrave of Brandenburg-Ansbach",Ansbach,Ansbach,Ansbach,"Joachim Ernst, Margrave of Brandenburg-Ansbach",1667-10-22,1620-09-18
"Agnes Keith, Countess of Moray",Edinburgh,Edinburgh,Dunnottar Castle,"William Keith, 4th Earl Marischal",1588-07-16,1540-0-0
Agatha Marie of Hanau,Ribeauvillé,Baden-Baden,"Bouxwiller, Bas-Rhin","Johann Reinhard I, Count of Hanau-Lichtenberg",1636-05-23,1599-08-22
Agatha Christine of Hanau-Lichtenberg,La Petite-Pierre,Strasbourg,"Bouxwiller, Bas-Rhin","Philip Wolfgang, Count of Hanau-Lichtenberg",1681-12-05,1632-09-23
A. o. Nassau-Dillenburg,Hanau,Hanau,Dillenburg,Jan IV of Nassau,1477-01-15,1449-02-07
A. o. Susa,Canischio,Canischio,Turin,B. o. Milan,1091-12-19,1020-0-0
A. Kazanowski,"St. John's Cathedral, Warsaw",Warsaw,Polish-Lithuanian Commonwealth,Z. Kazanowski,1649-12-25,1599-1-1
A. o. Huntingdon,Abbey of Middelburg,Middelburg,Huntingdon,A. d. Warenne,1205-0-0,1146-0-0
A. Y. Yusuf,Tinmel,Évora,Tinmel,A. al-Mu'min,1184-7-29,1135-1-1
A. R. Khan,Afghanistan,Kabul,Afghanistan,M. A. Khan,1901-10-1,1844-1-1
Æ. t. Unready,London,London,Wessex,E. t. Peaceful,1016-4-23,968-1-1
