col0,col1,col2,col3
Yo! I Killed Your God,Marc Ribot,The Prosthetic Cubans,4367
Yo! Check Out This Ride! EP,The Aquabats,"Myths, Legends and Other Amazing Adventures, Vol. 2",812
Ylem,Dark Fortress,Eidolon,4220
Yitzhak Rabin,Alpha Blondy,Grand Bassam Zion Rock,3355
Yippiyo-Ay,The Presets,Talk Like That,274
Yip/Jump Music,Daniel Johnston,More Songs of Pain,3705
Ying Yang Forever,Ying Yang Twins,The Official Work,3778
Yin-Yang,Victor Wooten,What Did He Say?,5330
Yikes!,London Elektricity,Syncopated City,3783
Yield,Pearl Jam,No Code,2917
Yggdrasil,Bump of Chicken,Flame Vein +1,3989
Ygg huur,Krallice,Years Past Matter,2129
Yevadu,Devi Sri Prasad,Singam II,1564
Yeti,Amon Düül II,Phallus Dei,4069
Yet Again,Grizzly Bear,Sleeping Ute,318
Yesyears,Yes,Classic Yes,17483
Yesterworlds,Dark Tranquillity,Fiction,3173
Yesterdays Universe,Yesterdays New Quintet,The Funky Side of Life,4422
Yesterdays,Pennywise,All or Nothing,2583
Yesterdays,Guns N' Roses,November Rain,193
Yesterdays,Gato Barbieri,Chapter Three: Viva Emiliano Zapata,2234
Yesterday and Today,The Field,From Here We Go Sublime,3640
Yesterday and Today,The Beatles,Rubber Soul,1653
Yesterday You Said Tomorrow,Christian Scott,Anthem,4050
