col0,col1,col2,col3
Vidra River,Vâlcea County,Vâlcea County,Vâlcea County
Vidra River,Maramureş County,Maramureş County,Maramureş County
Vidolm River,Alba County,Alba County,Alba County
Videști River,Bihor County,Bihor County,Bihor County
Vidăcut River,Harghita County,Harghita County,Harghita County
Vicov River,Suceava County,Suceava County,Suceava County
Vicleanul Mare River,Maramureş County,Maramureş County,Maramureş County
Vicinic,Caraș-Severin County,Vojvodina,Vojvodina
Vica River,Hunedoara,Hunedoara,Hunedoara
Vițelul River,Buzău County,Buzău County,Buzău County
Vițău River,Suceava County,Suceava County,Suceava County
Viștișoara River,Braşov County,Braşov County,Braşov County
Viștea River,Brașov County,Viștea de Sus,Viștea de Sus
Viștea Mare River,Braşov County,Braşov County,Braşov County
Vișeu River,Maramureș County,Maramureș County,Borșa
Vișeuț River,Maramureş County,Maramureş County,Maramureş County
Vișag River,Cluj County,Cluj County,Cluj County
Vișag River,Cluj County,Cluj County,Cluj County
Vișag River,Bihor County,Bihor County,Bihor County
Vișa River,Sibiu County,Ocna Sibiului,"Axente Sever, Sibiu"
Vețca River,Mureș County,Mureș County,Mureș County
Veța River,Mureş County,Mureş County,Mureş County
Vezuriște River,Bihor County,Bihor County,Bihor County
Vezieș River,Gorj County,Gorj County,Gorj County
Veza River,Alba County,Alba County,Alba County
Vetijgat River,Satu Mare County,Satu Mare County,Satu Mare County
Vete River,Neamţ County,Neamţ County,Neamţ County
Veshaw River,Kulgam District,Kulgam District,Kulgam District
Veseud River,Sibiu County,Sibiu County,Sibiu County
Verșteag River,Caraş-Severin County,Caraş-Severin County,Caraş-Severin County
Vermilion River,"Lafayette, Louisiana","Lafayette, Louisiana","Lafayette, Louisiana"
Vermilion River,"Kenora District, Ontario","Kenora District, Ontario","Kenora District, Ontario"
Verkeerder Kill,"Ulster County, New York","Ulster County, New York","Ulster County, New York"
Verendin River,Caraş-Severin County,Caraş-Severin County,Caraş-Severin County
Verehia River,Suceava County,Suceava County,Suceava County
Verdele River,Vrancea County,Vrancea County,Vrancea County
Verdele River,"Mărgineni, Neamț",Neamţ County,Neamţ County
Verdele River,Vrancea County,Vrancea County,Vrancea County
Verdea River,Vrancea County,Vrancea County,Vrancea County
Verdea River,Timiş County,Timiş County,Timiş County
Verdea River,Vrancea County,Vrancea County,Vrancea County
Verde River,"Gila County, Arizona","Gila County, Arizona","Yavapai County, Arizona"
Verdalselva,Verdalsøra,Verdalsøra,Verdalsøra
