col0,col1,col2,col3,col4
Angiopoietin receptor,21,1,7010,NM_000459
Angiopoietin,22,8,284,NM_001146
Androgen-binding protein,13,17,6462,NM_001040
Amyloid beta,21,21,351,NM_000484
Amelogenin,11,X,265,NM_001142
Alpha catenin,12,10,1495,NM_001903
Alpha-N-acetylglucosaminidase,11,17,4669,NM_000263
Alpha-2-Macroglobulin,13,12,2,NM_000014
Alanine transaminase,24,8,2875,NM_005309
Agouti signalling peptide,11,20,434,NM_001672
Adrenocorticotropic hormone,23,2,5443,NM_000939
Adenosylhomocysteinase,11,20,191,NM_000687
Adenine nucleotide translocator,24,4,291,NM_001151
