col0,col1,col2,col3
Techno,Tech house,Alternative dance,Trance music
Swing music,Swing revival,New jack swing,Electro swing
Soul music,Smooth soul,Funk,Soul jazz
Rock music of West Bengal,Indie rock,Bengali language,Folk rock
Rock music,Garage rock,Synthpop,Rap rock
Rock and roll,Rockabilly,Pop music,Blues rock
Rhythm and blues,Neo soul,Disco,Rock music
Reggae,Lovers rock,Ragga,Reggae fusion
Punk rock,Garage punk,New wave music,Rapcore
Progressive rock,Rock in Opposition,New-age music,Progressive metal
Post-punk,Dance-punk,Alternative rock,Post-hardcore
Post-hardcore,Emo,Blackgaze,Electronicore
Outline of jazz,Bebop,Rhythm and blues,Humppa
Kroncong,Koes Plus,Langgam Jawa,Pop music
Jazz,Bebop,Reggae,Humppa
