col0,col1,col2,col3
Laos knobby newt,Salamandridae,NE,IUCN3.1
Lanza's alpine salamander,Salamandridae,VU,IUCN3.1
Laliostoma labrosum,Mantellidae,LC,IUCN3.1
Lake Patzcuaro salamander,Ambystomatidae,CR,IUCN3.1
Lake Oku clawed frog,Pipidae,CR,IUCN3.1
Lake Lerma salamander,Ambystomatidae,CR,IUCN3.1
La Palma salamander,Plethodontidae,EN,IUCN3.1
La Escalera tree frog,Hylidae,LC,IUCN3.1
Kurixalus idiootocus,Rhacophoridae,LC,IUCN3.1
Kurixalus eiffingeri,Rhacophoridae,LC,IUCN3.1
Kurdistan spotted newt,Salamandridae,CR,IUCN3.1
Kunapalari frog,Myobatrachidae,LC,IUCN3.1
Kuankuoshui salamander,Hynobiidae,DD,IUCN3.1
Kuala Lumpur caecilian,Ichthyophiidae,DD,IUCN3.1
Kroombit tinker frog,Myobatrachidae,CR,IUCN3.1
Krefft's warty frog,Microhylidae,LC,IUCN3.1
Korean water toad,Bufonidae,LC,IUCN3.1
Korean salamander,Asiatic salamander,LC,IUCN3.1
Kokoda big-eyed tree frog,Hylidae,LC,IUCN3.1
Kobayashi's horned frog,Megophryidae,NT,IUCN3.1
Koa Tao Island caecilian,Ichthyophiidae,LC,IUCN3.1
Knysna banana frog,Hyperoliidae,EN,IUCN3.1
Knife-footed frog,Hylidae,LC,IUCN3.1
Kivu clawed frog,Pipidae,LC,IUCN3.1
Kings River slender salamander,Lungless salamander,VU,IUCN3.1
Kihansi spray toad,Bufonidae,EW,IUCN3.1
Kern Plateau salamander,Plethodontidae,NT,IUCN3.1
Kern Canyon slender salamander,Lungless salamander,VU,IUCN3.1
Kerala caecilian,Ichthyophiidae,DD,IUCN3.1
Kato's salamander,Asiatic salamander,DD,IUCN3.1
Kassinula wittei,Hyperoliidae,LC,IUCN3.1
Kassina somalica,Hyperoliidae,LC,IUCN3.1
Kassina senegalensis,Hyperoliidae,LC,IUCN3.1
Kassina schioetzi,Hyperoliidae,LC,IUCN3.1
Kassina mertensi,Hyperoliidae,DD,IUCN3.1
Kassina maculifer,Hyperoliidae,LC,IUCN3.1
Kassina lamottei,Hyperoliidae,VU,IUCN3.1
Kassina kuvangensis,Hyperoliidae,LC,IUCN3.1
Kassina jozani,Hyperoliidae,EN,IUCN3.1
Kassina fusca,Hyperoliidae,LC,IUCN3.1
Kassina cochranae,Hyperoliidae,NT,IUCN3.1
Kassina cassinoides,Hyperoliidae,LC,IUCN3.1
Kassina arboricola,Hyperoliidae,VU,IUCN3.1
Kassam tree frog,Hylidae,LC,IUCN3.1
Karpathos frog,Ranidae,CR,IUCN3.1
Karpathos Lycian salamander,Salamandridae,VU,IUCN3.1
Kapahiang caecilian,Ichthyophiidae,DD,IUCN3.1
Kanaima tree frog,Hylidae,LC,IUCN3.1
Kampira Falls frog,Ranidae,EN,iucn3.1
Kaloula walteri,Microhylidae,DD,IUCN3.1
Kaloula baleata,Microhylidae,LC,IUCN3.1
Kaloula assamensis,Microhylidae,LC,IUCN3.1
Kalophrynus punctatus,Microhylidae,VU,IUCN3.1
Kalophrynus palmatissimus,Microhylidae,EN,IUCN3.1
Kalophrynus nubicola,Microhylidae,NT,IUCN3.1
Kalophrynus minusculus,Microhylidae,VU,IUCN3.1
Kalophrynus intermedius,Microhylidae,VU,IUCN3.1
Kalophrynus interlineatus,Microhylidae,LC,IUCN3.1
Kalophrynus heterochirus,Microhylidae,LC,IUCN3.1
Kalophrynus eok,Microhylidae,DD,IUCN3.1
Kalophrynus bunguranus,Microhylidae,DD,IUCN3.1
Kalinga narrowmouth toad,Microhylidae,VU,IUCN3.1
Kaiser's spotted newt,Salamandridae,CR,IUCN3.1
Kaironk big-eyed tree frog,Hylidae,LC,IUCN3.1
Jordan's casque-headed tree frog,Hylidae,LC,IUCN3.1
Jondachi tree frog,Hylidae,EN,IUCN3.1
Jollyville Plateau salamander,Plethodontidae,EN,IUCN3.1
Jobi tree frog,Hylidae,DD,IUCN3.1
Jervis Bay tree frog,Hylidae,LC,IUCN3.1
Jerdon's tree frog,Hylidae,LC,iucn3.1
Jemez Mountains salamander,Plethodontidae,NT,IUCN3.1
Jeju salamander,Asiatic salamander,DD,IUCN3.1
Javelin frog,Hylidae,LC,IUCN3.1
Javan mossy tree frog,Hylidae,DD,IUCN3.1
Javan caecilian,Ichthyophiidae,DD,IUCN3.1
Japanese wrinkled frog,Ranidae,LC,IUCN3.1
Japanese tree frog,Hylidae,LC,IUCN3.1
Japanese stream toad,Bufonidae,LC,iucn3.1
Japanese giant salamander,Cryptobranchidae,VU,IUCN3.1
Japanese fire belly newt,Salamandridae,LC,IUCN3.1
Japanese common toad,Bufonidae,LC,iucn3.1
Japanese clawed salamander,Hynobiidae,LC,IUCN3.1
Japanese brown frog,Ranidae,LC,IUCN3.1
Japanese black salamander,Asiatic salamander,LC,IUCN3.1
Jamaican laughing frog,Hylidae,LC,IUCN3.1
Jahn's tree frog,Hylidae,NT,IUCN3.1
Jade tree frog,Rhacophoridae,NT,IUCN3.1
Jackson's climbing salamander,Plethodontidae,DD,IUCN3.1
Jabiru toadlet,Myobatrachidae,DD,IUCN3.1
Ixalotriton parva,Plethodontidae,CR,IUCN3.1
Ixalotriton niger,Plethodontidae,CR,IUCN3.1
Italian tree frog,Hylidae,LC,IUCN3.1
Italian stream frog,True frog,LC,IUCN3.1
Italian pool frog,Ranidae,LC,IUCN3.1
Italian newt,Salamandridae,LC,IUCN3.1
Italian edible frog,Ranidae,LC,IUCN3.1
Italian crested newt,Salamandridae,LC,IUCN3.1
Italian cave salamander,Plethodontidae,NT,IUCN3.1
Italian agile frog,Ranidae,VU,IUCN3.1
Isthmohyla xanthosticta,Hylidae,DD,IUCN3.1
Isthmohyla tica,Hylidae,CR,IUCN3.1
Isthmohyla rivularis,Hylidae,CR,IUCN3.1
Isthmohyla pseudopuma,Hylidae,LC,IUCN3.1
Isthmohyla pictipes,Hylidae,VU,IUCN3.1
Isthmohyla picadoi,Hylidae,EN,IUCN3.1
Isthmohyla lancasteri,Hylidae,LC,IUCN3.1
Isthmohyla insolita,Hylidae,CR,IUCN3.1
Isthmohyla infucata,Hylidae,DD,IUCN3.1
Isthmohyla calypsa,Hylidae,CR,IUCN3.1
Isla Bonita tree frog,Hylidae,CR,IUCN3.1
Iranian earless toad,Bufonidae,LC,IUCN3.1
Inyo Mountains salamander,Lungless salamander,EN,IUCN3.1
Ingerophrynus macrotis,Bufonidae,LC,iucn3.1
Ingerophrynus gollum,Bufonidae,LC,IUCN3.1
Ingerana reticulata,Ranidae,DD,IUCN3.1
Ingerana charlesdarwini,Ranidae,CR,IUCN3.1
Inelegant frog,Microhylidae,LC,IUCN3.1
Indonesian caecilian,Ichthyophiidae,DD,IUCN3.1
Indonesian big-eyed tree frog,Hylidae,DD,IUCN3.1
Indian flying frog,Ranidae,VU,IUCN3.1
Incilius coniferus,Bufonidae,LC,IUCN3.1
Imperial cave salamander,Plethodontidae,NT,IUCN3.1
Imitator salamander,Lungless salamander,LC,IUCN3.1
Imienpo Station frog,Ranidae,LC,IUCN3.1
Idaho giant salamander,Dicamptodontidae,LC,IUCN3.1
Ichthyophis subterrestris,Ichthyophiidae,DD,IUCN3.1
Ichthyophis peninsularis,Ichthyophiidae,DD,IUCN3.1
Ichthyophis glutinosus,Ichthyophiidae,LC,IUCN3.1
Iberian frog,True frog,NT,IUCN3.1
Hypsiboas stenocephalus,Hylidae,DD,IUCN3.1
Hypsiboas semilineatus,Hylidae,LC,IUCN3.1
Hypsiboas riojanus,Hylidae,DD,IUCN3.1
Hypsiboas phaeopleura,Hylidae,DD,IUCN3.1
Hypsiboas palaestes,Hylidae,DD,IUCN3.1
Hypsiboas leucocheilus,Hylidae,DD,IUCN3.1
Hypsiboas latistriatus,Hylidae,DD,IUCN3.1
Hypsiboas joaquini,Hylidae,LC,IUCN3.1
Hypsiboas hypselops,Hylidae,DD,IUCN3.1
Hypsiboas guentheri,Hylidae,LC,IUCN3.1
Hypsiboas goianus,Hylidae,LC,IUCN3.1
Hypsiboas freicanecae,Hylidae,DD,IUCN3.1
Hypsiboas exastis,Hylidae,DD,IUCN3.1
Hypsiboas ericae,Hylidae,DD,IUCN3.1
Hypsiboas cordobae,Hylidae,DD,IUCN3.1
Hypsiboas cipoensis,Hylidae,NT,IUCN3.1
Hypsiboas buriti,Hylidae,DD,IUCN3.1
Hypsiboas beckeri,Hylidae,DD,IUCN3.1
Hypsiboas andinus,Hylidae,LC,IUCN3.1
Hypogeophis brevis,Indotyphlidae,EN,IUCN3.1
Hyperolius zonatus,Hyperoliidae,NT,IUCN3.1
Hyperolius xenorhinus,Hyperoliidae,DD,IUCN3.1
Hyperolius wermuthi,Hyperoliidae,NT,IUCN3.1
Hyperolius viridis,Hyperoliidae,DD,IUCN3.1
Hyperolius viridigulosus,Hyperoliidae,VU,IUCN3.1
Hyperolius vilhenai,Hyperoliidae,DD,IUCN3.1
Hyperolius tuberilinguis,Hyperoliidae,LC,IUCN3.1
Hyperolius torrentis,Hyperoliidae,EN,IUCN3.1
Hyperolius tornieri,Hyperoliidae,DD,IUCN3.1
Hyperolius thoracotuberculatus,Hyperoliidae,DD,IUCN3.1
Hyperolius thomensis,Hyperoliidae,EN,IUCN3.1
Hyperolius sylvaticus,Hyperoliidae,LC,IUCN3.1
Hyperolius swynnertoni,Hyperoliidae,LC,IUCN3.1
Hyperolius stenodactylus,Hyperoliidae,DD,IUCN3.1
Hyperolius steindachneri,Hyperoliidae,LC,IUCN3.1
Hyperolius spinigularis,Hyperoliidae,LC,IUCN3.1
Hyperolius soror,Hyperoliidae,DD,IUCN3.1
Hyperolius sheldricki,Hyperoliidae,LC,IUCN3.1
Hyperolius semidiscus,Hyperoliidae,LC,IUCN3.1
Hyperolius seabrai,Hyperoliidae,DD,IUCN3.1
Hyperolius schoutedeni,Hyperoliidae,LC,IUCN3.1
Hyperolius sankuruensis,Hyperoliidae,DD,IUCN3.1
Hyperolius rubrovermiculatus,Hyperoliidae,EN,IUCN3.1
Hyperolius robustus,Hyperoliidae,DD,IUCN3.1
Hyperolius rhodesianus,Hyperoliidae,LC,IUCN3.1
Hyperolius rhizophilus,Hyperoliidae,DD,IUCN3.1
Hyperolius reesi,Hyperoliidae,LC,IUCN3.1
Hyperolius raveni,Hyperoliidae,DD,IUCN3.1
Hyperolius quinquevittatus,Hyperoliidae,LC,IUCN3.1
Hyperolius quadratomaculatus,Hyperoliidae,DD,IUCN3.1
Hyperolius pyrrhodictyon,Hyperoliidae,LC,IUCN3.1
Hyperolius pustulifer,Hyperoliidae,DD,IUCN3.1
Hyperolius punctulatus,Hyperoliidae,DD,IUCN3.1
Hyperolius pseudargus,Hyperoliidae,LC,IUCN3.1
Hyperolius protchei,Hyperoliidae,DD,IUCN3.1
Hyperolius polystictus,Hyperoliidae,VU,IUCN3.1
Hyperolius polli,Hyperoliidae,DD,IUCN3.1
Hyperolius platyceps,Hyperoliidae,LC,IUCN3.1
Hyperolius pictus,Hyperoliidae,LC,IUCN3.1
Hyperolius picturatus,Hyperoliidae,LC,IUCN3.1
Hyperolius phantasticus,Hyperoliidae,LC,IUCN3.1
Hyperolius parkeri,Hyperoliidae,LC,IUCN3.1
Hyperolius pardalis,Hyperoliidae,LC,IUCN3.1
