col0,col1,col2,col3
S. D. Warren Paper Mill,J. C. Stevens,445154,1974-05-02
S. C. Mayer House,S. Hannaford,4046,1980-03-03
Rutherfurd Hall,W. Warren,139211,2013-04-24
Rutherford and Martha Ellis House,P. T. Shutze,14568,2009-05-06
Rutger-Steuben Park Historic District,A. J. Davis,101171,1973-09-19
Ruggles Park,O. Brothers,36421,1983-02-16
Rudolph Pretzinger House,Pretzinger,4046,1979-08-24
Royal Neighbors of America National Home Historic District,"Clausen, Kruse & Klein",311607,2015-06-02
Royal Mausoleum of Hawaii,T. Heuck,16187,1972-08-07
Roughan Hall,A. H. Vinal,5665,1982-04-15
Rotch-Jones-Duff House and Garden Museum,R. Upjohn,4046,2005-04-05
Rossmore Apartment House,M. Brothers,1214,1978-11-14
Ross Fork Episcopal Church,J. E. Tourtellotte,5260,1983-01-03
Rosehill Cemetery,W. W. Boyington,1410000,1975-04-24
Rosedale Apartments,H. R. Hunt,10926,2007-04-10
Rosecliff,S. White,26304,1973-02-06
Roseburg Oregon National Guard Armory,W. C. Knighton,1659,1993-05-27
Rosaly–Batiz House,M. V. Domenech,1214,1986-09-29
Rollinsford Town Hall,A. T. Ramsdell,809,1999-03-05
Roger Williams National Memorial,N. Isham,18210,1966-10-15
Rocky Mills,"H. Louis Duhring, Jr.",31565,2002-05-13
Rockville Railroad Station,E. F. Baldwin,4046,1974-07-18
Rockingham Historic District,J. Royer,667731,1983-11-21
Rockefeller Center,R. Hood,89030,1987-12-23
Rock Ledge Ranch Historic Site,T. MacLaren,97124,1979-11-29
Rock Lawn and Carriage House,R. Upjohn,49776,1982-11-23
Rock House,N. a. O'Brien,7689,2004-08-11
Robie House,F. L. Wright,1214,1966-10-15
Roberts Park,W. P. Administration,323748,2014-01-15
"Roberts, Johnson and Rand-International Shoe Company Complex",T. C. Link,12140,1984-08-23
Robert Treat Paine Estate,F. L. Olmsted,457294,1975-10-07
Robert Mills House,R. Mills,16187,1970-07-16
Robert A. Grant Federal Building and U.S. Courthouse,A. &. Shambleau,0,2015-08-03
Riverview Terrace Historic District,C. &. Clausen,61512,1984-11-01
Riverview Historic District,F. L. Wright,316464,1986-08-22
Riverdale Monument,D. J. Baum,2023,2012-01-03
Riverbank Laboratories,W. Brothers,14163,2003-11-28
River Mill Hydroelectric Project,N. F. Ambursen,20234,2001-05-10
Rivanna Farm,D. W. Anderson,1031948,2001-02-16
Rincon Center,G. S. Underwood,7689,1979-11-16
Richmond Hill House,J. G. Hill,30351,1977-08-16
Richmond Downtown Historic District,J. K. Taylor,52609,2011-12-19
Richardson Olmsted Complex,H. H. Richardson,376357,1973-01-12
Richards Medical Research Laboratories,L. Kahn,11331,2009-01-16
Richard and Geraldine Hodgson House,P. Johnson,20234,2005-01-28
Richard H. Mitchell House,S. Hannaford,4046,1980-03-03
Rice Public Library,S. S. Woodcock,2023,1979-10-01
Rice House,R. Neutra,18210,1999-03-30
Reynolds Metals Company International Headquarters,G. Bunshaft,489669,2000-04-26
Reynolda Historic District,T. W. Sears,720340,1980-11-28
Residencia Subirá,Blas C. Silva Boucher,4046,1987-10-28
Renville County Courthouse and Jail,F. D. Orff,10279,1986-06-13
Reno Main Post Office,F. DeLongchamps,4856,1990-02-28
Renaissance Building,J. C. Gott,1214,1983-02-10
Reid House,P. T. Shutze,3237,1979-01-29
Rehoboth,H. Greeley,7284,1979-04-19
Reformed Dutch Church of Poughkeepsie,C. Collens,4046,2008-02-28
Redstone Coke Oven Historic District,Colorado Fuel and Iron,16187,1990-02-07
Red House Presbyterian Church,H. C. Linthicum,34398,2007-05-01
Reading Public Library,H. G. Wadlin,4046,1984-07-19
Ravalli County Courthouse,A. Gibson,2023,1979-04-20
Rapides Opera House,F. &. Livaudais,4046,1981-06-11
Rapallo Viaduct,P. I. Works,4046,1986-08-21
Ransley Apartment Building,S. Hannaford,4046,1980-03-03
Randolph Hotel,H.L. Stevens & Company,4046,2009-06-11
Randolph County Courthouse,"Wheeler, Runge & Dickey",12545,1979-05-10
Randle Ranger Station-Work Center,USDA Forest Svce. Architecture Group,20234,1986-04-08
Rancho De Los Kiotes,L. Carrillo,109265,1992-03-31
Ramsdell Theatre,S. S. Beman,4046,1972-01-13
Ralston Hall,H. Cleaveland,16187,1966-11-15
Ralph Waldo Emerson Indianapolis Public School No. 58,E. E. Dunlap,4046,2004-12-06
Ragdale,Howard Van Doren Shaw,133546,1976-06-03
Raemelton Farm Historic District,M. C. Coffin,263045,2003-01-08
Racine Depot,F. &. Granger,4046,1980-10-10
R.N. Linn House,Honolulu Tudor–French Norman Cottages,404,1986-08-20
Quinnipiac Brewery,L. W. Robinson,10117,1983-07-15
Pythian Opera House,F. H. Fassett,1821,2008-12-30
Puʻukoholā Heiau National Historic Site,K. I,309989,1966-10-15
Putnam County Courthouse,F. Packard,6070,1974-05-03
Pulaski County Courthouse,W. Chamberlin & Co.,4046,1982-07-08
Public Square Historic District,W. a. Gage,48157,1999-04-29
Public Square,A. Saint-Gaudens,64749,1984-09-07
Public Safety Building,J. K. Taylor,2023,1973-04-13
Puʻukoholā Heiau National Historic Site,K. I,309989,1966-10-15
Provo Third Ward Chapel and Amusement Hall,R. C. Watkins,4046,1979-04-02
Provo Tabernacle,W. H. Folsom,4046,1975-09-09
Providence Street Firehouse,E. &. Fisher,404,1980-03-05
Prospect Heights Housing Project,J. F. O'Malley,84983,2015-12-15
Proctor House,J. Leffland,4046,1986-12-06
Probasco Fountain,S. Hannaford,0,1980-03-03
Princeton Club,F. Furness,1214,1980-12-04
Princeton Chapter House,"Helfensteller, Hirsch & Watson",809,1980-11-28
Preston Hall,O. &. Siebert,12140,1993-01-12
"Pressmen's Home, Tennessee",G. L. Berry,263045,1985-11-20
Pratt Street Power Plant,E. F. Baldwin,5665,1987-04-09
Poughkeepsie Almshouse and City Infirmary,J. Wood,28327,1978-12-04
Portland City Hall,J. C. Stevens,4552,1973-05-07
Porter Building,W. Weeks,1618,1978-11-30
Porter-Vallejo Mansion,W. H. Weeks,2023,1990-01-04
Ponce YMCA Building,Pedro Adolfo de Castro,6349,2012-06-04
Pomfret Street Historic District,E. Flagg,1537805,1998-04-23
Polly Rosenbaum Building,L. &. Mahoney,3237,1989-03-09
Police Station No. 5,S. Hannaford,4046,1980-03-03
Poinsett Hotel,W. L. Stoddart,3480,1982-07-01
Plymouth Historic District,C. W. Damon,8093,1986-03-14
Plymouth Congregational Church,W. H. Allen,4046,1983-07-28
Plumb Memorial Library,"Charles T. Beardsley, Jr.",809,1978-11-07
Pleasant Valley Ranger Station,C. C. Corps,8093,1993-06-10
Pleasant Home,G. W. Maher,19020,1972-06-19
Pleasant Hill United Church of Christ,S. &. Williams,809,2002-08-22
Playland,W. &. Gillette,1133119,1980-07-04
Pittsfield East School,John M. Van Osdel,40063,1971-02-12
Pittsburgh Athletic Association,B. Janssen,2023,1978-12-15
"Pittsburgh, Atlanta",A. Ten Eyck Brown,1311181,2006-06-14
Pisek School,J. W. Ross,7284,1994-03-17
Pipestone Public Library,J. Schwartz,0,1980-03-03
Pinecroft,D. J. Baum,129742,2008-12-17
Pine Forge Mansion and Industrial Site,R. B. Okie,97124,2004-03-18
Pine-Hickory Lakes Roadside Parking Area,A. R. Nichols,141639,2016-05-23
Pinal County Courthouse,J. M. Creighton,8093,1978-08-02
Pilot Butte Inn,T. &. Hummel,6474,1972-06-24
Pilgrim Congregational Church,S. Badgley,4046,1976-03-17
Pikesville Armory,W. &. Nolting,40468,1985-09-25
Pike County Courthouse,E. E. Dunlap,4046,2008-09-17
Pierre P. Ferry House,John Graham & Company,6070,1979-04-18
Pierce School No. 13,C. &. Burrows,12140,1983-07-07
Phoenix Carnegie Library and Library Park,J. M. Creighton,16187,1974-11-19
Philipsburg Historic District,L. &. Haire,352076,1986-09-30
Philip Buehner House,W. &. Lewis,2428,1980-10-24
Pettit Memorial Chapel,F. L. Wright,4046,1978-12-01
Peters House,G. F. Barber,2023,1999-03-31
Perry County Courthouse,J. W. Yost,4046,1981-10-08
Perry County Courthouse,C. K. Colley,404,1995-03-30
Perry-Payne Building,C. &. Richardson,2023,1973-07-16
Peoria Marriott Pere Marquette,H. Trumbauer,4046,1982-08-12
Peoria Cordage Company,H. &. Emerson,12949,1982-03-19
Penn Alto Building,H.L. Stevens & Company,1618,1989-05-05
Pebble Hill Plantation,A. Garfield,12140569,1990-02-23
Payson House at Thornhurst,S. Chermayeff,19829,2005-02-15
Paulding County Courthouse,E.O. Fallis & Co.,6070,1974-05-03
Paul F. Murphy House,R. Sundeleaf,809,1991-02-22
Parkway Village,L. Schultze,141639,2012-02-28
"Parkridge, Knoxville, Tennessee",G. F. Barber,772949,1990-10-25
Parker House,G. A. Clough,23471,2004-09-22
Park Towne Place,E. Bacon,40468,2011-12-15
Park Addition School,F. H. Porter,6474,2005-08-22
"Palace of Fine and Decorative Arts, Treasure Island",G. W. Kelham,8093,2008-02-26
Palace of Fine Arts,B. Maybeck,68796,2005-12-05
Palace Theatre,R. a. Rapp,2023,1980-03-24
Palace Theatre,J. Eberson,4046,1979-04-26
Paintsville Public Library Building,W. P. Administration,1214,1989-01-26
Paintsville Country Club,W. P. Administration,2347,1989-01-26
Paintsville City Hall,W. P. Administration,890,1989-01-26
Paine Art Center and Gardens,B. Fleming,59488,1978-12-01
Padua Hills Theatre,"Marston, Van Pelt & Maybury",26709,1998-01-23
Packer Memorial Chapel,A. Hutton,4046,1979-11-20
Packard Proving Grounds,A. Kahn,58679,2007-02-01
