col0,col1,col2,col3
Moeller High School,St. Xavier High School,22,361033
Marian High School,St. Joseph's High School,22,152343
Loyola Blakefield,Calvert Hall College High School,18,211030
Lakeland High School,Walter Panas High School,22,335187
James I. O'Neill High School,John S. Burke Catholic High School,21,332375
Horton High School,Atchison County Community High School,35,171385
High Point Christian Academy,Wesleyan Christian Academy,22,341848
Hawken School,University School,15,361-262
Emporia High School,Washburn Rural High School,24,170923
Dedham High School,Norwood High School,15,220675
Chanute High School,Iola High School,17,170515
Central Catholic High School,University High School,19,140340
Canisius High School,St. Joseph's Collegiate Institute,21,331000
Bellarmine College Preparatory,Saint Francis High School,25,53080
Archbishop Spalding High School,St. Mary's High School,26,210-583
Academy of the Holy Angels,Paramus Catholic High School,19,310-390
