col0,col1,col2,col3
Harper's Grove – Lord's Grove,Monmouthshire,222000,Biological
Harford Railway Cutting,Gloucestershire,12000,Geological
Haresfield Beacon,Gloucestershire,7300,Geological
Hardington Moor,Somerset,87000,Biological
Hampen Railway Cutting,Gloucestershire,39000,Geological
Halvergate Marshes,Norfolk,14301300,Biological
Gweunydd Blaencleddau,Pembrokeshire,1495000,Biological
"Grove Farm, Somerset",Somerset,365000,Biological
Greylake,Somerset,93000,Geological
Great Wheal Fortune,Cornwall,5500,Geological
Great Breach and Copley Woods,Somerset,648000,Biological
Graig Wood,Monmouthshire,143000,Biological
Goonhilly Downs,Cornwall,12710000,Biological
Godrevy Head to St Agnes,Cornwall,6274000,Biological/Geological
Godminster Lane Quarry and Railway Cutting,Somerset,8000,Geological
Gentleshaw Common,Staffordshire,859956,Biological
Ge-mare Farm Fields,Somerset,41000,Biological
Garden Cliff,Gloucestershire,51000,Geological
Gallt Llanerch - Coed Gelli-deg,Pembrokeshire,304700,Biological
Gaer Wood,Monmouthshire,136000,Biological
Friar's Oven,Somerset,40000,Biological
Freshmoor,Somerset,112000,Biological
Frampton Pools,Gloucestershire,598400,Biological
Foss Cross Quarry,Gloucestershire,6700,Geological
Fore Wood,East Sussex,215000,Biological
Folkington Reservoir,East Sussex,57000,Biological
Fivehead Woods and Meadow,Somerset,624000,Biological
Fivehead Arable Fields,Somerset,103000,Biological
Firle Escarpment,East Sussex,3013000,Biological
Felin Llwyngwair,Pembrokeshire,100,Biological
Esgyrn Bottom,Pembrokeshire,499000,Biological and Geological
Eridge Park,East Sussex,3901000,Biological
Eridge Green,East Sussex,84000,Biological
Emborough Quarries,Somerset,10000,Geological
Elmlea Meadows,Gloucestershire,69000,Biological
Edgehills Quarry,Gloucestershire,4000,Geological
Edge Common,Gloucestershire,204700,Biological
Edford Woods and Meadows,Somerset,543000,Biological
Ebbor Gorge,Somerset,634547,Biological
Easter Park Farm Quarry,Gloucestershire,1500,Geological
East Polden Grasslands,Somerset,1240000,Biological
"Eartham Pit, Boxgrove",West Sussex,98300,Geological
Dymock Woods SSSI,Gloucestershire,530000,Biological
Dyffryn Gwaun,Pembrokeshire,253600,Biological
Dwrhyd Pit,Pembrokeshire,1800,Geological
Dunster Park and Heathlands,Somerset,4666000,Biological
Duckpool to Furzey Cove,Cornwall,872900,Geological
Draycott Sleights,Somerset,619500,Biological
Dowrog Common,Pembrokeshire,1008600,Biological
Doulting Railway Cutting,Somerset,28000,Geological
Dixton Wood,Gloucestershire,131400,Biological
Dingle Wood,Gloucestershire,99500,Biological
Devil's Chapel Scowles,Gloucestershire,447900,Biological
Derwent Ings,North Yorkshire,6624339,Biological
Dee Estuary,Wales,136738826,Geological
"Deadman SSSI, Somerset",Somerset,288000,Biological
Darwell Wood,East Sussex,376000,Biological
Daneway Banks SSSI,Gloucestershire,170000,Biological
Dallington Forest,East Sussex,162000,Biological
Cwm Dewi,Pembrokeshire,220200,Geological
"Cwm Bach, Sychpant",Pembrokeshire,86700,Biological
Curry and Hay Moors,Somerset,4728000,Biological
Crook Peak to Shute Shelve Hill,Somerset,3322000,Biological and Geological
Croes Robert Wood,Monmouthshire,180000,Biological
Cridmore Bog,Isle of Wight,144000,Biological
Crickley Hill and Barrow Wake,Gloucestershire,568000,Biological/Geological
Coverack to Porthoustock,Cornwall,1734600,Biological/Geological
Cotswold Water Park,Gloucestershire Wildlife Trust,1350000,Biological
Cotswold Commons and Beechwoods,Gloucestershire,6655000,Biological
Corsydd Llangloffan,Pembrokeshire,567000,Biological
Cop Mere,Staffordshire,377976,Biological
Coombe Hill,Gloucestershire,154000,Biological
Cook's Wood Quarry,Somerset,8000,Geological
