col0,col1,col2,col3
Harpy Thyme,Demons Don't Dream,PS3551.N73 H37 1994,0-312-85390-4
Harpist in the Wind,Heir of Sea and Fire,PZ7.M19864 Har 1979,0-689-30687-3
Hardboiled & Hard Luck,Goodbye Tsugumi,PL865.O7138 H3313 2005,0-8021-1799-6
Hard to Be a God,Far Rainbow,PG3488.T73 T713,0-8164-9121-6
Hard Eight,Seven Up,PS3555.V2126 H37 2002b,0-312-26585-9
Hard Call,Character Is Destiny,CT105 .M395 2007,978-0-446-58040-3
Harbingers,Infernal,PS3573.I45695 H37 2006,1-887368-84-1
Hangfire,TechnoKill,CPB Box no. 1874 vol. 9,0-345-43592-3
Ham on Rye,Women,PS3552.U4 H3 1982,0-87685-558-3
Halo: Ghosts of Onyx,Halo: First Strike,PS3564.Y55 H35 2006,0-7653-1568-8
Halloween Rain,Blackout,CPB Box no. 1726 vol. 10,0-671-01713-6
Half a Crown,Ha'penny,PR6073.A448 H34 2008,978-0-7653-1621-9
Ha'penny,Farthing,PR6073.A448 H37 2007,0-7653-1853-9
HMS Surprise,Post Captain,PZ3.O1285 Hac PR6029.B55,0-397-00998-4
"Guns, Germs, and Steel",Why Is Sex Fun? The Evolution of Human Sexuality,HM206 .D48 1997,0-393-03891-2
Guardian of the Horizon,Children of the Storm,PS3563.E747 G83 2004,0-06-621471-8
Gregor and the Prophecy of Bane,Gregor the Overlander,PZ7.C6837 Gre 2004,0-439-65075-5
Gregor and the Marks of Secret,Gregor and the Curse of the Warmbloods,PZ7.C6837 Gpk 2006,0-439-79145-6
Gregor and the Curse of the Warmbloods,Gregor and the Prophecy of Bane,PZ7.C6837 Gp 2005,0-439-65623-0
Great Sky River,Across the Sea of Suns,PS3552E542G7,0-553-05238-1
Grave Peril,Fool Moon,CPB Box no. 1840 vol. 10,0-451-45844-3
Grant Comes East,Gettysburg: A Novel of the Civil War,PS3557.I4945 G73 2004,0-312-30937-6
Grand Conspiracy,Fugitive Prince,PR6073.U78 G7 2000,978-0-06-105219-4
Grail Prince,Queen of Camelot,PS3613.C557 G73 2003,0-345-45648-3
Goodnight Moon,The Runaway Bunny,PZ7.B8163 Go 1997,0-06-443017-0
Goodbye Tsugumi,Asleep,PL865.O7138 T7613 2002,0-8021-1638-8
Good as Gold,Something Happened,PZ4.H47665 Go PS3558.E476,0-671-22923-0
Good Blonde & Others,Atop an Underwood: Early Stories and Other Writings,PS3521.E735 G6 1993,0-912516-22-4
"Gone, Baby, Gone",Sacred,PS3562.E426 G66 1998,978-0688153328
"Going, Going, Gone",Random Acts of Senseless Violence,PS3573.O575 G65 2000,0-00-651105-8
Godslayer,Banewreaker,PS3603.A74 G63 2005,0-7653-1239-5
Gods of Riverworld,The Magic Labyrinth,PS3556.A72 G6 1983,0-399-12843-3
God's Grace,Dubin's Lives,82-11880,0-380-64519-X
Go Ask Malice,Carnival of Souls,PS3612.E9375 G6 2006,1-4169-1587-7
Glass,Crank,PZ7.5.H67 Gla 2007,978-1-4169-4090-6
Giving: How Each of Us Can Change the World,My Life,HN18 .C477 2007,978-0-307-26674-3
Girls on Film,The A-List,PZ7.D3473 Gi 2004,978-0-316-73475-2
Girl in Landscape,As She Climbed Across the Table,PS3562.E8544 G5 1998,0-385-48518-2
"Giggle, Giggle, Quack","Click, Clack, Moo: Cows That Type",PZ7.C88135 Gi 2002,0-689-84506-5
Ghoul Trouble,Child of the Hunt,CPB Box no. 2209 vol. 26,0-7434-0042-9
Genius Squad,Evil Genius,PZ7.J5754 Gen 2008,978-0-15-205985-9
Geis of the Gargoyle,Harpy Thyme,PS3551.N73 G35 1995,0-312-85391-2
Gears of War: Jacinto's Remnant,Gears of War: Aspho Fields,PR6120.R38 J33 2009,978-0-345-49944-8
Gathering Blue,The Giver,PZ7.L9673 Gat 2000,0-618-05581-9
Gather Together in My Name,I Know Why the Caged Bird Sings,PS3551.N464 Z464 1974,0-394-48692-7
Gateways,The Haunted Air,PS3573.I45695 G38 2003,1-887368-67-1
"Gate of Ivory, Gate of Horn",The Hollowing,PR6058.O442 G37 1997,978-0-451-45570-3
Garment of Shadows,Pirate King,PS3561.I4813 G37 2012,978-0-7490-1222-9
Gargoyles,Frost,PT2662.E7 V413 2006,978-1-4000-7755-7
Gangsta Granny,Billionaire Boy,x,978-0007371440
Games Wizards Play,A Wizard of Mars,PZ7.D84915 Gam 2016,978-0-54-741806-3
Game Plan for Disaster,Trapped At Sea,PZ7.D644 Gam 1982,0-671-42365-7
Gai-Jin,Tai-Pan,PS3553.L365 G34 1993,0-385-31016-1
Futures Past,Beyond Singularity,CPB Box no. 2681 vol. 5,978-0-441-01454-5
Funeral Games,The Persian Boy,PR6035.E55 F8 1981,0-394-52068-8
Fudge-a-Mania,Superfudge,PZ7.B6265 Fu 1990,0-525-44672-9
Frostbite,Vampire Academy,PZ7.M478897 Fro 2008,978-1-59514-175-0
From the Place in the Valley Deep in the Forest,The Cosmology of Bing,PS3553.U319 F76 2001,978-0-8023-1336-2
Frog and Toad Together,Frog and Toad Are Friends,PZ10.3.L787 Fr,9780060239602
Frog and Toad All Year,Frog and Toad Together,PZ7.L7795 Fq3,9780060239503
Freedomnomics,The Bias Against Guns,HB95 .L68 2007,978-1-59698-506-3
Freedomland,Clockers,PS3566.R544 F74 1998,0-7679-0024-3
Free Trade Reimagined: The World Division of Labor and the Method of Economics,The Self Awakened: Pragmatism Unbound,HF1713.U42 2007,9780691134291
Freddy the Pilot,Freddy Rides Again,PZ7.B7994 Frt 2001,0-14-230044-6
Freddy the Magician,Freddy the Pied Piper,PZ7.B7994 Frk 2002,1-58567-310-2
Freddy and the Bean Home News,Freddy and the Perilous Adventure,PZ7.B7994 Foc 2002,0-14-230088-8
Freddy Goes Camping,Freddy the Magician,PZ7.B7994 Frb 1986,0-394-97602-9
Fragile Eternity,Ink Exchange,PZ7.M34788 Wi 2007,978-0-06-121465-3
Four to Score,Three to Get Deadly,PS3555.V2126 F6 1998,0-312-18586-3
Four Ways to Forgiveness,The Word for World is Forest,PS3562.E42 F68 1995,0-06-105234-5
Foundation and Chaos,Forward the Foundation,PS3552.E157 F65 1998,978-0-06-105242-2
Foundation's Triumph,Foundation and Chaos,CPB Box no. 1824 vol. 23,978-0-06-105639-0
Foundation's Edge,Second Foundation,PS3551.S5 F6 1982,0-385-17725-9
Fortune's Fool,One Good Knight,PS3562.A246 F675 2007,978-0-373-80266-1
Forging the Sword,Rise of a Hero,PZ7.B38894 For 2007,0-689-85416-1
Forever Peace,The Forever War,PS3558.A353 F6 1997,0-441-00406-7
Forever Odd,Odd Thomas,PS3561.O55 F66 2006b,0-553-80416-2
Forest,Thursday's Child,PR9619.3.H3345 F67 2001,0-670-89920-8
Ford County,The Associate,PS3557.R5355 F67 2009,978-0-385-53245-7
Forbidden Creatures,The Dangerous World of Butterflies,SK591 .L38 2010,978-1-59921-926-4
For Love of Evil,Being a Green Mother,PS3551.N73 F6 1988,978-0-688-08211-6
Fools Die,The Godfather,PZ4.P994 Fn 1978 PS3566.U9,0-399-12244-3
Fool Moon,Storm Front,CPB Box no. 1853 vol. 14,0-451-45812-5
Fool,You Suck: A Love Story,PS3563.O594 F65 2009,978-0-06-059031-4
Foley Is Good,Have a Nice Day: A Tale of Blood and Sweatsocks,GV1196.F64 A32 2001,0-06-039300-9
"Fluke, or, I Know Why the Winged Whale Sings","Lamb: The Gospel According to Biff, Christ's Childhood Pal",PS3563.O594 F58 2003,0-380-97841-5
Flood Tide,Shock Wave,PS3553.U75 F58 1997,0-684-80298-8
Flinx in Flux,The End of the Matter,CPB Box no. 1744 vol. 10,0-345-34363-8
Flinx Transcendent,Patrimony,PS3556.O756 F575 2009,978-0-345-49607-2
Flinx's Folly,Reunion,PS3556.O756 F57 2003,0-345-45038-8
Flight of the Fire Thief,The Fire Thief,MLCS 2006/45860,978-0-7534-5819-8
Fleet of Worlds,At the Core,PS3564.I9 F57 2007,0-7653-1825-3
Flashman in the Great Game,Flashman at the Charge,PZ4.F8418 Fn PR6056.R287,0-214-20120-1
Flashman at the Charge,Flash for Freedom!,PZ4.F8418 Fm PR6056.R287,978-0-214-66841-8
Flashfire,A World of Hurt,PS3569.H4175 F57 2006,0-345-46054-5
Flash for Freedom!,Royal Flash,PZ4.F8418 Ro PR6056.R287,978-0-257-65101-9
Flash,Archform: Beauty,PS3563.O264 F58 2004,0-7653-1128-3
Flambards in Summer,The Edge of the Cloud,PZ7.P4483 Fm,0-19-271312-4
Flag in Exile,Field of Dishonor,PS3573.E217 F57 2001,0-671-31980-9
Five Hundred Years After,The Phoenix Guards,PS3552.R84 F58 1994,0-312-85179-0
Firstborn,Sunstorm,PR6005.L36 F57 2008,978-0-345-49157-2
First Love: A Gothic Tale,Zombie,PS3565.A8 F57 1996,0-88001-457-1
First King of Shannara,The Measure of the Magic,PS3552.R6596 F57 1996,0-345-39652-9
First Contact?,Nearly Neptune,PZ7.W1715 Fg,0-571-09757-X
Firestar's Quest,The Darkest Hour,PZ7.H916625 Firs 2007,978-0-06-113164-6
Firesong,Slaves of the Mastery,PZ7.N5548 Fir 2002,0-7868-0571-4
Fire Study,Magic Study,PS3619.N937 F57 2008,978-0-7783-2534-5
Fire: From a Journal of Love,Incest: From a Journal of Love,PS3527.I865 Z466 1995,0-15-100088-3
Fifty Degrees Below,Forty Signs of Rain,PS3568.O2893 F54 2005,0-553-80312-3
Fences and Windows,No Logo,JZ1318 .K575 2002,978-0-312-30799-8
Faun & Games,Yon Ill Wind,PS3551.N73 F38 1997,0-312-86162-1
Fathom Five,The Machine Gunners,Subclass PZ,679801316
Fathers and Crows,The Ice-Shirt,PS3572.O395 F38 1992,0-670-84333-4
Farewell Summer,Dandelion Wine,PS3503.R167 F45 2006,0-06-113154-7
"Farewell, My Lovely",The Big Sleep,PS3505.H3224 F3 1988/1940,0-394-75827-7
Far Rainbow,Escape Attempt,PG3476.S78835 D33 1979,0-02-615200-2
Fantastic Voyage: Live Long Enough to Live Forever,The 10% Solution for a Healthy Life,RA776.75 .K875 2004,1-57954-954-3
Faith of the Fallen,Soul of the Fire,PS3557.O5826 F35 2000,0-312-86786-7
Fairest,Ella Enchanted,PZ8.L4793 Fa 2006,0-06-073408-6
Extinction,Condemnation,PS3619.M43 E98 2004,0-7869-2989-8
Extinction,Yes,PT2662.E7 A9513 1995,978-0-394-57253-6
Exile's Gate,Fires of Azeroth,CPB Box no. 1731 vol. 10,0-88677-254-0
Executive Orders,Debt of Honor,PS3553.L245 E9 1996,0-399-14218-5
"Evil, Inc.",Dead on Target,CPB Box no. 1779 vol. 1,0-671-62559-4
Every Second Counts,It's Not About the Bike: My Journey Back to Life,GV1051.A76 A3 2003b,0-385-50871-9
Escape from Hell,Inferno,PS3564.I9 E83 2009,978-0-7653-1632-5
Escape from Fire Mountain,Rodomonte's Revenge,PZ7.P2843 Es 1995,0-440-41025-8
Escape Attempt,Noon: 22nd Century,PG3476.S78835 A23 1982,0-02-615250-9
Enna Burning,The Goose Girl,PZ8.H134 En 2004,1-58234-889-8
Engaging the Muslim World,Juan Cole,DS35.74.U6 C65 2009,0-230-60754-3
Ender in Exile,Ender's Game,PS3553.A655 E498 2008,0-7653-0496-1
End the Fed,The Revolution: A Manifesto,HG2563 .P384 2009,978-0-446-54919-6
Empire,1876,PS3543.I26 E4 2000,978-0-375-70874-9
Elvissey,Terraplane,PS3573.O575 E48 1997,0-312-85202-9
Elmer and the Dragon,My Father's Dragon,PZ7.G15 El 1987,978-0-394-89049-4
Elephants Can Remember,The Golden Ball and Other Stories,PZ3.C4637 El4 PR6005.H66,0-00-231210-7
Electronic Life,Jasper Johns,QA76.5 .C74 1983,0-394-53406-9
Eldest,Eragon,PZ7.P19535 El 2005,0-375-82670-X
Elbow Room,The Mind's I,BJ1461 .D426 1984,0-262-04077-8
Eight Skilled Gentlemen,The Story of the Stone,PS3558.U347 E37 1991,0-385-41709-8
Eight Little Piggies,Bully for Brontosaurus,QH45.5 .G7 1993,0-393-03416-X
Eden,The Investigation,PG7158.L39 E313 1989,0-15-627806-5
Ecotopia Emerging,Ecotopia,PS3553.A424 E3,0-9604320-4-3
Eclipse,New Moon,PZ7.M5717515 Ec 2007,978-0-316-16020-9
Echopraxia,Blindsight,PR9199.3.W386 E24 2014,978-0765328038
Ecce Homo,The Antichrist,B3316.N54 A3413 1992,978-0140445152
Eaters of the Dead,The Great Train Robbery,PZ4.C9178 Eat3 PS3553.R48,0-394-49400-8
Earthquake Weather,Expiration Date,PS3566.O95 L37 1992,0-688-10732-X
Earthfall,The Ships of Earth,PS3553.A655 E48 1995,0-312-93039-9
Earthborn,Earthfall,PS3553.A655 E47 1995,0-312-93040-2
Duty and Desire,An Assembly Such as This,PS3601.I33 D88 2006,0-7432-9136-0
Dune: The Machine Crusade,Dune: The Butlerian Jihad,PS3558.E617 D895 2003,0-7653-0158-X
Dune: The Battle of Corrin,Dune: The Machine Crusade,PS3558.E617 D88 2004,0-7653-0159-8
Dune: House Harkonnen,Dune: House Atreides,PS3558.E617 D87 2000,0-553-11072-1
Dune: House Corrino,Dune: House Harkonnen,PS3558.E617 D865 2001,0-553-11084-5
Dunc's Halloween,Dunc Gets Tweaked,MLC R CP01273,0-440-40659-5
Duck for President,"Giggle, Giggle, Quack",PZ7.C88135 Du 2004,0-689-86377-2
