col0,col1,col2,col3,col4
B. Massot,G. Beacom,A. Savchenko,D. Popova,1989-1-28
B. Simpson,D. Sappenfield,M. Blackmer,N. Miller,1996-5-5
B. Bommentre,N. Linichuk,K. Navarro,K. Goodwin,1984-5-10
A. Cain,J. Abbott,T. LeDuc,J. Reagan,1995-7-22
A. Hill,J. Razgulajevs,N. Orford,K. Ralph,1991-3-19
A. Speroff,T. Belbin,G. Donlan,R. Flatt,1988-5-19
A. Savchenko,G. Beacom,B. Massot,R. Szolkowy,1984-1-19
A. Aldridge,P. Camerlengo,M. Blackmer,D. Eaton,1994-5-7
A. Zaboev,N. Morozov,N. Takahashi,N. Zabijako,1989-9-1
A. Smirnov,P. Tchernyshev,Y. Kavaguti,E. Vasilieva,1984-10-11
A. Díaz,M. Dubreuil,O. Smart,S. Hurtado,1990-9-17
