col0,col1,col2,col3
145 Adeona,1875-06-03,0,287
141 Lumen,1875-01-13,0,216
13 Egeria,1850-11-02,0,395
137 Meliboea,1874-04-21,0,276
136 Austria,1874-03-18,0,76
134 Sophrosyne,1873-09-27,0,234
133 Cyrene,1873-08-16,0,126
1322 Coppernicus,1934-06-15,0,15
130 Elektra,1873-02-17,0,14
12 Victoria,1850-09-13,0,214
129 Antigone,1873-02-05,0,237
126 Velleda,1872-11-05,0,85
125 Liberatrix,1872-09-11,0,83
