col0,col1,col2,col3
P. Uzcudun,Basque Country,1899-05-03,1985-07-05
P. Sykes,Wakefield,1946-05-23,2007-03-07
P. Samson-Körner,German Empire,1887-11-13,1942-08-25
P. Pender,"Brookline, Massachusetts",1930-06-20,2003-01-12
P. Fritsch,Paris,1901-2-25,1970-09-22
P. Berlenbach,New York,1901-02-18,1985-09-30
P. McGuigan,Kentucky,1868-03-17,1938-09-13
P. O'Keefe,England,1883-03-17,1960-0-0
P. McAteer,Birkenhead,1932-03-17,2009-04-30
P. Butler,Leicestershire,1913-05-13,2001-03-07
P. Pérez,Argentina,1926-05-04,1977-01-22
P. A. Brown,Colon,1902-07-05,1951-04-11
P. Ryan,Ireland,1851-03-15,1900-12-14
P. Duffy,Boston,1864-11-12,1890-07-09
P. DeMarco,Brooklyn,1928-02-10,1997-12-13
P. T. Jones,London,1766-1-1,1833-08-22
P. McFarland,Chicago,1888-11-01,1936-09-22
O. Moran,Birmingham,1884-10-04,1949-03-17
O. v. Porat,Älmhult,1903-9-29,1982-10-14
O. Díaz,"San Antonio, Texas",1982-09-29,2015-02-26
O. Casanovas,Avellaneda,1914-5-15,1987-1-1
O. Bonavena,Buenos Aires,1942-09-25,1976-05-22
O. Andrén,Stockholm,1899-11-07,1981-09-11
O. Tandberg,Stockholm,1918-10-10,1996-12-12
O. Kirk,"Beatrice, Nebraska",1884-4-20,1958-1-1
O. Walker,"Cochran, Georgia",1911-09-19,1989-05-04
O. Bell,Jamaica,1974-12-29,2015-11-25
N. Dempsey,Ireland,1862-12-15,1895-11-02
N. Valdés,"Havana, Cuba",1924-12-05,2001-06-03
N. P. Daly,Wales,1913-02-17,1988-09-25
N. Ramm,Stockholm,1903-01-01,1986-11-08
N. Stepulov,Russian Empire,1913-03-20,1968-01-02
N. Locche,Tunuyán,1939-09-02,2005-09-07
N. Linca,Romania,1929-01-01,2008-06-27
N. Burley,"Austin, Nevada",1875-05-17,1911-03-05
N. Gargano,London,1934-11-01,2016-03-28
N. Valdés,Havana,1924-12-05,2001-06-03
N. Brown,Russia,1904-1-1,1977-02-01
N. Meade,Montserrat,1948-09-12,2010-03-13
N. Tarleton,England,1906-02-14,1956-01-12
N. Bor,"Fall River, Massachusetts",1913-03-01,1972-06-13
N. Turpin,Pennsylvania,1981-12-19,2005-2-14
M. Sikali,South Africa,1971-07-30,2005-09-16
M. B. Smith,Nova Scotia,1871-05-15,1937-10-14
M. Callahan,New York City,1904-11-03,1986-06-18
M. Ali,"Louisville, Kentucky",1942-01-17,2016-06-03
M. King,New York City,1884-01-01,1956-12-10
M. Grant,"James Island, South Carolina",1845-05-11,1915-05-23
M. Attell,San Francisco,1885-07-28,1960-11-11
M. Muruli,Kabarole District,1947-07-13,1995-0-0
M. Herscovitch,Montreal,1897-10-27,1969-7-22
M. Napunyi,Kenya,1957-03-13,2002-12-20
M. Dobrescu,Cotorca,1930-09-05,2015-08-06
M. Marković,Yugoslavia,1961-06-11,2014-01-23
M. Burke,St. Louis,1885-1-15,1928-12-25
M. Towell,Dundee,1991-09-12,2016-09-30
M. Schutte,South Africa,1950-12-09,2008-07-14
M. Quarry,"Bakersfield, California",1951-3-4,2006-06-11
M. O'Dowd,"St. Paul, Minnesota",1895-04-05,1957-07-28
M. McTigue,County Clare,1892-11-26,1966-08-12
M. Hunter,"Greenville, South Carolina",1959-09-14,2006-02-08
M. Holt,Pretoria,1931-09-15,2008-07-19
M. Glover,"Lawrence, Massachusetts",1890-12-18,1917-07-11
M. Gibbons,"St. Paul, Minnesota",1887-07-20,1956-08-31
M. Farragher,"Youngstown, Ohio",1871-01-02,1934-10-21
M. Cleary,"County Laois, Ireland",1858-05-19,1893-09-05
M. Ballerino,"Asbury Park, New Jersey",1901-04-10,1965-04-04
"M. "". Sullivan","Cambridge, Massachusetts",1878-09-23,1937-10-31
M. Á. Cuello,"Santa Fe, Argentina",1946-2-27,1999-9-14
M. Wolgast,Pennsylvania,1910-07-18,1955-10-19
M. Walker,"Elizabeth, New Jersey",1901-07-13,1981-04-28
M. Hennessy,Montreal,1915-08-08,1991-03-05
M. Duff,Tarnów,1929-6-7,2014-3-22
M. Leahy,Cork,1935-03-12,2010-01-05
M. Norgrove,Kabwe,1981-01-09,2013-04-06
M. Murach,Germany,1911-02-01,1941-08-16
M. Dokes,"Akron, Ohio",1958-08-10,2012-08-11
M. Bennett,Cardiff,1960-02-20,1999-1-1
M. P. Moore,"Kenton, Tennessee",1894-07-28,1953-05-18
M. Bettina,"Bridgeport, Connecticut",1916-11-18,1996-12-20
M. Coogan,Brooklyn,1896-08-06,1957-12-27
M. Rosenbloom,Connecticut,1907-11-01,1976-03-06
M. Berger,Canada,1917-02-23,2000-08-01
M. Schmeling,Province of Pomerania,1905-09-28,2005-02-02
M. Baer,"Omaha, Nebraska",1909-02-11,1959-11-21
M. Cullen,England,1937-12-30,2001-11-0
M. Matthews,New York City,1873-07-13,1948-12-06
M. Baldwin,"Boston, Massachusetts",1885-02-15,1918-10-15
M. S. Muhammad,Pennsylvania,1954-08-05,2014-05-25
M. Wells,London,1886-12-14,1953-06-27
M. Parlov,Socialist Federal Republic of Yugoslavia,1948-11-16,2008-07-29
M. Ohba,Japan,1949-10-21,1973-01-25
M. Hart,Kentucky,1876-09-16,1931-09-17
M. Sánchez,Mexico City,1979-5-3,2005-7-2
M. Servo,"Schenectady, New York",1919-11-3,1969-2-9
M. Sánchez,Mexico City,1979-5-3,2005-7-2
M. Leduc,Toronto,1962-5-4,2009-7-22
M. D'Agata,Italy,1926-05-29,2009-04-04
M. Bianchini,Rome,1914-05-13,1957-06-01
M. A. Nazareth,Jalisco,1986-04-12,2009-07-22
M. Thil,France,1904-05-25,1968-08-14
M. Cerdan,French Algeria,1916-07-22,1949-10-28
M. Ramos,Mexico,1942-11-20,1999-06-06
M. Ortiz,"Corona, California",1916-07-02,1970-05-31
M. Santos,Tonga,1941-10-11,2013-12-02
M. Ramos,"Long Beach, California",1948-11-15,2008-07-06
M. Aripgadjiev,Kaspiysk,1977-09-23,2016-06-04
M. Havnå,Arendal,1963-09-16,2004-05-29
M. Foster,United States,1942-06-27,2010-07-19
L. Papp,Budapest,1926-03-25,2003-10-16
L. Orbán,Szekszárd,1949-12-9,2009-7-15
L. Philp,New Zealand,1924-01-27,1981-07-17
L. Á. Firpo,Argentina,1894-10-11,1960-08-07
L. Molina,"Santa Barbara, California",1938-10-11,2013-04-20
L. M. Rodríguez,Cuba,1937-06-17,1996-07-08
L. Á. Firpo,Argentina,1894-10-11,1960-08-07
L. Rovati,Cinisello Balsamo,1904-11-24,1989-3-8
L. Salica,Brooklyn,1912-11-16,2002-01-30
L. Laurie,Cleveland,1917-11-19,2002-12-26
L. Nova,Los Angeles,1913-03-16,1991-09-29
L. Filippo,Los Angeles,1925-12-01,2009-11-02
L. Brouillard,Quebec,1911-05-23,1984-09-14
L. Ambers,New York,1913-11-08,1995-04-24
L. Mwale,Zambia,1952-04-14,2005-10-18
L. Vitria,Barcelona,1908-2-2,1941-6-18
L. Edwards,Wales,1894-10-22,1965-1-1
L. Magaš,Belgrade,1948-5-27,1986-11-10
L. Minelli,Bergamo,1926-02-11,2012-02-04
L. Dado,Philippines,1916-01-01,1965-07-07
L. Rose,Victoria,1948-06-21,2011-05-08
L. Corney,Argentina,1905-02-20,1955-1-1
L. Tendler,"Philadelphia, Pennsylvania",1894-06-06,1970-11-05
L. Jenkins,Texas,1916-12-04,1981-10-30
L. Mukhin,Rostov Oblast,1936-1-1,1977-04-25
L. Drogosz,Kielce,1933-1-6,2012-9-6
L. Błażyński,Ełk,1949-03-05,1992-08-06
L. Darcy,Stradbroke,1895-10-31,1917-05-24
L. Martin,"Helena-West Helena, Arkansas",1939-03-10,1995-11-20
L. Rwabwogo,Tororo,1949-6-3,2009-1-14
L. Roy,"Lowell, Massachusetts",1904-0-0,1955-10-04
L. Rodak,"Chicago, Illinois",1913-06-05,1991-04-13
L. F. Hauck,"Lancaster, Pennsylvania",1888-11-04,1950-01-21
L. Risberg,Stockholm,1935-04-16,2013-09-04
L. Wickwar,Leicester,1911-03-21,1980-06-01
L. Johnson,"Clayton, Manchester",1902-10-22,1974-09-28
L. Harvey,Cornwall,1907-07-11,1976-11-28
L. Beynon,Wales,1912-04-24,1992-08-17
L. Jansen,Rotterdam,1930-08-03,2014-01-27
L. Yul-woo,Seoul,1967-1-21,2009-12-10
L. Savold,"Canby, Minnesota",1916-03-22,1972-05-14
L. McAllister,Aberdeen,1982-10-05,2012-10-10
L. Anderson,"Dearing, Georgia",1889-07-17,1946-5-5
L. Johnson,"Atlantic City, New Jersey",1969-12-24,2005-09-22
L. Stevens,Johannesburg,1913-2-25,1989-8-17
L. Roach,"Plainview, Texas",1925-02-22,1950-02-23
L. Salas,Mexico,1928-08-28,1987-01-18
L. Dauthuille,France,1924-02-20,1971-07-10
L. Gains,"Cabbagetown, Toronto",1900-12-12,1983-07-26
L. Papp,Budapest,1926-03-25,2003-10-16
L. Orbán,Szekszárd,1949-12-9,2009-7-15
K. B. Nyein,British Burma,1923-11-23,1979-07-08
K. Janssens,Rotterdam,1889-12-20,1970-8-21
K. Lave,Tonga,1934-04-16,2006-06-02
K. Usuda,"Ōta, Tokyo",1906-1-1,1980-1-1
K. Levinsky,New York City,1910-09-10,1991-09-30
K. Slice,"Nassau, Bahamas",1974-02-08,2016-06-06
K. Sung-jun,Korea,1953-06-03,1989-02-03
K. Ki-soo,Korea under Japanese rule,1939-09-17,1997-06-10
K. Duk-koo,First Republic of South Korea,1955-01-08,1982-11-17
K. Williams,Copenhagen,1893-12-05,1963-10-18
K. Norfolk,"Belmont, Virginia",1893-07-10,1968-04-15
K. McCoy,"Rush County, Indiana",1872-10-13,1940-04-18
K. Lavigne,Chicago,1869-12-06,1928-03-09
K. Kaplan,Kiev,1901-10-15,1970-10-26
K. Gavilán,Camagüey,1926-01-06,2003-02-13
K. Chocolate,Cuba,1910-01-06,1988-08-08
K. Azteca,Mexico City,1913-06-21,2002-03-16
K. Finnegan,England,1948-04-18,2008-10-23
K. Lane,Michigan,1932-04-09,2008-08-05
K. Overlin,"Decatur, Illinois",1910-08-15,1969-07-24
K. Norton,"Jacksonville, Illinois",1943-08-09,2013-09-18
K. Wallace,Prescot,1961-03-29,2000-01-04
K. Saunders,Australia,1934-02-16,2003-11-18
K. Paździor,Radom,1935-03-04,2010-06-24
K. Maquinto,Philippines,1990-07-08,2012-02-03
