col0,col1,col2,col3,col4
Vertebral artery,Vertebral vein,a_61,A07.231.114.839,148
Superior mesenteric artery,Superior mesenteric vein,a_61,A07.231.114.565.755,154
Superficial epigastric artery,Superficial epigastric vein,a_61,A07.231.114.330,157
Subclavian artery,Subclavian vein,a_61,A07.231.114.839,148
Splenic artery,Splenic vein,a_61,A07.231.114.814,154
Renal artery,Renal vein,a_61,A07.231.114.745,154
Posterior cerebral artery,Cerebral veins,a_61,A07.231.114.228.700,148
Popliteal artery,Popliteal vein,a_61,A07.231.114.681,159
Ophthalmic artery,Inferior ophthalmic vein,a_61,A07.231.114.622,146
Internal thoracic artery,Internal thoracic vein,a_61,A07.231.114.891.525,148
Internal iliac artery,Internal iliac vein,a_61,A07.231.114.444,155
Inferior mesenteric artery,Inferior mesenteric vein,a_61,A07.231.114.565.510,154
Femoral artery,Femoral vein,a_61,A07.231.114.351,157
Ductus arteriosus,Ductus venosus,d_29,A07.541.278.395,139
Common carotid artery,Internal jugular vein,a_61,A07.231.114.186.200,143
Central retinal artery,Central retinal vein,a_61,A07.231.114.765,146
Brachiocephalic artery,Brachiocephalic vein,t_20,A07.231.908.130,142
Axillary artery,Axillary vein,a_61,A07.231.114.085,149
Aortic arch,Inferior vena cava,a_58,A07.231.114.056.372.,142
Abdominal aorta,Inferior vena cava,p_07,A07.231.114.056.205,154
