col0,col1,col2,col3
Yesterday Went Too Soon,Feeder,Insomnia,260
Yesterday Went Too Soon,Feeder,Polythene,3439
Yesterday Tomorrow Today,Northern Uproar,Northern Uproar,2392
Yesterday Started Tomorrow,Angry Samoans,Back from Samoa,745
Yesterday Once More,The Carpenters,Sing,236
Yesterday Once More,The Carpenters,The Singles: 1974-1978,5880
Yesterday Is Time Killed,Eighteen Visions,Lifeless,2942
Yesterday Girl,The Smithereens,Blues Before and After,207
Yesterday,Toni Braxton,The Time of Our Lives,228
Yesterday,The Black Eyed Peas,Don't Stop the Party,320
Yesterday,Shanice,When I Close My Eyes,229
Yesterday,The Beatles,The Beatles' Million Sellers,532
Yesterday,The Beatles,Help!,123
Yesterday & Today,Do As Infinity,Oasis,1830
Yesterday & Today,Tokio,Graffiti,3338
"Yesterday, When I Was Mad",Pet Shop Boys,Absolutely Fabulous,235
"Yesterday, Today & Tomorrow",Gene Harris,Gene Harris of the Three Sounds,4828
"Yesterday, Today & Tomorrow",Billy Butler,Guitar Soul!,1983
Yesterday's Wine,George Jones,Are the Good Times Really Over,195
Yesterday's Wine,Willie Nelson,Willie Nelson and Family,1783
Yesterday's Songs,Neil Diamond,America,171
Yesterday's Song,Hunter Hayes,21,223
Yesterday's Men,Madness,One Better Day,247
Yesterday's Love Songs/Today's Blues,Nancy Wilson,Hollywood – My Way,2525
Yester Love,Smokey Robinson & the Miracles,If You Can Want,136
"Yester-Me, Yester-You, Yesterday",Stevie Wonder,My Cherie Amour,186
Yesstory,Yes,Yesyears,8864
Yessongs,Yes,Close to the Edge,7795
Yessir Whatever,Lord Quas,The Further Adventures of Lord Quas,1799
"Yessir, That's My Baby",Count Basie,Night Rider,2617
Yesshows,Yes,Drama,4734
Yes or No,The Go-Go's,Turn to You,216
Yes and Also Yes,Mike Doughty,Sad Man Happy Man,2301
Yes We Have No Mañanas,Kevin Ayers,Sweet Deceiver,2117
Yes We Can,Will.i.am,Here I Come,245
"Yes Sir, I Will",Crass,Christ The Album,2633
Yes Please!,Happy Mondays,The Peel Sessions 1991,2939
Yes Lawd!,NxWorries,Link Up & Suede,2930
Yes It Is,The Beatles,I Feel Fine,161
Yes Indeed!,Ray Charles,Ray Charles at Newport,2162
Yes I Am,Melissa Etheridge,Never Enough,2634
Yes Girl,Bea Miller,Fire n Gold,211
Yes Forever,Misia,Flying Easy Loving Crazy,277
Yes,Pet Shop Boys,Disco 4,2919
Yes,Morphine,Cure for Pain,2212
Yes,Mika Nakashima,The End,4020
Yes,LMFAO,Shots,183
Yes,Alvin Slaughter,God Can,4210
"Yes, Virginia...",The Dresden Dolls,The Dresden Dolls,3324
"Yes, No",T-Square,Truth,2957
"Yes, It's True",The Polyphonic Spree,"Holidaydream: Sounds of the Holidays, Vol. One",2926
"Yes, I Have No 4 Beat Today",Toshiko Akiyoshi,Night and Dream,3121
"Yes, I'm a Witch",Yoko Ono,Blueprint for a Sunrise,3783
Yes!,K-os,Collected,3134
Yes!,Slum Village,Evolution,2400
Yes!,Jason Mraz,Love Is a Four Letter Word,3095
Yes!,Chad Brock,George Jones,204
Yes!,Chad Brock,Chad Brock,2184
Yer Favourites,The Tragically Hip,Hipeponymous,9292
Yep!,Duane Eddy,Peter Gunn,124
Yentl,Barbra Streisand,Memories,2730
Yeng Versions Live,Yeng Constantino,Lapit,2514
Yellowstone: The Music of Nature,Mannheim Steamroller,A Fresh Aire Christmas,4340
Yellowcard,Yellowcard,Lift a Sail,2873
Yellow Vector,Daisuke Asakura,Green Method -Midori no Chuuyou Chitsujyo Kei-,2460
Yellow Submarine Songtrack,The Beatles,Anthology 3,2738
Yellow Submarine,The Beatles,Paperback Writer,158
Yellow Roses,Dolly Parton,Why'd You Come in Here Lookin' Like That,235
Yellow Rose of Texas,Ernest Tubb,Let's Say Goodbye Like We Said Hello,23170
Yellow Orange Rays,Sam Sparro,Sam Sparro discography,186
Yellow No. 5,Mustard Plug,Pray for Mojo,1737
Yellow No. 5,Heatmiser,Dead Air,714
Yellow Moon,Akeboshi,Rusty Lance,1475
Yellow House,Grizzly Bear,Sorry for the Delay,3000
Yellow Hedgerow Dreamscape,Porcupine Tree,Spiral Circus - Live,4650
Yellow Flicker Beat,Lorde,Glory and Gore,232
Yellow Fields,Eberhard Weber,The Colours of Chloë,2599
Yellow EP,Gang of Four,Entertainment!,767
Yellow Boogie & Blues,Little Willie Littlefield,I'm In The Mood,3939
Yellow,Scandal,Hello World,3124
Yellow,Coldplay,Shiver,269
Yellow & Green,Ron Carter,Anything Goes,2204
Yellow & Green,Baroness,Blue Record,2100
Yeh Yeh Yeh,Melanie C,Let's Love,223
Yeh Naya Naya,Sonu Nigam,Rafi Resurrected,2882
Yeezus,Kanye West,Cruel Summer,2401
Yeest,Blood Duster,Fisting the Dead,742
Yeeeah Baby,Big Pun,Capital Punishment,3128
Years of Refusal,Morrissey,Ringleader of the Tormentors,2605
Years in Waste,Omnium Gatherum,Spirits and August Light,2629
Years Past Matter,Krallice,Diotima,3637
Years Later...A Few Months After,Soulja Slim,Years Later,4200
Years Later,Soulja Slim,Streets Made Me,3960
Years Gone By,Albert King,Live Wire/Blues Power,2016
