col0,col1,col2,col3
Wiqu,Andes,Peru,5200
Winterstock,Urner Alps,Canton of Uri,3203
Winterstein,Elbe Sandstone Mountains,Saxony,390
Wintersberg,Spessart,Germany,434
Wintanani,Andes,La Paz Department,5428
Winsu,Andes,Peru,5000
Wini Wini,Andes,Peru,4800
Winfield Peak,Sawatch Range,Colorado,3988
Windy Peak,Front Range,Colorado,3648
Windy Hill,Pennines,England,389
Window Peak,Teton Range,United States,3202
Windom Peak,San Juan Mountains,Colorado,4295
Windham High Peak,Catskill Mountains,New York,1074
Windberg,Döhlen Basin,Germany,353
Wind River Peak,Wind River Range,Wyoming,4022
Winchus Hirka,Andes,Peru,4200
Winchus,Andes,Peru,4200
Winchu Q'asa,Andes,Peru,5000
Win Green Down,North Wessex Downs,Wiltshire,277
Wiluyu Janq'u Uma,Andes,Bolivia,5540
Wiluyu,Andes,Peru,4600
Wiluyu,Andes,Peru,5200
Wiluyu,Andes,Peru,4800
Wiluyu,Andes,Peru,5000
Wiluyu,Andes,Peru,4800
Wiluqu,Andes,Bolivia,4700
Wilson Peak,San Miguel Mountains,Colorado,4274
"Wilson Hills, Gujarat",Western Ghats,India,870
Willulluni,Andes,Peru,5000
Willu Punchu,Andes,Peru,5100
Wills Mountain,Allegheny Mountains,United States,850
Willkarana,Wansu mountain range,Peru,5300
Willkani,Andes,Peru,5200
Willk'i,Andes,Bolivia,4974
Williamson Mountain,Cascade Range,Oregon,1921
Williamsburg Mountain,Appalachian Mountains,Pennsylvania,716
Williams Peak,Sawtooth Range,United States,3241
Williams Peak,Front Range,Colorado,3541
William Rust Summit,Berkeley Hills,California,306
Wilkie Sugar Loaf,Cape Breton Highlands,Nova Scotia,411
Wilkethöchi,Appenzell Alps,Canton of St. Gallen,1172
Wilerhorn,Emmental Alps,Canton of Bern,2005
Wilerhorn,Bernese Alps,Switzerland,3307
Wildstrubel,Bernese Alps,Canton of Bern,3244
Wildspitze,Ötztal Alps,Austria,3770
Wildspitz,Schwyzer Alps,Canton of Schwyz,1580
Wildseeloder,Kitzbühel Alps,Austria,2119
Wildnörderer,Ötztal Alps,Austria,3015
Wildkogel,Kitzbühel Alps,Austria,2224
Wildkarspitze,Zillertal Alps,Austria,3073
Wildkarspitze,Kitzbühel Alps,Austria,1961
Wildi Frau,Bernese Alps,Canton of Bern,3274
Wildhuser Schafberg,Appenzell Alps,Canton of St. Gallen,2373
Wildhorn,Bernese Alps,Canton of Bern,3248
Wildgärst,Bernese Alps,Canton of Bern,2891
Wildgrat,Ötztal Alps,Austria,2971
Wildgall,Rieserferner Group,Italy,3273
Wildgärst,Bernese Alps,Canton of Bern,2891
Wilder Pfaff,Stubai Alps,Austria,3458
Wilder Freiger,Stubai Alps,Austria,3418
Wildenburger Kopf,Hunsrück,Germany,664
Wilde Leck,Stubai Alps,Austria,3361
Wilde Kreuzspitze,Zillertal Alps,Italy,3134
Wildcat Mountain,Carter-Moriah Range,New Hampshire,1238
