col0,col1,col2,col3
Ł. Romanek,"Wilcza, Silesian Voivodeship",Poland,2006-06-02
É. Bayol,La Ciotat,France,1995-5-25
Z. Podlecki,Gdańsk,Poland,2009-01-08
Y. Goor,Belgium,Belgium,1958-03-20
X. Perrot,Zürich,Switzerland,2008-12-8
W. Haas,West Germany,Germany,1956-11-13
W. Villa,Modena,Italy,2002-6-18
W. Schneider,Germany,Germany,2010-03-27
W. Brown,Williams Grove Speedway,United States,1951-7-29
W. Kilmister,New Zealand,New Zealand,1973-1-1
W. Handley,Cumberland,United Kingdom,1941-11-15
V. Palomo,Girona,Spain,1985-2-11
V. Huxley,Brisbane,Australia,1982-06-24
V. Palomo,Girona,Spain,1985-2-11
U. Masetti,Maranello,Italy,2006-5-28
U. Graf,Opatija,Switzerland,1977-6-19
T. Redmond,England,New Zealand,1997-09-17
T. Webb,"McMinnville, Oregon",United States,1990-1-27
T. d. Graffenried,Lonay,Switzerland,2007-1-22
T. Bettenhausen,Indianapolis,United States,1961-5-12
T. v. Heugten,Netherlands,Netherlands,2008-03-27
T. Wood,Isle of Wight,United Kingdom,2003-1-21
T. Thompson,"Trenton, New Jersey",American people,1978-09-28
T. Milton,"Mount Clemens, Michigan",United States,1962-07-10
T. Aquino,"Piru, California",United States,2014-02-02
T. Rooney,Indiana,United States,1939-02-05
T. Pryce,Kyalami,United Kingdom,1977-3-5
T. Phillis,Isle of Man,Australian people,1962-06-06
T. Slavov,"Elena, Bulgaria",Bulgaria,2015-06-28
T. Mellors,Birmingham,United Kingdom,1946-6-7
T. Provini,Bologna,Italy,2005-1-6
S. Henshaw,Isle Of Man,English people,1989-06-07
S. Czaykowski,Monza,Poland,1933-09-10
S. Elder,California,United States,1957-08-08
S. Sandys-Winsch,Isle of Man,United Kingdom,1954-6-18
S. Templeman,"Marion, Ohio",United States,1962-8-24
S. Johnston,California,Americans,2000-11-09
S. Blakley,Florida,United States,2011-02-13
S. Fraser,Canada,Canada,2004-03-20
S. Brayton,"Speedway, Indiana",United States,1996-05-17
S. Herrero,"Douglas, Isle of Man",Spain,1970-6-10
S. Hanks,"Pacific Palisades, Los Angeles",United States,1994-6-27
R. Hollaus,Monza,Austria,1954-9-11
R. Caracciola,Kassel,1935 German Grand Prix,1959-09-28
R. L. Sabariego,Guantanamo Province,Cuba,1961-09-30
R. Grant,Northern Ireland,United States,1994-12-27
R. Ferri,Trento,Italy,2015-5-13
R. Nuckey,Manila,United Kingdom,2000-6-29
R. Ward,"Anaheim, California",United States,2004-7-5
R. Fitton,West Germany,United Kingdom,1970-5-2
R. Colombo,Belgium,Italy,1957-07-06
R. Holden,Isle of Man,New Zealand,1996-05-31
R. Dunlop,Coleraine,Northern Ireland,2008-05-15
R. Dados,Lublin,Poland,2004-03-30
R. Slotemaker,Zandvoort,Netherlands,1979-9-16
R. Mardanshin,Russia,Russia,2005-01-19
R. Huseman,"Barstow, California",United States,2011-10-16
R. Evans,"Martinsville, Virginia",United States,1985-10-24
R. C. Hill,"West Lorne, Ontario",Canada,2012-11-01
R. Britton,Ballybunion,Northern Ireland,2005-9-18
R. Paletti,Montreal,Italy,1982-6-13
R. Tormo,Valencia,Spain,1998-12-27
R. Rodríguez,Mexico City,Mexico,1962-11-1
R. Parnell,Derby,1962 British Grand Prix,1964-1-7
R. Armstrong,Brighton,Irish people,1979-11-24
R. Harroun,"Anderson, Indiana",United States,1968-01-19
R. Duggan,New South Wales,Australia,1950-01-20
R. Amm,Imola,Southern Rhodesia,1955-04-11
R. Torras,El Vendrell,Spain,1965-5-30
R. Rensen,Isle of Man,United Kingdom,1961-1-1
R. Mulford,"Asbury Park, New Jersey",United States,1973-10-23
R. Bryans,Belfast,United Kingdom,2014-08-06
R. Kurmański,Poland,Poland,1922-08-04
P. Demeuter,Germany,Belgium,1934-07-02
P. Harris,Shropshire,British people,2013-02-22
P. Levegh,Le Mans,France,1955-6-11
P. Étancelin,Neuilly-sur-Seine,1931 French Grand Prix,1981-10-13
P. Hill,"Salinas, California",United States,2008-8-28
P. Ryan,Paris,Canadians,1962-7-2
P. Revson,Kyalami,American people,1974-3-22
P. Gethin,Goodwood Circuit,1970 British Grand Prix,2011-12-5
P. Pons,Northampton,France,1980-8-10
P. Ozanne,"Newmarket, Suffolk",Guernsey,2009-02-11
P. O'Connor,Indianapolis,United States,1958-5-30
P. Pileri,Terni,Italy,2007-2-12
P. Birger,Buenos Aires,Argentina,1966-3-9
O. Tenni,Bern,Italy,1948-06-30
O. Bridewell,Leicestershire,United Kingdom,2007-07-20
O. Chevallier,Marseille,France,1980-4-6
N. Numata,Japan,Japan,2007-09-04
N. Abe,Japan,Japan,2007-10-07
N. White,Salt Lake City,United States,2002-10-20
N. Street,Melbourne,Australia,2011-10-06
M. Fohr,Milwaukee,United States,1994-1-14
Murder of Mido Macia,South Africa,Mozambique,2013-02-26
M. Spence,Indianapolis,United Kingdom,1968-5-7
M. Magill,"Haddonfield, New Jersey",United States,2006-8-31
M. Hawthorn,Guildford,United Kingdom,1959-1-22
M. Burgmann,Australia,Australia,1986-10-05
M. Thompson,San Gabriel Mountains,United States,1988-03-16
M. Holland,Christchurch,New Zealand,2005-11-29
M. Alboreto,Germany,Italian Formula Three Championship,2001-04-25
M. Rougerie,Rijeka,France,1981-5-31
M. Frutschi,Le Mans,Switzerland,1983-04-03
M. d. Villota,Seville,Spanish people,2013-10-11
M. Donohue,Graz,United States,1975-8-19
M. Okoniewski,Poland,Poland,2006-02-10
M. Lambert,Isle of Man,Switzerland,1961-6-12
M. Bublewicz,Poland,Poland,1993-02-20
