col0,col1,col2,col3
Nine Lives,S. Tyler,Falling in Love,1996 in music
Nights on Broadway,"Barry, Robin & Maurice Gibb",Fanny,Criteria Studios
Nightrider,J. Lynne,Livin' Thing,Germany
Nightcall,G. d. Homem-Christo,Hey Now,Paris
Night Train,S. Strange,Pleasure Boys,Mayfair Studios
Night Train,J. Forrest,Shout and Shimmy,"Cincinnati, OH"
Night Life,W. Nelson,The Part Where I Cry,SugarHill Recording Studios
Night Fever,B. Gibb,Too Much Heaven,Criteria Studios
Night Air,J. Woon,Lady Luck,"London, England"
Nice,R. Taylor,Falling Down,London
Next Plane Home,D. Powter,Best of Me,2008 in music
Newgrange,C. Brennan,Robin,Dublin
New York Mining Disaster 1941,B. Gibb,To Love Somebody,IBC Studios
New Year,C. McVey,Run for Cover,England
New Year's Day,U2,Two Hearts Beat as One,"Dublin, Ireland"
New Sensation,T. Yabuki,Still In the Groove,Japan
New Rose,B. James,Neat Neat Neat,Pathway Studios
New Power Generation,Prince,Gett Off,Paisley Park Studios
New Moon on Monday,R. Taylor,The Reflex,Montserrat
New Life,V. Clarke,Just Can't Get Enough,London
New Fang,D. Grohl,"Mind Eraser, No Chaser",Los Angeles
New Disease,Spineshank,Smothered,Mushroom Studios
New Dawn Fades,I. Curtis,She's Lost Control,Stockport
Never Turn Away,Orchestral Manoeuvres in the Dark,So in Love,Montserrat
Never Say Goodbye,R. Sambora,Edge of a Broken Heart,1986 in music
Never Let Me Down Again,M. Gore,Behind the Wheel,London
Never Let Me Down,D. Bowie,Fame '90,Montreux
Never Learn Not to Love,C. Manson,I Can Hear Music,Brian Wilson's home studio
Never Had a Dream Come True,S. Wonder,"Signed, Sealed, Delivered I'm Yours","Detroit, Michigan"
Never Forget You,MNEK,At Night,Iceland
Never Felt Like This Before,S. Lewis,You,Santa Monica
Never Enough,P. Stanley,Hell or Hallelujah,"Hollywood, California"
Never End,T. Komuro,Please Smile Again,The Hit Factory
Never Dreamed You'd Leave in Summer,S. Wright,If You Really Love Me,1971 in music
Never Close Our Eyes,B. Mars,Trespassing,"Los Angeles, California"
Never Can Say Goodbye,C. Davis,"Reach Out, I'll Be There","Los Angeles, California"
Never Before,I. Gillan,Smoke on the Water,Switzerland
Neva End,K. Rowland,Love Me,Chalice Recording Studios
Neuköln,B. Eno,The Secret Life of Arabia,West Berlin
Neon Rainbow,W. C. Thompson,Cry Like a Baby,American Sound Studio
Neon Knights,B. Ward,Die Young,France
Nemo,T. Holopainen,Wish I Had an Angel,Finland
Neighbors Know My Name,T. Songz,Bottoms Up,"Atlanta, Georgia"
Neighborhood 3,A. Fire,Cold Wind,Hotel2Tango
Neighborhood 1,A. Fire,Neighborhood 2,Hotel2Tango
Needed Me,Rihanna,This Is What You Came For,Westlake Recording Studios
Need You Around,J. Caterer,I Know You Love Me,"Hoffman Estates, Illinois"
Need U Bad,J. Sullivan,Bust Your Windows,"New York City, New York"
Need To,J. Davis,Shoots and Ladders,"Malibu, California"
Neat Neat Neat,B. James,Stretcher Case Baby,Pathway Studios
Naughty Girl,G. Moroder,The Closer I Get to You,"Miami, Florida"
Natural High,J. Cans,Any Means Necessary,Brazil
