col0,col1,col2,col3
WPCW,KDKA,30000,19 (PSIP)
WOTH-CD,WBQC-LD,15000,20 (PSIP)
WOAI-TV,KABB,905000,4 (PSIP)
WNYF-CD,WWNY-TV,4000,28 (PSIP)
WNOL-TV,WGNO,1000000,38 (PSIP)
WMYD,WXYZ-TV,500000,20 (PSIP)
WMFD-TV,WOHZ-CD,4800,68 (PSIP)
WMDO-CD,WFDC-DT,1100,47 (PSIP)
WMDE,WACP,10000,36 (PSIP)
WLMT,WATN-TV,871000,30 (PSIP)
WLAJ,WLNS-TV,483300,53 (PSIP)
WKRC-TV,WSTR-TV,15550,12 (PSIP)
