col0,col1,col2,col3
Ukrainian submarine Zaporizhzhia,Sevastopol,1970-03-23,1970-06-29
Ukrainian corvette Lutsk,Crimea,1991-01-11,1993-05-22
USS Zeal,"Long Beach, California",1942-01-12,1942-09-15
USS Yazoo,"Charleston, South Carolina",1944-07-06,1944-10-18
USS Yancey,"Norfolk, Virginia",1944-05-22,1944-07-08
USS Wyoming,Georgia,1991-08-08,1995-07-15
USS William P. Lawrence,Naval Base San Diego,2008-09-16,2009-12-15
USS William H. Standley,Naval Station Mayport,1963-07-29,1964-12-19
USS Whirlwind,"Manama, Bahrain",1994-03-04,1994-09-09
USS Whidbey Island,Virginia,1981-08-04,1983-06-10
USS Wheeling,New York City,1896-04-11,1897-03-18
USS West Virginia,Georgia,1987-12-24,1989-10-14
USS Wayne E. Meyer,Naval Base San Diego,2007-05-18,2008-10-19
USS Waxsaw,"Tiburon, California",1944-05-01,1944-09-15
USS Watchman,"San Francisco, California",1945-01-17,1945-02-20
USS Wasp,Naval Station Norfolk,1985-05-30,1987-08-04
USS Warrington,"Newport, Rhode Island",1945-04-23,1945-09-27
USS Wadsworth,Naval Base San Diego,1977-07-13,1978-07-29
USS Virginia,"Groton, Connecticut",1999-09-02,2003-08-16
USS Vigil,"Davisville, Rhode Island",1944-12-14,1945-01-27
USS Vicksburg,Naval Station Mayport,1990-05-30,1991-09-07
USS Venture,"Charleston, South Carolina",1955-01-11,1956-11-27
USS Vella Gulf,Virginia,1991-04-22,1992-06-13
USS Vandegrift,Naval Base San Diego,1981-10-13,1982-10-15
USS Underwood,Florida,1981-07-30,1982-02-06
USS Typhoon,Bahrain,1992-05-15,1993-03-03
USS Tunxis,"Tiburon, California",1944-05-02,1944-08-18
USS Tunny,Hawaii,1970-05-22,1972-06-10
USS Tucson,Pearl Harbor,1991-08-15,1994-03-20
USS Truxtun,Naval Station Norfolk,2005-04-11,2007-04-17
USS Triton,"Norfolk, Virginia",1956-05-29,1958-08-19
USS Trenton,"Norfolk, Virginia",1966-08-08,1968-08-03
USS Tracer,"San Francisco, California",1944-12-24,1945-01-31
USS Tortuga,Virginia,1987-03-23,1988-09-15
USS Tornado,Florida,1998-08-25,1999-06-07
USS Torchwood,"San Pedro, California",1943-06-02,1944-02-19
USS Topeka,Naval Base Guam,1986-05-13,1988-01-23
USS Tonawanda,"Tiburon, California",1944-09-12,1944-11-14
USS Toledo,"Groton, Connecticut",1991-05-06,1993-08-28
USS Tinian,California,1945-03-20,1945-09-05
USS Tills,Maine,1943-06-23,1943-10-03
USS Thunderbolt,Naval Support Activity Bahrain,1994-06-09,1994-12-02
USS Thrush,"Key West, Florida",1954-05-05,1955-01-05
USS Thomas S. Gates,"Norfolk, Virginia",1984-08-31,1985-12-14
USS Theodore Roosevelt,Hawaii,1958-05-20,1959-10-03
USS Theodore Roosevelt,NAS North Island,1981-10-31,1984-10-27
USS The Sullivans,Florida,1994-07-27,1995-08-12
USS Thach,Naval Base San Diego,1981-03-06,1982-12-18
USS Texas,Pearl Harbor Naval Shipyard,2002-07-12,2005-04-09
USS Tennessee,Georgia,1986-06-09,1986-12-13
USS Tempest,Naval Support Activity Bahrain,1991-09-30,1992-04-04
USS Teak,"San Francisco, California",1940-10-25,1941-07-07
USS Teaberry,"San Francisco, California",1940-10-25,1941-05-24
USS Taurus,"Key West, Fl",1979-01-30,1981-05-08
USS Tarawa,Naval Base San Diego,1971-11-15,1973-12-01
USS Taconic,Naval Station Norfolk,1944-12-19,1945-02-10
USS Tacoma,"Little Creek, Virginia",1967-07-24,1968-04-13
USS Sturdy,"Charleston, South Carolina",1954-10-15,1956-01-28
USS Stout,Virginia,1991-08-08,1992-10-16
USS Stockdale,Naval Base San Diego,2006-08-10,2008-02-24
USS Stethem,United States Fleet Activities Yokosuka,1993-05-11,1994-06-17
USS Sterett,Naval Base San Diego,2005-11-17,2007-05-19
USS Sterett,Naval Base San Diego,1962-09-25,1964-06-30
USS Stephen W. Groves,Mayport Naval Station,1980-09-16,1981-04-04
USS Stark,Naval Station Mayport,1979-08-24,1980-05-30
USS Stalwart,"Charleston, South Carolina",1954-06-22,1955-12-03
USS St. Clair County,San Diego,1944-11-27,1945-01-10
USS Squall,Naval Support Activity Bahrain,1993-02-17,1993-08-28
USS Spruance,Florida,1972-11-27,1973-11-10
USS Springfield,"Groton, Connecticut",1990-01-29,1992-01-04
USS Spadefish,Virginia,1966-12-21,1968-05-15
USS Southerland,California,1944-05-27,1944-10-05
USS Somerset,"San Diego, California",2009-12-11,2012-04-14
USS Skywatcher,"Newport, Rhode Island",1944-11-30,1945-01-16
USS Simpson,Naval Station Mayport,1984-02-27,1984-08-31
USS Silverleaf,"Melville, Rhode Island",1943-02-03,1943-12-11
USS Sides,Naval Station San Diego,1978-08-07,1979-05-19
USS Siboney,"Norfolk, Virginia",1944-04-01,1944-11-09
USS Shoup,Naval Station Everett,1999-12-13,2000-11-22
USS Shiloh,Japan,1989-08-01,1990-09-08
USS Shamal,"Jacksonville, Florida",1994-09-23,1995-03-03
USS Shakamaxon,"Tiburon, California",1944-06-30,1944-09-09
USS Sentry,Bahrain,1984-10-08,1986-09-20
USS Seawolf,"Bremerton, Washington",1989-10-25,1995-06-24
