col0,col1,col2,col3
Zodiac,Snow Crash,The Big U,PS3569.T3868 Z39 1988
Zero Cool,The Venom Business,A Case of Need,PS3553.R48
Zandru's Forge,A Flame in Hali,The Fall of Neskaya,PS3552.R228 Z24 2003
Young Royals,"Beware, Princess Elizabeth",Doomed Queen Anne,PZ7.M5685 Be 2001
You Suck: A Love Story,Fool,A Dirty Job,PS3563.O594 Y68 2007
Yon Ill Wind,Faun & Games,Roc and a Hard Place,PS3551.N73 Y66 1996
Yes,Extinction,On The Mountain,PT2662.E7 J213 1992
Year's Best SF 9,Year's Best SF 10,Year's Best SF 8,CPB Box no. 2273 vol. 8
Year's Best SF 7,Year's Best SF 8,Year's Best SF 6,CPB Box no. 1978 vol. 20
Year's Best SF 13,Year's Best SF 14,Year's Best SF 12,CPB Box no. 2784 vol. 24
Xone of Contention,The Dastard,Zombie Lover,PS3551.N73 X66 1999
Xenocide,Children of the Mind,Speaker for the Dead,PS3553.A655 X46 1991
Wyvernhail,Persistence of Memory,Wolfcry,PZ7.A8925 Wyv 2007
Worldwar: Upsetting the Balance,Worldwar: Striking the Balance,Worldwar: Tilting the Balance,PS3570.U76 W67 1996
Worldwar: Tilting the Balance,Worldwar: Upsetting the Balance,Worldwar: In the Balance,PS3570.U76 W68 1995
Worldwar: Striking the Balance,Colonization: Second Contact,Worldwar: Upsetting the Balance,PS3570.U76 W65 1996
Wonderful Life,Bully for Brontosaurus,An Urchin in the Storm,QE770 .G67 1989
Women in the Shadows,Journey to a Woman,I Am a Woman,PS3552.A495 W66 2002
Wolves Eat Dogs,Stalin's Ghost,Havana Bay,PS3569.M5377 W65 2004
Wolf to the Slaughter,The Best Man to Die,A New Lease of Death,PZ4.R4132 Wo PR6068.E63
Wolf-Speaker,Emperor Mage,Wild Magic,PZ7.P61464 Wm 1994
Wizards at War,A Wizard of Mars,Wizard's Holiday,PZ7.D85415 Wjr 2005
Wizardology: The Book of the Secrets of Merlin,Pirateology: A Pirate Hunter's Companion,Egyptology: Search for the Tomb of Osiris,BF1611 .S796 2005
Wizardborn,The Lair of Bones,Brotherhood of the Wolf,PS3556.A71558 W59 2001
Wizard,Demon,Titan,PS3572.A724 W58
Wizard's First Rule,Stone of Tears,Debt of Bones,PS3557.O5826 W59 1994
Without Fail,Persuader,Echo Burning,PS3553.H4838 W58 2002
With a Tangled Skein,Wielding a Red Sword,Bearing an Hourglass,PS3551.N73 W5 1985
With Red Hands,In Golden Blood,Through Violet Eyes,CPB Box no. 2305 vol. 7
Witch Week,The Lives of Christopher Chant,The Magicians of Caprona,PZ7.J684 Wj 1982
Winter Rose,Song for the Basilisk,The Book of Atrix Wolfe,PS3563.C3812 W56 1996
Winter's Heart,Crossroads of Twilight,The Path of Daggers,PS3560.O7617 W55 2000
Windmills of the Gods,The Sands of Time,If Tomorrow Comes,PS3569.H3927 W5 1987
Wild Fire,The Lion,Night Fall,PS3554.E472 W55 2006
Wife,Darkness,The Tiger's Daughter,PZ4.M9555 Wi3 PR9499.3.M77
Wielding a Red Sword,Being a Green Mother,With a Tangled Skein,PS3551.N73 W48 1986
Why Is Sex Fun?,"Guns, germs and steel: A short history of everybody for the last 13,000 years",The Third Chimpanzee: The Evolution and Future of the Human Animal,HQ21 .D48 1997
Whispering Nickel Idols,Cruel Zinc Melodies,Angry Lead Skies,CPB Box no. 2348 vol. 1
Where Rainbows End,If You Could See Me Now,"PS, I Love You",PR6101.H47 W47 2005
Where Men Win Glory,Three Cups of Deceit,Under the Banner of Heaven,GV939.T49K73 2008
When You Are Engulfed in Flames,Squirrel Seeks Chipmunk: A Modest Bestiary,Dress Your Family in Corduroy and Denim,PS3569.E314 W48 2008
When Will Jesus Bring the Pork Chops?,Three Times Carlin: An Orgy of George,Napalm and Silly Putty,PN6165 .C36 2004
When True Night Falls,Crown of Shadows,Black Sun Rising,PS3556.R5184 W44 1993
When She Was Good,Portnoy's Complaint,Letting Go,PS3568.O855 W46 1995
West from Home,List of Little House books,On the Way Home,PS3545.I342 Z55 1974
Web of the Romulans,Yesterday's Son,Triangle,CPB Box no. 2983 vol. 23
Wayside School is Falling Down,Wayside School Gets A Little Stranger,Sideways Stories From Wayside School,PZ7.S1185 Way 1989
"Washington, D.C.",The Golden Age,Hollywood,PS3543.I26 W3 2000
Wash This Blood Clean from My Hand,This Night's Foul Work,Have Mercy on Us All,PQ2682.A725 S68 2004
Warriors,Escape from the Forest,Escape from the Forest,PZ7.7.H86 War 2008
Warriors: Power of Three,Warriors: Power of Three,The Sight,PZ7.H916625 Ou 2008
War of the Twins,Test of the Twins,Time of the Twins,CPB Box no. 2217 vol. 2
War of Honor,At All Costs,Ashes of Victory,PS3573.E217 W375 2002
Wagon Train to the Stars,Belle Terre,Across the Universe,CPB Box no. 2018 vol. 4
Vulcan's Glory,"Double, Double",The Final Nexus,CPB Box no. 1759 vol. 12
Vote for Larry,Larry and the Meaning of Life,The Gospel According to Larry,PZ7.T211135 Vo 2004
Vixen 03,Night Probe!,Raise the Titanic!,PZ4.C9856 Vi 1978 PS3553.U75
Visions of Gerard,Desolation Angels,Big Sur,PS3521.E735 V47 1991
Visions of Cody,Lonesome Traveler,Tristessa,PS3521.E735 V5 1993
Vanity of Duluoz,Pic,Satori in Paris,PS3521.E735 V36 1994
Vampire Zero,23 Hours,99 Coffins,PS3623.E468 V36 2008
Valiant: A Modern Tale of Faerie,Ironside: A Modern Faery's Tale,Tithe: A Modern Faerie Tale,PZ7.B52878 Val 2005
Valhalla Rising,Trojan Odyssey,Atlantis Found,PS3553.U75 V3 2001
Vacuum Diagrams,Reality Dust,Ring,PR6052.A849 V33 1997
Up in the Air,Mission to America,Thumbsucker,PS3561.I746 U6 2001
Up in a Heaval,Cube Route,Swell Foop,PS3551.N73 U6 2002
Up Country,The Panther,The General's Daughter,PS3554.E472 U6 2002
Unto a Good Land,The Settlers,The Emigrants,PT9875.M5 I613 1995
Until I Find You,Last Night in Twisted River,The Fourth Hand,PS3559.R8 U58 2005
Unforgettable,Lucky,Reckless,PZ7.V94 Unf 2007
Under the Jolly Roger,In the Belly of the Bloodhound,Curse of the Blue Tattoo,PZ7.M57172 Un 2005
UnderSurface,A Slight Trick of the Mind,From the Place in the Valley Deep in the Forest,PS3553.U319 U53 2002
Undead and Unappreciated,Undead and Unreturnable,Undead and Unemployed,PS3604.A949 U525 2005
Ultimate Punishment,Ordinary Heroes,Reversible Errors,KF9227.C2 T87 2003
Tyrannosaur Canyon,Blasphemy,The Codex,PS3566.R3982 T97 2005
Two for the Dough,Three to Get Deadly,One for the Money,PS3555.V2126 T96 1996
Twelve Sharp,Plum Lovin',Eleven on Top,PS3555.V2126 T93 2006b
Turn the Other Chick,Chicks and Balances,The Chick is in the Mail,PS648.W6 T87 2004
Turn Coat,Changes,Small Favor,PS3602.U85 T87 2009
Tucket's Gold,Tucket's Home,Tucket's Ride,PZ7.P2843 Tt 1999
Trunk Music,Angels Flight,The Last Coyote,PS3553.O51165 T78 1997
Trumps of Doom,Blood of Amber,The Courts of Chaos,PS3576.E43 T7 1985
Trouble Magnet,Patrimony,Bloodhype,PS3556.O756 T755 2006
Tris's Book,Daja's Book,Sandry's Book,PZ7.P61464 Tr 1998
Triggerfish Twist,The Stingray Shuffle,Orange Crush,PS3554.O719 T75
