col0,col1,col2,col3
América Futebol Clube,Head Coach,1919-08-09,President
América Football Club,Head Coach,2011-11-20,President
Alto Acre Futebol Club,Head coach,1931-03-09,President
Alecrim Futebol Clube,Head coach,2015-08-15,President
Alagoinhas Atlético Clube,Head coach,1970-04-02,President
Agremiação Esportiva Canedense,Head Coach,2005-06-15,President
African Lyon F.C.,(Interim),2000-06-14,President
Academia Desportiva Manthiqueira Futebol,Head Coach,2005-08-04,President
AHM Hassi Messaoud,Manager,2010-08-29,President
AFC Ajax,Head coach,2012-05-18,Chairman
ADO Den Haag,Head coach,2007-01-21,Chairman
ACF Fiorentina,Head coach,1926-08-29,President
1. FC Heidenheim,Head coach,1846-08-14,President
ŠNK Radgona,Head Coach,1946-05-29,President
Íbis Sport Club,Head coach,1938-11-15,President
Étoile Lusitana,Manager,2008-04-20,Chairman
