col0,col1,col2,col3,col4
F. Mazet,Paris,1943-2-24,0,1943-2-24
F. Hesnault,Neuilly-sur-Seine,1956-12-30,0,1956-12-30
F. Cevert,Paris,1944-2-25,1,1944-2-25
F. Minoia,Milan,1884-6-2,0,1884-6-2
F. Barbazza,Monza,1963-4-2,0,1963-4-2
E. Martin,Suresnes,1915-3-24,0,1915-3-24
E. Chaboud,Lyon,1907-4-12,0,1907-4-12
E. Castellotti,"Lodi, Lombardy",1930-10-10,0,1930-10-10
E. Martin,Suresnes,1915-3-24,0,1915-3-24
E. Chaboud,Lyon,1907-4-12,0,1907-4-12
E. Chimeri,"Lodi, Lombardy",1921-6-4,0,1921-6-4
E. Tuero,Buenos Aires,1978-4-22,0,1978-4-22
E. Bauer,Stuttgart,1912-7-17,0,1912-7-17
E. Klodwig,Aschersleben,1903-5-23,0,1903-5-23
E. d. Vos,The Hague,1941-7-1,0,1941-7-1
E. Pieterse,"Parow, Cape Town",1938-7-4,0,1938-7-4
E. McCoy,"Reading, Pennsylvania",1921-2-19,0,1921-2-19
E. Prinoth,Urtijëi,1923-4-15,0,1923-4-15
Eric van de Poele,Verviers,1961-9-30,0,1961-9-30
E. Thompson,Surbiton,1919-11-4,0,1919-11-4
E. Brandon,East Ham,1920-7-18,0,1920-7-18
E. Wietzes,Assen,1938-5-28,0,1938-5-28
E. Bertaggia,Noale,1964-9-19,0,1964-9-19
E. d. Villota,Madrid,1946-7-26,0,1946-7-26
E. Zapico,"León, Spain",1944-5-27,0,1944-5-27
E. Andres,"Tinley Park, Illinois",1911-7-22,0,1911-7-22
E. Fittipaldi,São Paulo,1946-12-12,14,1946-12-12
E. Pirro,Rome,1962-1-12,0,1962-1-12
E. Naspetti,Ancona,1968-2-24,0,1968-2-24
E. d. Angelis,Rome,1958-3-26,2,1958-3-26
E. Cantoni,Montevideo,1906-10-4,0,1906-10-4
E. Barth,Thum,1917-1-26,0,1917-1-26
E. Sachs,"Allentown, Pennsylvania",1927-5-28,0,1927-5-28
E. Russo,Chicago,1925-11-19,0,1925-11-19
E. Keizan,Johannesburg,1944-9-12,0,1944-9-12
E. Johnson,"Richmond, Virginia",1919-2-10,0,1919-2-10
E. Irvine,Newtownards,1965-11-10,4,1965-11-10
E. Cheever,"Phoenix, Arizona",1958-1-10,0,1958-1-10
E. Elisian,"Oakland, California",1926-12-9,0,1926-12-9
D. Nalon,Chicago,1913-3-2,0,1913-3-2
D. Dinsmore,West Virginia,1913-4-10,0,1913-4-10
D. Carter,"Fresno, California",1913-5-5,0,1913-5-5
Dries van der Lof,"Emmen, Netherlands",1919-8-23,0,1919-8-23
D. Serrurier,Germiston,1920-12-9,0,1920-12-9
D. Serafini,Pesaro,1909-7-22,0,1909-7-22
D. Freeland,Los Angeles,1925-3-25,0,1925-3-25
D. Edmunds,"Santa Ana, California",1930-9-23,0,1930-9-23
D. Beauman,"Farnborough, Hampshire",1928-7-26,0,1928-7-26
D. Schiattarella,Milan,1967-11-17,0,1967-11-17
D. Galica,Bushey,1944-8-13,0,1944-8-13
D. Pironi,Villecresnes,1952-3-26,3,1952-3-26
D. Gibson,"Bourne, Lincolnshire",1918-4-16,0,1918-4-16
D. Wilson,Brakpan,1953-11-26,0,1953-11-26
D. Daly,Dublin,1953-3-11,0,1953-3-11
D. Bell,Pinner,1941-10-31,0,1941-10-31
D. Hulme,Motueka,1936-6-18,8,1936-6-18
D. Poore,London,1916-8-19,0,1916-8-19
D. Wilson,Los Angeles,1927-3-11,0,1927-3-11
D. Walker,Sydney,1941-6-10,0,1941-6-10
D. Purley,Bognor Regis,1945-1-26,0,1945-1-26
D. Prophet,Hong Kong,1937-10-9,0,1937-10-9
D. Piper,Edgware,1930-12-2,0,1930-12-2
D. Murray,Edinburgh,1909-12-28,0,1909-12-28
D. Kennedy,Sligo,1953-1-15,0,1953-1-15
D. Hobbs,Leamington Spa,1939-6-9,0,1939-6-9
D. Hampshire,Derby,1917-12-29,0,1917-12-29
D. Coulthard,Scotland,1971-3-27,13,1971-3-27
D. Clapham,Rawmarsh,1931-5-17,0,1931-5-17
D. Brabham,London,1965-9-5,0,1965-9-5
D. Morgan,"Cranmore, Somerset",1944-8-7,0,1944-8-7
D. Charlton,Brotton,1936-10-27,0,1936-10-27
D. Ongais,"Kahului, Hawaii",1942-5-21,0,1942-5-21
D. Kladis,"Crystal City, Texas",1917-2-10,0,1917-2-10
D. Gurney,"Port Jefferson, New York",1931-4-13,4,1931-4-13
D. Hill,Hampstead,1960-9-17,22,1960-9-17
D. Magee,Belfast,1945-11-17,0,1945-11-17
C. Harrison,Sheffield,1906-7-6,0,1906-7-6
C. d. Matta,Belo Horizonte,1973-9-19,0,1973-9-19
C. Fabi,Milan,1961-4-12,0,1961-4-12
C. Sanesi,Arezzo,1911-3-28,0,1911-3-28
C. Andersson,Alingsås,1939-12-28,0,1939-12-28
C. Davis,Marylebone,1933-7-29,0,1933-7-29
C. Chapman,London,1928-5-19,0,1928-5-19
C. Puzey,Bulawayo,1941-7-11,0,1941-7-11
C. Allison,"Brough, Cumbria",1932-2-8,0,1932-2-8
C. Biondetti,Sardinia,1898-8-18,0,1898-8-18
C. Regazzoni,Lugano,1939-9-5,5,1939-9-5
C. Langes,Brescia,1961-8-4,0,1961-8-4
C. Weyant,"St. Marys, Ohio",1923-4-3,0,1923-4-3
C. Daigh,"Long Beach, California",1923-11-29,0,1923-11-29
C. Arnold,"Stamford, Connecticut",1926-5-30,0,1926-5-30
C. Albers,Eindhoven,1979-4-16,0,1979-4-16
C. Klien,Hohenems,1983-2-7,0,1983-2-7
C. Goethals,Kortrijk,1928-8-4,0,1928-8-4
C. Danner,Munich,1958-4-4,0,1958-4-4
C. Lawrence,Ealing,1933-7-27,0,1933-7-27
C. Irwin,London,1942-6-27,0,1942-6-27
C. Craft,Porthleven,1939-11-17,0,1939-11-17
C. Bristow,Lambeth,1937-12-2,0,1937-12-2
C. Amon,"Bulls, New Zealand",1943-7-20,0,1943-7-20
C. Serra,São Paulo,1957-2-3,0,1957-2-3
C. Landi,São Paulo,1907-7-14,0,1907-7-14
C. Miller,Detroit,1902-7-19,0,1902-7-19
C. Pozzi,Paris,1909-8-27,0,1909-8-27
C. Perdisa,Bologna,1932-10-21,0,1932-10-21
C. Green,Dallas,1919-9-30,0,1919-9-30
C. Shelby,"Leesburg, Texas",1923-1-11,0,1923-1-11
C. Reutemann,"Santa Fe, Argentina",1942-4-12,12,1942-4-12
C. Pace,São Paulo,1944-10-6,1,1944-10-6
C. Menditeguy,Buenos Aires,1914-8-10,0,1914-8-10
