col0,col1,col2,col3,col4,col5
W. K. I,Aomori Prefecture,"Shinjuku, Tokyo",1928-03-16,1928-03-16,2010-09-01
T. Manzō,Akita Prefecture,Tokyo,1919-01-10,1919-01-10,1977-03-20
T. Toshihide,Japan,Japan,1952-09-29,1952-09-29,2011-11-07
T. Sadahiro,"Misawa, Aomori",Osaka,1971-10-27,1971-10-27,2015-06-20
T. Kōki,Karafuto Prefecture,Japan,1940-05-29,1940-05-29,2013-01-19
R. Seihō,Japan,"Kakegawa, Shizuoka",1941-01-09,1941-01-09,2014-08-29
Rikidōzan,Korea under Japanese rule,Japan,1924-11-14,1924-11-14,1963-12-15
M. Gondazaemon,"Tome, Miyagi",Nagasaki Prefecture,1713-12-23,1713-12-23,1749-11-14
K. Toshimitsu,Hokkaidō,Japan,1953-05-16,1953-05-16,2015-11-20
K. Satoshi,"Moriguchi, Osaka","Osakasayama, Osaka",1967-06-27,1967-06-27,1998-03-10
K. Masateru,"Yamaguchi, Yamaguchi",Tokyo,1948-02-16,1948-02-16,2014-5-18
J. Tenta,"Surrey, British Columbia","Sanford, Florida",1963-06-22,1963-06-22,2006-06-07
H. Taniemon,"Mito, Ibaraki","Sumida, Tokyo",1874-01-19,1874-01-19,1922-06-19
F. Jun'ichi,Hokkaido,Japan,1950-2-28,1950-2-28,2014-08-12
C. Masanobu,"Fukushima, Hokkaidō",Japan,1926-06-02,1926-06-02,1977-10-29
C. Mitsugu,"Fukushima, Hokkaido",Japan,1955-06-01,1955-06-01,2016-07-31
A. Setsuo,Hiroshima,Kamakura,1914-05-30,1914-05-30,1979-03-25
