col0,col1,col2,col3
You're Under Arrest,Serge Gainsbourg,Gainsbourg Live,2329
You're Under Arrest,Miles Davis,Decoy,2582
You're Too Straight to Love Me,Oh My God,Interrogations and Confessions,1731
You're Still the One,Shania Twain,Don't Be Stupid,199
You're Speaking My Language,Juliette and the Licks,...Like a Bolt of Lightning,2440
You're Something Special to Me,George Strait,The Chair,200
You're So Vain,Carly Simon,Legend in Your Own Time,259
You're So Right for Me,Rooster,Staring at the Sun,209
You're So Good to Me,The Beach Boys,Barbara Ann,136
You're So Close,Peter Murphy,The Sweetest Drop,331
You're Sixteen,Johnny Burnette,Photograph,116
You're Pitiful,"""Weird Al"" Yankovic",Pretty Fly for a Rabbi,196
You're Out of My Life,Darin,What If,198
You're Only Lonely,J. D. Souther,Black Rose,2127
You're Only Human,Billy Joel,Keeping the Faith,261
You're Nothing,Iceage,New Brigade,1710
You're Not the Only One Who Feels This Way,Ammonia,Satin Only,233
You're Not the One,Sky Ferreira,Everything Is Embarrassing,237
You're Not in Kansas Anymore,Jo Dee Messina,"Heads Carolina, Tails California",173
You're Not There,Lukas Graham,Golden,201
You're Not My Kind of Girl,New Edition,If It Isn't Love,241
You're Not Alone,Kwasi Danquah III,I Got Soul,230
You're Not Alone,André Tanneberger,Miracle,180
You're Not Alone,Bonerama,Oh No,1123
You're Not Alone,Chicago,Look Away,236
You're Nobody 'til Somebody Loves You,James Arthur,Impossible,200
You're No Good,Linda Ronstadt,Good Golly Miss Molly,138
You're Never Too Old for Young Love,Eddy Raven,Right Hand Man,164
You're Never Fully Dressed Without a Smile,Sia Furler,Guts Over Fear,190
You're Never Alone with a Schizophrenic,Ian Hunter,Overnight Angels,2524
You're Never Alone With a Cigarette,Sun City Girls,Dulce,2356
You're My World,Emilia Rydberg,2008 in music,180
You're My World,Cilla Black,Anyone Who Had a Heart,161
You're My Thrill,Shirley Horn,I Remember Miles,2265
You're My Sunshine,Namie Amuro,Don't Wanna Cry,1062
You're My Star,Stereophonics,My Friends,247
You're My One and Only Love,Ricky Nelson,I'm Walkin',122
You're My Number One,Enrique Iglesias,Be with You,269
You're My Number One,S Club,Two in a Million,206
You're My Man,Lynn Anderson,Rose Garden,160
You're My Kind of Climate,Rip Rig + Panic,Bob Hope Takes Risks,170
You're My First Lady,T.G. Sheppard,Half Past Forever,207
You're My Everything,The Temptations,All I Need,192
You're My Driving Wheel,The Supremes,High Energy,199
You're My Better Half,Keith Urban,Days Go By,239
You're My Best Friend,Queen,Bohemian Rhapsody,172
You're My Best Friend,Don Williams,The Ties That Bind,163
You're Mine You,Sarah Vaughan,After Hours,2500
You're Mine,Mariah Carey,The Art of Letting Go,224
You're Makin' Me High,Toni Braxton,I Belong to You/How Many Ways,243
You're Lookin' at Me,Carmen McRae,Heat Wave,2160
You're Lookin' at Country,Loretta Lynn,I Wanna Be Free,137
You're Living All Over Me,Dinosaur Jr.,Dinosaur,2168
You're Like Comin' Home,Lonestar,Class Reunion,240
You're Gonna Ruin My Bad Reputation,Ronnie McDowell,Personally,187
You're Gonna Miss This,Trace Adkins,I Got My Game On,224
You're Gonna Miss Me When I'm Gone,Brooks & Dunn,Little Miss Honky Tonk,292
You're Gonna Miss It All,Modern Baseball,Sports,1770
You're Gonna Love This,3OH!3,Touchin' on My,212
You're Gonna Love Again,Nervo,Livin' My Love,201
You're Gonna Hear from Me,Andy Williams,May Each Day,167
You're Gonna Hear from Me,Bill Evans,Jazzhouse,3003
"You're Gonna Go Far, Kid",The Offspring,Hammerhead,178
You're Gonna Get Rocked!,La Toya Jackson,(Tell Me) She Means Nothing To You At All,235
You're Gonna Get It!,Tom Petty and the Heartbreakers,Tom Petty and the Heartbreakers,1778
You're Gonna Change,Hank Williams,Mind Your Own Business,176
You're Gonna Be,Reba McEntire,My Sister,232
You're Gone,Diamond Rio,Imagine That,211
You're Going Out of My Mind,T.G. Sheppard,One Owner Heart,200
You're Going Down,Sick Puppies,Pitiful,189
You're Gettin' a Little Too Smart,The Detroit Emeralds,Feel the Need in Me,201
You're Everything,Jiggs Whigham,Update,3359
You're Everything,Rick Ross,That's Gangsta,276
You're Easy on the Eyes,Terri Clark,Now That I Found You,213
You're Dead!,Flying Lotus,Ideas+drafts+loops,2295
You're Beginning to Get to Me,Clay Walker,Ordinary People,161
You're Beautiful,Nathaniel Willemse,I Am Australian,179
You're Beautiful,James Blunt,Wisemen,202
"You're Awful, I Love You",Ludo,Broken Bride,2911
You're Amazing,Robert Palmer,I'll Be Your Baby Tonight,230
You're Always Here,Ashley Tisdale,Crank It Up,225
You're All Worthless and Weak,Gwar,We Kill Everything,3402
You're All That Matters to Me,Curtis Stigers,I Wonder Why,280
You're All Living in Cuckooland,Budgie,The Last Stage,3196
You're All I Wanna Do,Cheap Trick,Woke up with a Monster,243
You're All I Need to Get By,Marvin Gaye,Ain't Nothing Like the Real Thing,158
You're All I Have,Snow Patrol,How to Be Dead,230
You'll See,Madonna,Human Nature,279
You'll Ruin It for Everyone,Crass,Christ: The Bootleg,3068
You'll Rock,LL Cool J,Rock the Bells,272
You'll Pay for This,Bear Hands,Distraction,2581
You'll Never Walk Alone,Elvis Presley,Elvis Country,1573
You'll Never See…,Grave,Into the Grave,2219
You'll Never Know What You're Missing,The Real Thing,Can't Get By Without You,208
You'll Never Know,Mindy McCready,What If I Do,244
You'll Never Know,1927,If I Could,221
You'll Never Get to Heaven,Dionne Warwick,Break Up to Make Up,178
You'll Never Be Alone,Anastacia,Why'd You Lie to Me,233
You'll Need Somebody on Your Bond,Blind Willie Johnson,Universal Soldier,185
You'll Lose a Good Thing,Barbara Lynn,Secret Love,173
You'll Follow Me Down,Skunk Anansie,Lately,209
You'll Come 'Round,Status Quo,All Stand Up,201
You'll Be in My Heart,Phil Collins,True Colors,257
You'll Be There,George Strait,I Hate Everything,258
You'll Be Safe Here,Rivermaya,Between the Stars and Waves,1276
You'll Be Mine,Gloria Estefan,Reach,290
You'll Be Mine,The Beatles,Hallelujah I Love Her So,98
You'll Be Back,The Statler Brothers,Years Ago,159
You'll Always Find Me in the Kitchen at Parties,Jona Lewie,Stop the Cavalry,144
You'll Always Be My Baby,Sara Evans,Coalmine,277
You'll Always Be Loved by Me,Brooks & Dunn,Beer Thirty,182
You'll Accomp'ny Me,Bob Seger & The Silver Bullet Band,Against the Wind,216
You'd Prefer an Astronaut,Hum,Electra 2000,2753
You? Me? Us?,Richard Thompson,Live At Crawley,4441
Yosuga,Nagisa ni te,Dream Sounds,4253
Yoshū Fukushū,Maximum the Hormone,Bu-ikikaesu,3630
Yoshinotsune,Merzbow,Offering,3173
Yoshimi Battles the Pink Robots,The Flaming Lips,The Soft Bulletin,2845
Yoshimi Battles the Hip-Hop Robots,The Kleptones,Never Trust Originality,2829
Yoshiki Classical,Yoshiki,Eternal Melody II,2436
Yoshi City,Yung Lean,Kyoto,225
Yoshū Fukushū,Maximum the Hormone,Bu-ikikaesu,3630
Yoru o Yuke,Miyuki Nakajima,Kaikinetsu,3363
Yoru no Odoriko,Sakanaction,Boku to Hana,306
Yorokobi no Uta,KAT-TUN,Bokura no Machi de,242
York,Blu,Jesus,3540
York,Foetus,Boil,2789
Yonn-Dé,David Murray,Like a Kiss that Never Ends,4219
Yoni,Ginger,Valor Del Corazon,3705
Yonder Mountain String Band,Yonder Mountain String Band,Mountain Tracks: Volume 4,2509
Yolanda... Live in Washington,Yolanda Adams,More Than A Melody,4323
Yoko Ono/Plastic Ono Band,Yoko Ono,Live Peace in Toronto 1969,2429
Yoko,Beulah,The Coast Is Never Clear,2695
Yokan,Dir En Grey,Cage,602
Yokan,Miyuki Nakajima,Kansuigyo,2634
Yoga,Janelle Monáe,Electric Lady,217
Yodelling Song,Tanita Tikaram,Wonderful Shadow,214
Yodel the Cowboy Way,Riders in the Sky,Public Cowboy,1944
Yoake Mae,Chara,Madrigal,3591
Yo no quiero volverme tan loco,Serú Girán,En vivo,4928
Yo Te Quiero,Wisin & Yandel,Pegao,207
Yo Te Necesito,Los Bukis,Presiento Que Voy a Llorar,1952
Yo Te Avise,Los Fabulosos Cadillacs,Bares y Fondas,2389
Yo No Tengo Nah,Kany García,Para Volver Amar,233
Yo No Soy Esa Mujer,Paulina Rubio,Y Yo Sigo Aquí,225
Yo Mister,Patti LaBelle,If You Asked Me To,247
"Yo Ho! Poor You, Little Me",Frank Wess,Southern Comfort,1988
Yo Bailo/Don't Call me Crazy,Porno Graffitti,NaNaNa Summer Girl,797
Yo,Chris Brown,Run It!,229
Yo-Yo,Nicola Roberts,Lucky Day,206
"Yo, Yo, Yo",Dani Stevenson,Honk Your Horn,212
"Yo, Minoría Absoluta",Extremoduro,Canciones Prohibidas,2571
