col0,col1,col2,col3
No Mercy,WWE Raw,Cyber Sunday,Unforgiven
No Mercy,WWE Raw,Cyber Sunday,Unforgiven
No Mercy,WWE SmackDown,Cyber Sunday,Unforgiven
No Mercy,WWE Friday Night SmackDown,Taboo Tuesday,Unforgiven
No Mercy,WWE SmackDown,Taboo Tuesday,Unforgiven
No Mercy,WWE SmackDown,Survivor Series,Unforgiven
No Mercy,WWE Raw,WWE Rebellion,Unforgiven
Night of Champions,WWE Raw,Hell in a Cell,SummerSlam
Night of Champions,WWE Raw,SummerSlam,WWE The Bash
Night of Champions,WWE Raw,The Great American Bash,One Night Stand
New Year's Revolution,WWE Raw,Royal Rumble,Armageddon
New Year's Revolution,WWE Raw,Royal Rumble,Armageddon
New Year's Revolution,WWE Raw,Royal Rumble,Armageddon
Money in the Bank,WWE Raw,SummerSlam,WWE Capitol Punishment
Money in the Bank,WWE Raw,SummerSlam,WWE Fatal 4-Way
King of the Ring,WWE Raw,Vengeance,Judgment Day
Judgment Day,WWE Raw,Extreme Rules,Backlash
Judgment Day,WWE Raw,One Night Stand,Backlash
Judgment Day,WWE Raw,One Night Stand,Backlash
Judgment Day,WWE SmackDown,ECW One Night Stand,Backlash
Judgment Day,WWE SmackDown,ECW One Night Stand,Backlash
Judgment Day,WWE SmackDown,Bad Blood,Backlash
Judgment Day,WWE Raw,WWE Insurrextion,Backlash
Judgment Day,WWE Raw,King of the Ring,WWE Insurrextion
Hell in a Cell,WWE Raw,Bragging Rights,Night of Champions
Hell in a Cell,WWE Raw,Bragging Rights,WWE Breaking Point
Extreme Rules,WWE Raw,Over the Limit,WrestleMania XXVII
