col0,col1,col2,col3
Winters Lane Historic District,1867,2007-12-21,7001285
Winters House,1890,1999-01-25,98001634
Winters-Wimberley House,1856,2002-05-22,2000527
Winterport Congregational Church,1831,1973-04-24,73000151
Winterham,1855,2002-10-15,2001183
Wintergreen County Store,1908,2005-11-09,5001233
Winter Street Historic District,1873,1982-04-13,82001986
Winter Street Church,1843,1971-07-27,71000044
Winter Saloon,1890,1980-01-04,80001979
Winter Quarters State Historic Site,1803,1978-11-21,78001437
Winter Inn,1902,1980-04-17,80001883
Winston Tower,1963,2001-04-19,1000376
Winston Place,1838,1987-03-19,87000476
Winston County Courthouse,1894,1987-08-27,87001416
Winston-Salem Tobacco Historic District,1890,2009-08-05,9000602
Winston-Salem Southbound Railway Freight Warehouse and Office,1913,1991-11-29,91001747
Winston-Salem City Hall,1926,2001-10-20,1001130
Winsted,1805,1979-09-19,79003266
Winstead House,1870,1979-04-18,79002486
Winstead Hill,1864,1974-11-29,74001930
Winsor Building,1904,1979-09-13,79001513
Winsor-Swan-Whitman Farm,1750,1974-05-01,74000006
Winslow House,1893,1970-04-17,70000242
Winslow Homer Studio,1884,1966-10-15,66000092
Winslow Congregational Church,1897,1984-07-05,84002288
Winslow Chemical Laboratory,1866,1994-11-04,94001284
Winslow Ames House,1933,1995-03-23,95000283
Winslow-Turner Carriage House,1876,1982-11-12,82001114
Winslow-Haskell Mansion,1870,1979-10-25,79000362
Winooski Street Bridge,1928,2006-08-09,6000703
Winona Masonic Temple,1908,1998-02-26,98000152
Winona Lake Historic District,1887,1993-12-10,93001411
Winona Hotel,1889,1983-03-31,83000947
Winona County Courthouse,1889,1970-12-02,70000313
Winona Church and School,1893,1991-06-05,91000688
Winona,1681,1969-10-01,69000264
Winona,1909,2001-07-05,1000702
Winnsboro Historic District,1785,1971-10-14,71000780
Winnona Park Historic District,1923,2002-05-30,2000565
Winnifred Street Bridge,1941,1995-03-28,95000259
Winnie Davis Hall,1904,1977-04-29,77001219
Winnibigoshish Lake Dam,1899,1982-05-11,82004629
Winnemucca Main Post Office,1921,1990-02-28,90000137
Winnemucca Hotel,1863,2005-05-26,5000471
Winnemucca Grammar School,1927,1991-11-14,91001654
Winnebago County Courthouse,1894,1981-07-02,81000275
Winn Road School,1846,1984-03-22,84001364
Winn Memorial Library,1879,1976-11-13,76000290
Winn Farm,1820,1985-04-18,85001051
Winks Panorama,1925,1980-03-28,80000901
Winkelman Bridge,1916,1988-09-30,88001649
Wingspread,1937,1975-01-08,75000076
Wingmead,1939,2011-05-23,11000302
Wingate Commercial Historic District,1888,2014-12-01,14000992
Wing Park Golf Course,1908,2009-02-18,9000027
Wing Hall,1912,1984-09-24,84003204
Wing Fort House,1641,1976-06-03,76000227
Wing Family Cemetery,1867,1991-10-16,91001514
Wing-Northup House,1815,2008-09-12,8000862
Wing's Neck Light,1849,1987-06-15,87001503
Winfield Toll Bridge,1955,2011-12-15,11000931
Winfield Smouse House,1916,1983-01-27,83000409
Winfield Methodist Church,1921,1982-12-22,82000935
Winfield House,1880,1989-09-20,89001347
Winfield Corners Stone House,1732,1999-08-12,99000993
Winfall Historic District,1881,2003-01-15,2001715
"Winehaven, California",1907,1978-10-02,78000658
Windy Run Grade School,1889,1984-01-12,84003518
Windswept Farm,1823,1989-09-07,89001390
Windswept Acres-Powers House,1800,1985-06-21,85001325
Windswept,1936,2007-05-08,7000411
Windsor W. Calkins House,1902,1981-12-09,81000498
Windsor Village Historic District,1810,1980-07-30,80002593
Windsor Shades,1785,1978-05-22,78003025
Windsor Ruins,1859,1971-11-23,71000447
Windsor Print Works,1872,1973-05-17,73000296
Windsor Plantation,1857,1974-07-23,74001837
Windsor Mills Christ Church Episcopal,1832,1975-05-29,75001319
Windsor House,1836,1971-12-29,71000060
Windsor Historic District,1768,1991-07-29,86003146
Windsor Harbor Road Bridge,1874,1983-09-08,83001024
Windsor Forge Mansion,1742,1990-01-04,89002283
Windsor Cotton Mills Office,1890,1984-05-31,84001930
Windsor Castle,1760,1987-12-14,87002149
Windsor Castle,1750,2000-08-02,897
Windsor Avenue Congregational Church,1871,1993-04-03,93000174
Windsor,1862,1980-07-30,80004211
Windom Mill Farm,1780,1994-08-30,94001062
Windmill at Water Mill,1800,1978-12-27,78001919
Windmill Quaker State,1928,1982-10-08,82001795
Windmill Hill,1934,1983-12-18,83004087
Windmill Cottage,1790,1973-05-22,73000051
Windham Village Historic District,1785,1984-11-01,84000428
Windham Center Historic District,1750,1979-06-04,79002655
Windfall Harbor Shelter Cabin,1936,1995-11-02,95001299
Windermere Town Hall,1922,1994-06-03,94000539
Windermere,1891,1979-11-14,79000195
Winder Building,1848,1969-03-24,69000303
Windego Park Auditorium/Open Air Theater,1914,1980-01-08,80001934
Windber Historic District,1897,1991-11-14,91001705
Wind Cave National Park Administrative and Utility Area Historic District,1905,1984-07-11,84003259
Winchester Town Hall,1911,1987-08-27,87001419
Winchester Town Hall,1887,1983-03-31,83000837
Winchester Square Historic District,1875,1979-05-10,79000350
Winchester Savings Bank,1892,1979-06-19,79000361
Winchester Residential Historic District,1837,2011-03-21,11000123
Winchester Repeating Arms Company Historic District,1912,1988-01-28,87002552
Winchester Mystery House,1884,1974-08-07,74000559
Winchester Mountain Lookout,1935,1987-07-14,87001188
