col0,col1,col2,col3
The Legend of Mike Smith,The New Emancipation,2012-04-12,8760
The Legend of Bonnie and Clyde,Sing Me Back Home,1968-01-31,126
The Legend,"Love, God and Murder",1956-04-02,18324
The Least We Can Do Is Wave to Each Other,The Aerosol Grey Machine,1969-12-14,2630
The Laughing Gnome,Rubber Band,0007-01-26,183
The Latin Bit,Born to Be Blue,1962-09-07,2336
The Last from Lennie's,Jaki Byard Quartet Live!,1965-04-15,3749
The Last Waltz,Greatest Hits,1976-11-25,14778
The Last Waltz,Anthology,1976-11-25,7746
The Last Time,Pictures of Lily,1965-01-12,182
The Last Set at Newport,Live at the Berlin Philharmonie,1971-07-03,2091
The Last Sessions,Faded Love,1963-02-04,3987
The Last Place to Go,Dutch Harbor - Where the Sea Breaks Its Back,1997-11-11,3580
The Last Kind Words,The Fury of Our Maker's Hand,2006-11-16,2739
The Last Fight,She Builds Quick Machines,2006-12-11,243
The Köln Concert,Back Hand,1975-01-24,3965
The Kold Kage,While the Gate Is Open,1991-06-02,3578
The Kink Kontroversy,Kinda Kinks,1965-10-30,1812
The King of Rock and Roll,Mr. Big,1971-07-02,2554
The King!,Bottoms Up,1968-08-20,2473
The Kids Are Alright,A Legal Matter,1965-10-13,165
The Kicker,Mode for Joe,1967-09-27,2274
The Kerry Dancers,White Gardenia,1961-12-21,2335
The Kenton Era,Kenton Showcase,1940-11-01,9269
The Kenny Dorham Memorial Album,Quiet Kenny,1960-01-10,2515
The Köln Concert,Back Hand,1975-01-24,3965
The Jumpin' Blues,The Chase!,1970-08-27,2243
The John Lewis Piano,Afternoon in Paris,1956-07-30,2166
The John Coltrane Quartet Plays,A Love Supreme,1965-03-28,2272
The Jean Genie,"John, I'm Only Dancing",1972-10-06,247
The Jazztet at Birdhouse,The Jazztet and John Lewis,1961-05-15,2400
The Jazztet and John Lewis,Art,1961-01-09,2515
The Jazz Soul of Oscar Peterson,A Jazz Portrait of Frank Sinatra,1959-08-09,1938
The Jazz Skyline,Fontessa,1956-01-23,2242
The Jazz Messengers,"At the Cafe Bohemia, Vol. 2",1956-05-04,4634
The Jazz Message of Hank Mobley,Hank Mobley Quartet,1956-02-08,2490
The Jazz Giants '56,Pres and Sweets,1956-01-12,2550
The Jaws of Life,The Fireman's Curse,1984-04-10,3589
The Jaki Byard Experience,Jaki Byard with Strings!,1968-09-17,2155
The Jacksons Live!,Triumph,1981-08-13,3993
The Jackson 5 in Japan,Skywriter,1973-04-30,2936
The Ivory Hunters,Green Dolphin Street,1959-03-12,2554
The Intimate Ellington,"Studio Sessions New York & Chicago, 1965, 1966 & 1971",0002-02-01,2689
The Intimacy of the Blues,Orchestral Works,1967-03-15,2520
The Inner Light,"Hello, Goodbye",0006-01-13,156
The Inexperienced Spiral Traveller,Ehjeh Ascher Ehjeh,1997-04-05,4331
The Individualism of Gil Evans,Into the Hot,1964-10-29,3322
The Incredible Kai Winding Trombones,The Great Kai & J. J.,0021-11-17,2271
The In Crowd,You Better Believe Me,0014-05-13,1929
The In Between,Booker 'n' Brass,1968-01-12,2418
The Impeccable Mr. Wilson,I Got Rhythm,1956-09-13,2365
The Immortal Charlie Parker,"Charlie Parker Memorial, Vol. 1",1944-09-15,2775
The Hunting Party,Living Things +,2012-09-12,2481
The Hunt,Dexter Rides Again,1947-07-06,4672
The Human Bed,Activate,1973-03-01,2760
The Hub of Hubbard,The Black Angel,1969-12-09,2113
The Howling Hex XI,Nightclub Version of the Eternal,2007-03-27,1977
The House of the Rising Sun,But You Know I Love You,1964-05-18,179
The House Show,She Must and Shall Go Free,2003-11-21,3937
