col0,col1,col2,col3
Natech,"Ioannina, Greece",21,600000
"Nasdaq, Inc.",New York,2503,3438000000
Napco Security Technologies,"Amityville, New York",908,73
Nanto Bank,Nara Prefecture,2697,81869000000
Nankang Rubber Tire,Taipei,1220,279600000
Namakkal Transport Carriers,Chennai,2000,450
Nakano Corporation,Tokyo,1145,107751
Naftna Industrija Srbije,Novi Sad,7629,2310000000
NYSE Euronext,Wall Street,3061,3750000000
NV Energy,"Las Vegas, Nevada",0,2900000000
NS Railinfratrust,Utrecht,2651,1260000000
NRB Bearing,Mumbai,0,650
NOS Comunicações,Lisbon,2016,863
NKT Holding,Copenhagen,8895,2224
NJToday.net,New Jersey,12,500000
NIRAS,Allerød Municipality,1400,1255
NICE Systems,Ra'anana,4122,926000000
NGP VAN,"Washington, D.C.",163,26
NGK Insulators,Nagoya,3272,119976
NET,São Paulo,12000,4100000000
NEK EAD,Sofia,15000,1500000000
NCR Corporation,"Gwinnett County, Georgia",30200,6370000000
NB Power,New Brunswick,2361,1635
NACCO Industries,"Cleveland, Ohio",9300,3300000000
N-ERGIE,Nuremberg,2534,2870000000
Müller,Ulm,31731,3357000000
MøllerGruppen,Oslo,2222,11479
Mövenpick Hotels & Resorts,"Baar, Switzerland",16000,978800000
Mäurer & Wirtz,North Rhine-Westphalia,400,158000000
Mytilineos Holdings,Marousi,4,3189000000
Mutual of Omaha,Nebraska,4700,7200000000
Music Zone,Greater Manchester,1100,70400000
Murray Goulburn Co-operative,Melbourne,2000,2400000000
Multiconsult,Oslo,1500,1
Mueller Water Products,"Atlanta, Georgia",4200,1184000000
Mubadala Development Company,Abu Dhabi,700,8522000000
Mozilla Corporation,"Mountain View, California",1000,329500000
Motor Oil Hellas,Athens,15000,26100000000
Motech Solar,Tainan,3500,1140000000
Motala Verkstad,Motala,190,240000000
Mostogradnja,Belgrade,1056,12220000
Mosenergo,Moscow,16725,5000000000
Mosaic451,"Phoenix, Arizona",95,19
Morphsuits,Edinburgh,22,4
Morphsuit,Edinburgh,22,4
"Morningstar, Inc.",Chicago,4070,198200000
Morleys Stores,London,1200,90600000
Morgan Stanley Wealth Management,"Purchase, New York",17649,3423000000
Morgan Stanley,New York,55802,32493000000
Morgan Motor Company,"Malvern, Worcestershire",163,34000000
Monster Beverage,California,1240,2246000000
Monmouth Ocean Hospital Service Corporation,"Neptune City, New Jersey",800,61
Monitise,London,750,40
Mongolian Mining Corporation,Ulaanbaatar,1897,99500000
Money Mart,"Victoria, British Columbia",6300,995000000
Mondragon Corporation,Mondragón,74335,12110
Molex,"Lisle, Illinois",36000,3
Mogen David,"Westfield, New York",100,200000000
ModusLink Global Solutions,"Waltham, Massachusetts",3650,754500000
Mlekara Subotica,Subotica,323,38630000
Mizuho Bank,"Chiyoda-ku, Tokyo",26839,1198310
Mitsui Fudosan,"Chūō, Tokyo",1216,1385
Mitsui & Co.,Tokyo,6006,5738
Mitsubishi Chemical Holdings,Tokyo,54111,2515076
Mitropa,Munich,1950,120000000
Mitel,Ontario,4500,1200000000
Mitcham Industries,"Huntsville, Texas",184,96
Mirat,Salamanca,183,83000000
Mind CTI,Yokneam,354,25000000
Minacs,Oshawa,21000,512000000
Milestone Systems,Copenhagen,389,407000000
Mikroelektronika,Belgrade,51,2890000
Mikel Coffee Company,Larissa,240,33439000
Mieschke Hofmann und Partner,Ludwigsburg,1500,235
