col0,col1,col2,col3
WDSF-LD,110,"Sonlife Broadcasting Network(DT3, 2015)",W19DS-D (2011–2013)
WDSC-TV,491,"15 (UHF, 1988–2008)",WCEU (1988–2008)
WDNI-CD,137,"19 (UHF, 2009)",W53AV (1989–1999)
WDMI-LD,160,62,W62BD
WDLI-TV,292,"17 (UHF, 1967–2009)",WDLI (1983–2003)
WDHS,171,"22 (UHF, until 2009)",WIIM-TV (1986–1992)
WDHN,190,"18 (UHFanalog, 1970–2009)",WDHN-TV (1970–1998)
WDFX-TV,148,"34 (UHFanalog, 1991–2009)",WDAU (1991–1995)
WDCQ-TV,309,"35 (UHF, 1986–2009)",WDCP-TV (1997–2003)
WDCN-LP,131,42 (1989-2007),W06CJ (2007-2008)
WDAM-TV,155,"28 (UHFdigital, 2001–2010)",WDAM (1956–1978)
WCWN,426,"45 (UHF, 1984–2009)",WEWB-TV (1999–2006)
WCWG,576,"20 (UHF, 1985–2009)",WBFX (1996–2000)
WCWF,332,"14 (UHF, 1984–2009)",WIWB (1999–2010)
WCVI-TV,124,"39 (UHF, 1997–2009)",WATU (1997)
WCTI-TV,589,"12 (VHFanalog, 1963–2009)",WNBE-TV (1963–1970)
WCSH,587,"6 (VHFanalog, 1953–2009)",WCSH-TV (1953–1997)
WCPX-TV,510,"* 38 (UHF, 1976–2009)",* '''
WCMZ-TV,258,"28 (UHF, 1980–2008)",WFUM (1980–2010)
WCMH-TV,264,"3 (VHF, 1949–1953)",WLWC (1949–1976)
WCLJ-TV,314,"42 (UHF, 1987–2009)",WCLJ (1987–2008)
WCIX,175,"49 (UHF, 1967–2009)",W49AA (1967–1985)
WCIV,583,"35 (UHF, until 2009)",WBNU (1995–1997)
WCCO-TV,432,"4 (VHF, 1949–2009)",WTCN-TV (1949–1952)
WCBD-TV,581,"2 (VHF, 1954–2009)",WUSN-TV (1954–1971)
WCAX-TV,845,"3 (VHF, 1954–2009)",WMVT (1954–1955)
WBXV-LP,208,Analog: 13 (1989-2013),W13BZ (1989-2001)
WBXP-LP,93,"36 (UHF, 1998",W36AM (1998)
