col0,col1,col2,col3
K. V. Erich,United States,1979-05-07,1960-02-03
K. Sonoda,Mauritius,1975-01-15,1956-09-16
J. Tsuruta,Philippines,1973-03-24,1951-03-25
J. González,Argentina,1990-05-19,1966-01-31
J. Barend,"Avon, New York",1949-11-01,1929-03-27
J. Olin,"Kansas City, Kansas",1904-07-14,1886-03-15
J. Carkeek,Cuba,1877-07-05,1861-01-22
H. Fuyuki,Japan,1980-05-04,1960-05-11
Hayabusa,Tokyo,1987-11-02,1968-11-29
H. Meyers,Baltimore,1990-10-19,1973-12-07
G. Guerrero,United States,1937-09-14,1921-01-11
G. Baba,Tokyo,1960-09-30,1938-01-23
G. Kiniski,"Blaine, Washington",1952-02-13,1928-11-23
F. Segura,Mexico,1934-01-18,1907-11-10
E. III,Mexico,1962-11-13,1940-02-11
E. Kado,Japan,1999-02-18,1976-01-28
D. Funk,"Amarillo, Texas",1943-06-16,1919-05-04
D. V. Erich,Japan,1977-06-11,1958-07-22
D. McShain,"Alvin, Texas",1930-10-30,1912-10-30
D. Quirk,"Taunton, Massachusetts",2002-07-21,1982-07-19
C. Kanyon,"Sunnyside, Queens",1992-04-05,1970-01-04
C. Ca$h,"Glassboro, New Jersey",2001-09-08,1982-07-13
A. Hara,"Isahaya, Nagasaki",1978-06-23,1947-01-08
A. Barr,"Springfield, Oregon",1987-04-02,1966-10-08
A. Gouldie,"Knoxville, Tennessee",1962-11-02,1936-11-22
A. Coage,Alberta,1977-10-23,1943-10-22
A. Tomko,Winnipeg,1954-07-09,1931-11-22
