col0,col1,col2,col3
KOCB,KTUL,1000000,34 (PSIP)
KNTV,Comcast SportsNet Bay Area,103100,11 (PSIP)
KNIC-DT,KMYO,400000,17 (PSIP)
KNBC,KVEA,380000,4 (PSIP)
KMYU,KUTV,3200,12 (PSIP)
KMYT-TV,KOKI-TV,900000,41 (PSIP)
KMYS,KABB,1000000,35 (PSIP)
KMSS-TV,KSHV-TV,1000000,33 (PSIP)
KMEX-DT,KTNQ,392000,34 (PSIP)
KMBD-LD,KJNK-LD,15000,43 (PSIP)
KMAX-TV,KOVR,1000000,31 (PSIP)
KJRH-TV,KFAQ,15900,2 (PSIP)
KICU-TV,KTVU,550000,36 (PSIP)
KHOU,KVUE,25000,11 (PSIP)
KGTV,KZSD-LP,20700,10 (PSIP)
KFTR-DT,KTNQ,400000,46 (PSIP)
KFTH-DT,KQBU-FM,1000000,67 (PSIP)
KFSF-DT,KDTV-DT,150000,66 (PSIP)
KFOR-TV,KAUT-TV,790000,4 (PSIP)
KFMB-TV,KFMB,19800,8 (PSIP)
KEZT-CD,KUVS-DT,4500,23 (PSIP)
KERA-TV,KERA,475000,13 (PSIP)
KENS,KVUE,1000000,5 (PSIP)
