col0,col1,col2,col3,col4,col5,col6,col7
1950 Paris Grand Prix,Talbot-Lago,Delage,R. Sommer,G. Grignard,France,50,9931
1950 Monaco Grand Prix,Alfa Romeo in Formula One,Scuderia Ferrari,J. M. Fangio,J. M. Fangio,Circuit de Monaco,100,3181
1950 Italian Grand Prix,Alfa Romeo in Formula One,Scuderia Ferrari,J. M. Fangio,G. Farina,Italy,80,6300
1949 Buenos Aires Grand Prix,Maserati 4CLT,Maserati 4CLT,A. Ascari,A. Ascari,Argentina,35,4870
1948 San Remo Grand Prix,Maserati in motorsport,Maserati in motorsport,L. Villoresi,A. Ascari,Italy,90,3379
1948 Roussillon Grand Prix,Gordini,Robert Manzon,M. Trintignant,M. Trintignant,France,40,2537
1947 San Remo Grand Prix,Delahaye 135,Alfa Romeo in motorsport,Y. Giraud-Cabantous,Y. Giraud-Cabantous,Italy,25,2624
1947 Italian Grand Prix,Alfa Romeo in motorsport,Alfa Romeo in motorsport,C. F. Trossi,C. F. Trossi,Italy,100,3447
1947 French Grand Prix,Maserati in motorsport,Maserati in motorsport,A. Ascari,L. Chiron,France,70,7288
1946 Roussillon Grand Prix,Maserati 4CL,Maserati 4CL,R. Sommer,J. Wimille,France,68,2217
1946 René le Bègue Cup,Alfa Romeo in motorsport,Talbot-Lago,G. Farina,R. Sommer,France,30,6001
1946 Nice Grand Prix,Alfa Romeo 308,Alfa Romeo,R. Sommer,L. Villoresi,France,65,3218
1946 Marseille Grand Prix,Maserati,Maserati,R. Sommer,R. Sommer,France,35,3588
1939 French Grand Prix,Mercedes-Benz,Auto Union,H. Lang,H. P. Müller,France,51,7816
1937 San Remo Grand Prix,Maserati in motorsport,Maserati in motorsport,A. Varzi,A. Varzi,Italy,30,1862
1933 Nice Grand Prix,Maserati,Bugatti,T. Nuvolari,T. Nuvolari,France,95,3213
1932 Nice Circuit Race,Bugatti,Alfa Romeo,R. Dreyfus,L. Chiron,France,15,3228
1932 Italian Grand Prix,Alfa Romeo in motorsport,Maserati,T. Nuvolari,T. Nuvolari,Italy,83,9994
1930 Monza Grand Prix,Maserati in motorsport,Maserati in motorsport,A. Varzi,A. Varzi,Italy,35,6860
1929 German Grand Prix,Bugatti,Bugatti,L. Chiron,L. Chiron,Germany,18,28265
1928 Italian Grand Prix,Talbot,Alfa Romeo,L. Arcangeli,L. Chiron,Italy,60,9994
1925 Italian Grand Prix,Duesenberg,Alfa Romeo in motorsport,P. Kreis,G. Brilli-Peri,Italy,80,9994
1924 Italian Grand Prix,Alfa Romeo in motorsport,Alfa Romeo in motorsport,A. Ascari,A. Ascari,Italy,80,9994
1924 French Grand Prix,Sunbeam Motor Car Company,Delage,H. Segrave,G. Campari,France,35,23142
1923 French Grand Prix,Fiat,Sunbeam Motor Car Company,P. Bordino,H. Segrave,France,35,22830
1922 French Grand Prix,Fiat,Bugatti,P. Bordino,F. Nazzaro,France,60,13373
1921 French Grand Prix,Duesenberg,Ballot,J. A. Murphy,J. A. Murphy,France,30,17252
1913 French Grand Prix,Delage,Peugot,P. Bablot,G. Boillot,France,29,31620
1912 French Grand Prix,Fiat,Fiat,D. L. Bruce-Brown,G. Boillot,France,20,76989
1910 American Grand Prize,Fiat,Mercedes-Benz,F. Nazzaro,D. Bruce-Brown,United States,24,27800
1908 French Grand Prix,Mercedes,Benz & Cie.,O. Salzer,C. Lautenschlager,France,10,76989
1907 French Grand Prix,Lorraine-Dietrich,Renault,A. Duray,F. Nazzaro,France,10,76989
