col0,col1,col2,col3
L. Clarkson,"Long Beach, California",http://dbpedia.org/resource/Gunshot_wound,1962-04-05
L. R. Hubbard,"Tilden, Nebraska",http://dbpedia.org/resource/Stroke,1911-03-13
K. Ri-se,Japan,http://dbpedia.org/resource/Traffic_collision,1991-08-16
K. Cisyk,Queens,http://dbpedia.org/resource/Breast_cancer,1953-04-04
K. Kaur,British India,http://dbpedia.org/resource/Tetanus,1927-1-1
K. Tsakonas,Athens,http://dbpedia.org/resource/Cancer,1943-1-1
K. Yamada,"Tokyo, Japan",http://dbpedia.org/resource/Heart_attack,1886-06-09
K. Chun-hsiung,Kaohsiung,http://dbpedia.org/resource/Lung_cancer,1945-01-15
K. Petersen,Copenhagen,http://dbpedia.org/resource/Myocardial_infarction,1920-07-01
K. Carlisle,Louisiana,http://dbpedia.org/resource/Congestive_heart_failure,1910-09-03
K. Donovan,Manhattan,http://dbpedia.org/resource/Cancer,1918-01-25
K. Fu,Nanjing,http://dbpedia.org/resource/Myocardial_infarction,1930-10-02
K. Walker,New York,http://dbpedia.org/resource/Brain_tumor,1968-06-19
K. Sung-min,Korea,http://dbpedia.org/resource/Suicide,1973-02-14
K. Milford,"Glen Ridge, New Jersey",http://dbpedia.org/resource/Heart_failure,1951-02-07
K. P. Hall,Pennsylvania,http://dbpedia.org/resource/Opportunistic_infection,1955-05-09
K. Hagen,"Chicago, Illinois",http://dbpedia.org/resource/Esophageal_cancer,1928-04-03
K. Corcoran,California,http://dbpedia.org/resource/Colorectal_cancer,1949-06-10
K. Baker,United States,http://dbpedia.org/resource/Heart_attack,1912-09-30
K. More,England,http://dbpedia.org/resource/Parkinson's_disease,1914-09-20
K. Mars,Chicago,http://dbpedia.org/resource/Pancreatic_cancer,1935-04-04
K. MacDonald,England,http://dbpedia.org/resource/Heart_Attack,1950-11-20
K. McComas,"Holton, Kansas",http://dbpedia.org/resource/Suicide,1916-10-29
K. Weatherwax,Los Angeles,http://dbpedia.org/resource/Myocardial_infarction,1955-09-29
K. Terrell,Georgia,http://dbpedia.org/resource/Arteriosclerosis,1904-04-29
K. Sansom,Utah,http://dbpedia.org/resource/Stroke,1927-04-02
K. Lane,Brooklyn,http://dbpedia.org/resource/Emphysema,1912-12-20
K. Curtis,Colorado,http://dbpedia.org/resource/Heart_Attack,1916-07-02
K. Monteno,Sarajevo,http://dbpedia.org/resource/Pneumonia,1948-09-17
K. Wayne,United States,http://dbpedia.org/resource/Suicide,1945-01-16
K. Andes,New Jersey,http://dbpedia.org/resource/Asphyxiation,1920-07-12
K. Wynn,New York,http://dbpedia.org/resource/Pancreatic_cancer,1916-07-27
K. Sogabe,Japan,http://dbpedia.org/resource/Esophageal_cancer,1948-04-16
K. Yanaga,Fukuoka Prefecture,http://dbpedia.org/resource/Sepsis,1947-04-14
K. Kendall,England,http://dbpedia.org/resource/Leukaemia,1926-5-21
K. Francis,Oklahoma City,http://dbpedia.org/resource/Breast_cancer,1905-01-13
K. E. Kuter,Los Angeles,http://dbpedia.org/resource/Pulmonary_complications,1925-04-25
K. Aldridge,"Tallahassee, Florida",http://dbpedia.org/resource/Heart_attack,1917-07-09
K. Paxinou,Greece,http://dbpedia.org/resource/Cancer,1900-12-17
K. Minner,New York City,http://dbpedia.org/resource/Myocardial_infarction,1892-01-03
K. Joosten,"Chicago, Illinois",http://dbpedia.org/resource/Lung_cancer,1939-12-20
K. Williams,"Butte, Montana",http://dbpedia.org/resource/Myocardial_infarction,1879-05-31
K. Maguire,New York City,http://dbpedia.org/resource/Cancer_of_the_esophagus,1925-09-27
K. Freeman,Chicago,http://dbpedia.org/resource/Lung_cancer,1919-02-17
K. Álvarez,Mexico,http://dbpedia.org/resource/Respiratory_failure,1972-10-15
K. Swenson,Brooklyn,http://dbpedia.org/resource/Myocardial_infarction,1908-07-23
K. Astel,German Empire,http://dbpedia.org/resource/Suicide,1898-02-26
K. Black,Illinois,http://dbpedia.org/resource/Ampullary_cancer,1939-07-01
K. Shiozawa,Japan,http://dbpedia.org/resource/Cerebral_contusion,1954-01-28
K. Fujiwara,Japan,http://dbpedia.org/resource/Heart_attack,1905-01-15
J. Marlowe,"St. Cloud, Minnesota",http://dbpedia.org/resource/Parkinson's_disease,1903-11-06
J. Allyson,The Bronx,http://dbpedia.org/resource/Bronchitis,1917-10-07
J. Ichikawa,Japan,http://dbpedia.org/resource/Cerebral_hemorrhage,1948-11-25
J. Tafel,Switzerland,http://dbpedia.org/resource/Suicide,1862-06-02
J. Carry,Illinois,http://dbpedia.org/resource/Pancreatic_cancer,1952-03-12
J. Alemán,Mexico,http://dbpedia.org/resource/Lung_cancer,1933-11-29
J. Vega,Philippines,http://dbpedia.org/resource/Pneumonia,1968-05-21
J. London,"Santa Rosa, California",http://dbpedia.org/resource/Cardiac_arrest,1926-09-26
J. Harris,"Grosse Pointe, Michigan",http://dbpedia.org/resource/Congestive_heart_failure,1925-12-02
J. Bovasso,Brooklyn,http://dbpedia.org/resource/Cancer,1930-08-01
J. Eltinge,Massachusetts,http://dbpedia.org/resource/Cerebral_hemorrhage,1881-05-14
J. Bruns,Missouri,http://dbpedia.org/resource/Alcohol_poisoning,1895-0-0
J. Berry,Poitiers,http://dbpedia.org/resource/Myocardial_infarction,1883-02-09
J. Holliday,New York City,http://dbpedia.org/resource/Breast_cancer,1921-06-21
J. Garland,"Grand Rapids, Minnesota",http://dbpedia.org/resource/Barbiturate_overdose,1922-06-10
J. Carne,England,http://dbpedia.org/resource/Pneumonia,1939-04-27
J. Malina,Free State of Prussia,http://dbpedia.org/resource/Lung_disease,1926-06-04
J. Lowry,United States,http://dbpedia.org/resource/Heart_Attack,1890-07-27
J. Evelyn,South Dakota,http://dbpedia.org/resource/Cancer,1909-03-20
J. Anderson,Adelaide,http://dbpedia.org/resource/Pneumonia,1897-02-10
J. L. Galiardo,Spain,http://dbpedia.org/resource/Lung_cancer,1940-03-02
J. Wilker,Brazil,http://dbpedia.org/resource/Heart_Attack,1944-08-20
J. Ferrer,"San Juan, Puerto Rico",http://dbpedia.org/resource/Colon_cancer,1912-01-08
J. Baker,"St. Louis, Missouri",http://dbpedia.org/resource/Cerebral_hemorrhage,1906-06-03
J. Kearns,Salt Lake City,http://dbpedia.org/resource/Cerebral_hemorrhage,1907-02-12
J. A. Bennett,London,http://dbpedia.org/resource/Suicide_by_hanging,1968-0-0
J. Wilker,Brazil,http://dbpedia.org/resource/Heart_Attack,1944-08-20
J. Ferrer,"San Juan, Puerto Rico",http://dbpedia.org/resource/Colon_cancer,1912-01-08
J. Russek,Mexico,http://dbpedia.org/resource/Heart_attack,1932-01-04
J. Arvizu,Mexico,http://dbpedia.org/resource/Heart_failure,1932-07-23
J. Harris,The Bronx,http://dbpedia.org/resource/Cardiovascular_disease,1914-11-06
J. Hale,Canada,http://dbpedia.org/resource/Suicide,1891-03-21
J. Brandis,"Danbury, Connecticut",http://dbpedia.org/resource/Suicide_by_hanging,1976-04-13
J. Adams,England,http://dbpedia.org/resource/Stroke,1931-02-14
J. Polito,Pennsylvania,http://dbpedia.org/resource/Multiple_myeloma,1950-12-29
J. Weissmuller,Austria-Hungary,http://dbpedia.org/resource/Pulmonary_edema,1904-06-02
J. Sekka,Senegal,http://dbpedia.org/resource/Lung_cancer,1934-07-22
J. Olson,New York City,http://dbpedia.org/resource/Cerebral_hemorrhage,1910-05-22
J. Lee,California,http://dbpedia.org/resource/Heart_attack,1898-07-04
J. Downs,Brooklyn,http://dbpedia.org/resource/Cancer,1913-10-10
J. Cash,"Kingsland, Arkansas",http://dbpedia.org/resource/Diabetes,1932-02-26
J. Wright,"Troy, New York",http://dbpedia.org/resource/Tuberculosis,1811-02-11
J. Wayne,"Winterset, Iowa",http://dbpedia.org/resource/Stomach_cancer,1907-05-26
J. Vernon,Canada,http://dbpedia.org/resource/Heart_surgery,1932-02-24
J. Trudell,Nebraska,http://dbpedia.org/resource/Terminal_cancer,1946-02-15
J. Thaw,England,http://dbpedia.org/resource/Oesophageal_cancer,1942-01-03
J. Spencer,New York,http://dbpedia.org/resource/Heart_Attack,1946-12-20
J. Smith,Los Angeles,http://dbpedia.org/resource/Cirrhosis_of_the_liver,1931-03-06
J. S. Martin,England,http://dbpedia.org/resource/Parkinson's_disease,1926-04-01
J. Russell,California,http://dbpedia.org/resource/Emphysema,1921-01-03
J. Ritter,"Burbank, California",http://dbpedia.org/resource/Aortic_dissection,1948-09-17
J. P. Law,Hollywood,http://dbpedia.org/resource/Pancreatic_cancer,1937-09-07
J. Mitchum,Connecticut,http://dbpedia.org/resource/Stroke,1919-09-06
J. McLaughlin,"Providence, Rhode Island",http://dbpedia.org/resource/Prostate_cancer,1927-03-29
J. McIntire,Washington,http://dbpedia.org/resource/Emphysema,1907-06-27
J. McGiver,New York City,http://dbpedia.org/resource/Myocardial_infarction,1913-11-05
J. L. Clive,Berlin,http://dbpedia.org/resource/Myocardial_infarction,1924-09-25
J. Lennon,Liverpool,http://dbpedia.org/resource/Death_of_John_Lennon,1940-10-09
J. Laurie,Dumfries,http://dbpedia.org/resource/Emphysema,1897-03-25
J. Junkin,Ealing,http://dbpedia.org/resource/Asthma,1930-01-29
J. Inman,Lancashire,http://dbpedia.org/resource/Hepatitis,1935-06-28
J. Huston,"Nevada, Missouri",http://dbpedia.org/resource/Emphysema,1906-08-05
J. Hoyt,New York,http://dbpedia.org/resource/Lung_cancer,1905-10-05
J. H. Northrop,United States,http://dbpedia.org/resource/Suicide,1891-07-05
J. Howard,Cleveland,http://dbpedia.org/resource/Myocardial_infarction,1913-04-14
J. Houseman,Bucharest,http://dbpedia.org/resource/Spinal_cancer,1902-09-22
J. Hodiak,Pennsylvania,http://dbpedia.org/resource/Coronary_thrombosis,1914-04-16
J. Gregson,England,http://dbpedia.org/resource/Myocardial_infarction,1919-03-15
J. Gilbert,"Logan, Utah",http://dbpedia.org/resource/Myocardial_infarction,1897-7-10
J. Forsythe,New Jersey,http://dbpedia.org/resource/Pneumonia,1918-01-29
J. Ford,"Cape Elizabeth, Maine",http://dbpedia.org/resource/Stomach_cancer,1894-02-01
J. Fiedler,"Platteville, Wisconsin",http://dbpedia.org/resource/Cancer,1925-02-03
J. Derek,Hollywood,http://dbpedia.org/resource/Cardiovascular_disease,1926-08-12
J. Dehner,New York,http://dbpedia.org/resource/Diabetes,1915-11-23
J. Dall,New York City,http://dbpedia.org/resource/Myocardial_infarction,1918-5-26
J. Collins,Alabama,http://dbpedia.org/resource/Cancer,1913-09-20
J. Cassavetes,New York City,http://dbpedia.org/resource/Cirrhosis,1929-12-09
J. Candy,Canada,http://dbpedia.org/resource/Myocardial_infarction,1950-10-31
J. Bromfield,"South Bend, Indiana",http://dbpedia.org/resource/Renal_failure,1922-06-11
J. Bloom,California,http://dbpedia.org/resource/Heart_failure,1944-02-19
J. Berry,The Bronx,http://dbpedia.org/resource/Pleurisy,1917-09-06
J. Beal,United States,http://dbpedia.org/resource/Stroke,1909-08-13
