col0,col1,col2,col3
T. Gibbons,"Saint Paul, Minnesota",1891-03-22,1960-11-19
T. Freeman,"Hot Springs, Arkansas",1904-01-22,1986-02-20
T. Farr,Wales,1913-03-12,1986-03-01
T. Davies,Wales,1920-05-07,1988-12-0
T. Burns,Ontario,1881-06-17,1955-05-10
T. Sharkey,Ireland,1873-11-26,1953-4-17
T. Paddock,Redditch,1822-1-1,1863-06-30
T. O'Rourke,Boston,1856-5-13,1936-6-19
T. Molineaux,United States,1784-3-23,1818-08-04
T. McCormick,Dundalk,1890-08-08,1916-07-06
T. Lees,Australia,1858-06-16,1947-07-11
T. Hyer,New York City,1819-1-1,1864-6-26
T. Heeney,"Gisborne, New Zealand",1898-05-18,1984-06-15
T. Gummer,Rotherham,1894-0-0,1982-0-0
T. Cribb,Bristol,1781-07-08,1848-05-11
T. Berry,"Poplar, London",1890-02-14,1943-0-0
T. Allen,Birmingham,1840-04-01,1904-04-05
T. Larkin,"Garfield, New Jersey",1917-11-11,1991-12-10
T. Wood,Camden Town,1951-08-10,2010-9-0
T. Jones,Brooklyn,1928-03-14,1994-08-20
T. J. Fox,United States,1907-04-02,1954-04-06
T. Flowers,"Camilla, Georgia",1895-08-05,1927-11-16
T. Csík,Jászberény,1927-9-2,1976-6-22
T. Mitri,Trieste,1926-7-12,2001-2-12
T. Petersen,Horsens,1902-5-28,1964-1-1
T. Ahlqvist,Borås,1907-04-20,1983-03-20
