col0,col1,col2,col3,col4
D. Wilson,Auckland,Swinton Lions,2011-9-4,1983-5-22
C. Greenwood,Cape Town,Wakefield Trinity Wildcats,1998-10-3,1936-1-25
C. Sullivan,Cardiff,Hull F.C.,1985-10-8,1943-4-9
C. Churchill,Australia,South Sydney Rabbitohs,1985-8-9,1927-1-21
C. Thomas,Cardiff,Barbarian F.C.,1996-9-5,1929-01-28
C. Seeling,Whanganui,Wigan Warriors,1956-5-29,1883-5-14
B. Davies,Brisbane,Past Brothers,2012-11-14,1930-5-16
B. Clay,Sydney,St. George Dragons,1987-1-1,1935-1-1
B. Bevan,"Bondi, New South Wales",Sydney Roosters,1991-6-3,1924-6-24
B. Schultz,"Balmain, New South Wales",Balmain Tigers,1975-2-25,1891-1-1
B. Cooke,Auckland,Richmond Rovers,1977-9-29,1901-10-5
B. Cook,Wairoa,Leeds Rhinos,1986-12-19,1923-12-24
B. Vivier,South Africa national rugby union team,Blue Bulls,2009-10-18,1927-03-01
A. v. Heerden,Boshof,Wigan Warriors,1965-10-14,1898-3-10
A. Kelly,Petone,St Helens RLFC,1965-1-1,1886-12-24
A. Gray,Leeds,Wakefield Trinity Wildcats,1991-8-25,1917-9-4
A. Francis,Whanganui,Wigan Warriors,1957-6-15,1882-6-8
A. Beetson,"Roma, Queensland",Sydney Roosters,2011-12-1,1945-1-22
A. Starks,Castleford,Hull Kingston Rovers,1952-1-1,1873-8-11
A. Ellaby,Liverpool,St Helens RLFC,1993-1-1,1902-11-24
A. Kersey-Brown,Wales,Huddersfield Giants,2015-11-30,1942-1-1
A. Pepperell,"Seaton, Cumbria",Huddersfield Giants,1986-1-1,1922-1-1
A. Skene,Cape Town,Wakefield Trinity Wildcats,2001-8-13,1932-10-2
A. Prescott,Widnes,St Helens RFC,1998-9-20,1927-6-17
É. Ponsinet,Carcassonne,AS Carcassonne,2006-10-22,1923-1-1
