col0,col1,col2,col3
Rumplestiltskin,Danzig,Mr. Prospector,S. Niarchos
Rule of Law,Mr. Prospector,Royal Academy,R. Sangster
Rule,Fusaichi Pegasus,Personal Flag,W. Farm
Ruken,Nasrullah,Your Host,L. R. Rowan
Royal Tourist,St. Simon,Meddler,H. P. Whitney
Royal Orbit,Nearco,War Admiral,L. B. Mayer
Royal Glint,Princequillo,Hail To Reason,C. Farm
Royal Charger,Pharos,Solario,"Sir John Jarvis, 1st Baronet"
Royal Anthem,Nureyev,Ack Ack,J. A. Franks
Rowena,Sir Peter Teazle,Waxy,"George FitzRoy, 4th Duke of Grafton"
Round Pond,Deputy Minister,Trempolino,T. McCaffery
Rosemont,Sweep,Colin,"William du Pont, Jr."
Roseate Tern,Hethersett,High Top,"Henry Herbert, 7th Earl of Carnarvon"
Rock of Gibraltar,Danzig,Be My Guest,A. O'Brien
Rock Sand,Springfield,St. Simon,S. J. Miller
Rock Hard Ten,Roberto,Mr. Prospector,M. A. Pickens
Roberto,Turn-To,Nashua,J. W. Galbreath
Riverman,Nasrullah,Prince John,H. F. Guggenheim
Riva Ridge,Turn-To,Heliopolis,C. Chenery
Rite of Passage,Storm Cat,Kris S,N. Park
Risen Star,Bold Ruler,His Majesty,Arthur B. Hancock III
Riddlesworth,Orville,Soothsayer,"George Child Villiers, 5th Earl of Jersey"
Rhythm,Raise a Native,Northern Dancer,O. M. Phipps
Rhadamanthus,Herod,Sweetbriar,"Richard Grosvenor, 1st Earl Grosvenor"
Reviewer,Nasrullah,Hasty Road,O. Phipps
Revidere,Bold Ruler,Princequillo,C. Farm
Remembrancer,Imperator,Eclipse,"John Bowes, 10th Earl of Strathmore and Kinghorne"
Rejected,Blue Larkspur,Blenheim II,K. Ranch
Reine de Saba,Northern Dancer,Sicambre,J. Wertheimer
Regret,Ben Brush,Hamburg,H. P. Whitney
Regal Rose,Danzig,Conquistador Cielo,C. P. Stud
Regal Classic,Northern Dancer,Nodouble,S. Farm
Refuse To Bend,Northern Dancer,Gulch,W. Haefner
Reference Point,Never Bend,Habitat,L. Freedman
Red Ransom,Hail To Reason,Damascus,P. Mellon
Red God,Nearco,Menow,H. F. Guggenheim
Red Bullet,Fappiano,Caro,A. Springs
Red Bloom,Sharpen Up,Polar Falcon,C. P. Stud
Reams of Verse,Northern Dancer,Roberto,J. Farms
Real Delight,Bull Dog,Blue Larkspur,C. Farm
Raja Baba,Nasrullah,My Babu,M. G. Phipps
Raintrap,Blushing Groom,Roberto,J. Farms
Rainbows for Life,Northern Dancer,Halo,S. Farm
Rainbow View,Roberto,Nureyev,A. Stable
Rail Link,Danehill,Theatrical,J. Farms
Rahy,Red God,Halo,Hill 'n' Dale Farms
Ragusa,Tenerani,Ambiorix,H. F. Guggenheim
Ragstone,Ribot,Right Royal,"Bernard Fitzalan-Howard, 16th Duke of Norfolk"
Rags to Riches,Seattle Slew,Deputy Minister,S. G. Stables
Rachel's Valentina,A.P. Indy,Medaglia d'Oro,S. Stables
R. Thomas,Nasrullah,Count Fleet,C. Farm
Quill,Prince Rose,Count Fleet,R. N. Webster
Quiff,Northern Dancer,Selkirk,J. Farms
Quiet American,Mr. Prospector,Dr. Fager,T. Stable
Quicken Tree,Royal Charger,Counterpoint,L. R. Rowan
Quick As Lightning,Tom Fool,Bold Ruler,O. M. Phipps
Questing,Danzig,Seeking the Gold,D. Stud
Quest for Fame,Blushing Groom,Green Dancer,J. Farms
Quadrangle,Mahmoud,Bull Lea,P. Mellon
Pulpit,Seattle Slew,Mr. Prospector,C. Farm
Pucker Up,Heliopolis,Bull Lea,D. Farm
Prunella,Herod,Snap,"Augustus FitzRoy, 3rd Duke of Grafton"
Provoke,Hyperion,Tantieme,J. Astor
Prove Out,Ribot,Bold Venture,K. Ranch
Proud Spell,Gone West,Langfuhr,B. C. Jones
Prospectors Delite,Raise a Native,Hoist the Flag,William S. Farish III
Private Account,Sword Dancer,Buckpasser,O. Phipps
Priolo,Northern Dancer,Irish River,C. Goulandris
Princessnesian,Prince Rose,Polynesian,W. H. Perry
Prince of Penzance,Be My Guest,Mr Prospector,Matamata
Prince of Dance,Northern Dancer,English Prince,B. Stud
Prince Rose,Prince Palatine,Gay Crusader,"Frederick Lambton, 4th Earl of Durham"
Prince Palatine,St. Simon,Isinglass,"William Walker, 1st Baron Wavertree"
