col0,col1,col2,col3
MOL Group,Budapest,31471,24633000000
ME Productions,Florida,70,16000000
MEG Energy,"Calgary, Alberta, Canada",485,1050504000
MDU Resources,North Dakota,9133,4670000000
MDC Partners,New York City,5690,1326000000
MANAŞ,Ankara,2700,414000000
MAB Paints,Pennsylvania,730,146000000
M-Brain Group,Helsinki,390,30300000
Müller,Ulm,31731,3357000000
MøllerGruppen,Oslo,2222,11479
Mövenpick Hotels & Resorts,"Baar, Switzerland",16000,978800000
Mäurer & Wirtz,North Rhine-Westphalia,400,158000000
Lürssen,Bremen-Vegesack,1635,829
Luxottica,Milan,79000,8837000000
Lupin Limited,Maharashtra,15000,2060000000
Lumene,Espoo,530,90000000
Lululemon Athletica,British Columbia,2861,1370000000
Lukoil Serbia,Belgrade,176,264710000
Lukoil,Moscow,110000,144170000000
Lucent,New Jersey,30500,9440000000
LoyaltyOne,Ontario,1500,44000000
Louisiana-Pacific,"Nashville, Tennessee",3900,1357000000
Louis Vuitton,Paris,121289,10000000000
Louis Dreyfus Company,Amsterdam,22000,55700000000
Lotte,Korea,5000,3931896
"Lothian, Borders & Angus Co-operative Society",Galashiels,1234,122000000
Longines,Saint-Imier,340,70300000
Lolly Wolly Doodle,"Lexington, North Carolina",250,11000000
Lojas Riachuelo,"Natal, Brazil",40000,1300000000
Lojas Americanas,Rio de Janeiro,18775,5600000000
Logicalis,"Slough, Berkshire",3500,1050000000
Logibec Groupe Informatique,Montreal,420,67600000
Lloyds Banking Group,London,88000,11832100000
LiuGong,Guangxi,19000,17798
Lithuanian Railways,Vilnius,10505,500000000
Lister Housing Co-operative,Edinburgh,4,708000
List of assets owned by Berkshire Hathaway,Nebraska,331000,210820000000
List of Yamaha guitars,Hamamatsu,26803,4676000000
Linx,Gothenburg,170,426800000
LinkedIn,California,9732,3000000000
Lingo24,Edinburgh,230,9
Linear Technology,"Milpitas, California",4865,1388
Line Corporation,Tokyo,644,120
Lindt & Sprüngli,"Kilchberg, Zürich",10712,3386000000
Lindström,Helsinki,3000,301000000
Lindex,Gothenburg,5000,234000000
Lincoln Snacks Company,"Lincoln, Nebraska",114,45000000
Linc Energy,Brisbane,360,124370000
Lillehammer Olympiapark,Lillehammer,50,56000000
Light S.A.,Rio de Janeiro,3732,3100000000
Lifeway Foods,Illinois,200,58115878
