col0,col1,col2,col3
コレクション,Suicidal Tendencies,13,2837
…on the Radio,Nelly Furtado,Turn Off the Light,235
Ẁurdah Ïtah,Magma,Mëkanïk Dëstruktïẁ Kömmandöh,2344
ΤΟΣΑ ΘΑ ΣΟΥ ΠΩ,Dispero Ras Siento,ΑΓΑΠΗΜΕΝΟ ΜΟΥ ΓΑΡΔΟΥΜΠΙ,3000
ΠΟΣΟ ΛΥΠΑΜΑΙ,Dispero Ras Siento,HIP-HOP SHOW,3534
Ο Κακός Ο Λύκος,Dispero Ras Siento,TA REGGAETIKA,2933
ΝHΠIAΓΩΓEION: Live in Europe 1988,Savage Republic,Customs,3812
Κατά τον δαίμονα εαυτού,Rotting Christ,Aealo,3359
ΑΓΑΠΗΜΕΝΟ ΜΟΥ ΓΑΡΔΟΥΜΠΙ,Dispero Ras Siento,ΠΟΣΟ ΛΥΠΑΜΑΙ,1358
Živě!,Kabát,Má Jí Motorovou,1988
Živák,Horkýže Slíže,Ritero Xaperle Bax,4263
Živo i akustično,Električni Orgazam,Warszawa '81,4344
Živa sila,Klopka Za Pionira,Dodole,2506
Žeravé znamenie osudu,Tublatanka,Skúsime to cez vesmír,2853
Žena bez imena,Vlado Georgiev,Navika,2796
Žar Ptica,Aleksandra Radović,Dommino,3082
Študentská láska,Marika Gombitová,Boľavé námestie,202
Štrajk mozga,Edo Maajka,Balkansko a naše,2563
Što te tata pušta samu,Griva,Griva,2015
Šta bi dao da si na mom mjestu,Bijelo Dugme,Kad bi' bio bijelo dugme,2062
Šlágry,Master's Hammer,Jilemnický okultista,2404
Šest dana juna,Idoli,Čokolada,1879
Šamar,Hladno Pivo,Istočno od Gajnica,2845
Şımarık,Tarkan,Salına Salına Sinsice,181
Şıkıdım,Tarkan,Şımarık,195
Şans,Murat Boz,Maximum,3398
Řád a trest,!T.O.O.H.!,Pod Vládou Biče,2203
İçinde Aşk Var,Işın Karaca,Anadilim Aşk,2715
"İtalyan, rum casusu çikti",Elio e le Storie Tese,The Los Sri Lanka Parakramabahu Brothers Featuring Elio e le Storie Tese,3738
İsyankar,Mustafa Sandal,Araba 2004,231
İste,Mustafa Sandal,Seven New Version,2413
Čuvar tajni,Kraljevski Apartman,Best of Live,2646
Čumil,Iné Kafe,Vitaj!,2734
Čokolada,Idoli,Odbrana i poslednji dani,2595
Čert Na Koze Jel,Kabát,Země Plná Trpaslíků,2714
Ćiribiribela,Bijelo Dugme,"Mramor, kamen i željezo",2376
Þvílíkt Og Annað Eins,Mezzoforte,Í Hakanum/Octopus,2360
Þrír blóðdropar,Megas,Hættuleg hljómsveit & glæpakvendið Stella,3734
Üç Kalp,Hepsi,Yalan,231
Üdü Ẁüdü,Magma,Live/Hhaï,2542
Überlin,R.E.M.,Mine Smell Like Honey,255
Überjam Deux,John Scofield,A Moment's Peace,3709
Überjam,John Scofield,Works for Me,3510
Über Alles,Hanzel Und Gretyl,Transmissions From Uranus,2722
Über,Sturmgeist,Meister Mephisto,2792
Úsmev,Modus,The Best of 1979–1988: Vol 2,3950
Último Bondi a Finisterre,Patricio Rey y sus Redonditos de Ricota,Luzbelito,2659
ØØ Void,Sunn O))),The Grimmrobe Demos,3511
Ø,Underoath,Lost in the Sound of Separation,2322
Özgürlük İçimizde,Tarkan,Hüp,202
Ördögi angyal,Magdolna Rúzsa,A döntőkben elhangzott dalok,3060
Ölürüm Sana,Tarkan,A-Acayipsin,2887
Ödemarkens son,Vintersorg,Till fjälls,2643
Õhus on Smilers,Smilers,Esimene Eesti tuur,2423
