col0,col1,col2,col3,col4
WXSP-CD,1986-07-23,WXSP: Xtreme and SPorts (for local sports coverage),Class A,(both alternates)
WVII-TV,1965-10-15,VII = 7 inRoman numerals,DT,WFVX-LD22.2 Bangor
WQPT-TV,1983-11-02,Public,Non-commercial educational,W48CK-DSterlingDigital
WIPR-TV,1958-01-06,Instrucción,Full service,"WIPM-TV 35 /Virtual: 3 (PSIP),Mayagüez"
WFVX-LD,2003-04-13,refers toFox,LP,WVII-TV7.2 Bangor
WBGR-LP,1995-08-28,BanGoR,Low-power,Channel 12 on Time Warner Cable
KSBO-CD,1998-10-21,K San Luis OBispO,Class A,(See article)
KEYC-TV,1960-10-05,KEY City (city slogan,DT,see article
KESQ-TV,1968-10-05,(former owner),DT,(K15FC 15 and K27DS 27Yucca Valley)
KAAL,1953-08-17,Austin/Albert Lea,DT,(33 Mason City)
