col0,col1,col2,col3,col4
Siege of Hull,"Hull, England",First English Civil War,Parliamentarian victory,"1,000 cavalry"
Siege of Huajuapan de León,Mexico,Mexican War of Independence,Mexican rebel victory,"1,500"
Siege of Homs,Syria,Syrian Civil War,Syrian Army victory,200–300 tanks
Siege of Hlukhiv,Ukraine,Russo-Polish War,Russo-Cossacks victory,"45,000"
Siege of Hippo Regius,Africa,Germanic Wars,Roman victory,Unknown
Siege of Hijiyama,Japan,Sengoku period,Oda victory; castle destroyed,"1,000+"
Siege of Heidelberg,Electorate of the Palatinate,Thirty Years' War,Decisive Imperial-Spanish victory,"Approx: 15,000–21,000"
Siege of Hataya,Japan,Sengoku period,Siege succeeds; castle falls to Western Army,"20,000"
Siege of Hasedō,"Yamagata, Yamagata",Sengoku period,Tokugawavictory,"25,000-30,000"
Siege of Harfleur,France,Hundred Years' War,English victory,200 bowmen
Siege of Hameln,Hanover,Fourth Coalition,*surrender of the Prussian garrison,"10,000, 175 cannons"
Siege of Hainburg,Lower Austria,Austrian-Hungarian War,"Holy Roman Victory, Hungarians regroup atPressburg",1000 cavalry
Siege of Haddington,"Haddington, East Lothian",Anglo-Scottish Wars,Scottish victory; Scotland claimed back Haddington,5000–6000
Siege of Hachigata,Japan,Sengoku period,Toyotomivictory,"35,000"
Siege of Hachigata,Musashi province,Sengoku period,Hōjō victory,6000
Siege of Haarlem,Haarlem,Eighty Years' War,Spanish victory,(William the Silent)
Siege of Hüningen,Alsace,French Revolutionary Wars,Austrian victory,"10,000"
Siege of Güns,Kingdom of Hungary,Little War in Hungary,"Nominal victory, but a practical defeat for the Ottomans","120,000–200,000"
Siege of Gvozdansko,Gvozdansko Castle,Croatian–Ottoman Wars,Ottoman victory,*(30 men by the end of the siege)
Siege of Gundishapur,Khuzestan Province,Muslim conquest of Khuzestan,Muslim victory,Unknown
Siege of Groningen,Groningen,Franco-Dutch War,Dutch victory,"24,000"
Siege of Groenlo,Gelderland,Franco-Dutch War,Surrender of Groenlo,"100,000"
Siege of Groenlo,Netherlands,Eighty Years' War,Dutch victory,"1,200 infantry (Grol)"
Siege of Groenlo,Netherlands,Dutch Revolt,1st Siege: Spanish victory,"1,300-1,400"
Siege of Groenlo,Netherlands,Eighty Years' War,Dutch-English victory,"1,400 cavalry"
Siege of Groenlo,Netherlands,Eighty Years' War,Spanish victory,(In Groenlo)
Siege of Grave,Netherlands,Eighty Years' War,Anglo-Dutch victory,"1,500 (Grave),"
Siege of Grand Pré,Nova Scotia,Father Le Loutre’s War,British victory,"300 Mi'kmaq, Maliseet, and Acadians"
Siege of Golubac,Golubac,Ottoman–Hungarian Wars,*Ottomans invade Bosnia,"15–20,000"
Siege of Godesberg,Electorate of Cologne,Cologne War,Catholic victory,"""... a strong force of Dutch"" mercenaries (approx. 180 troops from the Netherlands)"
Siege of Gloucester,Gloucester,First English Civil War,Decisive Parliamentarian victory,"1,500 regular troops"
Siege of Glatz,Kłodzko,Seven Years' War,Austrian victory,"3,200"
Siege of Gingee,Gingee,Imperial Maratha Conquests,Mughal Victory.,Unknown
Siege of Gijón,Asturias,Spanish Civil War,Republican victory,1 battleship
Siege of Giarabub,Libya,Western Desert Campaign,British victory,1 augmented infantry battalion
Siege of Genoa,Genoa,Second Coalition,Austrian tactical victory,"18,000"
Siege of Gaza,Gaza City,Wars of Alexander the Great,Macedonian victory.,"15,000"
Siege of Ganja,"Ganja, Azerbaijan",Nader's Campaigns,Persian victory,"14,000"
Siege of Gandesa,Catalonia,Spanish Civil War,Francoist victory,50th Division
Siege of Galway,Galway,Irish Confederate Wars,English Parliamentarians take Galway after a nine-month siege,"2000 soldiers and civilian population, 3000 more soldiers nearby"
Siege of Gaeta,Gaeta,Expedition of the Thousand,Sardinian victory,10 ships
