col0,col1,col2,col3,col4,col5,col6,col7
J. Spencer,England,1935-09-18,1935-09-18,"1969, 1971, 1977",62,2,147
J. Pulman,Devon,1923-12-12,1923-12-12,1964-1968 (7 times),9,7,130
J. Parrott,Lancashire,1964-05-11,1964-05-11,1991,221,2,147
J. Higgins,Scotland,1975-05-18,1975-05-18,"1998,2007,2009,2011",604,1,147
J. Johnson,Bradford,1952-07-29,1952-07-29,1986,49,5,141
G. Dott,Larkhall,1977-05-12,1977-05-12,2006,181,2,147
F. Davis,Derbyshire,1913-08-14,1913-08-14,"1948, 1949, 1951",24,4,140
D. Taylor,County Tyrone,1949-01-19,1949-01-19,1985,79,2,141
C. Thorburn,British Columbia,1948-01-16,1948-01-16,1980,92,1,147
C. Melling,Keighley,1979-01-27,1979-01-27,(WEPF Eight-ball Pool World Champions),18,87,137
A. Higgins,Belfast,1949-03-18,1949-03-18,"1972,1982",81,2,142
