col0,col1,col2,col3
Ohlone/Chynoweth–Almaden,Almaden,Ohlone/Chynoweth,3540
Ofoten Line,Riksgränsen Station,Port of Narvik,43000
Odsherred Line,Nykøbing Sjælland,Holbæk,49400
Odenwald Railway,Groß-Umstadt Wiebelsbach station,Darmstadt Hauptbahnhof,31900
Odakyū Tama Line,Karakida Station,Shin-Yurigaoka Station,10600
Odakyū Odawara Line,"Odawara, Kanagawa",Shinjuku Station,82500
Odakyū Tama Line,Karakida Station,Shin-Yurigaoka Station,10600
Odakyū Odawara Line,"Odawara, Kanagawa",Shinjuku Station,82500
Obama Line,Higashi-Maizuru Station,Tsuruga Station,84300
O-Bahn Busway,Tea Tree Plaza Interchange,Hackney Road,12000
Nærum Line,Nærum,Jægersborg station,7800
Nuremberg–Erfurt high-speed railway,Ebensfeld,Erfurt Hauptbahnhof,83000
Nuremberg–Bamberg railway,Bamberg station,Nürnberg Hauptbahnhof,62400
Nuremberg–Augsburg railway,Augsburg Hauptbahnhof,Nürnberg Hauptbahnhof,137100
Nuremberg–Erfurt high-speed railway,Ebensfeld,Erfurt Hauptbahnhof,83000
Nuremberg–Bamberg railway,Bamberg station,Nürnberg Hauptbahnhof,62400
Nuremberg–Augsburg railway,Augsburg Hauptbahnhof,Nürnberg Hauptbahnhof,137100
Numedal Line,Rødberg,Kongsberg Station,92800
Novoli-Gagliano del Capo railway,Gagliano Leuca railway station,Novoli railway station,75000
Novara–Varallo railway,Varallo Sesia,Novara,54000
Novara–Alessandria railway,Alessandria,Novara,67000
Novara–Varallo railway,Varallo Sesia,Novara,54000
Novara–Alessandria railway,Alessandria,Novara,67000
Nouméa-Païta railway,Païta,Nouméa,29000
Norwich and Westerly Railway,"Westerly, Rhode Island","Norwich, Connecticut",34761
North–South connection,Brussels-South railway station,Brussels-North railway station,3800
North–South Railway,Saigon Railway Station,Hanoi Railway Station,1726000
Northwest Line,Kalundborg,Roskilde,79300
Northstar Line,Big Lake,Target Field,64373
Northport Traction Company,"Northport, New York","East Northport, New York",4409
Northfield railway line,Northfield railway station,Adelaide railway station,14300
Northern Line,Chiang Mai Railway Station,Hua Lamphong Railway Station,751000
Northern Lights Express,"Duluth, Minnesota","Minneapolis, Minnesota",249448
Northeastern Line,Thanaleng Railway Station,Ban Phachi Junction,575000
Northeast Corridor,Union Station,South Station,729515
Northampton Loop Line,West Coast Main Line,West Coast Main Line,37014
North Wales Coast Line,Holyhead railway station,Crewe railway station,135796
North South MRT Line,Marina Bay MRT Station,Jurong East MRT Station,44000
North Side Main Line,Merchandise Mart,Howard,16576
"North Line, Chennai Suburban",Bitragunta,Moore Market,82000
North Island Main Trunk,Auckland,Wellington,681000
North East MRT Line,Punggol MRT Station,HarbourFront MRT Station,20000
"North Coast railway line, New South Wales",Roma Street railway station,Maitland railway station,795000
North Central Service,Antioch,Union Station,89640
North-West T-way,"Rouse Hill, New South Wales",Parramatta railway station,24000
North-South Corridor Line,Munshi Pulia metro station,Chaudhary Charan Singh International Airport metro station,22878
North-Link Line,Hualien Station,Su'aoxin Station,79200
North–South connection,Brussels-South railway station,Brussels-North railway station,3800
North–South Railway,Saigon Railway Station,Hanoi Railway Station,1726000
Norristown High Speed Line,Norristown Transportation Center,69th Street Transportation Center,21565
Nordland Line,Bodø Station,Trondheim Central Station,729000
Nocera Inferiore–Mercato San Severino railway,Mercato San Severino,Nocera Inferiore,12000
Nishitetsu Tenjin Ōmuta Line,Ōmuta Station,Nishitetsu Fukuoka,74800
Nishitetsu Kaizuka Line,Nishitetsu Shingū Station,Kaizuka Station,11000
Nishitetsu Amagi Line,Amagi Station,Miyanojin Station,17900
Nishi-Kyūshū Line,Sasebo Station,Arita Station,93900
Ningbo–Taizhou–Wenzhou Railway,Wenzhou,Ningbo,275000
Nikšić–Podgorica railway,Podgorica Rail Station,Nikšić,56400
Nijmegen–Venlo railway,Venlo railway station,Nijmegen railway station,61000
Nijkerk–Ede-Wageningen railway,Ede-Wageningen railway station,Nijkerk railway station,30000
Niesenbahn funicular,Niesen mountain,Mülenen,3500
