col0,col1,col2,col3
Women Without Names,R. L. Hénaff,G. v. Radványi,R. Barjavel
Women Without Men,J. Rabinowitz,S. Neshat,S. Parsipur
Women Who Work,J. Busto,J. Bracho,J. Bracho
Women Everywhere,H. D. Schuster,A. Korda,G. G. Jr.
Women Are No Angels,H. Wolff,W. Forst,G. v. Cziffra
Women Are Like That,T. Richards,S. Logan,H. Jackson
Women's Prison,J. Bustos,M. M. Delgado,M. Aub
Woman to Woman,A. Reville,A. Hitchcock,G. Cutts
Woman of the Year,F. Sullivan,G. Stevens,R. L. Jr.
Woman of the North Country,Richard L. Van Enger,J. Kane,N. R. Raine
Woman of Rome,E. D. Roma,L. Zampa,G. Bassani
Woman of Malacca,Y. Martin,M. Allégret,F. d. Croisset
Woman in a Dressing Gown,R. Best,J. L. Thompson,T. Willis
Woman Without Tears,C. Savage,A. B. Crevenna,E. Eis
Woman Walks Ahead,L. Zucchetti,S. White,S. Knight
Woman Trap,R. C. Currier,H. Young,E. Walter
Woman They Almost Lynched,F. Allen,A. Dwan,S. Fisher
Woman Possessed,M. Rootes,M. Varnel,B. Clemens
Woman Obsessed,R. L. Simpson,H. Hathaway,S. Boehm
Woman Made to Measure,W. Wehrum,H. Käutner,E. Kästner
Woman Hungry,A. Hall,C. G. Badger,H. Estabrook
Woman-Wise,A. DeGaetano,A. Dwan,B. Markson
Woman's World,L. R. Loeffler,J. Negulesco,R. Crouse
Woman's Temptation,D. Saunders,G. Grayson,B. Clemens
Wolfen,C. Lebenzon,M. Wadleigh,E. Roth
Wolf Song,E. Warren,V. Fleming,J. Farrow
Wolf Creek,J. Ballantine,G. McLean,G. McLean
Wolf,S. O'Steen,M. Nichols,E. May
Woh Saat Din,N. Chandra,Bapu,K. Bhagyaraj
Wizards,D. W. Ernst,R. Bakshi,R. Bakshi
Wives and Obscurities,O. Colangeli,L. D. Mitri,M. Fondato
Wives and Lovers,W. Low,J. Rich,E. Anhalt
Wives Never Know,R. C. Currier,E. Nugent,E. J. Mayer
Witness to Murder,R. Swink,R. Rowland,N. Johnson
Witness for the Prosecution,D. Mandell,B. Wilder,B. Wilder
Witness,T. Noble,P. Weir,E. W. Wallace
Without Pity,M. Bonotti,A. Lattuada,F. Fellini
Without Limits,C. Simpson,R. Towne,K. Moore
Without Honor,H. N. Todd,W. Nigh,H. L. Fraser
Without Family,F. Arcalli,V. Gassman,V. Gassman
With the Music in my Soul,J. Cascales,L. B. Herrera,H. Manzi
With a Song in My Heart,J. Watson Webb Jr.,W. Lang,L. Trotti
With Six You Get Eggroll,A. Fazan,H. Morris,R. Allen
Wish You Were Here,J. Ballantine,K. Darcy-Smith,K. Darcy-Smith
