col0,col1,col2,col3
Zlagna River,Ighișu Vechi,Ighișu Vechi,Bârghiș
Zlaști River,Boș,Hunedoara,Hunedoara
Zlătunoaia River,Botoşani County,"Suliţa, Botoşani",Botoşani County
Zizinaș River,Braşov County,Braşov County,Braşov County
Zizin River,Braşov County,Braşov County,Braşov County
Zimoiaș River,Satu Mare County,Satu Mare County,Satu Mare County
Zimbrul River,Bihor County,Bihor County,Bihor County
Zimbru River,Arad County,Arad County,Gurahonț
Zimbroaia River,Suceava County,Suceava County,Suceava County
Zigzag River,"Clackamas County, Oregon","Clackamas County, Oregon","Clackamas County, Oregon"
Zidileasca River,Timiş County,Făget,Timiş County
Zhob River,Zhob District,Zhob District,Zhob District
Zgârcea River,Caraş-Severin County,Caraş-Severin County,Caraş-Severin County
Zglacu River,Bihor County,Bihor County,Bihor County
Zgarbura River,Prahova County,Prahova County,Prahova County
Zgârcea River,Caraş-Severin County,Caraş-Severin County,Caraş-Severin County
Zerind River,"Zerind, Arad","Zerind, Arad",Arad County
Zemeș River,Bacău County,Bacău County,Bacău County
Zeletin River,Prahova County,Buzău County,"Cătina, Buzău"
Zeletin River,Bacău County,Bacău County,Bacău County
Zeletin River,Buzău County,"Cătina, Buzău",Prahova County
Zeldiș River,Arad County,Arad County,Arad County
Zeifăn River,Braşov County,Braşov County,Braşov County
Zeicu River,Hunedoara,Hunedoara,Hunedoara
Zeicani River,Hunedoara,Hunedoara,Hunedoara
Zebracu River,Mureș County,Mureș County,Mureș County
Zburătura River,Vrancea County,Vrancea County,Vrancea County
Zboiul River,Călărași County,Călărași County,Călărași County
Zboina River,Bacău County,Bacău County,Bacău County
Zbečník,Hronov,Zbečník,Hronov
Zavarca River,Iaşi County,Iaşi County,Iaşi County
Zascoc River,Caraş-Severin County,Caraş-Severin County,Caraş-Severin County
Zarqa River,Zarqa,Zarqa,Amman
Zaplazul River,Neamţ County,Neamţ County,Neamţ County
Zanicel River,Sălaj County,"Bobota, Sălaj",Sălaj County
Zandan River,Constanţa County,Constanţa County,Constanţa County
Zamoru River,Hunedoara,Hunedoara,Hunedoara
Zamora River,Prahova County,Prahova County,Prahova County
Zamora River,Hunedoara County,Hunedoara,Hunedoara
Zambroslăviile River,Maramureş,Maramureş,Maramureş
Zam River,Glodghilești,Glodghilești,Glodghilești
Zalău River,Sălaj County,Sălaj County,Sălaj County
Zahorna River,Neamţ County,Neamţ County,Neamţ County
Zahorna River,Neamţ County,Neamţ County,Neamţ County
Zagonul Mic River,Covasna,Covasna,Covasna
Zagonul Mare River,Covasna,Covasna County,Covasna
Zagon River,Covasna,Covasna,Covasna
Zacla River,Suceava County,Suceava County,Suceava County
Zăvoi,Sibiu County,Sibiu County,Sibiu County
Zăvoarele River,Prahova County,Prahova County,Prahova County
Zăvoare River,Neamţ County,Neamţ County,Neamţ County
Zăvoaiele River,Hunedoara,Hunedoara,Hunedoara
Zăvoaie River,Maramureş County,Maramureş County,Maramureş County
Zăvoaie River,Sibiu County,Săliște,Sibiu County
Zărzag River,Bihor County,Bihor County,Bihor County
Zăpodie River,Cluj County,Cluj County,Cluj County
Zăpodia River,Mureş County,Mureş County,Mureş County
Zăpodia River,Suceava County,Suceava County,Suceava County
Zăpodia River,Gorj County,Gorj County,Gorj County
Zăpodea cu Podul River,Mureş County,Mureş County,Mureş County
Zăpodea cu Cale River,Mureş County,Mureş County,Mureş County
Zănoguța River,Argeș County,Argeș County,Argeș County
Zănoguța River,Vâlcea County,Vâlcea County,Vâlcea County
Zănoguța River,Hunedoara,Hunedoara County,Hunedoara
Zănoaga River,Prahova County,Prahova County,Prahova County
Zănoaga River,Gorj County,Gorj County,Gorj County
Zănoaga River,Hunedoara,Hunedoara,Hunedoara
Zănoaga River,Hunedoara,Hunedoara,Hunedoara
Zănoaga River,Dâmboviţa County,Dâmboviţa County,Dâmboviţa County
Zănoaga River,Gorj County,Gorj County,Gorj County
Zănoaga River,Prahova County,Prahova County,Prahova County
Zănoaga River,Alba County,Alba County,Alba County
Zănoaga River,Hunedoara,Hunedoara,Hunedoara
Zănoaga River,Hunedoara,Hunedoara,Hunedoara
Zănoaga River,Buzău County,Buzău County,Buzău County
Zănoaga River,Braşov County,Braşov County,Braşov County
Zănoaga River,Gorj County,Gorj County,Gorj County
Zălan River,Covasna,Zălan,Zălan
Zăgraza River,Caraş-Severin County,Caraş-Severin County,Caraş-Severin County
Zăganu River,Prahova County,Prahova County,Prahova County
Zăganu River,Buzău County,Buzău County,Buzău County
Zădărlac River,Arad County,Arad County,Arad County
Zăbrăuț,Fitionești,"Movilița, Vrancea",Vrancea County
Zăbrătău River,Covasna County,Covasna County,Covasna
Zăbala River,Covasna County,Covasna,Covasna
Zăbala River,Năruja,Spulber,Vrancea County
Zăbăluța River,Vrancea County,Vrancea County,Vrancea County
Zârnișoara River,Cluj County,Cluj County,Cluj County
Zârna River,Botoşani County,Botoşani County,Botoşani County
Zârna River,Cluj County,Cluj County,Cluj County
Zârna River,Argeș County,Argeș County,Argeș County
Zârna Mică River,Vrancea County,Vrancea County,Vrancea County
Zârna Mare River,Vrancea County,Vrancea County,Vrancea County
Zâmbrița River,Maramureş County,Maramureş County,Maramureş County
Yūbetsu River,"Monbetsu District, Hokkaidō","Monbetsu District, Hokkaidō","Monbetsu District, Hokkaidō"
Yuna River,Bonao,Cotuí,Bonao
Yulupa Creek,"Santa Rosa, California","Santa Rosa, California","Santa Rosa, California"
Yuba River,"Marysville, CA","Marysville, CA","Marysville, CA"
Yuam River,Khun Yuam District,Khun Yuam District,Khun Yuam District
Ysyk-Ata River,Ysyk-Ata District,Ysyk-Ata District,Ysyk-Ata District
Youngs River,"Clatsop County, Oregon","Clatsop County, Oregon","Clatsop County, Oregon"
Youghiogheny River,"Connellsville, Pennsylvania","Connellsville, Pennsylvania","Connellsville, Pennsylvania"
York River,Renfrew County,Renfrew County,Renfrew County
Yenisei River,Igarka,Shagonar,Yeniseysk
Yellow River,Iowa,Iowa,Iowa
Yass River,"Yass, New South Wales","Yass, New South Wales","Yass, New South Wales"
Yarrowee River,Ballarat,Ballarat,Ballarat
Yarra River,Melbourne,Melbourne,Melbourne
Yarkon River,Tel Aviv,Tel Aviv,Tel Aviv
Yaquina River,"Benton County, Oregon","Benton County, Oregon","Benton County, Oregon"
Yangtze,Shanghai,Anqing,Shanghai
Yamuna,Delhi,Delhi,Agra
Yampa River,"Steamboat Springs, Colorado","Steamboat Springs, Colorado","Steamboat Springs, Colorado"
Yamhill River,"Yamhill County, Oregon","Yamhill County, Oregon","Yamhill County, Oregon"
Yamaska River,"Saint-Hyacinthe, Quebec","Saint-Hyacinthe, Quebec","Saint-Hyacinthe, Quebec"
Yakima River,"Richland, Washington","Richland, Washington","Ellensburg, Washington"
Yahtse River,"City and Borough of Yakutat, Alaska","City and Borough of Yakutat, Alaska","City and Borough of Yakutat, Alaska"
Yager Creek,"Carlotta, California","Carlotta, California","Carlotta, California"
Yūbetsu River,"Monbetsu District, Hokkaidō","Monbetsu District, Hokkaidō","Monbetsu District, Hokkaidō"
Xin River,Shangrao,Shangrao,Shangrao
Wyong River,"Wyong, New South Wales","Wyong, New South Wales","Wyong, New South Wales"
Wyncham Stream,Chislehurst,Longlands,Chislehurst
Wulik River,"Northwest Arctic Borough, Alaska","North Slope Borough, Alaska","North Slope Borough, Alaska"
Wu River,Huaihua,Zhijiang Dong Autonomous County,Huaihua
Wu River,Fuling,Badong,Fuling
Woodbridge Brook,Wiltshire,Wiltshire,Wiltshire
Wolseley River,Nipissing District,Nipissing District,Sudbury District
Wollomombi River,Northern Tablelands,Northern Tablelands,Northern Tablelands
Wolli Creek,Southern Sydney,Southern Sydney,Southern Sydney
Wolgan River,"Newnes, New South Wales",Central Tablelands,Central Tablelands
Wolf River,Thunder Bay District,Thunder Bay District,Thunder Bay District
Wolf River,Sudbury District,Sudbury District,Sudbury District
Wolf River,Parry Sound District,Parry Sound District,Parry Sound District
Wolf River,Strathcona Regional District,Strathcona Regional District,Strathcona Regional District
Wolf River,Lac La Biche County,Lac La Biche County,Lac La Biche County
Wiscoy Creek,"Eagle, New York","Hume, New York",Pike
Winston Creek,"Thunder Bay District, Ontario","Thunder Bay District, Ontario","Thunder Bay District, Ontario"
Winston Creek,Kenora District,Kenora District,Kenora District
Winisk Lake,Webequie First Nation,"Kenora District, Ontario","Kenora District, Ontario"
Winhall River,"Stratton, Vermont","Jamaica, Vermont","Londonderry, Vermont"
Wingecarribee River,"Berrima, New South Wales","Berrima, New South Wales","Berrima, New South Wales"
Windsor Creek,"Windsor, California","Windsor, California","Windsor, California"
Wind River,"North Slope Borough, Alaska","North Slope Borough, Alaska","North Slope Borough, Alaska"
Wind River,"Riverton, Wyoming","Riverton, Wyoming","Riverton, Wyoming"
Wind River,"Pierce County, Wisconsin","Pierce County, Wisconsin","Pierce County, Wisconsin"
Wind River,"Yamhill County, Oregon","Yamhill County, Oregon","Yamhill County, Oregon"
Winchuck River,"Curry County, Oregon","Curry County, Oregon","Curry County, Oregon"
Wilsons River,"Lismore, New South Wales","Lismore, New South Wales","Lismore, New South Wales"
Wilson River,"Tillamook County, Oregon","Tillamook County, Oregon","Tillamook County, Oregon"
Wilson River,Mid North Coast,Mid North Coast,Mid North Coast
Willow Creek,"Bingham County, Idaho","Bingham County, Idaho","Bingham County, Idaho"
Willow Creek,"Malheur County, Oregon","Malheur County, Oregon","Malheur County, Oregon"
Willow Creek,"Jefferson County, Oregon","Jefferson County, Oregon","Crook County, Oregon"
Willow Creek,"Morrow County, Oregon","Gilliam County, Oregon","Morrow County, Oregon"
Willoughby River,"Orleans County, Vermont","Orleans County, Vermont","Orleans County, Vermont"
Williamson River,"Klamath County, Oregon","Klamath County, Oregon","Klamath County, Oregon"
Williams River,"Coos County, Oregon","Coos County, Oregon","Coos County, Oregon"
Williams River,"Clarence Town, New South Wales",Raymond Terrace,Raymond Terrace
Willapa River,"Pacific County, Washington","Pacific County, Washington","Pacific County, Washington"
Willamina Creek,"Tillamook County, Oregon","Tillamook County, Oregon","Tillamook County, Oregon"
Wildhorse Creek,"Harney County, Oregon","Harney County, Oregon","Harney County, Oregon"
Wildcat Creek,"Lane County, Oregon","Lane County, Oregon","Lane County, Oregon"
Wildcat Creek,"Richmond, California","Richmond, California","Richmond, California"
