col0,col1,col2,col3,col4
XHX-TDT,Las Estrellas,10.1Las Estrellas-HD,23 (UHF),200000
XHWX-TDT,Azteca Trece,4.1Azteca Trece-HD,"(1 after October 27, 2016)",91100
XHUAA-TDT,Las Estrellas,57.1 El Canal de las Estrellas,22 (UHF),200000
XHTRES-TDT,Excelsior TV,"27.1 Main programming /Excelsior TV(since October 26, 2015)",27 (UHF),71400
XHTM-TDT,Las Estrellas,10.1Las Estrellas,36 (UHF),236000
XHTAM-TDT,Canal 5,17.1 Las Estrellas,"(2 after October 27, 2016)",250000
XHSDD-TDT,Multimedios Televisión,5.1 XHSDD,21 (UHF),20000
XHRIO-TDT,The CW,* 15.1,26 (UHF),250000
XHJAL-TDT,Azteca Trece,13.1Azteca Trece-HD,33 (UHF),192690
XHIJ-TDT,Cadenatres,44.1Cadenatres,45 (UHF),150000
XHFI-TDT,Canal 5,5.1Canal 5 (Televisa Network)',26 (UHF),47000
XHD-TDT,Canal 5,4.1Canal 5 (Televisa Network)-HD,"(5 after October 27, 2016)",180000
XHCNL-TDT,Canal 5,34.1 MTYtv,48 (UHF),200000
XHCJH-TDT,Azteca 7,20.1Azteca 7HD (1080i),36 (UHF),146610
XHCJE-TDT,Azteca Trece,11.1Azteca Trece-HD 1080i,34 (UHF),146310
XHCDE-TDT,Canal 5,13.1Canal 5,44 (UHF),20000
XHBR-TDT,Las Estrellas,11.2Canal 5,25 (UHF),200000
XHAW-TDT,Multimedios Televisión,12.1Multimedios TelevisiónHD,25 (UHF),105000
XHAS-TDT,Telemundo,[[#Digital television,34 (UHF),400000
XET-TDT,Canal 5,6.1Canal 5 (Televisa Network)-HD,31 (UHF),200000
XERV-TDT,Las Estrellas,9.1 Las Estrellas,19 (UHF),300000
XEPM-TDT,Las Estrellas,32.1 Las Estrellas HD,29 (UHF),200000
XEJ-TDT,Gala TV,5.1Gala TV,50 (UHF),10000
XEFB-TDT,Televisa Regional,2.1Televisa Regional/FOROtv,"(4 after October 27, 2016)",200000
WZZM,American Broadcasting Company,13.1 ABC,13 (VHF),24500
WZVN-TV,American Broadcasting Company,[[#Digital television,41 (UHF),1000000
WZPX-TV,Owned-and-operated station,43.1Ion Television,44 (UHF),212000
WZPA-LD,Home Shopping Network,([[#Digital channels,33 (UHF),3000
WZNA-LD,Religious broadcasting,3.1OptimaTV,3 (VHF),2700
WZDX,American Sports Network,54.1Fox,41 (UHF),700000
WZAW-LD,Fox Broadcasting Company,33.1Fox,33 (UHF) &,15000
