col0,col1,col2,col3
Çanakkale 1915 Bridge,Tekfen Construction and Installation Co.Inc.,Çanakkale Province,Çanakkale Province
Zavodskaya sestra crossover,P. A. Avenarius,Sestroretsk,Sestroretsk
Yavuz Sultan Selim Bridge,M. Virlogeux,Constantinople,Constantinople
Windsor Railway Bridge,I. K. Brunel,"Windsor, Berkshire","Windsor, Berkshire"
Willimansett Bridge,E. S. Shaw,"Chicopee, Massachusetts","Chicopee, Massachusetts"
Williamsburg Bridge,H. Hornbostel,Manhattan,Brooklyn
Widnes-Runcorn Transporter Bridge,J. Webster,Runcorn,Runcorn
White Cart Bridge,S. W. Arrol,Renfrew,Renfrew
Whipple Cast and Wrought Iron Bowstring Truss Bridge,S. Whipple,"Albany, New York","Albany, New York"
Weaverland Bridge,F. H. Shaw,"Terre Hill, Pennsylvania","Terre Hill, Pennsylvania"
"Waterloo Bridge, Betws-y-Coed",T. Telford,Betws-y-Coed,Betws-y-Coed
"Watergate, Chester",J. Turner,Cheshire,Cheshire
Wandsworth Bridge,T. P. Frank,London,London
Walnut Tree Viaduct,J. Szlumper,South Wales,Cardiff
Wadi el Kuf Bridge,R. Morandi,Libya,Libya
Vizcaya Bridge,A. Palacio,Spain,Spain
Vilafant Bridge,P. S. Engineers,Catalonia,Catalonia
Vietnam Memorial Bridge,E. S. Shaw,"South Hadley, Massachusetts","South Hadley, Massachusetts"
Victoria Bridge,J. Whitton,Australia,Australia
"Victoria Bridge, Bath",J. D. Sr.,"Bath, Somerset","Bath, Somerset"
Vejle Fjord Bridge,H. &. Mølgaard,Denmark,Denmark
University Bridge,D. Luten,Canada,Canada
University Avenue Bridge,P. P. Cret,"Philadelphia, Pennsylvania","Philadelphia, Pennsylvania"
Unity Bridge,Norconsult,Mozambique,Nanyumbu
Umpqua River Bridge,C. B. McCullough,"Reedsport, Oregon","Reedsport, Oregon"
Ufa Rail Bridge,N. Beleloubski,Russia,Russia
Twin River Bridges,T. Y. Lin International,China,China
Tuscarora Creek,W. Bollman,"Frederick County, Maryland","Frederick County, Maryland"
Tunkhannock Viaduct,A. B. Cohen,United states,United states
Tromsø Bridge,Aas-Jakobsen,Norway,Tromsø
Troja Bridge,M. MacDonald,Prague,Prague
Trent Bridge,M. O. Tarbotton,England,England
Trajan's Bridge,A. o. Damascus,Iron Gates,Iron Gates
Tilikum Crossing,T. L. International,"Portland, Oregon","Portland, Oregon"
Three Countries Bridge,D. Feichtinger,Basel,Basel
Thomas Viaduct,"Benjamin Henry Latrobe, II","Elkridge, Maryland","Elkridge, Maryland"
The Triplets bridges,P. S. Engineers,Bolivia,Bolivia
The American Bridge,N. Belelyubsky,St. Petersburg,St. Petersburg
"Telescopic Bridge, Bridgwater",S. F. Fox,Somerset,Somerset
Teglværksbroen,H. &. Mølgaard,Copenhagen,Copenhagen
Teesquay Millennium Footbridge,O. Arup,Stockton-on-Tees,Stockton-on-Tees
Tees Newport Bridge,"Mott, Hay and Anderson",England,England
Tees Barrage,A. G. Limited,Stockton-on-Tees,Stockton-on-Tees
Tanah Merah Bridge,G. o. Malaysia,Malaysia Federal Route 4,Malaysia Federal Route 4
Tabiat Bridge,L. Araghian,Tehran,Iran
"Südbrücke, Mainz",H. G. Gerber,Rhineland-Palatinate,Rhineland-Palatinate
Sunniberg Bridge,C. Menn,Klosters,Klosters
Sungai Johor Bridge,M. H. Authority,Senai-Desaru Expressway,Senai-Desaru Expressway
Sundial Bridge at Turtle Bay,S. Calatrava,"Redding, California","Redding, California"
Sultan Yusuf Bridge,G. o. Malaysia,Batak Rabit,Batak Rabit
Sultan Yahya Petra Bridge,Malaysian Public Works Department,Wakaf Bharu-Kota Bharu-Kubang Kerian Highway,Wakaf Bharu-Kota Bharu-Kubang Kerian Highway
Sultan Salahuddin Abdul Aziz Shah Bridge,G. o. Malaysia,Malaysia Federal Route 5,Malaysia Federal Route 5
Sultan Mahmud Bridge,Malaysian Public Works Department,Kuala Terengganu,Kuala Terengganu
Sultan Ismail Petra Bridge,Malaysian Public Works Department,Tendong-Mulong Highway,Tendong-Mulong Highway
Sultan Ismail Bridge,Malaysian Public Works Department,Muar,Muar
Sultan Idris Shah II Bridge,Malaysian Public Works Department,Ipoh-Lumut Highway,Ipoh-Lumut Highway
Sultan Azlan Shah Bridge,G. o. Malaysia,North-South Expressway Northern Route,North-South Expressway Northern Route
Sultan Ahmad Shah II Bridge,M. H. Authority,East Coast Expressway,East Coast Expressway
Suez Canal Bridge,Kajima,Egypt,Egypt
Stormbro,M. Nyrop,Copenhagen,Copenhagen
Stonecutters Bridge,Dissing+Weitling,Tsing Yi Island,Tsing Yi Island
Stan Musial Veterans Memorial Bridge,H. Corporation,"St. Clair County, Illinois","St. Clair County, Illinois"
Staines Bridge,G. Rennie,Staines-upon-Thames,Staines-upon-Thames
St. Charles Air Line Bridge,J. Strauss,"Chicago, Illinois","Chicago, Illinois"
Spit Bridge,Department of Main Roads,Australia,Australia
Souleuvre Viaduct,G. Eiffel,La Ferrière-Harang,La Ferrière-Harang
Solidarity Bridge,N. Hajdin,Poland,Poland
Slateford Aqueduct,T. Telford,Slateford,Slateford
Silver Jubilee Bridge,"Mott, Hay and Anderson",River Mersey,River Mersey
Shaw Bridge,S. Whipple,"Claverack-Red Mills, New York","Claverack-Red Mills, New York"
Seán Heuston Bridge,G. Papworth,Dublin,Dublin
Selat Lumut Bridge,Malaysian Public Works Department,Pulau Indah Expressway,Pulau Indah Expressway
Selat Lumut-SKVE Bridge,G. o. Malaysia,South Klang Valley Expressway,South Klang Valley Expressway
Seafarers Bridge,N. Grimshaw,Australia,Australia
Seán Heuston Bridge,G. Papworth,Dublin,Dublin
Schell Bridge,E. S. Shaw,"Northfield, Massachusetts","Northfield, Massachusetts"
Scarborough Bridge,M. Wells,"Cherry Hill, New Jersey","Cherry Hill, New Jersey"
Scammonden Bridge,Colonel,Kirklees,Kirklees
Sant Feliu Pedestrian Bridge,P. S. Engineers,Catalonia,Catalonia
Sant Boi Bridge,P. S. Engineers,Catalonia,Spain
Sangupiddy Bridge,M. J. Bridge,Jaffna District,Jaffna District
San Mateo–Hayward Bridge,California Department of Transportation,United States,United States
San Francisco–Oakland Bay Bridge,C. H. Purcell,"Oakland, California","Oakland, California"
Samuel Beckett Bridge,S. Calatrava,Dublin,Dublin
Samora Machel Bridge,E. Cardoso,Moatize,"Tete, Mozambique"
Salginatobel Bridge,R. Maillart,"Schiers, Switzerland","Schiers, Switzerland"
"Südbrücke, Mainz",H. G. Gerber,Rhineland-Palatinate,Rhineland-Palatinate
Ryde Bridge,Department of Main Roads,Australia,Australia
Runcorn Railway Bridge,W. Baker,Cheshire,Cheshire
Royal Victoria Dock Bridge,L. D. Sandilands,London Docklands,London Docklands
Royal Tweed Bridge,Mouchel,England,England
Royal Border Bridge,R. Stephenson,Northumberland,Northumberland
Royal Albert Bridge,I. K. Brunel,Plymouth,Plymouth
Ross Bridge,J. L. Archer,"Ross, Tasmania","Ross, Tasmania"
Rory O'More Bridge,G. Halpin,Dublin,Dublin
Richmond and Petersburg Railroad Bridge,M. Robinson,"Manchester, Virginia","Manchester, Virginia"
Richmond Railway Bridge,J. Locke,"Richmond, London","Richmond, London"
"Richmond Bridge, London",J. Paine,"Richmond, London","Richmond, London"
Rewley Road Swing Bridge,R. Stephenson,Oxford,England
Rendsburg High Bridge,F. Voss,Germany,Germany
Reiman Bridge,S. Calatrava,United States,United States
Red Bridge,J. Blackburn,Australia,Australia
Rande Bridge,F. d. Miranda,Spain,Spain
Rakaia Bridge,New Zealand Ministry of Works,"Canterbury, New Zealand","Canterbury, New Zealand"
Raja Pemaisuri Bainun Bridge,G. o. Malaysia,"Lumut, Malaysia","Lumut, Malaysia"
Raja Muda Nazrin Bridge,G. o. Malaysia,Lenggong,Lenggong
Queensboro Bridge,G. Lindenthal,New York City,New York City
Queen Alexandrine Bridge,A. Engelund,Denmark,Denmark
Python Bridge,W. 8,Amsterdam,Amsterdam
Pulteney Bridge,R. Adam,"Bath, Somerset","Bath, Somerset"
Puente del Alamillo,S. Calatrava,Seville,Seville
Puente de la Mujer,S. Calatrava,Argentina,Argentina
Princes Bridge,J. H. Grainger,Australia,Australia
Prai River Bridge,D. Al-Handasah,Butterworth Outer Ring Road,Butterworth Outer Ring Road
Port Mann Bridge,T. L. International,Coquitlam,Coquitlam
Ponte della Costituzione,S. Calatrava,Venice,Venice
Ponte de São João,E. Cardoso,Porto,Porto
Ponte Sant'Angelo,G. L. Bernini,Rome,Rome
Ponte Almirante Sarmento Rodrigues,E. Cardoso,Portugal,Portugal
"Pont Neuf, Toulouse",J. L. Mercier,Toulouse,Toulouse
Pont Neuf,A. d. Cerceau,France,France
Pont National,S. Electric,Brittany,Brittany
Pont De Rennes bridge,L. L. Buck,Rochester New York,Rochester New York
Pont Aberarth,T. Penson,Wales,Wales
Pont-y-Cafnau,W. George,Merthyr Tydfil,Merthyr Tydfil
"Pennsylvania Railroad, Connecting Railway Bridge",Wilson Brothers & Company,"Philadelphia, Pennsylvania","Philadelphia, Pennsylvania"
Pennsylvania Avenue Bridge,M. C. Meigs,"Washington, D.C.","Washington, D.C."
Pedestrian Bridge over Segre River,P. S. Engineers,Lleida,Lleida
Pecos River High Bridge,R. Modjeski,"Langtry, Texas","Langtry, Texas"
Peats Ferry Bridge,Department of Main Roads,Australia,Australia
Peacock's Lock Viaduct,Philadelphia and Reading Railroad,"Reading, Pennsylvania","Reading, Pennsylvania"
Paul Sauer Bridge,R. Morandi,South Africa,South Africa
Paton Bridge,E. Paton,Kiev,Kiev
Passerelle de la Paix,D. Feichtinger,Lyon,Lyon
Pandaruan Bridge,Brunei,Pan Borneo Highway,Pan Borneo Highway
Paluh Hinai Bridge,Malaysian Public Works Department,Tun Razak Highway,Tun Razak Highway
Padma Bridge,AECOM,Lohajang Upazila,Munshiganj
Overseas Highway,Florida East Coast Railway,Florida Keys,Florida Keys
Over Bridge,T. Telford,England,England
Ouse Bridge,S. W. Group,Goole,Goole
Osterøy Bridge,Aas-Jakobsen,Osterøy,Osterøy
Osman Gazi Bridge,Dissing+Weitling,"Kocaeli, Turkey","Kocaeli, Turkey"
Oregon Slough Railroad Bridge,R. Modjeski,"Portland, Oregon","Portland, Oregon"
Old Youngs Bay Bridge,C. McCullough,"Astoria, Oregon","Astoria, Oregon"
"Old Wye Bridge, Chepstow",J. U. Rastrick,Gloucestershire,Gloucestershire
"Old Bridge, Svilengrad",M. Sinan,Bulgaria,Bulgaria
"Old Bridge, Pontypridd",W. Edwards,Pontypridd,Pontypridd
Oddamavadi Bridge,B. Ceylon,Sri Lanka,Sri Lanka
Ocean To Ocean Bridge,Bureau of Indian Affairs,Arizona,Arizona
O'Connell Bridge,J. Gandon,Dublin,Dublin
Novosibirsk Rail Bridge,N. Belelyubsky,Novosibirsk,Novosibirsk
Novo-kamenniy Bridge,P. Bazaine,Saint Petersburg,Saint Petersburg
"Northgate, Chester",T. Harrison,Cheshire,Cheshire
Northampton Street Bridge,James Madison Porter III,"Easton, Pennsylvania","Easton, Pennsylvania"
Nordhordland Bridge,Aas-Jakobsen,Bergen,Bergen
Nichols Bridgeway,R. Piano,Chicago,Chicago
Niagara Falls Suspension Bridge,J. A. Roebling,"Niagara Falls, New York","Niagara Falls, New York"
Nescio Bridge,W. E. Architects,Amsterdam,Amsterdam
Nene Viaduct,J. Cubitt,Peterborough,Peterborough
