col0,col1,col2,col3
Stark County Courthouse,W. F. Kurke,8498,1985-11-25
Stambaugh Church of Christ,S. Kentucky,404,1989-01-26
St. Vincent de Paul Church,D. &. Meier,8093,1989-06-09
St. Stephen's Methodist Church,A. M. Welch,647,2012-02-08
St. Sebastian's Catholic Church,DeCurtins,0,1979-07-26
St. Peter's Roman Catholic Church,F. A. Ludewig,30351,1979-05-25
St. Peter's Episcopal Church Complex,H. Dudley,7284,2002-01-24
St. Peter's Episcopal Church,F. Wills,4046,1979-08-21
St. Paul's Episcopal Church,J. Douglas,1214,1979-11-07
St. Paul's Episcopal Church,G. W. Lloyd,6879,1982-06-01
St. Paul's Episcopal Church,A. P. Edgerton,0,1976-06-07
St. Paul's Episcopal Church,G. W. Lloyd,4046,1980-11-25
St. Paul's Episcopal Church,W. H. Wood,6070,1978-09-01
St. Paul's Episcopal Church,R. Upjohn,4046,1978-01-31
St. Paul's Catholic Church,J. J. Egan,9510,1982-12-21
St. Nicholas of Tolentine Church,E. F. Durang,4046,2001-02-02
St. Nicholas Historic District,B. Price,40063,1975-10-29
St. Michael's Hospital and Nurses' Residence,G. Hancock,13354,1995-04-20
St. Michael's Episcopal Church,F. &. Evans,3237,1982-12-20
St. Michael's Church,H. Bros.,4046,1988-06-30
St. Michael's Catholic Church Complex,J. M. Nachtigal,40468,1983-12-15
"St. Mary's Episcopal Church, Burlington, New Jersey",R. Upjohn,25090,1972-05-31
St. Mary's Complex,P. C. Keely,28327,1984-07-05
St. Mary's Church of the Immaculate Conception Complex,J. Murphy,26304,1983-11-18
St. Mary's Church,P. Keely,3237,2008-03-06
St. Mary's Church,J. Molitor,60702,1996-05-02
St. Mary's Catholic Church,W. Strickland,4046,1970-07-08
St. Mary's Catholic Church,A. Druiding,4046,1980-05-23
St. Mary's Abbey Church,H. Engelbert,4046,1972-11-03
St. Mark's Episcopal Church,E. C. Jones,8093,1978-01-20
St. Mark's Episcopal Church,B. Goodhue,10117,1991-11-21
St. Mark's Episcopal Church,R. M. Upjohn,2023,1984-07-19
St. Luke's Methodist Church,C. &. Ferguson,4046,2002-01-17
St. Luke's Hospital,H. &. Benes,33184,2005-06-10
St. Luke's Episcopal Church,S. Hannaford,4046,1977-04-13
St. Lucy's Church,G. Raggi,2023,1998-12-31
St. Katherine's Historic District,J. C. Cochrane,37919,1984-04-05
St. Joseph City Hall,E. J. Eckel,4046,1985-10-25
St. Joseph's Polish Catholic Church,"George I. Lovatt, Sr.",4046,2003-12-18
St. Joseph's House for Homeless Industrious Boys,Hoffman-Henon,5260,1996-10-24
St. Joseph's Church and Friary,C. &. Richardson,4046,1976-06-17
St. Joseph's Catholic Church,DeCurtins,7284,1979-07-26
St. John the Baptist Church,E. Cormier,4856,1983-11-18
St. John the Baptist Catholic Church,A. Druiding,4046,1979-07-26
St. John Chrysostom Church,R. M. Upjohn,2023,1972-02-23
St. John's United Methodist Church,F. G. Clausen,8093,1983-07-07
St. John's German Evangelical Lutheran Church,J. P. Guth,161874,1982-08-02
St. John's Episcopal Church,E. F. Lawrence,4046,1990-10-17
St. John's Episcopal Church,H. C. Jr.,40063,1970-02-26
St. John's Church,A. Parris,8093,1978-01-31
St. James Hotel,H. Trumbauer,780,1976-11-13
St. James Episcopal Church,H. Vaughan,2023,1974-11-19
St. James Episcopal Church,G. W. Lloyd,3237,1979-06-27
St. James Episcopal Church,R. M. Upjohn,4046,1976-06-18
St. James Episcopal Church,G. W. Lloyd,4046,1971-11-19
St. James' Episcopal Church and Parish House,H. F. Kilburn,4046,1982-09-30
St. Henry's Catholic Church,DeCurtins,12140,1979-07-26
St. Henry's Catholic Church,A. Druiding,4046,1982-12-02
St. Gertrude Roman Catholic Church,J. T. Comes,1618,1983-09-23
St. George's Church,F. Wills,6070,2008-03-07
St. George's-by-the-River Episcopal Church,W. &. Gillette,5260,2007-02-13
St. Florian Church,R. A. Cram,335889,1984-09-13
St. Elizabeths Hospital,"Shepley, Rutan and Coolidge",1400212,1979-04-26
St. David Catholic Church,T. G. O'Connell,4046,1973-10-02
St. Charles Borromeo Church Complex,P. Keely,5260,1983-02-24
"St. Catherine's Church of Lomice, North Dakota",J. B. DeRemer,20234,2006-04-12
St. Casimir's Roman Catholic Church,J. A. Jackson,2023,1997-07-09
St. Bonaventure Church Complex,J. M. Nachtigall,49371,1982-10-19
St. Bartholomew's Episcopal Church,B. Goodhue,4046,1980-04-16
St. Augustine of Canterbury Anglican Church,A. Benton,404,1982-01-21
St. Athanasius Episcopal Church and Parish House and the Church of the Holy Comforter,H. Upjohn,12140,1979-05-29
St. Anthony of Padua Roman Catholic Church,L. H. Giele,1214,2004-03-22
St. Anthony Hall House,C. a. Stewardson,1214,2005-02-15
St. Anthony's Catholic Church,J. D. Curtins,4046,1979-07-26
St. Anne Church,A. I. Lawrence,4046,1979-05-29
St. Andrew's Episcopal Church,R. A. Cram,2023,1975-03-18
St. Andrew's-by-the-Sea,W. a. Wetherell,404,2001-12-13
St. Aloysius' Catholic Church,DeCurtins,60702,1979-07-26
Squirrel Hollow Park,I. S. College,242811,1991-12-23
