col0,col1,col2,col3
Rahy,Blushing Groom,Red God,Halo
Ragusa,Ribot,Tenerani,Ambiorix
Ragstone,Ragusa,Ribot,Right Royal
Rags to Riches,A.P. Indy,Seattle Slew,Deputy Minister
Rachel's Valentina,Bernardini,A.P. Indy,Medaglia d'Oro
R. Thomas,Nadir,Nasrullah,Count Fleet
Quintessence,St. Frusquin,St. Simon,Petrarch
Quill,Princequillo,Prince Rose,Count Fleet
Quiff,Sadler's Wells,Northern Dancer,Selkirk
Quiet American,Fappiano,Mr. Prospector,Dr. Fager
Quicken Tree,Royal Orbit,Royal Charger,Counterpoint
Quick As Lightning,Buckpasser,Tom Fool,Bold Ruler
Questing,Hard Spun,Danzig,Seeking the Gold
Quest for Fame,Rainbow Quest,Blushing Groom,Green Dancer
Queen's Logic,Grand Lodge,Chief's Crown,Diesis
Quality Road,Elusive Quality,Gone West,Strawberry Road
Qualify,Fastnet Rock,Danehill,Galileo
Pyro,Pulpit,A.P. Indy,Wild Again
Punctilious,Danehill,Danzig,Roberto
Pulpit,A.P. Indy,Seattle Slew,Mr. Prospector
Pucker Up,Olympia,Heliopolis,Bull Lea
Prunella,Highflyer,Herod,Snap
Provoke,Aureole,Hyperion,Tantieme
Prove Out,Graustark,Ribot,Bold Venture
Proud Truth,Graustark,Ribot,Summer Tan
Protectionist,Monsun,Königsstuhl,Peintre Celebre
Prospectors Delite,Mr. Prospector,Raise a Native,Hoist the Flag
Prized,Kris S.,Roberto,My Dad George
Private Account,Damascus,Sword Dancer,Buckpasser
Priolo,Sovereign Dancer,Northern Dancer,Irish River
Princessnesian,Princequillo,Prince Rose,Polynesian
Princely Gift,Nasrullah,Nearco,Blue Peter
Prince of Penzance,Pentire,Be My Guest,Mr Prospector
Prince of Dance,Sadler's Wells,Northern Dancer,English Prince
Prince Palatine,Persimmon,St. Simon,Isinglass
Prince John,Princequillo,Prince Rose,Count Fleet
Prince Blessed,Princequillo,Prince Rose,Bull Dog
Primonetta,Swaps,Khaled,Polynesian
Pride,Peintre Celebre,Nureyev,Alleged
Presvis,Sakhee,Bahri,Never So Bold
Premonition,Precipitation,Hurry On,Fair Trial
Pour Moi,Montjeu,Sadler's Wells,Darshaan
Pounced,Rahy,Blushing Groom,Storm Cat
Potoooooooo,Eclipse,Marske,Regulus
Postponed,Dubawi,Dubai Millennium,Dubai Destination
Pope Joan,Waxy,Potoooooooo,Highflyer
Pope,Waxy,Eclipse,Highflyer
Pop Rock,Helissio,Fairy King,Sunday Silence
Ponder,Pensive,Hyperion,Blenheim II
Pompoon,Pompey,Sun Briar,Friar Rock
Polymelus,Cyllene,Bona Vista,Hampton
Point Given,Thunder Gulch,Gulch,Turkoman
Point Determined,Point Given,Thunder Gulch,Broad Brush
Plugged Nickle,Key To The Mint,Graustark,Buckpasser
Plucky Liege,Spearmint,Carbine,St. Simon
Pleascach,Teofilo,Galileo,Thunder Gulch
Pleasant Tap,Pleasant Colony,His Majesty,Stage Door Johnny
Pleasant Stage,Pleasant Colony,His Majesty,Stage Door Johnny
Play the Red,Crimson Satan,Spy Song,Never Say Die
Pivotal,Polar Falcon,Nureyev,Cozzene
Pine Bluff,Danzig,Northern Dancer,Halo
Pindarrie,Phantom,Walton,Potoooooooo
Pia Star,Olympia,Heliopolis,Mahmoud
Phalaris,Polymelus,Cyllene,Sainfoin
Petrushka,Unfuwain,Northern Dancer,Ela-Mana-Mou
Petrarch,Lord Clifden,Newminster,Orlando
Petoski,Niniski,Nijinsky II,Petingo
Petite Etoile,Petition,Fair Trial,Bois Roussel
Petingo,Petition,Fair Trial,Alycidon
Peteski,Affirmed,Exclusive Native,Nureyev
Peter Pan,Commando,Domino,Hermit
Peter Davies,Bering,Arctic Tern,Silent Screen
Personality,Hail To Reason,Turn-To,Swaps
Personal Flag,Private Account,Damascus,Hoist The Flag
Personal Ensign,Private Account,Damascus,Hoist The Flag
Persimmon,St. Simon,Galopin,Hampton
Persian War,Persian Gulf,Bahram,Chanteur
Pentire,Be My Guest,Northern Dancer,Mill Reef
Pennekamp,Bering,Arctic Tern,Green Dancer
Peintre Celebre,Nureyev,Northern Dancer,Alydar
Peeping Fawn,Danehill,Danzig,Sadler's Wells
Pay the Butler,Val de l'Orne,Val de Loir,Graustark
Pasch,Blandford,Swynford,Manna
Pas de Reponse,Danzig,Northern Dancer,Mr Prospector
Parthia,Persian Gulf,Bahram,Hyperion
Parth,Polymelus,Cyllene,William the Third
Parole,Leamington,Faugh-a-Ballagh,Lexington
Park Express,Ahonoora,Lorenzaccio,Match
Paris,Sir Peter Teazle,Highflyer,Eclipse
Parasol,Potoooooooo,Eclipse,Highflyer
Parading,Pulpit,A P Indy,Storm Cat
Papineau,Singspiel,In the Wings,Grey Dawn
