col0,col1,col2,col3,col4
You Are the Girl,R. Ocasek,The Cars,232,"""Ta Ta Wayo Wayo"""
You Are What You Is,F. Zappa,Frank Zappa,263,"""Harder Than Your Husband"""
You Are What I Am,G. Lightfoot,Gordon Lightfoot,157,"""That Same Old Obsession"""
You Are Everything,L. Creed,Diana Ross,175,"""Country Living"""
You Are,L. Richie,Lionel Richie,240,You Mean More to Me
You Almost Slipped My Mind,T. Seals,Charley Pride,166,"""Ghost-Written Love Letters"""
You All Goodnight,G. Jones,George Jones,124,Let Him Know
You Ain't Woman Enough,L. Lynn,Loretta Lynn,131,"""God Gave Me a Heart to Forgive"""
You Ain't Seen Nothing Yet,R. Bachman,Bachman–Turner Overdrive,7,"""Free Wheelin'"""
You Ain't Much Fun,T. Keith,Toby Keith,146,"""Life Was a Play"""
You,T. Lever,S Club,206,"""The Long and Winding Road"""
You,T. Snow,Marcia Hines,187,"""In a Mellow Mood"""
You,R. E. Jr.,Janet Jackson,282,"""Accept Me"""
You,G. Harrison,George Harrison,224,"""World of Stone"""
You,Candlebox,Candlebox,299,Pull Away
You & I,G. Coxon,Graham Coxon,223,"""Click Click Click"","
You've Still Got a Place in My Heart,L. Payne,George Jones,170,"""I'm Ragged but I'm Right"""
You've Really Got a Hold on Me,S. Robinson,The Miracles,182,"""You've Really Got A Hold on Me"""
You've Never Been This Far Before,C. Twitty,Conway Twitty,182,"""You Make It Hard (To Take the Easy Way Out)"""
You've Made Me So Very Happy,B. G. Jr.,"Blood, Sweat & Tears",7,"""Blues - Part II"""
You've Lost That Lovin' Feelin',B. Mann,Cilla Black,182,"""Baldry's Out"""
You've Got to Talk to Me,J. O'Hara,Lee Ann Womack,218,"""A Man with 18 Wheels"""
You've Got to Stand for Something,A. Tippin,Aaron Tippin,184,"""Up Against You"""
You've Got a Habit of Leaving,D. Bowie,David Bowie,155,"""Baby Loves That Way"""
You've Got a Good Love Comin',V. Stephenson,Lee Greenwood,175,"""Even Love Can't Save Us Now"""
You've Got Your Troubles,R. Greenaway,The Fortunes,203,"""I've Gotta Go"""
You've Got That Somethin',Robyn,Robyn,224,"""I Wish"""
You've Got Something on Your Mind,N. Wilson,Mickey Gilley,169,"""I Feel Good About Lovin' You"
You've Got Me to Hold On To,D. Loggins,Tanya Tucker,185,"""Ain't That a Shame"""
You've Got It Bad,O. C. Scene,Ocean Colour Scene,266,"Robin Hood, I Wanna Stay Alive With You, Huckleberry Grove"
You've Got Another Thing Comin',G. Tipton,Judas Priest,307,"""Exciter (live)"""
You're the Voice,M. Ryder,Alan Parsons,304,"""Going, Going, Gone"""
You're the Reason God Made Oklahoma,Felice and Boudleaux Bryant,David Frizzell,204,"""That's Where Lovers Go Wrong"""
You're the Only Woman,D. Pack,Ambrosia,260,"""Shape I'm In"""
You're the Only One,C. B. Sager,Dolly Parton,203,"""Down"""
