col0,col1,col2,col3
"Berwick, East Sussex",Wealden,57,77248
Beeston Regis,North Norfolk,389,225308
"Beckley, East Sussex",Rother,44,77248
"Battle, East Sussex",Rother,194,77248
Barton Turf,North Norfolk,44,212433
Barcombe,Lewes,81,65983
Ashburnham and Penhurst,Rother,16,70811
"Arlington, East Sussex",Wealden,26,75639
Alfriston,Wealden,82,78857
Alciston,Wealden,16,77248
