col0,col1,col2,col3,col4,col5,col6
Roman Catholic Diocese of Puntarenas,Roman Catholic Archdiocese of San José de Costa Rica,Roman Catholic Archdiocese of San José de Costa Rica,Roman Catholic Archdiocese of San José de Costa Rica,Roman Catholic Archdiocese of San José de Costa Rica,3910000000,3910000000
Roman Catholic Diocese of Punta Arenas,Roman Catholic Archdiocese of Puerto Montt,Roman Catholic Archdiocese of Puerto Montt,Roman Catholic Archdiocese of Puerto Montt,Roman Catholic Archdiocese of Puerto Montt,112310000000,112310000000
Roman Catholic Diocese of Puno,Roman Catholic Archdiocese of Arequipa,Roman Catholic Archdiocese of Arequipa,Roman Catholic Archdiocese of Arequipa,Roman Catholic Archdiocese of Arequipa,19475000000,19475000000
Roman Catholic Diocese of Punalur,Latin Catholic Archdiocese of Trivandrum,Latin Catholic Archdiocese of Trivandrum,Latin Catholic Archdiocese of Trivandrum,Latin Catholic Archdiocese of Trivandrum,5052000000,5052000000
Roman Catholic Diocese of Puerto Plata,Roman Catholic Archdiocese of Santiago de los Caballeros,Roman Catholic Archdiocese of Santiago de los Caballeros,Roman Catholic Archdiocese of Santiago de los Caballeros,Roman Catholic Archdiocese of Santiago de los Caballeros,2700000000,2700000000
Roman Catholic Diocese of Puerto Iguazú,Roman Catholic Archdiocese of Corrientes,Roman Catholic Archdiocese of Corrientes,Roman Catholic Archdiocese of Corrientes,Roman Catholic Archdiocese of Corrientes,17000000000,17000000000
Roman Catholic Diocese of Propriá,Roman Catholic Archdiocese of Aracajú,Roman Catholic Archdiocese of Aracajú,Roman Catholic Archdiocese of Aracajú,Roman Catholic Archdiocese of Aracajú,8198000000,8198000000
Roman Catholic Diocese of Prince George,Roman Catholic Archdiocese of Vancouver,Roman Catholic Archdiocese of Vancouver,Roman Catholic Archdiocese of Vancouver,Roman Catholic Archdiocese of Vancouver,345600000000,345600000000
Roman Catholic Diocese of Primavera do Leste–Paranatinga,Roman Catholic Archdiocese of Cuiabá,Roman Catholic Archdiocese of Cuiabá,Roman Catholic Archdiocese of Cuiabá,Roman Catholic Archdiocese of Cuiabá,98056000000,98056000000
Roman Catholic Diocese of Presidente Prudente,Roman Catholic Archdiocese of Botucatu,Roman Catholic Archdiocese of Botucatu,Roman Catholic Archdiocese of Botucatu,Roman Catholic Archdiocese of Botucatu,13251000000,13251000000
Roman Catholic Diocese of Prato,Roman Catholic Archdiocese of Florence,Roman Catholic Archdiocese of Florence,Roman Catholic Archdiocese of Florence,Roman Catholic Archdiocese of Florence,287000000,287000000
Roman Catholic Diocese of Požega,Roman Catholic Archdiocese of Đakovo-Osijek,Roman Catholic Archdiocese of Đakovo-Osijek,Roman Catholic Archdiocese of Đakovo-Osijek,Roman Catholic Archdiocese of Đakovo-Osijek,6931000000,6931000000
Roman Catholic Diocese of Pozzuoli,Roman Catholic Archdiocese of Naples,Roman Catholic Archdiocese of Naples,Roman Catholic Archdiocese of Naples,Roman Catholic Archdiocese of Naples,105000000,105000000
Roman Catholic Diocese of Potosí,Roman Catholic Archdiocese of Sucre,Roman Catholic Archdiocese of Sucre,Roman Catholic Archdiocese of Sucre,Roman Catholic Archdiocese of Sucre,118218000000,118218000000
Roman Catholic Diocese of Posadas,Roman Catholic Archdiocese of Corrientes,Roman Catholic Archdiocese of Corrientes,Roman Catholic Archdiocese of Corrientes,Roman Catholic Archdiocese of Corrientes,13206000000,13206000000
Roman Catholic Diocese of Portsmouth,Province of Southwark,Province of Southwark,Province of Southwark,Province of Southwark,6339000000,6339000000
Roman Catholic Diocese of Porto Nacional,Roman Catholic Archdiocese of Palmas,Roman Catholic Archdiocese of Palmas,Roman Catholic Archdiocese of Palmas,Roman Catholic Archdiocese of Palmas,96488000000,96488000000
"Roman Catholic Diocese of Porto, Portugal",Roman Catholic Archdiocese of Braga,Roman Catholic Archdiocese of Braga,Roman Catholic Archdiocese of Braga,Roman Catholic Archdiocese of Braga,3010000000,3010000000
Roman Catholic Diocese of Portland,Roman Catholic Archdiocese of Boston,Roman Catholic Archdiocese of Boston,Roman Catholic Archdiocese of Boston,Roman Catholic Archdiocese of Boston,85573207165,85573207165
Roman Catholic Diocese of Portalegre-Castelo Branco,Patriarchate of Lisbon,Patriarchate of Lisbon,Patriarchate of Lisbon,Patriarchate of Lisbon,9150000000,9150000000
Roman Catholic Diocese of Port Harcourt,Roman Catholic Archdiocese of Calabar,Roman Catholic Archdiocese of Calabar,Roman Catholic Archdiocese of Calabar,Roman Catholic Archdiocese of Calabar,21850000000,21850000000
Roman Catholic Diocese of Port Blair,Roman Catholic Archdiocese of Ranchi,Roman Catholic Archdiocese of Ranchi,Roman Catholic Archdiocese of Ranchi,Roman Catholic Archdiocese of Ranchi,8293000000,8293000000
Roman Catholic Diocese of Port-de-Paix,Roman Catholic Archdiocese of Cap-Haïtien,Roman Catholic Archdiocese of Cap-Haïtien,Roman Catholic Archdiocese of Cap-Haïtien,Roman Catholic Archdiocese of Cap-Haïtien,4500000000,4500000000
Roman Catholic Diocese of Port-Vila,Roman Catholic Archdiocese of Nouméa,Roman Catholic Archdiocese of Nouméa,Roman Catholic Archdiocese of Nouméa,Roman Catholic Archdiocese of Nouméa,11870000000,11870000000
Roman Catholic Diocese of Poreč-Pula,Roman Catholic Archdiocese of Rijeka,Roman Catholic Archdiocese of Rijeka,Roman Catholic Archdiocese of Rijeka,Roman Catholic Archdiocese of Rijeka,2839000000,2839000000
Roman Catholic Diocese of Pontoise,Roman Catholic Archdiocese of Paris,Roman Catholic Archdiocese of Paris,Roman Catholic Archdiocese of Paris,Roman Catholic Archdiocese of Paris,1248000000,1248000000
Roman Catholic Diocese of Ponta de Pedras,Roman Catholic Archdiocese of Belém do Pará,Roman Catholic Archdiocese of Belém do Pará,Roman Catholic Archdiocese of Belém do Pará,Roman Catholic Archdiocese of Belém do Pará,14283000000,14283000000
Roman Catholic Diocese of Ponta Grossa,Roman Catholic Archdiocese of Curitiba,Roman Catholic Archdiocese of Curitiba,Roman Catholic Archdiocese of Curitiba,Roman Catholic Archdiocese of Curitiba,23462000000,23462000000
Roman Catholic Diocese of Ponce,Roman Catholic Archdiocese of San Juan de Puerto Rico,Roman Catholic Archdiocese of San Juan de Puerto Rico,Roman Catholic Archdiocese of San Juan de Puerto Rico,Roman Catholic Archdiocese of San Juan de Puerto Rico,2045000000,2045000000
Roman Catholic Diocese of Požega,Roman Catholic Archdiocese of Đakovo-Osijek,Roman Catholic Archdiocese of Đakovo-Osijek,Roman Catholic Archdiocese of Đakovo-Osijek,Roman Catholic Archdiocese of Đakovo-Osijek,6931000000,6931000000
Roman Catholic Diocese of Plzeň,Roman Catholic Archdiocese of Prague,Roman Catholic Archdiocese of Prague,Roman Catholic Archdiocese of Prague,Roman Catholic Archdiocese of Prague,9236000000,9236000000
Roman Catholic Diocese of Plymouth,Province of Southwark,Province of Southwark,Province of Southwark,Province of Southwark,12831000000,12831000000
Roman Catholic Diocese of Plasencia,Roman Catholic Archdiocese of Mérida-Badajoz,Roman Catholic Archdiocese of Mérida-Badajoz,Roman Catholic Archdiocese of Mérida-Badajoz,Roman Catholic Archdiocese of Mérida-Badajoz,10000000000,10000000000
Roman Catholic Diocese of Pittsburgh,List of Catholic bishops of the United States,List of Catholic bishops of the United States,List of Catholic bishops of the United States,List of Catholic bishops of the United States,10598231347,10598231347
Roman Catholic Diocese of Pitigliano-Sovana-Orbetello,Roman Catholic Archdiocese of Siena-Colle di Val d'Elsa-Montalcino,Roman Catholic Archdiocese of Siena-Colle di Val d'Elsa-Montalcino,Roman Catholic Archdiocese of Siena-Colle di Val d'Elsa-Montalcino,Roman Catholic Archdiocese of Siena-Colle di Val d'Elsa-Montalcino,2177000000,2177000000
Roman Catholic Diocese of Pistoia,Roman Catholic Archdiocese of Florence,Roman Catholic Archdiocese of Florence,Roman Catholic Archdiocese of Florence,Roman Catholic Archdiocese of Florence,821000000,821000000
Roman Catholic Diocese of Piracicaba,Roman Catholic Archdiocese of Campinas,Roman Catholic Archdiocese of Campinas,Roman Catholic Archdiocese of Campinas,Roman Catholic Archdiocese of Campinas,5402000000,5402000000
Roman Catholic Diocese of Pinsk,Roman Catholic Archdiocese of Minsk-Mohilev,Roman Catholic Archdiocese of Minsk-Mohilev,Roman Catholic Archdiocese of Minsk-Mohilev,Roman Catholic Archdiocese of Minsk-Mohilev,72700000000,72700000000
Roman Catholic Diocese of Pinheiro,Roman Catholic Archdiocese of São Luís do Maranhão,Roman Catholic Archdiocese of São Luís do Maranhão,Roman Catholic Archdiocese of São Luís do Maranhão,Roman Catholic Archdiocese of São Luís do Maranhão,14744000000,14744000000
Roman Catholic Diocese of Pinerolo,Roman Catholic Archdiocese of Turin,Roman Catholic Archdiocese of Turin,Roman Catholic Archdiocese of Turin,Roman Catholic Archdiocese of Turin,1440000000,1440000000
Roman Catholic Diocese of Pinar del Río,Roman Catholic Archdiocese of San Cristóbal de la Habana,Roman Catholic Archdiocese of San Cristóbal de la Habana,Roman Catholic Archdiocese of San Cristóbal de la Habana,Roman Catholic Archdiocese of San Cristóbal de la Habana,13500000000,13500000000
Roman Catholic Diocese of Piedras Negras,Roman Catholic Archdiocese of Monterrey,Roman Catholic Archdiocese of Monterrey,Roman Catholic Archdiocese of Monterrey,Roman Catholic Archdiocese of Monterrey,56627500044,56627500044
Roman Catholic Diocese of Picos,Roman Catholic Archdiocese of Teresina,Roman Catholic Archdiocese of Teresina,Roman Catholic Archdiocese of Teresina,Roman Catholic Archdiocese of Teresina,23121000000,23121000000
Roman Catholic Diocese of Piazza Armerina,Roman Catholic Archdiocese of Agrigento,Roman Catholic Archdiocese of Agrigento,Roman Catholic Archdiocese of Agrigento,Roman Catholic Archdiocese of Agrigento,2003000000,2003000000
Roman Catholic Diocese of Piacenza-Bobbio,Roman Catholic Archdiocese of Modena-Nonantola,Roman Catholic Archdiocese of Modena-Nonantola,Roman Catholic Archdiocese of Modena-Nonantola,Roman Catholic Archdiocese of Modena-Nonantola,3716000000,3716000000
Roman Catholic Diocese of Phú Cường,Roman Catholic Archdiocese of Ho Chi Minh city,Roman Catholic Archdiocese of Ho Chi Minh city,Roman Catholic Archdiocese of Ho Chi Minh city,Roman Catholic Archdiocese of Ho Chi Minh city,10855000000,10855000000
Roman Catholic Diocese of Phát Diệm,Roman Catholic Archdiocese of Hanoi,Roman Catholic Archdiocese of Hanoi,Roman Catholic Archdiocese of Hanoi,Roman Catholic Archdiocese of Hanoi,1787000000,1787000000
Roman Catholic Diocese of Phoenix,Roman Catholic Archdiocese of Santa Fe,Roman Catholic Archdiocese of Santa Fe,Roman Catholic Archdiocese of Santa Fe,Roman Catholic Archdiocese of Santa Fe,113874007247,113874007247
Roman Catholic Diocese of Phan Thiết,Roman Catholic Archdiocese of Ho Chi Minh city,Roman Catholic Archdiocese of Ho Chi Minh city,Roman Catholic Archdiocese of Ho Chi Minh city,Roman Catholic Archdiocese of Ho Chi Minh city,7854000000,7854000000
Roman Catholic Diocese of Phú Cường,Roman Catholic Archdiocese of Ho Chi Minh city,Roman Catholic Archdiocese of Ho Chi Minh city,Roman Catholic Archdiocese of Ho Chi Minh city,Roman Catholic Archdiocese of Ho Chi Minh city,10855000000,10855000000
Roman Catholic Diocese of Phát Diệm,Roman Catholic Archdiocese of Hanoi,Roman Catholic Archdiocese of Hanoi,Roman Catholic Archdiocese of Hanoi,Roman Catholic Archdiocese of Hanoi,1787000000,1787000000
Roman Catholic Diocese of Petrópolis,Roman Catholic Archdiocese of Niterói,Roman Catholic Archdiocese of Niterói,Roman Catholic Archdiocese of Niterói,Roman Catholic Archdiocese of Niterói,3075000000,3075000000
Roman Catholic Diocese of Petrolina,Roman Catholic Archdiocese of Olinda e Recife,Roman Catholic Archdiocese of Olinda e Recife,Roman Catholic Archdiocese of Olinda e Recife,Roman Catholic Archdiocese of Olinda e Recife,31065000000,31065000000
