col0,col1,col2,col3
Woodstream,Northern Dancer,Nearctic,Forli
Woodman,Mr. Prospector,Raise A Native,Buckpasser
Witch Elm,Orme,Ormonde,Ayrshire
Winter's Tale,Arts and Letters,Ribot,Nearctic
Winslow Homer,Unbridled's Song,Unbridled,Summer Squall
Winsili,Dansili,Danehill,Pivotal
Wings of Desire,Pivotal,Polar Falcon,In the Wings
Winged Love,In the Wings,Sadler's Wells,Top Ville
Wince,Selkirk,Sharpen Up,Lyphard
Will Take Charge,Unbridled's Song,Unbridled,Dehere
Wicked Strong,Hard Spun,Danzig,Charismatic
Why Hurry,Precipitation,Hurry On,Blandford
White Moonstone,Dynaformer,Roberto,Seeking The Gold
Whiskery,Whisk Broom II,Broomstick,Peter Pan I
Whirlaway,Blenheim II,Blandford,Sweep
What a Treat,Tudor Minstrel,Owen Tudor,Stymie
Westerner,Danehill,Danzig,Troy
Weekend Surprise,Secretariat,Bold Ruler,Buckpasser
Waxy,Potoooooooo,Eclipse,Herod
Waterloo,Bold Lad,Bold Ruler,Hyperion
Was,Galileo,Sadler's Wells,Green Desert
Warning,Known Fact,In Reality,Roberto
War Relic,Man o' War,Fair Play,Friar Rock
War Pass,Cherokee Run,Runaway Groom,Mr. Prospector
War Command,War Front,Danzig,Red Ransom
War Chant,Danzig,Northern Dancer,Kris S.
War Admiral,Man o' War,Fair Play,Sweep
Waquoit,Relaunch,In Reality,Grey Dawn II
Wannabe Grand,Danehill,Danzig,Shirley Heights
Wando,Langfuhr,Danzig,Woodman
Wahid,Almutawakel,Machiavellian,Rory's Jester
Volponi,Cryptoclearance,Fappiano,Sir Harry Lewis
Volksraad,Green Desert,Danzig,Secretariat
Virginia Waters,Kingmambo,Mr. Prospector,Sadler's Wells
Vintage Crop,Rousillon,Riverman,Bustino
Vindication,Seattle Slew,Bold Reasoning,Strawberry Road
Victory Gallop,Cryptoclearance,Fappiano,Vice Regent
Victorian,Whisk Broom II,Broomstick,Peter Pan I
Victoria Park,Chop Chop,Flares,Windfields
Victoire Pisa,Neo Universe,Sunday Silence,Machiavellian
Ventura,Chester House,Mr. Prospector,Be My Guest
Vengeance of Rain,Zabeel,Sir Tristram,Danehill
Vedette,Voltigeur,Voltaire,Birdcatcher
Vayrann,Brigadier Gerard,Queen's Hussar,Val de Loir
Vallée Enchantée,Peintre Celebre,Nureyev,Lear Fan
Vale of York,Invincible Spirit,Green Desert,Halling
Val Royal,Royal Academy,Nijinsky II,Bikala
Vagrancy,Sir Gallahad,Teddy,Man o' War
User Friendly,Slip Anchor,Shirley Heights,Blakeney
Untapable,Tapit,Pulpit,Prized
Unrivaled Belle,Unbridled's Song,Unbridled,Bertrando
Unite,Kris,Sharpen Up,Petingo
Union Rags,Dixie Union,Dixieland Band,Gone West
Unfuwain,Northern Dancer,Nearctic,Bustino
Uncle Mo,Indian Charlie,In Excess,Arch
Unbridled's Song,Unbridled,Fappiano,Caro
Unbreakable,Sickle,Phalaris,Prince Palatine
US Army Ranger,Galileo,Sadler's Wells,Dalakhani
Tyrnavos,Blakeney,Hethersett,Derring-Do
Typhoon Tracy,Red Ransom,Roberto,Last Tycoon
Typecast,Prince John,Princequillo,Summer Tan
Twilight Tear,Bull Lea,Bull Dog,Blue Larkspur
Twice Over,Observatory,Distant View,Caerleon
Turtle Island,Fairy King,Northern Dancer,High Top
Tulyar,Tehran,Bois Roussel,Nearco
Tudor Minstrel,Owen Tudor,Hyperion,Sansovino
Try My Best,Northern Dancer,Nearctic,Buckpasser
True North III,Northern Dancer,Nearctic,Rosemont
Tromos,Busted,Crepello,Derring-Do
Tristan,Hermit,Newminster,Stockwell
Triptych,Riverman,Never Bend,Hail To Reason
Trip To Paris,Champs Elysees,Danehill,Fantastic Light
Trillion,Hail To Reason,Turn-To,Tulyar
Treve,Motivator,Montjeu,Anabaa
Treasure Beach,Galileo,Sadler's Wells,Mark of Esteem
Traffic Judge,Alibhai,Hyperion,Discovery
Trading Leather,Teofilo,Galileo,Sinndar
Tracery,Rock Sand,Sainfoin,Orme
Tout Seul,Ali-Royal,Royal Academy,Green Dancer
