col0,col1,col2,col3,col4
Siege of Tunis,Tunis,Mercenary War,Carthaginian defeat,uncertain
Siege of Tubac,Confederate Arizona,American Civil War,"Apache strategic victory, Confederate tactical victory",1fort
Siege of Tsingtao,Kiautschou Bay concession,World War I,Alliedvictory,1 aircraft
Siege of Troitse-Sergiyeva Lavra,Moscow Oblast,Polish-Muscovite War,Russian victory,"15,000"
Siege of Tripolitsa,Greece,Greek War of Independence,Decisive Greek victory,"8,000 Turkish and 3,000 Albanian troops"
Siege of Tripoli,Tripoli,Ottoman-Habsburg wars,Ottomans capture Tripoli,30–200 knights
Siege of Trichinopoly,Trichinopoly,Imperial Maratha Conquests,"Maratha army successfully captures the town, compelling the surrender ofChanda Sahib.","10,000"
Siege of Trebizond,Empire of Trebizond,Byzantine–Ottoman Wars,Fall of the Empire of Trebizond,"60,000 cavalry,"
Siege of Toyama,Etchu province,Toyotomi Hideyoshi,Toyotomivictory,"100,000 (speculation)"
Siege of Tourane,Đà Nẵng,Cochinchina Campaign,Vietnamese victory,1 50-gun frigate
Siege of Toulon,Toulon,French Revolutionary Wars,French Republican victory,32 Spanish ships
Siege of Toul,Toul,Franco-Prussian War,German victory,120 guns
Siege of Toruń,Poland,Deluge,Polish–Lithuanian victory,"18,700 Polish soldiers (including about 500 Tatars)"
Siege of Tortosa,Spain,Peninsular War,French victory,"12,000"
Siege of Toma,German New Guinea,Asian and Pacific theatre of World War I,Australian victory,110policemen
Siege of Tobruk,Tobruk,Western Desert Campaign,British and Allied victory,"27,000"
Siege of Thorn,Poland,Great Northern War,Swedish victory,"26,000 men"
Siege of Temesvár,Timișoara,Hungarian Revolution of 1848,Austrian victory,"12,000 men"
Siege of Temesvár,Timișoara,Ottoman-Habsburg wars,Decisive Ottoman victory,30
Siege of Temesvár,Timișoara,Hungarian Revolution of 1848,Austrian victory,"12,000 men"
Siege of Temesvár,Romania,Ottoman wars in Europe,Decisive Ottoman victory,30
Siege of Tel al-Zaatar,Beirut,Lebanese Civil War,Destruction of the camp,"LF: ~ 3,000"
Siege of Tbilisi,Georgia,Timurid Wars,"DecisiveTimuridvictory,",39.000 Turk and mongol soldiers
Siege of Tarragona,Spain,Peninsular War,French victory,"1,600"
Siege of Tarragona,Spain,Peninsular War,French victory,"21,634"
Siege of Tarifa,Spain,Peninsular War,Anglo-Spanish victory,"2,300, 26 guns"
Siege of Takatō,Japan,Sengoku period,Takeda victory,5000
Siege of Takabaru,Hyūga Province,Sengoku period,Shimazu victory,6000
Siege of Taganrog,Sea of Azov,Crimean War,Russian victory,1 steamer
Siege of Tönning,Tönning,Great Northern War,"1700: siege lifted ,Peace of Travendal","1,600 Holsteiners (1713–1714)"
Siege of São Filipe,Azores,Portuguese Restoration War,Portuguese victory,530 men
Siege of Szigetvár,Szigetvár,Ottoman wars in Europe,Ottomanpyrrhic victory,"* 12,000–15,000 Tatars"
Siege of Syracuse,Sicily,Muslim conquest of Sicily,Byzantine victory,"8,000–9,000 men (Vasiliev)"
Siege of Syracuse,Italy,Sicilian Wars,Greek victory,"2,000 transports"
Siege of Syracuse,Italy,Sicilian Wars,"Corinthian victory, democracy restored to Syracuse",150 ships
Siege of Syracuse,Italy,Sicilian Wars,Syracusan victory,"120,000 infantry"
Siege of Syracuse,Italy,Pyrrhic War,Carthaginian retreat,"50,000 land troops"
Siege of Syracuse,"Syracuse, Sicily",Second Punic War,Roman victory,"18,000 Infantry 2,000 cavalry"
Siege of Svetigrad,Kodžadžik,Ottoman wars in Europe,Ottoman Victory: garrison surrenders and Ottomans seize the fortress,"2,000 men garrisoned; 12,000 men stationed in the surrounding countryside under Skanderbeg."
Siege of Surakarta,Surakarta,Indonesian National Revolution,Dutch victory,325 RST troops
Siege of Suncheon,Korean Peninsula,Japanese invasions of Korea,Japanese victory,"14,000"
Siege of Suffolk,"Suffolk, Virginia",American Civil War,Inconclusive,"20,000"
Siege of Strasbourg,Strasbourg,Franco-Prussian War,German victory,"23,000"
Siege of Stralsund,Stralsund,Napoleonic Wars,French victory,"15,000, 500 guns"
Siege of Stralsund,Stralsund,Great Northern War,Prussian-Danish-Saxon-Russian victory,"36,000 soldiers"
Siege of Steenwijk,Netherlands,Eighty Years' War,Anglo Dutch victory,1060
Siege of Steenwijk,Netherlands,Eighty Years' War,Anglo-Dutch victory,"1,200 (by December)"
Siege of St. John's,"St. John's, Newfoundland and Labrador",Queen Anne's War,French assault called off after heavy losses,450
Siege of St. Augustine,Spanish Florida,Queen Anne's War,Spanish victory,"1,500 civilians"
Siege of Srebrenica,Bosnia,Bosnian War,*Beginning of theSrebrenica massacre,"+2,000 soldiers"
Siege of Sparta,Sparta,Pyrrhus' invasion of the Peloponnese,Spartan-Macedonian victory,"2,000 +"
Siege of Smolensk,Smolensk,Smolensk War,Polish victory,160 artillery pieces
Siege of Smolensk,Smolensk,Polish–Muscovite War,Polish victory,200 heavy guns
Siege of Smolensk,Smolensk,Muscovite–Lithuanian Wars,Russian victory,140 to 300 cannons
Siege of Smerwick,Ard na Caithne,Second Desmond Rebellion,English victory,400–500
Siege of Sluis,Netherlands,Eighty Years' War,Anglo-Dutch victory,"11,000"
Siege of Sloviansk,Ukraine,War in Donbass,DPR forces withdraw toDonetsk,"15,000+ personnel"
Siege of Silistra,Silistra,Crimean War,Ottoman victory,"18,000"
Siege of Sidon,Sidon,Norwegian Crusade,Crusader victory,Afleetof ships. The exact number of this fleet is not known.
Siege of Shkodra,Shkodër,Ottoman–Venetian War,Ottoman victory;Treaty of Constantinople (1479),"1,600 inside the garrison"
Siege of Shimoda,Japan,Sengoku period,Siege succeeds;Toyotomi Hideyoshivictory,"14,000 men"
Siege of Shika Castle,Japan,Sengoku period,Siege succeeds; Takeda victory,2600
Siege of Shaizar,Syria,Crusade,Incomplete Christian victory,Unknown
Siege of Sevastopol,Russian SFSR,Eastern Front,Axis victory,"118,000 men"
Siege of Sevastopol,Russian Empire,Crimean War,Decisive Allied victory,* Arriving in August:
Siege of Seringapatam,Kingdom of Mysore,Fourth Anglo-Mysore War,Decisive British-Hyderabad victory,"30,000"
Siege of Serdica,Sofia,Byzantine-Bulgarian Wars,Decisive Bulgarian victory,"6,000"
Siege of Segesta,Segesta,Sicilian Wars,Greek Strategic Defeat,"50,000 from Carthage"
Siege of Scutari,Albania,First Balkan War,"A Peace treaty signed byEssad PashaandKing Nikola, that returned Shkodër to the Albanian Principality.","20,000"
Siege of Schenkenschans,Schenkenschanz,Eighty Years' War,Dutch victory,"1,500"
Siege of Savannah,"Savannah, Georgia",American Revolutionary War,British victory,"3,200"
Siege of Savage's Old Fields,"Ninety Six, South Carolina",American Revolutionary War,Inconclusive,"1,900 militia"
Siege of Sardis,Lydia,Cyrus the Great,DecisivePersianvictory,Unknown
Siege of Sarajevo,Sarajevo,Bosnian War,Numerous civilian casualties,"13,000 soldiers"
Siege of Saqlawiyah,Iraq,Iraq War,*ISIL capturesSaqlawiyahand Sicher,820
Siege of Santuario de Nuestra Señora de la Cabeza,Andalusia,Spanish Civil War,Republican victory,"1,200 men"
Siege of Santo Domingo,Santo Domingo,Anglo-Spanish War,* The English forces failed to captureHispaniola,"*1,300 lancers"
Siege of Santiago,Cuba,Spanish–American War,Decisive U.S./Cuban victory,"13,000infantry"
Siege of Santarém,Portugal,Reconquista,Decisive Christian victory,unknown
Siege of Sanjō Palace,Japan,Heiji Rebellion,Tairaclan victory; Palace destroyed,500?
Siege of Sangin,Afghanistan,War in Afghanistan,Coalition victory.,"120-150 British soldiers (DC garrison), 1,000 ISAF relief forces"
Siege of Sancerre,Sancerre,French Wars of Religion,Catholic victory by famine,"2,400"
Siege of Sana'a,Sana'a,Ethiopian-Persian wars,Sassanidvictory,Unknown
Siege of San Sebastián,Spain,Peninsular War,Anglo-Portuguese victory (2nd),"3,380"
Siege of San José del Cabo,San José del Cabo,Mexican-American War,United States victory,102 Cyane sailors and marines
Siege of Sambhal,India,Mughal Empire,DecisiveMughalvictory,Larger
Siege of Salvador,Bahia,War of Independence of Brazil,Brazilian victory,"1 ""Charrua"""
Siege of Salto,"Salto, Uruguay",Uruguayan War,Brazilian victory,2 gunboats
Siege of Saint-Omer,Saint-Omer,Franco-Spanish War,Spanish victory,(Châtillon)
Siege of Saint-Martin-de-Ré,Île de Ré,Huguenot rebellions,French victory,"1,200 men"
Siege of Saguntum,Spain,Second Punic War,Carthaginian victory,"29,000"
Siege of Sadr City,Iraq,Iraq War,Ceasefire agreement signed. Iraqi government forces allowed to enter and patrol Sadr City,"10,000+ (Iraqi Security Forces)"
Siege of São Filipe,Angra do Heroísmo,Portuguese Restoration War,Portuguese victory,530 men
Siege of Ryūgasaki,Shinano Province,Sengoku period,Takeda victory,2500
Siege of Ryazan,Ryazan,Mongol Invasion of Rus,Mongol victory; Ryazan burned to the ground,Unknown
Siege of Ryūgasaki,Shinano Province,Sengoku period,Takeda victory,2500
Siege of Ruthven Barracks,Scottish Highlands,Jacobite Rising of 1745,"Jacobite victory, Government garrison surrenders.",300 men
Siege of Ruthven Barracks,Scottish Highlands,Jacobite Rising of 1745,"Victory for British-Hanoverian Government, Jacobites repulsed",15 men (1 Sergeant and 14 Privates)
Siege of Rustenburg,Rustenburg,First Boer War,South African Republic victory; Rustenburg is captured,6 men of theRustenburg Rifle Volunteers
Siege of Roxburgh Castle,Roxburgh Castle,Wars of Scottish Independence,Scottish victory,Thousands
