col0,col1,col2,col3
USS Richard P. Leary,1959-03-10,1943-07-04,1943-10-06
USS Richard L. Page,1967-07-27,1965-01-04,1966-04-04
USS Richard E. Kraus,1977-02-23,1945-07-31,1946-03-02
USS Richard B. Anderson,1977-06-01,1944-12-01,1945-07-07
USS Reybold,1944-08-15,1943-05-03,1943-08-22
USS Repose,1944-09-14,1943-10-22,1944-08-08
USS Remora,1973-10-29,1945-03-05,1945-07-12
USS Reign,1946-10-11,1943-10-30,1944-05-29
USS Reid,1999-01-05,1980-10-08,1981-06-27
USS Regulus,1952-05-05,1944-04-29,1944-06-07
USS Refresh,1948-06-30,1943-09-22,1944-04-12
USS Reform,1948-06-15,1943-06-24,1944-01-25
USS Reeves,1970-08-14,1960-07-01,1962-05-12
USS Redwing,1959-06-18,1953-07-01,1954-04-29
USS Redstart,1963-07-25,1944-06-14,1944-10-18
USS Recovery,1998-09-30,1945-01-06,1945-08-04
USS Reasoner,1971-06-22,1969-01-06,1970-08-01
USS Razorback,1970-11-30,1943-09-09,1944-01-27
USS Rawlins,1944-11-11,1944-08-10,1944-10-21
USS Rapidan,1921-10-29,1919-02-02,1919-10-25
USS Ranger,1957-08-01,1954-08-02,1956-09-29
USS Ramsey,1967-05-26,1963-02-04,1963-10-15
USS Rampart,1945-05-21,1943-11-24,1944-03-30
USS Raleigh,1778-09-25,1776-03-21,1776-05-21
USS Rainier,1941-04-16,1940-05-14,1941-03-01
USS Racine,1971-06-17,1969-12-13,1970-08-15
USS Raccoon,1944-01-31,1943-11-07,1943-12-23
USS Rabaul,1946-08-30,1945-01-02,1945-06-14
USS R-3,1941-11-04,1917-12-11,1919-01-18
USS R-19,1942-03-09,1917-06-23,1918-01-28
