col0,col1,col2,col3,col4
N. Fukuzumi,ART Grand Prix,Tokushima Prefecture,1997-01-24,1997-01-24
N. Martsenko,Comtec Racing,Krasnoyarsk,1993-05-25,1993-05-25
N. Karamyshev,Campos Racing,Soviet Union,1966-12-17,1966-12-17
N. Mayr-Melnhof,Vitaphone Racing,Leoben,1978-11-09,1978-11-09
N. Kari,Motopark Academy,Hyvinkää,1999-10-06,1999-10-06
N. Mazepin,Hitech Racing,Moscow,1999-03-02,1999-03-02
N. Melker,Tech 1 Racing,Netherlands,1991-01-25,1991-01-25
N. Prost,Rebellion Racing,"Saint-Chamond, Loire",1981-08-18,1981-08-18
N. Maulini,Jenzer Motorsport,Geneva,1981-01-05,1981-01-05
N. Hamilton,AmD Essex,England,1992-03-28,1992-03-28
N. Beer,EuroInternational,Denmark,1996-04-05,1996-04-05
N. Armindo,Matech Competition,Colmar,1982-03-08,1982-03-08
N. d. Marco,MotorSport Vision,Pordenone,1990-08-28,1990-08-28
N. Verdonck,DAMS,Brussels,1985-12-05,1985-12-05
N. Müller,Abt Sportsline,Switzerland,1992-02-25,1992-02-25
N. Jönsson,Krohn Racing,Bankeryd,1967-08-04,1967-08-04
N. Grönholm,Olsbergs MSE,Kauniainen,1996-05-20,1996-05-20
N. Tandy,KCMG,Bedford,1984-11-05,1984-11-05
N. Heidfeld,Rebellion Racing,Mönchengladbach,1977-05-10,1977-05-10
N. Foster,West Surrey Racing,Redditch,1965-10-10,1965-10-10
N. Cassidy,Prema Powerteam,Auckland,1994-08-19,1994-08-19
N. Latifi,Arden International,Toronto,1995-06-29,1995-06-29
N. Wei,Son Veng Racing Team,China,1981-03-21,1981-03-21
N. Panciatici,Mofaz Racing,Reims,1988-09-26,1988-09-26
N. Mason,Hilmer Motorsport,"Niagara Falls, Ontario",1987-10-13,1987-10-13
N. Jani,Porsche,A1 Team Switzerland,1983-12-08,1983-12-08
N. Hanjitkasen,TBN MK Racing Team,Bangkok,1992-06-01,1992-06-01
N. Berthon,Team Lazarus,France,1989-07-01,1989-07-01
N. Kowalska,MotorSport Vision,Koszalin,1989-12-31,1989-12-31
N. Gachnang,MotorSport Vision,Vevey,1987-10-27,1987-10-27
N. Ittiritpong,Vattana Motorsport,Thailand,1983-07-30,1983-07-30
N. Jeffri,Motopark Academy,Kuala Lumpur,1993-10-24,1993-10-24
M. Sathienthirakul,Craft-Bamboo Racing,Bangkok,1985-10-06,1985-10-06
M. Dons,University of Bolton,Denmark,1988-12-29,1988-12-29
M. Gilbert,Carlin Motorsport,Kuala Lumpur,1994-05-10,1994-05-10
M. Evans,Campos Racing,Auckland,1994-06-24,1994-06-24
M. Jensen,Mücke Motorsport,Aarhus,1994-12-31,1994-12-31
M. Monrás,MotorSport Vision,Barcelona,1992-01-17,1992-01-17
M. Kozlovskiy,Lada Sport,Saint Petersburg,1989-10-17,1989-10-17
M. Grachev,WestCoast Racing,Russia,1988-01-04,1988-01-04
M. Aleshin,Schmidt Peterson Motorsports,Russian Soviet Federative Socialist Republic,1987-05-22,1987-05-22
M. Rockenfeller,Abt Sportsline,West Germany,1983-10-31,1983-10-31
M. Parisy,Mühlner Motorsport,"Pau, Pyrénées-Atlantiques",1984-10-08,1984-10-08
M. Conway,Toyota Motorsport GmbH,England,1983-08-19,1983-08-19
M. Marinescu,Zeta Corse,Brașov,1989-01-25,1989-01-25
M. Ramos,Vitaphone Racing,Porto,1971-09-26,1971-09-26
M. Molina,Abt Sportsline,Spain,1989-02-17,1989-02-17
M. Cerruti,Romeo Ferraris,Rome,1987-02-18,1987-02-18
M. Rossi,SUNRED Engineering,Chambéry,1988-04-12,1988-04-12
M. Meadows,Redline Racing,Oxford,1987-09-11,1987-09-11
M. Krumm,Nismo,Baden-Württemberg,1970-03-19,1970-03-19
M. Epps,Tony Gilham Racing,Hemel Hempstead,1992-03-12,1992-03-12
M. Christensen,DAMS,Karlslunde,1990-08-28,1990-08-28
M. Choi,Prince Racing,Hong Kong,1968-06-25,1968-06-25
M. Caine,Motorbase Performance,Cambridge,1969-08-13,1969-08-13
M. Bartels,Vitaphone Racing,Plettenberg,1968-03-08,1968-03-08
M. Andretti,Andretti Autosport,"Bethlehem, Pennsylvania",1962-10-05,1962-10-05
M. Ammermüller,Walter Lechner Racing,A1 Team Germany,1986-02-14,1986-02-14
M. Rossi,SUNRED Engineering,Chambéry,1988-04-12,1988-04-12
M. Rojas,DeltaWing,Mexico,1981-08-18,1981-08-18
M. Gidley,GAINSCO/Bob Stallings Racing,Mexico,1970-09-29,1970-09-29
M. McKee,Bamboo Engineering,Singapore,1994-08-19,1994-08-19
M. v. Buuren,Pons Racing,Rockanje,1995-01-05,1995-01-05
M. Bennani,Sébastien Loeb Racing,"Fez, Morocco",1983-08-25,1983-08-25
M. Günther,Prema Powerteam,Oberstdorf,1997-07-02,1997-07-02
M. Götz,HWA Team,West Germany,1986-02-04,1986-02-04
M. Günther,Prema Powerteam,Oberstdorf,1997-07-02,1997-07-02
M. Götz,HWA Team,West Germany,1986-02-04,1986-02-04
M. Martin,BMW Team RBM,Uccle,1986-03-20,1986-03-20
M. Wissel,FC Basel 1893,Alzenau,1989-11-24,1989-11-24
M. Snegirev,Virtuosi Racing,Moscow,1987-06-12,1987-06-12
M. Pucher,World RX Team Austria,Vienna,1954-03-31,1954-03-31
M. Coates,Pro Motorsport,Northallerton,1994-01-04,1994-01-04
M. Russo,AF Corse,"Paraná, Entre Ríos",1985-09-04,1985-09-04
M. Ekström,Abt Sportsline,Sweden,1978-07-14,1978-07-14
M. Vaxivière,AF Corse,Limoges,1994-12-03,1994-12-03
M. Lahaye,OAK Racing,Rennes,1984-11-22,1984-11-22
M. Brabham,Andretti Autosport,"Boca Raton, Florida",1994-02-25,1994-02-25
M. Simpson,Speedworks Motorsport,Berkshire,1981-08-29,1981-08-29
M. Parry,Koiranen GP,Cardiff,1994-01-14,1994-01-14
M. Neal,Team Dynamics,Stourbridge,1966-12-20,1966-12-20
M. Laine,Strakka Racing,Joensuu,1990-04-25,1990-04-25
M. Tuscher,Jenzer Motorsport,"Noville, Switzerland",1996-12-12,1996-12-12
M. Lauda,Mücke Motorsport,Salzburg,1981-01-30,1981-01-30
M. Tuscher,Jenzer Motorsport,"Noville, Switzerland",1996-12-12,1996-12-12
M. Isaakyan,JD Motorsport,Moscow,1998-04-17,1998-04-17
M. Jackson,Motorbase Performance,Henley-in-Arden,1981-06-10,1981-06-10
M. Russo,AF Corse,"Paraná, Entre Ríos",1985-09-04,1985-09-04
M. Liverani,Abarth,Rocca San Casciano,1961-09-19,1961-09-19
M. Mitchell,Mason Mitchell Motorsports,Iowa,1994-06-25,1994-06-25
M. Kawabata,Toyo Tire & Rubber Company,Osaka,1977-10-15,1977-10-15
M. Ida,Formula Racing Development Limited,Japan,1961-07-25,1961-07-25
M. Kirchhöfer,Carlin Motorsport,Leipzig,1994-03-19,1994-03-19
M. Tomczyk,Schnitzer Motorsport,West Germany,1981-12-07,1981-12-07
M. Plowman,OAK Racing,Staffordshire,1987-10-03,1987-10-03
M. Donnelly,Pro Motorsport,Belfast,1964-03-26,1964-03-26
M. Depper,Eurotech Racing,Kings Norton,1968-07-05,1968-07-05
M. Cao,Fortec Motorsport,Hunan,1993-02-17,1993-02-17
M. Engel,Mercedes-AMG,Munich,1985-08-27,1985-08-27
M. Stöckinger,Status Grand Prix,Manila,1991-04-04,1991-04-04
M. Pommer,Motopark Academy,Heilbronn,1991-01-27,1991-01-27
M. Palttala,Turner Motorsport,Nakkila,1977-08-16,1977-08-16
M. Oestreich,Campos Racing,Fulda,1963-07-03,1963-07-03
M. Niemelä,Jensen MotorSport,"Rauma, Finland",1984-03-20,1984-03-20
M. Webber,Porsche,New South Wales,1976-08-27,1976-08-27
M. Thompson,Ken Schrader Racing,Georgia,1951-07-09,1951-07-09
M. Howard,Team BKR,Norfolk,1965-01-09,1965-01-09
M. Romancini,Conquest Racing,São Paulo,1987-12-15,1987-12-15
M. Domínguez,Pacific Coast Motorsports,Mexico City,1975-12-01,1975-12-01
M. Zipoli,Target Racing,Genoa,1990-06-16,1990-06-16
M. Wittmann,Team RMG,West Germany,1989-11-24,1989-11-24
M. Sørensen,Carlin Motorsport,Aalborg,1990-09-06,1990-09-06
M. Holzer,Paul Miller Racing,Germany,1988-07-30,1988-07-30
M. Bonanomi,Team Joest,Italy,1985-03-12,1985-03-12
M. Barba,Campos Racing,Seville,1985-11-10,1985-11-10
M. Andretti,Andretti Autosport,"Nazareth, Pennsylvania",1987-03-13,1987-03-13
M. Hynes,Triple Eight Race Engineering,Guildford,1978-02-26,1978-02-26
M. Gené,Scuderia Ferrari,Sabadell,1974-3-29,1974-3-29
M. Gião,Drivex,Lisbon,1971-06-28,1971-06-28
M. K. Lok,RPM Racing,Hong Kong,1965-08-17,1965-08-17
M. H. Tak,Campos Racing,Hong Kong,1959-10-28,1959-10-28
M. Qinghua,Citroën Total WTCC,Shanghai,1987-12-25,1987-12-25
L. S. Silva,Carlin Motorsport,Benguela,1990-08-23,1990-08-23
L. Razia,Schmidt Peterson Motorsports,Barreiras,1989-04-04,1989-04-04
L. Leeds,Arden International,Australia,2000-03-06,2000-03-06
L. Díaz,Level 5 Motorsports,Mexico City,1977-12-01,1977-12-01
L. Ferrara,Top Run Motorsport,Bari,1982-05-12,1982-05-12
L. Cypriano,JSB Compétition,Hauts-de-Seine,1996-09-02,1996-09-02
L. d. Grassi,Joest Racing,São Paulo,1984-08-11,1984-08-11
L. Foresti,Comtec Racing,Brasília,1992-05-12,1992-05-12
L. Auer,Mücke Motorsport,Tyrol,1994-09-11,1994-09-11
L. Ghiotto,Trident Racing,Arzignano,1995-02-24,1995-02-24
L. Filippi,Dale Coyne Racing,Italy,1985-08-09,1985-08-09
L. S. Silva,Carlin Motorsport,Benguela,1990-08-23,1990-08-23
L. Duval,Joest Racing,Chartres,1982-06-12,1982-06-12
L. Delétraz,Fortec Motorsport,Geneva,1997-04-22,1997-04-22
L. Hezemans,Target Competition,Belgium,1997-05-26,1997-05-26
L. Veglia,Engstler Motorsport,Italy,1996-10-07,1996-10-07
L. Duval,Joest Racing,Chartres,1982-06-12,1982-06-12
L. Read,Bryan Herta Autosport,Great Britain,1990-11-29,1990-11-29
L. Griffin,Motorbase Performance,Chipping Barnet,1973-03-09,1973-03-09
L. Williamson,Bamboo Engineering,Dundee,1989-11-11,1989-11-11
L. Munter,Venturini Motorsports,Minnesota,1974-02-18,1974-02-18
L. Keen,Alex Job Racing,Georgia,1983-07-22,1983-07-22
L. Cazenave,Wiechers-Sport,"Pau, Pyrénées-Atlantiques",1978-04-25,1978-04-25
L. Vanthoor,W Racing Team,Hasselt,1991-05-08,1991-05-08
L. Sørensen,Manor Motorsport,Aalborg,1996-12-07,1996-12-07
L. Norris,Josef Kaufmann Racing,Bristol,1999-11-13,1999-11-13
L. Stroll,Prema Powerteam,Montreal,1998-10-29,1998-10-29
L. Sanz,KTM,Barcelona,1985-12-11,1985-12-11
K. Estre,OAK Racing,Lyon,1988-10-28,1988-10-28
K. Einar,Team West-Tec,Reykjavík,1989-01-08,1989-01-08
K. Tereshchenko,Campos Racing,Moscow,1994-06-17,1994-06-17
K. Hirate,SARD,Komaki,1986-03-24,1986-03-24
K. Graf,Muscle Milk Pickett Racing,Germany,1969-07-21,1969-07-21
K. Ladygin,Russian Bears Motorsport,"Sverdlovsk, Luhansk Oblast",1978-12-17,1978-12-17
K. Sato,Campos Racing,Kobe,1989-10-05,1989-10-05
K. Gallagher,Tony Gilham Racing,Scotland,1990-03-10,1990-03-10
K. Tse,Teamwork Motorsport,Hong Kong,1979-01-19,1979-01-19
K. Korjus,ART Grand Prix,Tallinn,1993-01-09,1993-01-09
