col0,col1,col2,col3
James T. Foley United States Courthouse,E. D. Litchfield,267092,267092
James L. Fleming House,B. &. Klutz,1214,1214
James L. Coke House,C. Dickey,2428,2428
James A. Redden Federal Courthouse,O. Wenderoth,1625,1625
James A. Garfield Memorial,C. Buberl,2023,2023
James A. Farley Post Office Building,"McKim, Mead, and White",32374,32374
Jacob Kamm House,J. F. Krumbein,1214,1214
Jackson Uptown Commercial Historic District,P. Weathers,12140,12140
Jackson County Courthouse,S. &. Carrier,22257,22257
Jack Lamberson House,F. L. Wright,8093,8093
J. R. Allen House,Richard Karl August Kletting,16187,16187
J. Nelson Kelly House,G. F. Barber,4046,4046
J. Marvin Jones Federal Building and United States Courthouse,W. C. Hedrick,4046,4046
J. G. Edwards House,A. E. Doyle,4451,4451
J. Clarence Kind House,R. Mills,343,343
Islesford Historical Museum and Blue Duck Ships Store,E. B. Gilchrist,5260,5260
Isaac Farrar Mansion,R. Upjohn,0,0
Isaac Bell House,"McKim, Mead and White",4046,4046
Irwin Consolidated School,W. F. Gernandt,4046,4046
Ironwood Memorial/Municipal Building,B. &. Kinports,2023,2023
Ira F. Powers Warehouse and Factory,C. a. Claussen,4775,4775
Iowa State Capitol,A. H. Piquenard,68796,68796
Iowa Soldiers' Orphans' Home,J. W. Ross,133546,133546
Inyo County Courthouse,W. H. Weeks,6070,6070
Insco Apartments Building,C. I. Williams,4046,4046
Indianapolis Public Library,P. Cret,4046,4046
Indianapolis Park and Boulevard System,G. E. Kessler,14058779,14058779
Indianapolis City Market,"Bohlen, Meyer, Gibson and Associates",2023,2023
Indiana Theatre,R. a. Hunter,4046,4046
Indiana Armory,J. F. Kuntz,1214,1214
Indera Mills,N. &. O'Brien,8093,8093
Independence Mines,N. Lester Troast & Associates,303514,303514
Independence Building,F. P. Milburn,809,809
Imnaha Guard Station,Architects of the United States Forest Service,4046,4046
Immaculate Conception Church and School,J. M. Nachtigall,4046,4046
Immaculate Conception Catholic Church,DeCurtins,12140,12140
Illinois State Police Office,Illinois,10359,10359
Illinois State Capitol,J. F. Rague,10117,10117
Illinois Central Railroad Yard-Cherokee,I. C. Railroad,76890,76890
Hutzler Brothers Palace Building,B. &. Pennington,809,809
Hutton Settlement District,W. &. Price,60702,60702
Hurricane Mountain Fire Observation Station,A. Company,78104,78104
Hurd & Fitzgerald Building,F. H. Gouge,809,809
Huntridge Theater,S. C. Lee,8093,8093
Huntingdon Armory,J. F. Kuntz,29946,29946
Hunter Museum of American Art,A. Garfield,5665,5665
Humble Oil Building,C. a. Russell,10117,10117
Hull House,P. a. Pond,4046,4046
Hulihee Palace,J. A. Kuakini,4046,4046
Huerfano County High School,I. H. Rapp,6070,6070
Hudspeth County Courthouse,E. P. Texas,4046,4046
Hudson River State Hospital,F. L. Olmsted,1197869,1197869
Howard Park Historic District,A. &. Shambleau,111693,111693
Howard County Courthouse,G. A. Berlinghof,8093,8093
Housatonic River Railroad Bridge,A. B. Company,4046,4046
Hotel Norfolk,H. S. Co.,4046,4046
Hotel Lafayette,J. A. Johnson,3480,3480
Hotel Benton,H. &. Dougan,4046,4046
Hotel Argonne,DeCurtins,4046,4046
Horace Walker House,F. W. Smith,209,209
Horace Jayne House,"Furness, Evans & Co.",404,404
Hopewell Baptist Church,B. Goff,4046,4046
