col0,col1,col2,col3
Wu-Chronicles,Wu-Tang Clan,Wu-Tang Forever,4077
Wrote a Song for Everyone,John Fogerty,The Blue Ridge Rangers Rides Again,3567
Wrote a Song About You,MNEK,Every Little Word,211
Wrongdoers,Norma Jean,Meridional,2963
Wrong for Each Other,Andy Williams,Charade,138
Wrong Way Up,Brian Eno,Textures,2490
Wrong Way,Sublime,Santeria,136
Wrong Side of Memphis,Trisha Yearwood,The Woman Before Me,166
Wrong Side of Heaven,Five Finger Death Punch,Mama Said Knock You Out,271
"Wrong Place, Wrong Time",Mark Chesnutt,It Wouldn't Hurt to Have Wings,213
Wrong Number,The Cure,Gone!,252
Wrong Night,Reba McEntire,Forever Love,171
Wrong Impression,Natalie Imbruglia,That Day,193
Wrong Ideas,Brenda Lee,Sunday Sunrise,188
Wrong Idea,Bad Azz,Word on tha Streets,254
Wrong Highway Blues,Northern Lights,Can't Buy Your Way,2917
Wrong Eye/Scope,Coil,The Unreleased Themes For Hellraiser,760
Wrong Crowd,Tom Odell,Real Love,267
Wrong Baby Wrong Baby Wrong,Martina McBride,I Just Call You Mine,219
Wrong Again,Martina McBride,Happy Girl,195
Wrong,Nomeansno,Small Parts Isolated and Destroyed,2394
Wrong,Zayn Malik,Like I Would,212
Wrong,Depeche Mode,Martyr,193
Written on Ya Kitten,Naughty by Nature,It's On,261
Written on Her,Birdman,Always Strapped,235
Written in the Stars,Tinie Tempah,Frisky,208
Written in the Sand,Michael Schenker Group,Rock Will Never Die,3063
Written in Scars,Jack Savoretti,Before the Storm,2280
Written in Red,The Stranglers,About Time,2451
Written in Blood,Cheap Sex,Headed for a Breakdown,2056
Writing to Reach You,Travis,More Than Us,221
Writing on the Wall,George Jones,The King Is Gone,175
Writing on the Wall,Bucks Fizz,I Hear Talk,2620
Writing's on the Wall,Sam Smith,Omen,278
Writers Without Homes,Piano Magic,Son de Mar,3120
Writer's Block,Peter Bjorn and John,Falling Out,2731
Writer's Block,Just Jack,Glory Days,223
Writer's Block,Evergreen Terrace,Burned Alive by Time,2051
Write to Death,Illogic,Celestial Clockwork,71
Write Your Own History,Field Music,Field Music,1512
Write This Down,George Strait,Meanwhile,221
Write On Me,Fifth Harmony,The Life,219
Write On,The Hollies,Another Night,2072
Write Me a Letter,Aerosmith,Mama Kin,252
Write Me Back,R. Kelly,Love Letter,2780
Write It on Your Skin,Newton Faulkner,I Hate Mondays,194
Write It on Your Skin,Newton Faulkner,Rebuilt by Humans,2197
Write About Love,Belle & Sebastian,White Collar Boy,173
