col0,col1,col2,col3
Castlevania: Curse of Darkness,M. Yamane,K. Igarashi,Konami
Castlevania: Aria of Sorrow,M. Yamane,K. Igarashi,Konami
Call of Duty 3,J. Goldsmith,M. Guggenheim,Activision
Call of Duty: Modern Warfare 3,B. Tyler,P. Haggis,Activision
Call of Duty: Ghosts,D. Buckley,S. Gaghan,Activision
Call of Duty: Black Ops II,J. Wall,D. S. Goyer,Activision
Call of Duty: Black Ops,S. Murray,D. S. Goyer,Activision
Call of Duty: Advanced Warfare,H. Gregson-Williams,M. Boal,Activision
Bully,S. Lee,D. Houser,Rockstar Games
Brütal Legend,P. McConnell,T. Schafer,Electronic Arts
Broken Sword: The Shadow of the Templars,B. Pheloung,C. Cecil,Virgin Interactive
Broken Age,P. McConnell,T. Schafer,Double Fine Productions
Brütal Legend,P. McConnell,T. Schafer,Electronic Arts
Borderlands 2,J. Kyd,"Hey Ash, Whatcha Playin'?",2K Games
Blue Dragon,N. Uematsu,H. Sakaguchi,Microsoft Studios
Blood of Bahamut,N. Mizuta,M. Toriyama,Square Enix
Blood Omen 2,J. Hedges,B. Robbins,Eidos Interactive
Black Rock Shooter: The Game,M. Namiki,K. Nojima,Nippon Ichi Software
BioShock Infinite: Burial at Sea,G. Schyman,K. Levine,2K Games
