col0,col1,col2,col3
Wiener Neustadt East Airport,Wiener Neustadt,LOAN,273
Wickenby Aerodrome,Langworth,EGNW,25
Wick Airport,"Wick, Highland",EGPC,38
Whyalla Airport,Whyalla,YWHA,12
Whitegrass Airport,Vanuatu,NVVW,5
Whitecourt Airport,Whitecourt,CYZU,782
White Mountain Airport,"White Mountain, Alaska",PAWM,81
White County Airport,"Monticello, Indiana",KMCX,206
Wheeling Ohio County Airport,"Wheeling, West Virginia",KHLG,363
Wheaton Municipal Airport,"Wheaton, Minnesota",KETH,312
Wheatland County Airport,"Harlowton, Montana",KHWQ,1313
Wharton Regional Airport,"Wharton, Texas",KARM,30
Westover Metropolitan Airport,"Springfield, Massachusetts",KCEF,73
Weston Airport,Dublin,EIWT,47
Westfield-Barnes Regional Airport,"Springfield, Massachusetts",KBAF,82
Western Nebraska Regional Airport,"Scottsbluff, Nebraska",KBFF,1209
Western Carolina Regional Airport,"Andrews, North Carolina",KRHP,517
Westerly State Airport,"Westerly, Rhode Island",KWST,24
Westchester County Airport,"Westchester County, New York",KHPN,133
West Woodward Airport,"Woodward, Oklahoma",KWWR,667
West Plains Regional Airport,"West Plains, Missouri",KUNO,374
West Michigan Regional Airport,"Holland, Michigan",KBIV,212
West Memphis Municipal Airport,"West Memphis, Arkansas",KAWM,64
West Kilimanjaro Airstrip,Kilimanjaro National Park,HTWK,1310
West Houston Airport,"Houston, Texas",KIWS,33
West Georgia Regional Airport,"Carrollton, Georgia",KCTJ,353
West End Airport,Grand Bahama,MYGW,1
West Bend Municipal Airport,"West Bend, Wisconsin",KETB,270
West 30th Street Heliport,New York City,KJRA,2
Wenshan Puzhehei Airport,China,(Location of the airport in Yunnan),1590
Wendover Airport,"Wendover, Utah",KENV,1291
Wels Airport,Wels,LOLW,317
Wellsville Municipal Airport,Wellsville,KELZ,647
Wells Municipal Airport,"Wells, Nevada",KLWL,1758
Wellington Municipal Airport,"Wellington, Kansas",KEGT,389
Wellington International Airport,New Zealand,(Location of the Wellington International Airport),12
Wekweètì Airport,Canada,CYWE,368
Weiz-Unterfladnitz Airport,Weiz,LOGW,395
Weiser Air Park,"Houston, Texas",KEYQ,41
Weihai Dashuibo Airport,Weihai,(Location of airport in Shandong province),44
Weifang Airport,Weifang,ZSWF,47
Weeze Airport,Duisburg,(Location of the airport in North Rhine-Westphalia),32
Weerawila Airport,Hambantota,VCCW,15
Weedon Field,"Eufaula, Alabama",KEUF,86
Wedderburn Airport,"Campbelltown, New South Wales",YWBN,259
Webster City Municipal Airport,"Webster City, Iowa",KEBS,341
Waynesville-St. Robert Regional Airport,Missouri,KTBN,353
Wayne Executive Jetport,"Goldsboro, North Carolina",KGWW,40
Wayne County Airport,"Wayne County, Ohio",KBJJ,346
Wayne County Airport,"Monticello, Kentucky",KEKQ,293
Waycross–Ware County Airport,"Waycross, Georgia",KAYS,43
Wausau Downtown Airport,"Wausau, Wisconsin",KAUW,366
Waupaca Municipal Airport,"Waupaca, Wisconsin",KPCZ,256
Waukegan National Airport,"Chicago, Illinois",KUGN,221
Wauchula Municipal Airport,"Wauchula, Florida",KCHN,32
Wau Airport,"Wau, Papua New Guinea",AYWU,1059
Wau Airport,South Sudan,HSWW,433
Watsa Airport,Watsa,FZJI,975
Watonga Regional Airport,"Watonga, Oklahoma",KJWG,472
Watertown Regional Airport,"Watertown, South Dakota",KATY,533
Watertown Municipal Airport,"Watertown, Wisconsin",KRYV,253
Watertown International Airport,Watertown,KART,99
Waterloo Regional Airport,"Waterloo, Iowa",KALO,266
Waterford Airport,Ireland,(Location of Waterford Airport in Ireland),36
Wasilla Airport,"Wasilla, Alaska",PAWS,107
Washington Dulles International Airport,Washington metropolitan area,KIAD,95
Waseca Municipal Airport,"Waseca, Minnesota",KACQ,343
Warsaw Municipal Airport,"Warsaw, Missouri",KRAW,285
Warsaw Municipal Airport,"Warsaw, Indiana",KASW,259
Warsaw Modlin Airport,Poland,(Location of airport in Poland),103
Warsaw Chopin Airport,Poland,(Location of airport in Poland),110
Warsaw Babice Airport,Warsaw,EPBC,106
Warroad International Memorial Airport,"Warroad, Minnesota",KRRT,327
Warrenton–Fauquier Airport,"Warrenton, Virginia",KHWY,102
Warren County Memorial Airport,"Warren County, Tennessee",KRNC,314
Warren Airport,"Warren, New South Wales",YWRN,203
Warnervale Airport,"Central Coast, New South Wales",YWVA,7
Wamena Airport,Wamena,(Location of airport in Papua),1550
Wamba Airport,Kikongo,FZCW,399
Walvis Bay Airport,Namibia,FYWB,91
Walton Airport,Lahore,OPLH,206
Walnut Ridge Regional Airport,"Walnut Ridge, Arkansas",KARG,85
Walla Walla Regional Airport,"Walla Walla, Washington",KALW,363
Walker County Airport,"Jasper, Alabama",KJFX,146
Walker's Cay Airport,Walker's Cay,MYAW,2
Wales Airport,"Wales, Alaska",PAIW,6
Walaha Airport,Vanuatu,NVSW,46
Wajir Airport,Wajir,(Location of the Airport in Kenya),234
Wainwright Airport,"Wainwright, Alaska",PAWI,13
Waimea-Kohala Airport,"Kamuela, Hawaii",PHMU,814
Wahoo Municipal Airport,"Wahoo, Nebraska",KAHQ,373
Wagga Wagga Airport,New South Wales,YSWG,220
Wadi al-Dawasir Domestic Airport,Wadi al-Dawasir,OEWD,628
Wadi Halfa Airport,Wadi Halfa,HSSW,292
Wadena Municipal Airport,"Wadena, Minnesota",KADC,417
Waddan Airport,"Waddan, Libya",HL72,277
Waco Regional Airport,"Waco, Texas",KACT,157
Waco Kungo Airport,Waku-Kungo,FNWK,1317
W. K. Kellogg Airport,"Battle Creek, Michigan",KBTL,290
W. H. 'Bud' Barron Airport,"Dublin, Georgia",KDBN,94
Víctor Lafón Airport,"San Felipe, Chile",SCSF,657
Værøy Heliport,Værøy,ENVR,4
Værøy Airport,Norway,ENVY,10
Växjö Småland Airport,Växjö,ESMX,185
Václav Havel Airport Prague,Czech Republic,LKPR,380
Vršac International Airport,Vršac,(Location within Serbia),84
Vryburg Airport,South Africa,FAVB,1194
Vršac International Airport,Vršac,(Location within Serbia),84
"Voss Airport, Bømoen",Norway,ENBM,91
Voronezh International Airport,Tambov,Location of airport inVoronezh Oblast,156
Vopnafjörður Airport,Iceland,BIVO,3
Volgograd International Airport,Volgograd,(Location of airport in Volgograd Oblast),146
Voinjama Airport,Voinjama,GLVA,425
Voi Airport,Kenya,HKVO,579
Vohemar Airport,Vohemar,FMNV,5
Vodudahue Airport,Chaitén,SCDH,29
Vodochody Airport,Prague,LKVO,280
Vnukovo International Airport,Moscow,UUWW,209
Vlorë Air Base,Vlorë,LAVL,0
Vladivostok International Airport,Vladivostok,(Location of airport in Primorsky Krai),14
Viñamar Airport,"Casablanca, Chile",SCVA,284
Vitória da Conquista Airport,Vitória da Conquista,SBQV,913
Vitim Airport,Vitim,UERT,185
Vitebsk Vostochny Airport,Belarus,UMII,207
Vitória da Conquista Airport,Vitória da Conquista,SBQV,913
Visoko Sport Airfield,"Visoko, Bosnia and Herzegovina",LQVI,448
Visby Airport,Visby,ESSV,49
Visalia Municipal Airport,"Visalia, California",KVIS,89
Visakhapatnam Airport,Visakhapatnam,VOVZ,5
Virginia Tech Montgomery Executive Airport,"Blacksburg, Virginia",KBCB,649
Virginia Highlands Airport,"Abingdon, Virginia",KVJI,636
Virginia Airport,South Africa,FAVG,6
Virgin Gorda Airport,Virgin Gorda,TUPW,4
Virgil I. Grissom Municipal Airport,"Bedford, Indiana",KBFR,221
Viracopos International Airport,Campinas,SBKP,661
Virac Airport,"Virac, Catanduanes",RPUV,36
Vincenzo Florio Airport Trapani–Birgi,Trapani,(Location of the airport in Sicily),7
Vilyuysk Airport,Russia,UENW,110
Vilo Acuña Airport,Cuba,MUCL,3
Vilnius Airport,"Vilnius, Lithuania",EYVI,196
Villazon Airport,Villazon,SLVZ,3432
Villarrica Airport,"Villarrica, Chile",SCVI,288
Albenga Airport,Italy,LIMG,45
Villamor Air Base,Manila,RPLL,22
Villaguay Aerodrome,Villaguay,SAAU,42
Villa de Merlo Airport,Villa de Merlo,SADR,24
Villa Reynolds Airport,San Luis Province,SAOR,484
Villa Portales Airport,Lonquimay,SCQY,969
Villa O'Higgins South Airport,Villa O'Higgins,SCIO,600
Villa María de Río Seco Airport,Villa de María del Río Seco,SACV,341
Villa International Airport,Maldives,VRMV,1
Villa Independencia Airport,Fray Bentos,SUFB,35
Villa General Mitre Airport,Villa General Mitre,SACM,536
Villa Dolores Airport,Villa Dolores,SAOD,583
