col0,col1,col2,col3
Stob Bàn,Grey Corries,Highland,977
Stob Bàn,Mamores,Highland,999
Stob Bàn,Grey Corries,Highland,977
Stożek Wielki,Silesian Beskids,Czech Republic,978
Stillbrook Hill,Slieve Bloom Mountains,Ireland,514
Stewart Peak,La Garita Mountains,Colorado,4264
Sterling Hill,Pimple Hills,New Jersey,253
Stephenson Bastion,Shackleton Range,Antarctica,1850
Stenar,Julian Alps,Slovenia,2244
Stellihorn,Pennine Alps,Switzerland,3410
Stellihorn,Pennine Alps,Switzerland,3436
Stelli,Plessur Alps,Switzerland,2622
Steling,Eifel,Belgium,658
Steitalhorn,Pennine Alps,Switzerland,3164
Steinschartenkopf,Allgäu Alps,Austria,2615
Steins Peak,Peloncillo Mountains,New Mexico,1787
Steinlauihorn,Bernese Alps,Canton of Bern,3162
Steinhüshorn,Urner Alps,Canton of Bern,3121
Steinfalk,Alps,Austria,2347
Steinbergstein,Kitzbühel Alps,Austria,2215
Stein,Lepontine Alps,Switzerland,2172
Steilerhorn,Lepontine Alps,Switzerland,2980
Steile Wand,Harz,Germany,518
Steigkoppe,Spessart,Bavaria,502
Steigerkopf,Palatine Forest,Rhineland-Palatinate,613
Steghorn,Bernese Alps,Canton of Bern,3146
Steeple,Lake District,England,819
Steel Mountain,Boise Mountains,United States,2965
Steel Knotts,Lake District,Cumbria,432
Steel Fell,Lake District,Cumbria,553
Stecknadelhorn,Pennine Alps,Switzerland,4241
Stawamus Squaw,Garibaldi Ranges,British Columbia,665
Stawamus Chief,Pacific Ranges,British Columbia,702
Staufenberg,Reinhardswald,Germany,472
Static Peak,Never Summer Mountains,Colorado,3834
Static Peak,Teton Range,Wyoming,3445
Starling Dodd,Lake District,Cumbria,633
Star Peak,Humboldt Range,Nevada,2999
Stapenberg,Harz Mountains,Germany,443
Stanserhorn,Uri Alps,Obwalden,1898
Stanley Peak,Canadian Rocky Mountains,British Columbia,3155
Standhope Peak,Pioneer Mountains,Idaho,3620
Stanage Edge,Peak District,Derbyshire,458
Stadelhorn,Berchtesgaden Alps,Bavaria,2286
Stacks Bluff,Ben Lomond,Tasmania,1527
Stachlerkopf,Alps,Liechtenstein,2071
Stac Rhos,Berwyn range,Wales,630
St Sunday Crag,Lake District,Cumbria,841
St. Nicholas Peak,Park Ranges,Alberta,2938
St. Cyril Peak,Tangra Mountains,Antarctica,1505
St. Boris Peak,Tangra Mountains,Antarctica,1665
Stümpfling,Mangfall Mountains,Bavaria,1506
Stübenwasen,Black Forest,Baden-Württemberg,1386
Stöcklewald,Black Forest,Baden-Württemberg,1068
Stöberhai,Harz Mountains,Germany,720
Stätzerhorn,Plessur Alps,Switzerland,2575
Stäfeliflue,Emmental Alps,Obwalden,1922
Sròn a' Choire Ghairbh,Northwest Highlands,Highland,937
Squaw's Tit,Fairholme Range,Canada,2514
Square Peak,Livingston Range,United States,2675
Squak Mountain,Issaquah Alps,United States,618
Spruce Mountain,Pequop Mountains,Nevada,3129
Spruce Knob,Allegheny Mountains,West Virginia,1482
Spronser Rötelspitze,Ötztal Alps,Italy,2625
Springer Mountain,Blue Ridge Mountains,Georgia,1152
Spring Gap Mountain,Allegheny Mountains,United States,681
Spravedlnost,Bohemian Switzerland,Czech Republic,533
Split Mountain,Wind River Range,Wyoming,4011
Split Mountain,Lewis Range,United States,2679
Split Mountain,Sierra Nevada,California,4286
Spitzmeilen,Glarus Alps,Canton of St. Gallen,2501
Spitzhorn,Bernese Alps,Canton of Bern,2807
Spitzhorli,Pennine Alps,Switzerland,2737
Spitzer Berg,Thuringian Forest,Germany,790
Spitz,Alps,Liechtenstein,2186
Spirit Mountain,Beartooth Mountains,"Carbon County, Montana",3745
Spire Point,Cascade Range,"Chelan County, Washington",2518
Spion Kop,Drakensberg,KwaZulu-Natal,1460
Spillgerte,Bernese Alps,Canton of Bern,2476
Spießhorn,Black Forest,Baden-Württemberg,1348
Spiegelkogel,Ötztal Alps,Austria,3426
Spießhorn,Black Forest,Baden-Württemberg,1348
Sphinx Mountain,Madison Range,"Madison County, Montana",3304
Speikboden,Zillertal Alps,Italy,2517
Speer,Appenzell Alps,Canton of St. Gallen,1951
Specimen Mountain,Front Range,Colorado,3808
Spechhorn,Pennine Alps,Italy,3189
Spearhead Peak,Teton Range,Wyoming,3087
Sparruhorn,Pennine Alps,Switzerland,2988
Sparrhorn,Bernese Alps,Switzerland,3021
Spantik,Spantik-Sosbun Mountains,Pakistan,7027
Spanish Oak Mountain,Blue Ridge Mountains,North Carolina,1381
Spanish Bonk,Quesnel Highland,British Columbia,1770
Southwest Hunter Mountain,Devil's Path,New York,1143
Souther Fell,Lake District,Cumbria,522
South Twin Peak,Winston Churchill Range,Alberta,3566
South Twin Mountain,Twin Range,New Hampshire,1494
South Tuya,Tuya Range,British Columbia,1850
South Teton,Teton Range,United States,3814
South Table Mountain,Front Range,Colorado,1931
South Summit,Himalayas,China,8749
South Suicide Peak,Chugach Mountains,Alaska,1525
South Saddle Mountain,Northern Oregon Coast Range,Oregon,1056
South River Peak,San Juan Mountains,Colorado,4009
South Mountain,Appalachian Mountains,Nova Scotia,279
South Mountain,Metacomet Ridge,"Berlin, Connecticut",233
South Mount Hawkins,San Gabriel Mountains,California,2373
South Kings Peak,Uinta Mountains,Utah,4120
South Downs Mountain,Wind River Range,Wyoming,3983
South Carter Mountain,Carter-Moriah Range,New Hampshire,1347
South Branch Mountain,Ridge-and-valley Appalachians,United States,922
South Baldy,Magdalena Mountains,"Socorro County, New Mexico",3288
South Bald Mountain,Laramie Mountains,Colorado,3355
Sourdough Mountain,Cascade Range,"Whatcom County, Washington",1862
Sour Howes,Lake District,Cumbria,483
Soum de Ramond,Pyrenees,Spain,3263
Sosto,Lepontine Alps,Switzerland,2221
Sorgschrofen,Allgäu Alps,Bavaria,1634
Soray,Andes,Peru,5428
Sorapiss,Dolomites,Italy,3205
Sonsogor,Western Ghats,Goa,1166
Sonora Peak,Sierra Nevada,California,3494
Sonoma Mountain,Sonoma Mountains,California,750
Sonntagshorn,Chiemgau Alps,Austria,1961
Sonnjoch,Karwendel,Austria,2457
Sonnighorn,Pennine Alps,Italy,3487
Sonnenkopf,Allgäu Alps,Bavaria,1712
Sonnenjoch,Kitzbühel Alps,Austria,2292
Sonnenberg,Harz Mountains,Germany,853
Sonneck,Kaisergebirge,Tyrol,2260
Sonneberg,Upper Lusatian Highlands,Germany,401
Sonklarspitze,Stubai Alps,Austria,3467
Sommêtres,Jura Mountains,Switzerland,1079
Sommet du Pinet,Chartreuse Mountains,France,1867
Sommet de la Saulire,Vanoise Massif,France,2738
Sommêtres,Jura Mountains,Switzerland,1079
Sollipulli,Andes,Chile,2282
Solitary Mountain,Big Salmon Range,Yukon,1858
Solimana,Andes,Arequipa Region,6093
Solimana,Andes,Peru,5242
Sokol,Lusatian Mountains,Czech Republic,592
Soiernspitze,Karwendel,Bavaria,2257
Socompa,Andes,Argentina,6051
Sněžka,Krkonoše,Czech Republic,1603
Snønipa,Breheimen,Norway,1827
Snøhetta,Dovrefjell,Norway,2286
Snowyside Peak,Sawtooth Range,Idaho,3246
Snowy Mountain,Adirondack Mountains,New York,1188
Snowshoe Peak,Cabinet Mountains,Montana,2663
Snowpatch Spire,Purcell Mountains,British Columbia,3084
Snowmass Peak,Elk Mountains,Colorado,4153
Snowmass Mountain,Elk Mountains,Colorado,4297
Snowfield Peak,Cascade Range,"Skagit County, Washington",2545
Snowdon,Snowdonia,Wales,1085
Snowbank Mountain,West Mountains,United States,2535
Snow Valley Peak,Carson Range,United States,2809
Snow Mountain East,Pacific Coast Ranges,California,2150
Snow Lake Peak,Ruby Mountains,Nevada,3396
Snow Dome,Winston Churchill Range,Alberta,3456
"Snow Dome, Concordia",Karakoram,Pakistan,7160
"Snow Dome, Chaprot",Karakoram,Pakistan,5029
Snota,Trollheimen,Norway,1668
Snoqualmie Mountain,Cascade Range,"King County, Washington",1913
Snegovoy,Sredinny Range,Kamchatka Peninsula,2169
Snaring Mountain,Victoria Cross Ranges,Alberta,2931
Snake Mountain,Blue Ridge Mountains,North Carolina,1695
Sněžka,Krkonoše,Czech Republic,1603
Snønipa,Breheimen,Norway,1827
Snøhetta,Dovrefjell,Norway,2286
Smrk,Moravian-Silesian Beskids,Frýdlant nad Ostravicí,1276
Smrk,Jizera Mountains,Czech Republic,1124
Smrekovec Lodge,Kamnik-Savinja Alps,Slovenia,1377
Smolikas,Pindus,Greece,2637
Smoky Mountain,Albion Mountains,Idaho,2310
Smoky Dome,Soldier Mountains,United States,3076
Smogornia,Giant Mountains,Czech Republic,1489
Smith Peak,Sierra Nevada,California,2364
Smith Mountain,Taconic Mountains,"Berkshire County, Massachusetts",661
Smith Mountain,Black Mountains,California,1802
Slovanka,Jizera Mountains,Czech Republic,820
Slogen,Sunnmørsalpene,Norway,1564
Sloan Peak,North Cascades,United States,2388
