col0,col1,col2,col3
Earthworm Jim,Roy Allen Smith,J. Bennett,23
Earth's Greatest Spectacles,Paul Bradshaw,D. Gleeson,3
"Droopy, Master Detective",Joseph Barbera,F. Welker,13
Dragnet,Jack Webb,J. Webb,22
Dragnet,Jack Webb,J. Webb,276
Doctor Who: Thirty Years in the TARDIS,Kevin Davies,N. Courtney,1
Dinosaurs,Michael Jacobs,G. Owens,65
Diary of a Bad Man,Humza Arshad,H. Arshad,16
Dexter,Drew Z. Greenberg,M. C. Hall,96
Desperate Housewives,Alexandra Cunningham,B. Strong,180
Desde Gayola,Horacio Villalobos,H. Villalobos,800
Death or Canada,Craig Thompson,B. Dennehy,2
Death Valley Days,Nat Perrin,M. Haggard,452
Dastardly and Muttley in Their Flying Machines,William Hanna,D. Messick,17
Dancing on Wheels,Fever Media,P. Kalidas,5
Dancing on Ice,ITV Studios,T. Gubba,138
Crash,Carsten Overskov,T. Hundahl,13
Come Fly with Me,Adam Tandy,L. Duncan,6
Come Dine with Me Ireland,ITV Studios,D. Lamb,50
Cold War,Jeremy Isaacs,K. Branagh,24
Chigley,Gordon Murray,B. Cant,13
Celebrity Come Dine With Me Australia,Granada Productions,J. Valentine,6
"Casey, Crime Photographer",Martin Manulis,K. Roberts,57
Card Sharks,Jonathan Goodson,G. Kroeger,65
Captain Caveman and the Teen Angels,Iwao Takamoto,G. Owens,40
Can You Teach My Alligator Manners?,Disney Junior,C. Ford,13
Camberwick Green,Gordon Murray,B. Cant,13
Brothers & Sisters,David Marshall Grant,S. Field,109
Birds Britannia,Stephen Moss,B. Paterson,4
Bill Nye the Science Guy,Bill Nye,P. Cashman,100
Bhai Bhaiya Aur Brother,Vipul Amrutlal Shah,C. Vohra,51
Best Of British,Robert Sidaway,J. Mills,67
Bertha,Ivor Wood,R. Kinnear,13
Baseball,Ken Burns,J. Chancellor,9
Baseball's Seasons,MLB Network,C. Chaplin,32
BBC Wildlife Specials,Neil Nightingale,D. Attenborough,29
Aztec Massacre,Karen Kelly,L. Schreiber,1
Auschwitz: The Nazis and 'The Final Solution',Mary Mazur,L. Hunt,6
Arrested Development,Brad Copeland,R. Howard,68
Aqua Teen Hunger Force,Dave Willis,S. D,139
Animal Stories,Christopher O'Hare,N. Hawthorne,52
American Gladiators,IMG,J. Harlan,139
Alphas,Nick Copus,D. Strathairn,24
Alias Smith and Jones,Glen A. Larson,R. Story,50
Africa,James Honeyborne,D. Attenborough,5
Adventures of Superman,Whitney Ellsworth,G. Reeves,104
A Place of Our Own,Rasha Drachkovitch,B. King,100
7 RCR,ABP News,C. Bhagat,15
30 Days,Sebastian Doggart,M. Spurlock,18
1000 Ways to Die,Thom Beers,R. Perlman,74
