col0,col1,col2,col3
Polka-dot tree frog,Hylidae,LC,IUCN3.1
Pointed-headed caecilian,Ichthyophiidae,DD,IUCN3.1
Pleurodema thaul,Leptodactylidae,LC,IUCN3.1
Pleurodema kriegi,Leptodactylidae,NT,IUCN3.1
Pleurodema guayapae,Leptodactylidae,LC,IUCN3.1
Plethodontohyla tuberata,Microhylidae,VU,IUCN3.1
Plethodontohyla ocellata,Microhylidae,LC,IUCN3.1
Plethodontohyla notosticta,Microhylidae,LC,IUCN3.1
Plethodontohyla mihanika,Microhylidae,LC,IUCN3.1
Plethodontohyla inguinalis,Microhylidae,LC,IUCN3.1
Plethodontohyla brevipes,Microhylidae,EN,IUCN3.1
Plethodontohyla bipunctata,Microhylidae,LC,IUCN3.1
Plethodontohyla angulifera,Microhylidae,DD,IUCN3.1
Plectrohyla thorectes,Hylidae,CR,IUCN3.1
Plectrohyla siopela,Hylidae,CR,IUCN3.1
Plectrohyla sabrina,Hylidae,CR,IUCN3.1
Plectrohyla robertsorum,Hylidae,EN,IUCN3.1
Plectrohyla quecchi,Hylidae,CR,IUCN3.1
Plectrohyla pycnochila,Hylidae,CR,IUCN3.1
Plectrohyla psiloderma,Hylidae,EN,IUCN3.1
Plectrohyla psarosema,Hylidae,CR,IUCN3.1
Plectrohyla pentheter,Hylidae,EN,IUCN3.1
Plectrohyla pachyderma,Hylidae,CR,IUCN3.1
Plectrohyla mykter,Hylidae,EN,IUCN3.1
Plectrohyla lacertosa,Hylidae,EN,IUCN3.1
Plectrohyla labedactyla,Hylidae,DD,IUCN3.1
Plectrohyla ixil,Hylidae,CR,IUCN3.1
Plectrohyla hazelae,Hylidae,CR,IUCN3.1
Plectrohyla hartwegi,Hylidae,CR,IUCN3.1
Plectrohyla guatemalensis,Hylidae,CR,IUCN3.1
Plectrohyla glandulosa,Hylidae,EN,IUCN3.1
Plectrohyla ephemera,Hylidae,CR,IUCN3.1
Plectrohyla cyclada,Hylidae,EN,IUCN3.1
Plectrohyla cyanomma,Hylidae,CR,IUCN3.1
Plectrohyla crassa,Hylidae,CR,IUCN3.1
Plectrohyla chrysopleura,Hylidae,CR,IUCN3.1
Plectrohyla chryses,Hylidae,CR,IUCN3.1
Plectrohyla charadricola,Hylidae,EN,IUCN3.1
Plectrohyla cembra,Hylidae,CR,IUCN3.1
Plectrohyla celata,Hylidae,CR,IUCN3.1
Plectrohyla calvicollina,Hylidae,CR,IUCN3.1
Plectrohyla calthula,Hylidae,CR,IUCN3.1
Plectrohyla bistincta,Hylidae,LC,IUCN3.1
Plectrohyla avia,Hylidae,CR,IUCN3.1
Plectrohyla arborescandens,Hylidae,EN,IUCN3.1
Plectrohyla acanthodes,Hylidae,CR,IUCN3.1
Platypelis tuberifera,Microhylidae,LC,IUCN3.1
Platypelis tsaratananaensis,Microhylidae,VU,IUCN3.1
Platypelis tetra,Microhylidae,EN,IUCN3.1
Platypelis pollicaris,Microhylidae,DD,IUCN3.1
Platypelis milloti,Microhylidae,EN,IUCN3.1
Platypelis mavomavo,Microhylidae,EN,IUCN3.1
Platypelis grandis,Microhylidae,LC,IUCN3.1
Platypelis cowanii,Microhylidae,DD,IUCN3.1
Platypelis barbouri,Microhylidae,LC,IUCN3.1
Platypelis alticola,Microhylidae,EN,IUCN3.1
Plains spadefoot toad,Scaphiopodidae,LC,IUCN3.1
Plains coqui,Eleutherodactylidae,CR,iucn3.1
Plains brown tree frog,Hylidae,LC,IUCN3.1
Piping peeping frog,Eleutherodactylidae,EN,IUCN3.1
Pipa snethlageae,Pipidae,LC,IUCN3.1
Pipa aspera,Pipidae,LC,IUCN3.1
Pink-sided tree frog,Hylidae,VU,IUCN3.1
Pine forest stream frog,Hylidae,CR,IUCN3.1
Pine Barrens tree frog,Hylidae,NT,IUCN3.1
Pilalo tree frog,Hylidae,CR,IUCN3.1
Pijol salamander,Plethodontidae,EN,IUCN3.1
Pigeon Mountain salamander,Plethodontidae,VU,IUCN3.1
Pig frog,Ranidae,LC,IUCN3.1
Pickersgill's reed frog,Hyperoliidae,CR,IUCN3.1
Physalaemus spiniger,Leptodactylidae,LC,IUCN3.1
Physalaemus signifer,Leptodactylidae,LC,IUCN3.1
Physalaemus santafecinus,Leptodactylidae,LC,IUCN3.1
Physalaemus rupestris,Leptodactylidae,DD,IUCN3.1
Physalaemus riograndensis,Leptodactylidae,LC,IUCN3.1
Physalaemus olfersii,Leptodactylidae,LC,IUCN3.1
Physalaemus obtectus,Leptodactylidae,DD,IUCN3.1
Physalaemus nanus,Leptodactylidae,LC,IUCN3.1
Physalaemus moreirae,Leptodactylidae,DD,IUCN3.1
Physalaemus maximus,Leptodactylidae,DD,IUCN3.1
Physalaemus maculiventris,Leptodactylidae,LC,IUCN3.1
Physalaemus lisei,Leptodactylidae,LC,IUCN3.1
Physalaemus jordanensis,Leptodactylidae,DD,IUCN3.1
Physalaemus henselii,Leptodactylidae,LC,IUCN3.1
Physalaemus fernandezae,Leptodactylidae,LC,IUCN3.1
Physalaemus evangelistai,Leptodactylidae,DD,IUCN3.1
Physalaemus erythros,Leptodactylidae,DD,IUCN3.1
Physalaemus erikae,Leptodactylidae,LC,IUCN3.1
Physalaemus deimaticus,Leptodactylidae,DD,IUCN3.1
Physalaemus cuvieri,Leptodactylidae,LC,IUCN3.1
Physalaemus cuqui,Leptodactylidae,LC,IUCN3.1
Physalaemus crombiei,Leptodactylidae,LC,IUCN3.1
Physalaemus cicada,Leptodactylidae,LC,IUCN3.1
Physalaemus centralis,Leptodactylidae,LC,IUCN3.1
Physalaemus caete,Leptodactylidae,DD,IUCN3.1
Physalaemus bokermanni,Leptodactylidae,DD,IUCN3.1
Physalaemus biligonigerus,Leptodactylidae,LC,IUCN3.1
Physalaemus barrioi,Leptodactylidae,DD,IUCN3.1
Physalaemus atlanticus,Leptodactylidae,VU,IUCN3.1
Physalaemus albifrons,Leptodactylidae,LC,IUCN3.1
Physalaemus aguirrei,Leptodactylidae,LC,IUCN3.1
Phyllomedusa venusta,Hylidae,LC,IUCN3.1
Phyllomedusa trinitatis,Hylidae,LC,IUCN3.1
Phyllomedusa tomopterna,Hylidae,LC,IUCN3.1
Phyllomedusa tetraploidea,Hylidae,LC,IUCN3.1
Phyllomedusa tarsius,Hylidae,LC,IUCN3.1
Phyllomedusa sauvagii,Tree frog,LC,iucn3.1
Phyllomedusa rohdei,Hylidae,LC,IUCN3.1
Phyllomedusa perinesos,Hylidae,DD,IUCN3.1
Phyllomedusa palliata,Hylidae,LC,IUCN3.1
Phyllomedusa oreades,Hylidae,DD,IUCN3.1
Phyllomedusa megacephala,Hylidae,DD,IUCN3.1
Phyllomedusa iheringii,Hylidae,LC,IUCN3.1
Phyllomedusa hypochondrialis,Hylidae,LC,IUCN3.1
Phyllomedusa ecuatoriana,Hylidae,EN,IUCN3.1
Phyllomedusa duellmani,Hylidae,DD,IUCN3.1
Phyllomedusa distincta,Hylidae,LC,IUCN3.1
Phyllomedusa coelestis,Hylidae,LC,IUCN3.1
Phyllomedusa centralis,Hylidae,DD,IUCN3.1
Phyllomedusa camba,Hylidae,LC,IUCN3.1
Phyllomedusa boliviana,Hylidae,LC,IUCN3.1
Phyllomedusa baltea,Hylidae,EN,IUCN3.1
Phyllomedusa ayeaye,Hylidae,CR,IUCN3.1
Phyllomedusa atelopoides,Hylidae,LC,IUCN3.1
Phyllodytes wuchereri,Hylidae,DD,IUCN3.1
Phyllodytes punctatus,Hylidae,DD,IUCN3.1
Phyllodytes gyrinaethes,Hylidae,DD,IUCN3.1
Phyllodytes edelmoi,Hylidae,DD,IUCN3.1
Phyllobates sp. aff. aurotaenia,Dendrobatidae,NT,IUCN3.1
Phyllobates bicolor,Dendrobatidae,NT,IUCN3.1
Phyllobates aurotaenia,Dendrobatidae,NT,IUCN3.1
Phrynomedusa marginata,Hylidae,LC,IUCN3.1
Phrynomedusa bokermanni,Hylidae,DD,IUCN3.1
Phrynomedusa appendiculata,Hylidae,NT,IUCN3.1
Phrynomantis somalicus,Microhylidae,LC,IUCN3.1
Phrynomantis microps,Microhylidae,LC,IUCN3.1
Phrynobatrachus sulfureogularis,Petropedetidae,DD,IUCN3.1
Phrynobatrachus pakenhami,Ranidae,EN,IUCN3.1
Phrynobatrachus kinangopensis,Petropedetidae,LC,IUCN3.1
Phrynobatrachus gutturosus,Petropedetidae,LC,IUCN3.1
Phrynella pulchra,Microhylidae,LC,IUCN3.1
Philoria richmondensis,Myobatrachidae,EN,IUCN3.1
Philoria pughi,Myobatrachidae,EN,IUCN3.1
Philippine toad,Bufonidae,LC,IUCN3.1
Philippine narrowmouth toad,Microhylidae,LC,IUCN3.1
Philautus vittiger,Rhacophoridae,DD,IUCN3.1
Philautus vermiculatus,Rhacophoridae,LC,IUCN3.1
Philautus tectus,Rhacophoridae,VU,IUCN3.1
Philautus surrufus,Rhacophoridae,EN,IUCN3.1
Philautus similis,Rhacophoridae,EN,IUCN3.1
Philautus saueri,Rhacophoridae,VU,IUCN3.1
Philautus refugii,Rhacophoridae,VU,IUCN3.1
Philautus petilus,Rhacophoridae,DD,IUCN3.1
Philautus petersi,Rhacophoridae,LC,IUCN3.1
Philautus pallidipes,Rhacophoridae,VU,IUCN3.1
Philautus namdaphaensis,Rhacophoridae,DD,IUCN3.1
Philautus mjobergi,Rhacophoridae,NT,IUCN3.1
Philautus maosonensis,Rhacophoridae,DD,IUCN3.1
Philautus longicrus,Rhacophoridae,NT,IUCN3.1
Philautus kerangae,Rhacophoridae,EN,IUCN3.1
Philautus jacobsoni,Rhacophoridae,CR,IUCN3.1
Philautus ingeri,Rhacophoridae,VU,IUCN3.1
Philautus hosii,Rhacophoridae,NT,IUCN3.1
Philautus garo,Rhacophoridae,VU,IUCN3.1
Philautus erythrophthalmus,Rhacophoridae,VU,IUCN3.1
