col0,col1,col2,col3
E. Jayamanne,Sri Lanka,http://dbpedia.org/resource/Myocardial_infarction,1915-02-15
E. Collins,"Atlantic City, New Jersey",http://dbpedia.org/resource/Myocardial_infarction,1883-01-30
E. Carroll,Canada,http://dbpedia.org/resource/Brain_tumor,1933-09-05
E. Albert,"Rock Island, Illinois",http://dbpedia.org/resource/Pneumonia,1906-04-22
E. Acuff,"Caruthersville, Missouri",http://dbpedia.org/resource/Heart_attack,1903-06-03
"E. "". Anderson","Oakland, California",http://dbpedia.org/resource/Heart_disease,1905-09-18
E. Wynn,Philadelphia,http://dbpedia.org/resource/Esophageal_cancer,1886-11-09
E. Wood,New York,http://dbpedia.org/resource/Myocardial_infarction,1924-10-10
E. Sullivan,Harlem,http://dbpedia.org/resource/Esophageal_cancer,1901-09-28
E. Nelson,Louisiana,http://dbpedia.org/resource/Heart_failure,1928-12-21
E. Lauter,"Long Beach, New York",http://dbpedia.org/resource/Mesothelioma,1938-10-30
E. Gilbert,Chicago,http://dbpedia.org/resource/Lung_cancer,1931-06-29
E. Begley,Connecticut,http://dbpedia.org/resource/Myocardial_infarction,1901-03-25
E. Hindman,United States,http://dbpedia.org/resource/Lung_cancer,1942-10-03
E. Andrews,Dublin,http://dbpedia.org/resource/Heart_failure,1922-12-19
E. E. Clive,Monmouthshire,http://dbpedia.org/resource/Heart_disease,1879-08-28
D. Frye,Kansas,http://dbpedia.org/resource/Heart_attack,1899-02-22
D. Farnum,"Hampton Beach, New Hampshire",http://dbpedia.org/resource/Kidney_failure,1874-05-27
D. McLinden,"Douglas, Isle of Man",http://dbpedia.org/resource/AIDS,1965-05-29
D. Lamont,Portugal,http://dbpedia.org/resource/Myocardial_infarction,1918-06-17
D. York,United States,http://dbpedia.org/resource/Suicide,1908-10-17
D. Mitchell,"Farrell, Pennsylvania",http://dbpedia.org/resource/Lung_cancer,1926-05-26
D. Moore,London,http://dbpedia.org/resource/Pneumonia,1935-04-19
D. Taylor,"Richmond, Virginia",http://dbpedia.org/resource/Myocardial_infarction,1907-02-26
D. Pearson,"Evanston, Illinois",http://dbpedia.org/resource/Myocardial_infarction,1897-12-13
D. Dumbrille,Canada,http://dbpedia.org/resource/Heart_attack,1889-10-13
D. Spencer,"Princeton, Illinois",http://dbpedia.org/resource/Diabetes,1910-02-10
D. Kennedy,New York,http://dbpedia.org/resource/Cancer,1915-09-14
D. F. Jr.,New York City,http://dbpedia.org/resource/Heart_attack,1909-12-09
D. Fairbanks,Denver,http://dbpedia.org/resource/Myocardial_infarction,1883-05-23
D. McClure,"Glendale, California",http://dbpedia.org/resource/Lung_cancer,1935-05-11
D. Henning,Manitoba,http://dbpedia.org/resource/Liver_cancer,1947-05-03
D. Stratten,British Columbia,http://dbpedia.org/resource/Gunshot,1960-02-28
D. Short,Philadelphia,http://dbpedia.org/resource/Cancer,1915-06-29
D. Sebastian,"Birmingham, Alabama",http://dbpedia.org/resource/Cancer,1903-04-26
D. Provine,"Deadwood, South Dakota",http://dbpedia.org/resource/Emphysema,1935-01-20
D. McGuire,"Omaha, Nebraska",http://dbpedia.org/resource/Cardiac_arrest,1916-06-14
D. Mackaill,Yorkshire,http://dbpedia.org/resource/Renal_failure,1903-03-04
D. Gish,"Dayton, Ohio",http://dbpedia.org/resource/Bronchial_pneumonia,1898-03-11
D. Dell,"Hattiesburg, Mississippi",http://dbpedia.org/resource/Traffic_Collision,1915-01-30
D. DeBorba,Los Angeles,http://dbpedia.org/resource/Emphysema,1925-03-28
D. Dandridge,Cleveland,http://dbpedia.org/resource/Drug_overdose,1922-11-09
D. Kent,"St. Joseph, Missouri",http://dbpedia.org/resource/Breast_cancer,1916-06-21
D. Roberts,"St. Louis, Missouri",http://dbpedia.org/resource/Stroke,1925-11-04
D. E. Travis,"Norfolk, Virginia",http://dbpedia.org/resource/Aneurysm,1904-03-14
D. Belack,New York City,http://dbpedia.org/resource/Natural_causes,1926-02-26
D. Reed,"Denison, Iowa",http://dbpedia.org/resource/Pancreatic_cancer,1921-01-27
D. Douglas,"East Baton Rouge Parish, Louisiana",http://dbpedia.org/resource/Pancreatic_cancer,1932-09-26
D. Woods,South Africa,http://dbpedia.org/resource/Cancer,1933-12-15
D. Sinden,Devon,http://dbpedia.org/resource/Prostate_cancer,1923-10-09
D. Pleasence,England,http://dbpedia.org/resource/Heart_failure,1919-10-05
D. O'Connor,Chicago,http://dbpedia.org/resource/Heart_failure,1925-08-28
D. Haines,"Seward County, Nebraska",http://dbpedia.org/resource/Killed_in_action,1919-05-09
D. Cook,Oregon,http://dbpedia.org/resource/Myocardial_infarction,1901-09-26
D. McCann,Dublin,http://dbpedia.org/resource/Pancreatic_cancer,1943-05-07
D. Taylor,United States,http://dbpedia.org/resource/Heart_failure,1920-12-13
D. Simpson,Seattle,http://dbpedia.org/resource/Heart_failure,1943-10-29
D. S. Davis,Missouri,http://dbpedia.org/resource/Heart_attack,1942-08-04
D. Messick,"Buffalo, New York",http://dbpedia.org/resource/Stroke,1926-09-07
D. LaFontaine,United States,http://dbpedia.org/resource/Pneumothorax,1940-08-26
D. Knotts,West Virginia,http://dbpedia.org/resource/Lung_cancer,1924-07-21
D. Henderson,Essex,http://dbpedia.org/resource/Head_and_neck_cancer,1931-11-10
D. Grady,California,http://dbpedia.org/resource/Cancer,1944-06-08
D. Francks,British Columbia,http://dbpedia.org/resource/Lung_cancer,1932-02-28
D. Durant,United States,http://dbpedia.org/resource/Leukemia,1932-11-20
D. Dubbins,Brooklyn,http://dbpedia.org/resource/Cancer,1928-06-28
D. DeFore,"Cedar Rapids, Iowa",http://dbpedia.org/resource/Cardiac_arrest,1913-08-25
D. C. Harvey,"Council Grove, Kansas",http://dbpedia.org/resource/Myocardial_infarction,1911-12-12
D. Ameche,"Kenosha, Wisconsin",http://dbpedia.org/resource/Prostate_cancer,1908-05-31
D. Adams,New York City,http://dbpedia.org/resource/Lymphoma,1923-04-13
D. Dunne,"Santa Monica, California",http://dbpedia.org/resource/Strangulation_(domestic_violence),1959-11-23
D. Dunne,"Hartford, Connecticut",http://dbpedia.org/resource/Bladder_cancer,1925-10-29
D. DeLuise,Brooklyn,http://dbpedia.org/resource/Cancer,1933-08-01
D. d. Río,Mexico,http://dbpedia.org/resource/Liver_disease,1904-08-03
D. Avedon,"Old Westbury, New York",http://dbpedia.org/resource/Pneumonia,1925-04-07
D. Lee,"Harriman, Tennessee",http://dbpedia.org/resource/Ovarian_cancer,1911-11-04
D. Carter,"McLemoresville, Tennessee",http://dbpedia.org/resource/Endometrial_cancer,1939-05-25
Divine,Baltimore,http://dbpedia.org/resource/Cardiomegaly,1945-10-19
D. Passer,Copenhagen,http://dbpedia.org/resource/Myocardial_infarction,1926-05-18
D. Shafeek,East Bengal,http://dbpedia.org/resource/Myocardial_infarction,1930-03-21
D. d. Marco,Mexico City,http://dbpedia.org/resource/Cancer,1937-07-06
D. Darrell,Texas,http://dbpedia.org/resource/Homicide,1966-08-20
D. York,Indiana,http://dbpedia.org/resource/Emphysema,1928-09-04
D. Wessel,Milwaukee,http://dbpedia.org/resource/Myocardial_infarction,1913-04-20
D. Shawn,"Buffalo, New York",http://dbpedia.org/resource/Myocardial_infarction,1923-12-01
D. Sargent,United States,http://dbpedia.org/resource/Prostate_cancer,1930-04-19
D. Purcell,"Greenwich, Connecticut",http://dbpedia.org/resource/Heart_Attack,1908-08-06
D. Israel,Philippines,http://dbpedia.org/resource/Stroke,1947-12-10
D. Haymes,Argentina,http://dbpedia.org/resource/Lung_cancer,1918-09-13
D. Griffey,"Nashville, Tennessee",http://dbpedia.org/resource/Coronary_artery_bypass_surgery,1938-11-16
D. Clark,"Mount Vernon, New York",http://dbpedia.org/resource/Myocardial_infarction,1929-11-30
D. Clair,San Francisco,http://dbpedia.org/resource/AIDS,1931-11-12
D. Varsi,"San Mateo, California",http://dbpedia.org/resource/Lyme_disease,1938-02-23
D. Brewster,"Kansas City, Missouri",http://dbpedia.org/resource/Heart_failure,1931-03-11
D. Wynyard,England,http://dbpedia.org/resource/Renal_disease,1906-01-16
D. Sands,New York,http://dbpedia.org/resource/Leiomyosarcoma,1934-08-22
D. Lynn,California,http://dbpedia.org/resource/Stroke,1926-07-05
D. Hyland,Ohio,http://dbpedia.org/resource/Breast_cancer,1936-01-25
D. Douglas,Bermuda,http://dbpedia.org/resource/Cancer,1923-01-22
D. Dors,Wiltshire,http://dbpedia.org/resource/Ovarian_cancer,1931-10-23
D. Barrymore,New York,http://dbpedia.org/resource/Alcoholism,1921-03-03
D. Fossey,California,http://dbpedia.org/resource/Murder,1932-01-16
D. Morgan,Dublin,http://dbpedia.org/resource/Heart_attack,1952-03-31
D. Waring,England,http://dbpedia.org/resource/Cancer,1927-04-26
D. Newark,England,http://dbpedia.org/resource/Liver_failure,1933-06-08
D. Francis,England,http://dbpedia.org/resource/Heart_attack,1923-11-07
D. Gonçalves,Brazil,http://dbpedia.org/resource/Pneumonia,1907-06-23
D. O'Keefe,"Fort Madison, Iowa",http://dbpedia.org/resource/Lung_cancer,1908-03-29
D. Hopper,"Dodge City, Kansas",http://dbpedia.org/resource/Prostate_cancer,1936-05-17
D. Hoey,England,http://dbpedia.org/resource/Kidney_disease,1893-03-30
D. Farina,Chicago,http://dbpedia.org/resource/Pulmonary_embolism,1944-02-29
D. Day,New York,http://dbpedia.org/resource/Amyotrophic_lateral_sclerosis,1916-05-21
D. Cole,Detroit,http://dbpedia.org/resource/Kidney_failure,1940-07-19
D. Elliott,Ealing,http://dbpedia.org/resource/Tuberculosis,1922-05-31
D. Berti,Colorado,http://dbpedia.org/resource/Myocardial_infarction,1921-01-17
D. Walley,"Bridgeport, Connecticut",http://dbpedia.org/resource/Esophageal_cancer,1941-8-12
D. Raffin,Los Angeles,http://dbpedia.org/resource/Leukemia,1953-03-13
Death of Sean Rigg,Birmingham,http://dbpedia.org/resource/Asphyxia,1968-02-11
D. Potter,Kansas,http://dbpedia.org/resource/Wingsuit_flying,1972-04-14
D. Martin,"Steubenville, Ohio",http://dbpedia.org/resource/Acute_respiratory_failure,1917-06-07
D. Jones,Alabama,http://dbpedia.org/resource/Parkinson's_disease,1931-01-25
D. Elliott,"Madison, Wisconsin",http://dbpedia.org/resource/Alzheimer's_disease,1925-06-29
D. Hopper,New York City,http://dbpedia.org/resource/Myocardial_infarction,1858-03-30
D. Kelley,Atlanta,http://dbpedia.org/resource/Stomach_cancer,1920-01-20
D. Butler,"Toledo, Ohio",http://dbpedia.org/resource/Heart_attack,1916-11-16
D. Addams,England,http://dbpedia.org/resource/Cancer,1930-09-21
D. White,Colorado,http://dbpedia.org/resource/Myocardial_infarction,1916-04-04
D. Wayne,"Traverse City, Michigan",http://dbpedia.org/resource/Lung_cancer,1914-01-30
D. Tomlinson,England,http://dbpedia.org/resource/Stroke,1917-05-07
D. Rappaport,England,http://dbpedia.org/resource/Suicide,1951-11-23
