col0,col1,col2,col3
Y. Robert,"Laval, Quebec",1932-04-09,1914-10-08
Y. Eric,United States,1942-01-22,1924-04-16
V. S. John,Florida,1974-08-06,1950-09-10
T. Acid,Philadelphia,1995-05-20,1980-11-12
T. Borne,United States,1952-09-23,1926-07-13
T. U. Warrior,"Scottsdale, Arizona",1985-11-23,1959-06-16
S. Hashimoto,Japan,1984-09-01,1965-07-03
S. Osborne,"Tampa, Florida",2003-03-08,1976-05-09
S. O'Haire,"Spartanburg, South Carolina",2000-06-26,1971-02-25
S. Barr,"Portland, Oregon",1957-03-05,1938-01-21
R. Bruce,Auckland,1967-03-17,1943-11-03
Rikidōzan,Japan,1951-10-28,1924-11-14
P. A. Jr.,Baja California,1995-06-18,1979-07-23
N. Benoit,"Fayetteville, Georgia",1984-07-07,1964-05-17
M. Velázquez,Mexico City,1938-04-18,1910-02-22
M. King,Canada,1972-05-22,1949-05-18
M. Misawa,Hiroshima,1981-08-21,1962-06-18
M. Elizabeth,"Marietta, Georgia",1985-07-30,1960-11-19
M. Awesome,"Tampa, Florida",1989-02-26,1965-01-24
M. Fukuda,Japan,1996-03-20,1972-05-17
M. Young,United States,1939-08-20,1923-03-12
Lucifer,Baltimore,1991-08-02,1960-10-01
L. Sweeney,Louisiana,2004-05-01,1981-02-18
K. Kimura,"Tokyo, Japan",1990-07-18,1969-11-18
