col0,col1,col2,col3,col4
Hardcore punk,Thrashcore,New wave of British heavy metal,Industrial metal,Grindcore
Happy hardcore,UK hardcore,Trance music,4-beat,Eurobeat
Grime music,Dubstep,Soca music,Dubstep,Grindie
Gospel music,Urban contemporary gospel,Hymn,Country music,Christian country music
Gangsta rap,Drill,Hip hop music,Dirty rap,G-funk
Funk,Nu-funk,Jazz,New jack swing,UK funky
Extreme metal,Death metal,Heavy metal music,Gothic metal,Grindcore
Electronics in rock music,Nu metal,Rock music,Alternative rock,Alternative hip hop
Electronica,Trip hop,Ambient music,Alternative dance,Ethnic electronica
Electro,Skweee,Disco,House music,Electropop
Dub music,Dub poetry,Reggae,Electronic dance music,Dubtronica
Drum and bass,Darkstep,Electronica,UK garage,Digital hardcore
Doom metal,Doom metal,Heavy metal music,Gothic metal,Doom metal
Disco,Euro disco,Philadelphia soul,Hip hop music,Dance-punk
