col0,col1,col2,col3
2016 Engie Open de Biarritz,R. Šramková,I. Khromacheva,I. Khromacheva
2016 Engie Open Métropole 42,S. Vögele,A. Mestach,A. Mestach
2016 Empire Slovak Open,K. Siniaková,T. Mihalíková,T. Mihalíková
2016 Dow Corning Tennis Classic,N. Broady,C. Bellis,N. Broady
2016 Delhi Open,S. Robert,H. Ching-wen,H. Ching-wen
2016 Dalian Women's Tennis Open,K. Plíšková,K. Takahata,K. Plíšková
2016 Coupe Banque Nationale,O. Dodin,A. Hlaváčková,A. Hlaváčková
2016 Copa Sevilla,C. Ruud,Í. Cervantes,C. Ruud
2016 Connecticut Open,A. Radwańska,S. Mirza,S. Mirza
2016 Coleman Vision Tennis Championships,M. Minella,M. Krajicek,M. Krajicek
2016 Claro Open Medellín,F. Bagnis,A. Falla,A. Falla
2016 Cittadino Challenger,F. Mayer,M. Elgin,F. Mayer
2016 Citi Open,G. Monfils,É. Roger-Vasselin,É. Roger-Vasselin
2016 Chengdu Open,K. Khachanov,R. Ram,R. Ram
2016 Challenger Banque Nationale de Granby,F. Tiafoe,A. Mestach,A. Mestach
2016 Challenger Banque Nationale de Gatineau,P. Polansky,B. Andreescu,P. Polansky
2016 Challenger Banque Nationale de Drummondville,D. Evans,J. Cerretani,J. Cerretani
2016 Capri Watch Cup,J. Kovalík,G. Kretschmer,J. Kovalík
2016 Campeonato Internacional de Tenis de Santos,R. Olivo,M. González,M. González
2016 Båstad Challenger,H. Zeballos,I. Arvidsson,H. Zeballos
2016 Bredeney Ladies Open,S. S. Tormo,L. P. Tió,S. S. Tormo
2016 Boyd Tinsley Women's Clay Court Classic,T. Townsend,T. Townsend,T. Townsend
2016 Bol Open,M. Minella,P. Martić,M. Minella
2016 Blossom Cup,W. Qiang,M. Ninomiya,W. Qiang
2016 BNP Paribas de Nouvelle-Calédonie,A. Mannarino,É. Roger-Vasselin,A. Mannarino
2016 BNP Paribas Open,N. Djokovic,N. Mahut,N. Djokovic
2016 BFD Energy Challenger,J. Šátral,F. Gaio,J. Šátral
2016 Båstad Challenger,H. Zeballos,I. Arvidsson,H. Zeballos
2016 Australian Open,N. Djokovic,E. Vesnina,E. Vesnina
2016 Argentina Open,D. Thiem,J. S. Cabal,D. Thiem
2016 Apia International Sydney,V. Troicki,M. Hingis,M. Hingis
2016 Aircel Chennai Open,S. Wawrinka,O. Marach,S. Wawrinka
2016 Aegon Surbiton Trophy,L. Yen-hsun,M. Oudin,M. Melnikova
2016 Aegon Ilkley Trophy,L. Yen-hsun,Y. Zhaoxuan,Y. Zhaoxuan
2016 Aegon Eastbourne Trophy,A. Riske,Y. Zhaoxuan,Y. Zhaoxuan
2016 Aegon Classic Birmingham,M. Keys,K. Plíšková,K. Plíšková
2016 Aegon Championships,A. Murray,N. Mahut,N. Mahut
2016 Advantage Cars Prague Open,S. Giraldo,J. Knowle,R. Voráčová
2016 Adriatic Challenger,J. Souza,A. Motti,J. Souza
2016 Abierto de Puebla,E. Struvay,M. Daniell,I. Khromacheva
2016 ASB Classic,R. B. Agut,E. Mertens,M. Venus
2016 ABN AMRO World Tennis Tournament,M. Kližan,N. Mahut,N. Mahut
2015 Zhuhai ITF Women's Pro Circuit,C. Kai-chen,X. Shilin,X. Shilin
2015 Wuhan Open,V. Williams,M. Hingis,M. Hingis
2015 Western & Southern Open,R. Federer,É. Roger-Vasselin,R. Federer
2015 Waco Showdown,V. Golubic,N. Gibbs,N. Gibbs
2015 WTA Elite Trophy,V. Williams,W. Yafan,V. Williams
2015 Vietnam Open,S. Myneni,T. Lamasine,S. Myneni
2015 Uruguay Open,G. Pella,A. Martin,A. Martin
2015 US Open,N. Djokovic,S. Mirza,N. Mahut
2015 USTA Tennis Classic of Macon,R. Peterson,V. Golubic,R. Peterson
2015 Türk Telecom İzmir Cup,L. Lacko,S. Myneni,L. Lacko
2015 Trofeo Città di Brescia,I. Sijsling,I. Bozoljac,I. Bozoljac
2015 Torneo Internacional Challenger León,A. Krajicek,R. Ram,R. Ram
2015 Toray Pan Pacific Open,A. Radwańska,C. S. Navarro,A. Radwańska
2015 Tiburon Challenger,T. Smyczek,F. Nielsen,T. Smyczek
2015 Tevlin Women's Challenger,T. Maria,S. Fichman,S. Fichman
2015 Tennis Napoli Cup,Daniel Muñoz de la Nava,F. Krajinović,F. Krajinović
2015 Tashkent Challenger,D. Istomin,M. Elgin,D. Istomin
2015 Tampere Open,T. Lamasine,A. Ghem,L. Barzó
2015 Tallahassee Tennis Challenger,F. Argüello,J. Peralta,F. Argüello
2015 TEAN International,D. Džumhur,E. Wacanno,D. Džumhur
2015 Türk Telecom İzmir Cup,L. Lacko,S. Myneni,L. Lacko
2015 São Paulo Challenger de Tênis,G. Pella,C. Buchanan,G. Pella
2015 Swedish Open,B. Paire,Ł. Kubot,Ł. Kubot
2015 Suzhou Ladies Open,Z. Kailin,Y. Zhaoxuan,Y. Zhaoxuan
2015 Stockton Challenger,N. Hibino,S. Marand,N. Hibino
2015 Sparta Prague Open,N. Gombos,I. Zelenay,I. Zelenay
2015 Sparkassen ATP Challenger,R. Berankis,T. Weissborn,R. Berankis
2015 Slovak Open,E. Gerasimov,D. Jakupović,J. Malečková
2015 Seguros Bolívar Open Medellín,P. Lorenzi,M. Minella,M. Minella
2015 Seguros Bolívar Open Cali,F. Romboli,M. Demoliner,M. Demoliner
2015 Seguros Bolívar Open Barranquilla,B. Ćorić,M. Arévalo,B. Ćorić
2015 Seguros Bolívar Open Medellín,P. Lorenzi,M. Minella,M. Minella
2015 Seguros Bolívar Open Cali,F. Romboli,M. Demoliner,M. Demoliner
2015 Seguros Bolívar Open Barranquilla,B. Ćorić,M. Arévalo,M. Arévalo
2015 Santiago Challenger,R. D. Silva,M. González,M. González
2015 Samarkand Challenger,T. Gabashvili,M. Elgin,T. Gabashvili
2015 Sacramento Challenger,T. Fritz,B. Kavčič,B. Kavčič
2015 São Paulo Challenger de Tênis,G. Pella,C. Buchanan,G. Pella
2015 Rogers Cup,A. Murray,B. Bryan,M. Bryan
2015 Revolution Technologies Pro Tennis Classic,K. Stewart,T. Townsend,T. Townsend
2015 Reinert Open,C. Witthöft,E. Hrdinová,C. Witthöft
2015 Red Rock Pro Open,M. Krajicek,N. Gibbs,M. Krajicek
2015 Qatar ExxonMobil Open,D. Ferrer,R. Nadal,R. Nadal
2015 President's Cup,M. Kukushkin,K. Kravchuk,M. Kukushkin
2015 Poznań Open,P. Carreño,M. Kowalczyk,M. Kowalczyk
