col0,col1,col2,col3
Venussian Tabutasco,Daryush Shokof,D. Shokof,3600
Venusberg,"Franz Seitz, Jr.",M. Mell,5280
Venus on Trial,Ottmar Ostermayr,S. Breuer,5400
Venus in the East,Jesse L. Lasky,C. Burton,3000
Venus in Furs,Harry Alan Towers,K. Kinski,5160
Venus in Fur,Alain Sarde,M. Amalric,5760
Venus fra Vestø,Poul Bang,M. Schwartz,6960
Venus Talk,Lee Eun,M. So-ri,6540
Venus Peter,Christopher Young,R. McAnally,5640
"Vente a Alemania, Pepe",Andrés Vicente Gómez,F. Guillén,5700
Venomous,Jim Wynorski,T. Williams,5820
Venom,Michael McAdam,M. McAdam,960
Venom,Martin Bregman,K. Kinski,5520
Vennira Iravuggal,Perakas Rajaram,S. Krishnasamy,6000
Vennira Aadai,C. V. Sridhar,Jayalalithaa,10680
Vennela,Ravi Vallabhaneni,R. Abel,7980
Venice: The Series,Hillary B. Smith,C. Chappell,900
Vengo,Tony Gatlif,A. Canales,5400
Vengeance of Rannah,Harry S. Webb,R. T. Tin,3360
Vengeance Valley,Nicholas Nayfack,R. Walker,4980
Vengeance Is Mine,Kazuo Inoue,R. Mikuni,8400
Vengeance,Cesáreo González,M. Alexandre,7320
Venezzia,Ruddy Rodríguez,A. Herrera,5400
Vendetta for a Samurai,Sôjirô Motoki,T. Shimura,4920
Vendetta dal futuro,Luciano Martino,D. Greene,5640
Vendetta,Gary Lucchesi,B. Davison,7020
Vendetta,Howard Hughes,F. Domergue,4980
Ven mi corazón te llama,Lumiton,A. Barrié,5340
Velvet Soup,BBC Scotland,S. McNicoll,1800
Velvet Hands,Mario Cecchi Gori,A. Celentano,6000
Velvet Goldmine,Michael Stipe,C. Bale,7440
Velocity Trap,Ken Olandt,A. Coppola,5340
Vellikizhamai Viratham,Sandow M. M. A. Chinnappa Thevar,Jayachitra,8820
Vellanakalude Nadu,Maniyanpilla Raju,Mohanlal,7740
Vellaiya Irukiravan Poi Solla Maatan,Ravi Varman,B. Saravanan,7620
Velayudham,Viswanathan Ravichandran,G. D'Souza,11160
Velainu Vandhutta Vellaikaaran,Vishnu Vishal,N. Galrani,7620
Velaiilla Pattadhari,Dhanush,A. Paul,7980
Vejrhanen,Henning Karmark,J. Meyer,5940
Vehicle 19,Paul Walker,P. Walker,5100
