col0,col1,col2,col3,col4
Allopurinol,40279,"1H-pyrazolo[3,4-d]pyrimidin-4(2H)-one",78,2094
Alfuzosin,51141,"N-[3-[(4-Amino-6,7-dimethoxy-quinazolin-2-yl)- methyl-amino]propyl] tetrahydrofuran- 2-carboxamide",49,2092
Alfentanil,2569,"N-{1-[2-(4-ethyl-5-oxo-4,5-dihydro-1H-1,2,3,4-tetrazol-1-yl)ethyl]-4-(methoxymethyl)piperidin-4-yl}-N-phenylpropanamide",100,51263
Alendronic acid,2567,sodium[4-amino-1-hydroxy-1-(hydroxy-oxido-phosphoryl)- butyl]phosphonic acid trihydrate,0,2088
Aclidinium bromide,65344,"[(8R)-1-(3-Phenoxypropyl)-1-azoniabicyclo[2.2.2]octan-8-yl] 2-hydroxy-2,2-dithiophen-2-ylacetate bromide",30,11519741
Acitretin,50173,"(2E,4E,6E,8E)-9-(4-methoxy-2,3,6-trimethylphenyl)-3,7-dimethylnona-2,4,6,8-tetraenoic acid",60,5284513
Aciclovir,2453,"2-Amino-1,9-dihydro-9-((2-hydroxyethoxy)methyl)-6H-purin-6-one",15,2022
Acetylcysteine,28939,(2R)-2-acetamido-3-sulfanylpropanoic acid,10,581
Acepromazine,44932,1-{10-[3-(Dimethylamino)propyl]-10H-phenothiazin-2-yl}ethanone,6,6077
Acebutolol,2379,(RS)-N-{3-acetyl-4-[2-hydroxy-3-(propan-2-ylamino)propoxy]phenyl}butanamide,40,1978
Acamprosate,51042,3-Acetamidopropane-1-sulfonic acid,11,155434
Abacavir,421707,"{(1S,4R)-4-[2-amino-6-(cyclopropylamino)-9H-purin-9-yl]cyclopent-2-en-1-yl}methanol",83,441300
