col0,col1,col2,col3
East Hill House and Carriage House,Howard Van Doren Shaw,12140,12140
East High Street Historic District,R. H. Robertson,20234,20234
East Clarendon Railroad Station,R. Railroad,2023,2023
East Avenue Tabernacle Associate Reformed Presbyterian Church,J. M. McMichael,2023,2023
Early Winters Ranger Station Work Center,USDA Forest Svce. Architecture Group,40063,40063
Eagle Ranger Station,C. C. Corps,16187,16187
E.O. Grosvenor House,E. E. Myers,10117,10117
Dwight-Hooker Avenue Historic District,P. M. Lloyd,24281,24281
Dunbar Apartments,A. J. Thomas,16996,16996
Dumbarton Oaks Park,B. Farrand,109265,109265
Duluth Civic Center Historic District,D. Burnham,42491,42491
Duke Memorial United Methodist Church,G. W. Kramer,12140,12140
Dudley Spencer House,F. L. Wright,27113,27113
Druim Moir Historic District,G. W. & W. D. Hewitt,192225,192225
Druid Hills Historic District,F. L. Olmsted,1011714,1011714
Dresden Island Lock and Dam,W. M. Smith,94696,94696
Dred and Ellen Yelverton House,B. &. Klutz,33993,33993
Drayton Mill,"Lockwood, Greene & Co.",64749,64749
Dr. Richard Davis House,F. L. Wright,8093,8093
Dr. Luke A. Port House,W. C. Knighton,16187,16187
Dr. James Rosenfeld House,J. Jacobberger,809,809
Dr. Herbert S. Nichols House,A. E. Doyle,1214,1214
Dr. Frank B. Kistner House,W. H. Pipes,4046,4046
Doyle Hardware Building,F. H. Gouge,2023,2023
Downtown Wilkesboro Historic District,W. &. Runge,149733,149733
Downtown Pomeroy Historic District,C. Burggraf,55441,55441
Downtown Paterson,J. M. Carrère,165921,165921
Downtown Oakland Historic District,R. &. Corlett,105218,105218
Downtown Main Street Historic District,B. &. Benton,12140,12140
Downtown Grand Forks,B. &. Orth,325367,325367
Downtown Bismarck Historic District,Arthur W. Van Horn,161874,161874
Downtown Athens Historic District,A. Ten Eyck Brown,97124,97124
Dover Church,W. &. Price,1214,1214
Dorothea Dix Psychiatric Center,J. C. Stevens,60702,60702
Dorland Memorial Presbyterian Church,R. S. Smith,1214,1214
Doris,H. M. Co.,4046,4046
Dorchester Park,O. Brothers,115335,115335
Dorchester-Milton Lower Mills Industrial District,"Bradlee, Winslow & Wetherell",20234,20234
Donald and Ruth McGraw House,J. Parker,14163,14163
Donald and Helen Olsen House,D. Olsen,4046,4046
Dodge Mansion,D. B. Moon,36421,36421
Dock Bridge,J. Waddell,4046,4046
Digman–Zidell House,C. L. Linde,1214,1214
Dickinson State Normal School Campus District,W. F. Kurke,64749,64749
Dey Road Bridge,M. B. Company,4046,4046
Dexter Universalist Church,T. Silloway,4046,4046
Dewey House,D. Adler,3237,3237
Devils Lake Commercial District,J. A. Shannon,60702,60702
Devereaux House,W. Paul,10117,10117
Department Store Historic District,H. H. Richardson,20234,20234
Denkmann-Hauberg House,J. Jensen,40468,40468
Deming School,F. H. Porter,4046,4046
Deke House,W. H. Miller,1618,1618
Deering Oaks,O. Brothers,172841,172841
Deering Memorial United Methodist Church,W. H. Nicklas,809,809
Decatur House,B. H. Latrobe,4046,4046
Deborah Cook Sayles Public Library,"Cram, Goodhue & Ferguson",4046,4046
