col0,col1,col2,col3,col4
Abhinavagupta,Kashmir,950-1-1,950-1-1,1016
A. Arvasi,Ankara,1865-1-1,1865-1-1,1943
A. Haq,Karachi,1870-1-1,1870-1-1,1961
A. Dehlavi,Delhi,1551-0-0,1551-0-0,1642
A. B. Badis,Algeria,1889-12-04,1889-12-04,1940
A. R. Badawi,Cairo,1917-02-17,1917-02-17,2002
A. a. al-Kawakibi,Cairo,1855-1-1,1855-1-1,1902
A. S. Shastri,Bangalore,1925-06-02,1925-06-02,2004
A. J. Ayer,England,1910-10-29,1910-10-29,1989
A. D. Gordon,British Mandate of Palestine,1856-06-09,1856-06-09,1922
Étienne de La Boétie,Le Taillan-Médoc,1530-11-01,1530-11-01,1563
É. Souriau,Paris,1892-04-26,1892-04-26,1979
É. Gilson,Auxerre,1884-06-13,1884-06-13,1978
Étienne Bonnot de Condillac,Lailly-en-Val,1714-09-30,1714-09-30,1780
É. Meyerson,France,1859-02-12,1859-02-12,1933
É. Chartier,Le Vésinet,1868-03-03,1868-03-03,1951
É. Boutroux,Paris,1845-07-28,1845-07-28,1921
É. Halévy,Sucy-en-Brie,1870-09-06,1870-09-06,1937
