col0,col1,col2,col3
Wayning Moments,Second Genesis,1961-11-06,1939
Waylon Live,Are You Ready for the Country,1974-09-25,2376
Way Out West,"Sonny Rollins, Vol. 1",1957-03-07,2605
Way Down,Moody Blue,1976-10-29,159
Wavin' Flag,Each Tear,2010-02-18,218
Wave,The Wonderful World of Antonio Carlos Jobim,1967-06-15,1898
Watertown,A Man Alone,0017-07-14,2178
Watershed,The Roundhouse Tapes,2008-01-10,3288
Waterloo,Ring Ring,1973-09-24,2290
Waterloo,"Another Town, Another Train",1973-12-17,162
Water Babies,Pangaea,0013-06-07,3185
Watching and Waiting,Never Comes the Day,1969-05-17,256
Wasting Light,Greatest Hits,2010-12-21,2874
Waste Management Remixes,Waste Management,2010-05-01,4996
Warts and All: Volume 4,Warts and All: Volume 3,1998-07-18,13768
Warts and All: Volume 3,Wormwood,1998-11-13,13800
Warts and All: Volume 2,Warts and All: Volume 1,2002-02-23,12587
Warts and All: Volume 1,Dither,2001-02-28,11097
Warszawa,Collection,1996-06-29,2677
Warszawa,XM,2001-04-06,4752
Warszawa '81,Balkan Horror Rock II,0008-11-07,2583
Wars and Rumors of Wars,The Fiancée,2009-01-18,1818
Warped Tour Bootleg Series,Three Cheers for Sweet Revenge,2005-07-01,1152
Warpaint Live,Warpaint,2008-03-20,5783
Warning,Nimrod,2000-05-25,2474
War at the Warfield,Live Intrusion,2001-12-07,5171
War Song,Heart of Gold,1972-05-22,215
War,October,1982-08-20,2523
Wanted,Here in the Real World,1989-06-26,179
Want to Want Me,Bubblegum,2015-01-03,207
Wanna Be Startin' Somethin',Beat It,2007-11-25,231
Wandering as Water,Red Cities,2003-10-07,3253
Waltz for Debby,Sunday at the Village Vanguard,1961-06-25,2309
Walter Daniels Plays with Monsieur Jeffrey Evans & The Oblivians at Melissa's Garage,Soul Food,1995-04-19,841
Walt Dickerson Plays Unity,Jazz Impressions of Lawrence of Arabia,1964-03-05,2043
Walking with a Ghost,Get Behind Me Satan,2005-06-01,1143
Walking on Thin Ice,Kiss Kiss Kiss,1980-12-08,360
Walking Down,Bennie Green with Art Farmer,1956-06-29,2459
Walking Disaster,Underclass Hero,2006-11-06,256
Walkin' & Talkin',The 45 Session,1959-01-25,2197
Walkin',Blue Haze,1954-04-03,2263
Walk on the Wild Side: The Best of Lou Reed,Rock and Roll Heart,1972-01-05,2450
Walk On By,Anyone Who Had a Heart,1964-07-09,175
Walk,White Limo,2010-12-21,256
Waldron-Haslam,My Dear Family,1994-02-24,4119
Wake Up to Find Out,Spring 1990,1990-03-29,9126
Wake Up the Wonder,Only King Forever,2014-08-01,4426
Wakantanka / Aboriginie of Anniversary 50 Years After War,Electroknots,1995-09-05,719
Waiting to Inhale,A Colt 45 Christmas,2007-06-20,4342
Waiting on the World to Change,Go!,2006-07-11,198
"Waiter, Make Mine Blues",Anita O'Day and Billy May Swing Rodgers and Hart,0007-10-04,2250
Wait for Me,Last Night Remixed,2009-11-02,3126
Wailing With Lou,Quartet/Quintet/Sextet,1957-01-27,2241
"Wail, Moody, Wail",Hi Fi Party,1955-12-12,2361
Wahoo!,Hush!,1964-11-21,2584
Wagner Reloaded-Live in Leipzig,7th Symphony,2013-07-05,3307
W.O.A.R./W.O.A.,The Empire Strikes Back,2006-03-23,2482
Völkerball,Rosenrot,2004-11-28,6240
Vuelvo A Ti,Mi Pasion,2005-08-21,3262
Vrooom Vrooom,King Crimson Live in Mainz,1995-06-30,7717
Voy a Acabar Borracho,Burrock'n Roll,1991-02-22,2480
Voulez-Vous,Does Your Mother Know,1979-02-01,261
Voulez-Vous,ABBA: The Album,1978-03-13,2503
Vossabrygg,Lux Aeterna,2003-04-12,4085
Voodoo Lounge,Steel Wheels,1993-12-11,3728
Voodoo Child,Fire,1968-05-03,312
Vol. 1,Anubis Dance,2003-04-28,4667
Voivod,Voivod Lives,2002-11-26,3932
Voimasta ja kunniasta,Suden uni,2001-08-10,2915
Voices in the Sky,Tuesday Afternoon,1968-03-11,209
Voices in My Head,Out of Myself,2004-05-15,2197
Voices Within,Out of a Dream,1998-11-17,2428
Voices Deep Within,Seasoned Wood,2009-05-20,3396
Voices,Memphis Jazz Box,2004-04-15,3900
Voices,The Stan Getz Quartet in Paris,1966-12-02,1980
Voices & Dreams,Port of Saints,2000-05-05,4052
Vo slavu velikim!,Lepta,2005-08-27,3686
Vivus!,Live in Cottbus '98,1998-05-13,7687
Vivos,Insomnio,2002-05-24,4769
Vivacitas,Autumn '67 - Spring '68,2002-10-04,5906
Viva la Vida,Life in Technicolor II,2009-02-08,225
Viva Las Vegas,It Hurts Me,1963-07-10,144
Viva Caruso,Flights of Fancy: Trio Fascination Edition Two,2001-10-13,3906
Viva! Suburbs! Live at First Avenue,"Ladies and Gentlemen, The Suburbs Have Left The Building",1993-04-24,4380
Viva! Hysteria,Mirror Ball – Live & More,2013-03-30,8562
Vital,The Quiet Zone/The Pleasure Dome,1978-01-16,5174
Vitaj!,Situácia,1998-03-15,2277
Visitation,Oleo,1983-11-06,2611
Visions,Live at Club Mozambique,1971-05-21,2226
Vision Towards Essence,Streaming,1998-09-11,3525
Visage,Scratching the Surface,1998-10-18,4172
Virtuoso No. 4,Eximious,0026-11-11,6192
Virtuoso No. 3,Porgy and Bess,1977-06-01,3366
Virtuoso No. 2,Joe Pass at the Montreux Jazz Festival 1975,1976-10-26,3496
