col0,col1,col2,col3
Parliament of the Czech Republic,Senate of the Parliament of the Czech Republic,Czech Social Democratic Party,2013-10-26
Parliament of Trinidad and Tobago,House of Representatives of Trinidad and Tobago,People's National Movement,2015-09-07
Parliament of South Africa,National Council of Provinces,African National Congress,2014-05-07
Parliament of Romania,Chamber of Deputies of Romania,Alliance of Liberals and Democrats,2012-12-09
Parliament of Poland,Sejm,Law and Justice,2015-10-25
Parliament of Pakistan,National Assembly of Pakistan,Pakistan Peoples Party,2013-05-11
Parliament of Kenya,Senate of Kenya,Jubilee Alliance,2013-03-04
Palau National Congress,House of Delegates of Palau,Independent politician,2012-11-06
Oregon Legislative Assembly,Oregon House of Representatives,Democratic Party,2014-11-04
Oklahoma Legislature,Oklahoma House of Representatives,Oklahoma Republican Party,2014-11-04
Ohio General Assembly,Ohio House of Representatives,Republican Party,2014-11-04
Norwich City Council,Unicameral,Labour Party,2016-05-05
North Somerset Council,Unicameral,Conservative Party,2015-05-07
North Dakota Legislative Assembly,North Dakota House of Representatives,Republican Party,2014-11-04
North Carolina General Assembly,North Carolina House of Representatives,Republican Party of North Carolina,2014-11-04
New York State Legislature,New York State Assembly,Democratic Party of New York,2014-11-04
New Jersey Legislature,New Jersey General Assembly,Democratic Party,2015-11-03
New Hampshire General Court,New Hampshire House of Representatives,New Hampshire Republican State Committee,2014-11-04
Nevada Legislature,Nevada Assembly,Republican Party of Nevada,2014-11-04
National Diet,House of Representatives,Liberal Democratic Party,2014-12-14
National Congress of Argentina,Argentine Senate,Republican Proposal,2015-10-25
National Assembly of Thailand,House of Representatives of Thailand,Pheu Thai Party,2011-07-03
Montana Legislature,Montana House of Representatives,Republican Party of Montana,2014-11-04
Missouri General Assembly,Missouri House of Representatives,Republican Party,2014-11-04
Minnesota Legislature,Minnesota House of Representatives,Minnesota Democratic–Farmer–Labor Party,2012-11-06
Michigan Legislature,Michigan House of Representatives,Michigan Republican Party,2014-11-04
Massachusetts General Court,Massachusetts House of Representatives,Democratic Party,2014-11-04
Maryland General Assembly,Maryland House of Delegates,Maryland Democratic Party,2014-11-04
Maine Legislature,Maine House of Representatives,Republican Party of Maine,2014-11-04
Louisiana State Legislature,Louisiana House of Representatives,Republican Party,2011-11-19
Legislature of Liberia,House of Representatives of Liberia,Unity Party,2011-10-11
Leeds City Council,Unicameral,Labour Party,2015-05-07
Kentucky General Assembly,Kentucky House of Representatives,Republican Party of Kentucky,2014-11-04
Kansas Legislature,United States Senate,Republican Party of Kansas,2012-11-06
Italian Parliament,Italian Chamber of Deputies,Democratic Party,2013-02-25
Iowa General Assembly,Iowa House of Representatives,Iowa Democratic Party,2014-11-04
Indiana General Assembly,Indiana House of Representatives,Republican Party,2014-11-04
Illinois General Assembly,Illinois House of Representatives,Democratic Party,2014-11-04
Idaho Legislature,Idaho House of Representatives,Republican Party,2012-11-06
Hawaii State Legislature,Hawaii House of Representatives,Democratic Party,2014-11-04
Havering London Borough Council,Unicameral,Conservative Party,2014-05-22
French Parliament,National Assembly of France,The Republicans,2012-06-17
Federal Assembly,National Council,FDP.The Liberals,0015-10-18
Exeter City Council,Unicameral,Conservative Party,2015-05-07
East Riding of Yorkshire Council,Unicameral,Conservative Party,2015-05-07
Delaware General Assembly,Delaware House of Representatives,Democratic Party,2014-11-04
Coventry City Council,Unicameral,Labour Party,2012-05-03
Corts Valencianes,Unicameral,Coalició Compromís,2015-05-24
Cortes Generales,Congress of Deputies,People's Party,2016-06-26
Connecticut General Assembly,Connecticut House of Representatives,Democratic Party,2014-11-04
Congress of the Union,Senate,PVEM,2012-07-01
Colorado General Assembly,Colorado House of Representatives,Colorado Republican Party,2014-11-04
Cambridge City Council,Unicameral,Labour Party,2016-05-05
