col0,col1,col2,col3
Phyllodes tumor,"C50,D24,D48.6",M9020,D003557
Philadelphia chromosome,C92.1,9875/3,D010677
Paraganglioma,"C75.4,C75.5,D35.5,D35.6,D44.6,D44.7",-,D010235
Paget's disease of the breast,C50,M8540/3,D010144
Ovarian cancer,C56,varied,D010051
Osteoid osteoma,D16.9,9191/0,D010017
Osteochondromatosis,Q78.6,M9210/1,D018216
Osteochondroma,D16,9210/0,D015831
Oligodendroglioma,C71,-9451/3,D009837
Non-Hodgkin lymphoma,C82-C85,9591/3,D008228
Neurofibroma,D36.1 (ILDSD36.160),-9550,D009455
Myoma,D21,M8895/3,D009214
Myeloproliferative neoplasm,D47.1,9950/0-9964/3,D009196
Myelolipoma,D17,M8870/0,D018209
Myeloid sarcoma,C92.3,9930/3,D023981
