col0,col1,col2,col3,col4
387 Aquitania,7,1894-03-05,506686492082,313290852777
3873 Roddy,12,1984-11-21,320947271799,245160990503
3872 Akirafujii,12,1983-01-12,479251738574,317192365245
386 Siegena,7,1894-03-01,507111350034,359272750294
3868 Mendoza,12,1960-09-24,383628779623,314918477610
38628 Huya,4,2000-03-10,7588052795516,4268476044683
385 Ilmatar,7,1894-03-01,478710194282,374332767937
385571 Otrera,8,2004-10-16,4608661602654,4386209568924
3854 George,14,1983-03-13,321016685211,245193393401
385446 Manwë,7,2003-08-25,7251457586441,5773580221795
3851 Alhambra,13,1986-10-30,346184432586,304506465809
384 Burdigala,9,1894-02-11,455537484111,337459884767
3841 Dicicco,13,1983-11-04,394773820990,285731933037
383 Janina,9,1894-01-29,547172163829,393553102365
382 Dodona,8,1894-01-29,547184131659,386412795996
3822 Segovia,13,1988-02-21,379305401159,299719333947
381 Myrrha,8,1894-01-10,525447561046,438855825549
380 Fiducia,9,1894-01-08,446513740550,354572385197
38083 Rhadamanthus,7,1999-04-17,6762422147122,4964405339179
3800 Karayusuf,15,1984-01-04,253931464868,218178965031
37 Fides,7,1855-10-05,464908000000,325340000000
379 Huenna,8,1894-01-08,556294641985,382072961767
3794 Sthenelos,9,1985-10-12,892126901919,665531007170
3793 Leonteus,8,1985-10-11,849760784937,709946614980
3790 Raywilson,12,1937-10-26,552976037620,393964002836
378 Holmia,9,1893-12-06,469141914472,361347672761
3789 Zhongguo,12,1928-10-25,582430885975,400959692943
3787 Aivazovskij,11,1977-09-11,482198816627,371316874864
3785 Kitami,12,1986-11-30,565689388264,401580524107
3782 Celle,12,1986-10-03,395028137370,327619336833
377 Campania,8,1893-09-20,433878704391,370936896272
3771 Alexejtolstoj,14,1974-09-20,389029262755,276696221646
376 Geometria,9,1893-09-18,401401006662,283296479702
37655 Illapa,17,1994-08-01,387473444900,54758804591
375 Ursula,7,1893-09-18,517608632622,417228461382
3757 Anagolay,18,1982-12-14,396733553096,152170954076
3754 Kathleen,10,1931-03-16,524205898719,421267603891
3753 Cruithne,15,1986-10-10,226102221775,72402377461
3752 Camillo,15,1985-08-15,275230162513,147657586317
374 Burgundia,8,1893-09-18,449658287792,382461916231
3749 Balam,13,1982-01-24,371331834651,297939119286
37432 Piszkéstető,15,2002-01-11,416016718629,296233703560
373 Melusina,9,1893-09-15,532463701182,399997778635
3737 Beckman,12,1983-08-08,502709746845,217178319834
372 Palma,7,1893-08-19,593798828169,349049231810
3728 IRAS,11,1983-08-23,480732757494,311911560409
3724 Annenskij,11,1979-12-23,481756949396,345141391352
371 Bohemia,8,1893-07-16,434061213793,381619680219
3710 Bogoslovskij,12,1978-09-13,475825947335,343357032830
370 Modestia,10,1893-07-14,379389175967,316193051468
3709 Polypoites,9,1985-10-14,831390166415,737188387235
3703 Volkonskaya,14,1978-08-09,395566689704,302277457536
37022 Robertovittori,14,2000-10-22,443964727471,396875536435
3700 Geowilliams,12,1984-10-23,442866843658,279805553550
36 Atalante,8,1855-10-05,535625000000,286217000000
369 Aëria,8,1893-07-04,434836130763,357658589269
3697 Guyhurst,13,1984-03-06,369449684001,338952557361
3691 Bede,14,1982-03-29,340863058584,190038489389
368 Haidea,9,1893-05-19,552225579901,367921003199
3689 Yeates,12,1981-05-05,466884841638,394495179996
3688 Navajo,14,1981-03-30,712750079077,251161361096
3687 Dzus,11,1908-10-07,489588951439,326392634293
3682 Welther,11,1923-07-12,544693327112,279480238020
367 Amicitia,10,1893-05-19,363739742713,300317725430
367943 Duende,24,2012-02-23,148363688266,124004666980
3674 Erbisbühl,12,1963-09-13,485654527440,220372623328
3673 Levy,12,1985-08-22,415627764165,286270485371
3671 Dionysus,16,1984-05-27,507066040729,150832857969
366 Vincentina,8,1893-03-21,496365734982,444307171957
3669 Vertinskij,13,1982-10-21,354447650492,307964270993
365 Corduba,9,1893-03-21,484951417448,353167661191
36446 Cinodapistoia,15,2000-08-22,431106655847,296054186115
3642 Frieden,11,1953-12-04,450947821438,382671353250
3640 Gostin,12,1985-10-11,361409366922,304150751992
363 Padua,9,1893-03-17,440133391365,382536715166
3635 Kreutz,14,1981-11-21,291172373760,245816019739
362 Havnia,9,1893-03-12,402274658227,369182113249
3628 Božněmcová,12,1979-11-25,493269059059,266134611975
361 Bononia,8,1893-03-11,719145388050,465669747893
360 Carlova,8,1893-03-11,529124676708,369218016738
35 Leukothea,8,1855-04-19,549374000000,345074000000
359 Georgia,8,1893-03-10,472160799503,344060142822
3596 Meriones,9,1985-11-14,829456210022,716088654758
358 Apollonia,9,1893-03-08,495912453434,364415925089
3581 Alvarez,12,1985-04-23,584194689749,246191360797
357 Ninina,8,1893-02-11,507096390247,437232688652
3578 Carestia,10,1977-02-11,580110623000,380696661357
356 Liguria,8,1893-01-21,510472814189,314726992336
3568 ASCII,11,1936-10-17,583152830339,357310370305
3567 Alvema,12,1930-11-15,546780217408,287153112808
3564 Talthybius,9,1985-10-15,810868330512,747132157700
3563 Canterbury,12,1985-03-23,492880104595,342055531355
355 Gabriella,10,1893-01-20,420090268648,339109949281
3554 Amun,15,1986-03-04,186514137252,104804977059
3553 Mera,16,1985-05-14,324794514263,167258710592
3552 Don Quixote,12,1983-09-26,1085048315974,182569241402
3551 Verenia,16,1983-09-12,465623372553,160337501837
354 Eleonora,6,1893-01-17,466565839139,370518022234
3548 Eurybates,9,1973-09-19,845411974835,706900802333
3544 Borodino,12,1977-09-07,438531198169,279598420338
3540 Protesilaos,9,1973-10-27,881595211822,695764736838
353 Ruperto-Carola,11,1893-01-16,543061214342,275433615618
3537 Jürgen,12,1982-11-15,447910984662,326243036422
352 Gisela,10,1893-01-12,377209534991,279200490002
3529 Dowling,14,1981-03-02,422075432392,290474185538
351 Yrsa,8,1892-12-16,477121464895,350824958535
350 Ornamenta,8,1892-12-14,539165685789,390996474755
34 Circe,8,1855-04-06,443967435193,359966884414
349 Dembowska,5,1892-12-09,477396724977,397384303833
3494 Purple Mountain,12,1980-12-07,397496502236,305568610691
348 May,9,1892-11-28,474178874779,414264927563
347 Pariana,8,1892-11-28,456016197297,325394816495
346 Hermentaria,7,1892-11-25,460653731289,376153374024
345 Tercidina,8,1892-11-23,369155185632,326627502950
3451 Mentor,8,1984-04-19,821262390568,713192888775
344 Desiderata,8,1892-11-15,510411479062,266858665669
343 Ostara,11,1892-11-15,443385649074,278235583736
34351 Decatur,14,2000-09-03,471382890575,409898165718
3430 Bradfield,12,1980-10-09,452840324261,372427160341
342 Endymion,10,1892-10-17,433365583694,335217412685
3428 Roberts,12,1952-05-01,464347302716,332235927122
342843 Davidbowie,17,2008-12-21,447671628069,374593068232
3425 Hurukawa,10,1929-01-29,487045787637,410930391025
341 California,10,1892-09-25,392990614371,265067979157
341520 Mors–Somnus,6,2007-10-14,7390134812580,4314402590988
3412 Kafka,13,1983-01-10,367292692142,298313113962
340 Eduarda,9,1892-09-25,457919082212,363826509478
3409 Abramov,12,1977-09-09,462691254288,391602346131
3406 Omsk,11,1969-02-21,473911094590,363044112614
3402 Wisdom,15,1981-08-05,408121346928,229641976672
3401 Vanphilos,12,1981-08-01,481638213566,226682885911
33 Polyhymnia,8,1854-10-28,573517844838,284409487860
339 Dorothea,9,1892-09-25,494286324579,406811961645
3391 Sinon,10,1977-02-18,858552651798,727853480103
338 Budrosa,8,1892-09-25,445532378518,425963481052
337 Devosa,8,1892-09-22,405455108958,307492439309
336 Lacadiera,9,1892-09-19,368923308933,304775741977
3367 Alex,12,1983-02-15,445352861073,387563203622
3362 Khufu,18,1984-08-30,217380665914,78672024222
3361 Orpheus,19,1982-04-24,239341633332,122510184252
3360 Syrinx,15,1981-11-04,644172919170,93933998991
335 Roberta,8,1892-09-01,434043262048,306564932510
3353 Jarvis,13,1981-12-20,302288019146,255114021076
3351 Smith,12,1980-09-07,577540920536,331820419036
3350 Scobee,14,1980-08-08,416656997516,274603347435
334 Chicago,7,1892-08-23,595700217106,569689635327
3345 Tarkovskij,11,1982-12-23,440251573683,299524856715
3343 Nedzel,13,1982-04-28,460986481832,242061906053
333 Badenia,9,1892-08-22,544024624630,393677268597
3333 Schaber,11,1980-10-09,573259040522,363214654187
332 Siri,9,1892-03-19,452024926107,378018859471
3325 TARDIS,11,1984-05-03,482602730878,469662515062
3322 Lidiya,12,1975-12-01,435303758747,280321097732
331 Etheridgea,9,1892-04-01,497596925458,406988487132
3318 Blixen,11,1985-04-23,473073346514,427864869989
3317 Paris,8,1984-05-26,879994514605,682854440597
330 Adalberta,12,1910-02-02,462646374926,275663996338
32 Pomona,7,1854-10-26,419316000000,354967000000
329 Svea,9,1892-03-21,379983079514,361169651294
3290 Azabu,12,1973-09-19,668228481175,517657012573
328 Gudrun,8,1892-03-18,514613683250,416070573863
3288 Seleucus,15,1982-02-28,442844074696,165370823172
3281 Maupertuis,12,1938-02-24,385829229662,317255136511
327 Columbia,10,1892-03-22,441310726607,389446640814
3277 Aaronson,11,1984-01-08,597553734724,342579123903
