col0,col1,col2,col3,col4
Tenzing–Hillary Airport,LUA,526,06/24,Asphalt
Tennant Creek Airport,TCA,1054,07/25,Asphalt
Tenkodogo Airport,TEG,1203,17/35,Dirt
Teniente Vidal Airfield,GXQ,1661,03/21,Asphalt
Teniente R. Marsh Airport,TNM,1,12/30,Gravel
Teniente Julio Gallardo Airport,PNT,1752,10/28,Asphalt
Teniente Jorge Henrich Arauz Airport,TDD,2399,14/32,Asphalt
Teniente General Benjamín Matienzo International Airport,TUC,2900,02/20,Concrete
Teniente Coronel Luis a Mantilla International Airport,TUA,2460,05/23,Asphalt
Teniente Coronel Carmelo Peralta Airport,CIO,1850,03/21,Asphalt
Teniente Amin Ayub Gonzalez Airport,ENO,2200,02/20,Asphalt
Tengah Air Base,TGA,352,01/19,Asphalt
Tenerife–South Airport,TFS,3199,08/26,Asphalt
Tenerife-North Airport,TFN,3393,12/30,Asphalt
Tenerife–South Airport,TFS,3199,08/26,Asphalt
Tenakee Seaplane Base,TKE,3048,E/W,Water
Temuco Maquehue Airport,PZS,1699,06/24,Asphalt
Temora Airport,TEM,840,05/23,Asphalt
Temindung Airport,SRI,1160,04/22,Asphalt
Telêmaco Borba Airport,TEC,1800,02/20,Asphalt
Telluride Regional Airport,TEX,2167,9/27,Asphalt
Teller Airport,TLA,914,7/25,Gravel
Telida Airport,TLF,579,2/20,Turf/Dirt
Telfair–Wheeler Airport,MQW,1524,3/21,Asphalt
Telegraph Creek Airport,YTX,1524,01/19,Gravel/Turf
Tela Airport,TEA,1600,06/24,Asphalt
Telêmaco Borba Airport,TEC,1800,02/20,Asphalt
Tekirdağ Çorlu Airport,TEQ,3000,05/23,Paved
Teixeira de Freitas Airport,TXF,1459,11/29,Asphalt
Tehuacán Airport,TCN,1990,13/31,Asphalt
Tehran Imam Khomeini International Airport,IKA,4197,11L/29R,Asphalt
Tehini Airport,BQO,1399,02/20,Unpaved
Tehachapi Municipal Airport,TSP,1228,11/29,Asphalt
Tefé Airport,TFF,2200,14/32,Asphalt
Ted Stevens Anchorage International Airport,ANC,3230,15/33,Asphalt
Te Anau Airport,TEU,968,08/26,Asphalt
Tchongorove Airport,IGE,1500,15/33,Sand
Tchien Airport,THC,1725,01/19,Unpaved
Tchibanga Airport,TCH,2000,15/33,Asphalt
Tbilisi International Airport,TBS,3000,13R/31L,Concrete
Ta’if Regional Airport,TIF,3350,07/25,Asphalt
Tazadit Airport,OUZ,762,09/27,Asphalt
Taylor County Airport,MDF,1351,16/34,Asphalt
Taylor Airport,TYZ,2133,3/21,Asphalt
Tawau Airport,TWU,2685,06/24,Asphalt
Tauranga Airport,TRG,640,04/22,Asphalt
Taupo Airport,TUO,730,11/29,Asphalt
Tau Airport,TAV,661,18/36,Coral
Tatitlek Airport,TEK,1128,12/30,Gravel
Tatalina LRRS Airport,TLJ,1158,16/34,Gravel
Tatakoto Airport,TKV,1200,07L/25R,Paved
Tata Airport,LEK,2999,06/24,Dirt
Tasiujaq Airport,YTQ,1072,05/23,Gravel
Tasikmalaya Airport,TSY,1094,15/33,Asphalt
Tashkent International Airport,TAS,3905,08L/26R,Asphalt
Tartu Airport,TAY,1799,08/26,Asphalt/Concrete
"Tartagal ""General Enrique Mosconi"" Airport",TTG,1499,01/19,Asphalt
Taroom Airport,XTO,1091,08/26,Clay
Tarinkot Airport,TII,2225,12/30,Concrete
Targovishte Airport,TGV,2148,11/29,Asphalt
Taree Airport,TRO,564,04/22,Asphalt
Tardamu Airport,SAU,899,07/25,Asphalt
Tarbes–Lourdes–Pyrénées Airport,LDE,3000,02/20,Asphalt
Tarbela Dam Airport,TLB,1706,07/25,Asphalt
Taraz Airport,DMB,3500,13/31,Asphalt
Tarauacá Airport,TRQ,1129,14/32,Asphalt
Tarapoa Airport,TPC,1570,12/30,Asphalt
Taranto-Grottaglie Airport,TAR,3200,17/35,Asphalt
Tarama Airport,TRA,1500,18/36,Asphalt concrete
Tapuruquara Airport,IRZ,1199,09/27,Asphalt
Tapachula International Airport,TAP,1999,05/23,Asphalt
Taoyuan International Airport,TPE,3660,05L/23R,Asphalt concrete
Taos Regional Airport,TSM,1768,4/22,Asphalt
Tanquary Fiord Airport,JQ6,1127,03/21,Gravel
Tanjung Manis Airport,TGC,1500,05/23,Bitumen
Tanjung Harapan Airport,TJS,1200,03/21,Asphalt
Tangier Ibn Battouta Airport,TNG,2000,10/28,Asphalt
Tanga Airport,TGT,1255,06/24,Asphalt
Tandil Airport,TDL,2548,01/19,Concrete
Tandag Airport,TDG,1452,03/21,Concrete
Tancredo Neves International Airport,CNF,3000,16/34,Asphalt
Tanacross Airport,TSG,1524,12/30,Asphalt
Tan Tan Airport,TTA,2000,03/21,Asphalt
Tan Son Nhat International Airport,SGN,3050,07L/25R,Concrete
Tamworth Airport,TMW,842,06/24,Asphalt
Tamuín National Airport,TSL,1443,16/34,Asphalt
Tampere–Pirkkala Airport,TMP,2699,06/24,Asphalt
Tampa Padang Airport,MJU,2050,05/23,Asphalt
Tampa International Airport,TPA,2133,10/28,Asphalt/Concrete
Tamga Airport,none (ТМГ),849,18/36,Asphalt
Tambov Donskoye Airport,TBW,2100,15/33,Concrete
Tambor Airport,TMU,830,12/30,asphalt
Tambolaka Airport,TMC,2300,10/28,Asphalt
Tambao Airport,TMQ,1100,07/25,Sand
Tambacounda Airport,TUD,1999,06/24,Asphalt
Tamarindo Airport,TNO,800,07/25,asphalt
