col0,col1,col2,col3
Walking Down Your Street,Following,S. Hoffs,The Bangles
Walking Disaster,With Me,D. Whibley,Sum 41
Walking Contradiction,Hitchin' a Ride,G. Day,Green Day
Walking Barefoot,Envy,T. Wheeler,Ash
Walking Back to Me,Stop!,S. Brown,Sam Brown
Walking Away a Winner,Nobody's Gonna Rain on Our Parade,T. Shapiro,Kathy Mattea
Walking Away,Repetition,P. Robb,Information Society
Walking After You,Learn to Fly,D. Grohl,Foo Fighters
Walkin' on the Sun,Why Can't We Be Friends?,G. Camp,Smash Mouth
Walkin' on the Moon,Throw It in the Bag,K. West,The-Dream
Walkin' Away,That's What I Get for Lovin' You,C. Wiseman,Diamond Rio
Walkin' Away,Nothing's News,C. Black,Clint Black
"Walkin', Talkin', Cryin', Barely Beatin' Broken Heart",This Side of Goodbye,R. Miller,Highway 101
Walked Outta Heaven,My Baby,B. Cox,Jagged Edge
Walkaway Joe,You Say You Will,V. Melamed,Trisha Yearwood
Walkampf,Alles wird vorübergehen,F. v. Dannen,Die Toten Hosen
Walk the Way the Wind Blows,You're the Power,T. O'Brien,Kathy Mattea
Walk on the Wild Side,Satellite Of Love,L. Reed,Lou Reed
Walk on Water,The Love in Your Eyes,J. Harms,Eddie Money
Walk on Water,Nine Lives,J. Blades,Aerosmith
Walk on Faith,Till You Were Gone,A. Shamblin,Mike Reid
Walk on Air,Soul Destruction,C. Decker,T'Pau
Walk of Life,Your Latest Trick,M. Knopfler,Dire Straits
Walk by Faith,I Still Believe,J. Camp,Jeremy Camp
Walk a Little Straighter,I Got a Feelin',B. Currington,Billy Currington
