col0,col1,col2,col3,col4
Taixing Campaign,China,Chinese Civil War,Communistvictory,"6,500"
Tahmasp's campaign of 1731,Persia,Ottoman–Persian War,Ottoman victory,"18,000"
Tītokowaru's War,Colony of New Zealand,New Zealand wars,Ngāti Ruanui withdrawal,1250
Sơn Tây Campaign,Vietnam,Tonkin Campaign,French victory,"2,000 Chinese soldiers"
Syzran–Samara Operation,Volga River,Russian Civil War,Red Victory,"about 15,700"
Syria–Lebanon Campaign,Lebanon,Mediterranean and Middle East theatre of World War II,British–Free French victory,1landing ship
Syrian Kurdish–Islamist conflict,Al-Hasakah Governorate,War on Terror,"* As of the end of 2015, the territory of Rojava increased by nearly three-fold as the result of offensives by the YPG and allies against ISIL.","ISIL: Over 15,140"
Syria–Lebanon Campaign,Lebanon,Mediterranean and Middle East theatre of World War II,British–Free French victory,1landing ship
Sword Beach,France,Normandy landings,Allied victory,124–127 tanks
Swedish–Norwegian War,Norway in 1814,Napoleonic Wars,* Christian Frederik abandoned all claims to the Norwegian crown,117 field batteries
Swedish invasion of Russia,Russia,Great Northern War,*Decline of the Swedish Empire,"192,000"
Swedish intervention in the Thirty Years' War,Holy Roman Empire,Thirty Years' War,** Decentralization of theHoly Roman Empire,"* 10,000 infantry"
Swedish War of Liberation,Scandinavia,Dano-Swedish wars,"Treaty of Malmö: Regained Swedish independence, dissolution ofKalmar Union, Sweden renounced its claims toScaniaandBlekinge.","12,000"
Swedish–Norwegian War,Norway in 1814,Napoleonic Wars,* Christian Frederik abandoned all claims to the Norwegian crown,117 field batteries
Swatow Operation,Shantou,Second Sino-Japanese War,Japanese victory; Japanese force occupiedShantouandChaozhou,"38,400"
Sviatoslav's invasion of Bulgaria,Moesia,Rus'–Byzantine War,"Byzantinevictory over the Rus', formal annexation of Bulgaria, afifty years Byzantine-Bulgarian waruntil the fall of Bulgaria in 1018","60,000+ men"
Sventiany Offensive,Lithuania,Eastern Front,Russian victory,Unknown
Sveaborg rebellion,Helsinki,Revolution of 1905,Imperial Russian Army victory; uprising suppressed,25px2000
Suruga-Sagami Conflict,Suruga Province,Sengoku period,Imagawa/Takedavictory.,"15,000"
Surrender at Perevolochna,Ukraine,Great Northern War,"No fighting, Swedish surrender","12,000"
Summer Offensive of 1947 in Northeast China,Northeast China,Chinese Civil War,Communistvictory,"460,000"
Summer 2011 Jabal al-Zawiya operation,Syria,Civil uprising phase of the Syrian Civil War,Protests suppressed,"3,000 fighters and protesters"
Sukhumi massacre,Sukhumi,War in Abkhazia,Ethnic cleansing of the Georgian population,one battalion
Suiyuan Offensive,Mongolia,Soviet-Japanese border conflicts,Japanese victory,10 armored vehicles
Suiyuan Campaign,Inner Mongolia,Second Sino-Japanese War,Nationalist Chinese victory,22x20px|border30 Japanese advisors
Suez Crisis,Suez Canal,Arab–Israeli conflict,'s position as French Prime Minister heavily damaged,"175,000"
Suchan Valley Campaign,Russia,Allied intervention in the Russian Civil War,American victory,"3,520 troops"
Stratsin-Kumanovo operation,Kumanovo,World War II in Yugoslavia,Allied victory,"21st SS Skanderbeg, parachute division, 100 guns and mortars, 35 – 40 tanks and others"
Storming of the Bastille,France,French Revolution,"Bastillecaptured, rebellion begins","114 soldiers, 30 artillery pieces"
Storming of Lankaran,Qajar dynasty,Russo-Persian War,Russian victory,* 131 non-commissioned officers
Storming of Derbent,Derbent,Persian Expedition of 1796,Russian victory,"10,000 soldiers."
Storming of Bristol,Bristol,English Civil War,Decisive Royalist victory,"1,500 foot"
Storm of Kokenhusen,Koknese,Second Northern War,Russian victory,2500
Stoneman's 1865 Raid,North Carolina,American Civil War,Federalvictory,"4,000"
Stoneman's 1863 Raid,"Spotsylvania County, Virginia",American Civil War,Confederatevictory,?
Stand of the Swiss Guard,Holy See,Sack of Rome,Habsburg victory; escape ofPope Clement VII,189 PapalSwiss Guards
Stand-off at the Fords of Arkaig,Achnacarry,Scottish clan,No battle,1200
St Nazaire Raid,St Nazaire,North West Europe Campaign,*All British objectives achieved,265 Commandosref|Sources differ on the numbers. In the London Gazette account of the raid the Admiralty states there were 353 Royal Navy and 268 Commandos.|group=nb
St. Vrain massacre,"Pearl City, Illinois",Black Hawk War,Ho-Chunk and Sauk victory,7
St. John River expedition,New Brunswick,American Revolutionary War,British victory,120 troops
St. James's Day Battle,North Foreland,Second Anglo-Dutch War,English Victory,"89 ships, plus 20 fireships and 9 yachts"
St. Francis Raid,"Saint-François-du-Lac, Quebec",French and Indian War,British victory,142
St. Clair's Defeat,Ohio,American Indian Wars,Decisive Native American victory,"1,000"
St. Albans Raid,St. Albans,American Civil War,Confederatevictory,21 cavalry
Spring 1945 offensive in Italy,Italy,Italian Campaign,* German surrender in Italy,"*British Eighth Army632,980 fighting strength"
Spanish–American War,Puerto rico,Philippine Revolution,* Subsequent outbreak of thePhilippine–American War(1899-1902),(Cuban Republic:)
Spanish reconquest of Santo Domingo,Colony of Santo Domingo,Napoleonic Wars,SpanishandBritishvictory,1700 regulars and militia
Spanish reconquest of New Granada,Viceroyalty of New Granada,Spanish American wars of independence,Reconquest of New Granada by the Spanish monarchy,"10,000 men"
Spanish occupation of Jolo,"Jolo, Sulu",Spanish-Moro Conflict,* Spaniards set up garrison at Jolo.,1 Kuta (Fort)
Spanish invasion of Portugal,Enlightenment Spain,Seven Years' War,* Destruction of the Franco-Spanish army.,"42,000 men, including 10-12,000 French (the largest Spanish military mobilisation of the eighteenth century)."
Spanish expedition to Oran,Mers el-Kebir,Spanish-Algerian War,*Spanish reconquest ofMers el-Kebir,109 transport ships
Spanish expedition to Balanguingui,List of islands of the Philippines,Piracy,Spanish victory,124artillery pieces
Spanish conquest of Sardinia,Sardinia,War of the Quadruple Alliance,*Formation of the QuadrupleAlliance,2fireships
Spanish capture of Providencia,"Archipelago of San Andrés, Providencia and Santa Catalina",Piracy in the Caribbean,Spanish victory,"1,400 soldiers"
Spanish assault on French Florida,Florida,French colonial empire,Spanish victory,33 ships
Spanish Civil War,Spanish Guinea,Interwar period,*End of theSecond Spanish Republic,*200 tanks
Spanish–American War,Cuba,Philippine Revolution,* Subsequent outbreak of thePhilippine–American War(1899-1902),(Cuban Republic:)
Spafford Farm massacre,"South Wayne, Wisconsin",Black Hawk War,British Band victory,6
Soviet–Japanese War,Kuril Islands,World War II,DecisiveAlliedvictory,"1,155 tanks,"
Soviet–Afghan War,Democratic Republic of Afghanistan,Cold War,* Continuation of theAfghan Civil War,"* 115,000 at peak"
Soviet westward offensive of 1918–19,Lithuania,Russian Civil War,Soviet defeat,"285,000"
Soviet invasion of Xinjiang,Xinjiang,Kumul Rebellion,Cease-fire,"23px36th Division (National Revolutionary Army)around 10,000Chinese Muslimcavalry and foot soldiers"
Soviet invasion of Poland,Second Polish Republic,World War II,Soviet victory,11+ brigades
Soviet invasion of Manchuria,Mengjiang,Soviet–Japanese War,* Contribution to Japanese surrender,"1,152 rocket launchers"
Soviet evacuation of Tallinn,Gulf of Finland,Continuation War,Finnish–German victory,1 cruiser
Soviet assault on Maoka,Sakhalin,World War II,Soviet victory,2 battalions
Soviet–Japanese War,Kuril Islands,World War II,DecisiveAlliedvictory,"1,155 tanks,"
Soviet–Afghan War,Democratic Republic of Afghanistan,Cold War,* Continuation of theAfghan Civil War,"* 115,000 at peak"
Southern theater of the American Revolutionary War,East Florida,American Revolutionary War,*Surrender of a British army atYorktown,"Approximately 8,000 regulars and militia"
Southern Jiangsu Campaign,Anhui,Chinese Civil War,Communistvictory,Several thousands
Southern Front of the Russian Civil War,Caucasus,Russian Civil War,Bolshevik victory,100 000 - 260 000 Red army soldiers
Southern Abyan Offensive,Abyan,Yemeni Civil War,*AQAP united its western and eastern parts of its Emirate,Unknown
South Sulawesi Campaign,Sulawesi,Indonesian National Revolution,Dutch victory,123 DST troops
South Lebanon conflict,Southern Lebanon,Israeli–Lebanese conflict,* The collapse and surrender of the SLA,"1,000–1,500 troops"
South German Offensive,Austria,Western Allied invasion of Germany,Decisive Allied Victory,1st Ukrainian Front
South Armagh Sniper,County Armagh,Operation Banner,Mobility of foot patrols further restricted,1SASunit
South Arabia during World War I,South Arabia,Middle Eastern theatre of World War I,*British retention ofAden,See Conscription in the Ottoman Empire.
South-West Africa campaign,Namibia,African theatre of World War I,British and South African victory,Boer commandos:  500–600
Sonderkommando Blaich,French Equatorial Africa,North African Campaign,"80,000 gallons of fuel destroyed,",6
Somaliland campaign,British Somaliland,Somaliland Campaign,*Fall of theDervish State,1 battalion (KAR)
Sokoto hostage rescue attempt,Nigeria,Boko Haram insurgency,*Hostages killed,6-20 SBS operators
Sogdian Rock,Sogdiana,Wars of Alexander the Great,Macedonian victory,300
Snow Campaign,Appalachian Mountains,American Revolutionary War,Patriot victory,400 men (peak size)
Snake War,California,American Indian Wars,United States victory,1864-65
Slutsk Defence Action,Slutsk,Russian Civil War,Soviet victory,"10,000"
Slovak–Hungarian War,Slovakia,Interwar period,Tactical Hungarian victory,1 motorised battalion
Slovak Uprising of 1848–49,Slovakia,Hungarian Revolution of 1848,Indecisive settlement,"Abt. 80,000 at height"
Slovak National Uprising,Slovakia,World War II,*Ongoing partisan resistance,"18,000 initially, later increased to 78,000"
Slovak–Hungarian War,Slovakia,Interwar period,Tactical Hungarian victory,1 motorised battalion
Skirmish of the Brick Church,"Jacksonville, Florida",American Civil War,Confederatetactical victory,30
Skirmish of Tongue,Scotland,Jacobite Rising of 1745,British Hanoverian victory,160
Skirmish of Todos Santos,Baja California Sur,Mexican-American War,U.S. victory,"172 infantry, 45 mounted infantry"
