col0,col1,col2,col3,col4
Zulu language,Lesotho,zul,zu,zul
Zimbabwean Ndebele language,Botswana,nde,nd,nde
Zhuang languages,China,zha,za,zha
Yoruba language,Benin,yor,yo,yor
Yiddish,Central Europe,yid,yi,yid
Xhosa language,Lesotho,xho,xh,xho
West Frisian language,Groningen,fry,fy,fry
Walloon language,Belgium,wln,wa,wln
Vietnamese language,Vietnam,vie,vi,vie
Venda language,South Africa,ven,ve,ven
Uzbek language,Afghanistan,uzb,uz,uzb
Uyghur language,China,uig,ug,uig
Urdu,India,urd,ur,urd
Ukrainian language,Ukraine,ukr,uk,ukr
Twi,Ashanti Region,twi,tw (Twi),twi
Turkmen language,Afghanistan,tuk,tk,tuk
Turkish language,Azerbaijan,tur,tr,tur
Tswana language,Botswana,tsn,tn,tsn
Tsonga language,Mozambique,tso,ts,tso
Tongan language,Tonga,ton,to,ton
Tigrinya language,Eritrea,tir,ti,tir
Thai language,Thailand,tha,th,tha
Telugu language,Andhra Pradesh,tel,te,tel
Tatar language,Post-Soviet states,tat,tt,tat
Tajik language,Afghanistan,tgk,tg,tgk
Tahitian language,French Polynesia,tah,ty,tah
Tagalog language,Philippines,tgl,tl,tgl
Swedish language,Finland,swe,sv,swe
Swazi language,Lesotho,ssw,ss,ssw
Swahili language,Burundi,swa,sw,swa
Standard Zhuang,China,none,za (all Zhuang),zha
Spanish language,Spain,spa,es,spa
Southern Ndebele language,Limpopo,nbl,nr,nbl
Sotho language,Lesotho,sot,st,sot
Somali language,Djibouti,som,so,som
Slovene language,Carinthia,slv,sl,slv
Sinhalese language,Sri Lanka,sin,si,sin
Serbo-Croatian,Bosnia and Herzegovina,hbs,sh (deprecated),scr
Serbian language,Croatia,srp,sr,srp
Scottish Gaelic,Canada,gla,gd,gla
Sardinian language,Italy,srd,sc,srd
Sanskrit,Greater India,san,sa,san
Samoan language,Samoan Islands,smo,sm,smo
Russian language,Post-Soviet states,rus,ru,rus
Romansh language,Switzerland,roh,rm,roh
Quechuan languages,Argentina,que,qu,"que, qwe"
Punjabi language,Punjab region,pan,pa,pan
Punjabi dialects,Punjab region,pan,pa,pan
Portuguese language,Angola,por,pt,por
Polish language,Poland,pol,pl,pol
Pashto,Afghanistan,pus,ps,pus
Pali,Indian subcontinent,pli,pi,pli
Ossetian language,Georgia,oss,os,oss
Oromo language,Ethiopia,orm,om,orm
Old Church Slavonic,Central Europe,chu,cu (with Church Slavonic),chu
Ojibwe language,Alberta,oji,oj,oji
Odia language,Andhra Pradesh,ori,or,ori
Occitan language,France,oci,oc,oci
Nynorsk,Norway,nno,nn,nno
Nuosu language,Sichuan,iii,ii,iii
Norwegian language,Norway,nor,Individual codes:,nor
Northern Sami,Finland,sme,se,sme
Nepali language,Bhutan,nep,ne,nep
Ndonga dialect,Namibia,ndo,ng,ndo
Navajo language,Arizona,nav,nv,nav
Nauruan language,Nauru,nau,na,nau
Mongolian language,China,mon,mn,mon
Modern English,Anglosphere,eng,en,eng
Marshallese language,Marshall Islands,mah,mh,mah
Maltese language,Malta,mlt,mt,mlt
Maldivian language,The Maldives,div,dv,div
Malayalam,India,mal,ml,mal
Luxembourgish language,Belgium,ltz,lb,ltz
Luganda,Uganda,lug,lg,lug
Luba-Katanga language,Democratic Republic of Congo,lub,lu,lub
Lingala,Angola,lin,ln,lin
Limburgish language,Liège,lim,li,lim
Latvian language,Latvia,lav,lv,lav
Kyrgyz language,Afghanistan,kir,ky,kir
Kwanyama dialect,Angola,kua,kj,kua
Kurdish languages,Armenia,kur,ku,kur
Kongo language,Angola,kon,kg,kon
Komi language,Russia,kom,kv,kom
Kirundi,Burundi,run,rn,run
Kinyarwanda,Democratic Republic of the Congo,kin,rw,kin
Kikuyu language,Kenya,kik,ki,kik
Kazakh language,Afghanistan,kaz,kk,kaz
Kashmiri language,Jammu and Kashmir,kas,ks,kas
Kanuri language,Cameroon,kau,kr,kau
Kannada,India,kan,kn,kan
Japanese language,Japan,jpn,ja,jpn
Italian language,Italy,ita,it,ita
