col0,col1,col2,col3
Save Me,Aimee Mann,Goodbye Stranger,275
Reverie Sound Revue,Reverie Sound Revue,Reverie Sound Revue,2014
Pig,Dave Matthews Band,Spoon,417
Pet Sounds,The Beach Boys,"Caroline, No",158
Patience,Eddie Murphy,I Am Changing,169
Pantala Naga Pampa,Dave Matthews Band,Rapunzel,41
Our Prayer,The Beach Boys,Heroes and Villains,67
Love to Say Dada,The Beach Boys,Good Vibrations,152
Let's Go Away for Awhile,The Beach Boys,Sloop John B,145
Leaving So Soon?,Keane,A Bad Dream,240
Lady of the Island,"Crosby, Stills & Nash",Helplessly Hoping,159
Know Your Enemy,Rage Against the Machine,Wake Up,295
Kite,Kate Bush,The Man with the Child in His Eyes,176
Kallai Mattum,Hariharan,Oh Ho Sanam,328
Just nu!,Laleh Pourkarim,Fångad i en dröm,240
Intro,The xx,VCR,128
Indiscipline,King Crimson,Thela Hun Ginjeet,275
In the Wee Small Hours of the Morning,Frank Sinatra,Mood Indigo,180
I Just Fall in Love Again,The Carpenters,"Don't Cry for Me, Argentina",245
I've Got You Under My Skin,Frank Sinatra,I Thought About You,220
Hold on to What?,The Beautiful South,Good as Gold,388
Helpless,"Crosby, Stills, Nash & Young",Woodstock,210
Helpless,Phillipa Soo,Satisfied,250
"Help Me, Rhonda",The Beach Boys,"Dance, Dance, Dance",184
Halloween,Dave Matthews Band,The Stone,300
Girlfriend,Wings,I've Had Enough,279
Gangsta?,Kwasi Danquah III,In My System,155
Freddie Freeloader,Miles Davis,Blue in Green,586
Famous,Kwasi Danquah III,In My System,241
Dystopia,Iced Earth,Anthem,349
Don't Talk 2 Strangers,Prince,Girl 6,191
Discipline,King Crimson,Matte Kudasai,313
Come Fly with Me,Frank Sinatra,Around the World,199
Brown Shoes Don't Make It,The Mothers of Invention,America Drinks and Goes Home,450
Box of Rain,Grateful Dead,Friend of the Devil,318
Blue in Green,Bill Evans,All Blues,337
Big Generator,Yes,Shoot High Aim Low,272
Behind My Camel,Primus,Too Many Puppies,174
Bad Fog of Loneliness,Neil Young,The Needle and the Damage Done,207
Assassin,Muse,Exo-Politics,211
Are You Hung Up?,The Mothers of Invention,Who Needs the Peace Corps?,84
All Blues,Miles Davis,Flamenco Sketches,693
A Love That Will Never Grow Old,Emmylou Harris,King of the Road,201
