col0,col1,col2,col3
"William Donald Patrick, Lord Patrick",Edinburgh,University of Glasgow,William Donald Patrick
T. R. Dalton,United States,College of William & Mary,Theodore Roosevelt Dalton
R. Wilson,Western Australia,University of Pennsylvania,Ronald Darling Wilson
"Robert Smith Johnston, Lord Kincraig",Edinburgh,"St John's College, Cambridge",Robert Smith Johnston
Petrus Peckius the Elder,Mechelen,Old University of Leuven,Pieter Peck
M. G. Cedarbaum,Manhattan,Barnard College,Miriam Goldman
"Michael Mustill, Baron Mustill",Harrogate,"St John's College, Cambridge",Michael John Mustill
K. S. Rajah,Singapore,National University of Singapore,Kasinather Saunthararajah
J. D. Lowe,Edinburgh,University of Glasgow,John Duncan Lowe
J. C. Turk,United States,Roanoke College,James C. Turk
"Geoffrey Lawrence, 1st Baron Oaksey",Malmesbury,"New College, Oxford",Geoffrey Lawrence
E. Sachs,Wadhurst,"Christ Church, Oxford",Eric Leopold Otho Sachs
D. Patel,Islamabad,Juris Doctor,Dorab Framrose Patel
C. Singh,Singapore,University of London,Choor Singh Sidhu
C. M. Sharif,Bahawalpur,Lahore,(چوہدری محمد شریف)
B. O'Keefe,New South Wales,University of Sydney,Barry Stanley John O’Keefe
A. L. Roaf,"Little Rock, Arkansas",Michigan State University,Andree Yvonne Layton
A. Rashid,Islamabad,Cambridge University,Abdul Rashid
