col0,col1,col2,col3
C. B. Day,United States,1934-12-10,1978-12-15
B. Doo,United States,1930-05-29,2013-11-25
B. Thomas,United States,1860-0-0,1914-0-0
B. N. Maltz,United States,1901-1-1,1993-1-1
B. Sommers,United States,1906-12-01,1985-04-30
B. Hoberman,United States,1922-7-21,2014-5-3
A. M. Ratliff,United States,1924-0-0,2007-0-0
A. Kay,United States,1919-1-22,2014-8-28
A. Haberman,United States,1929-7-27,2011-6-12
A. G. Magness,United States,1920-3-18,1980-12-17
