col0,col1,col2,col3
Blasted,S. Kane,English language,Cate
Black Comedy,P. Shaffer,English language,Brindsley Miller
Biloxi Blues,N. Simon,English language,Arnold Epstein
Bidasari,M. Miguel,Filipino language,Bidasari
Bhopal,R. Varma,Hindi,Devraj Sarthi
Bellerophon,Euripides,Ancient Greek,"Bellerophon,Glaucos, others"
Bedroom Farce,A. Ayckbourn,English language,Delia
Becket,J. Anouilh,French language,Bishop Folliot
Be Like Water,D. Kwong,English language,Bruce Lee
Barricade,U. Dutt,Bengali language,"An engineer, an author, an artist and a journalist"
Arias with a Twist,J. Arias,English language,Joey
Archelaus,Euripides,Ancient Greek,"Archelaos,Cisseus, Others"
Antigone,Sophocles,Ancient Greek,A boy
Antigone,Euripides,Ancient Greek,Antigone
Anne Pedersdotter,H. Wiers-Jenssen,Norwegian language,Absalon Pederssøn
Anna in the Tropics,N. Cruz,English language,Cheché
Anna Lucasta,P. Yordan,English language,Anna
Angels in America: A Gay Fantasia on National Themes,T. Kushner,English language,Angel
Angel City,S. Shepard,English language,Lanx
Andromeda,Euripides,Ancient Greek,Andromeda
Andromache,Euripides,Ancient Greek,Andromache
Andha Yug,D. Bharati,Hindi,Ashwatthama
Anatomy of Gray,J. Leonard,English language,Belva Collins
