col0,col1,col2,col3,col4
A. Exum,Minnesota Vikings,Minnesota Vikings,1991-02-27,182
A. Bethea,Indianapolis Colts,San Francisco 49ers,1984-07-27,207
A. Zettel,Detroit Lions,Detroit Lions,1992-8-9,202
A. Spencer,Dallas Cowboys,Free agent,1984-01-23,26
A. Sherman,Kansas City Chiefs,Kansas City Chiefs,1988-12-11,136
A. Hitchens,Dallas Cowboys,Dallas Cowboys,1992-06-10,119
A. Chickillo,Pittsburgh Steelers,Pittsburgh Steelers,1992-12-10,212
A. Brown,Dallas Cowboys,Dallas Cowboys,1993-12-15,189
A. Barr,Minnesota Vikings,Minnesota Vikings,1992-03-18,9
A. Allen,Baltimore Ravens,BC Lions,1988-08-06,225
A. Boldin,Arizona Cardinals,Detroit Lions,1980-10-03,54
A. Blackson,Tennessee Titans,Tennessee Titans,1992-11-14,100
A. Janovich,Denver Broncos,Denver Broncos,1993-05-23,176
A. Peat,New Orleans Saints,New Orleans Saints,1993-11-04,13
A. Whitworth,Cincinnati Bengals,Cincinnati Bengals,1981-12-12,55
A. Tiller,Green Bay Packers,San Francisco 49ers,1989-03-13,179
A. Quarless,Detroit Lions,Free agent,1988-10-06,154
A. Donnal,Los Angeles Rams,Los Angeles Rams,1992-03-03,119
A. Billings,Cincinnati Bengals,Cincinnati Bengals,1995-03-06,122
A. Williams,New York Giants,San Diego Chargers,1992-08-28,112
A. Smith,Cincinnati Bengals,Minnesota Vikings,1987-01-25,6
A. Roberts,Arizona Cardinals,Detroit Lions,1988-01-09,88
A. Hal,Houston Texans,Houston Texans,1992-05-30,216
A. Ellington,Arizona Cardinals,Arizona Cardinals,1989-2-3,187
A. Branch,Jacksonville Jaguars,Miami Dolphins,1989-07-14,38
A. Abdullah,Detroit Lions,Detroit Lions,1993-06-13,54
A. Herrera,Indianapolis Colts,Free agent,1991-09-20,207
A. Cooper,Oakland Raiders,Oakland Raiders,1994-06-17,4
A. Verner,Tampa Bay Buccaneers,Tampa Bay Buccaneers,1988-12-13,104
A. Jeffery,Chicago Bears,Chicago Bears,1990-02-14,45
A. Robinson,Jacksonville Jaguars,Jacksonville Jaguars,1993-08-24,61
A. Barbre,Philadelphia Eagles,Philadelphia Eagles,1984-06-22,119
A. Bailey,Kansas City Chiefs,Kansas City Chiefs,1989-03-25,86
A. Marpet,Tampa Bay Buccaneers,Tampa Bay Buccaneers,1993-04-17,61
A. Morris,Dallas Cowboys,Dallas Cowboys,1988-12-12,173
A. Blue,Houston Texans,Houston Texans,1991-04-27,181
A. Smith,Kansas City Chiefs,Kansas City Chiefs,1984-05-07,1
A. Okafor,Arizona Cardinals,Arizona Cardinals,1991-02-08,103
A. Lewis,Baltimore Ravens,Baltimore Ravens,1992-04-21,130
A. Collins,Seattle Seahawks,Seattle Seahawks,1994-08-26,171
A. Carter,Detroit Lions,Detroit Lions,1994-10-19,80
A. Barron,New Orleans Saints,Free agent,1982-09-28,19
A. Ogletree,Los Angeles Rams,Los Angeles Rams,1991-09-25,30
A. Robinson,Washington Redskins,Atlanta Falcons,1988-09-24,178
A. Smith,Oakland Raiders,Oakland Raiders,1989-09-25,7
A. Ball,Arizona Cardinals,Free agent,1985-03-29,237
A. Woods,New Orleans Saints,Tennessee Titans,1987-03-25,123
A. Harris,Green Bay Packers,Kansas City Chiefs,1974-12-07,169
A. Hicks,Chicago Bears,Chicago Bears,1989-11-16,89
A. Spence,Tampa Bay Buccaneers,Tampa Bay Buccaneers,1991-11-29,100
A. King,Atlanta Falcons,Atlanta Falcons,1992-08-29,249
A. Dent,Atlanta Falcons,Houston Texans,1987-09-24,91
A. Ayers,Tennessee Titans,Indianapolis Colts,1989-07-10,39
A. Rubin,Cleveland Browns,Seattle Seahawks,1986-07-25,190
A. Black,Tampa Bay Buccaneers,Free agent,1989-12-12,151
