col0,col1,col2,col3,col4
B. Spengler,BMW M,Schiltigheim,1983-08-23,1983-08-23
B. Méndez,Hitech Racing,La Roda,1990-04-16,1990-04-16
B. Junqueira,FAZZT Race Team,Belo Horizonte,1976-11-04,1976-11-04
B. Bonifacio,Draco Racing,São Paulo,1994-11-02,1994-11-02
B. Jouanny,Pescarolo Sport,France,1978-06-11,1978-06-11
B. Force,John Force Racing,"Yorba Linda, California",1986-07-08,1986-07-08
B. Deegan,Chip Ganassi Racing,Nebraska,1975-05-09,1975-05-09
B. Hartley,Porsche,Palmerston North,1989-11-10,1989-11-10
B. Newey,Team Pelfrey,"Indianapolis, Indiana",1992-08-18,1992-08-18
B. Maïsano,BVM Racing,Cannes,1993-06-24,1993-06-24
B. Smith,James Hylton Motorsports,Michigan,1968-10-09,1968-10-09
B. García,RC Motorsport,Valencia,1982-12-15,1982-12-15
B. Gerhart,Bobby Gerhart Racing,"Lebanon, Pennsylvania",1958-07-21,1958-07-21
B. Baguette,Nakajima Racing,Verviers,1986-02-23,1986-02-23
B. Lariche,MotorSport Vision,Narbonne,1987-06-16,1987-06-16
B. Hanley,Fisichella Motor Sport,Manchester,1985-01-22,1985-01-22
B. Barnicoat,Hitech Racing,Chesterfield,1996-12-20,1996-12-20
