col0,col1,col2,col3,col4
Nono-chan,Tokuma Shoten,Asahi Shimbun,1991-10-01,1997-03-31
Nogizaka Haruka no Himitsu,ASCII Media Works,Dengeki Moeoh,2004-10-10,2012-07-10
Nodame Cantabile,Kodansha,Kiss,2001-07-10,2009-10-10
Nobunagun,Earth Star Entertainment,Comic Earth Star,2011-05-12,2015-08-28
No. 6,Kodansha,Aria,2003-10-10,2011-06-14
Nisekoi,Shueisha,Weekly Shōnen Jump,2011-01-08,2013-12-28
Ninku,Shueisha,Weekly Shōnen Jump,1993-06-14,1995-09-04
Nijū Mensō no Musume,Media Factory,Comic Flapper,2007-10-05,2008-09-05
Neuro: Supernatural Detective,Shueisha,Weekly Shōnen Jump,2005-02-21,2009-04-20
Neon Genesis Evangelion,Kadokawa Shoten,Shōnen Ace,1994-12-26,2013-06-04
Negima! Magister Negi Magi,Kodansha,Weekly Shōnen Magazine,2003-02-26,2012-03-14
Natsuiro Kiseki,Square Enix,Young Gangan,2012-01-20,2013-03-15
Natsu no Arashi!,Square Enix,Monthly Gangan Joker,2006-08-25,2010-09-22
Naruto,Shueisha,Weekly Shōnen Jump,1999-09-21,2014-11-10
Nanatsuiro Drops,MediaWorks,Dengeki G's Magazine,2006-06-30,2008-02-27
Nana to Kaoru,Hakusensha,Young Animal,2008-11-28,2014-01-29
Nakaimo - My Sister Is Among Them!,Media Factory,Comic Alive,2010-08-25,2013-03-25
Nagasarete Airantō,Square Enix,Monthly Shōnen Gangan,2004-11-30,2007-03-22
NG Life,Hakusensha,Hana to Yume,2005-12-26,2009-03-05
M×0,Shueisha,Weekly Shōnen Jump,2006-05-01,2008-05-19
Mysterious Girlfriend X,Kodansha,Afternoon,2006-08-23,2014-09-25
Myself ; Yourself,MediaWorks,Dengeki G's Magazine,2007-03-30,2007-11-30
My Wife is Wagatsuma-san,Kodansha,Weekly Shōnen Magazine,2011-09-20,2014-09-24
My Little Monster,Kodansha,Dessert,2008-08-23,2013-06-24
My-HiME Destiny,Hobby Japan,Charano!,2007-02-28,2008-03-29
My-HiME,Akita Shoten,Weekly Shōnen Champion,2004-11-11,2005-07-07
Muv-Luv,Shueisha,Dengeki Daioh,2006-10-25,2009-06-30
Muteki Kanban Musume,Akita Shoten,Weekly Shōnen Champion,2002-05-16,2006-02-23
Mushoku Tensei,Media Factory,Monthly Comic Flapper,2012-11-22,2015-04-03
Mushi-Uta,Kadokawa Shoten,Shōnen Ace,2003-05-01,2007-10-26
Mugen Spiral,Hakusensha,Hana to Yume,2004-01-20,2004-09-04
Moteki,Kodansha,Evening,2008-11-11,2010-04-13
Mobile Suit Gundam Alive,Kodansha,Comic BonBon,2006-10-15,2007-11-15
Mnemosyne,Hobby Japan,Charano!,2008-05-27,2008-07-26
Mixed Vegetables,Shueisha,Margaret,2005-10-25,2007-11-22
Missions of Love,Kodansha,Nakayoshi,2009-06-10,2015-06-03
Missing,MediaWorks,Dengeki hp,2001-07-10,2005-06-10
Mirage of Blaze,Shueisha,Cobalt,1990-11-02,2004-04-27
Miracle Girls,Kodansha,Nakayoshi,1991-07-06,1994-08-06
Minima!,Kodansha,Bessatsu Friend,2006-12-13,2008-02-13
Mikagura School Suite,Media Factory,Monthly Comic Gene,2013-07-13,2016-02-15
Midori Days,Chuang Yi,Weekly Shōnen Sunday,2002-09-25,2004-11-15
Midnight Secretary,Shogakukan,Petit Comic,2006-08-08,2009-05-08
Microsuperman,Akita Shoten,Weekly Shōnen Champion,1973-03-26,1973-09-03
Meteor Prince,Viz Media,LaLa,2013-03-23,2014-02-24
Message to Adolf,Bungeishunjū,Shukan Bunshun,1983-01-06,1985-05-30
Meshibana Deka Tachibana,Tokuma Shoten,Weekly Asahi Geinō,2010-12-30,2015-10-30
Mei-chan no Shitsuji,Shueisha,Margaret,2006-11-21,2013-01-25
Mazinger Z,Akita Shoten,Akita Shoten,1972-10-02,1974-08-13
Mazinger Angels,Kodansha,Magazine Z,2004-06-26,2006-11-25
Mayoi Neko Overrun!,Shueisha,Jump Square,2008-10-24,2010-10-04
Mayo Chiki!,Kadokawa Shoten,Monthly Comic Alive,2009-11-21,2011-10-29
Max Lovely!,Shueisha,Ribon,2001-11-02,2003-11-29
Maria the Virgin Witch,Kodansha,Good! Afternoon,2008-11-07,2013-07-05
Maria Holic,Media Factory,Monthly Comic Alive,2006-06-27,2014-11-27
Maria-sama ga Miteru,Shueisha,Margaret,1998-04-24,2012-04-28
Mardock Scramble,Kodansha,Bessatsu Shōnen Magazine,2009-10-09,2012-05-09
Maoyu,Enterbrain,Comp Ace,2010-12-29,2012-12-22
Manga Dogs,Kodansha,Aria,2010-09-01,2013-12-28
Mamotte Shugogetten,Square Enix,Gangan Comics,1997-02-22,2000-04-22
Mamotte! Lollipop,Kodansha,Nakayoshi,2002-10-03,2007-12-28
Maison Ikkoku,Shogakukan,Big Comic Spirits,1980-10-14,1987-04-06
Magico,Shueisha,Weekly Shōnen Jump,2011-02-28,2012-07-02
Magician's Academy,Enterbrain,Magi-Cu,2003-01-24,2007-08-30
Magical Girl Raising Project,Kadokawa Shoten,Comp Ace,2012-06-08,2015-10-26
Macross The Ride,ASCII Media Works,Dengeki Hobby Magazine,2010-12-24,2011-11-24
Macross Frontier,Kodansha,Shōnen Ace,2007-12-26,2008-05-26
Machi de Uwasa no Tengu no Ko,Shogakukan,Flowers,2007-12-21,2014-01-10
Maburaho,Kadokawa Shoten,Dragon Magazine,2003-04-09,2004-09-09
MM!,Media Factory,Monthly Comic Alive,2007-02-23,2010-09-24
M×0,Shueisha,Weekly Shōnen Jump,2006-05-01,2008-05-19
Lychee Light Club,Ohta Publishing,Manga Erotics F,2005-05-07,2006-05-03
Lupin the Third,Chuokoron-Shinsha,Weekly Manga Action,1967-08-10,1969-05-22
Lupin III,Chuokoron-Shinsha,Weekly Manga Action,1967-08-10,1969-05-22
Lucky Star,Viz Media,Shōnen Ace,2003-12-10,2008-10-01
Lovely Idol,Enterbrain,Magi-Cu,2001-04-27,2004-02-27
Love So Life,Hakusensha,Hana to Yume,2008-04-14,2015-09-18
Love Hina,Kodansha,Weekly Shōnen Magazine,1998-10-21,2001-10-31
Love Attack!,Kodansha,Bessatsu Friend,2005-02-12,2009-07-12
Lotte no Omocha!,ASCII Media Works,Dengeki Maoh,2007-06-27,2013-12-27
Lost+Brain,Shogakukan,Weekly Shōnen Sunday,2008-05-16,2008-08-11
Living for the Day After Tomorrow,Mag Garden,Comic Blade Masamune,2005-03-03,2007-06-15
Little Fluffy Gigolo Pelu,Enterbrain,Comic Beam,2003-03-24,2005-01-31
Lion Books,Shueisha,Weekly Shōnen Jump,1971-03-22,1973-02-19
Linebarrels of Iron,Akita Shoten,Champion Red,2004-12-19,2015-04-18
Limit,Kodansha,Bessatsu Friend,2009-10-13,2011-09-13
Lillia and Treize,MediaWorks,Comic Sylph,2005-03-10,2007-04-10
Library War,MediaWorks,Dengeki Daioh,2007-09-24,2008-08-09
Level E,Shueisha,Weekly Shōnen Jump,1995-10-02,1997-10-15
Legends of the Dark King,Shinchosha,Weekly Comic Bunch,2006-03-24,2007-08-24
Legend of the Galactic Heroes,Tokuma Shoten,Chara,1982-11-30,1987-11-15
Laughing Under the Clouds,Mag Garden,Monthly Comic Avarus,2011-03-15,2014-07-27
Last Game,Hakusensha,LaLa,2011-08-24,2016-06-24
Lagrange: The Flower of Rin-ne,Square Enix,Gangan Comics,2011-09-02,2013-02-25
Ladies versus Butlers!,ASCII Media Works,Dengeki Moeoh,2006-09-10,2012-03-10
