col0,col1,col2,col3
J. Hassett,"Providence, Rhode Island",Providence Friars men's basketball,Seattle SuperSonics
J. Harris,"Chelan, Washington",Virginia Cavaliers men's basketball,Cleveland Cavaliers
J. Hamilton,"Lexington, Kentucky",North Texas Mean Green men's basketball,Milwaukee Bucks
J. Ellis,"Oakland, California",San Francisco Dons men's basketball,San Francisco Warriors
J. Dumars,"Shreveport, Louisiana",McNeese State Cowboys basketball,Detroit Pistons
J. Crawford,Detroit,Kentucky Wildcats men's basketball,Los Angeles Lakers
J. Cooper,Houston,Tulsa Golden Hurricane men's basketball,New Jersey Nets
J. Cooke,"Toledo, Ohio",Indiana Hoosiers men's basketball,Cleveland Cavaliers
J. Caldwell,"Texas City, Texas",Arizona State Sun Devils men's basketball,Detroit Pistons
J. Buckhalter,Chicago,Tennessee State Tigers men's basketball,St. Louis Hawks
J. Bryant,Philadelphia,La Salle Explorers men's basketball,Golden State Warriors
J. Binion,"Rochester, New York",North Carolina A&T Aggies men's basketball,San Antonio Spurs
J. B. Carroll,"Pine Bluff, Arkansas",Purdue Boilermakers men's basketball,Golden State Warriors
J. Arlauckas,"Rochester, New York",Niagara Purple Eagles men's basketball,Sacramento Kings
J. Alexander,Kaohsiung,West Virginia Mountaineers men's basketball,Milwaukee Bucks
J. Meeks,"Nashville, Tennessee",Kentucky Wildcats men's basketball,Milwaukee Bucks
J. Penn,"Tucker, Georgia",South Carolina Gamecocks women's basketball,Charlotte Sting
J. Wright,"Savannah, Georgia",Indiana Hoosiers men's basketball,Seattle SuperSonics
J. Noah,New York City,Florida Gators men's basketball,Chicago Bulls
J. J. White,"St. Louis, Missouri",Kansas Jayhawks men's basketball,Boston Celtics
J. Walker,"Amherst, Virginia",Providence Friars men's basketball,Detroit Pistons
J. Smith,"Pittsburgh, Pennsylvania",Franciscan Barons,Boston Celtics
J. Rayl,"Kokomo, Indiana",Indiana Hoosiers men's basketball,Cincinnati Royals
J. Oliver,"Menifee, Arkansas",Purdue Boilermakers men's basketball,Cleveland Cavaliers
J. King,"South Bend, Indiana",Michigan Wolverines men's basketball,Toronto Raptors
J. Jones,"Tallulah, Louisiana",Grambling State Tigers men's basketball,Baltimore Bullets
J. Foster,"Jersey City, New Jersey",Connecticut Huskies men's basketball,Cleveland Cavaliers
J. Darrow,"Akron, Ohio",Bowling Green Falcons men's basketball,St. Louis Hawks
J. Darden,"Cheyenne, Wyoming",Wyoming Cowboys basketball,Chicago Stags
J. Butler,Houston,Tyler Junior College,Chicago Bulls
J. Black,"Bronx, New York",North Carolina Tar Heels men's basketball,New Jersey Nets
J. Baker,Pennsylvania,UNLV Runnin' Rebels basketball,Philadelphia 76ers
J. Fredette,"Glens Falls, New York",BYU Cougars men's basketball,Milwaukee Bucks
J. Washington,Philadelphia,Villanova Wildcats men's basketball,St. Louis Hawks
J. Ware,"Natchez, Mississippi",Oklahoma City Stars men's basketball,Cincinnati Royals
J. Walsh,San Francisco,Stanford Cardinal men's basketball,Baltimore Bullets
J. Tucker,"Paris, Kentucky",Duquesne Dukes men's basketball,Syracuse Nationals
J. Thomas,"Lakeland, Florida",Indiana Hoosiers men's basketball,Indiana Pacers
J. Spanarkel,"Jersey City, New Jersey",Duke Blue Devils men's basketball,Philadelphia 76ers
J. Smith,Cleveland,Ohio State Buckeyes men's basketball,San Diego Clippers
J. Slaughter,"Roanoke, Virginia",South Carolina Gamecocks men's basketball,Tri-Cities Blackhawks
J. Rowinski,Long Island,Purdue Boilermakers men's basketball,Utah Jazz
J. Riffey,"Washington, Indiana",Tulane Green Wave men's basketball,Fort Wayne Pistons
J. Ray,"Toledo, Ohio",Toledo Rockets men's basketball,Syracuse Nationals
J. Price,"Russellville, Kentucky",Louisville Cardinals men's basketball,Los Angeles Lakers
J. Pollard,"Oakland, California",Stanford Cardinal men's basketball,Chicago Stags
J. Phelan,Philadelphia,La Salle Explorers men's basketball,Philadelphia Warriors
J. Petersen,Minneapolis,Minnesota Golden Gophers men's basketball,Houston Rockets
J. P. Sr.,"Springfield, Ohio",Dayton Flyers men's basketball,Minneapolis Lakers
J. Paxson,"Kettering, Ohio",Dayton Flyers men's basketball,Portland Trail Blazers
J. Palmer,"Keokee, Virginia",Dayton Flyers men's basketball,St. Louis Hawks
J. Owens,Los Angeles,Arizona State Sun Devils men's basketball,Phoenix Suns
J. O'Brien,"Falls Church, Virginia",Maryland Terrapins men's basketball,Cleveland Cavaliers
J. Nolan,"Macon, Georgia",Georgia Tech Yellow Jackets men's basketball,Philadelphia Warriors
J. Neal,"Silverstreet, South Carolina",Wofford Terriers men's basketball,Syracuse Nationals
J. McMillian,"Raeford, North Carolina",Columbia Lions men's basketball,Los Angeles Lakers
J. McIlvaine,"Racine, Wisconsin",Marquette Golden Eagles men's basketball,Washington Bullets
J. McElroy,"Cotton Plant, Arkansas",Monroe County Community College,New Orleans Jazz
J. McDaniels,"Scottsville, Kentucky",WKU Hilltoppers basketball,Seattle SuperSonics
J. Marsh,"Pasadena, California",USC Trojans men's basketball,Seattle SuperSonics
J. Loscutoff,California,Oregon Ducks men's basketball,Boston Celtics
J. Line,"Port Royal, Pennsylvania",Kentucky Wildcats men's basketball,Indianapolis Olympians
J. Les,"Niles, Illinois",Cleveland State Vikings men's basketball,Atlanta Hawks
