col0,col1,col2,col3,col4
Dear Boys,Kodansha,Monthly Shōnen Magazine,1989-12-16,1997-03-17
Dead End,Kodansha,Afternoon,2001-08-23,2002-11-22
Day Break Illusion,Kadokawa Shoten,Gangan Comics,2013-06-10,2013-10-10
Dawn of the Arcana,Viz Media,Cheese!,2003-01-24,2013-06-24
Date A Live,Fujimi Shobo,Dragon Magazine,2011-03-19,2013-12-09
Darker than Black,Kadokawa Shoten,Young Gangan,2007-02-24,2007-11-24
Danganronpa 2: Goodbye Despair,Enterbrain,Monthly Comic Blade,2012-10-30,2013-04-15
Danganronpa: Trigger Happy Havoc,Enterbrain,Shonen Ace,2011-06-24,2011-10-13
Dance in the Vampire Bund,Media Factory,Monthly Comic Flapper,2005-12-05,2012-09-05
Dame Oyaji,Shogakukan,Weekly Shōnen Sunday,1970-09-23,1982-07-28
Da Capo II,Kadokawa Shoten,Dengeki G's Magazine,2006-05-12,2007-06-25
Da Capo,Kadokawa Shoten,Comptiq,2003-02-10,2004-04-10
D.N.Angel,Kadokawa Shoten,Monthly Asuka,2003-08-01,2003-10-01
D.Gray-man,Shueisha,Jump Square,2004-05-31,2010-12-03
Dōse Mō Nigerarenai,Shogakukan,Petit Comic,2011-07-08,2015-09-10
Dōjin Work,Houbunsha,Manga Time Kirara,2004-11-28,2008-02-09
Cutie Honey Flash,Shogakukan,Ciao,1997-05-26,1998-04-23
Cutie Honey,Fusosha,TV Land,1973-10-01,1974-04-01
Cute High Earth Defense Club Love!,Pony Canyon,Pony Canyon,2014-10-16,2015-06-25
Cross Manage,Shueisha,Weekly Shōnen Jump,2012-09-17,2013-07-22
Cross Days,Kadokawa Shoten,Comp Ace,2010-04-26,2010-05-26
Cromartie High School,Kodansha,Weekly Shōnen Magazine,2001-02-16,2006-05-24
Cowboy Bebop,Kadokawa Shoten,Monthly Asuka Fantasy DX,1997-09-18,1998-06-18
Confidential Confessions,Kodansha,Dessert,2003-07-11,2003-11-22
Complex Age,Kodansha,Weekly Morning,2014-05-22,2015-06-04
Compiler,Kodansha,Afternoon,1991-04-23,1993-02-23
Code:Breaker,Kodansha,Weekly Shōnen Magazine,2008-06-09,2013-08-11
Cobra,Shueisha,Weekly Shōnen Jump,1978-11-06,1984-11-12
Clear,Kadokawa Shoten,Comp Ace,2007-06-26,2008-05-26
Clannad,Jive,Dengeki G's Magazine,2007-06-21,2008-08-20
Cipher,Hakusensha,LaLa,1984-12-24,1990-10-24
Chu-Bra!!,Futabasha,Comic High!,2007-01-22,2011-04-22
Chronicles of the Going Home Club,Square Enix,Gangan Online,2011-08-18,2014-06-26
Chrome Shelled Regios,Kadokawa Shoten,Monthly Dragon Age,2006-03-18,2008-09-20
Chocolate Cosmos,Shueisha,Ribon,2007-08-03,2008-10-03
Chihayafuru,Kodansha,Be Love,2007-12-28,2013-12-13
Chibisan Date,Gentosha,Comic Birz,2009-02-28,2013-04-26
Chibi Vampire,Kadokawa Shoten,Monthly Dragon Age,2003-12-10,2007-05-10
Chi's Sweet Home,Kodansha,Weekly Morning,2004-11-22,2015-06-23
Chain of Pearls,Shogakukan,Shōjo Comic,2002-07-26,2002-09-26
Chaika - The Coffin Princess,Kadokawa Shoten,Shōnen Ace,2010-12-18,2014-12-11
Cat's Eye,Shueisha,Weekly Shōnen Jump,2010-10-25,2014-01-25
Captain Tsubasa,Shueisha,Grand Jump,1981-04-13,1988-05-09
Captain Ken,Shogakukan,Weekly Shōnen Sunday,1960-12-18,1961-08-20
Canvas 2: Niji Iro no Sketch,Kadokawa Shoten,Monthly Shōnen Ace,2004-07-30,2006-03-25
Cage of Eden,Kodansha,Weekly Shōnen Magazine,2008-11-26,2013-01-23
Cactus's Secret,Shueisha,Ribon,2003-12-29,2005-04-30
C3,ASCII Media Works,Dengeki Daioh,2007-09-10,2013-01-26
"Butterflies, Flowers",Shogakukan,Petit Comic,2006-02-24,2009-03-10
Buso Renkin,Shueisha,Weekly Shōnen Jump,2003-06-23,2005-04-25
Brothers Conflict,ASCII Media Works,Sylph,2010-12-22,2012-07-21
Brave Story,Kadokawa Shoten,Weekly Comic Bunch,1999-11-11,2001-02-13
Brave Dan,Shogakukan,Weekly Shōnen Sunday,1962-07-15,1962-12-23
Boys on the Run,Shogakukan,Big Comic Spirits,2005-11-30,2008-06-30
Bow Wow Wata,Ichijinsha,Weekly Comic Bunch,2001-11-09,2004-05-27
Bow Wow,Shogakukan,Big Comic Superior,1992-07-15,1999-12-01
Book Girl,Kadokawa Shoten,Monthly Asuka,2006-04-28,2011-04-30
Bomberman B-Daman Bakugaiden,Shogakukan,CoroCoro Comic,1997-04-01,1999-02-24
Bokurano: Ours,Shogakukan,Ikki,2003-11-25,2008-06-18
Boku wa Imōto ni Koi o Suru,Shogakukan,Shōjo Comic,2003-05-26,2005-08-26
Bogle,Akita Shoten,Princess,2002-02-06,2003-04-05
Bodacious Space Pirates,Asahi Shimbun,Monthly Comic Alive,2012-06-02,2012-12-03
Bobobo-bo Bo-bobo,Shueisha,Weekly Shōnen Jump,2005-12-19,2005-11-14
Blue Submarine No. 6,Shogakukan,Weekly Shōnen Sunday,1967-01-08,1967-11-05
Blue Spring Ride,Shueisha,Bessatsu Margaret,2011-01-13,2015-02-13
Blue Drop,Akita Shoten,Dengeki Comic Gao!,2004-06-27,2005-12-27
Bleach,Shueisha,Weekly Shōnen Jump,2001-08-20,2016-08-22
Blazer Drive,Kodansha,Monthly Shōnen Rival,2008-04-04,2010-12-29
Blank Slate,Hakusensha,Bessatsu Hana to Yume,2005-09-16,2006-06-19
Blade of the Immortal,Kodansha,Afternoon,1993-06-25,2012-12-25
"Black Sun, Silver Moon",Shinshokan,Wings,2001-07-26,2006-02-25
Black Lagoon,Shogakukan,Monthly Sunday Gene-X,2002-04-19,2014-01-19
Black Jack,Akita Shoten,Weekly Shōnen Champion,1973-11-19,1983-10-14
Black Cat,Shueisha,Weekly Shōnen Jump,2000-07-10,2004-06-14
Black Bullet,ASCII Media Works,Dengeki Maoh,2011-07-10,2014-06-27
Black Bird,Shogakukan,Betsucomi,2007-01-26,2013-03-26
Billy Bat,Kodansha,Weekly Morning,2008-10-16,2016-08-18
Berry Dynamite,Shueisha,Bessatsu Margaret,2009-05-13,2010-03-15
