col0,col1,col2,col3
Villa Aroma Airport,Sica Sica,SLVA,3820
Villa Angela Airport,Villa Angela,SARV,21
Vilhena Airport,Vilhena,SBVH,615
Vilcún La Malla Airport,Vilcún,SCVY,249
Vilcún Agromanzun Airport,Vilcún,SCVU,224
Vilcashuamán Airport,Vilcashuamán,SPVN,3646
Vilcún La Malla Airport,Vilcún,SCVY,249
Vilcún Agromanzun Airport,Vilcún,SCVU,224
Vilankulo Airport,Vilankulo,(Location of airport in Mozambique),12
Vijayawada Airport,Vijayawada,VOBZ,24
Vigo–Peinador Airport,Spain,LEVX,260
Vienna International Airport,Austria,LOWW,182
Vidsel Air Base,Vidsel Test Range,ESPE,181
Videira Airport,Videira,SSVI,840
Vidalia Regional Airport,"Vidalia, Georgia",KVDI,83
Vicuña Huancara Airport,"Vicuña, Chile",SCVN,599
Vicuña Airport,"Vicuña, Chile",SCVC,3649
Vicuña Huancara Airport,"Vicuña, Chile",SCVN,599
Vicuña Airport,"Vicuña, Chile",SCVC,3649
Victoria Regional Airport,"Victoria, Texas",KVCT,35
Victoria María Ester Airport,"Victoria, Chile",SCVO,298
Victoria International Airport,"Victoria, British Columbia",CYYJ,19
Victoria Inner Harbour Airport,"Victoria, British Columbia",CYWH,0
Victoria Falls Airport,"Victoria Falls, Zimbabwe",FVFA,1063
Vichy — Charmeil Airport,France,LFLV,249
Vichuquén El Alamo Airport,Vichuquén,SCVK,10
Vichuquén Cuatro Pantanos Airport,Vichuquén,SCVQ,24
Vichuquén Airport,Vichuquén,SCDM,67
Vichuquén El Alamo Airport,Vichuquén,SCVK,10
Vichuquén Cuatro Pantanos Airport,Vichuquén,SCVQ,24
Vichuquén Airport,Vichuquén,SCDM,67
Vichadero Airport,Vichadero,SUVO,148
Vicenza Airport,Vicenza,LIPT,39
Vicecomodoro Ángel de la Paz Aragonés Airport,Argentina,(Location of airport in Argentina),199
Vicco Airport,Vicco District,SPVI,4102
Viñamar Airport,"Casablanca, Chile",SCVA,284
Veurne/Sint-Augustinus Heliport,Veurne,EBVS,3
Vestmannaeyjar Airport,Iceland,(Location of Airport in Iceland),99
Vesthimmerland Airfield,Vesthimmerland Municipality,EKVH,36
Verviers-Theux Airfield,Theux,EBTX,334
Verona Villafranca Airport,Verona,(Location of the airport in Italy),73
Vero Beach Municipal Airport,"Vero Beach, Florida",KVRB,7
Vernal Regional Airport,"Vernal, Utah",KVEL,1608
Vermilion Regional Airport,"Danville, Illinois",KDNV,212
Ventanas Radioayuda Airport,Isla de Maipo,SCVT,324
Venice Municipal Airport,"Venice, Florida",KVNC,5
Venice Marco Polo Airport,Italy,(Location of the airport in Italy),2
Venice-Lido Airport,Italy,LIPV,3
Venetie Airport,"Venetie, Alaska",PAVE,174
Venango Regional Airport,"Franklin, Pennsylvania",KFKL,469
Vellore Airport,Vellore,VOVR,232
Veer Savarkar International Airport,India,VOPB,4
Varna Airport,Bulgaria,LBWN,70
Varkaus Airport,Varkaus,EFVR,87
Varginha Airport,Varginha,SBVG,922
"Vardø Airport, Svartnes",Norway,ENSS,12
Vanua Lava Airport,Vanuatu,NVSC,2
Vanga Airport,"Vanga, Bandundu",FZCD,399
Vancouver International Airport,Metro Vancouver,CYVR,3
Vancouver Harbour Flight Centre,British Columbia,CYHC,0
Vance Brand Airport,"Longmont, Colorado",KLMO,1540
Van Nuys Airport,California,KVNY,244
Van Ferit Melen Airport,"Van, Turkey",(Location of airport in Turkey),1670
Valley International Airport,"Harlingen, Texas",KHRL,10
Vallenar Airport,Vallenar,SCLL,525
Valle del Conlara Airport,Santa Rosa de Conlara,SAOS,616
Valle de la Pascua Airport,Venezuela,(Location of airport in Venezuela),124
Valjevo Airport,Serbia,LYVA,142
Valesdir Airport,Vanuatu,NVSV,3
Valença Airport,"Valença, Bahia",SNVB,6
Valencia Airport,Spain,LEVC,73
Valence-Chabeuil Airport,France,LFLU,160
Valença Airport,"Valença, Bahia",SNVB,6
Valdosta Regional Airport,"Valdosta, Georgia",KVLD,61
Valdez Airport,"Valdez, Alaska",PAVD,36
Val de Cans International Airport,Belém,SBBE,17
Vahitahi Airport,Tuamotu,NTUV,3
Vadsø Airport,Vadsø,ENVD,38
Víctor Lafón Airport,"San Felipe, Chile",SCSF,657
Værøy Heliport,Værøy,ENVR,4
Værøy Airport,Norway,ENVY,10
Växjö Småland Airport,Växjö,ESMX,185
Václav Havel Airport Prague,Czech Republic,LKPR,380
Uzhhorod International Airport,Ukraine,(Location of airport in Ukraine),116
Uyuni Airport,Bolivia,SLUY,3954
Uytash Airport,Makhachkala,URML,3
Uummannaq Heliport,Greenland,BGUM,15
Utkela Airstrip,Bhawanipatna,VEUK,208
Utarom Airport,Dutch East Indies,(Location of the airport in Indonesia),5
Ust-Tsilma Airport,Ust-Tsilma,UUYX,79
Ust-Kuyga Airport,Russia,UEBT,82
Ust-Kut Airport,Ust-Kut,UITT,666
Uspallata Airport,Uspallata,SAMU,1844
Usinsk Airport,Usinsk,(Location of airport in Komi Republic),79
Usiminas Airport,Ipatinga,SBIP,238
Ushuaia Aeroclub,Ushuaia,SAWO,6
Ushant Airport,Ushant,(Location of airport in Brittany),43
Urmia Airport,Iran,(Location of airport in Iran),1323
Urgench International Airport,Urgench,(Location of air base in Uzbekistan),97
Uray Airport,Uray,(Location of airport in Khanty-Mansi Autonomous Okrug),57
Upper Cumberland Regional Airport,"Cookeville, Tennessee",KSRB,312
Upolu Airport,"Hawi, Hawaii",PHUP,29
Upernavik Kujalleq Heliport,Greenland,BGKL,28
Upernavik Airport,Greenland,BGUK,126
Upala Airport,Upala,MRUP,56
União da Vitória Airport,União da Vitória,SSUV,751
University of Oklahoma Westheimer Airport,"Norman, Oklahoma",KOUN,360
University of Illinois Willard Airport,"Champaign-Urbana, Illinois",KCMI,229
University Park Airport,"State College, Pennsylvania",KUNV,377
University Airpark,"Bath, Michigan",K41G,260
University-Oxford Airport,"Oxford, Mississippi",KUOX,137
Union Island Airport,Union Island,TVSU,4
Union Glacier Blue-Ice Runway,Union Glacier Camp,SCGC,750
Union County Airport,"Marysville, Ohio",KMRT,311
União da Vitória Airport,União da Vitória,SSUV,751
Unalaska Airport,"Unalaska, Alaska",PADU,6
Unalakleet Airport,"Unalakleet, Alaska",PAUN,6
Una-Comandatuba Airport,"Una, Bahia",SBTC,6
Umuarama Airport,Umuarama,SSUM,474
Umiat Airport,"Umiat, Alaska",PAUM,81
Umeå Airport,Sweden,ESNU,7
Umberto Modiano Airport,Armação dos Búzios,SBBZ,3
Ulyanovsk Baratayevka Airport,Russia,UWLL,141
Ukkusissat Heliport,Greenland,BGUT,67
Ukhta Airport,Ukhta,UUYH,146
Uiju Airfield,North Korea,ZKUJ,9
Ugolny Airport,Anadyr,UHMA,59
Ufa International Airport,Bashkortostan,UWUU,137
Udhayliyah Airport,Udhailiyah,OEUD,231
Uchiza Airport,Uchiza District,SPIZ,598
Ubombo Ranches Airfield,"Big Bend, Swaziland",FDUB,141
Uberlândia Airport,Uberlândia,SBUL,943
Uberaba Airport,Uberaba,SBUR,809
Ubay Airport,"Ubay, Bohol",RPSN,2
Ubari Airport,Ubari,HLUB,465
Ua Pou Airport,Ua Pou,NTMP,4
Ua Huka Airport,Ua Huka,NTMU,48
U-Tapao International Airport,Rayong,VTBU,12
"Tønsberg Airport, Jarlsberg",Tønsberg,ENJB,9
Tôlanaro Airport,Tôlanaro,(Location of Airport in Madagascar),6
Târgu Mureș International Airport,Târgu Mureș,(Location of airport in Romania),293
Tyler Pounds Regional Airport,"Tyler, Texas",KTYR,165
Twin Bridges Airport,"Ketchum, Idaho",none,2100
Twentynine Palms Airport,"Twentynine Palms, California",KTNP,575
Tweed New Haven Airport,"New Haven, Connecticut",KHVN,3
Tuzla Jegen Lug Airport,Tuzla,LQJL,264
Tuzla International Airport,Bosnia and Herzegovina,(Location of the airport in Bosnia and Herzegovina),233
Tuticorin Airport,Thoothukudi,VOTK,39
Tuscola Area Airport,"Caro, Michigan",KCFS,213
Tuscaloosa Regional Airport,"Tuscaloosa, Alabama",KTCL,51
Turukhansk Airport,Turukhansk,(Location of airport in Krasnoyarsk Krai),39
Turku Airport,Finland,EFTU,49
Turkmenbashi International Airport,"Türkmenbaşy, Turkmenistan",UTAK,86
Turin Airport,Italy,LIMF,301
Tureia Airport,Tureia,NTGY,3
Turaif Domestic Airport,Turaif,OETR,854
Tupiza Airport,Tupiza,SLTZ,3444
Tupelo Regional Airport,"Tupelo, Mississippi",KTUP,105
Tunta Airport,Kabinda,FZWT,843
Tunoshna Airport,Yaroslavl,UUDL,86
