col0,col1,col2,col3,col4
Vincenzo Florio Airport Trapani–Birgi,TPS,2694,13R/31L,Bitumen
Vincent Fayks Airport,OEM,650,11/29,grass
Vilyuysk Airport,VYI,1600,12/30,Concrete
Vilo Acuña Airport,CYO,3000,12/30,Asphalt
Vilnius Airport,VNO,2514,02/20,Asphalt/Concrete
Villefranche – Tarare Airport,XVF,1039,18L/36R,Asphalt
Albenga Airport,ALL,1428,09/27,Asphalt
Villamor Air Base,MNL,2257,06/24,Concrete
Villafranca Air Base,VRN,3067,04/22,Bituminousconglomerate
Villa Reynolds Airport,VME,2360,06/24,Asphalt
Villa International Airport,VAM,1799,09/27,Asphalt
Villa Gesell Airport,VLG,1819,11/29,Asphalt
Villa Garzón Airport,VGZ,1316,16/34,Asphalt
Villa Dolores Airport,VDR,951,02/20,Asphalt
Villa Constitución Airport,VIB,1053,13/31,Soil
Vilhena Airport,BVH,2599,02/20,Asphalt
Vilhelmina Airport,VHM,1502,10/28,Asphalt
Vilankulo Airport,VNX,734,10/28,Asphalt
Vila Real Airport,VRL,946,02/20,Concrete/Asphalt
Vijayawada Airport,VGA,2286,08/26,Asphalt
Vigo–Peinador Airport,VGO,2399,02/20,Asphalt
Vienna International Airport,VIE,3500,11/29,Asphalt
Vidin Airfield,VID,2099,09/27,Concrete
Videira Airport,VIA,1459,09/27,Asphalt
Vidalia Regional Airport,VDI,1524,13/31,Concrete
Victoria Regional Airport,VCT,1280,12L/30R,Asphalt
Victoria International Airport,YYJ,1524,03/21,Asphalt
Victoria Falls Airport,VFA,4000,12/30,Asphalt
Victoria Airport,ZIC,1060,01/19,Asphalt
Vichy — Charmeil Airport,VHY,2200,01/19,Asphalt
Vicenza Airport,VIC,1499,18/36,Asphalt
Vicecomodoro Ángel de la Paz Aragonés Airport,SDE,2498,03/21,Asphalt
Viñamar Airport,VAP,646,01/19,Dirt
Viña del Mar Airport,KNA,1755,05/23,Asphalt
Vestmannaeyjar Airport,VEY,1160,04/22,Asphalt
Verona Villafranca Airport,VRN,3067,04/22,Bituminous
Vero Beach Municipal Airport,VRB,1068,12L/30R,Asphalt
Vernon Regional Airport,YVE,1071,05/23,Asphalt
Vernal Regional Airport,VEL,1252,16/34,Asphalt
Vermilion Regional Airport,DNV,1218,16/34,Asphalt
Vermilion Airport,YVG,1029,10/28,Asphalt
Verkhnevilyuysk Airport,VHV,1400,04/22,Asphalt
Venustiano Carranza International Airport,LOV,1457,06L/24R,Asphalt
Ventspils International Airport,VNT,1298,03/21,Asphalt
Venice Municipal Airport,VNC,1524,13/31,Asphalt
Venice Marco Polo Airport,VCE,2780,04L/22R,Asphalt
Venetie Airport,VEE,1219,4/22,Gravel
Venango Regional Airport,FKL,1094,12/30,Asphalt
Veliky Ustyug Airport,VUS,1279,02/20,Concrete
Velikiye Luki Airport,VLU,1421,15/33,Asphalt
Veer Savarkar International Airport,IXZ,3290,04/22,Asphalt
Vavaʻu International Airport,VAV,1704,08/26,Bitumen
