col0,col1,col2,col3,col4
Kent State University,B. Warren,Blue and Gold,109100000,30167
Kansas State University,R. Myers,Royal purple,488900000,23779
John Jay College of Criminal Justice,J. Travis,navyand light blue,6736765,15045
John Carroll University,R. L. Niehoff,BlueandGold,181000000,3709
James Madison University,J. R. Alger,Purple and gold,81900000,20858
Islamic Azad University,D. o. Philosophy,Dark and light Blue,140955000,1702231
Iowa State University,S. Leath,Cardinal & Gold,786200000,36660
Indiana University Bloomington,M. McRobbie,"Crimson,Cream",1974000000,42588
Indiana University,M. McRobbie,Cream and Crimson,1735000000,110436
Idaho State University,A. C. Vailas,"Black, orange",49000000,13569
Humboldt State University,L. Rossbacher,Greenandgold,28000000,8790
Howard University,W. A. Frederick,"Blue, White and Red",659600000,10300
Holy Cross College,Congregation of Holy Cross,Maroon & Silver,3300000,529
Hofstra University,S. Rabinowitz,"Blue, white, and gold",411700000,10870
High Point University,N. Qubein,Purple and white,42000000,4500
Hendrix College,W. M. Tsutsui,Hendrix Orange and Black,200000000,1348
Harvard University,D. G. Faust,Crimson,37600000000,21000
Hampton University,W. R. Harvey,Reflex Blue & White,263200000,5000
Gustavus Adolphus College,R. M. Bergman,BlackandGold,144000000,2450
Guilford College,J. Fernandes,Crimson and Gray,70700000,2137
Grove City College,P. McNulty,Crimson and White,111600000,2500
Grinnell College,R. S. Kington,Scarlet and Black,1788000000,1705
Grand Valley State University,T. J. Haas,"Laker Blue, Black, White",104,25460
Grambling State University,R. Gallot,Black & Gold,4500000,4863
Graceland University,J. Sellars,Blue & Gold,37200000,2222
Goshen College,D. J. Brenneman,Purple and White,117507000,839
Gordon State College,M. Burns,"Navy blue,white,yellow",9500000,5000
Gordon College,D. M. Lindsay,Navy blueandwhite,35900000,2109
Gonzaga University,T. McCulloh,"Blue, Red",185600000,7352
Georgia Institute of Technology,"G. P. ""Bud"" Peterson",White and GT gold,1859000000,25017
Georgetown University,J. J. DeGioia,Union Blue and Confederate Gray,1529000000,17849
George Washington University,S. Knapp,Buff and Blue,1616000000,26212
George Mason University,Á. Cabrera,Green and Gold,70200000,33917
Franciscan University of Steubenville,Third Order of Saint Francis,Forest Green & Vegas Gold,55126000,2716
Francis Marion University,L. F. Carter,"█ ██  Red, White & Blue",25000000,4187
Framingham State University,F. J. Cevallos,BlackandGold,32763694,6429
Fort Hays State University,M. Martin,Black & Gold,70950000,14210
Fordham University,Times Higher Education World University Rankings,Maroon and white,665500000,15286
Florida State University,J. E. Thrasher,GarnetandGold,624000000,41773
Florida Southern College,A. B. Kerr,ScarletandWhite,55000000,2500
Florida International University,M. B. Rosenberg,Blue and Gold,177000000,54099
Florida Gulf Coast University,W. G. Bradshaw,Cobalt BlueandEmerald Green,77000000,14492
Fairfield University,Jeffrey P. von Arx,Cardinal and White,317000000,4991
Erskine College,P. Kooistra,MaroonandGold,40520000,575
Emporia State University,A. Garrett,Black and Gold,79990000,6094
Emory University,C. E. Sterk,Blue,6684000000,14513
Edward Waters College,"Nathaniel ""Nat"" Glover, Jr.","Purple,OrangeandWhite",1800000,800
Eastern Washington University,M. Cullinan,Red and White,52177934,13453
Eastern Kentucky University,M. T. Benson,Maroon and White,54100000,16959
Duquesne University,K. Gormley,Red and Blue,260600000,10363
Duke University,R. H. Brodhead,"Duke blue, white",7297000000,14950
Drexel University,J. A. Fry,Blue and Gold,668400000,26359
Drew University,M. Baenninger,Blue and green,217082000,2113
Dillard University,W. M. Kimbrough,Royal BlueandWhite,58000000,1250
Dartmouth College,P. J. Hanlon,Dartmouth Green,4700000000,6350
Daemen College,G. A. Olson,Blue and White,17000000,3005
Cornerstone University,"Joseph M. Stowell, III",Royal BlueandGold,6400000,3000
Cornell University,Hunter R. Rawlings III,"Carnelian, white, black",6030000000,21904
Columbia University,L. Bollinger,Columbia blueand white,9639000000,2014
Colorado State University,A. A. Frank,Green and Gold,284400000,33198
College of the Holy Cross,P. Boroughs,Royal purple,721300000,2787
College of William & Mary,W. Taylor Reveley III,"W&M Green, W&M Gold, Spirit Gold & W&M Silver",811200000,8437
Cleveland State University,R. M. Berkman,Forest Green and White,66200000,17730
Clemson University,J. P. Clements,Clemson Orange and Regalia,648600000,22698
Clarkson University,A. G. Collins,GreenandGold,186140000,4300
Clark University,D. Angel,Scarlet and White,404900000,3395
Clark College,R. K. Knight,Blue White,47300000,14000
"City, University of London",P. Curran,Red and White,8,17499
Chaminade University of Honolulu,S. o. Mary,"Blue, White, Silver",9300000,2836
Central College,M. Putnam,RedandWhite,63100000,1650
Catholic University of America,J. H. Garvey,(Academic),319020000,6521
Castleton University,C. o. Presidents,Castleton greenand white,7860000,2191
Carleton University,R. Runte,Black and red,231000000,28289
Calvin College,Dr. Michael K. Le Roy,Maroon and Gold,123600000,3990
"California State University, Sacramento",R. S. Nelsen,Sac State Green & Hornet Gold,35000000,30284
"California State University, Long Beach",J. C. Conoley,Black and Gold,57200000,37446
California Institute of Technology,T. F. Rosenbaum,Orange and white,2199000000,2255
Bucknell University,J. C. Bravman,Orange and Blue,789400000,3624
Bryn Mawr College,K. W. Cassidy,Yellow and White,853000000,1771
Bryant University,R. Machtley,Black & Gold,172800000,3614
Brown University,C. Paxson,"Brown, Red, White",3300000000,9073
Brigham Young University,K. J. Worthen,"BYU Blue, White, Tan",1470000000,29672
Briar Cliff University,H. Shirvani,BlueandGold,9500000,1174
Bowling Green State University,M. E. Mazey,Orange & Brown,118700000,17706
Boston University,R. A. Brown,Scarlet and white,1644000000,32551
Boston College,S. o. Jesus,Maroon and Gold,2220000000,14100
Boise State University,R. W. Kustra,"Blue, Orange",93500000,22259
Binghamton University,H. G. Stenger,Pantone 342,116000000,16887
Bethune-Cookman University,E. O. Jackson,Maroon and Gold,54186000,4045
Berklee College of Music,R. H. Brown,Red and gray,321000000,4490
Bentley University,G. C. Larson,"Blue, White",258000000,5602
