col0,col1,col2,col3
Geniculate river snail,Cerithioidea,LR/nt,IUCN2.3
Geminoropa scindocataracta,Charopidae,VU,IUCN2.3
Gastrocopta ogasawarana,Pupilloidea,EX,IUCN2.3
Gastrocopta chichijimana,Pupilloidea,EX,IUCN2.3
Gastrocopta boninensis,Pupilloidea,VU,IUCN2.3
Galba truncatula,Lymnaeidae,LC,IUCN3.1
Galba schirazensis,Lymnaeidae,LC,IUCN3.1
Gabbiella stanleyi,Rissooidea,LC,IUCN3.1
Gabbiella rosea,Rissooidea,NT,IUCN3.1
Gabbiella humerosa,Rissooidea,LC,IUCN3.1
Gabbiella balovalensis,Rissooidea,DD,IUCN3.1
Gabb's snail,Helicoidea,VU,IUCN2.3
Fuzzy pigtoe,Unionidae,VU,IUCN2.3
Fusiform elimia,Cerithioidea,EX,IUCN2.3
Fusconaia ozarkensis,Unionidae,LR/nt,IUCN2.3
Fusconaia lananensis,Unionidae,LR/nt,IUCN2.3
Fusconaia burkei,Unionidae,G2,TNC
Fusconaia askewi,Unionidae,LR/nt,IUCN2.3
Fumonelix jonesiana,Helicoidea,DD,IUCN2.3
Fumonelix archeri,Helicoidea,DD,IUCN2.3
Freshwater pearl mussel,Margaritiferidae,EN,IUCN2.3
Fraternal snail,Helicoidea,CR,IUCN2.3
Franklin Mountain woodland snail,Helicoidea,LR/nt,IUCN2.3
Franklin Mountain talus snail,Helicoidea,LR/nt,IUCN2.3
Fossil springsnail,Hydrobiidae,DD,IUCN2.3
Forkshell,Unionidae,EX,IUCN2.3
Fonscochlea zeidleri,Hydrobiidae,LR/nt,IUCN2.3
Fonscochlea conica,Hydrobiidae,VU,IUCN2.3
Fonscochlea billakalina,Hydrobiidae,EN,IUCN2.3
Fonscochlea aquatica,Hydrobiidae,VU,IUCN2.3
Fonscochlea accepta,Hydrobiidae,VU,IUCN2.3
Fluvidona petterdi,Hydrobiidae,CR,IUCN3.1
Fluvidona dorrigoensis,Hydrobiidae,DD,IUCN3.1
Fluvidona anodonta,Hydrobiidae,VU,IUCN3.1
Fluted pebblesnail,Hydrobiidae,CR,IUCN2.3
Fluted giant clam,Tridacnidae,cd,iucn2.3
Florida lance,Unionidae,DD,IUCN2.3
Flat pigtoe,Unionidae,CR,IUCN2.3
Flat pebblesnail,Lithoglyphidae,VU,IUCN2.3
Flat-spired three-toothed snail,Helicoidea,DD,IUCN2.3
Fissuria boui,Hydrobiidae,VU,iucn2.3
Fish Lake physa,Physidae,EX,IUCN2.3
Fine-rayed pigtoe pearly mussel,Unionidae,CR,IUCN2.3
Fine-rayed pearly mussel,Unionidae,EX,IUCN2.3
Fine-lined pocketbook,Unionidae,EN,IUCN2.3
Filopaludina sumatrensis,Viviparidae,LC,IUCN3.1
Filopaludina miveruensis,Viviparidae,DD,IUCN3.1
Filopaludina martensi,Viviparidae,LC,IUCN3.1
Filopaludina maekoki,Viviparidae,LC,IUCN3.1
Filopaludina javanica,Viviparidae,LC,IUCN3.1
Filopaludina filosa,Viviparidae,LC,IUCN3.1
Ferrissia tenuis,Planorbidae,LC,IUCN3.1
Ferrissia tanganyicensis,Planorbidae,LC,IUCN3.1
Ferrissia neozelanica,Planorbidae,LC,iucn3.1
