col0,col1,col2,col3,col4,col5
E. Hallberg,Falkenberg,"Klippan, Scania",1944-04-28,1894-01-05,1894-01-05
E. Degner,Gliwice,"Arona, Tenerife",1983-9-10,1931-9-22,1931-9-22
E. Lyons,Ireland,"Kill, County Kildare",2014-02-07,1914-03-05,1914-03-05
E. Langton,Leeds,Australia,2001-1-1,1907-09-27,1907-09-27
E. Fernihough,United Kingdom,Budapest,1938-04-23,1905-02-17,1905-02-17
E. Lorenzetti,Rome,Milan,1989-8-8,1911-1-4,1911-1-4
E. Mendogni,Parma,Desio,2008-2-10,1932-5-13,1932-5-13
Emanuele Beraudo di Pralormo,Pralormo,Pralormo,1960-10-11,1887-7-13,1887-7-13
D. Romboni,Italy,Italy,2013-11-30,1968-12-08,1968-12-08
D. Dale,"Frampton, Lincolnshire",Bonn,1961-04-30,1927-04-25,1927-04-25
D. Minter,Kent,Kent,2015-01-02,1932-04-27,1932-04-27
D. Keeter,United States,"Torrance, California",1975-05-01,1944-10-15,1944-10-15
D. Jefferies,England,Isle of Man,2003-05-29,1972-09-18,1972-09-18
D. Simmonds,London,Rungis,1972-10-23,1939-10-25,1939-10-25
D. Mirra,"Chittenango, New York","Greenville, North Carolina",2016-02-04,1974-04-04,1974-04-04
D. Ambrosini,Cesena,Albi,1951-7-14,1918-3-7,1918-3-7
D. Rivas,Moaña,"Salinas, California",2015-07-19,1988-03-13,1988-03-13
D. Searls,Australia,Australia,2011-11-25,1988-02-22,1988-02-22
D. Kato,"Saitama, Saitama","Yokkaichi, Mie",2003-4-20,1976-7-4,1976-7-4
D. Nätterqvist,Stockholm,Färjestaden,2009-11-20,1922-06-20,1922-06-20
C. Roger,England,England,2015-05-26,1921-12-27,1921-12-27
"C. "". Burton",England,England,1990-6-1,1908-01-16,1908-01-16
C. Julian,Cornwall,England,1997-05-17,1937-03-04,1937-03-04
C. Green,Upwell,Walsoken,1874-02-26,1820-0-0,1820-0-0
Charles Pahud de Mortanges,The Hague,Leiden,1971-4-8,1896-5-13,1896-5-13
C. Marion,Saint-Germain-en-Laye,Annecy,1944-11-16,1887-1-14,1887-1-14
C. v. Dongen,Rotterdam,Capelle aan den IJssel,2011-12-23,1932-1-1,1932-1-1
C. Bandirola,Voghera,Voghera,1981-9-21,1915-9-25,1915-9-25
C. S. Clancy,"Epping, New Hampshire","Alexandria, Virginia",1971-1-0,1890-08-08,1890-08-08
C. G. Lewenhaupt,Örebro,Stockholm,1935-05-11,1884-01-07,1884-01-07
Carl Freiherr von Langen,Klein Belitz,Potsdam,1934-8-2,1887-7-25,1887-7-25
C. Stjernswärd,Kristianstad,Skanör,1981-03-18,1905-07-20,1905-07-20
B. Ruffo,Verona,Verona,2007-2-10,1920-12-9,1920-12-9
B. McIntyre,Glasgow,Chester,1962-08-15,1928-11-28,1928-11-28
B. Brown,Australia,Stuttgart,1960-07-23,1930-05-09,1930-05-09
B. Anderson,Hendon,Northampton,1967-08-14,1931-05-19,1931-05-19
B. Wilkinson,New South Wales,New South Wales,1940-07-27,1911-08-27,1911-08-27
B. Sanders,New South Wales,England,1985-04-23,1955-09-09,1955-09-09
B. Lomas,"Milford, Derbyshire",Mansfield,2007-08-14,1928-03-08,1928-03-08
B. Ivy,Maidstone,East Germany,1969-07-12,1942-08-27,1942-08-27
B. Swain,England,England,2007-05-15,1936-01-22,1936-01-22
B. Martínez,Spain,"Monterey, California",2015-07-19,1980-01-10,1980-01-10
B. L. Hieatt,"Reading, Berkshire",Brooklands,1930-05-03,1909-0-0,1909-0-0
B. Drinkwater,Rochdale,Isle of Man,1949-06-09,1910-02-13,1910-02-13
B. Sheene,London,Sydney,2003-03-10,1950-09-11,1950-09-11
A. Ståhle,Helsingborg,Malmö,1987-11-21,1891-02-01,1891-02-01
A. v. Pongracz,Bielsko-Biała,Vienna,1942-1-13,1864-6-25,1864-6-25
A. Francke,Stockholm,Stockholm,1973-03-11,1904-05-06,1904-05-06
