col0,col1,col2,col3,col4
(You're the) Devil in Disguise,Elvis Presley,One Broken Heart for Sale,"Nashville, Tennessee",Gold(RIAA)
(Sittin' On) The Dock of the Bay,Otis Redding,Knock on Wood,"Memphis, Tennessee",Gold
(Our Love) Don't Throw it All Away,Andy Gibb,An Everlasting Love,California,Gold(U.S.)
(Marie's the Name) His Latest Flame,Elvis Presley,I Feel So Bad,"Nashville, Tennessee",Gold(RIAA)
(Love Is) Thicker Than Water,Andy Gibb,I Just Want To Be Your Everything,Criteria Studios,Gold(U.S.)
(Let Me Be Your) Teddy Bear,Elvis Presley,All Shook Up,"Hollywood, California",X2Platinum(RIAA)
(I Know) I'm Losing You,Rod Stewart,Reason to Believe,Hitsville USA,Gold(RIAA)
(I Can't Get No) Satisfaction,Devo,Mongoloid,RCA Records,Gold(RIAA)
Şımarık,Tarkan,Salına Salına Sinsice,1997 in music,Gold (BPI)
À nos actes manqués,Jean-Jacques Goldman,Mirage,France,"Silver(France, 1991)"
À 20 ans,Lorie,J'ai besoin d'amour,France,"Silver(France, 2003)"
