col0,col1,col2,col3
"Orting, Washington",-7,180000,7250000
"Oroville, California",-7,46619,33698335
"Ormond Beach, Florida",-4,18300000,101000000
"Orleans, Vermont",−4,0,1800000
"Orleans, Nebraska",-5,0,1550000
"Orlando, Florida",-4,21496901,286711683
"Orinda, California",-7,38849,32887000
"Orick, California",-7,269358,12561000
"Oregon City, Oregon",-7,620000,24060000
"Orchards, Washington",-7,0,14000000
"Orangetown, New York",-4,18600000,81200000
"Orange Township, Columbia County, Pennsylvania",-4,400000,33700000
"Orange County, California",−7,406628133,2455308728
Onitsha,1,67000,36190000
"Oneida, Kentucky",-5,137269,5428615
"Oma, Wisconsin",-5,7769964,201242076
"Olive Township, Meigs County, Ohio",-4,1800000,102500000
"Olive, New York",-4,16800000,168608225
"Olio Township, Woodford County, Illinois",-5,77699,81455126
"Old Saybrook, Connecticut",-4,17000000,55900000
"Old Lyme, Connecticut",-4,14762932,74591657
"Old Forge, Lackawanna County, Pennsylvania",-4,0,9064958
"Olcott, New York",-4,1812991,13726936
"Okolona, Arkansas",-5,0,2000000
"Oil City, Pennsylvania",-4,517997,12172944
"Oceanside, Oregon",-7,0,2589988
"Oceanside, California",&minus;7,2431998,109230158
"Oceana, West Virginia",-4,100000,3440000
"Occidental, California",-7,0,12861880
"Oberlin, Kansas",-5,0,4946877
"Oakridge, Oregon",-7,258998,5697973
"Oakland, California",−7,57539175,202024000
"Oakhurst, California",-7,18129,15555468
"Oakdale, California",-7,129000,15784000
"Oak Hill, West Virginia",-4,25899,12665041
"Nuiqsut, Alaska",-8,0,23827890
"Novato, California",&minus;7,1339000,72407000
