col0,col1,col2,col3,col4
N. J. Currie,United States,"Wilmington, Delaware",Nancy Jane Decker,1958-12-29
M. P. Anderson,United States,United States,Michael Phillip Anderson,1959-12-25
M. J. Massimino,United States,New York City,Michael James Massimino,1962-08-19
M. J. Adams,United States,California,Michael James Adams,1930-05-05
M. Fincke,United States,Pittsburgh,Edward Michael Fincke,1967-03-14
J. M. Acaba,United States,"Inglewood, California",Joseph Michael Acaba,1967-05-17
J. A. Walker,United States,"Washington, Pennsylvania",Joseph Albert Walker,1921-02-20
J. Young,United States,California,John Watts Young,1930-09-24
Joe F. Edwards Jr.,United States,"Richmond, Virginia",Joe Frank Edwards Jr.,1958-02-03
J. Ashby,United States,Dallas,Jeffrey Shears Ashby,1954-06-16
J. C. Buckey,United States,New York,"Jay Clark Buckey, Jr.",1956-06-06
