col0,col1,col2,col3
Leningrad Nuclear Power Plant,4000000000,76348800000000000,1970
Lauingen Energy Park,25700000,97128000000000,2008
Krümmel Nuclear Power Plant,1402000000,36640800000000000,1974
Koeberg Nuclear Power Station,1940000000,49204800000000000,1976
Khi Solar One,50000000,648000000000000,2012
Kaunas Combined Heat and Power Plant,170000000,2196000000000,1971
Kashiwazaki-Kariwa Nuclear Power Plant,7965000000,119941200000000000000,1980
Kaheawa Wind Power,51000000,1608336000000000,2005
KaXu Solar One,100000000,1152000000000000,2012
Isar Nuclear Power Plant,2387000000,68583600000000000,1971
Ignalina Nuclear Power Plant,3000000000,28602000000000000,1978
Huanggou Pumped Storage Power Station,1200000000,4320000000000000,2014
Hope Creek Nuclear Generating Station,1059000000,29174400000000000,1974
Hoosac Wind Power Project,28500000,25200000000000,2011
Hitra Wind Farm,55000000,540000000000000,2003
Hartlepool Nuclear Power Station,1320000000,16560000000000000,1969
