col0,col1,col2,col3
J. Ruttan,Canada,Winnipeg Hockey Club,1973-01-07
J. Riley,Pennsylvania,Hershey Bears,2016-07-13
J. Riley,British Columbia,Boston Bruins,1993-01-19
J. Portland,Ontario,Boston Bruins,1996-08-22
J. McVicar,Canada,Montreal Maroons,1952-02-20
J. McLean,Canada,Toronto Maple Leafs,2003-10-14
J. McCulloch,United States,Winnipeg Victorias,1918-01-29
J. Marshall,Canada,Winnipeg Victorias,1965-08-07
J. Leswick,Canada,Chicago Blackhawks,1934-08-04
J. LeClair,Florida,National Hockey League,2011-06-14
J. Laviolette,Canada,Montreal Canadiens,1960-01-10
J. Kirrane,Massachusetts,Worcester Warriors,2016-09-26
J. Jackson,Kansas,Chicago Black Hawks,2015-08-08
J. Howard,Canada,Toronto Maple Leafs,1983-09-14
J. Garrity,Massachusetts,Boston Olympics,2015-08-31
J. Fraser,Canada,Renfrew Creamery Kings,1942-04-22
J. Evans,Connecticut,Chicago Blackhawks,1996-11-10
J. Dyte,Canada,Chicago Blackhawks,1974-04-09
J. Duggan,Canada,Ottawa Senators,1977-02-03
J. Darragh,Canada,Ottawa Senators,1924-06-25
J. Crawford,"Barnstable, Massachusetts",Boston Bruins,1973-01-19
J. Coughlin,Canada,Montreal Canadiens,1969-06-21
J. Bownass,Canada,Montreal Canadiens,2010-02-10
J. Beattie,British Columbia,Boston Bruins,1981-01-07
J. Armytage,Manitoba,Winnipeg Victorias,1943-08-07
J. Adams,British Columbia,National Hockey League,1996-08-21
J. Adams,Detroit,Ottawa Senators,1968-05-01
J. P. Parisé,United States,American Hockey League,2015-01-07
J. C. Tremblay,Canada,Montreal Canadiens,1994-12-07
I. Tkachenko,Yaroslavl,Lokomotiv Yaroslavl,2011-09-07
I. Mitchell,Canada,Portland Rosebuds,1942-05-08
I. Hlinka,Karlovy Vary,Vancouver Canucks,2004-08-16
I. Csák,England,Ferencvárosi TC,1976-12-31
I. Hildebrand,Alberta,Chicago Blackhawks,2006-08-27
I. Vyazmikin,Moscow,Edmonton Oilers,2009-10-30
I. Stelnov,Russia,HC CSKA Moscow,2009-03-24
I. Romishevsky,Moscow,"Samara, Russia",2013-09-28
I. Misko,Russia,SKA Saint Petersburg,2010-07-06
I. Korolev,Yaroslavl,Phoenix Coyotes,2011-09-07
I. Dmitriev,Moscow,Krylya Sovetov Moscow,1997-12-21
H. Wickberg,Sweden,Brynäs IF,2009-12-08
H. Pettersson,Timrå,Timrå IK,2008-05-10
H. Buller,United States,Detroit Red Wings,1968-08-03
H. Lehman,Canada,Chicago Blackhawks,1961-04-12
H. Davidson,Alberta,Regina Capitals,1961-05-04
H. Wilson,Ontario,New York Americans,1999-07-15
H. Anslow,Ontario,New York Rangers,2006-07-02
H. Morenz,Canada,Chicago Blackhawks,1937-03-08
H. Lockhart,Canada,Hamilton Tigers,1956-08-02
H. Riopelle,Canada,Montreal Canadiens,2013-09-22
H. Dea,Alberta,Edmonton Eskimos,1966-02-04
H. Merrill,Ontario,Ottawa Senators,1958-12-24
H. Gaul,British Columbia,Ottawa Senators,1939-07-09
H. Smith,Canada,Boston Bruins,1963-08-24
H. Stuart,Bay of Quinte,Ottawa Senators,1907-06-23
H. Baker,Toul,Princeton Tigers,1918-12-21
H. Wilson,Canada,Saskatoon Quakers,1977-10-11
H. Schibukat,Eckernforde,Krefeld Pinguine,1999-6-1
H. Hamel,Canada,Toronto Maple Leafs,2001-04-20
H. Vaningen,"Greenwich, Connecticut",United States men's national ice hockey team,2010-01-08
H. Jordan,Canada,Quebec Bulldogs,1973-06-02
H. Gardiner,Pennsylvania,Chicago Blackhawks,1972-01-11
H. Drury,Pennsylvania,Philadelphia Quakers,1965-07-01
H. Clarke,Massachusetts,Cobalt Silver Kings,1938-06-25
H. Carnegie,Canada,Quebec Aces,2012-03-09
H. Cain,Canada,Boston Bruins,1982-02-23
H. Maracle,Texas,New York Rangers,1958-06-20
H. Harris,Canada,Boston Bruins,1975-12-31
H. Akervall,Canada,Warroad Lakers,2000-02-18
H. Bostrom,Minnesota,Chicago Blackhawks,1977-01-23
H. Jenni,Switzerland,EV Zug,1992-10-08
H. Negrello,Alberta,Lethbridge Maple Leafs,2000-06-09
H. Dallaire,Canada,Montreal Canadiens,1925-02-18
H. Lalande,Canada,Chicago Blackhawks,2010-08-18
H. Kilrea,Detroit,Detroit Red Wings,1969-09-08
H. Fowler,Canada,Boston Bruins,1987-07-30
H. Millar,Alberta,Renfrew Creamery Kings,1944-7-1
H. Routh,Canada,Montreal Hockey Club,1959-1-1
H. Stapleford,England,Streatham Redskins,1983-2-1
H. Watson,Canada,Toronto Parkdale Canoe Club,1957-09-11
H. Trihey,Canada,Montreal Shamrocks,1942-12-09
H. Smith,Canada,Ottawa Senators,1953-05-06
H. Pidhirny,Massachusetts,Boston Bruins,2010-12-20
H. Oliver,Canada,Boston Bruins,1985-06-16
H. Mummery,Canada,Montreal Canadiens,1945-12-09
H. Meeking,Detroit,Boston Bruins,1971-12-13
H. Lumley,Canada,Boston Bruins,1998-09-13
H. Cameron,Vancouver,Montreal Canadiens,1953-10-20
H. Bell,Arizona,New York Rangers,2009-08-27
H. Allen,Alberta,Edmonton Mercurys,1990-08-02
H. McNamara,Lima,Montreal Canadiens,1937-08-27
H. Fiskari,Canada,East York Lyndhursts,2012-11-21
H. Brown,Alberta,New York Rangers,1997-01-12
H. Holmes,Florida,Victoria Cougars,1941-06-27
H. Emms,Canada,Boston Bruins,1988-10-23
H. Day,Canada,Toronto Maple Leafs,1990-02-17
H. Trauttenberg,England,Streatham,1985-10-1
H. Tatzer,France,EK Engelmann Wien,1944-08-23
H. Goldup,Canada,Cleveland Barons,2008-12-14
H. Bassen,Alberta,Chicago Blackhawks,2009-05-29
H. Gillespie,Canada,Edmonton Eskimos,1973-01-06
H. Baker,Canada,Calgary Tigers,1937-01-21
H. Shore,Canada,Ottawa Senators,1918-10-13
H. Kirby,Canada,Ottawa Hockey Club,1924-07-12
H. Tarala,Oregon,Penticton Vees,1995-06-10
H. Picketts,Canada,New York Americans,2002-04-13
H. Murphy,Canada,Montreal Canadiens,1976-10-12
H. Laycoe,British Columbia,Boston Bruins,1998-04-29
H. Wickberg,Sweden,Brynäs IF,2009-12-08
H. Pettersson,Sweden,Timrå IK,2008-05-10
G. Ocskay,Budapest,Alba Volán Székesfehérvár,2009-03-25
G. Boróczi,Budapest,Újpesti TE,1991-05-02
G. Mortson,Canada,Detroit Red Wings,2015-08-08
