col0,col1,col2,col3
Wrentit,Sylviidae,IUCN3.1,LC
Wrenthrush,Incertae sedis,IUCN3.1,LC
Wren-like rushbird,Furnariidae,IUCN3.1,LC
Wreathed hornbill,Hornbill,IUCN3.1,LC
Wreathed cactus snail,Helicoidea,IUCN2.3,VU
Wrayanna soluta,Rissooidea,IUCN2.3,DD
Wrangel lemming,Cricetidae,IUCN3.1,DD
Wrangel Island lemming,Cricetidae,iucn3.1,DD
Woylie,Potoroidae,iucn3.1,CR
Woundfin,Cyprinid,IUCN3.1,CR
Wounded darter,Percidae,IUCN3.1,LC
Worthen's sparrow,Emberizidae,IUCN3.1,EN
Worm-eating warbler,Parulidae,IUCN3.1,LC
Worcester's buttonquail,Turnicidae,IUCN3.1,DD
Woosnam's brush-furred rat,Muridae,IUCN3.1,LC
Woosnam's broad-headed mouse,Muridae,IUCN3.1,LC
Woolly mouse opossum,Didelphidae,iucn3.1,LC
Woolly horseshoe bat,Rhinolophidae,IUCN2.3,LR/lc
Woolly hare,Leporidae,IUCN2.3,LR/lc
Woolly giant rat,Cricetidae,IUCN3.1,LC
Woolly flying squirrel,Sciuridae,iucn3.1,EN
Woolly dormouse,Gliridae,IUCN,DD
Woolly-necked stork,Ciconiidae,IUCN3.1,VU
Woolly-headed spiny tree-rat,Echimyidae,iucn3.1,DD
Woolley's three-striped dasyure,Dasyuridae,iucn3.1,DD
Woolley's false antechinus,Dasyuridae,iucn3.1,LC
Woodworker frog,Myobatrachidae,IUCN3.1,LC
Woodward's batis,Platysteiridae,IUCN3.1,LC
Woodpecker finch,Thraupidae,IUCN3.1,VU
Woodlark cuscus,Phalangeridae,iucn3.1,EN
Woodlark,Lark,IUCN3.1,LC
Woodland vole,Cricetidae,iucn3.1,lc
Woodland thicket rat,Muridae,IUCN3.1,LC
Woodland jumping mouse,Dipodidae,IUCN3.1,lc
Woodland dormouse,Gliridae,IUCN3.1,LC
Woodland Oldfield mouse,Cricetidae,IUCN2.3,LR/lc
Woodhouse's toad,Bufonidae,iucn3.1,LC
Woodhouse's scrub jay,Corvidae,IUCN3.1,NR
Woodhouse's antpecker,Estrildidae,IUCN3.1,LC
Woodford's rail,Rallidae,IUCN3.1,NT
Woodford's fruit bat,Pteropodidae,IUCN3.1,LC
Woodchat shrike,Shrike,IUCN3.1,LC
Wood warbler,Phylloscopidae,IUCN3.1,LC
Wood turtle,Emydidae,iucn3.1,EN
Wood thrush,Thrush,IUCN3.1,LC
Wood stork,Ciconiiformes,IUCN3.1,LC
Wood sprite gracile opossum,Didelphidae,iucn3.1,NT
Wood snipe,Scolopacidae,IUCN3.1,VU
Wood sandpiper,Scolopacidae,IUCN3.1,LC
Wood pipit,Motacillidae,iucn3.1,NR
Wood mouse,Muridae,IUCN3.1,LC
Wood lemming,Cricetidae,IUCN3.1,LC
Wood harrier,Accipitridae,iucn3.1,EX
Wood duck,Anatidae,IUCN3.1,LC
Wood River sculpin,Cottidae,IUCN2.3,VU
Wood's slit-faced bat,Nycteridae,IUCN3.1,NT
Wongai ningaui,Sminthopsinae,iucn3.1,LC
Wonga pigeon,Dove,IUCN3.1,LC
Wompoo fruit dove,Columbidae,IUCN3.1,LC
Wollaston's roundleaf bat,Hipposideridae,IUCN2.3,LR/nt
Wolffsohn's viscacha,Chinchillidae,iucn3.1,DD
Wolffsohn's leaf-eared mouse,Cricetidae,IUCN2.3,LR/lc
Wolf's mona monkey,Cercopithecidae,iucn3.1,LC
Woermann's bat,Pteropodidae,IUCN3.1,LC
Wissel Lakes tree frog,Hylidae,IUCN3.1,VU
Wire-tailed swallow,Hirundinidae,IUCN3.1,LC
Wire-tailed manakin,Pipridae,IUCN3.1,LC
Wire-crested thorntail,Trochilidae,IUCN3.1,NT
Winteria telescopa,Opisthoproctidae,iucn3.1,NE
Winter wren,Troglodytidae,IUCN3.1,LC
Winter climbing salamander,Plethodontidae,IUCN3.1,DD
Winkelmann's mouse,Cricetidae,IUCN3.1,EN
Winifred's warbler,Cisticolidae,IUCN3.1,VU
Winghead shark,Hammerhead shark,iucn3.1,EN
Winged mapleleaf,Unionidae,IUCN2.3,CR
Wing-snapping cisticola,Cisticolidae,IUCN3.1,LC
Wing-barred seedeater,Thraupidae,IUCN3.1,LC
Wing-barred piprites,Incertae sedis,IUCN3.1,LC
Wing-banded wren,Troglodytidae,IUCN3.1,LC
Wing-banded antbird,Thamnophilidae,IUCN3.1,NT
Wineland blue,Lycaenidae,IUCN2.3,LR/nt
Winding cisticola,Cisticolidae,IUCN3.1,LC
Windbalea viride,Tettigoniidae,IUCN2.3,VU
Winchell's kingfisher,Alcedinidae,IUCN3.1,VU
Wimple piranha,Serrasalmidae,iucn3.1,NE
Wimmer's shrew,Soricidae,iucn3.1,CR
Wilson's warbler,Parulidae,iucn3.1,LC
Wilson's storm petrel,Hydrobatidae,IUCN3.1,LC
Wilson's spiny mouse,Muridae,iucn3.1,LC
Wilson's snipe,Scolopacidae,iucn3.1,LC
Wilson's plover,Charadriidae,IUCN3.1,LC
Wilson's phalarope,Scolopacidae,IUCN3.1,LC
Wilson's indigobird,Viduidae,IUCN3.1,LC
Wilson's bird-of-paradise,Paradisaeidae,IUCN3.1,NT
Wilpita rasbora,Cyprinidae,IUCN2.3,EN
Willowherb hawkmoth,Sphingidae,IUCN2.3,DD
Willow warbler,Phylloscopidae,IUCN3.1,LC
Willow tit,Tit,IUCN3.1,LC
Willow ptarmigan,Phasianidae,IUCN3.1,LC
Willow flycatcher,Tyrant flycatcher,IUCN3.1,LC
Willis's antbird,Thamnophilidae,IUCN3.1,LC
Williamsonia lintneri,Corduliidae,IUCN3.1,VU
Williamsonia fletcheri,Corduliidae,IUCN3.1,NE
Williamson's sapsucker,Picidae,IUCN3.1,LC
Williamson's marsupial frog,Hemiphractidae,IUCN3.1,DD
Williams's lark,Alaudidae,IUCN3.1,DD
Williams' mud turtle,Pelomedusidae,IUCN2.3,LC
Williams' jerboa,Dipodidae,IUCN3.1,LC
William's mbuna,Cichlidae,IUCN3.1,VU
Willet,Scolopacidae,IUCN3.1,LC
Willcocks's honeyguide,Indicatoridae,IUCN3.1,LC
Wilkins's finch,Emberizidae,IUCN3.1,EN
Wild turkey,Phasianidae,IUCN3.1,LC
Wild horse,Equidae,iucn3.1,EN
Wied's tyrant-manakin,Pipridae,IUCN3.1,VU
Wied's marmoset,Callitrichidae,iucn3.1,NT
Widenose guitarfish,Rhinobatidae,IUCN3.1,VU
Widemouth gambusia,Poeciliidae,iucn2.3,CR
Widemouth blindcat,Ictaluridae,IUCN3.1,VU
Wide stingaree,Urolophidae,IUCN3.1,LC
Wide-toothed hutia,Capromyidae,IUCN2.3,EX
Wicker ancylid,Planorbidae,IUCN3.1,CR
Whyte's barbet,Lybiidae,IUCN3.1,LC
Whooping motmot,Momotidae,IUCN3.1,LC
Whooping crane,Gruidae,IUCN3.1,EN
Whooper swan,Anatidae,IUCN3.1,LC
Whitsunday wire eel,Nettastomatidae,IUCN3.1,NE
Whitish dwarf squirrel,Sciuridae,iucn3.1,DD
Whitetip weasel shark,Hemigaleidae,IUCN3.1,DD
Whitetip reef shark,Requiem shark,IUCN3.1,NT
Whitetail dogfish,Somniosidae,IUCN3.1,DD
Whitespotted whipray,Dasyatidae,IUCN3.1,VU
Whitespotted toadfish,Batrachoididae,IUCN2.3,VU
Whitespotted smooth-hound,Houndshark,IUCN3.1,DD
Whitespotted pygmy filefish,Monacanthidae,IUCN3.1,NE
Whitespotted grouper,Serranidae,iucn3.1,LC
Whitespotted bullhead shark,Bullhead shark,IUCN3.1,DD
Whitespotted bamboo shark,Hemiscylliidae,IUCN3.1,NT
Whitespot hawkfish,Cirrhitidae,iucn3.1,NE
Whitesaddled catshark,Catshark,IUCN3.1,DD
Whitenose whipray,Dasyatidae,IUCN3.1,VU
Whitenose shark,Requiem shark,IUCN3.1,DD
Whitemouth shiner,Cyprinidae,IUCN3.1,LC
Whitemargin unicornfish,Acanthuridae,IUCN3.1,LC
Whitelined toadfish,Batrachoididae,IUCN2.3,VU
Whiteline topminnow,Fundulidae,IUCN2.3,EX
Whitehead,Mohoua,IUCN3.1,LC
Whitehead's woolly bat,Vespertilionidae,IUCN3.1,LC
Whitehead's trogon,Trogonidae,IUCN3.1,NT
Whitehead's swiftlet,Apodidae,IUCN3.1,DD
Whitehead's spiny rat,Muridae,IUCN3.1,VU
Whitehead's spiderhunter,Nectariniidae,IUCN3.1,LC
Whitehead's broadbill,Eurylaimidae,IUCN3.1,LC
Whitefin topeshark,Houndshark,IUCN3.1,EN
Whitefin swellshark,Catshark,IUCN3.1,NT
Whitefin dogfish,Etmopteridae,IUCN3.1,DD
Whitecheek surgeonfish,Acanthuridae,IUCN3.1,LC
Whitecheek shark,Requiem shark,IUCN3.1,NT
Whitebelly tree frog,Hylidae,IUCN3.1,LC
White woodpecker,Woodpecker,IUCN3.1,LC
White warty-back pearly mussel,Unionidae,IUCN3.1,CR
White wagtail,Motacillidae,IUCN3.1,LC
White tern,Sternidae,IUCN3.1,LC
White suckerfish,Echeneidae,iucn3.1,LC
White sturgeon,Acipenseridae,IUCN3.1,LC
White stork,Ciconiidae,IUCN3.1,LC
White steenbras,Sparidae,IUCN2.3,LR/cd
White spotted sapphire,Lycaenidae,IUCN2.3,VU
White rhinoceros,Rhinoceros,IUCN3.1,NT
White perch,Moronidae,iucn3.1,LC
White monjita,Tyrannidae,IUCN3.1,LC
White marmoset,Callitrichidae,iucn3.1,VU
White marlin,Istiophoridae,iucn3.1,VU
