col0,col1,col2,col3
Lamborghini,Sant'Agata Bolognese,1146,586000000
Lakeland Dairies,County Cavan,700,588500000
Laima,Riga,620,7710000
Laboratoires Servier,Suresnes,21200,3900000000
La Poste,Paris,257891,22163
LVMH,Paris,120000,35664000000
LSR Group,Saint Petersburg,16000,2000000000
LSI Corporation,"San Jose, California",5080,2510000000
LOUD Technologies,"Woodinville, Washington",533,208000000
LOEN Entertainment,Seoul,361,323200000000
LLamasoft,"Ann Arbor, Michigan",383,37500000
LKAB,Luleå,4191,31122000000
LG Uplus,Seoul,4987,7800000000000
LG Display,Seoul,49000,25550000000
LEO Express,Prague,160,129000000
LAPTV,Atlanta,60,75000000
L-3 Communications,New York City,38000,12629000000
L'Oréal,"Clichy, Hauts-de-Seine",78600,25257000000
Lürssen,Bremen-Vegesack,1635,829
Kurt Geiger,London,1700,260000000
Kuntz Electroplating,"Kitchener, Ontario",850,70000000
Kumho Tire,Gwangju,5010,3
Kumagai Gumi,Tokyo,2587,326344
Kulim,Johor,8187,1
Kuala Lumpur Kepong Berhad,Ipoh,38000,7490
Ku6 Media,Beijing,211,2350000
Kroll Inc.,New York City,2800,1000000000
Korea Gas Corporation,Daegu,3674,31900000000
Korea Electric Power Corporation,Naju,20603,53210000000
Korea Aerospace Industries,South Gyeongsang Province,3530,2510000000
Kontron,Augsburg,2890,509500000
Konecranes,Hyvinkää,11900,2126
Konami,"Minato, Tokyo",4578,15995
Komercijalna banka,Belgrade,3262,321080000
Kombiverkehr,Frankfurt am Main,156,347000000
Koch Media,Planegg,300,337000000
Knjaz Miloš a.d.,Aranđelovac,910,68250000
Kmart Australia,"Mulgrave, Victoria",31000,5200000000
Kleinfelder,"San Diego, California",2000,344400000
Kinetic Concepts,Texas,5000,1600000000
Kikkoman,"Noda, Chiba",5622,3369000000
KiK,Bönen,20000,1200000000
Kesko,Helsinki,19489,9315000000
Kerry Logistics Network,Hong Kong Island,20000,2
