col0,col1,col2,col3
O'Donnell House,F. P. Milburn,9712,1996-04-25
O'Blenis House,E. Pettersen,16187,1986-08-29
Nut Grove,A. J. Davis,32374,1974-07-30
Noyes House,E. Noyes,24281,2008-09-26
Notleymere,R. W. Gibson,12545,1991-07-15
Norwich State Hospital,C. &. Woodworth,283279,1988-01-22
Northwest Davenport Turner Society Hall,F. G. Clausen,4046,1979-07-10
Northumberland Apartments,H. Wardman,1618,1980-03-25
Northside United Methodist Church,S. Hannaford,4046,1980-03-03
Northside Presbyterian Church,R. H. Hunt,8903,1980-09-15
Northfield Union Church,"Dow, Wheeler & Bodwell",9307,1984-03-15
Northern Pacific Railway Depot,C. Gilbert,4046,1975-02-13
Northern Pacific Railway Depot,R. &. Stem,4046,1977-09-19
North Side Fargo High Style Residential Historic District,Walter & George Hancock,47348,1987-04-07
North Shore Sanitary District Tower,S. A. Greeley,1214,1983-06-30
"North Rim Road, Black Canyon of the Gunnison National Park",N. Branch,934823,2005-09-06
North Liberty Park,W. P. Administration,28327,2007-03-29
North Jefferson Street Historic District,E. Dunlap,1294994,2010-03-31
North Inlet Trail,N. P. Service,140425,2008-03-05
North Casper Clubhouse,G. a. Krusmark,8093,1994-02-18
North Carolina Executive Mansion,S. Sloan,36421,1970-02-26
Norlin Quadrangle Historic District,C. Klauder,135569,1980-03-27
Nightingale–Brown House,C. Ormsbee,4046,1989-06-29
Niels Petersen House,J. M. Creighton,11735,1978-01-05
Nicollet County Courthouse and Jail,E. P. Bassford,8903,2002-09-06
Nicholson File Company Mill Complex,W. &. Gould,28327,2005-08-22
Newark Symphony Hall,G. Associates,4275,1977-10-05
Newark City Hall,John H. & Wilson C. Ely,8093,1978-02-17
New York Life Building,C. Gilbert,10117,1978-06-02
New Scotland Avenue,L. Pilcher,12140,1994-01-28
New Milford,H. Railroad,4046,1984-03-01
New London Customhouse,R. Mills,8093,1970-10-15
New Jersey Historical Society,G. a. Betelle,809,1991-02-22
New Jersey Bell Headquarters Building,R. T. Walker,4046,2005-09-21
New Imperial Hotel,W. &. Lewis,809,2003-10-24
New Haven County Courthouse,W. H. Allen,4856,2003-05-16
New Haven City Hall and County Courthouse,H. Austin,8093,1975-09-09
New Hampshire Apartments,J. B. DeRemer,4046,1982-10-26
New Castle and Frenchtown Railroad Right-of-Way,J. R. Jr.,0,1976-09-01
New Bedford Historic District,R. Mills,79318,1966-11-13
Nevada Governor's Mansion,G. A. Ferris,7284,1976-10-22
Nester House,H. T. Lindeberg,10117,1984-04-09
Naval Reserve Armory,B. M. Priteca,5746,2009-07-08
Naulakha,H. R. Marshall,44515,1979-04-11
National Park Seminary,E. E. Holman,93077,1972-09-14
National Museum of Women in the Arts,W. B. Wood,1214,1987-02-18
"National Bank of Washington, Washington Branch",J. G. Hill,809,1974-05-08
Nathaniel Bacon School,C. M. Robinson,12545,1992-08-24
Nathan Clifford School,J. C. Stevens,1214,2013-12-18
Natchaug Forest Lumber Shed,C. C. Corps,2832,1986-09-04
Nashville Children's Museum,A. Heiman,16187,1971-05-06
Nashua Manufacturing Company Historic District,A. Benjamin,246858,1987-09-11
Naples Memorial Town Hall,A. J. Warner & Company,8903,1996-05-13
Napa County Courthouse Plaza,W. H. Corlett,5260,1992-06-18
Nampa Historic District,T. &. Hummel,12140,1983-08-18
Mystic Valley Parkway,O. Brothers,89030,2006-01-18
My Old Kentucky Home State Park,J. Rowan,951011,1971-03-11
Muskingum County Courthouse,T. Townsend,4046,1973-07-16
Murry Guggenheim House,C. a. Hastings,28327,1978-03-28
Murdock School,H. M. Francis,8093,1988-01-28
Munson Valley Historic District,N. P. Service,24281,1988-12-01
Munroe Building,S. &. Stearns,4856,1989-09-20
Municipal Group Historic District,H. a. Richardson,33386,1987-11-10
Municipal Building,G. &. Sheffey,2023,1979-05-29
Muhlenberg County Courthouse,W. J. Dodd,1618,1978-12-22
Mt. Zion Presbyterian Church,W. &. Sompayrac,20234,2003-07-17
Mrs. Isaac D. Adler House,D. Adler,12140,2002-08-28
Mrs. I. L. Crego House,A. Russell,6070,2007-06-27
Mrs. A. W. Gridley House,F. L. Wright,9307,1993-02-03
Mountrail County Courthouse,B. &. Orth,8498,1978-12-22
Mount Zion Memorial Church,B. D. Price,10117,2007-11-01
Mount Vernon Place United Methodist Church and Asbury House,T. Dixon,1618,1971-09-17
Mount Pleasant Armory,W. W. Co.,1618,1989-12-22
Mount Kisco Municipal Complex,M. B. Schmidt,0,1997-03-09
Mount Hood Masonic Temple,S. &. Whitney,2023,2008-05-29
Mount Feake Cemetery,R. M. Copeland,343982,1989-09-28
Mother of Sorrows Catholic Church,W. P. Ginther,4046,1995-03-09
Mosman House,M. Fuller,809,1978-12-15
Mosher House,F. L. Wright,4046,1979-06-15
Morrow County Courthouse,E. M. Lazarus,4046,1985-02-28
Morrison House,S. Hannaford,10117,1973-04-03
Morris Marks House,W. H. Williams,809,1975-12-30
Morris Arboretum,W. Eyre,708199,1978-12-22
Morgan Building,D. &. Patterson,2023,1996-09-12
Morgan-Gold House,D. Morgan,16187,1985-07-08
Moqui Ranger Station,Architects of the United States Forest Service,8093,1993-06-10
Montgomery Place,A. J. Davis,1756335,1975-05-02
Montgomery County Courthouse,B. &. Benton,4046,1979-05-10
Montgomery County Courthouse,A. Blair,6070,1980-09-18
Montgomery Building,"Lockwood, Greene & Co.",6272,2011-05-25
Montezuma Fuller House,M. Fuller,404,1978-12-15
Monterey State Historic Park,T. O. Larkin,324962,1970-04-15
Montauk Manor,S. &. Weaver,48562,1984-08-23
Montauk Association Historic District,F. L. Olmsted,404685,1976-10-22
Montalvo Arts Center,W. Curlett,716293,1978-05-01
Monroe Residential Historic District,W. &. Stern,732481,1988-01-06
Monnett Memorial M. E. Chapel,F. Packard,9307,1986-12-29
Monjeau Lookout,C. C. Corps,3642,1988-01-27
Monastery of the Precious Blood,J. Jacobberger,9307,1985-02-14
Monastery of Our Lady of Charity,Leo M. J. Dielmann,27518,1999-06-25
Monaghan Mill,"Lockwood, Greene & Co.",67987,2005-10-04
Modjeska House,S. White,56655,1972-12-11
Mistletoe Villa,S. Sloan,9955,1978-09-10
Missouri Theatre,B. Brothers,1214,1979-06-06
"Missouri, Kansas, and Texas Railroad Depot",M. Railroad,1214,1979-01-29
Minterburn Mill,C. R. Makepeace & Company,20638,1984-02-16
Minnetrista Boulevard Historic District,W. &. Mahurin,36826,2012-04-10
Minnesota State Sanatorium for Consumptives,"Clarence H. Johnston, Sr.",713056,2001-07-25
Minnesota State Public School for Dependent and Neglected Children,W. Dunnell,40063,1975-05-12
Minnesota Home School for Girls Historic District,"Clarence H. Johnston, Sr.",335889,1989-01-19
Milwaukee County Dispensary and Emergency Hospital,Van Ryn & DeGelleke,22257,1985-03-21
Milton W. Smith House,W. &. Lewis,809,1980-01-11
Milton Railroad Station,Wilson Brothers & Company,2468,2007-08-28
Milton Armory,W. W. Co.,2023,1991-07-12
Millwood Historic District,H. Whitehouse,80937,2001-02-02
Miles City Main Post Office,O. Wenderoth,2023,1986-03-14
Migeon Avenue Historic District,"Frederick Law Olmsted, Jr.",52609,2002-09-06
Midtown Woodward Historic District,A. Kahn,35207,2008-11-26
Middlesex Canal,J. Sullivan,991479,1972-08-21
Michigan Central Station,W. a. Wetmore,46451,1975-04-16
Michigan Central Railroad Chelsea Depot,M. a. Rice,3237,1987-06-12
Michigan Bell and Western Electric Warehouse,SmithGroupJJR,13759,2009-12-08
Mianus River Railroad Bridge,A. B. Company,4046,1987-06-12
Miantonomi Memorial Park,"McKim, Mead & White",129499,1969-06-23
Metropolitan Theatre,C. W. Bates,1214,1984-01-12
Metropolitan Life Insurance Company Hall of Records,D. E. Waid,3925,2014-09-03
Methodist Episcopal Church,J. A. Shannon,1214,2008-07-16
Merrill Lock No. 6,United States Army Corps of Engineers,9833,1980-09-04
Merrick County Courthouse,W. F. Gernandt,6879,1990-01-10
Meridian City Hall,P. Krouse,4046,1979-12-18
Mercer County Courthouse,C. Owsley,9712,1998-11-12
Mercado de las Carnes,R. Carmoega,942,1986-11-17
Menominee County Courthouse,G. P. Randall,8093,1975-03-07
Menokin,J. Ariss,2387645,1969-10-01
Memorial Arch of Tilton,"Dow, Wheeler & Bodwell",8093,1980-05-19
Medford Southern Pacific Railroad Passenger Depot,S. P. Railroad,2185,1996-06-03
Mechanic Institute,M. &. Mayo,1214,1980-05-13
Meadow Marsh,F. H. Trimble,48562,1996-11-15
McMaster School,W. A. Edwards,8093,1997-07-25
McLean County Courthouse,H. Bros.,8498,1985-11-14
McKinley Park School,George A. Ferris and Son,10926,1985-09-16
Mayslake Peabody Estate,M. a. Fox,352076,1994-11-08
Mayo Building,G. Winkler,4046,2008-12-04
Maynard Buehler House,F. L. Wright,371,2006-12-12
Maupin Section Foreman's House,U. P. Railroad,23067,2006-11-29
Maud and Belle Ainsworth House,W. C. Knighton,2670,1986-02-27
