col0,col1,col2,col3
C. Speegle,1917-11-05,1994-09-05,36–42–3
C. Hysell,1942-0-0,2014-10-26,42–46 (college)
C. Abbott,1892-12-09,1955-04-14,203–96–28 (football)
C. A. O'Donnell,1883-12-10,1953-02-15,102–46–9 (college)
C. Crowe,1903-10-18,1983-04-13,152–115 (college basketball)
C. Teetzel,1876-08-26,1948-07-29,30–32–3 (college football)
C. Droullard,1924-10-11,2012-07-26,16&ndash;16&ndash;1 ()
C. Stapleton,1921-06-24,2014-10-30,42–53–4
C. S. Jr.,1914-01-16,1975-01-05,"13–17–1 (football, Tulane only)"
C. Rothgeb,1880-01-01,1944-07-05,34–12 (basketball)
C. Reeds,1890-11-12,1974-04-30,27–16 (basketball)
C. J. Hunt,1886-08-11,1962-02-19,69–39 (basketball)
C. E. Thornhill,1893-04-14,1956-06-30,35–25–7
C. Anderson,1911-0-0,1988-8-1,170–73 (college baseball)
C. V. Galder,1909-02-06,1965-11-16,77–27–3 (college football)
C. Shaughnessy,1892-03-06,1970-05-15,14–7–3 (NFL)
C. Weed,1885-09-01,1966-12-19,4–4 (football)
C. Stasavich,1913-02-09,1975-10-24,171–64–7
C. Spears,1894-07-24,1964-02-01,148–83–14
C. Schutte,1901-04-06,1970-11-05,173&ndash;45&ndash;12
C. Munn,1908-09-11,1975-03-18,71–16–3
C. Kenney,1882-01-13,1950-11-28,3–4
C. Iba,1909-04-20,1997-04-21,137-147
C. H. Thurber,1888-09-19,1966-10-30,18&ndash;7 (basketball)
C. Gaines,1923-05-21,2005-04-18,828–447
C. Childs,1883-07-24,1960-09-16,6–7–1
C. Boston,1917-04-13,2002-05-04,60–57–10
C. A. Short,1873-07-01,1947-03-07,8–7–1
C. Hunter,1886-12-01,1940-04-08,2–4 ()
C. S. Tappaan,1878-05-14,1932-11-30,0–1
C. L. Gleason,1923-05-17,1986-06-29,29&ndash;29 ()
C. Taylor,1920-01-24,1994-05-07,40–29–2
C. Riley,1902-05-13,1971-07-19,7&ndash;13&ndash;3
C. Noe,1924-11-13,2003-12-08,241–160
C. Moser,1918-09-09,1995-05-08,141-28-2
C. Mather,1915-04-17,2006-05-20,109–19–5 (high school)
C. Fairbanks,1933-06-10,2013-04-02,46–40 (NFL)
C. Curtis,1935-07-15,2016-05-09,11–10–1 (college)
C. Collins,1903-08-27,1977-04-14,38–31–9
C. Brayton,1925-0-0,2015-03-28,1162–523–8 () (WSU)
C. Baer,1905-09-24,1987-05-31,35–21–1 (college)
C. Walsh,1903-02-04,1971-09-04,1–2 (NFL)
C. Meehan,1893-09-05,1972-11-09,115–44–14
C. Davies,1900-3-0,1985-04-15,314–106 ()
C. Atkinson,1918-01-16,1962-01-04,18–49–3
C. Agnew,1894-8-0,1942-08-19,145–155 (basketball)
C. Benefiel,1907-03-08,1994-11-24,11–8–1 (football)
C. A. Wynne,1898-11-23,1967-07-17,74–59–8
C. S. Barnard,1894-10-25,1952-10-16,180–154 (basketball)
C. Pittser,1893-07-29,1978-10-17,123–67 (basketball)
C. Brewer,1875-11-26,1953-04-16,148–93–4 (baseball)
C. Gilstrap,1914-07-31,2002-08-09,85-40-3
C. Thompson,1915-07-04,1972-08-26,149-72-5
