col0,col1,col2,col3,col4,col5
Unofficial Sentai Akibaranger,N. Arakawa,Haruko Momoi,Yukio Yamagata,K. Kawai,2013-06-28
The Virginian,L. Stevens,Stanley Wilson,Stanley Wilson,P. Faith,1971-03-24
The Charmer,A. Prior,You're the Top,Paul Jones,R. R. Bennett,1987-11-22
The Buddhism Palm Strikes Back,W. Yuk-long,Jacky Cheung,Vivian Chow,J. Koo,1993-07-09
Soy tu dueña,K. Fajer,Joan Sebastian,Lucero,J. Sebastian,2010-11-07
Second Noah,P. Long,Christophe Beck,Christophe Beck,C. Beck,1997-06-08
Rex the Runt,R. Goleszowski,Andrew Franks,Andrew Franks,A. Franks,2001-12-16
Monkey,M. Sasaki,Monkey Magic,Gandhara,Godiego,1980-05-04
Mariana de la Noche,L. Abud,Juan Gabriel,Juan Gabriel,J. Gabriel,2004-04-23
Kamen Rider Wizard,S. Aikawa,Life Is Show Time,Rider Chips,K. Nakagawa,2013-09-29
Kamen Rider OOO,Y. Kobayashi,Anything Goes!,Akira Kushida,K. Nakagawa,2011-08-28
Kamen Rider Kuuga,T. Inoue,Masayuki Tanaka,Jin Hashimoto,T. Sahashi,2001-01-21
Kamen Rider Kiva,T. Inoue,Break the Chain,Tetra-Fang,T. Saito,2009-01-18
Kamen Rider Gaim,G. Urobuchi,Just Live More,Kamen Rider Girls,K. Yamashita,2014-09-28
Kamen Rider 555,T. Inoue,Da Pump,M.c.A.T,H. Matsuo,2004-01-18
Jawara,I. Tantowi,Wali,Wali,Wali,2016-07-05
GoGo Sentai Boukenger,S. Aikawa,Nobuo Yamada,Psychic Lover,K. Nakagawa,2007-02-11
El Privilegio de Amar,L. Abud,Manuel Mijares,Manuel Mijares,J. Avendaño,1999-02-26
Dos hogares,E. Larrosa,Dividida,Anahí,Anahí,2012-01-20
Daimajin Kanon,N. Arakawa,Ryoko Moriyama,Lia,T. Sahashi,2010-10-01
