col0,col1,col2,col3
Grupo Nutresa,Medellín,31650,2900000000
Grupo Financiero Banamex,Mexico City,41390,18300000000
Grupo Argos,Medellín,2654,3700000000
Grupo Arcor,"Arroyito, Córdoba",20000,3300000000
Grupo Agbar,Barcelona,25000,167300000
Grupo ACS,Madrid,210345,38396000000
Groupon,Chicago,10000,3200000000
Groupe SEB,Ecully,24927,3960000000
Groupe PSA,Paris,184107,54676000000
Groupe Casino,Saint-Étienne,329600,48645000000
Grohe,Düsseldorf,6000,1200000000
Grindeks,Riga,836,76
Grey Global Group,"New York, NY",6500,1307000000
Grenzebach BSH,Bad Hersfeld,350,108900000
"Greif, Inc.","Delaware, Ohio",13325,4239000000
Greenwoods,Bradford,500,29
Gree Electric,Guangdong,40000,19800000000
Great Plains Energy,"Kansas City, Missouri",2935,2568000000
Great-West Lifeco,Winnipeg,19000,10
Graybar,"Clayton, Missouri",8300,6100000000
Grandi Stazioni,Rome,227,180470000
GrafTech,"Independence, Ohio",2397,1090000000
Graco,Minneapolis,3100,1220000000
Goya Foods,"Jersey City, New Jersey",3500,1500000000
Got Event,Gothenburg,129,120000000
Goodman Group,Sydney,1080,1182800000
Goldman Sachs,Manhattan,34800,39200000000
Golden West Books,United States,3,4
Golden Flake,"Birmingham, Alabama",800,137300000
Golden Corral,"Raleigh, North Carolina",9000,195100000
Goldcorp,"Vancouver, British Columbia",15800,4375
Gold Horse International,Hohhot,136,37630000
Gojo Industries,"Akron, Ohio",2000,83000000
Gogo Inflight Internet,"Chicago, Illinois",1200,233500000
GoPro,California,1483,1620000000
GoCardless,London,100,1000000000
Global Village Telecom,Curitiba,17000,2000000000
Global Intelligence Alliance Group,Helsinki,150,15000000
GlobalTranz,"Phoenix, Arizona",500,450000000
GlobalSpec,"East Greenbush, New York",201,10
Glentel,Burnaby,2100,308000000
Glenmark Pharmaceuticals,Maharashtra,12000,1200000000
"Glacier Bancorp, Inc","Kalispell, Montana",1919,327900000
Gildan Activewear,Montreal,42000,1950000000
Gigamon,"Santa Clara, California",371,140300000
Gigabyte Technology,New Taipei,7100,1700000000
Gifu Bus,Gifu Prefecture,532,5820000000
Getrag,Untergruppenbach,12500,3000000000
German Pellets,Wismar,650,519000000
Geox,Montebelluna,2590,850100000
Georgia Tech Research Institute,"Atlanta, Georgia",1765,305000000
George Weston Limited,Ontario,140800,32742000000
George P. Johnson,"Auburn Hills, Michigan",1300,185
Georg Fischer,Schaffhausen,14400,3640000000
Geometric,Mumbai,4700,188490000
Geofoto,Croatia,260,15390000
GeoEye,"Herndon, Virginia",410,183760000
Genzyme,"Cambridge, Massachusetts",12000,4610000000
Gentiva Health Services,"Atlanta, Georgia",14600,1710000000
Genivar,Montreal,15000,651900000
GenieKnows,Halifax Regional Municipality,5,8400000
Genesis Energy Limited,Auckland,931,2098
Genesco,"Nashville, Tennessee",22700,2600000000
General Motors Canada,Ontario,10000,31675000000
General Mills,"Golden Valley, Minnesota",39000,16600000000
General Logistics Systems,Amsterdam,14000,2100000000
General Growth Properties,Illinois,1600,3020000000
General Electric,Boston,305000,140390000000
General Dynamics,"West Falls Church, Virginia",99500,30852000000
Gema Switzerland,St. Gallen,150,1220000000
Gelson's Markets,California,953,439038
Gehrlicher Solar,Neustadt bei Coburg,150,323000000
Gedeon Richter,Budapest,11103,1478000000
Geberit,Rapperswil-Jona,12126,2590000000
Gazprom Neft,St. Petersburg,55900,1230000000000
Gaumont Film Company,Neuilly-sur-Seine,173,169100000
Gasunie,Groningen,1448,1506000
Gasum,Espoo,236,1079000
Gas Connect Austria,Wien,280,263230000
GasTerra,Groningen,176,35100000000
Gartner,"Stamford, Connecticut",7834,2
Gap Inc.,California,137000,15651000000
Gallus Holding,Switzerland,590,201000000
Galenika a.d.,Belgrade,2236,40420000
GSP Belgrade,Belgrade,5944,117470000
GRTgaz,Paris,2690,1464000000
GPA,São Paulo,139000,76933000000
GMR Marketing,Wisconsin,600,110000000
GK Software,Vogtland,794,62602
GKN Driveline,Redditch,21200,2678
GHD Group,Australia,8500,1000000000
GE Lighting,"East Cleveland, Ohio",17000,3
GE Healthcare,"Chicago, Illinois",46000,14850000000
GE Energy,Georgia,82000,37100000000
GE Aviation,Ohio,26800,24700000000
GDF Suez IT,Paris,2300,1
G4S Secure Solutions d.o.o.,Belgrade,2766,26250000
Fællesforeningen for Danmarks Brugsforeninger,Copenhagen,50,39600000000
Function Drinks,"Los Angeles, California",50,10000000
Fukui Railway,Fukui Prefecture,236,2255000000
Fry's Electronics,California,13999,2000000000
Frutarom,Haifa,2700,872800000
Frontier Energy Group,"Denver, CO",175,100000000
Frontier Communications,"Norwalk, Connecticut",18600,4761
Froiz,Poio,4650,522000000
Frikom,Belgrade,1078,90630000
Friesens,"Altona, Manitoba",600,70000000
Fresh Del Monte Produce,"Coral Gables, Florida",45000,3930000000
Fresenius,Bad Homburg,223704,27995000000
Frequentis,Austria,1250,214000000
Freightliner Group,London,2500,785000000
Freescale Semiconductor,Austin,17300,4634000000
Freenet AG,Schleswig-Holstein,3970,3340000000
Fred. Olsen Energy,Oslo,1245,6019000000
Four Seasons Hotels and Resorts,Ontario,44000,4000000000
Foss A/S,Hillerød,1377,2010
Fortune International Group,Miami,100,1000000000
Fortune Brands,Illinois,24248,6695000000
Fortum,Espoo,9900,6056000000
Fortinet,"Sunnyvale, California",4600,1010000000
Forthnet,Heraklion,1000,465260000
Forsythe Technology,Illinois,1000,1109
Forrester Research,"Cambridge, MA",1345,313700000
Forges de Zeebrugge,Herstal,70,21700000
Forest River,"Elkhart, Indiana",11000,5000000000
Forest City Enterprises,"Cleveland, Ohio",2573,1180000000
Fonterra,Auckland,22000,17200000000
Fnac,Ivry-sur-Seine,14364,3876
Flygprestanda,Malmö,41,29959000
Florists' Transworld Delivery,"Downers Grove, Illinois",984,1220000000
Fletcher Building,Auckland,20000,9004
Fjellinjen,Oslo,40,1248
Fitch Ratings,London,2000,732500000
Fiskars,Helsinki,4832,767500000
Fisher & Paykel,Auckland,3300,1412000000
First West Credit Union,"Langley, British Columbia",1767,264800000
First Solution Money Transfer,London,100,87000000
First Solar,"Tempe, Arizona",5600,3390000000
First Majestic Silver,Vancouver,3563,245500000
First City Monument Bank,Lagos,2000,72000000
First Choice Emergency Room,"Flower Mound, Texas",1800,98500000
First Calgary Financial,Alberta,490,123200000
First American Corporation,United States,16000,4956000000
Finlayson,Helsinki,155,22900000
Finidr,Český Těšín,382,26000000
Fiera Milano,Milan,740,248358000
Fiducia IT AG,Baden-Württemberg,2012,1016
Fiat Automobili Srbija,Kragujevac,3668,1497000000
Festo,Esslingen am Neckar,17800,2450000000
Ferrovienord,Milan,931,84013421
Ferrovie dello Stato Italiane,Rome,69002,8600000000
Ferrero SpA,Piedmont,33219,9540000000
Ferrellgas,Kansas,3908,2000000000
Faurecia,Nanterre,99281,18828
Fast Retailing,"Yamaguchi, Yamaguchi",41646,1143
Fantastic Holdings,"Chullora, New South Wales",1400,450000000
Fannie Mae,United States,7200,25800000000
Fairchild Semiconductor,"Sunnyvale, California",9000,1405000000
Fabrika automobila Priboj,Priboj,650,7820000
Faber-Castell,"Stein, Bavaria",6500,887000000
FSE Engineering Group,Hong Kong,1389,2166000000
FMC Corporation,"Philadelphia, Pennsylvania",5500,3409
FEMSA,Monterrey,246158,18100000000
FEI Company,Oregon,2800,956
Fællesforeningen for Danmarks Brugsforeninger,Copenhagen,50,39600000000
Ezaki Glico,Osaka,4928,284048
Extreme Networks,"San Jose, California",1300,519500000
Expert Global Solutions,Texas,43000,2000000000
Exel Composites,Mäntyharju,408,62300000
Ex Libris,Dietikon,364,121000000
Evry,Bangalore,10000,12
Evia Oyj,Helsinki,40,10700000
Everlight Electronics,Taiwan,4000,11320000000
Evergreen Marine,Luzhu District,3389,2588000000
EverBank,"Jacksonville, Florida",3700,883600000
Europ Assistance,Paris,8200,1374
Eurobank a.d.,Belgrade,1552,420850000
Euroapotheca,Vilnius,3000,280000000
Euro Disney S.C.A.,Marne-la-Vallée,14064,1279
Euro Car Parts,"Tamworth, Staffordshire",9000,900000000
Eurasia Group,New York City,150,75
Eurasia Drilling Company Limited,Moscow,18000,1800000000
Euler Hermes,La Défense,6400,2638
Eugster/Frismag,Amriswil,2127,482300000
Erste Bank Novi Sad,Novi Sad,976,109660000
Ernst Barre Private Brewery,Lübbecke,105,20000000
Ergon Energy,"Townsville, Queensland",4624,2500000000
Equity Group Holdings Limited,Kenya,6000,164900000
Equinox Minerals,Toronto,179,1046
Epic Systems,Wisconsin,9000,1770000000
Envivio,"South San Francisco, California",163,50600000
