col0,col1,col2,col3
P. Bishop,Belgium,1912-0-0,1912-0-0
P. Craven,Edinburgh,1934-06-21,1934-06-21
O. a. Ström,Stockholm,1867-07-08,1867-07-08
O. Nilsson,Helsingborg,1896-04-10,1896-04-10
O. Stahre,Blentarp,1909-04-19,1909-04-19
N. Boocock,Queensland,1937-09-17,1937-09-17
N. Street,Melbourne,1931-01-15,1931-01-15
M. Ahola,Barcelona,1974-12-13,1974-12-13
M. Holland,Christchurch,1918-11-29,1918-11-29
M. Weyrother,Vienna,1783-1-1,1783-1-1
M. Ferjan,Gorzów Wielkopolski,1977-01-05,1977-01-05
M. Okoniewski,Poland,1956-02-10,1956-02-10
L. d. Champsavin,Nantes,1867-11-24,1867-11-24
L. V. Praag,"Greenslopes, Queensland",1908-12-17,1908-12-17
L. Richardson,Poland,1979-04-25,1979-04-25
L. Frost,"Cheyenne, Wyoming",1963-10-12,1963-10-12
K. Hyung-chil,Doha,1959-7-1,1959-7-1
K. L. Breton,New South Wales,1924-08-15,1924-08-15
K. Moran,California,1960-09-21,1960-09-21
K. Hansen,Stockholm,1890-07-30,1890-07-30
K. Schummelketel,Harderwijk,1897-09-24,1897-09-24
J. v. Platthy,Budapest,1900-12-17,1900-12-17
J. N. Morenés,Madrid,1897-12-8,1897-12-8
J. Keene,"Homer, Alaska",1923-10-20,1923-10-20
J. Lundblad,Stockholm,1887-04-11,1887-04-11
J. Mucha,Silesia,1941-5-16,1941-5-16
J. Young,Adelaide,1925-01-31,1925-01-31
J. v. Platthy,Budapest,1900-12-17,1900-12-17
I. Letham,Australia,1899-05-23,1899-05-23
I. Plechanov,Ufa,1933-7-26,1933-7-26
H. Linkenbach,Stade,1889-4-8,1889-4-8
H. Leliwa-Roycewicz,Warsaw,1898-7-30,1898-7-30
H. Glücklich,Berlin,1945-01-22,1945-01-22
Henric Horn af Åminne,Stockholm,1880-03-12,1880-03-12
H. v. Schaik,Vermont,1899-7-24,1899-7-24
H. Mörner,Uppsala,1895-5-8,1895-5-8
H. Pollay,Munich,1908-2-4,1908-2-4
H. F. Baker,Perth,1904-07-29,1904-07-29
H. v. Rosen,Norrköping,1888-8-8,1888-8-8
H. Bühler,Berg am Irchel,1893-04-12,1893-04-12
G. Dyrsch,Stockholm,1890-08-28,1890-08-28
G. Knapp,Belgium,1979-03-18,1979-03-18
G. Adlercreutz,Strömsholm,1898-08-16,1898-08-16
G. Polak,Vienna,1883-1-13,1883-1-13
G. Guasco,New South Wales,1940-11-24,1940-11-24
G. G. Trissino,Italy,1877-07-22,1877-07-22
G. Newton,Devon,1913-01-27,1913-01-27
G. v. Braun,Stockholm,1886-03-21,1886-03-21
G. Wahl,"Kirchberg, St. Gallen",1920-2-21,1920-2-21
G. Mardon,Christchurch,1927-11-24,1927-11-24
F. Rosencrantz,Malmö,1879-10-26,1879-10-26
F. Williams,England,1926-03-12,1926-03-12
F. Wilkinson,Leicestershire,1906-06-08,1906-06-08
F. Varey,England,1908-03-31,1908-03-31
F. Shuter,California,1943-06-17,1943-06-17
F. Martin,Stockholm,1885-12-30,1885-12-30
F. Frantz,"Tulsa, Oklahoma",1872-05-07,1872-05-07
F. Arthur,New South Wales,1908-12-12,1908-12-12
F. Sandström,Lidingö,1892-09-27,1892-09-27
F. Frölén,Umeå,1908-02-25,1908-02-25
E. Johansen,Ottestad,1892-2-1,1892-2-1
E. Lindenbauer,Vienna,1881-11-18,1881-11-18
E. Hallberg,"Klippan, Scania",1894-01-05,1894-01-05
E. Langton,Australia,1907-09-27,1907-09-27
E. d. Blommaert,Mazy,1875-10-15,1875-10-15
Emanuele Beraudo di Pralormo,Pralormo,1887-7-13,1887-7-13
D. Keeter,"Torrance, California",1944-10-15,1944-10-15
D. Mirra,"Greenville, North Carolina",1974-04-04,1974-04-04
D. Searls,Australia,1988-02-22,1988-02-22
D. Nätterqvist,Färjestaden,1922-06-20,1922-06-20
C. Roger,England,1921-12-27,1921-12-27
"C. "". Burton",England,1908-01-16,1908-01-16
C. Julian,England,1937-03-04,1937-03-04
C. Green,Walsoken,1820-0-0,1820-0-0
Charles Pahud de Mortanges,Leiden,1896-5-13,1896-5-13
C. Marion,Annecy,1887-1-14,1887-1-14
C. Kuhn,Zürich,1889-4-28,1889-4-28
C. S. Clancy,"Alexandria, Virginia",1890-08-08,1890-08-08
C. G. Lewenhaupt,Stockholm,1884-01-07,1884-01-07
Carl Freiherr von Langen,Potsdam,1887-7-25,1887-7-25
C. Stjernswärd,Skanör,1905-07-20,1905-07-20
B. Wilkinson,New South Wales,1911-08-27,1911-08-27
B. Sanders,England,1955-09-09,1955-09-09
A. Ståhle,Malmö,1891-02-01,1891-02-01
A. v. Pongracz,Vienna,1864-6-25,1864-6-25
