col0,col1,col2,col3
Whitney M. Young Gifted & Talented Leadership Academy,John F. Kennedy High School,17,365-772
Tinley Park High School,Oak Forest High School,20,144118
St. John's Preparatory School,Xaverian Brothers High School,18,220665
Springfield Central High School,Roger L Putnam Vocational-Technical High School,18,222030
Shaler Area High School,North Hills Senior High School,24,391550
Saint Charles Preparatory School,St. Francis DeSales High School,21,361595
Riverdale High School,East Jefferson High School,20,192120
Paul VI Catholic High School,Bishop O'Connell High School,22,470801
O'Gorman Catholic High School,Washington High School,22,421175
Notre Dame High School,Aquinas High School,18,52663
