col0,col1,col2,col3
City of Night,Dead and Alive,Prodigal Son,CPB Box no. 2452 vol. 18
City of Bones,Lost Light,A Darkness More Than Night,PS3553.O51165 C5 2002
Chuck Klosterman IV: A Decade of Curious People and Dangerous Ideas,Downtown Owl,Killing Yourself to Live: 85% of a True Story,PN4874.K574 A25 2006
Choke,Lullaby,Invisible Monsters,PS3566.A4554 C47 2001
Children of the Storm,Guardian of the Horizon,The Golden One,PS3563.E747 C48 2003
Children of the Mind,A War of Gifts: An Ender Story,Xenocide,PS3553.A655 C48 1996
Children of Dune,God Emperor of Dune,Dune Messiah,PZ4.H5356 Ch3 PS3558.E63
Chelsea Chelsea Bang Bang,Lies That Chelsea Handler Told Me,"Are You There Vodka? It's Me, Chelsea",PN6231.W6H27 2010
Charlie and the Great Glass Elevator,Charlie and the Great Glass Elevator,Charlie and the Chocolate Factory,PZ7.D1515 Ck3
Character Is Destiny,Hard Call,Worth the Fighting For,BJ1521 .M33 2005
Chapterhouse: Dune,Hunters of Dune,Heretics of Dune,PS3558.E63 C48 1985
Chaotic,Broken,Haunted,CPB Box no. 2456 vol. 19
Changer of Worlds,Service of the Sword,Worlds of Honor,PS3573.E217 C48 2001
Chainfire,Phantom,Naked Empire,PS3557.O5826 C48 2005
Cerulean Sins,Incubus Dreams,Narcissus in Chains,PS3558.A443357 C4 2003
Ceremony,The Widening Gyre,A Savage Place,PS3566.A686 C4
Cemetery Dance,Fever Dream,The Wheel of Darkness,PS3566.R3982 C46 2009
Cats of the Clans,Code of the Clans,Secrets of the Clans,PZ7.H916625 Cat 2008
Catching Fire,Mockingjay,The Hunger Games,PZ7.C6837 Cat 2009
Catch the Saint,The Saint and the Hapsburg Necklace,The Saint and the People Importers,PZ4.L4774 Cat PS3562.E35
Cat's Eye,Wilderness Tips,The Handmaid's Tale,PR9199.3.A8 C38 1988b
Castles Made of Sand,Midnight Lamp,Bold As Love,PR6060.O5163 C37 2002
Castle,Aenir,The Fall,CPB Box no. 1880 vol. 18
Cast Two Shadows,The Coffin Quilt,An Acquaintance with Darkness,PZ7.R459 Cas 1998
Carnival of Souls,Go Ask Malice,After Image,CPB Box no. 2490 vol. 2
Captain Vorpatril's Alliance,Gentleman Jole and the Red Queen,Cryoburn,PS3552.U397C37
Captain's Fury,Princeps' Fury,Cursor's Fury,PS3602.U85 C37 2007
Cannery Row,The Pearl,The Moon Is Down,PZ3.S8195 Can
Camber of Culdi,Saint Camber,High Deryni,PS3561.U69 C36 1979
Calamity Town,There Was an Old Woman,The Dragon's Teeth,PS3533.U4
Cadillac Beach,Torpedo Juice,The Stingray Shuffle,PS3554.O719 C34 2004
By the Shores of Silver Lake,The Long Winter,On the Banks of Plum Creek,PZ7.W6461 By
By Schism Rent Asunder,By Heresies Distressed,Off Armageddon Reef,PS3573.E217 B9 2008
By Heresies Distressed,A Mighty Fortress,By Schism Rent Asunder,PS3573.E217 B89 2009
Bruja,The Summoned,Avatar,CPB Box no. 1799 vol. 4
Brotherhood of the Wolf,Wizardborn,The Sum of All Men,PS3556.A71558 B7 1999
Brother Odd,Odd Hours,Forever Odd,PS3561.O55 F66 2006c
Broken,No Humans Involved,Haunted,PS3551.R4678 B76 2006
Broca's Brain,Cosmos,The Dragons of Eden,BF431 .S19
Britain's Everyday Heroes,The Change we Choose,Courage: Eight Portraits,HN385.5 .B759 2007
Bring Up the Bodies,The Mirror and the Light,Wolf Hall,PR6063.A438 B75 2012
Brimstone,Dance of Death,Still Life with Crows,PS3566.R3982 B75 2004
Brightness Reef,Infinity's Shore,The Uplift War,PS3552.R4825 B75 1995
Brian's Return,Brian's Hunt,Brian's Winter,PZ7.P2843 Bp 1999
Breaking and Entering,Inspector Ghote's First Case,"Bribery, Corruption Also",PR6061.E26 B74 2000
Body of Secrets,A Pretext for War,The Puzzle Palace,UB256.U6 B36 2001
Blue at the Mizzen,The Final Unfinished Voyage of Jack Aubrey,The Hundred Days,PR6029.B55 B57 1999
Blue Moon,Obsidian Butterfly,Burnt Offerings,CPB Box no. 1460 vol. 9
Blow Fly,Trace,The Last Precinct,PS3553.O692 B576 2003
Bloodsucking Fiends,Island of the Sequined Love Nun,Coyote Blue,PS3563.O594 B58 1995
Blood on the Moon,Because the Night,Clandestine,PS3555.L6274 B55 1984
Blood of the Fold,Temple of the Winds,Stone of Tears,PS3557.O5826 B57 1996
Blood of Amber,Sign of Chaos,Trumps of Doom,PS3576.E43 B58 1986
Blood and Gold,Blackwood Farm,Merrick,PS3568.I265 B58 2001
Blood Rites,Dead Beat,Death Masks,CPB Box no. 2274 vol. 15
Blood Promise,Spirit Bound,Shadow Kiss,PZ7.M478897 Bl 2009
Blood Noir,Skin Trade,The Harlequin,PS3558.A443357 B57 2008
Blood Contact,TechnoKill,Steel Gauntlet,CPB Box no. 1904 vol. 14
Blood Canticle,Prince Lestat,Blackwood Farm,PS3568.I265 B63 2003
Blonde Ambition,Tall Cool One,Girls on Film,PZ7.D3473 Bl 2004
Blink,Outliers,The Tipping Point: How Little Things Make a Big Difference,BF448 .G53 2005
Blasphemy,Impact,Tyrannosaur Canyon,PS3566.R3982 B57 2008
Blade Runner 2: The Edge of Human,Blade Runner 3: Replicant Night,Do Androids Dream of Electric Sheep?,PS3560.E85 B58 1995
Blackout,Halloween Rain,Spike and Dru: Pretty Maids All in a Row,CPB Box no. 2714 vol. 8
Black Wind,Treasure of Khan,Trojan Odyssey,PS3553.U75 B56 2004
Black Water,The Rivers of Zadaa,The Reality Bug,CPB Box no. 2264 vol. 19
"Black Thorn, White Rose","Ruby Slippers, Golden Tears","Snow White, Blood Red",PS648.F3 B53 1994
Black Sun,The Monkey Wrench Gang,Fire on the Mountain,PS3551.B2 B56 2003
Black Light,Time to Hunt,Point of Impact,PS3558.U494 B53 1996
Black Holes and Baby Universes and Other Essays,The Universe in a Nutshell,A Brief History of Time,QC16.H33 A3 1993
Birth of an Age,Acts of God,In His Image,CPB Box no. 2238 vol. 10
Billy Phelan's Greatest Game,Ironweed,Legs,PZ4.K3615 Bi PS3561.E428
Big Sur,Visions of Gerard,Lonesome Traveler,PS3521.E735 B5 1992
Beyond the Blue Event Horizon,Heechee Rendezvous,Gateway,PS3566.O36 B48 1980
Beyond Singularity,Futures Past,Robots,CPB Box no. 2431 vol. 14
Better Than Life,Last Human,Red Dwarf: Infinity Welcomes Careful Drivers,PR6064.A935 B47 1990
Belle Terre,Rough Trails,Wagon Train to the Stars,CPB Box no. 2018 vol. 5
Belfast Confidential,Nine Inches,Driving Big Davie,PR6052.A773
Being a Green Mother,For Love of Evil,Wielding a Red Sword,PS3551.N73 B43 1987
Being Nikki,Runaway,Airhead,PZ7.C11165 Bd 2009
Begums Thugs and White Mughals,The Last Mughal,White Mughals,DS412 .P24 2002
Beetle in the Anthill,The Time Wanderers,The Kid from Hell,PG3476.S78835 Z4913
Because the Night,Suicide Hill,Blood on the Moon,PS3555.L6274 B4 1984
Beautiful Stranger,California Dreaming,Heart of Glass,PZ7.D3473 Bea 2007
Bearing an Hourglass,With a Tangled Skein,On A Pale Horse,PS3551.N73 B4 1984
Basket Case,Skinny Dip,Sick Puppy,PS3558.I217 B37 2002
Barbarian Princess,The Emperor's Games,The Centurions,N/A
Banquets of the Black Widowers,Puzzles of the Black Widowers,Casebook of the Black Widowers,PS3551.S5 B3 1984
Balance Point,Recovery,Agents of Chaos: Jedi Eclipse,PS3570.Y4 B35 2000
Baking with Julia,Julia and Jacques Cooking at Home,In Julia's Kitchen with Master Chefs,TX763 .G654 1996
Bad Business,Cold Service,Back Story,PS3566.A686 B34 2004
Back to Bologna,End Games,Medusa,PR6054.I26 B33 2005
Back in Black,Some Like It Hot,Tall Cool One,PZ7.D3473 Bac 2005
Back,Concluding,Loving,PR6013.R416 B3 1981
Axis,Vortex,Spin,PR9199.3.W4987A97
Avatar,Bruja,Hollywood Noir,CPB Box no. 1911 vol. 19
Atlantis Found,Valhalla Rising,Flood Tide,PS3553.U75 A94 1999
At All Costs,Mission of Honor,War of Honor,PS3573.E217 A94 2005
Assassins,The Indwelling,Apollyon,PS3562.A315 A94 1999
Asleep,Goodbye Tsugumi,Amrita,PL865.O7138 S5413 2000
Ashes of Victory,War of Honor,Echoes of Honor,PS3573.E217 A87 2000
As She Climbed Across the Table,Girl in Landscape,"The Wall of the Sky, the Wall of the Eye",PS3562.E8544 A9 1997
As I Walked Out One Midsummer Morning,A Moment of War,Cider with Rosie,PR6023.E285 Z463 1985
Artemis Fowl: The Arctic Incident,Artemis Fowl: The Eternity Code,Artemis Fowl,MLCS 2006/41940 (P)
Armageddon,Glorious Appearing,The Remnant,PS3562.A315 A76 2003
Armageddon's Children,The Elves of Cintra,Angel Fire East,PS3552.R6596 A83 2006
Ark Angel,Snakehead,Scorpia,PZ7.H7875 Ar 2005
Argall: The True Story of Pocahontas and Captain John Smith,The Rifles,Fathers and Crows,PS3572.O395 A83 2001
"Are You There, Vodka? It's Me, Chelsea",Chelsea Chelsea Bang Bang,My Horizontal Life: A Collection of One-Night Stands,HQ801 .H3193 2008
Arctic Drift,Crescent Dawn,Treasure of Khan,PS3553.U75 A89 2008b
Apollyon,Assassins,Soul Harvest,PS3562.A315 A56 1999
Apocalypse Memories,Mortal Fear,Wicked Willow,CPB Box no. 2208 vol. 14
Antrax,Morgawr,Ilse Witch,PS3552.R6596 V69 2001
Annihilation,Resurrection,Extinction,PS3601.T46 A85 2004
Angry Lead Skies,Whispering Nickel Idols,Faded Steel Heat,CPB Box no. 1851 vol. 13
Angels Flight,A Darkness More Than Night,Trunk Music,PS3553.O51165 A8 1999
Angel Fire East,Armageddon's Children,A Knight of the Word,PS3552.R6596 A8 1999
And Eternity,Under a Velvet Cloak,For Love of Evil,PS3551.N73 A8 1990
An Urchin in the Storm,Wonderful Life,"Time's Arrow, Time's Cycle",QH311 .G68 1987
An Invitation to the White House,Living History,"Dear Socks, Dear Buddy",F204.W5 C58 2000
An Experiment in Treason,The Price of Murder,Smuggler's Moon,PS3553.O55314 E97 2002
An April Shroud,A Pinch of Snuff,Ruling Passion,PZ4.H64856 Ap PR6058.I448
An Anthropologist on Mars,The Island of the Colorblind,Seeing Voices,RC351 .S1948 1995
An Actor Prepares,Building a Character,My Life in Art,PN2065 .S713 1936
Amrita,Asleep,Lizard,PL865.O7138 A4813 1994
Among the Enemy,Among the Free,Among the Brave,PZ7.H1164 Ale 2005
Among the Brave,Among the Enemy,Among the Barons,PZ7.H1164 Al 2004
Among the Betrayed,Among the Barons,Among the Impostors,PZ7.H1164 Ak 2002
Among the Barons,Among the Brave,Among the Betrayed,PZ7.H1164 Aj 2003
Amnesia Moon,"The Wall of the Sky, the Wall of the Eye","Gun, with Occasional Music",PS3562.E8544 A8 1995
American Smooth,Sonata Mulattica,On the Bus with Rosa Parks,PS3554.O884 A77 2004
American Empire: The Victorious Opposition,Settling Accounts: Return Engagement,American Empire: The Center Cannot Hold,PS3570.U76 A84 2003
American Empire: Blood and Iron,American Empire: The Center Cannot Hold,The Great War: Breakthroughs,PS3570.U76 A8 2001
American Beauty,Heart of Glass,Some Like It Hot,PZ7.D3473 Am 2006
Amber and Iron,Amber and Blood,Amber and Ashes,PS3573.E3978 A85 2006
Alvin Journeyman,Heartfire,Prentice Alvin,PS3553.A655 A78 1995
Alphabet of Thorn,Od Magic,In the Forests of Serre,PS3563.C38 A78 2004
Ally,Judge,Matriarch,CPB Box no. 2691 vol. 15
Aller Retour New York,Black Spring,Tropic of Cancer,PS3525.I5454 Z462 1993
