col0,col1,col2,col3
Meet Corliss Archer,Herbert L. Strock,H. Averback,39
Medic,Worthington Miner,R. Boone,59
"Max, the 2000-Year-Old Mouse",Steve Krantz,B. Cowan,104
Matti Ki Banno,Hema Malini,H. Malini,96
MasterChef,Shine Group,A. P. Padrão,60
Mangoes,Adeel Suhrwardy,A. Suhrwardy,9
Man Against Crime,Edward Montagne,C. King,122
Makers: Women Who Make America,Dyllan McGee,M. Streep,9
Mahabharat,B. R. Chopra,H. Bhimani,94
Mackenzie's Raiders,Lou Breslow,A. Gilmore,39
Lucha Underground,Chavo Guerrero Jr.,M. Striker,72
Lost in Space,Irwin Allen,D. Tufeld,83
Lost Worlds,Atlantic Productions,C. Johnson,32
Lock 'N Load,Authentic Entertainment,J. T. Ryan,6
Living Britain,Peter Crawford,S. West,6
Life with Elizabeth,Betty White,J. Narz,65
Lewis & Clark: The Journey of the Corps of Discovery,Ken Burns,H. Holbrook,2
Law & Order: Criminal Intent,John L. Roman,S. Zirnkilton,195
LaLola,Wilma Galvante,K. d. Leon,85
Kyle XY,Julie Plec,M. Dallas,43
"Korg: 70,000 B.C.",Richard O'Connor,B. Meredith,19
Jazz,Ken Burns,K. David,10
James May's Big Ideas,Nigel Paterson,J. May,3
Ja'mie: Private School Girl,Chris Lilley,C. Lilley,6
Into the West,Steven Spielberg,M. Settle,6
Insurrection,Louis Lentin,R. MacAnally,8
Instant Star,Stephen Stohn,A. Johnson,52
In the Night Garden...,Anne Wood,D. Jacobi,100
Ice Road Truckers,Philip Segal,T. Beers,23
I Led Three Lives,Julius J. Epstein,H. Philbrick,117
How I Met Your Mother,Tami Sagher,B. Saget,208
Horizon,Liz Tucker,I. Holm,1200
Hoppity Hooper,Bill Scott,W. Conrad,104
Home Time,Ted Dowd,E. Fryer,6
Hollywood,Kevin Brownlow,J. Mason,13
Highway Patrol,Herbert L. Strock,A. Gilmore,156
Hero: 108,Lolee Aries,I. J. Corlett,52
Henry's Cat,Bob Godfrey,B. Godfrey,51
"He Said, She Said",Howard Felsher,B. Wendell,265
Have Gun – Will Travel,Sam Rolfe,R. Boone,225
Gulliver's Travels,Duncan Kenworthy,T. Danson,2
Grizzly Tales for Gruesome Kids,Jamie Rix,N. Planer,105
Grey's Anatomy,Peter Nowalk,E. Pompeo,273
Great West End Theatres,Jo Gilbert,M. Sinden,40
Girls in Love,Diane Whitley,O. Hallinan,27
Get 100,BBC Scotland,D. Chapman,82
George of the Jungle,Firdaus Kharas,J. Lumby,26
Geordie Racer,Sue Weeks,S. Barrett,10
Gemini Division,Andrew Black,R. Dawson,50
Garfield and Friends,Mitch Schauer,G. Owens,121
Fun House,Ron Greenberg,M. Chambers,375
Frozen Planet,Mark Linfield,A. Baldwin,7
Frontline,WGBH-TV,W. Lyman,600
Frontier,Worthington Miner,W. Coy,31
Freakazoid!,Paul Rugg,J. Leahy,24
Fast Forward,Steve Vizard,J. Deeks,90
Fall of Eagles,Stuart Burge,M. Hordern,13
Ezel,Kerem Çatay,T. Kurtiz,71
Eyes on the Prize,Jon Else,J. Bond,14
Egypt,Paul Bradshaw,A. Sachs,6
Eek! The Cat,Clive A. Smith,B. Kopp,75
