col0,col1,col2,col3
Upstairs Downstairs,Nikki Wilson,A. Scarborough,2012-03-25
"Upstairs, Downstairs",John Hawkesworth,D. Langton,1975-12-21
Up All Night,Christina Applegate,W. Arnett,2012-12-13
Unsub,Stephen J. Cannell,M. E. Walsh,1989-04-14
Unscripted,Grant Heslov,F. Langella,2005-02-27
Unofficial Sentai Akibaranger,Toei Company,M. Wada,2013-06-28
United States,Larry Gelbart,B. Bridges,1980-04-29
Unforgettable,GMA Network,P. Luna,2013-05-31
Undergrads,David McGrath,R. Tinkler,2001-08-12
Undercover,Richard Stokes,A. Lester,2016-05-15
Under the Canopy of Love,Amy Wong,B. Wong,2006-03-17
Uncle Max,Andy Rowley,D. Schneider,2008-10-03
Ultraman Nexus,Tsuburaya Productions,Y. Sato,2005-06-25
Ultraman Max,Takeshi Yagi,H. Mitsushima,2006-04-01
Ultra Galaxy Mega Monster Battle: Never Ending Odyssey,Tsuburaya Productions,H. Konishi,2009-03-14
Ultra Galaxy Mega Monster Battle,Tsuburaya Productions,H. Konishi,2008-02-23
Ugly Betty,Dawn DeKeyser,C. Gorham,2010-04-14
Uff Meri Family,Momina Duraid,N. Waqar,2014-12-07
Udaari,Momina Duraid Productions,F. Saeed,2016-09-25
USA High,Peter Engel,N. Guest,1999-06-10
UFO,Gerry Anderson,S. Berkoff,1971-07-24
UC: Undercover,Thomas Carter,V. Farmiga,2002-03-23
Two of a Kind,Mui Siu-ching,P. Wong,1989-07-21
Two Guys and a Girl,Vince Calandra,D. O. Stiers,2001-05-16
Two's Company,London Weekend Television,E. Stritch,1979-03-04
Tweenies,Will Brenton,J. Fletcher,2002-07-24
Tween Hearts,Wilma Galvante,B. Binene,2012-06-10
Tumi Ele Taai,Tuban,S. Mukherjee,2016-03-05
Tumhari Paakhi,Shashi Mittal,M. I. Khan,2014-11-21
Tum Mere Paas Raho,Momina Duraid,B. Ansari,2015-12-02
Tum Jo Miley,Momina Duraid,F. Mustafa,2009-09-20
Tum Aise Hi Rehna,Rashmi Sharma,Tum Aise Hi Rehna,2015-04-09
Tudor Monastery Farm,David Upshal,P. Ginn,2013-12-18
Tu Mera Hero,Shashi Mittal,S. Balani,2015-11-14
Tsunami: The Aftermath,Finola Dwyer,S. Okonedo,2006-12-05
Trust Me,Chris Donahue,E. McCormack,2009-04-07
"True Jackson, VP",Gary Halvorson,G. Proops,2011-08-20
True Colors,Faye Oshima Belyeu,C. Little,1992-04-12
Trot Lovers,Yoon Sung-sik,J. Eun-ji,2014-08-12
Tripping Over,Tim Whitby,D. MacPherson,2006-12-04
Tripper's Day,Thames Television,L. Rossiter,1984-10-29
Trigger Happy TV,Dom Joly,D. Joly,2003-07-28
Triangle,Bill Sellars,K. O'Mara,1983-07-06
Transamerican Love Story,World of Wonder,C. Addams,2008-03-31
Trailer Park Boys,Barrie Dunn,R. Wells,2007-06-10
Tower Prep,Darin Morgan,D. V. Acker,2010-12-28
Tour of Duty,Zev Braun,K. Delaney,1990-04-28
Topacio,RCTV,G. Colmenares,1985-08-04
Top Boy,Ronan Bennett,Kano,2013-09-10
Toonsylvania,Jeff DeGrandis,W. Knight,1999-01-18
Too Rich: The Secret Life of Doris Duke,John Erman,H. Panettiere,1999-02-24
Too Close for Comfort,George Yanok,J. J. Bullock,1987-02-07
Tomay Amay Mile,Jisshu Sengupta,T. A. Mile,2016-03-20
Toma,Stephen J. Cannell,T. Musante,1974-05-10
"Tom, Dick and Harriet",Michael Mills,I. Ogilvy,1983-02-17
Togetherness,Steve Zissis,A. R. Fortson,2016-04-10
Together Forever,GMA Network,Julie Anne San Jose,2012-09-08
Todd and the Book of Pure Evil,Craig David Wallace,A. House,2012-01-26
Todd McFarlane's Spawn,Catherine Winder,K. David,1999-05-28
To the Manor Born,Gareth Gwenlan,P. Keith,1981-11-29
To Serve Them All My Days,Ken Riddington,F. Middlemass,1981-01-16
To Play the King,Ken Riddington,D. Fletcher,1993-12-12
Tito,Antun Vrdoljak,G. Višnjić,2010-06-11
Titanic: Blood and Steel,Guido & Maurizio De Angelis,D. Jacobi,2012-07-29
Tinker Tailor Soldier Spy,Jonathan Powell,A. Guinness,1979-10-22
Time of Your Life,Jennifer Love Hewitt,J. Garner,2000-06-21
"Tim and Eric Awesome Show, Great Job!",Dave Kneebone,E. Wareheim,2010-05-02
Tightrope!,Clarence Greene,M. Connors,1960-09-13
Thunder Alley,Tim Doyle,J. Beaver,1995-07-04
Three Wishes,Mike Aho,A. Grant,2005-12-09
Thodi Si Zameen Thoda Sa Aasmaan,Smriti Irani,Thodi Si Zameen Thoda Sa Aasmaan,2007-09-02
This Is Show Business,Irving Mansfield,S. Levenson,1956-09-11
This Is England '90,Mark Herbert,J. Gilgun,2015-10-04
Thirtysomething,Ann Lewis Hamilton,M. Mayron,1991-05-28
Thik Jeno Love Story,Mahendra Soni,D. Dutta,2015-11-21
Thendral,Ananda Vikatan,S. Raj,2015-01-17
Then Nilavu,Thirumurugan,D. Ganesh,2014-01-03
Then Came Bronson,Robert H. Justman,M. Parks,1970-09-09
Thea,Tom Devanney,B. Norwood,1994-02-16
The Young Ones,Paul Jackson,C. Ryan,1984-06-19
The Young Lawyers,Herbert Hirschman,Z. King,1971-03-24
The Young Indiana Jones Chronicles,Rick McCallum,C. Carrier,1996-06-16
The Worst Week of My Life,Hat Trick Productions,S. Alexander,2006-12-22
The World of Lee Evans,Miles Ross,L. Evans,1995-06-23
The World of David the Gnome,Micheline Charest,T. Bosley,1985-09-23
The Women of Brewster Place,Oprah Winfrey,M. Alice,1989-03-20
The Woman in White,Gareth Neame,J. Waddell,1997-12-29
The Winds of War,Dan Curtis,J. Vincent,1983-02-13
The Wind in the Willows,Brian Cosgrove,P. Sallis,1990-06-19
The Wide Country,Ralph Edwards,S. Pickens,1963-04-25
The White Shadow,Mark Tinker,K. Howard,1981-03-16
The White Horses,Ljubljana,H. Anders,1967-02-27
The Whistleblowers,Sanne Wohlenberg,I. Varma,2007-11-01
The Westerner,Sam Peckinpah,B. Keith,1960-12-30
The Way We Were,Ruby Lin,R. Lin,2014-11-01
The Way We Live Now,Nigel Stafford-Clark,D. Suchet,2001-12-02
The Wackiest Ship in the Army,Herbert Hirschman,G. Collins,1966-04-17
The Visitor,Scott White,G. L. Bush,1998-01-16
The Virginian,Morton Fine,C. Bickford,1971-03-24
The Vicar of Dibley,Sue Vertue,D. French,2015-03-13
The Vault,Carlton Television,D. McCall,2004-08-31
The Untouchables,Stuart Rosenberg,N. Brand,1963-05-21
The Unit,Eric L. Haney,M. Martini,2009-05-10
The Unbelievable Truth,Craig Reucassel,A. Hansen,2012-12-13
The Ultimate Crime Fighter,Amy Wong,Y. Biao,2007-11-24
The Ultimate Addiction,Chong Wai-kin,B. Wong,2014-07-11
The Trouble with Larry,Jim Herzfeld,B. Pinchot,1993-09-08
The Train Now Standing,Derrick Goodwin,B. Fraser,1973-09-02
The Tracy Morgan Show,Tracy Morgan,B. J. Thompson,2004-03-20
The Tracey Ullman Show,Wallace Wolodarsky,S. McMurray,1990-05-26
The Tony Randall Show,Hugh Wilson,D. Muldaur,1978-03-25
The Tony Martin Show,Bud Yorkin,T. Martin,1956-02-27
The Tony Hancock Show,Associated-Rediffusion,D. Emery,1957-01-25
The Tonight Show with Jay Leno,Jay Leno,B. Marsalis,2014-02-06
The Time of Your Life,ITV Studios,G. O'Reilly,2007-07-23
The Tim Conway Show,Joe Hamilton,T. Conway,1981-03-07
The Tim Conway Show,Burt Nodella,T. Conway,1970-06-19
The Thin Blue Line,Ben Elton,J. Dreyfus,1996-12-23
The Thick of It,Adam Tandy,C. Langham,2012-10-27
The Ten Commandments,Robert Halmi Sr.,D. Scott,2006-04-11
The Temptations,Otis Williams,"C. "". Reid",1998-11-02
The Ted Knight Show,Martin Cohan,T. Knight,1978-05-13
The Tammy Grimes Show,Richard Whorf,D. Sargent,1966-09-29
The Tall Man,Samuel A. Peeples,B. Sullivan,1962-05-26
The Sylvester & Tweety Mysteries,Tom Minton,J. Alaskey,2000-02-12
The Swiss Family Robinson,Irwin Allen,M. Milner,1976-04-04
The Super Mario Bros. Super Show!,Troy Miller,L. Albano,1989-12-08
The Super,Alan Rafkin,R. S. Castellano,1972-08-23
The Stu Erwin Show,"Hal Roach, Jr.",A. E. Todd,1955-04-13
The Strip,Steve Knapman,B. Morley,2008-11-27
The Straits,Penny Chapman,B. Cox,2012-04-05
The State,David Wain,M. I. Black,1995-07-01
The Starter Wife,Jon Avnet,J. Davis,2007-06-28
The Starter Wife,Debra Messing,D. Messing,2008-12-12
The Starlost,Douglas Trumbull,K. Dullea,1974-01-05
The Stand,Stephen King,M. Frewer,1994-05-12
The Spoils of Babylon,Kristen Wiig,J. Alba,2014-02-06
The Sophisticated Gents,Melvin Van Peebles,M. V. Peebles,1981-10-01
The Sonny & Cher Comedy Hour,Chris Bearde,S. a. Cher,1974-05-29
The Smothers Brothers Show,Frederick De Cordova,S. Brothers,1966-04-22
The Smell of Reeves and Mortimer,Channel X,M. Williams,1995-06-09
The Slap,Tony Ayres,M. George,2011-11-24
The Six Million Dollar Man,Kenneth Johnson,R. Anderson,1978-03-06
The Singing Detective,Kenith Trodd,J. Suzman,1986-12-21
The Ship,Chris Terrill,J. S. Gilbert,2002-09-24
The Shield,Michael Chiklis,M. Chiklis,2008-11-25
The Shaolin Warriors,Shi Yongxin,S. Hung,2008-11-14
The Seventh Day,Amy Wong,B. Wong,2008-03-16
The Sentinel,Gail Morgan Hickman,K. Curtis,1999-05-24
The Secret World of Alex Mack,Matt Dearborn,L. Oleynik,1998-01-15
The Secret River,Daina Reid,L. Hulme,2015-06-21
The Secret Garden,Dorothea Brooking,J. Woodnutt,1975-02-12
The Secret Diary of Adrian Mole,Peter Sasdy,B. Reid,1985-10-21
The Sarah Jane Adventures,Nikki Wilson,E. Sladen,2011-10-18
The Sandbaggers,Michael Ferguson,R. Marsden,1980-07-28
The San Pedro Beach Bums,E. Duke Vincent,C. Murney,1977-12-19
The Saint,Roger Moore,R. Moore,1969-02-09
The Royle Family,Glenn Wilhide,L. Smith,2012-12-25
The Royal Family,Shelley Jensen,J. Harry,1992-05-13
The Rookies,Paul Junger Witt,K. Jackson,1976-03-30
The Rogues,Collier Young,C. Boyer,1965-04-18
The Roaring 20's,Gordon Bau,D. Provine,1962-01-20
The Road West,Norman Macdonnell,G. Corbett,1967-08-28
The River,Susan Belbin,D. Essex,1988-11-24
The Ritz,Chris Parr,R. Ridings,1987-05-29
The Rippling Blossom,Chong Wai-kin,D. Lau,2011-03-04
The Rifleman,Levy-Gardner-Laven,C. Connors,1963-04-08
The Restless Gun,David Dortort,J. Payne,1959-06-22
The Restaurant,Ben Silverman,R. DiSpirito,2004-06-05
The Red Road,James Bigwood,J. Momoa,2015-05-07
The Real McCoys,Irving Pincus,W. Brennan,1963-06-23
The Real McCoy,BBC,C. Walker,1996-02-09
The Range Rider,Hugh McCollum,D. Jones,1953-09-01
