col0,col1,col2,col3,col4
T. Moloughney,Cloughjordan,Kilruane MacDonagh's GAA,Kilruane MacDonagh's GAA,1940-1-1
S. Purcell,Tuam,Tuam Stars,Tuam Stars,1928-0-0
S. McIntyre,Kenmare,Gort GAA,Killarney Legion GAA,1971-1-1
S. Purcell,Tuam,Tuam Stars,Tuam Stars,1928-0-0
P. Lawlor,"Croom, County Limerick",Croom GAA,Croom GAA,1982-0-0
N. Garvan,Ireland,St Josephs GAA,St Josephs GAA,1978-9-29
N. Gilligan,Sixmilebridge,Sixmilebridge GAA,Sixmilebridge GAA,1976-8-12
M. Comerford,Kilkenny,O'Loughlin Gaels GAA,O'Loughlin Gaels,1978-11-9
J. Considine,Glanmire,Sarsfield's GAA,Sarsfield's GAA,1964-10-26
J. Gray,Dublin,Na Fianna GAA,Na Fianna GAA,1929-1-1
G. McElhinney,Derry,Banagher GAC,Banagher GAC,1956-9-19
G. Power,Annacotty,Austin Stacks,Austin Stacks,1952-6-27
D. Allen,Cork,Nemo Rangers,Nemo Rangers,1952-8-9
D. Murphy,Dingle,Dingle GAA,Dingle GAA,1975-8-22
D. Rooney,County Sligo,St. John's GAA,St. John's GAA,1990-1-1
D. Ó. Sé,Ventry,An Ghaeltacht GAA,An Ghaeltacht GAA,1975-4-1
D. Shanahan,"Lismore, County Waterford",Lismore GAA,Lismore GAA,1977-1-4
C. Corless,Kinvara,Kinvara GAA,Kinvara GAA,1922-0-0
B. Murphy,Cork,Nemo Rangers GAA,Nemo Rangers GAA,1952-2-2
B. Campion,Rathdowney,Rathdowney-Errill GAA,Rathdowney-Errill GAA,1985-1-1
A. Kennedy,Glanmire,Sarsfield's GAA,Sarsfield's GAA,1986-1-4
