col0,col1,col2,col3,col4
Workers' Communist Party,Communism,M. Ferrando,2006,2006-06-18
Unity Party,Decentralization,J. Ono,2013,2013-12-18
United Malays National Organisation,Conservatism,Tengku Adnan Tengku Mansor,1946,1946-05-11
United Democratic Movement,Social democracy,B. Msomi,1997,1997-09-27
Union Solidarity and Development Party,Nationalism,T. N. Win,2010,2010-06-02
Tomorrow Party of Japan,Environmentalism,T. Iida,2012,2012-11-28
The Workers' Party,Democratic socialism,L. T. Khiang,1957,1957-11-03
Tax Cuts Japan,Decentralization,S. Kamei,2012,2012-11-22
Tamil National People's Front,Sri Lankan Tamil Nationalism,S. Kajendren,2010,2010-02-28
Tamil National Liberation Alliance,Sri Lankan Tamil Nationalism,M. K. Shivajilingam,2010,2010-02-22
Tamil National Alliance,Federalism,M. Senathirajah,2001,2001-10-20
Syed Ata-ul-Muhaimin Bukhari,Pakistani nationalism,Abdul Latif Khalid Cheema,1929,1929-12-29
Sunrise Party,National conservatism,H. Sonoda,2010,2010-04-10
Sri Lanka Freedom Party,Social democracy,D. Dissanayake,1951,1951-09-02
Sortu,Feminism,A. Otegi,2011,2011-02-09
Socialists' Party of Catalonia,Social democracy,M. Iceta,1978,1978-07-16
Socialist Party of Catalonia-Regroupment,Catalanism,Josep Pallach i Carolà,1976,1976-05-20
Socialist Party of Catalonia-Congress,Catalanism,J. Reventós,1976,1976-11-01
Socialist Party,Social democracy,A. Costa,1973,1973-04-19
Singapore People's Party,Liberalism,C. S. Tong,1994,1994-11-21
Singapore Democratic Party,Social liberalism,C. S. Juan,1980,1980-08-06
Scottish Labour Party,Nationalisation,K. Hardie,1888,1888-08-25
SWAPO,Social democracy,N. Mbumba,1960,1960-04-19
Revolutionary Front for an Independent East Timor,Democratic socialism,M. Alkatiri,1974,1974-09-11
Republican People's Party,Kemalism,K. O. Sındır,1919,1919-09-07
Republican Left of Catalonia,Democratic socialism,M. Rovira,1931,1931-03-19
Progressive Party,Conservatism,T. C. Cheng,1947,1947-08-25
Portuguese Communist Party,Communism,J. d. Sousa,1921,1921-03-06
Polisario Front,Democratic socialism,B. Ghali,1973,1973-05-10
People's Party,Christian democracy,María Dolores de Cospedal,1989,1989-01-20
People's Justice Party,Social liberalism,R. Ramli,1999,1999-04-04
Party for Japanese Kokoro,Japanese nationalism,M. Nakano,2014,2014-08-01
Parti Melayu Semangat 46,Conservatism,S. Kamaruddin,1989,1989-06-03
Parti Gerakan Rakyat Malaysia,Liberalism,L. T. Meng,1968,1968-03-24
Pakistan Peoples Party,Populism,L. Khosa,1967,1967-11-30
Pakistan Muslim League,Pakistani nationalism,M. H. Syed,2002,2002-07-20
Osaka Restoration Association,Neoliberalism,I. Matsui,2010,2010-04-19
National Rally for Democracy,Liberalism,A. Ouyahia,1997,1997-02-21
National Democratic Congress,Social democracy,J. Asiedu-Nketia,1992,1992-07-28
Militant Socialist Movement,Democratic socialism,N. Bodha,1983,1983-04-08
