col0,col1,col2,col3,col4
Gold Diggers in Paris,A. Jenkins,Hal B. Wallis,E. Baldwin,J. Mercer
Going Wild,W. Pidgeon,William A. Seiter,H. McCarty,E. Rapee
Ghost in the Shell 2: Innocence,A. Ōtsuka,Toshio Suzuki,M. Oshii,K. Kawai
G Men,A. Dvorak,Hal B. Wallis,D. F. Zanuck,D. Buttolph
First to Fight,D. Jagger,William Conrad,G. L. Coon,F. Steiner
Dumb-Hounded,B. Thompson,Fred Quimby,H. Allen,S. Bradley
Doctor X,F. Wray,Darryl F. Zanuck,E. Baldwin,Vitaphone
Desirable,J. Muir,Edward Chodorov,Mary C. McCall Jr.,H. Roemheld
Dark Passage,L. Bacall,Jerry Wald,D. Daves,F. Waxman
Dames,R. Keeler,Hal B. Wallis,D. Daves,H. Roemheld
Captains of the Clouds,D. Morgan,Hal B. Wallis,A. T. Horman,H. Arlen
Bombers B-52,K. Malden,Richard Whorf,I. Wallace,L. Rosenman
Barefoot Gen,K. Mori,Keiji Nakazawa,K. Nakazawa,K. Haneda
