col0,col1,col2,col3
Wildcat Mountain,Blue Ridge Mountains,Georgia,1146
Wildberg,Rätikon,Austria,2788
Wildalmkirchl,Berchtesgaden Alps,Austria,2578
Wild Boar Fell,Pennines,Cumbria,708
Wild Bank,Peak District,England,399
Wilczyna,Owl Mountains,Poland,665
Wilaquta,Cordillera Apolobamba,Peru,5179
Wilaquta,Andes,Peru,5100
Wilaquta,Andes,Peru,5100
Wilaquta,Andes,Peru,5198
Wilantani,Andes,El Collao Province,5000
Wilani,Andes,Peru,5200
Wila Willk'i,Andes,Peru,5000
Wila Willk'i,Andes,José Manuel Pando Province,4286
Wila Willk'i,Andes,Bolivia,4818
Wila Willk'i,Andes,Bolivia,4630
Wila Willk'i,Andes,Bolivia,4080
Wila Wilani,Andes,Peru,4900
Wila Wilani,Andes,Bolivia,5250
Wila Wilani,Andes,Bolivia,4818
Wila Wila,Andes,Peru,4925
Wila Wila,Andes,Bolivia,5240
Wila Uqharani,Andes,Peru,5000
Wila Umani,Andes,Bolivia,4438
Wila Sirka,Andes,Bolivia,4508
Wila Sirka,Andes,Peru,4800
Wila Sirka,Andes,Bolivia,4906
Wila Salla,Andes,Bolivia,4616
Wila Salla,Andes,Bolivia,4652
Wila Salla,Andes,Bolivia,4784
Wila Salla,Andes,Peru,4987
Wila Quta,Andes,Bolivia,5144
Wila Quta,Andes,Bolivia,4100
Wila Quta,Andes,Bolivia,4960
Wila Quta,Andes,Bolivia,5032
Wila Quta,Andes,Bolivia,4260
Wila Quta,Andes,Peru,5100
Wila Qullu Punta,Andes,Bolivia,4739
Wila Qullu,Andes,Bolivia,4730
Wila Qullu,Andes,Peru,5000
Wila Qullu,Andes,Peru,5000
Wila Qullu,Andes,Bolivia,4600
Wila Qullu,Andes,Bolivia,4700
Wila Qullu,Andes,Bolivia,4140
Wila Qullu,Andes,Peru,4600
Wila Qullu,Andes,Bolivia,4658
Wila Qullu,Andes,Peru,5020
Wila Qullu,Andes,Bolivia,4932
Wila Qullu,Andes,Bolivia,5144
Wila Qullu,Andes,Bolivia,4545
Wila Qullu,Andes,Bolivia,4400
Wila Qullu,Andes,Bolivia,5140
Wila Qullu,Andes,Bolivia,4080
Wila Qullu,Andes,Bolivia,5060
Wila Qullu,Andes,Bolivia,5125
Wila Qullu,Andes,Bolivia,4948
Wila Pukarani,Andes,Bolivia,4920
Wila Pukara,Andes,Bolivia,4300
Wila Pukara,Andes,Bolivia,4290
Wila Pata,Willkanuta mountain range,Peru,4800
Wila Nasa,Andes,Bolivia,5140
Wila Lluxita,Andes,Bolivia,5020
Wila Lluxita,Andes,Bolivia,5244
Wila Lluxi,Andes,Bolivia,5596
Wila Kunka Pata,Andes,Bolivia,5002
Wila Kunka,Andes,Peru,5000
Wila Kunka,Willkanuta mountain range,Peru,5100
Wila Kunka,Andes,Bolivia,4520
Wila Kunka,Andes,Peru,5350
Wila Jaqhi,Andes,Bolivia,3808
Wila Jaqhi,Andes,Bolivia,4114
Wila Jamach'ini,Andes,Bolivia,4420
Wila Chunkara,Andes,Peru,4800
Wila Chullpa,Andes,Bolivia,4380
Wila Ch'ankha,Andes,Bolivia,4701
Wila Apachita,Andes,Bolivia,4595
Wiki Peak,Nutzotin Mountains,Alaska,2333
Wielki Szyszak,Giant Mountains,Czech Republic,1509
Wielka Sowa,Owl Mountains,Poland,1015
Wiedersberger Horn,Kitzbühel Alps,Austria,2127
Widdersgrind,Bernese Alps,Canton of Bern,2104
Widderfeld Stock,Urner Alps,Obwalden,2351
Widderfeld,Emmental Alps,Obwalden,2076
Wichhu Qullu,Andes,Bolivia,4040
