col0,col1,col2,col3
W. T. Sin,"Lanxi, Zhejiang",328-0-0,328-0-0
R. Pir,Ramdevra,1352-0-0,1352-0-0
P. Jones,Texas,1988-05-25,1988-05-25
K. N. Singh,Dehradun,1908-9-1,1908-9-1
JLaine,United States,1975-08-15,1975-08-15
F. Blassie,"St. Louis, Missouri",1918-02-08,1918-02-08
C. America,New York City,1917-7-4,1917-7-4
Blade,London,1929-10-24,1929-10-24
