col0,col1,col2,col3
USS Cobia,1940-09-09,8,1944-03-29
USS Cleveland,1963-01-25,30,1967-04-21
USS Cleveland,1938-05-17,20,1942-06-15
USS Cleveland,1899-03-03,13,1903-11-02
USS Claude V. Ricketts,1957-03-28,14,1962-05-05
USS City of Corpus Christi,1973-10-31,10,1983-01-08
USS Cincinnati,1916-08-29,16,1924-01-01
USS Cincinnati,1888-09-07,12,1894-06-16
USS Chinook,1991-07-19,7,1995-01-28
USS Chief,1989-12-12,11,1994-11-05
USS Chicago,1981-08-13,10,1986-09-27
USS Chicago,1924-12-18,20,1931-03-09
USS Chicago,1883-03-03,14,1889-04-17
USS Chester,1904-04-27,14,1908-04-25
USS Chester,1924-12-18,20,1930-06-24
USS Chesapeake,1794-03-27,12,1800-05-22
USS Chattanooga,1899-03-03,13,1904-10-11
USS Charleston,1965-06-11,24,1968-12-14
USS Charleston,1900-06-07,20,1905-10-17
USS Charles F. Adams,1957-03-28,14,1960-09-10
USS Chandler,1978-03-23,16,1982-03-13
USS Champion,1983-12-23,11,1991-02-08
USS Challenge,1944-05-15,10,1944-09-15
USS Chafee,1998-03-06,20,2003-10-18
USS Cayuga,1966-07-15,21,1970-08-08
USS Cavalla,1968-07-24,9,1973-02-09
USS Casimir Pulaski,1961-07-20,10,1964-08-14
USS Carter Hall,1989-12-22,25,1995-09-30
USS Carpenter,1945-07-10,12,1949-12-15
USS Carbonero,1942-04-10,8,1945-02-07
USS Capodanno,1966-08-25,14,1973-11-17
USS Cape Cod,1977-09-30,25,1982-04-17
USS Canberra,1940-07-01,21,1943-10-14
USS Callaghan,1978-03-23,16,1981-08-29
USS California,1968-06-13,18,1974-02-16
USS California,1915-12-28,29,1921-08-10
USS Butte,1965-03-30,24,1968-12-14
USS Bunch,1942-10-09,11,1943-08-21
USS Bull,1942-10-09,11,1943-08-12
USS Buchanan,1958-01-17,14,1962-02-07
USS Bryce Canyon,1944-11-08,21,1950-09-15
USS Brunswick,1967-09-26,17,1972-12-19
USS Brooklyn,1929-02-13,18,1937-09-30
USS Brooklyn,1892-07-19,19,1896-12-01
USS Brooke,1962-01-04,13,1966-03-12
USS Bristol County,1966-07-15,21,1972-08-05
USS Brewton,1966-08-25,14,1972-07-08
USS Bowen,1966-08-25,14,1971-05-22
USS Boulder,1966-07-15,21,1971-06-04
USS Boston,1883-07-23,12,1887-05-02
USS Bonhomme Richard,1992-12-11,32,1998-08-15
USS Boise,1929-02-13,18,1938-08-12
USS Bluefish,1966-07-15,9,1971-01-08
USS Blue Ridge,1964-12-31,32,1970-11-14
USS Blenny,1942-07-09,8,1944-06-27
USS Blandy,1954-10-23,13,1957-11-26
USS Blakely,1898-05-04,5,1904-12-27
USS Blakely,1964-07-22,14,1970-07-18
USS Black Hawk,1992-04-22,11,1996-05-11
USS Birmingham,1904-04-27,14,1908-04-11
USS Billfish,1966-07-15,9,1971-03-12
USS Bigelow,1954-07-30,13,1957-11-08
USS Biddle,1898-05-04,5,1901-10-26
USS Biddle,1962-01-16,16,1967-01-21
USS Berkeley,1959-07-21,14,1962-12-15
USS Bergall,1965-03-09,9,1969-06-13
USS Benjamin Stoddert,1960-03-25,14,1964-09-12
USS Benjamin Franklin,1962-11-01,10,1965-10-22
USS Benevolence,1942-02-19,21,1945-05-05
USS Belleau Wood,1969-11-15,32,1978-09-23
USS Belknap,1961-05-16,16,1964-11-07
USS Becuna,1942-04-10,8,1944-05-27
USS Batfish,1968-06-25,9,1972-09-01
USS Batfish,1942-04-21,8,1943-08-21
USS Bataan,1991-12-20,32,1997-09-20
USS Barry,1952-12-15,13,1956-09-07
USS Barnstable County,1966-07-15,21,1972-05-27
USS Barney,1898-05-04,5,1901-10-21
USS Barney,1957-03-28,14,1962-08-11
USS Barbey,1966-08-25,14,1972-11-11
USS Barbel,1955-08-24,8,1959-01-17
USS Bainbridge,1958-09-01,17,1962-10-06
USS Bailey,1897-03-03,5,1901-06-10
USS Bagley,1898-05-04,5,1901-10-18
USS Bagley,1964-07-22,14,1972-05-06
USS Badger,1964-07-22,14,1970-12-01
USS Aylwin,1966-08-25,14,1971-09-18
USS Avenger,1982-06-29,11,1987-09-12
USS Austin,1961-09-21,25,1965-02-06
USS Augusta,1924-12-18,20,1931-01-30
USS Astoria,1929-02-13,18,1934-04-28
USS Aspro,1963-03-26,9,1969-02-20
USS Ashland,1985-12-11,25,1992-05-09
USS Arkansas,1975-01-31,19,1980-10-18
USS Arizona,1913-03-04,29,1916-10-17
USS Argus,1803-04-29,8,1803-09-06
USS Ardent,1989-12-12,11,1994-02-18
USS Archerfish,1968-06-25,9,1971-12-17
USS Andrew Jackson,1960-07-23,10,1963-07-03
USS Amphitrite,1874-06-23,16,1895-04-23
USS America,1960-11-25,75,1965-01-23
USS Allen M. Sumner,1942-08-07,12,1944-01-26
USS Alexander Hamilton,1960-07-22,10,1963-06-27
USS Albert David,1963-03-20,13,1968-10-19
USS Albacore,1950-11-24,8,1953-12-06
USS Alaska,1940-09-09,27,1944-06-17
USS Alabama,1939-04-01,32,1942-08-16
USS Ajax,1862-09-15,13,1871-01-01
USS Ainsworth,1966-08-25,14,1973-03-31
USS Acme,1941-05-17,6,1941-09-11
USS Achomawi,1943-10-13,11,1944-11-11
USS Accokeek,1943-08-16,10,1944-10-07
USS Acadia,1976-03-11,25,1981-06-06
