col0,col1,col2,col3
Ski jumping at the 2002 Winter Olympics – Large hill individual,M. Hautamäki,Ski jumping at the 2006 Winter Olympics – Large hill individual,Ski jumping at the 1998 Winter Olympics – Large hill individual
Ski jumping at the 1998 Winter Olympics – Normal hill individual,A. Widhölzl,Ski jumping at the 2002 Winter Olympics – Normal hill individual,Ski jumping at the 1994 Winter Olympics – Normal hill individual
Ski jumping at the 1998 Winter Olympics – Large hill team,R. Schwarzenberger,Ski jumping at the 2002 Winter Olympics – Large hill team,Ski jumping at the 1994 Winter Olympics – Large hill team
Ski jumping at the 1998 Winter Olympics – Large hill individual,M. Harada,Ski jumping at the 2002 Winter Olympics – Large hill individual,Ski jumping at the 1994 Winter Olympics – Large hill individual
Ski jumping at the 1998 Winter Olympics – Normal hill individual,A. Widhölzl,Ski jumping at the 2002 Winter Olympics – Normal hill individual,Ski jumping at the 1994 Winter Olympics – Normal hill individual
Ski jumping at the 1998 Winter Olympics – Large hill team,A. Widhölzl,Ski jumping at the 2002 Winter Olympics – Large hill team,Ski jumping at the 1994 Winter Olympics – Large hill team
Ski jumping at the 1998 Winter Olympics – Large hill individual,M. Harada,Ski jumping at the 2002 Winter Olympics – Large hill individual,Ski jumping at the 1994 Winter Olympics – Large hill individual
Ski jumping at the 1994 Winter Olympics – Normal hill individual,D. Thoma,Ski jumping at the 1998 Winter Olympics – Normal hill individual,Ski jumping at the 1992 Winter Olympics – Normal hill individual
Ski jumping at the 1994 Winter Olympics – Large hill team,A. Goldberger,Ski jumping at the 1998 Winter Olympics – Large hill team,Ski jumping at the 1992 Winter Olympics – Large hill team
Ski jumping at the 1994 Winter Olympics – Large hill individual,A. Goldberger,Ski jumping at the 1998 Winter Olympics – Large hill individual,Ski jumping at the 1992 Winter Olympics – Large hill individual
Ski jumping at the 1994 Winter Olympics – Normal hill individual,D. Thoma,Ski jumping at the 1998 Winter Olympics – Normal hill individual,Ski jumping at the 1992 Winter Olympics – Normal hill individual
Ski jumping at the 1994 Winter Olympics – Large hill team,A. Goldberger,Ski jumping at the 1998 Winter Olympics – Large hill team,Ski jumping at the 1992 Winter Olympics – Large hill team
Ski jumping at the 1994 Winter Olympics – Large hill individual,A. Goldberger,Ski jumping at the 1998 Winter Olympics – Large hill individual,Ski jumping at the 1992 Winter Olympics – Large hill individual
Ski jumping at the 1992 Winter Olympics – Normal hill individual,T. Nieminen,Ski jumping at the 1994 Winter Olympics – Normal hill individual,Ski jumping at the 1988 Winter Olympics – Normal hill individual
Ski jumping at the 1992 Winter Olympics – Large hill team,J. Parma,Ski jumping at the 1994 Winter Olympics – Large hill team,Ski jumping at the 1988 Winter Olympics – Large hill team
Ski jumping at the 1992 Winter Olympics – Large hill individual,H. Kuttin,Ski jumping at the 1994 Winter Olympics – Large hill individual,Ski jumping at the 1988 Winter Olympics – Large hill individual
Ski jumping at the 1992 Winter Olympics – Normal hill individual,T. Nieminen,Ski jumping at the 1994 Winter Olympics – Normal hill individual,Ski jumping at the 1988 Winter Olympics – Normal hill individual
Ski jumping at the 1992 Winter Olympics – Large hill team,J. Sakala,Ski jumping at the 1994 Winter Olympics – Large hill team,Ski jumping at the 1988 Winter Olympics – Large hill team
Ski jumping at the 1992 Winter Olympics – Large hill individual,H. Kuttin,Ski jumping at the 1994 Winter Olympics – Large hill individual,Ski jumping at the 1988 Winter Olympics – Large hill individual
Ski jumping at the 1988 Winter Olympics – Normal hill individual,J. Malec,Ski jumping at the 1992 Winter Olympics – Normal hill individual,Ski jumping at the 1984 Winter Olympics – Normal hill individual
Ski jumping at the 1988 Winter Olympics – Large hill individual,M. Debelak,Ski jumping at the 1992 Winter Olympics – Large hill individual,Ski jumping at the 1984 Winter Olympics – Large hill individual
Ski jumping at the 1988 Winter Olympics – Normal hill individual,J. Malec,Ski jumping at the 1992 Winter Olympics – Normal hill individual,Ski jumping at the 1984 Winter Olympics – Normal hill individual
Ski jumping at the 1988 Winter Olympics – Large hill individual,M. Debelak,Ski jumping at the 1992 Winter Olympics – Large hill individual,Ski jumping at the 1984 Winter Olympics – Large hill individual
Ski jumping at the 1984 Winter Olympics – Normal hill individual,J. Puikkonen,Ski jumping at the 1988 Winter Olympics – Normal hill individual,Ski jumping at the 1980 Winter Olympics – Normal hill individual
Ski jumping at the 1984 Winter Olympics – Large hill individual,P. Ploc,Ski jumping at the 1988 Winter Olympics – Large hill individual,Ski jumping at the 1980 Winter Olympics – Large hill individual
Ski jumping at the 1984 Winter Olympics – Normal hill individual,J. Puikkonen,Ski jumping at the 1988 Winter Olympics – Normal hill individual,Ski jumping at the 1980 Winter Olympics – Normal hill individual
Ski jumping at the 1984 Winter Olympics – Large hill individual,P. Ploc,Ski jumping at the 1988 Winter Olympics – Large hill individual,Ski jumping at the 1980 Winter Olympics – Large hill individual
Ski jumping at the 1980 Winter Olympics – Large hill individual,J. Puikkonen,Ski jumping at the 1984 Winter Olympics – Large hill individual,Ski jumping at the 1976 Winter Olympics – Large hill individual
Ski jumping at the 1976 Winter Olympics – Normal hill individual,K. Schnabl,Ski jumping at the 1980 Winter Olympics – Normal hill individual,Ski jumping at the 1972 Winter Olympics – Normal hill individual
Ski jumping at the 1976 Winter Olympics – Large hill individual,H. Glaß,Ski jumping at the 1980 Winter Olympics – Large hill individual,Ski jumping at the 1972 Winter Olympics – Large hill individual
Ski jumping at the 1976 Winter Olympics – Normal hill individual,K. Schnabl,Ski jumping at the 1980 Winter Olympics – Normal hill individual,Ski jumping at the 1972 Winter Olympics – Normal hill individual
Ski jumping at the 1976 Winter Olympics – Large hill individual,H. Glaß,Ski jumping at the 1980 Winter Olympics – Large hill individual,Ski jumping at the 1972 Winter Olympics – Large hill individual
Ski jumping at the 1972 Winter Olympics – Normal hill individual,S. Aochi,Ski jumping at the 1976 Winter Olympics – Normal hill individual,Ski jumping at the 1968 Winter Olympics – Normal hill individual
Ski jumping at the 1972 Winter Olympics – Large hill individual,R. Schmidt,Ski jumping at the 1976 Winter Olympics – Large hill individual,Ski jumping at the 1968 Winter Olympics – Large hill individual
Ski jumping at the 1972 Winter Olympics – Normal hill individual,S. Aochi,Ski jumping at the 1976 Winter Olympics – Normal hill individual,Ski jumping at the 1968 Winter Olympics – Normal hill individual
Ski jumping at the 1972 Winter Olympics – Large hill individual,R. Schmidt,Ski jumping at the 1976 Winter Olympics – Large hill individual,Ski jumping at the 1968 Winter Olympics – Large hill individual
Ski jumping at the 1968 Winter Olympics – Normal hill individual,B. Preiml,Ski jumping at the 1972 Winter Olympics – Normal hill individual,Ski jumping at the 1964 Winter Olympics – Normal hill individual
Ski jumping at the 1968 Winter Olympics – Large hill individual,L. Grini,Ski jumping at the 1972 Winter Olympics – Large hill individual,Ski jumping at the 1964 Winter Olympics – Large hill individual
Ski jumping at the 1968 Winter Olympics – Normal hill individual,B. Preiml,Ski jumping at the 1972 Winter Olympics – Normal hill individual,Ski jumping at the 1964 Winter Olympics – Normal hill individual
Ski jumping at the 1968 Winter Olympics – Large hill individual,L. Grini,Ski jumping at the 1972 Winter Olympics – Large hill individual,Ski jumping at the 1964 Winter Olympics – Large hill individual
Ski jumping at the 1964 Winter Olympics – Normal hill individual,T. Brandtzæg,Ski jumping at the 1968 Winter Olympics – Normal hill individual,Ski jumping at the 1960 Winter Olympics
Ski jumping at the 1960 Winter Olympics,O. Leodolter,Ski jumping at the 1964 Winter Olympics,Ski jumping at the 1956 Winter Olympics
Ski jumping at the 1956 Winter Olympics,H. Glaß,Ski jumping at the 1960 Winter Olympics,Ski jumping at the 1952 Winter Olympics
Ski jumping at the 1952 Winter Olympics,K. Holmström,Ski jumping at the 1956 Winter Olympics,Ski jumping at the 1948 Winter Olympics
Ski jumping at the 1948 Winter Olympics,T. Schjelderup,Ski jumping at the 1952 Winter Olympics,Ski jumping at the 1936 Winter Olympics
Ski jumping at the 1936 Winter Olympics,R. Andersen,Ski jumping at the 1948 Winter Olympics,Ski jumping at the 1932 Winter Olympics
Ski jumping at the 1932 Winter Olympics,K. Walberg,Ski jumping at the 1936 Winter Olympics,Ski jumping at the 1928 Winter Olympics
Ski jumping at the 1928 Winter Olympics,R. Burkert,Ski jumping at the 1932 Winter Olympics,Ski jumping at the 1924 Winter Olympics
Skeleton at the 2010 Winter Olympics – Women's,A. Huber,Skeleton at the 2014 Winter Olympics – Women's,Skeleton at the 2006 Winter Olympics – Women's
Skeleton at the 2010 Winter Olympics – Men's,A. Tretyakov,Skeleton at the 2014 Winter Olympics – Men's,Skeleton at the 2006 Winter Olympics – Men's
Skeleton at the 2010 Winter Olympics – Women's,A. Huber,Skeleton at the 2014 Winter Olympics – Women's,Skeleton at the 2006 Winter Olympics – Women's
Skeleton at the 2010 Winter Olympics – Men's,A. Tretyakov,Skeleton at the 2014 Winter Olympics – Men's,Skeleton at the 2006 Winter Olympics – Men's
Skeleton at the 2006 Winter Olympics – Women's,M. Hollingsworth,Skeleton at the 2010 Winter Olympics – Women's,Skeleton at the 2002 Winter Olympics – Women's
Skeleton at the 2006 Winter Olympics – Men's,G. Stähli,Skeleton at the 2010 Winter Olympics – Men's,Skeleton at the 2002 Winter Olympics – Men's
Skeleton at the 2006 Winter Olympics – Women's,M. Hollingsworth,Skeleton at the 2010 Winter Olympics – Women's,Skeleton at the 2002 Winter Olympics – Women's
Skeleton at the 2006 Winter Olympics – Men's,G. Stähli,Skeleton at the 2010 Winter Olympics – Men's,Skeleton at the 2002 Winter Olympics – Men's
Skeleton at the 2006 Winter Olympics,G. Stähli,Skeleton at the 2010 Winter Olympics,Skeleton at the 2002 Winter Olympics
Skeleton at the 2002 Winter Olympics – Men's,G. Stähli,Skeleton at the 2006 Winter Olympics – Men's,Skeleton at the 1948 Winter Olympics
Skeleton at the 2002 Winter Olympics,G. Stähli,Skeleton at the 2006 Winter Olympics,Skeleton at the 1948 Winter Olympics
Skeleton at the 1948 Winter Olympics,J. Crammond,Skeleton at the 2002 Winter Olympics,Skeleton at the 1928 Winter Olympics
Short track speed skating at the 2010 Winter Olympics – Women's 500 metres,A. Fontana,Short track speed skating at the 2014 Winter Olympics – Women's 500 metres,Short track speed skating at the 2006 Winter Olympics – Women's 500 metres
Short track speed skating at the 2010 Winter Olympics – Women's 3000 metre relay,K. Derrick,Short track speed skating at the 2014 Winter Olympics – Women's 3000 metre relay,Short track speed skating at the 2006 Winter Olympics – Women's 3000 metre relay
Short track speed skating at the 2010 Winter Olympics – Women's 1500 metres,P. Seung-hi,Short track speed skating at the 2014 Winter Olympics – Women's 1500 metres,Short track speed skating at the 2006 Winter Olympics – Women's 1500 metres
Short track speed skating at the 2010 Winter Olympics – Women's 1000 metres,P. Seung-hi,Short track speed skating at the 2014 Winter Olympics – Women's 1000 metres,Short track speed skating at the 2006 Winter Olympics – Women's 1000 metres
Short track speed skating at the 2010 Winter Olympics – Men's 500 metres,F. Tremblay,Short track speed skating at the 2014 Winter Olympics – Men's 500 metres,Short track speed skating at the 2006 Winter Olympics – Men's 500 metres
Short track speed skating at the 2010 Winter Olympics – Men's 5000 metre relay,A. Ohno,Short track speed skating at the 2014 Winter Olympics – Men's 5000 metre relay,Short track speed skating at the 2006 Winter Olympics – Men's 5000 metre relay
Short track speed skating at the 2010 Winter Olympics – Men's 1500 metres,J. R. Celski,Short track speed skating at the 2014 Winter Olympics – Men's 1500 metres,Short track speed skating at the 2006 Winter Olympics – Men's 1500 metres
Short track speed skating at the 2010 Winter Olympics – Men's 1000 metres,A. A. Ohno,Short track speed skating at the 2014 Winter Olympics – Men's 1000 metres,Short track speed skating at the 2006 Winter Olympics – Men's 1000 metres
Short track speed skating at the 2010 Winter Olympics – Women's 500 metres,A. Fontana,Short track speed skating at the 2014 Winter Olympics – Women's 500 metres,Short track speed skating at the 2006 Winter Olympics – Women's 500 metres
Short track speed skating at the 2010 Winter Olympics – Women's 3000 metre relay,K. Derrick,Short track speed skating at the 2014 Winter Olympics – Women's 3000 metre relay,Short track speed skating at the 2006 Winter Olympics – Women's 3000 metre relay
Short track speed skating at the 2010 Winter Olympics – Women's 1500 metres,P. Seung-hi,Short track speed skating at the 2014 Winter Olympics – Women's 1500 metres,Short track speed skating at the 2006 Winter Olympics – Women's 1500 metres
Short track speed skating at the 2010 Winter Olympics – Women's 1000 metres,P. Seung-hi,Short track speed skating at the 2014 Winter Olympics – Women's 1000 metres,Short track speed skating at the 2006 Winter Olympics – Women's 1000 metres
Short track speed skating at the 2010 Winter Olympics – Men's 500 metres,F. Tremblay,Short track speed skating at the 2014 Winter Olympics – Men's 500 metres,Short track speed skating at the 2006 Winter Olympics – Men's 500 metres
Short track speed skating at the 2010 Winter Olympics – Men's 5000 metre relay,A. Ohno,Short track speed skating at the 2014 Winter Olympics – Men's 5000 metre relay,Short track speed skating at the 2006 Winter Olympics – Men's 5000 metre relay
Short track speed skating at the 2010 Winter Olympics – Men's 1500 metres,J. R. Celski,Short track speed skating at the 2014 Winter Olympics – Men's 1500 metres,Short track speed skating at the 2006 Winter Olympics – Men's 1500 metres
Short track speed skating at the 2010 Winter Olympics – Men's 1000 metres,A. A. Ohno,Short track speed skating at the 2014 Winter Olympics – Men's 1000 metres,Short track speed skating at the 2006 Winter Olympics – Men's 1000 metres
Short track speed skating at the 2006 Winter Olympics – Women's 500 metres,A. Leblanc-Boucher,Short track speed skating at the 2010 Winter Olympics – Women's 500 metres,Short track speed skating at the 2002 Winter Olympics – Women's 500 metres
Short track speed skating at the 2006 Winter Olympics – Women's 3000 metre relay,K. Zini,Short track speed skating at the 2010 Winter Olympics – Women's 3000 metre relay,Short track speed skating at the 2002 Winter Olympics – Women's 3000 metre relay
Short track speed skating at the 2006 Winter Olympics – Women's 1500 metres,W. Meng,Short track speed skating at the 2010 Winter Olympics – Women's 1500 metres,Short track speed skating at the 2002 Winter Olympics – Women's 1500 metres
Short track speed skating at the 2006 Winter Olympics – Women's 1000 metres,Y. Yang,Short track speed skating at the 2010 Winter Olympics – Women's 1000 metres,Short track speed skating at the 2002 Winter Olympics – Women's 1000 metres
Short track speed skating at the 2006 Winter Olympics – Men's 500 metres,A. Hyun-soo,Short track speed skating at the 2010 Winter Olympics – Men's 500 metres,Short track speed skating at the 2002 Winter Olympics – Men's 500 metres
Short track speed skating at the 2006 Winter Olympics – Men's 5000 metre relay,A. Lobello,Short track speed skating at the 2010 Winter Olympics – Men's 5000 metre relay,Short track speed skating at the 2002 Winter Olympics – Men's 5000 metre relay
Short track speed skating at the 2006 Winter Olympics – Men's 1500 metres,L. Jiajun,Short track speed skating at the 2010 Winter Olympics – Men's 1500 metres,Short track speed skating at the 2002 Winter Olympics – Men's 1500 metres
Short track speed skating at the 2006 Winter Olympics – Men's 1000 metres,A. A. Ohno,Short track speed skating at the 2010 Winter Olympics – Men's 1000 metres,Short track speed skating at the 2002 Winter Olympics – Men's 1000 metres
Short track speed skating at the 2006 Winter Olympics – Women's 500 metres,A. Leblanc-Boucher,Short track speed skating at the 2010 Winter Olympics – Women's 500 metres,Short track speed skating at the 2002 Winter Olympics – Women's 500 metres
Short track speed skating at the 2006 Winter Olympics – Women's 3000 metre relay,A. Fontana,Short track speed skating at the 2010 Winter Olympics – Women's 3000 metre relay,Short track speed skating at the 2002 Winter Olympics – Women's 3000 metre relay
Short track speed skating at the 2006 Winter Olympics – Women's 1500 metres,W. Meng,Short track speed skating at the 2010 Winter Olympics – Women's 1500 metres,Short track speed skating at the 2002 Winter Olympics – Women's 1500 metres
Short track speed skating at the 2006 Winter Olympics – Women's 1000 metres,Y. Yang,Short track speed skating at the 2010 Winter Olympics – Women's 1000 metres,Short track speed skating at the 2002 Winter Olympics – Women's 1000 metres
Short track speed skating at the 2006 Winter Olympics – Men's 500 metres,A. Hyun-soo,Short track speed skating at the 2010 Winter Olympics – Men's 500 metres,Short track speed skating at the 2002 Winter Olympics – Men's 500 metres
Short track speed skating at the 2006 Winter Olympics – Men's 5000 metre relay,A. A. Ohno,Short track speed skating at the 2010 Winter Olympics – Men's 5000 metre relay,Short track speed skating at the 2002 Winter Olympics – Men's 5000 metre relay
Short track speed skating at the 2006 Winter Olympics – Men's 1500 metres,L. Jiajun,Short track speed skating at the 2010 Winter Olympics – Men's 1500 metres,Short track speed skating at the 2002 Winter Olympics – Men's 1500 metres
Short track speed skating at the 2006 Winter Olympics – Men's 1000 metres,A. A. Ohno,Short track speed skating at the 2010 Winter Olympics – Men's 1000 metres,Short track speed skating at the 2002 Winter Olympics – Men's 1000 metres
Short track speed skating at the 2002 Winter Olympics – Women's 500 metres,W. Chunlu,Short track speed skating at the 2006 Winter Olympics – Women's 500 metres,Short track speed skating at the 1998 Winter Olympics – Women's 500 metres
Short track speed skating at the 2002 Winter Olympics – Women's 3000 metre relay,A. Kraus,Short track speed skating at the 2006 Winter Olympics – Women's 3000 metre relay,Short track speed skating at the 1998 Winter Olympics – Women's 3000 metre relay
Short track speed skating at the 2002 Winter Olympics – Women's 1000 metres,Y. Yang,Short track speed skating at the 2006 Winter Olympics – Women's 1000 metres,Short track speed skating at the 1998 Winter Olympics – Women's 1000 metres
Short track speed skating at the 2002 Winter Olympics – Men's 500 metres,R. Smith,Short track speed skating at the 2006 Winter Olympics – Men's 500 metres,Short track speed skating at the 1998 Winter Olympics – Men's 500 metres
Short track speed skating at the 2002 Winter Olympics – Men's 5000 metre relay,A. Yulong,Short track speed skating at the 2006 Winter Olympics – Men's 5000 metre relay,Short track speed skating at the 1998 Winter Olympics – Men's 5000 metre relay
Short track speed skating at the 2002 Winter Olympics – Men's 1000 metres,M. Turcotte,Short track speed skating at the 2006 Winter Olympics – Men's 1000 metres,Short track speed skating at the 1998 Winter Olympics – Men's 1000 metres
Short track speed skating at the 2002 Winter Olympics – Women's 500 metres,W. Chunlu,Short track speed skating at the 2006 Winter Olympics – Women's 500 metres,Short track speed skating at the 1998 Winter Olympics – Women's 500 metres
Short track speed skating at the 2002 Winter Olympics – Women's 3000 metre relay,M. Drolet,Short track speed skating at the 2006 Winter Olympics – Women's 3000 metre relay,Short track speed skating at the 1998 Winter Olympics – Women's 3000 metre relay
Short track speed skating at the 2002 Winter Olympics – Women's 1000 metres,Y. Yang,Short track speed skating at the 2006 Winter Olympics – Women's 1000 metres,Short track speed skating at the 1998 Winter Olympics – Women's 1000 metres
Short track speed skating at the 2002 Winter Olympics – Men's 500 metres,R. Smith,Short track speed skating at the 2006 Winter Olympics – Men's 500 metres,Short track speed skating at the 1998 Winter Olympics – Men's 500 metres
Short track speed skating at the 2002 Winter Olympics – Men's 5000 metre relay,A. Yulong,Short track speed skating at the 2006 Winter Olympics – Men's 5000 metre relay,Short track speed skating at the 1998 Winter Olympics – Men's 5000 metre relay
Short track speed skating at the 2002 Winter Olympics – Men's 1000 metres,M. Turcotte,Short track speed skating at the 2006 Winter Olympics – Men's 1000 metres,Short track speed skating at the 1998 Winter Olympics – Men's 1000 metres
Short track speed skating at the 1998 Winter Olympics – Women's 500 metres,C. Lee-Kyung,Short track speed skating at the 2002 Winter Olympics – Women's 500 metres,Short track speed skating at the 1994 Winter Olympics – Women's 500 metres
Short track speed skating at the 1998 Winter Olympics – Women's 3000 metre relay,A. Perreault,Short track speed skating at the 2002 Winter Olympics – Women's 3000 metre relay,Short track speed skating at the 1994 Winter Olympics – Women's 3000 metre relay
Short track speed skating at the 1998 Winter Olympics – Women's 1000 metres,W. Hye-kyung,Short track speed skating at the 2002 Winter Olympics – Women's 1000 metres,Short track speed skating at the 1994 Winter Olympics – Women's 1000 metres
Short track speed skating at the 1998 Winter Olympics – Men's 500 metres,H. Uematsu,Short track speed skating at the 2002 Winter Olympics – Men's 500 metres,Short track speed skating at the 1994 Winter Olympics – Men's 500 metres
Short track speed skating at the 1998 Winter Olympics – Men's 5000 metre relay,A. Yulong,Short track speed skating at the 2002 Winter Olympics – Men's 5000 metre relay,Short track speed skating at the 1994 Winter Olympics – Men's 5000 metre relay
Short track speed skating at the 1998 Winter Olympics – Men's 1000 metres,É. Bédard,Short track speed skating at the 2002 Winter Olympics – Men's 1000 metres,Short track speed skating at the 1994 Winter Olympics – Men's 1000 metres
Short track speed skating at the 1998 Winter Olympics – Women's 500 metres,C. Lee-Kyung,Short track speed skating at the 2002 Winter Olympics – Women's 500 metres,Short track speed skating at the 1994 Winter Olympics – Women's 500 metres
Short track speed skating at the 1998 Winter Olympics – Women's 3000 metre relay,A. Perreault,Short track speed skating at the 2002 Winter Olympics – Women's 3000 metre relay,Short track speed skating at the 1994 Winter Olympics – Women's 3000 metre relay
Short track speed skating at the 1998 Winter Olympics – Women's 1000 metres,W. Hye-kyung,Short track speed skating at the 2002 Winter Olympics – Women's 1000 metres,Short track speed skating at the 1994 Winter Olympics – Women's 1000 metres
Short track speed skating at the 1998 Winter Olympics – Men's 500 metres,H. Uematsu,Short track speed skating at the 2002 Winter Olympics – Men's 500 metres,Short track speed skating at the 1994 Winter Olympics – Men's 500 metres
Short track speed skating at the 1998 Winter Olympics – Men's 5000 metre relay,A. Yulong,Short track speed skating at the 2002 Winter Olympics – Men's 5000 metre relay,Short track speed skating at the 1994 Winter Olympics – Men's 5000 metre relay
Short track speed skating at the 1998 Winter Olympics – Men's 1000 metres,É. Bédard,Short track speed skating at the 2002 Winter Olympics – Men's 1000 metres,Short track speed skating at the 1994 Winter Olympics – Men's 1000 metres
Short track speed skating at the 1994 Winter Olympics – Women's 500 metres,A. Peterson,Short track speed skating at the 1998 Winter Olympics – Women's 500 metres,Short track speed skating at the 1992 Winter Olympics – Women's 500 metres
Short track speed skating at the 1994 Winter Olympics – Women's 3000 metre relay,C. Turner,Short track speed skating at the 1998 Winter Olympics – Women's 3000 metre relay,Short track speed skating at the 1992 Winter Olympics – Women's 3000 metre relay
Short track speed skating at the 1994 Winter Olympics – Men's 5000 metre relay,S. Bradbury,Short track speed skating at the 1998 Winter Olympics – Men's 5000 metre relay,Short track speed skating at the 1992 Winter Olympics – Men's 5000 metre relay
Short track speed skating at the 1994 Winter Olympics – Men's 1000 metres,M. Gagnon,Short track speed skating at the 1998 Winter Olympics – Men's 1000 metres,Short track speed skating at the 1992 Winter Olympics – Men's 1000 metres
Short track speed skating at the 1994 Winter Olympics – Women's 500 metres,A. Peterson,Short track speed skating at the 1998 Winter Olympics – Women's 500 metres,Short track speed skating at the 1992 Winter Olympics – Women's 500 metres
Short track speed skating at the 1994 Winter Olympics – Women's 3000 metre relay,C. Turner,Short track speed skating at the 1998 Winter Olympics – Women's 3000 metre relay,Short track speed skating at the 1992 Winter Olympics – Women's 3000 metre relay
Short track speed skating at the 1994 Winter Olympics – Men's 5000 metre relay,S. Bradbury,Short track speed skating at the 1998 Winter Olympics – Men's 5000 metre relay,Short track speed skating at the 1992 Winter Olympics – Men's 5000 metre relay
Short track speed skating at the 1994 Winter Olympics – Men's 1000 metres,M. Gagnon,Short track speed skating at the 1998 Winter Olympics – Men's 1000 metres,Short track speed skating at the 1992 Winter Olympics – Men's 1000 metres
Shooting at the 2012 Summer Olympics – Women's trap,D. Reau,Shooting at the 2016 Summer Olympics - Women's trap,Shooting at the 2008 Summer Olympics - Women's trap
Shooting at the 2012 Summer Olympics – Women's skeet,D. Barteková,Shooting at the 2016 Summer Olympics - Women's skeet,Shooting at the 2008 Summer Olympics - Women's skeet
Shooting at the 2012 Summer Olympics – Women's 50 metre rifle three positions,A. Sýkorová,Shooting at the 2016 Summer Olympics – Women's 50 metre rifle three positions,Shooting at the 2008 Summer Olympics - Women's 50 metre rifle three positions
Shooting at the 2012 Summer Olympics – Women's 25 metre pistol,O. Kostevych,Shooting at the 2016 Summer Olympics - Women's 25 metre pistol,Shooting at the 2008 Summer Olympics - Women's 25 metre pistol
Shooting at the 2012 Summer Olympics – Women's 10 metre air rifle,Y. Dan,Shooting at the 2016 Summer Olympics – Women's 10 metre air rifle,Shooting at the 2008 Summer Olympics - Women's 10 metre air rifle
Shooting at the 2012 Summer Olympics – Women's 10 metre air pistol,O. Kostevych,Shooting at the 2016 Summer Olympics – Women's 10 metre air pistol,Shooting at the 2008 Summer Olympics - Women's 10 metre air pistol
Shooting at the 2012 Summer Olympics – Men's trap,F. Al-Deehani,Shooting at the 2016 Summer Olympics - Men's trap,Shooting at the 2008 Summer Olympics - Men's trap
Shooting at the 2012 Summer Olympics – Men's skeet,N. Al-Attiyah,Shooting at the 2016 Summer Olympics - Men's skeet,Shooting at the 2008 Summer Olympics - Men's skeet
Shooting at the 2012 Summer Olympics – Men's double trap,V. Mosin,Shooting at the 2016 Summer Olympics - Men's double trap,Shooting at the 2008 Summer Olympics - Men's double trap
Shooting at the 2012 Summer Olympics – Men's 50 metre rifle three positions,M. Emmons,Shooting at the 2016 Summer Olympics - Men's 50 metre rifle three positions,Shooting at the 2008 Summer Olympics - Men's 50 metre rifle three positions
Shooting at the 2012 Summer Olympics – Men's 50 metre rifle prone,R. Debevec,Shooting at the 2016 Summer Olympics - Men's 50 metre rifle prone,Shooting at the 2008 Summer Olympics - Men's 50 metre rifle prone
Shooting at the 2012 Summer Olympics – Men's 50 metre pistol,W. Zhiwei,Shooting at the 2016 Summer Olympics – Men's 50 metre pistol,Shooting at the 2008 Summer Olympics - Men's 50 metre pistol
Shooting at the 2012 Summer Olympics – Men's 25 metre rapid fire pistol,D. Feng,Shooting at the 2016 Summer Olympics - Men's 25 metre rapid fire pistol,Shooting at the 2008 Summer Olympics - Men's 25 metre rapid fire pistol
Shooting at the 2012 Summer Olympics – Men's 10 metre air rifle,G. Narang,Shooting at the 2016 Summer Olympics – Men's 10 metre air rifle,Shooting at the 2008 Summer Olympics – Men's 10 metre air rifle
Shooting at the 2012 Summer Olympics – Men's 10 metre air pistol,A. Zlatić,Shooting at the 2016 Summer Olympics – Men's 10 metre air pistol,Shooting at the 2008 Summer Olympics - Men's 10 metre air pistol
Shooting at the 2012 Summer Olympics – Women's trap,D. Reau,Shooting at the 2016 Summer Olympics - Women's trap,Shooting at the 2008 Summer Olympics - Women's trap
Shooting at the 2012 Summer Olympics – Women's skeet,D. Barteková,Shooting at the 2016 Summer Olympics - Women's skeet,Shooting at the 2008 Summer Olympics - Women's skeet
Shooting at the 2012 Summer Olympics – Women's 50 metre rifle three positions,A. Sýkorová,Shooting at the 2016 Summer Olympics – Women's 50 metre rifle three positions,Shooting at the 2008 Summer Olympics - Women's 50 metre rifle three positions
Shooting at the 2012 Summer Olympics – Women's 25 metre pistol,O. Kostevych,Shooting at the 2016 Summer Olympics - Women's 25 metre pistol,Shooting at the 2008 Summer Olympics - Women's 25 metre pistol
Shooting at the 2012 Summer Olympics – Women's 10 metre air rifle,Y. Dan,Shooting at the 2016 Summer Olympics – Women's 10 metre air rifle,Shooting at the 2008 Summer Olympics - Women's 10 metre air rifle
Shooting at the 2012 Summer Olympics – Women's 10 metre air pistol,O. Kostevych,Shooting at the 2016 Summer Olympics – Women's 10 metre air pistol,Shooting at the 2008 Summer Olympics - Women's 10 metre air pistol
Shooting at the 2012 Summer Olympics – Men's trap,F. Al-Deehani,Shooting at the 2016 Summer Olympics - Men's trap,Shooting at the 2008 Summer Olympics - Men's trap
Shooting at the 2012 Summer Olympics – Men's skeet,N. Al-Attiyah,Shooting at the 2016 Summer Olympics - Men's skeet,Shooting at the 2008 Summer Olympics - Men's skeet
Shooting at the 2012 Summer Olympics – Men's double trap,V. Mosin,Shooting at the 2016 Summer Olympics - Men's double trap,Shooting at the 2008 Summer Olympics - Men's double trap
Shooting at the 2012 Summer Olympics – Men's 50 metre rifle three positions,M. Emmons,Shooting at the 2016 Summer Olympics - Men's 50 metre rifle three positions,Shooting at the 2008 Summer Olympics - Men's 50 metre rifle three positions
Shooting at the 2012 Summer Olympics – Men's 50 metre rifle prone,R. Debevec,Shooting at the 2016 Summer Olympics - Men's 50 metre rifle prone,Shooting at the 2008 Summer Olympics - Men's 50 metre rifle prone
Shooting at the 2012 Summer Olympics – Men's 50 metre pistol,W. Zhiwei,Shooting at the 2016 Summer Olympics – Men's 50 metre pistol,Shooting at the 2008 Summer Olympics - Men's 50 metre pistol
Shooting at the 2012 Summer Olympics – Men's 25 metre rapid fire pistol,D. Feng,Shooting at the 2016 Summer Olympics - Men's 25 metre rapid fire pistol,Shooting at the 2008 Summer Olympics - Men's 25 metre rapid fire pistol
Shooting at the 2012 Summer Olympics – Men's 10 metre air rifle,G. Narang,Shooting at the 2016 Summer Olympics – Men's 10 metre air rifle,Shooting at the 2008 Summer Olympics – Men's 10 metre air rifle
Shooting at the 2012 Summer Olympics – Men's 10 metre air pistol,A. Zlatić,Shooting at the 2016 Summer Olympics – Men's 10 metre air pistol,Shooting at the 2008 Summer Olympics - Men's 10 metre air pistol
Shooting at the 2008 Summer Olympics – Women's trap,C. Cogdell,Shooting at the 2012 Summer Olympics – Women's trap,Shooting at the 2004 Summer Olympics - Women's trap
Shooting at the 2008 Summer Olympics – Women's skeet,C. Brinker,Shooting at the 2012 Summer Olympics – Women's skeet,Shooting at the 2004 Summer Olympics - Women's skeet
Shooting at the 2008 Summer Olympics – Women's 50 metre rifle three positions,E. Y. Cruz,Shooting at the 2012 Summer Olympics – Women's 50 metre rifle three positions,Shooting at the 2004 Summer Olympics - Women's 50 metre rifle three positions
Shooting at the 2008 Summer Olympics – Women's 25 metre pistol,M. Dorjsuren,Shooting at the 2012 Summer Olympics – Women's 25 metre pistol,Shooting at the 2004 Summer Olympics - Women's 25 metre pistol
Shooting at the 2008 Summer Olympics – Women's 10 metre air rifle,S. Pejčić,Shooting at the 2012 Summer Olympics – Women's 10 metre air rifle,Shooting at the 2004 Summer Olympics - Women's 10 metre air rifle
Shooting at the 2008 Summer Olympics – Women's 10 metre air pistol,N. Salukvadze,Shooting at the 2012 Summer Olympics – Women's 10 metre air pistol,Shooting at the 2004 Summer Olympics - Women's 10 metre air pistol
Shooting at the 2008 Summer Olympics – Men's trap,A. Alipov,Shooting at the 2012 Summer Olympics – Men's trap,Shooting at the 2004 Summer Olympics - Men's trap
Shooting at the 2008 Summer Olympics – Men's skeet,A. Terras,Shooting at the 2012 Summer Olympics – Men's skeet,Shooting at the 2004 Summer Olympics - Men's skeet
Shooting at the 2008 Summer Olympics – Men's double trap,H. Binyuan,Shooting at the 2012 Summer Olympics – Men's double trap,Shooting at the 2004 Summer Olympics - Men's double trap
Shooting at the 2008 Summer Olympics – Men's 50 metre rifle three positions,R. Debevec,Shooting at the 2012 Summer Olympics – Men's 50 metre rifle three positions,Shooting at the 2004 Summer Olympics - Men's 50 metre rifle three positions
Shooting at the 2008 Summer Olympics – Men's 50 metre rifle prone,W. Potent,Shooting at the 2012 Summer Olympics – Men's 50 metre rifle prone,Shooting at the 2004 Summer Olympics - Men's 50 metre rifle prone
Shooting at the 2008 Summer Olympics – Men's 50 metre pistol,V. Isakov,Shooting at the 2012 Summer Olympics – Men's 50 metre pistol,Shooting at the 2004 Summer Olympics – Men's 50 metre pistol
Shooting at the 2008 Summer Olympics – Men's 25 metre rapid fire pistol,C. Reitz,Shooting at the 2012 Summer Olympics – Men's 25 metre rapid fire pistol,Shooting at the 2004 Summer Olympics - Men's 25 metre rapid fire pistol
Shooting at the 2008 Summer Olympics – Men's 10 metre air rifle,H. Häkkinen,Shooting at the 2012 Summer Olympics – Men's 10 metre air rifle,Shooting at the 2004 Summer Olympics - Men's 10 metre air rifle
Shooting at the 2008 Summer Olympics – Men's 10 metre air pistol,J. Turner,Shooting at the 2012 Summer Olympics – Men's 10 metre air pistol,Shooting at the 2004 Summer Olympics - Men's 10 metre air pistol
Shooting at the 2008 Summer Olympics – Women's trap,C. Cogdell,Shooting at the 2012 Summer Olympics – Women's trap,Shooting at the 2004 Summer Olympics - Women's trap
Shooting at the 2008 Summer Olympics – Women's skeet,C. Brinker,Shooting at the 2012 Summer Olympics – Women's skeet,Shooting at the 2004 Summer Olympics - Women's skeet
