col0,col1,col2,col3
Bowen's disease,D04 (ILDSD04.L10),8081/2,D001913
Benign fibrous histiocytoma,D23(ILDSD23.L62),M8830/0,D018219
Basal-cell carcinoma,C44 (ILDSC44.L21),-8093/3,D002280
Balanitis,N48.1,;,D001446
B-cell lymphoma,C85.1,"9680/0, 9699/3, 9699/3",D016393
B-cell chronic lymphocytic leukemia,C91.1,(CLL),D015451
Atypical teratoid rhabdoid tumor,C70-C72,9508/3,D016543
Astroblastoma,C71.9,9430/3,D018302
Angiomyolipoma,D30.0,M8860/0,D018207
Angiokeratoma,D23 (ILDSD23.L74),M9141/0,D000794
Angioimmunoblastic T-cell lymphoma,C86.5(ILDSC84.460),9705/3,D007119
Ameloblastoma,D16.4-D16.5,9310/0,D000564
