col0,col1,col2,col3
Zurbrugg Mansion,"Furness, Evans & Co.",10117,10117
Zion Chapter House,"Helfensteller, Hirsch and Watson",4451,4451
Youth's Companion Building,H. a. Richardson,2428,2428
Young Women's Christian Association Building,S. a. Hussey,2023,2023
Yosemite Valley,F. L. Olmsted,15378054,15378054
York Historic District,D. J. A.,2925067,2925067
York Dispatch Newspaper Offices,G. L. Mesker,809,809
Yell County Courthouse,F. W. Gibb,4046,4046
Wyuka Cemetery,L. A. Lamoreaux,501810,501810
Wyck House,W. Strickland,8093,8093
Worumbo Mill,W. H. Stevens,20234,20234
Woodward Federal Courthouse and Post Office,J. A. Wetmore,4046,4046
Woodstock Hill Historic District,J. C. Wells,404685,404685
Woodrow Wilson Junior High School,F. M. White,6879,6879
Woodmont,W. Price,291373,291373
Woodlawn School,B. &. Thomson,17806,17806
Woodlawn Garden of Memories Cemetery,D. Rodriguez,140830,140830
Woodlawn,R. Upjohn,169967,169967
Woodland Cemetery,J. Wood,182108,182108
Woodbridge Masonic Lodge No. 131,C. Beasley,404,404
Wood County Courthouse and Jail,T. Townsend,97124,97124
Wood County Courthouse,L. W. Thomas,5260,5260
Woman's Club House,"Helfensteller, Hirsch & Watson",4046,4046
Wise County Courthouse,F. P. Milburn,4046,4046
Winton Place Methodist Episcopal Church,S. Hannaford,4046,4046
Winthrop Shore Drive,O. Brothers,24281,24281
Winterset Courthouse Square Commercial Historic District,A. H. Piquenard,64749,64749
Winnie Davis Hall,W. A. Edwards,1214,1214
Winn Memorial Library,H. H. Richardson,6879,6879
Wills Eye Hospital,J. T. Windrim,3237,3237
Williston-West Church and Parish House,J. C. Stevens,2023,2023
Willimantic Elks Club,C. &. Thompson,16592,16592
Willimantic Armory,W. &. McMahon,9307,9307
Williamson School,W. L. Perkins,8093,8093
Williamsbridge Reservoir,A. E. II,76364,76364
William W. Kimball House,S. S. Beman,24685,24685
William M. Shaw House,W. E. Mansur,18210,18210
William M. Blair,D. Adler,36421,36421
William L. Slayton House,I. Pei,647,647
William Jennings Bryan House,S. &. Carrier,2428,2428
William H. Lewis Model House,E. F. Lawrence,1375,1375
William Gedamke House,G. F. Barber,1699,1699
William E. Boeing House,C. Bebb,20234,20234
William Clark House,W. H. Wood,10117,10117
William Augustus Bootle Federal Building and United States Courthouse,J. K. Taylor,4046,4046
William A. Haseltine House,J. Parker,1214,1214
Willard Library,J. W. Reid,18210,18210
Willard D. Purdy Junior High and Vocational School,P. &. Dockendorff,8093,8093
Wilkinson House,C. K. Colley,40468,40468
