col0,col1,col2,col3,col4
J. Hancock,Harvard University,D. Quincy,1793-10-08,1737-01-23
J. C. West,The Citadel,L. R. West,2004-03-21,1922-08-27
J. C. Frémont,College of Charleston,J. B. Frémont,1890-07-13,1813-01-21
H. Gibbs,"Trinity College, Cambridge",Order of the British Empire,1990-11-05,1902-11-22
H. M. Mathews,University of Virginia,L. F. Mathews,1884-04-28,1834-03-29
H. L. III,Princeton University,Anne Hill Carter Lee,1818-03-25,1756-01-29
"Harold Alexander, 1st Earl Alexander of Tunis",Harrow School,"Margaret Alexander, Countess Alexander of Tunis",1969-06-16,1891-12-10
E. W. Marland,University of Michigan Law School,L. R. Marland,1941-10-03,1874-05-08
D. F. Bartlett,Princeton University,A. Bartlett,1979-03-01,1919-03-28
D. Moody,University of Texas Law School,M. P. Moody,1966-05-22,1893-06-01
B. Mboi,University of Indonesia,N. Mboi,2015-06-23,1935-05-22
A. Ames,United States Military Academy,B. B. Ames,1933-04-13,1835-10-31
