col0,col1,col2,col3,col4
L. Floyd,Chicago Bears,Chicago Bears,1992-09-08,9
L. Hall,Cincinnati Bengals,New York Giants,1984-12-09,18
L. Smith,Buffalo Bills,Oakland Raiders,1987-11-21,159
L. Bell,Pittsburgh Steelers,Pittsburgh Steelers,1992-02-18,48
L. Wilson,Carolina Panthers,Free agent,1987-11-16,166
L. Timmons,Pittsburgh Steelers,Pittsburgh Steelers,1986-05-14,15
L. David,Tampa Bay Buccaneers,Tampa Bay Buccaneers,1990-01-23,58
L. Edwards,Oakland Raiders,Indianapolis Colts,1990-04-29,142
L. Duvernay-Tardif,Kansas City Chiefs,Kansas City Chiefs,1991-02-11,200
L. Murray,Oakland Raiders,Oakland Raiders,1990-01-18,181
L. W. III,Carolina Panthers,Carolina Panthers,1990-02-14,136
L. Warford,Detroit Lions,Detroit Lions,1991-06-18,65
L. Fitzgerald,Arizona Cardinals,Arizona Cardinals,1983-8-31,3
L. Webb,Baltimore Ravens,Baltimore Ravens,1985-10-12,88
L. Treadwell,Minnesota Vikings,Minnesota Vikings,1995-06-14,23
L. Johnson,Philadelphia Eagles,Philadelphia Eagles,1990-5-8,4
L. Jones,Pittsburgh Steelers,Pittsburgh Steelers,1989-04-04,115
L. Collins,New York Giants,New York Giants,1993-1-1,33
L. Barrow,Chicago Bears,Chicago Bears,1990-11-29,156
L. Joyner,History of the St. Louis Rams,Los Angeles Rams,1990-11-27,41
L. Miller,Houston Texans,Houston Texans,1991-04-25,97
L. Tomlinson,Detroit Lions,Detroit Lions,1992-02-09,28
L. Edwards,New York Jets,New York Jets,1992-04-27,235
K. Fackrell,Green Bay Packers,Green Bay Packers,1991-11-25,88
K. Wilson,New Orleans Saints,New Orleans Saints,1987-05-30,29
K. Williams,Buffalo Bills,Buffalo Bills,1983-06-10,134
K. Wilber,Dallas Cowboys,Dallas Cowboys,1989-04-26,113
K. V. Noy,Detroit Lions,Detroit Lions,1991-03-26,40
K. Rudolph,Minnesota Vikings,Minnesota Vikings,1989-11-09,43
K. Murphy,Green Bay Packers,Green Bay Packers,1993-12-11,200
K. Long,Chicago Bears,Chicago Bears,1988-12-05,20
K. Juszczyk,Baltimore Ravens,Baltimore Ravens,1991-04-23,130
K. Fuller,Chicago Bears,Chicago Bears,1992-02-16,14
K. Alexander,Tampa Bay Buccaneers,Tampa Bay Buccaneers,1994-08-03,124
K. Sokoli,Indianapolis Colts,Indianapolis Colts,1991-09-24,214
K. Kocurek,Seattle Seahawks,Detroit Lions,1978-11-15,237
K. Urbik,Buffalo Bills,Miami Dolphins,1985-09-23,79
K. Toomer,Dallas Cowboys,San Diego Chargers,1988-12-09,154
K. Listenbee,Buffalo Bills,Buffalo Bills,1994-1-25,192
K. Davis,Green Bay Packers,Green Bay Packers,1991-10-5,96
K. Cousins,Washington Redskins,Washington Redskins,1988-08-19,102
K. Alonso,Buffalo Bills,Miami Dolphins,1990-08-14,46
K. Thornton,Detroit Lions,Detroit Lions,1989-11-21,85
K. Mack,Oakland Raiders,Oakland Raiders,1991-02-22,5
K. Seymour,Buffalo Bills,Buffalo Bills,1993-11-30,218
K. Zeitler,Cincinnati Bengals,Cincinnati Bengals,1990-03-08,27
K. White,Chicago Bears,Chicago Bears,1992-06-25,7
K. Thomas,Indianapolis Colts,Free agent,1986-09-20,94
K. Smith,Detroit Lions,Free agent,1986-12-17,64
K. Pierre-Louis,Seattle Seahawks,Seattle Seahawks,1991-10-07,132
K. Pamphile,Tampa Bay Buccaneers,Tampa Bay Buccaneers,1990-11-27,149
K. Norwood,Carolina Panthers,San Diego Chargers,1989-09-23,123
K. Minter,Arizona Cardinals,Arizona Cardinals,1990-12-03,45
K. Johnson,Houston Texans,Houston Texans,1992-08-05,16
K. Dodd,Tennessee Titans,Tennessee Titans,1992-07-14,33
K. Byard,Tennessee Titans,Tennessee Titans,1993-08-17,64
K. Martin,Houston Texans,San Francisco 49ers,1990-03-15,121
K. Williams,Arizona Cardinals,Arizona Cardinals,1991-6-9,230
K. Drake,Miami Dolphins,Miami Dolphins,1994-01-26,73
K. Austin,Saskatchewan Roughriders,Hamilton Tiger-Cats,1963-6-25,312
K. Vaccaro,New Orleans Saints,New Orleans Saints,1991-02-15,15
K. Stills,Miami Dolphins,Miami Dolphins,1992-04-22,144
K. Lawler,Seattle Seahawks,Seattle Seahawks,1994-06-25,243
K. Clark,Green Bay Packers,Green Bay Packers,1995-10-04,27
K. Bell,Baltimore Ravens,Baltimore Ravens,1992-02-25,162
K. Dixon,Baltimore Ravens,Baltimore Ravens,1994-01-21,134
K. Acker,Kansas City Chiefs,Kansas City Chiefs,1992-02-06,180
K. Barner,Carolina Panthers,Philadelphia Eagles,1989-4-28,182
K. Wright,Tennessee Titans,Tennessee Titans,1989-11-12,20
K. Reyes,Kansas City Chiefs,Kansas City Chiefs,1989-09-26,49
K. James,Cleveland Browns,Free agent,1991-06-29,184
K. Fuller,Washington Redskins,Washington Redskins,1995-02-13,84
K. Shackleford,Kansas City Chiefs,Free agent,1985-02-02,190
K. Ishmael,Atlanta Falcons,Atlanta Falcons,1991-05-06,243
K. Taylor,San Francisco 49ers,San Francisco 49ers,1993-09-28,211
K. Sheppard,Buffalo Bills,New York Giants,1988-01-02,68
K. Benjamin,Carolina Panthers,Carolina Panthers,1991-02-05,28
K. Beachum,Jacksonville Jaguars,Jacksonville Jaguars,1989-06-08,248
K. W. II,Cleveland Browns,Free agent,1983-7-21,6
K. Osemele,Baltimore Ravens,Oakland Raiders,1989-06-24,60
K. Tandy,Tampa Bay Buccaneers,Tampa Bay Buccaneers,1989-02-12,174
K. Mumphery,Houston Texans,Houston Texans,1992-06-05,175
K. McGill,Oakland Raiders,Oakland Raiders,1989-03-09,116
K. Marshall,Washington Redskins,Washington Redskins,1994-02-16,242
K. Russell,Cincinnati Bengals,Cincinnati Bengals,1993-10-19,74
K. Allen,San Diego Chargers,San Diego Chargers,1992-4-27,76
K. Neal,Atlanta Falcons,Atlanta Falcons,1995-07-26,17
K. Webster,Denver Broncos,Denver Broncos,1991-02-01,90
K. Short,Carolina Panthers,Carolina Panthers,1989-2-2,44
K. Frazier,Dallas Cowboys,Dallas Cowboys,1994-08-11,212
K. Williams,Buffalo Bills,Pittsburgh Steelers,1993-05-04,155
K. Dansby,Arizona Cardinals,Cincinnati Bengals,1981-11-03,33
K. Joseph,Oakland Raiders,Oakland Raiders,1993-09-08,14
K. Martin,Arizona Cardinals,Arizona Cardinals,1992-02-19,84
K. Lewis-Moore,Baltimore Ravens,Baltimore Ravens,1990-01-24,200
K. Correa,Baltimore Ravens,Baltimore Ravens,1994-04-27,42
K. Reed,Tennessee Titans,Tennessee Titans,1993-12-29,253
K. Clay,Tampa Bay Buccaneers,Baltimore Ravens,1992-01-03,184
K. Carey,Chicago Bears,Chicago Bears,1992-10-30,117
K. J. Wright,Seattle Seahawks,Seattle Seahawks,1989-07-23,99
K. J. Dillon,Houston Texans,Houston Texans,1993-5-11,159
J. Burris,New York Jets,New York Jets,1993-08-04,118
J. Simmons,Denver Broncos,Denver Broncos,1993-11-19,98
J. Pugh,New York Giants,New York Giants,1990-08-15,19
J. Hunter,Buffalo Bills,Buffalo Bills,1991-05-20,34
J. Griffith,Atlanta Falcons,Oakland Raiders,1980-07-21,121
J. Gilbert,Cleveland Browns,Pittsburgh Steelers,1991-11-7,8
J. Ellis,Oakland Raiders,Oakland Raiders,1990-12-27,107
J. Britt,Seattle Seahawks,Seattle Seahawks,1985-10-12,64
J. Blackmon,Jacksonville Jaguars,Jacksonville Jaguars,1990-01-09,5
J. Bethel,Arizona Cardinals,Arizona Cardinals,1990-06-17,177
J. Bannan,St. Louis Rams,Free agent,1979-04-18,139
J. Anderson,Indianapolis Colts,Free agent,1988-04-15,208
J. Thomas,Denver Broncos,Jacksonville Jaguars,1988-06-27,129
J. Garrett,Buffalo Bills,Dallas Cowboys,1967-6-25,328
J. Perry,San Diego Chargers,San Diego Chargers,1994-0-0,102
J. Garnett,San Francisco 49ers,San Francisco 49ers,1994-02-21,28
J. Thomas,Minnesota Vikings,Dallas Cowboys,1989-05-03,143
J. Sitton,Chicago Bears,Chicago Bears,1986-06-16,135
J. Shaw,Cincinnati Bengals,Cincinnati Bengals,1992-03-27,120
J. Scobee,Jacksonville Jaguars,New Orleans Saints,1982-06-23,137
J. Robinson,Indianapolis Colts,Saskatchewan Roughriders,1992-08-24,205
J. Robinson,Tampa Bay Buccaneers,Tampa Bay Buccaneers,1991-01-08,66
J. Norman,Carolina Panthers,Washington Redskins,1987-12-15,143
J. Kaddu,Miami Dolphins,Free agent,1990-03-12,155
J. Huff,Philadelphia Eagles,Philadelphia Eagles,1991-10-14,86
J. Doctson,Washington Redskins,Washington Redskins,1992-12-03,22
J. Boyd,Green Bay Packers,Free agent,1989-08-03,167
J. Boyce,Cleveland Browns,Cleveland Browns,1990-1-22,102
J. Nelson,Green Bay Packers,Green Bay Packers,1985-5-31,36
J. Tripp,Seattle Seahawks,Seattle Seahawks,1991-04-03,171
J. Todman,Carolina Panthers,Indianapolis Colts,1990-02-24,183
J. Richards,New England Patriots,New England Patriots,1993-01-23,64
J. Reed,Washington Redskins,Washington Redskins,1990-07-03,85
J. Poyer,Cleveland Browns,Cleveland Browns,1991-4-25,218
J. Phillips,Miami Dolphins,Miami Dolphins,1992-09-21,52
J. Payton,Cleveland Browns,Cleveland Browns,1993-09-01,154
J. Mills,Buffalo Bills,Buffalo Bills,1990-12-24,163
J. Matthews,Philadelphia Eagles,Philadelphia Eagles,1992-07-16,42
J. Lucas,Miami Dolphins,Miami Dolphins,1993-08-02,204
J. Jenkins,New York Jets,New York Jets,1994-07-01,83
J. Howard,Chicago Bears,Chicago Bears,1994-11-02,150
J. Hicks,Philadelphia Eagles,Philadelphia Eagles,1992-06-27,84
J. Green,Winnipeg Blue Bombers,Winnipeg Blue Bombers,1989-07-19,196
J. Williams,Buffalo Bills,Buffalo Bills,1994-02-02,156
J. Stewart,Carolina Panthers,Carolina Panthers,1987-03-21,13
J. Smith,Buffalo Bills,Free agent,1981-11-28,214
J. Newsome,Saskatchewan Roughriders,Saskatchewan Roughriders,1991-01-22,166
J. Dowling,Buffalo Bills,Buffalo Bills,1991-12-08,247
J. Cooper,Arizona Cardinals,Cleveland Browns,1990-01-19,7
J. Bullard,Chicago Bears,Chicago Bears,1993-10-22,72
J. Babineaux,Atlanta Falcons,Atlanta Falcons,1981-10-12,59
J. Halapio,Arizona Cardinals,New York Giants,1991-06-23,179
J. Feliciano,Oakland Raiders,Oakland Raiders,1992-02-10,128
J. Bostic,Chicago Bears,Detroit Lions,1991-05-05,50
J. Banks,Tampa Bay Buccaneers,Tampa Bay Buccaneers,1989-10-03,43
J. Holland,Green Bay Packers,Cleveland Browns,1965-03-11,41
J. Hankins,New York Giants,New York Giants,1992-03-29,49
J. Urschel,Baltimore Ravens,Baltimore Ravens,1991-06-24,175
J. Theus,San Francisco 49ers,San Francisco 49ers,1994-01-19,145
J. Simon,Baltimore Ravens,Houston Texans,1990-10-14,129
J. Jenkins,New Orleans Saints,New Orleans Saints,1989-07-11,82
J. Hufnagel,Denver Broncos,Calgary Stampeders,1951-09-13,348
J. Elway,Denver Broncos,Denver Broncos,1960-6-28,1
J. Brown,Arizona Cardinals,Arizona Cardinals,1990-04-03,91
J. Boyett,Denver Broncos,Ottawa Redblacks,1989-12-20,192
J. Hunt,Seattle Seahawks,Seattle Seahawks,1994-02-22,215
J. Bosa,San Diego Chargers,San Diego Chargers,1995-07-11,3
J. Bitonio,Cleveland Browns,Cleveland Browns,1991-10-11,35
J. Webb,Carolina Panthers,Carolina Panthers,1986-11-14,199
J. Walker,Philadelphia Eagles,Philadelphia Eagles,1993-0-0,251
