col0,col1,col2,col3
Zaman,Amal Hijazi,Einak,251
Zaman,Amal Hijazi,Akher Gharam,2913
Zaireeka,The Flaming Lips,Clouds Taste Metallic,2732
Zagora,Loose Ends,So Where Are You?,3029
Zaebos: Book of Angels Volume 11,Medeski Martin & Wood,Lucifer: Book of Angels Volume 10,3260
Zaddy,Ty Dolla Sign,Bacon,223
Zabagabee: The Best of Barnes & Barnes,Barnes & Barnes,Sicks,2971
ZaRa,Merzbow,Merzbient,1855
Za7ie,Zazie,Za7ie,1433
Za-Za,BulletBoys,Freakshow,2200
Z rozmyślań przy śniadaniu,Myslovitz,Sun Machine,3626
Z,My Morning Jacket,Acoustic Citsuoca,2820
Z,SZA,S,2441
Z,Aion,Aion,2950
ZT's Blues,Stanley Turrentine,Dearly Beloved,2413
Złodzieje zapalniczek,Pidzama Porno,Zamiast burzy,3028
Zücker,Fastbacks,"Very, Very Powerful Motor",1982
Zé Ramalho ao Vivo,Zé Ramalho,Estação Brasil,4568
Zé Ramalho Canta Raul Seixas,Zé Ramalho,Nação Nordestina,4878
Zé Ramalho Canta Luiz Gonzaga,Zé Ramalho,Zé Ramalho Canta Bob Dylan – Tá Tudo Mudando,2408
Zé Ramalho Canta Jackson do Pandeiro,Zé Ramalho,Zé Ramalho Canta Luiz Gonzaga,2289
Zé Ramalho Canta Bob Dylan – Tá Tudo Mudando,Zé Ramalho,Zé Ramalho da Paraíba,3432
Zé Ramalho Canta Beatles,Zé Ramalho,Zé Ramalho Canta Jackson do Pandeiro,3814
Zé Ramalho,Zé Ramalho,Paêbirú,2257
Záhradná kaviareň,Marika Gombitová,Srdcia dievčat,243
Záhradná kaviareň,Modus,99 zápaliek,2384
Z²,Devin Townsend,Casualties of Cool,7020
Yūshinron,Radwimps,Futarigoto,250
Yūnagi Loop,Maaya Sakamoto,Shōnen Alice,3341
Yūhi o Miteiru ka?,AKB48,Boku no Taiyō,298
Yūgure,The Blue Hearts,Party,11
Yushima no Shiraume,MAZK,Sound Pressure Level,2161
Yusef Lateef's Detroit,Yusef Lateef,The Blue Yusef Lateef,1862
Yuruginai Mono Hitotsu,B'z,Shoudou,470
Yuridia Remixes,Yuridia,Entre Mariposas,2936
Yureru Omoi,Zard,Hold Me,2575
Yurameki,Dir En Grey,Akuro no Oka,660
Yura Yura,Fayray,Taiyou no Gravity,645
Yup,Easton Corbin,Baby Be My Love Song,201
Yung Rich Nation,Migos,Rich Nigga Timeline,3390
Yung Rapunxel,Azealia Banks,Liquorice,225
Yummy Yummy,The Wiggles,Stories and Songs: The Adventures of Captain Feathersword the Friendly Pirate,1686
Yummy,KC and the Sunshine Band,In a Mellow Mood,3089
Yummy,Gwen Stefani,4 in the Morning,297
Yummy,Chelo,Cha Cha,222
Yumemiru Tsubasa,Scandal,Shōjo S,227
Yume no Ukiyo ni Saite Mi na,Momoiro Clover Z,Moon Pride,282
Yume no Hajima Ring Ring,Kyary Pamyu Pamyu,Mottai Night Land,202
Yume no Chikara,Aya Ueto,Usotsuki,297
Yume ga Chikara,Kokia,So Much Love for You,251
Yume de Aetara,Dragon Ash,Few Lights Till Night,1088
Yume Monogatari,Tackey & Tsubasa,"To Be, to Be, Ten Made to Be",1320
Yume Miru Uchuu,Buck-Tick,Catalogue Ariola 00–10,2866
Yume Biyori,Hitomi Shimatani,Perseus,1010
Yume Bitsu,Yume Bitsu,Giant Surface Music Falling to Earth Like Jewels from the Sky,3827
Yume,The Blue Hearts,Too Much Pain,32
Yume!,Yeti,One Eye on the Banquet,2359
Yuki no Iro,Porno Graffitti,One More Time,911
Yuki no Hikari,Miho Fukuhara,Love: Winter Song,274
Yuganda Taiyō,Ua,Milk Tea,920
Yubiwa,Maaya Sakamoto,Platinum,1085
Ysbeidiau Heulog,Super Furry Animals,Do or Die,171
Ys,Joanna Newsom,The Milk-Eyed Mender,3338
Yr,Steve Tibbetts,Steve Tibbetts,2288
Youthquake,Dead or Alive,Sophisticated Boom Boom,2210
Youthless,Beck,Gamma Ray,179
Youthanasia,Megadeth,Countdown to Extinction,2997
Youth of the Nation,P.O.D.,Alive,257
Youth of China,Li Yuchun,Mine,1604
Youth of America,Birdbrain,Glue/Jet,183
Youth of America,Wipers,Alien Boy,1840
Youth Society,S.H.E,Girl's Dorm,2390
Youth Revival,Hillsong Young & Free,We Are Young & Free,3541
Youth Gone Wild,Skid Row,In a Darkened Room,201
Youth Dub,Matisyahu,Live at Stubb's,3010
Youth Authority,Good Charlotte,Cardiology,2564
Youth,Troye Sivan,Wild,185
Youth,Matisyahu,Live at Stubb's,2815
Youth,Foxes,Right Here,261
Youth,Collective Soul,Seven Year Itch,2271
Youth,BTS,Wake Up,2956
Youth & Young Manhood,Kings of Leon,What I Saw,2761
Yours as Fast as Mine,The Main Drag,Simmer In Your Hotseat,2696
Yours Truly,Sick of It All,Call to Arms,2298
"Yours Truly, Angry Mob",Kaiser Chiefs,Employment,2684
Yours Forever,Atlantic Starr,Brilliance,2435
Yours Fatally,Big Brovaz,We Wanna Thank You,210
Yours Faithfully,Rebbie Jackson,The Rebbie Jackson Collection,3042
Yours Always,Willie Nelson,Love Songs,1971
Yours,Steven Curtis Chapman,Cinderella,399
Yours,Ella Henderson,Glow,168
"Yours, Svoy: The Best of 2005-2012",Svoy,Solved EP,2713
"Yours, Mine & Ours",Pernice Brothers,The World Won't End,2203
Your World on Fire,In Fear and Faith,Voyage,2112
Your World Is Burning,Panzer AG,This Is My Battlefield,3099
Your Woman,White Town,"Abort, Retry, Fail?",225
Your Wilderness,The Pineapple Thief,Magnolia,2490
Your Weight on the Moon,Man or Astro-man?,Destroy All Astromen!,1568
Your Weapon,Legal Weapon,Death of Innocence,2044
Your Vandal,Duke Special,My Villain Heart,1093
Your Used to Be,Brenda Lee,All Alone Am I,130
Your Unchanging Love,Marvin Gaye,Tammi Terrell,157
Your Type,Carly Rae Jepsen,Run Away with Me,200
Your Turn to Fall,Jandek,Staring at the Cellophane,2381
Your Turn,Marc Ribot,Silent Movies,3116
Your Town,Deacon Blue,Cover from the Sky,7
Your Touch,The Black Keys,'Till I Get My Way/Girl Is On My Mind,164
Your Tomorrow Parts 1 & 2,Corrosion of Conformity,In the Arms of God,481
Your Time Will Come,Amy Macdonald,Love Love,272
Your Time Has Come,Audioslave,Be Yourself,255
Your Tender Loving Care,Buck Owens,Sam's Place,165
Your Tender Loving Care,Buck Owens,In Japan!,1740
Your Swaying Arms,Deacon Blue,Four Bacharach & David Songs,7
Your Surrender,Neon Trees,1983,220
Your Sugar Sits Untouched,Emilie Autumn,Enchant,4500
Your Style,J.Williams,Stand With You,208
Your Squaw Is on the Warpath,Loretta Lynn,You've Just Stepped In,122
Your Sparkling Death Cometh,Falling Up,Fangs,3388
Your Song,Ellie Goulding,People Get Ready,190
Your Soft Eyes,Kenny Drew,Havin' Myself a Time,2405
Your Smiling Face,James Taylor,Handy Man,150
Your Side of the Bed,Little Big Town,Tornado,221
Your Secret Love,Luther Vandross,"Every Year, Every Christmas",241
Your Scream Is Music,Sexepil,Sugar for the Soul,3101
Your Saving Grace,Steve Miller Band,Brave New World,2251
Your Precious Love,Marvin Gaye,Ain't No Mountain High Enough,187
Your Past Comes Back to Haunt You,I Killed the Prom Queen,When Goodbye Means Forever...,1432
Your Past Comes Back To Haunt You: The Fonotone Years 1958–1965,John Fahey,Twilight on Prince Georges Avenue: Essential Recordings,20416
Your Own Little Corner of My Heart,Blackhawk,There You Have It,205
Your Number Please,Julie London,Swing Me an Old Song,2345
Your New Favourite Band,The Hives,Veni Vidi Vicious,1688
Your Murder Mixtape,The Banner,Posthumous,3043
Your Move,America,The Last Unicorn,2467
Your Mother's Got a Penis,Goldie Lookin' Chain,Guns Don't Kill People Rappers Do,219
Your Mom's Favorite DJ,Kid Koala,Live from the Short Attention Span Audio Theater Tour!!,2017
Your Mind Is on Vacation,Mose Allison,Mose in Your Ear,2207
Your Memory Ain't What It Used to Be,Mickey Gilley,You've Got Something on Your Mind,201
Your Man Loves You Honey,Tom T. Hall,Fox on the Run,136
Your Man,Josh Turner,What It Ain't,211
Your Man,Down with Webster,Rich Girl$,169
Your Man,Josh Turner,Long Black Train,2376
Your Mamma Won't Like Me,Suzi Quatro,Quatro,2040
Your Mama Don't Dance,Poison,Every Rose Has Its Thorn,168
Your Majesty,The Anniversary,Designing a Nervous Breakdown,2806
Your Ma Said You Cried in Your Sleep Last Night,Robert Plant,Hurting Kind,276
Your Lucky Day in Hell,Eels,Susan's House,265
Your Love Takes Me Higher,The Beloved,Hello,220
Your Love Shines Through,Mickey Gilley,Fool for Your Love,187
Your Love Is a Song,Switchfoot,The Sound,203
Your Love Is a Miracle,Mark Chesnutt,Blame It on Texas,169
Your Love Is a Lie,Simple Plan,When I'm Gone,221
Your Love Is Strong,Jon Foreman,The Cure for Pain,309
Your Love Is Driving Me Crazy,Sammy Hagar,Piece of My Heart,210
Your Love Amazes Me,John Berry,Kiss Me in the Car,233
Your Love,Nicole Scherzinger,Fino all'estasi,245
Your Love,Nicki Minaj,Woohoo,244
Your Love,Diddy – Dirty Money,Coming Home,241
Your Love,Brandon Heath,Love Never Fails,217
Your Love's on the Line,Earl Thomas Conley,I Have Loved You Girl,207
Your Little Secret,Melissa Etheridge,If I Wanted To,259
Your Little Secret,Melissa Etheridge,Yes I Am,3174
Your Life Is a Lie,MGMT,Alien Days,124
Your Letter,112,Love You Like I Did,323
Your Latest Trick,Dire Straits,Walk of Life,393
Your Kisses Will,Crystal Gayle,When I Dream,125
Your Joy Is My Low,IAMX,Kiss and Swallow,318
Your Itinerary,Evan Brewer,Alone,2136
Your History Is Mine: 2002–2009,Funeral for a Friend,Memory and Humanity,8012
Your Heart Turned Left,George Jones,You Comb Her Hair,136
Your Heart Belongs to Me,The Supremes,Buttered Popcorn,157
Your Guardian Angel,The Red Jumpsuit Apparatus,False Pretense,229
Your Grace Finds Me,Matt Redman,"10,000 Reasons",3915
"Your Gods, My Enemies",Eternal Gray,Kindless,2265
Your Game...Live at the 9:30 Club,Chuck Brown,The Spirit of Christmas,3989
Your Game,Will Young,Leave Right Now,240
Your Future Our Clutter,The Fall,Last Night at The Palais,2891
Your Funeral... My Trial,Nick Cave and the Bad Seeds,Kicking Against the Pricks,2567
Your Filthy Little Mouth,David Lee Roth,A Little Ain't Enough,3355
Your Face or Mine?,Nantucket,Nantucket,2157
Your Eyes,Kate Ryan,I Surrender,209
Your Eyes,Kult,45-89,3599
Your Ex-Lover Is Dead,Stars,Ageless Beauty,256
Your Everything,Keith Urban,It's a Love Thing,250
"Your Drums, Your Love",AlunaGeorge,After Light,217
Your Disco Needs You,Kylie Minogue,Please Stay,213
Your Decision,Alice in Chains,Check My Brain,283
Your Crown,Infernal,Voodoo Cowboy,249
Your Choice Live Series Vol.12,The Melvins,Ozma,1819
