col0,col1,col2,col3,col4
J. Bové,Russia,Moscow,Triumphal Arch of Moscow,1784-11-04
J. Blick,United States,"Pasadena, California",George S. Patton,1867-09-20
J. Bigot,France,Quimper,Quimper Cathedral,1807-12-21
Joseph Auguste Émile Vaudremer,French people,Antibes,La Santé Prison,1829-02-06
J. M. Jujol,Catalonia,Barcelona,Casa Batlló,1879-09-16
J. Hoffmann,Austrians,Austria,Stoclet Palace,1870-12-15
J. Frank,Austria,Stockholm,Vienna,1885-07-15
J. W. Root,United States of America,Chicago,Reliance Building,1850-01-10
J. Webb,England,Somerset,Wilton House,1611-1-1
J. R. Niernsee,United States,Baltimore,South Carolina State House,1814-1-1
J. J. Burnet,Scotland,Edinburgh,British Museum,1857-03-31
J. G. Howard,United Kingdom,Ontario,Colborne Lodge,1803-07-27
J. Ewart,Canadian,Canada West,Osgoode Hall,1788-01-31
J. E. Tourtellotte,United States,"Portland, Oregon",University of Idaho,1869-02-22
J. Burnet,United Kingdom of Great Britain and Ireland,Glasgow,Clydesdale Bank,1814-09-27
J. Bancroft,United Kingdom,United Kingdom,Pimlico Academy,1928-10-28
J. A. Ewart,Canada,Ontario,Knox Presbyterian Church,1872-1-1
J. A. Dempwolf,Germany,"York, Pennsylvania",York Central Market,1848-1-1
J. E. Gnudtzmann,Denmark,Copenhagen,Royal Veterinary and Agricultural University,1837-11-17
J. D. Herholdt,Denmark,Copenhagen,Copenhagen University Library,1818-08-15
J. Rubió,Spaniard,Barcelona,Casa Batlló,1870-04-24
J. Cluysenaar,Belgium,Brussels,Galeries Royales Saint-Hubert,1811-03-28
J. Chevotet,France,Paris,Château de Petit-Bourg,1698-07-11
J. Bethune,Belgian,Belgium,Maredsous Abbey,1821-04-25
J. S. Aichel,Czech Republic,Czech Republic,Pilgrimage Church of Saint John of Nepomuk,1677-02-03
J. Wyatt,England,"Marlborough, Wiltshire",Fonthill Abbey,1746-08-03
J. W. Naughton,United States,Brooklyn,Girls High School,1840-1-1
J. M. Gardiner,Americans,Japan,St. Agnes Cathedral,1857-05-22
J. A. Johnson,United States,"Buffalo, New York",Electric Tower,1865-07-10
J. Kubicki,Poland,Warsaw,Warsaw,1758-1-1
J. Gréber,France,France,Philadelphia,1882-09-10
J. Oud,Netherlands,Wassenaar,Weissenhof Estate,1890-02-09
I. Rerberg,Russian Empire,Moscow,Kiyevsky Rail Terminal,1869-10-4
I. Nikolaev,Russia,Moscow,Communal House of the Textile Institute,1901-7-19
I. Mercep,New Zealand,Auckland,Museum of New Zealand Te Papa Tongarewa,1930-02-22
I. Mashkov,Russia,Moscow,Moscow,1867-01-13
I. Town,United States,"New Haven, Connecticut",Wadsworth Atheneum,1784-10-03
I. Gainutdinov,Soviet,Moscow,Monument to Salavat Yulaev,1908-02-10
I. Rapp,United States,"Trinidad, Colorado",New Mexico Museum of Art,1854-1-1
I. Gill,United States,"Carlsbad, California",La Jolla Recreational Center,1870-04-26
I. Golosov,Soviet Union,Moscow,Ivanovo,1883-07-31
I. Bondarenko,Russia,Moscow,Old Believers,1870-07-18
I. Ivanov-Schitz,Russia,Moscow,Lenkom Theatre,1865-03-28
I. Fischer,Croats,Socialist Federal Republic of Yugoslavia,Parliament of Croatia,1870-06-18
H. Kjær,Denmark,Denmark,Five Sisters,1872-09-12
H. Ekelund,Finns,Finland,1952 Summer Olympics,1893-11-18
H. B. Storck,Denmark,Copenhagen,The Hirschsprung Collection,1839-02-18
H. R. Hunt,United States,"Providence, Rhode Island",Rosedale Apartments,1885-1-1
Henry van de Velde,Belgium,Switzerland,Deutscher Werkbund,1863-04-03
H. V. Lanchester,United Kingdom,"Seaford, East Sussex",Cardiff City Hall,1863-08-09
H. V. Brunt,United States,"Milton, Massachusetts",World's Columbian Exposition,1832-09-05
H. Langley,Canadian,Toronto,Government House,1836-11-26
H. J. Hefty,Swiss people,Switzerland,First Congregational Church,1858-12-28
H. H. Richardson,United States,United States,"Trinity Church, Boston",1838-09-29
H. F. Brauns,United States,"Betterton, Maryland",Brown's Arcade,1845-10-04
H. Budden,Australian,Sydney,David Jones Limited,1871-08-11
H. B. Lane,England,Birmingham,Osgoode Hall,1817-1-1
H. Larsen,Denmark,Copenhagen,Ministry of Foreign Affairs,1925-08-20
H. P. Berlage,Netherlands,The Hague,Beurs van Berlage,1856-02-21
H. v. Ferstel,Austria,Vienna,University of Vienna,1828-07-07
H. Wenck,Denmark,Denmark,Copenhagen Central Station,1851-03-10
H. Seeling,Germans,Berlin,Berlin,1852-10-01
