col0,col1,col2,col3
"Bakersfield, California",&minus;7,3742000,371945602
"Baker, California",-7,0,6961888
"Ava, New York",-4,0,97600000
"Aurora, Nebraska",-5,25899,7536865
"Augusta, Kansas",-5,1346793,12300000
"Auburn, California",-7,71000,18559854
"Attu Station, Alaska",-10,2800000,371922292
"Athens Township, Athens County, Ohio",-4,1200000,96000000
"Athens, Pennsylvania",-4,70000,4720000
"Astoria, Oregon",-7,10230000,26180000
"Ashland, Oregon",-7,0,17068021
"Ashland, Nebraska",-5,77699,2926686
"Ashford, Connecticut",-4,1800000,102300000
"Ashfield, Massachusetts",-4,700000,104300000
"Arnold, Missouri",-5,930000,30920000
"Arlington, Oregon",-7,1605792,6215971
"Arkansas City, Kansas",-5,50000,24290000
"Arkadelphia, Arkansas",-5,100000,18900000
"Arietta, New York",-4,30561859,853142083
"Argonne, Wisconsin",-5,200000,280495712
"Apopka, Florida",-4,3625983,85987605
"Apalachicola, Florida",-4,1800000,6800000
"Anvik, Alaska",-8,6215971,30820858
"Antioch, Ohio",-4,0,280000
"Antioch, California",&minus;7,1901051,75324000
"Anna, Illinois",-5,51799,9116758
"Aniak, Alaska",-8,5900000,22791895
"Anderson, California",-7,642000,17145000
"Anchorage, Alaska",-8,683497862,5098650594
"Anchor Point, Alaska",-8,258998,235400000
Amsterdam,1,53560000,219320000
"Amboy, New York",-4,1553992,97642551
"Alturas, California",-7,36000,6342000
"Alta, Utah",-6,0,10500000
"Alpine, Wyoming",-6,0,1810000
"Allentown, Pennsylvania",-4,517997,46500000
"Allakaket, Alaska",-8,1812991,11136948
"Allagash, Maine",-4,7277866,340376237
"Albion, California",-7,95829,4796657
"Albany, Oregon",-7,540000,45970000
"Alamo Lake, Arizona",-7,6793538,120595026
"Afton Township, DeKalb County, Illinois",-5,155399,91063981
"Ada Township, Michigan",-4,2500000,95829560
Čapljina,1,0,256000000
