col0,col1,col2,col3
Dead Man's Shoes,T. Fever,F. Marly,Buck Houghton
Days of Wine and Roses,A. North,P. Laurie,Fred Coe
Dance with Death,L. Johnson,G. Palmer,Leonard White
Crescent Moon,L. Johnson,R. Delgado,Leonard White
Cigarettes and Alcohol and Rollerblading,T. D. Comedy,M. O'Donoghue,Lissa Evans
Child of Glass,G. Duning,N. Foch,Tom Leetch
Cash,P. Brewis,A. Freeman,Paul Jackson
Bullseye,L. Johnson,J. Parfitt,Leonard White
Bullet Points,D. Porter,J. Howard,Bryan Cranston
A Touch of Brimstone,L. Johnson,C. Cleveland,Brian Clemens
A Surfeit of H2O,L. Johnson,G. Palmer,Brian Clemens
A Study in Pink,D. Arnold,P. Davis,Sue Vertue
A New Birth of Freedom,K. Chambers,C. Heyerdahl,John Shiban
A Canterlot Wedding,B. McKillip,K. Barr,Lauren Faust
