col0,col1,col2,col3
W. Mazurkiewicz,1911-01-31,1957-01-29,1957
S. murders,1991-09-01,2002-08-04,2002
S. Doty,1800-08-30,1876-03-12,1876
S. Mirza,1971-1-1,2015-05-12,2015
S. Bass,1851-07-21,1878-07-21,1878
R. B. Martin,1907-1-1,1957-10-11,1957
Murder of Yeardley Love,1987-07-17,2010-05-03,2010
Murder of Victoria Climbié,1991-11-02,2000-02-25,2000
Murder of Tracie McBride,1975-05-27,1995-02-18,1995
Murder of Tia Sharp,2000-06-30,2012-08-03,2012
Murder of Thomas Bates,1915,1962-06-03,1962
Murder of Suzanne Capper,1976,1992-12-18,1992
Murder of Sian Kingi,1974-12-16,1987-11-27,1987
Murder of Sarah Payne,1991-10-13,2000-07-01,2000
Murder of Sally Anne Bowman,1987-09-11,2005-09-25,2005
Murder of Ross Parker,1984-08-17,2001-09-21,2001
Murder of Rosie Palmer,1990-08-01,1994-06-30,1994
Murder of Michelle Le,1984-10-12,2011-05-27,2011
Murder of Kriss Donald,1988-07-02,2004-03-15,2004
Murder of Danielle Jones,1985-10-16,2001-06-18,2001
Murder of Airi Kinoshita,1998-04-10,2005-11-22,2005
M. Proietti,1940-02-25,1967-09-19,1967
M. C. Lamb,1948-01-05,1976-11-07,1976
M. Carleton,1642-08-11,1673-01-22,1673
M. L. Wilson,1958-01-05,2012-08-07,2012
L. Halliday,1859-0-0,1918-06-18,1918
L. Hutchinson,1733-1-1,1773-3-16,1773
J. McCall,1850-0-0,1877-03-01,1877
