col0,col1,col2,col3
A. Mickey,UnitedHealthcare Women's Team,1990-07-03,1990-07-03
A. Madani,Groupement Sportif Pétrolier Algérie,1983-02-28,1983-02-28
A. Benyoucef,Groupement Sportif des Pétroliers d'Algérie,1987-04-10,1987-04-10
A. Hannachi,Groupement Sportif des Pétroliers d'Algérie,1985-02-02,1985-02-02
A. Gate,An Post-ChainReaction,1990-11-26,1990-11-26
A. Eshuis,Parkhotel Valkenburg Continental Team,1987-11-24,1987-11-24
Ł. Bodnar,ActiveJet Team,1982-05-10,1982-05-10
Ó. Pujol,Team Ukyo,1983-10-16,1983-10-16
É. Viennet,FDJ.fr,1992-02-06,1992-02-06
Á. Edo,Vitoria-ASC,1970-08-04,1970-08-04
