col0,col1,col2,col3
M. Nowak,Dare 2B,1992-07-15,1992-07-15
M. Mugerli,Synergy Baku Cycling Project,1981-06-17,1981-06-17
M. Jurčo,Dukla Trenčín-Trek,1984-08-08,1984-08-08
M. Graziato,Parkhotel Valkenburg Continental Team,1988-09-25,1988-09-25
M. Yamamoto,Kinan Cycling Team,1978-08-04,1978-08-04
M. Ito,Aisan Racing Team,1988-06-12,1988-06-12
M. L. Calle,List of doping cases in cycling,1968-10-03,1968-10-03
M. Garrido,Clube de Ciclismo de Tavira,1974-11-09,1974-11-09
M. Reimer,LKT Team Brandenburg,1987-06-14,1987-06-14
M. Mahďar,Dukla Banska Bystrica,1989-07-31,1989-07-31
M. Laas,Marseille 13-KTM,1993-09-15,1993-09-15
M. Hunal,Whirlpool-Author,1989-09-08,1989-09-08
M. Bláha,ASC Dukla Praha,1977-09-12,1977-09-12
M. Tagliaferro,Alé Cipollini,1989-11-04,1989-11-04
M. Garrido,Clube de Ciclismo de Tavira,1974-11-09,1974-11-09
M. S. Pedersen,Team Trefor-Blue Water,1991-11-06,1991-11-06
M. Renshaw,Dimension Data,1982-10-22,1982-10-22
M. Padun,Team Colpack,1996-07-06,1996-07-06
M. O'Brien,Avanti IsoWhey Sports,1987-09-16,1987-09-16
M. Beccia,Team Vorarlberg,1955-08-16,1955-08-16
M. Čanecký,Amplatz-BMC,1988-06-17,1988-06-17
M. Fåglum,Team Tre Berg-Bianchi,1994-07-20,1994-07-20
M. Zanotti,Parkhotel Valkenburg Continental Team,1988-09-10,1988-09-10
M. Zamparella,Amore & Vita-Selle SMP,1987-10-01,1987-10-01
M. Tecchio,Unieuro–Wilier,1994-08-31,1994-08-31
M. Minnaard,Wanty-Groupe Gobert,1989-04-11,1989-04-11
M. D'Urbano,Team Roth,1991-08-15,1991-08-15
M. Benfatto,Androni Giocattoli,1988-01-06,1988-01-06
M. Mrożek,CCC–Sprandi–Polkowice,1990-02-26,1990-02-26
M. L. Calle,List of doping cases in cycling,1968-10-03,1968-10-03
M. Senni,BMC Racing Team,1992-03-11,1992-03-11
M. Carpenter,Madison Saracen,1993-03-11,1993-03-11
M. Ishibashi,Nippo-Vini Fantini,1992-11-30,1992-11-30
M. Hasnaoui,Skydive Dubai-Al Ahli Club,1989-09-22,1989-09-22
M. B. Klaris,SEG Racing Academy,1996-01-23,1996-01-23
M. W. Schmidt,Team TreFor–Blue Water,1994-03-31,1994-03-31
M. v. Trijp,Metec-TKH Continental Cyclingteam,1993-10-06,1993-10-06
M. d. Jonge,Bike Aid,1985-03-09,1985-03-09
M. Štrombergs,Tālava,1987-03-10,1987-03-10
M. Costa,Lampre-Merida,1985-11-15,1985-11-15
L. Mudgway,Avanti IsoWhey Sports,1996-06-12,1996-06-12
L. Keough,UnitedHealthcare,1991-08-10,1991-08-10
L. Davison,Team Budget Forklifts,1990-05-08,1990-05-08
L. Jaun,Team Roth,1991-07-29,1991-07-29
L. Lemus,Airgas-Safeway Cycling Team,1992-04-21,1992-04-21
L. Capelle,Rietumu Banka - Riga,1976-02-27,1976-02-27
L. S. Haedo,Jamis-Hagens Berman,1983-04-18,1983-04-18
L. Wackermann,Al Nasr Pro Cycling Team–Dubai,1992-03-13,1992-03-13
L. Sterbini,Bardiani-CSF,1991-11-12,1991-11-12
L. Guercilena,Trek Factory Racing,1973-08-04,1973-08-04
L. J. Wen,CCN Cycling Team,1989-10-27,1989-10-27
L. Meintjes,Lampre–Merida,1992-02-21,1992-02-21
L. Owen,Axeon Cycling Team,1995-03-25,1995-03-25
L. Gunnewijk,GreenEDGE-AIS,1980-11-27,1980-11-27
L. Williams,Orica-AIS,1983-08-15,1983-08-15
L. Brennauer,Canyon-SRAM,1988-01-22,1988-01-22
L. Villumsen,UnitedHealthcare Women's Team,1985-04-09,1985-04-09
L. Calmejane,Team Europcar,1992-12-06,1992-12-06
L. Laizāne,Vaiano-Fondriest,1993-07-06,1993-07-06
L. Decroix,Lotto Soudal Ladies,1987-05-12,1987-05-12
L. D. Vocht,Lotto Belisol Ladies,1979-01-05,1979-01-05
L. Phillips,United Kingdom,1989-03-11,1989-03-11
L. Hill,Kenyan Riders Downunder,1993-10-05,1993-10-05
L. Nederlof,Black Inc Cycling Team,1966-06-10,1966-06-10
L. Oliva,Welsh Cycling,1992-08-23,1992-08-23
L. Pipes,BePink,1985-01-11,1985-01-11
L. W. Sze,Hong Kong,1987-05-12,1987-05-12
L. Stephens,Team TIBCO-SVB,1986-12-28,1986-12-28
L. Kitchen,Team Hitec Products,1990-11-21,1990-11-21
L. Hall,Twenty16 presented by Sho-Air,1979-02-02,1979-02-02
L. Rosas,Sindicato de Empleados Publicos de San Juan,1990-08-23,1990-08-23
L. Trott,Matrix Fitness Pro Cycling,1992-04-24,1992-04-24
L. Jorgensen,Pepper Palace p/b The Happy Tooth,1986-08-04,1986-08-04
L. Brown,UnitedHealthcare Women's Team,1986-11-27,1986-11-27
Lars van der Haar,Team Giant-Alpecin,1991-07-23,1991-07-23
L. Norris,Drapac Professional Cycling,1987-01-21,1987-01-21
L. Morton,Jelly Belly-Maxxis,1992-01-02,1992-01-02
K. Stijns,Team Liv-Plantur,1995-10-09,1995-10-09
K. Sorge,Fox Racing,1988-06-04,1988-06-04
K. Neilands,Axeon–Hagens Berman,1994-08-18,1994-08-18
K. Halvorsen,Team Joker,1996-04-13,1996-04-13
K. Pedersen,1. FC Union Berlin,1994-08-04,1994-08-04
K. Haugaard,Team ColoQuick–Cult,1991-02-27,1991-02-27
K. Dahl,Silber Pro Cycling Team,1992-07-07,1992-07-07
K. Uchima,Bridgestone-Anchor,1988-11-08,1988-11-08
K. Bouwman,SEG Racing,1993-12-02,1993-12-02
K. Ramos,Funvic Brasilinvest-São José dos Campos,1985-08-24,1985-08-24
K. Wild,Team Hitec Products,1982-10-15,1982-10-15
K. V. Melsen,Wanty-Groupe Gobert,1987-04-01,1987-04-01
K. Hulsmans,Vastgoedservice-Golden Palace,1978-04-11,1978-04-11
K. D. Jonghe,Cibel,1991-12-04,1991-12-04
K. Werner,Rally Cycling,1991-03-27,1991-03-27
K. Itami,Kinan Racing Team,1988-09-15,1988-09-15
K. Ryan,Team TIBCO-SVB,1992-08-10,1992-08-10
K. Girdlestone,Dimension Data for Qhubeka,1997-04-30,1997-04-30
K. Manabe,Matrix Powertag,1970-02-16,1970-02-16
K. Inoue,Bridgestone-Anchor,1981-02-17,1981-02-17
K. Garfoot,Orica-AIS,1981-10-08,1981-10-08
K. Hall,UnitedHealthcare Women’s Team,1987-01-06,1987-01-06
K. Colclough,Specialized-lululemon,1990-01-20,1990-01-20
K. Archibald,Scottish Cycling,1994-03-12,1994-03-12
