col0,col1,col2,col3,col4
W. Parfrey,A. Parfrey,Los Angeles,1922-10-05,1922-10-05
W. Tin-lam,W. Jing,Hong Kong Baptist Hospital,1928-9-11,1928-9-11
W. T. Orr,G. Orr,California,1917-09-27,1917-09-27
W. S. Burroughs,"William S. Burroughs, Jr.","Lawrence, Kansas",1914-02-05,1914-02-05
W. R. Hearst,R. A. Hearst,California,1863-04-29,1863-04-29
W. Powell,W. D. Powell,California,1892-07-29,1892-07-29
W. Morris,C. Morris,Los Angeles,1861-01-01,1861-01-01
W. McKinley,K. McKinley,"Buffalo, New York",1843-01-29,1843-01-29
W. Rogers,Mary Howard de Liagre,Point Barrow,1879-11-04,1879-11-04
W. Geer,E. Geer,Los Angeles,1902-03-09,1902-03-09
W. Dohm,G. Dohm,Germany,1897-04-08,1897-04-08
W. Houston,B. K. Brown,The Beverly Hilton,1963-08-09,1963-08-09
W. Blake,M. Baxter,Massachusetts,1926-02-20,1926-02-20
W. Bissell,B. Forster,California,1909-10-25,1909-10-25
W. Craven,J. Craven,California,1939-08-02,1939-08-02
W. Slezak,E. Slezak,United States,1902-05-03,1902-05-03
W. Reed,W. L. Reed,"Washington, D.C.",1851-09-13,1851-09-13
W. Matthau,C. Matthau,California,1920-10-01,1920-10-01
W. Huston,J. Huston,Beverly Hills,1883-04-05,1883-04-05
W. Cronkite,K. Cronkite,New York,1916-11-04,1916-11-04
W. Murad,A. Murad,Karachi,1938-10-02,1938-10-02
V. Leigh,S. Farrington,London,1913-11-05,1913-11-05
V. Seldahl,K. Seldahl,Stockholm,1944-03-15,1944-03-15
V. Lindfors,K. Tabori,Sweden,1920-12-29,1920-12-29
V. Mezzogiorno,G. Mezzogiorno,Milan,1941-12-06,1941-12-06
V. D. Sica,M. D. Sica,France,1901-07-07,1901-07-07
V. Fox,R. D. Zanuck,United States,1902-04-02,1902-04-02
V. Mehra,S. Mehra,India,1945-02-13,1945-02-13
V. Price,V. Price,California,1911-05-27,1911-05-27
V. Mehta,A. Uberoi,Vadodara,1934-11-04,1934-11-04
V. Silayan,C. Silayan,Philippines,1929-01-31,1929-01-31
V. Morrow,J. J. Leigh,"Valencia, Santa Clarita, California",1929-02-14,1929-02-14
V. Zorina,P. Lieberson,"Santa Fe, New Mexico",1917-01-02,1917-01-02
V. Johnson,T. K. Wynn,"Nyack, New York",1916-08-25,1916-08-25
U. Mühe,A. M. Mühe,Saxony-Anhalt,1953-06-20,1953-06-20
U. Shankar,A. Shankar,Kolkata,1900-12-08,1900-12-08
T. Power,T. P. Jr.,Madrid,1914-05-05,1914-05-05
T. Rolf,T. Rolf,Los Angeles,1907-10-07,1907-10-07
T. Marshall,D. Raffin,"Los Angeles, California",1920-02-14,1920-02-14
T. Curtis,J. L. Curtis,"Henderson, Nevada",1925-06-03,1925-06-03
T. Cooper,T. Henty,London,1921-03-19,1921-03-19
T. Chatto,D. Chatto,London,1920-09-01,1920-09-01
T. Hird,J. Scott,London,1911-05-28,1911-05-28
T. Jefferson,M. J. Randolph,"Charlottesville, Virginia",1743-04-13,1743-04-13
Thilakan,S. Thilakan,India,1935-12-08,1935-12-08
T. v. Eltz,L. March,"Woodland Hills, Los Angeles",1893-11-05,1893-11-05
T. Roosevelt,A. R. Longworth,"Oyster Bay, New York",1858-10-27,1858-10-27
T. Leeds,A. Brooks,"Beverly Hills, California",1910-12-18,1910-12-18
T. Savalas,A. Savalas,"Universal City, California",1922-01-21,1922-01-21
T. Ray,A. Ray,England,1905-11-21,1905-11-21
Talish,A. Talish,Lahore,1927-0-0,1927-0-0
S. Thorndike,C. Casson,"Chelsea, London",1882-10-24,1882-10-24
S. York,O. Wells,"Chelsea, London",1939-01-09,1939-01-09
S. Dutt,P. Dutt,Maharashtra,1929-6-6,1929-6-6
Sukumaran,P. Sukumaran,India,1948-06-10,1948-06-10
S. Sen,M. M. Sen,India,1931-04-06,1931-04-06
S. Chatterjee,S. Chatterjee,India,1936-11-29,1936-11-29
S. Olin,L. Olin,Stockholm,1920-09-11,1920-09-11
S. McQueen,C. McQueen,Chihuahua,1930-03-24,1930-03-24
S. Irwin,B. Irwin,Queensland,1962-02-22,1962-02-22
S. Brodie,K. Brodie,California,1919-11-21,1919-11-21
S. J. Cannell,T. McKiernan,"Pasadena, California",1941-02-05,1941-02-05
S. Lupino,I. Lupino,Wandsworth,1893-06-15,1893-06-15
S. Bono,C. Bono,"Stateline, Nevada",1935-02-16,1935-02-16
S. Patil,P. Babbar,India,1955-10-17,1955-10-17
S. Ganesan,Prabhu,Chennai,1928-10-01,1928-10-01
S. Devi,R. Barot,Mumbai,1920-11-08,1920-11-08
S. Signoret,C. Allégret,France,1921-03-25,1921-03-25
S. Ward,S. Ward,England,1941-10-16,1941-10-16
S. Derbez,E. Derbez,Mexico,1932-03-08,1932-03-08
S. Mangano,V. D. Laurentiis,Madrid,1930-04-21,1930-04-21
S. Kaputikyan,A. Shiraz,First Republic of Armenia,1919-01-20,1919-01-20
S. Lumet,J. Lumet,Manhattan,1924-06-25,1924-06-25
S. Samarth,Nutan,Maharashtra,1916-11-17,1916-11-17
S. Sim,2004 Indian Ocean earthquake and tsunami,London,1922-06-05,1922-06-05
S. MacRae,M. MacRae,"Englewood, New Jersey",1921-09-24,1921-09-24
S. Gish,L. Gish,England,1942-04-23,1942-04-23
S. Kapoor,A. R. Kapoor,India,1931-10-21,1931-10-21
S. Bondarchuk,N. Bondarchuk,Moscow,1920-09-25,1920-09-25
S. Gainsbourg,C. Gainsbourg,Paris,1928-04-02,1928-04-02
Sapru,P. Sapru,India,1916-03-16,1916-03-16
S. Wanamaker,Z. Wanamaker,England,1919-06-14,1919-06-14
S. Kydd,J. Kydd,England,1915-02-15,1915-02-15
S. Jaffrey,S. Jaffrey,London,1929-01-08,1929-01-08
S. Dastagir,P. Sabu,California,1924-01-27,1924-01-27
R. Hussey,J. Longenecker,California,1911-10-30,1911-10-30
R. Fernandez,M. A. Fernandez,Philippines,1952-03-16,1952-03-16
R. Hess,W. R. Hess,West Berlin,1894-04-26,1894-04-26
R. Dee,G. Davis,"New Rochelle, New York",1922-10-27,1922-10-27
R. Dandridge,D. Dandridge,Los Angeles,1900-03-03,1900-03-03
R. Redgrave,M. Redgrave,Sydney,1873-04-26,1873-04-26
R. Kinnear,R. Kinnear,Madrid,1934-01-08,1934-01-08
R. E. Disney,A. Disney,"Newport Beach, California",1930-01-10,1930-01-10
R. Castle,B. Castle,Buckinghamshire,1932-08-31,1932-08-31
R. Roker,L. Kravitz,California,1929-08-28,1929-08-28
R. Clooney,M. Ferrer,"Beverly Hills, California",1928-05-23,1928-05-23
R. Karns,T. Karns,Los Angeles,1891-09-07,1891-09-07
R. Crutchley,J. Ashmore,London,1920-01-04,1920-01-04
R. Barker,C. Barker,Adderbury,1929-09-25,1929-09-25
R. Reagan,M. Reagan,"Bel Air, Los Angeles",1911-02-06,1911-02-06
R. Lacey,R. Lacey,England,1935-09-28,1935-09-28
R. Pickering,S. Pickering,England,1930-05-04,1930-05-04
R. Schneider,S. Biasini,France,1938-09-23,1938-09-23
R. Culver,M. Culver,England,1900-08-31,1900-08-31
R. Lloyd-Pack,E. Lloyd,London,1944-02-08,1944-02-08
R. Hill,H. California,The Bronx,1948-07-31,1948-07-31
R. H. Jr.,T. Hoyos,California,1916-03-06,1916-03-06
R. Taylor,F. Taylor,Los Angeles,1929-1-11,1929-1-11
R. Walker,R. W. Jr.,Los Angeles,1918-10-13,1918-10-13
R. Sterling,T. Sterling,"Brentwood, California",1917-11-13,1917-11-13
R. Stephens,C. Larkin,England,1931-07-14,1931-07-14
R. Shaw,I. Shaw,Ireland,1927-08-09,1927-08-09
R. Prosky,J. Prosky,United States,1930-12-13,1930-12-13
R. Montgomery,E. Montgomery,New York City,1904-05-21,1904-05-21
R. Mitchum,C. Mitchum,Billboard Hot 100,1917-08-06,1917-08-06
R. McNamara,R. C. McNamara,"Washington, D.C.",1916-06-09,1916-06-09
R. Livingston,A. Randall,"Tarzana, Los Angeles",1904-12-09,1904-12-09
R. Keith,B. Keith,California,1898-02-10,1898-02-10
R. Goulet,N. Goulet,Los Angeles,1933-11-26,1933-11-26
R. F. Scott,P. Scott,Antarctica,1868-06-06,1868-06-06
R. F. Kennedy,K. Kennedy,California,1925-11-20,1925-11-20
R. E. Jones,J. E. Jones,"Englewood, New Jersey",1910-2-3,1910-2-3
R. Clarke,C. Clarke,"Valley Village, California",1920-06-01,1920-06-01
R. B. Sherman,R. J. Sherman,England,1925-12-19,1925-12-19
R. Altman,R. R. Altman,California,1925-02-20,1925-02-20
R. Alda,A. Alda,Los Angeles,1914-02-26,1914-02-26
R. Hayworth,Y. A. Khan,Manhattan,1918-10-17,1918-10-17
R. Thorpe,J. Thorpe,California,1896-02-24,1896-02-24
R. Schaal,W. Schaal,California,1928-05-05,1928-05-05
R. Nixon,J. N. Eisenhower,Manhattan,1913-01-09,1913-01-09
R. Ney,R. Dufay,"Pasadena, California",1916-11-12,1916-11-12
R. Jaeckel,B. Jaeckel,"Los Angeles, California",1926-10-10,1926-10-10
R. Hart,C. Rawson,New York City,1915-04-14,1915-04-14
R. Harris,D. Harris,London,1930-10-01,1930-10-01
R. Dawson,M. Dawson,Los Angeles,1932-11-20,1932-11-20
R. Davalos,E. Davalos,"Burbank, California",1930-11-05,1930-11-05
R. C. Sarafian,T. Sarafian,"Santa Monica, California",1930-04-28,1930-04-28
R. Burton,K. Burton,Switzerland,1925-11-10,1925-11-10
R. Briers,L. Briers,England,1934-01-14,1934-01-14
R. Bennett,C. Bennett,Los Angeles,1870-05-21,1870-05-21
R. Beckinsale,K. Beckinsale,Berkshire,1947-07-06,1947-07-06
R. Attenborough,M. Attenborough,London,1923-08-29,1923-08-29
R. Harrison,C. Harrison,New York City,1908-03-05,1908-03-05
R. Allen,R. A. Jr.,"Tucson, Arizona",1920-12-31,1920-12-31
R. Cardona,R. C. Jr.,Mexico,1905-08-10,1905-08-10
R. Mikuni,K. Satō,Inagi,1923-01-20,1923-01-20
R. Cardona,R. C. Jr.,Mexico,1905-08-10,1905-08-10
R. Massey,D. Massey,California,1896-08-30,1896-08-30
R. Lovell,S. Lovell,London,1900-04-13,1900-04-13
Ratheesh,P. Ratheesh,Kerala,1954-0-0,1954-0-0
R. Morgan,C. Morgan,New York City,1883-07-06,1883-07-06
Rajkumar,S. Rajkumar,Bangalore,1929-04-24,1929-04-24
R. Khanna,R. Khanna,India,1942-12-29,1942-12-29
R. Kumar,K. Gaurav,India,1929-07-20,1929-07-20
