col0,col1,col2,col3,col4,col5,col6
Pituitary stalk,813,189,i_08,hier,388,A06.407.747
Periaqueductal gray,806,188,s_27,hier,501,A08.186.211.132.659.822.595
Nucleus basalis of Meynert,813,189,n_11,hier,257,A08.186.211.730.885.105.880.100
Metencephalon,785,187,m_12,hier,534,A08.186.211.132.810.428
Mesencephalic nucleus of trigeminal nerve,787,187,n_11,hier,550,A08.186.211.132.931
Medulla oblongata,767,187,m_06,hier,695,A08.186.211.132.810.406
Hindbrain,767,186,r_12,hier,531,A08.186.211.132.810
Diagonal band of Broca,868,191,s_26,hier,267,A08.186.211.730.885.380
Cerebral peduncle,800,188,p_10,hier,478,A08.186.211.132.659
Arachnoid mater,876,193,a_56,ancil,561,A08.186.566.166
