col0,col1,col2,col3,col4
V. Wood,G. Durham,Lancashire,1953-05-19,2016-04-20
S. Moore,L. Bromfield,Virginia,1954-06-15,2014-05-24
R. Pryor,D. McGuire,"Peoria, Illinois",1940-12-01,2005-12-10
P. Silvers,J. Dennison,Brooklyn,1911-05-11,1985-11-01
L. Weinstock,D. Jove,Pennsylvania,1943-0-0,1997-08-31
L. Bruce,H. Harlow,"Mineola, New York",1925-10-13,1966-08-03
H. Einstein,T. Leeds,Boston,1904-05-06,1958-11-23
H. Lloyd,M. Davis,United States,1893-04-20,1971-03-08
G. Marx,E. Hartford,New York,1890-10-02,1977-08-19
E. Kovacs,E. Adams,"Trenton, New Jersey",1919-01-23,1962-01-13
D. Harron,V. Leith,Ontario,1924-09-19,2015-01-17
D. Martin,D. Read,United States,1922-01-30,2008-05-24
