col0,col1,col2,col3
V. Patrick,Australia,1920-06-02,2006-08-11
V. Barannikov,Soviet Union,1938-07-04,2007-11-29
V. Yemelyanov,Soviet Union,1942-04-25,1977-05-27
V. Galíndez,Argentina,1948-11-02,1980-10-25
T. Everett,United States,1953-04-18,1977-05-26
T. Scanlan,Samoans,1934-07-12,2014-10-21
T. Griffiths,United States,1907-01-01,1968-11-15
T. Canzoneri,Americans,1908-11-06,1959-12-09
T. A. Jr.,United States,1963-02-13,2015-05-12
T. Ryan,Canadian,1870-03-31,1948-08-03
T. Milligan,Scottish people,1904-03-02,1970-12-17
T. Loughran,United States,1902-11-29,1982-07-07
T. Harrison,English people,1892-08-17,1931-0-0
T. Gibbons,United States Of America,1891-03-22,1960-11-19
T. Freeman,United States,1904-01-22,1986-02-20
T. Farr,British people,1913-03-12,1986-03-01
T. Davies,Wales,1920-05-07,1988-12-0
T. Burns,Canada,1881-06-17,1955-05-10
T. Sharkey,Ireland,1873-11-26,1953-4-17
T. McCormick,Irish people,1890-08-08,1916-07-06
T. Heeney,New Zealand,1898-05-18,1984-06-15
T. Berry,English people,1890-02-14,1943-0-0
T. Allen,United Kingdom,1840-04-01,1904-04-05
T. J. Fox,Americans,1907-04-02,1954-04-06
T. Thomas,Wales,1880-04-08,1911-08-13
T. Spencer,Americans,1943-03-28,2013-12-13
T. Stevenson,Cubans,1952-03-29,2012-06-11
T. McGovern,Americans,1880-03-09,1918-02-22
T. Allen,British people,1924-06-18,1987-04-08
T. Spinks,United Kingdom,1938-02-28,2012-04-26
T. Yarosz,Americans,1910-06-24,1974-03-29
T. Gardner,English people,1922-01-27,1977-0-0
T. Baldock,English people,1907-05-24,1971-03-08
T. Lowry,United States,1919-10-27,2010-06-14
"T. "". Lewis",England,1893-10-28,1970-10-20
T. Stevenson,Cubans,1952-03-29,2012-06-11
T. Walasek,Poland,1936-07-15,2011-11-04
S. Little,Americans,1965-06-09,2000-01-30
S. Curtis,Wales,1948-12-26,1994-10-28
S. Poreda,United States,1909-01-30,1983-11-30
S. Ketchel,Americans,1886-09-14,1910-10-15
S. Stepashkin,Soviet Union,1940-09-01,2013-09-04
S. Sorokin,Soviet Union,1941-2-17,1991-2-2
S. Rowan,English people,1924-09-06,1997-1-1
S. Seeman,Americans,1902-02-26,1989-03-11
S. Krieger,United States,1909-03-28,1964-09-24
S. Montana,Filipino people,1913-02-24,1976-08-04
S. Escobar,Puerto Rican citizenship,1913-03-23,1979-11-17
S. Ş. Sam,Turkey,1974-06-23,2015-10-30
S. Sivko,Soviet Union,1940-06-07,1966-11-10
S. Scherbakov,Soviet Union,1918-06-20,1994-01-27
S. Kobozev,Russians,1964-07-20,1995-11-08
S. LeDoux,United States,1949-01-07,2011-08-11
S. Lovell,Argentina,1912-04-23,1966-03-17
S. Camarão,Portuguese people,1902-12-25,1968-04-05
S. Ferguson,Canada,1879-07-24,1919-02-26
S. Mandell,United States,1904-02-05,1967-11-07
S. McVey,United States,1884-05-17,1921-12-23
S. Sánchez,Mexican people,1959-01-26,1982-08-12
S. Bartolo,United States,1917-11-05,2002-02-19
R. Stitch,United States,1933-01-07,1960-06-05
R. Ferns,Americans,1873-10-30,1952-06-11
R. Ankrah,Ghanaian people,1925-12-25,1995-05-28
R. James,Wales,1917-10-08,1977-06-12
R. Clayton,England,1923-02-09,2007-0-0
R. Smith,Great Britain,1944-10-14,2011-10-19
R. Rawson,United Kingdom,1892-6-17,1952-3-30
R. Murauskas,Soviet Union,1934-10-2,1979-5-23
R. Todd,English people,1900-01-14,1969-05-22
R. Lobo,Brazilians,1971-01-26,2006-07-28
R. Gonzales,United States,1928-06-18,2005-04-12
R. Casanova,Mexican people,1915-06-21,1980-11-23
R. Marciano,Americans,1923-09-01,1969-08-31
R. Kansas,United States,1893-04-21,1954-01-10
R. Castellani,United States,1926-05-26,2008-08-31
R. Dickie,Welsh people,1964-06-23,2010-10-28
R. Carmody,United States,1938-09-04,1967-10-27
R. Tamulis,Soviet Union,1938-07-22,2008-04-22
R. Lemos,People of the United States,1920-02-07,2004-10-18
R. Gunn,United Kingdom,1871-02-16,1961-6-23
R. Moreno,Mexican people,1937-02-07,2008-06-25
R. Arredondo,Mexican people,1949-05-26,1991-09-20
R. Tamulis,Soviet Union,1938-07-22,2008-04-22
R. Meen,United Kingdom,1907-11-20,1984-0-0
R. Macías,Mexican people,1934-07-28,2009-03-23
R. Bronson,Americans,1887-08-02,1948-01-01
R. Turpin,England,1928-06-07,1966-05-17
R. Carver,United States,1974-12-03,1999-09-14
R. Lally,United States,1948-02-12,2011-12-18
R. Dupas,United States,1935-10-14,2008-01-25
R. Guzmán,Mexican people,1986-04-09,2011-10-18
R. Macías,Mexican people,1934-07-28,2009-03-23
P. Zayev,Soviet Union,1953-07-29,2014-11-29
P. Carnera,Italian people,1906-10-26,1967-06-29
P. Mitchell,People of the United States,1899-01-01,1976-03-11
P. Fourie,South Africa,1943-06-26,1980-06-21
P. John,United Kingdom,1910-0-0,1985-0-0
P. J. O'Brien,United States,1878-01-17,1942-11-12
P. Terranova,American people,1919-09-04,2000-03-16
P. Scott,English people,1900-01-03,1983-12-04
P. Martin,England,1950-04-05,1994-05-27
P. Waterman,Great Britain at the 1952 Summer Olympics,1934-12-08,1986-01-16
P. Maher,Ireland,1869-03-16,1940-07-22
P. Keenan,Scottish people,1928-08-08,2000-07-27
P. Kane,English people,1918-02-28,1991-07-23
P. Felix,Australia,1866-07-17,1926-11-10
P. Crawley,United States,1799-12-05,1865-03-12
P. Mead,United States,1924-01-11,2007-07-02
P. Latzo,People of the United States,1902-08-01,1968-07-07
P. Hayles,Jamaican people,1940-10-24,1978-08-28
P. Nolasco,Dominican Republic,1962-02-20,1995-09-15
P. Montañez,Puerto Rican people,1914-04-24,1996-06-26
P. Alcázar,Panama,1975-08-29,2002-06-24
P. Palmer,England,1876-09-25,1949-02-13
P. Sykes,England,1946-05-23,2007-03-07
P. Fritsch,France,1901-2-25,1970-09-22
P. Killen,United States Of America,1861-12-24,1891-10-21
P. O'Keefe,United Kingdom,1883-03-17,1960-0-0
P. McAteer,English people,1932-03-17,2009-04-30
P. Bradley,Americans,1884-03-03,1976-02-01
P. Pérez,Argentina,1926-05-04,1977-01-22
P. L. Roy,India,1893-12-20,1979-12-30
P. A. Brown,Panama,1902-07-05,1951-04-11
P. Ryan,Irish American,1851-03-15,1900-12-14
P. Duffy,Americans,1864-11-12,1890-07-09
P. DeMarco,People of the United States,1928-02-10,1997-12-13
P. T. Jones,United Kingdom,1766-1-1,1833-08-22
P. McFarland,United States,1888-11-01,1936-09-22
O. Díaz,Americans,1982-09-29,2015-02-26
O. Andrén,Sweden,1899-11-07,1981-09-11
O. Tandberg,Sweden,1918-10-10,1996-12-12
O. Walker,Americans,1911-09-19,1989-05-04
N. Dempsey,Irish people,1862-12-15,1895-11-02
N. Valdés,Cubans,1924-12-05,2001-06-03
N. P. Daly,British people,1913-02-17,1988-09-25
N. Ramm,Sweden,1903-01-01,1986-11-08
N. Burley,United States Of America,1875-05-17,1911-03-05
N. Gargano,United Kingdom,1934-11-01,2016-03-28
N. Valdés,Cubans,1924-12-05,2001-06-03
N. Brown,United States,1904-1-1,1977-02-01
N. Meade,British nationality law,1948-09-12,2010-03-13
N. Tarleton,Great Britain,1906-02-14,1956-01-12
N. Turpin,Americans,1981-12-19,2005-2-14
M. B. Smith,Canadian,1871-05-15,1937-10-14
M. Callahan,People of the United States,1904-11-03,1986-06-18
M. King,Americans,1884-01-01,1956-12-10
M. Attell,Americans,1885-07-28,1960-11-11
M. Calhoun,Jamaican people,1940-09-21,1995-03-15
M. Quarry,United States,1951-3-4,2006-06-11
M. O'Dowd,United States,1895-04-05,1957-07-28
M. McTigue,Ireland,1892-11-26,1966-08-12
M. Hunter,Americans,1959-09-14,2006-02-08
M. Holt,Demographics of South Africa,1931-09-15,2008-07-19
M. Glover,Americans,1890-12-18,1917-07-11
M. Gibbons,United States Of America,1887-07-20,1956-08-31
M. Cleary,Irish American,1858-05-19,1893-09-05
"M. "". Sullivan",Americans,1878-09-23,1937-10-31
M. Wolgast,People of the United States,1910-07-18,1955-10-19
M. Walker,Americans,1901-07-13,1981-04-28
M. Bennett,Wales,1960-02-20,1999-1-1
M. Berger,Canadians,1917-02-23,2000-08-01
M. Baer,Americans,1909-02-11,1959-11-21
M. Mina,Peruvian people,1933-11-12,1993-06-01
M. Cullen,United Kingdom,1937-12-30,2001-11-0
M. Matthews,American people,1873-07-13,1948-12-06
M. Wells,United Kingdom,1886-12-14,1953-06-27
M. Ohba,Japan,1949-10-21,1973-01-25
M. D'Agata,Italy,1926-05-29,2009-04-04
