col0,col1,col2,col3
Voitheia! O Vengos faneros praktor 000,D. Nikolaidis,N. Tsiforos,5340
Voices of the City,L. C. Sr.,A. F. Statter,3600
Voices of Sarafina!,L. Khumalo,M. Ngema,5100
Voice of the Whistler,R. Williams,W. Castle,3600
Voice of the City,R. Ames,J. W. Farnham,4860
Voice of a Murderer,S. Kyung-gu,P. Jin-pyo,7320
Voice of Silence,A. Fabrizi,G. W. Pabst,6600
Voice in the Wind,J. E. Bromberg,F. Torberg,5100
Voice Without a Shadow,J. Shishido,S. Matsumoto,5520
Voglia di guardare,J. Tamburi,A. Massaccesi,5340
Voces inocentes,L. Varela,L. Mandoki,9120
Vizhi Moodi Yosithaal,Urvashi,K. Kumar,7320
Viyyalavari Kayyalu,U. Kiran,Sainath,8400
Viy,L. Kuravlyov,N. Gogol,4680
Vixen!,E. Gavin,R. Meyer,4200
Vivre ensemble,A. Karina,A. Karina,5580
Vivir Intentando,L. C. Fernández,T. Yankelevich,5700
Viviette,K. Toncray,J. C. Ivers,3000
Vive L'Amour,L. Kang-sheng,T. Ming-liang,7080
Vivacious Lady,J. Stewart,E. Pagano,5400
Vivaaha Bhojanambu,C. Mohan,J. S. Sastry,8520
Viva la Muerte,N. Espert,F. Arrabal,5400
Viva l'Italia,R. Bova,M. Bruno,6000
Viva Zapatero!,S. Guzzanti,S. Guzzanti,4800
Viva Zapata!,M. Brando,J. Steinbeck,6780
Viva Villa!,F. Wray,H. Hawks,6900
Viva Riva!,F. Kwizera,Djo Tunda Wa Munga,5760
Viva Max!,P. Ustinov,J. Lehrer,5580
Viva Maria!,B. Bardot,L. Malle,7140
Viva Las Vegas,Ann-Margret,S. Benson,5100
Viva Erotica,L. Cheung,D. Yee,5940
Viva Cisco Kid,C. Romero,S. G. Engel,3900
Viva Cangaceiro,T. Milian,G. Fago,6240
Viva Belarus!,K. Gruszka,F. Viacorka,5880
Viva,H. Medina,M. O'Halloran,6000
Viva,A. Biller,A. Biller,7200
Vital Signs,N. Aleandro,J. Stuart,6180
Vital,T. Asano,S. Tsukamoto,5160
Viswa Mohini,C. V. Nagaiah,Y. V. Rao,11700
Visitors,S. York,E. D. Roche,6000
Visit to a Small Planet,E. Holliman,G. Vidal,5100
Visit to a Chief's Son,R. Mulligan,R. H. Sr.,5100
Vision – From the Life of Hildegard von Bingen,B. Sukowa,M. v. Trotta,6660
Vision Quest,M. Modine,D. Ponicsan,6420
Vision – From the Life of Hildegard von Bingen,B. Sukowa,M. v. Trotta,6660
Visibility Zero,N. Kourkoulos,N. Foskolos,6780
Vishwas,A. Sen,G. Bawra,8280
Vishwaroopam,R. Bose,K. Haasan,8940
Vishwa,Suhasini,R. Santoshi,8700
Vishudhan,K. Boban,Vyshakh,7920
Vishnuvardhana,Sudeep,P. Kumaran,10140
Vishnu Sena,R. Aravind,A. R. Murugadoss,10080
Vishnu,Jaishankar,S. A. Chandrasekhar,9000
Visas and Virtue,C. Tashima,C. Tashima,1560
Visaranai,Samuthirakani,Vetrimaaran,7080
Virus,C. Connors,K. Fukasaku,9360
Virumaandi,Napoleon,K. Haasan,10500
Virudhagiri,Vijayakanth,Vijayakanth,8580
Virtuosity,R. Crowe,E. Bernt,6360
Virtue,C. Lombard,R. Riskin,4080
Virtual Obsession,P. Gallagher,M. Garris,10800
Viridiana,F. Rabal,J. Alejandro,5400
Virginity,L. Baarová,M. Majerová,4860
Virginia City,E. Flynn,R. Buckner,7260
Virginia,T. Jones,D. L. Black,6960
Virgin Witch,P. Haines,B. Vertue,5280
Virgin Territory,H. Christensen,D. Leland,5820
Virgin Stripped Bare by Her Bachelors,L. Eun-ju,H. Sang-soo,7560
Virgin Island,S. Poitier,R. L. Jr.,5640
Virgil,J. Cassel,M. E. Mechri,5580
Viralukketha Veekkam,Livingston,V. Sekhar,9300
Viral,A. Tipton,C. B. Landon,5100
Violins at the Ball,J. Trintignant,M. Drach,6600
Violette Nozière,I. Huppert,H. Bromberger,7440
Violette,E. Devos,M. Provost,8340
Violets Are Blue,S. Spacek,N. F. Gyllenhaal,5160
Violet & Daisy,M. Jean-Baptiste,G. S. Fletcher,5280
Violent Shit III,A. Schnaas,A. Schnaas,5100
Violent Saturday,S. Sidney,S. Boehm,5400
Violent Playground,S. Baker,J. Kennaway,6480
Violent Moment,L. Brook,P. Barnes,3660
Violent Life,E. M. Salerno,P. P. Pasolini,6900
Violent Cop,T. Kitano,H. Nozawa,6180
Violent City,C. Bronson,L. Wertmüller,6000
Violent Blue,N. Mancuso,G. Hatanaka,7740
Violated Angels,J. Kara,K. Wakamatsu,3360
Violanta,L. Bosé,D. Schmid,5700
Viola Kisses Everybody,L. Pieraccioni,G. Veronesi,5580
Vinyl,E. Sedgwick,R. Tavel,4200
Vinyan,E. Béart,D. Greig,5760
Vintage Wine,S. Hicks,S. Hicks,4860
Vinnaithaandi Varuvaayaa,T. Krishnan,G. V. Menon,9420
Vincere,G. Mezzogiorno,M. Bellocchio,7680
Vincent and Me,J. Calment,M. Rubbo,6060
Vincent,J. Hurt,P. Cox,5700
Vincent & Theo,T. Roth,J. Mitchell,8280
"Vincent, François, Paul and the Others",G. Depardieu,J. Dabadie,6780
Vinashak – Destroyer,R. Tandon,R. K. Santoshi,9480
Villu,Nayanthara,P. Deva,9000
Ville-Marie,M. Bellucci,G. Édoin,6060
Villain,A. Kumar,K. S. Ravikumar,9840
Villain,R. Burton,D. Clement,5880
Village of the Giants,B. Bridges,A. Caillou,4860
Village of the Damned,C. Reeve,J. Wyndham,5940
Village of the Damned,G. Sanders,S. Silliphant,4620
Village Tale,R. Scott,A. Scott,4800
Villafranca,C. Racca,B. Mussolini,6300
Villa for Sale,G. Kabos,G. v. Cziffra,4980
Villa Rides,R. Mitchum,R. Towne,7500
Villa Amalia,I. Huppert,P. Quignard,5640
Villa 69,Lebleba,M. Ezzat,7200
Villa-Lobos: A Life of Passion,A. Fagundes,J. Assis,7800
Vileness Fats,T. Residents,T. Residents,1020
Vikramarkudu,A. Shetty,K. V. Vijayendra Prasad,9660
Vikramadithyan,D. Salmaan,I. Kuttippuram,8580
Vikram,A. Nagarjuna,V. M. Rao,10380
Vijeta,Rekha,S. Dubey,294591
Vijayendra Varma,N. Balakrishna,K. V. Vijayendra Prasad,10080
Vijayam,Gajala,S. S. Rao,9300
Vijay Vikram,Jayanthi,C. U. Shankar,9060
Vijay,A. Kher,A. u. Iman,10800
Vigilantes of Dodge City,W. B. Elliott,F. Harman,3840
Vigilante Hideout,A. Lane,R. Wormser,3600
Vigilante Force,K. Kristofferson,G. Armitage,5340
Vigilante,W. Colón,R. Vetere,5400
Vigil in the Night,C. Lombard,A. J. Cronin,5760
Vigil,B. Kerr,V. Ward,5160
Vietnam Veedu,K. A. Thangavelu,V. V. Sundaram,8760
Vietnam: The Last Battle,J. Pilger,J. Pilger,3060
Vient de paraître,P. Fresnay,M. Duran,5820
Viennese Nights,J. Hersholt,O. H. II,5700
Viennese Girls,J. Holzmeister,W. Forst,6540
Vienna Tales,H. Moser,E. Marischka,6000
Vienna Blood,W. Fritsch,A. Eggebrecht,6180
