col0,col1,col2,col3
Wild Harvest,D. Lamour,"John Cherry Monks, Jr.",5520
Wild Guitar,R. D. Steckler,A. H. Sr.,5520
Wild Gold,C. Trevor,L. Cole,4500
Wild Girl,C. Farrell,E. J. Mayer,4680
Wild Geese II,E. Fox,R. Rose,7500
Wild Geese Calling,H. Fonda,H. McCoy,4620
Wild Gals of the Naked West,J. Moran,R. Meyer,3900
Wild Flower,D. d. Río,E. Fernández,5640
Wild Company,F. Albertson,B. King,4260
Wild City,L. Koo,R. Lam,6300
Wild Child,A. Pettyfer,L. Dahl,5880
Wild Cargo,F. Buck,C. R. Cooper,5760
Wild Card,J. Alexander,W. Goldman,5520
Wild Canaries,A. Shawkat,L. M. Levine,5880
Wild Brian Kent,M. Clarke,H. B. Wright,3420
Wild Boys of the Road,F. Darro,E. Baldwin,4020
Wild Blood,M. Bellucci,M. T. Giordana,9000
Wild Birds,M. Nilsson,A. Sjöberg,6000
Wild Bill Hickok Rides,B. Cabot,R. L. Schrock,4920
Wild Bill Hickok,W. S. Hart,W. S. Hart,4200
Wild Bill,B. Dern,W. Hill,5880
Wild,L. Dern,N. Hornby,6900
"Wild, Wild Susan",B. Daniels,T. J. Geraghty,3600
Wilby Wonderful,P. Gross,D. MacIvor,5940
Wiggledance!,M. Cook,T. Wiggles,2760
Wiggle Time,M. Cook,T. Wiggles,1920
Wifemistress,M. Mastroianni,R. Sonego,6360
Wife vs. Secretary,J. Stewart,N. Krasna,5280
Wife Tamers,L. Barrymore,S. Laurel,1200
Wife Savers,W. Beery,A. Wimperis,3600
Wife Number 13,R. Abaza,Abo El Seoud El Ebiary,5820
"Wife, Husband and Friend",L. Young,J. M. Cain,4500
"Wife, Doctor and Nurse",L. Young,L. Trotti,5100
Wiener-Dog,E. Burstyn,T. Solondz,5280
Widows' Peak,A. Dunbar,H. Leonard,6060
Widow by Proxy,M. Clark,J. C. Ivers,3000
Widow * Second Wife: Real Sucking Engulfing a Rare Utensil,K. Sano,K. Sano,3600
Widow's Might,Y. Arnaud,F. J. Jackson,4620
Wide Sargasso Sea,M. York,J. Duigan,5880
Wide Open Spaces,S. Laurel,H. M. Walker,1200
Wide Open,E. E. Horton,A. Caesar,4140
Wide Awake,D. Leary,M. N. Shyamalan,5280
Wicked as They Come,A. Dahl,K. Hughes,5640
Wicked Stepmother,B. Davis,L. Cohen,5580
Wicked Flying Monkeys,R. Araiza,D. Langdale,5220
Wicked City,J. Aumont,J. Aumont,4560
Wicked,J. Stiles,E. Weiss,5280
Wicked,U. Merkel,K. Nicholson,3420
"Wicked, Wicked",S. Brady,R. L. Bare,5700
Wichita,J. McCrea,D. B. Ullman,4860
Wibbel the Tailor,E. Ponto,H. Käutner,4500
Wibbel the Tailor,W. Zilzer,H. Müller-Schlösser,5040
Why Worry?,H. Lloyd,H. Walker,3780
Why Women Love,B. Sweet,R. Spence,4200
Why We Fight,C. Johnson,E. Jarecki,5880
Why Stop Now,J. Eisenberg,R. Nyswaner,5280
Why Shit So Crazy?,R. Watts,R. Watts,5400
Why Sailors Go Wrong,E. H. Calvert,R. Faye,3600
Why Pick on Me?,W. Watson,H. Maltby,3840
Why Men Leave Home,L. Stone,A. P. Younger,4800
Why Me?,C. Lloyd,D. E. Westlake,5220
Why Me?,C. Yun-fat,K. Cheng,5520
Why Man Creates,P. Saltman,S. Bass,1500
Why Leave Home?,D. Lee,W. Catlett,4200
Why Girls Love Sailors,O. Hardy,H. Roach,1200
Why Girls Leave Home,A. Q. Nilsson,W. Nigh,-4800
Why Girls Go Back Home,C. Brook,W. Morosco,3600
Why Don't You Play in Hell?,G. Hoshino,S. Sono,7740
Why Do Fools Fall in Love,H. Berry,T. Andrews,6960
Why Did I Get Married Too?,J. Jackson,T. Perry,7260
Why Cry at Parting?,P. Morgan,A. Halm,5280
Why Change Your Wife?,G. Swanson,O. Printzlau,5400
Why Bring That Up?,C. E. Mack,G. Abbott,4920
Why Beauty Matters,R. Scruton,R. Scruton,3540
Why Be Good?,C. Moore,C. Wilson,5040
Whose Life Is It Anyway?,B. Balaban,R. Rose,7140
Whore,D. Hannah,I. Pisano,5220
Whore,T. Russell,K. Russell,5100
Whoops Apocalypse,P. Cook,D. Renwick,5580
Whoops,D. Garas,G. Maár,5520
"Whoops, I'm an Indian!",B. Jamison,C. Bruckman,1032
Whoopee!,E. Cantor,O. Davis,6060
Whom the Gods Love,P. Hörbiger,E. v. Borsody,6660
Whom the Gods Love,L. Haid,G. Wellesley,4920
Whom the Gods Destroy,W. Connolly,A. P. Terhune,4500
Whom God Forgives,F. Rabal,A. Sastre,5520
Whole New Thing,C. K. Rennie,D. MacIvor,5520
Whole Lotta Sole,B. Fraser,T. George,5340
Whoever Slew Auntie Roo?,S. Winters,J. Sangster,5460
Who is the Guilty?,N. Vachnadze,A. Tsutsunava,6300
Who is Thanassis,G. Tzifos,G. Lazaridis,5400
Who Was the Man?,H. Gibson,G. H. Plympton,1200
Who Was That Lady?,J. Leigh,N. Krasna,6900
Who Wants to Kill Jessie?,O. Schoberová,V. Vorlíček,4860
Who Takes Love Seriously?,M. Hansen,H. Koster,5460
Who Saw Him Die?,P. Oscarsson,J. Troell,6600
Who Loves the Sun,L. Haas,M. Bissonnette,5640
Who Looks for Gold?,J. Hrušínský,J. Menzel,5880
Who Killed the Electric Car?,T. Hanks,C. Paine,5520
Who Killed Teddy Bear?,E. Stritch,A. Drake,5640
Who Killed Santa Claus?,R. L. Vigan,C. Spaak,6300
Who Killed Pasolini?,N. Braschi,M. T. Giordana,6000
Who Killed Hannah Jane?,J. Salter,R. Caswell,4800
Who Killed Bambi?,C. Jacob,G. Marchand,7560
Who Is the Man?,J. Gielgud,W. Summers,3600
Who Is Without Sin,F. Rosay,A. d. Lamartine,5820
Who Is Killing the Great Chefs of Europe?,J. Rochefort,P. Stone,6720
Who Is Hope Schuyler?,R. Cortez,A. d'Usseau,3540
Who Is Harry Kellerman and Why Is He Saying Those Terrible Things About Me?,B. Harris,H. Gardner,6480
Who Is Chris Rock?,C. Rock,M. J. Dennis,540
Who I Am And What I Want,K. Eldon,C. Shepherd,420
Who Hesitates Is Lost,Totò,B. Corbucci,5820
Who Goes There!,V. Hobson,J. Dighton,5100
Who Framed Roger Rabbit,B. Hoskins,Jeffrey Price and Peter S. Seaman,6240
Who Finds a Friend Finds a Treasure,B. Spencer,S. Corbucci,6120
Who Done It?,B. Hill,T. E. B. Clarke,5100
Who Done It?,L. Fine,E. Bernds,993
Who Done It?,W. Bendix,S. Roberts,4560
Who Dares Wins,J. Davis,R. Rose,7500
Who Cares,D. Devore,W. Anthony,3540
Who Cares?,C. Talmadge,C. Hamilton,3000
Who Can Kill a Child?,L. Fiander,J. J. Plans,6660
"Who Are You, Polly Maggoo?",G. Hall,W. Klein,6120
Who Are You?,A. Centa,G. Valori,4020
Who Am I,T. Schilling,B. b. Odar,6300
Who's the Man?,Ice-T,S. Greenland,5100
Who's the Caboose?,A. Dick,S. Seder,5640
Who's Your Lady Friend?,V. Oliver,A. Kimmins,4380
Who's Your Daddy?,W. Atherton,A. Fickman,6540
Who's Your Caddy?,J. Piddock,D. M. Paul,5580
Who's That Knocking at My Door,H. Keitel,M. Scorsese,5400
Who's That Girl,Madonna,K. Finkleman,5640
Who's Singin' Over There?,D. Nikolić,D. Kovačević,5220
Who's Minding the Store?,A. Moorehead,F. Tashlin,5400
Who's Minding the Mint?,D. Provine,H. Bullock,5820
"Who's Counting? Marilyn Waring on Sex, Lies and Global Economics",G. Steinem,T. Nash,5640
Who's Been Sleeping in My Bed?,C. Burnett,J. Rose,6180
Who's Afraid of Virginia Woolf?,E. Taylor,E. Lehman,7920
Who'll Stop the Rain,N. Nolte,R. Stone,7560
Whity,H. Schygulla,R. W. Fassbinder,5700
Whitewash,T. H. Church,E. Hoss-Desmarais,5400
Whiteout,T. Skerritt,C. Hayes,6060
White on Rice,J. K. Lee,D. Boyle,4920
White of the Eye,C. Moriarty,C. Kong,6660
White Woman,C. Lombard,F. Butler,4080
White Witch Doctor,R. Mitchum,I. Goff,5760
White Whales,E. Guðmundsson,F. Þ. Friðriksson,4800
White Voices,P. Ferrari,P. F. Campanile,5580
White Tiger,W. Beery,T. Browning,5160
White Sun of the Desert,S. Mishulin,R. Ibragimbekov,5100
White Squall,J. Savage,T. Robinson,7740
White Shoulders,J. Holt,J. Murfin,4800
White Shadows in the South Seas,M. Blue,Intertitles,5340
White Rush,J. Nelson,C. C. Joyner,5220
White Room,S. McCarthy,P. Rozema,5580
White Palace,J. Spader,A. Sargent,6180
White Oleander,M. Pfeiffer,M. A. Donoghue,6540
White Oak,W. S. Hart,W. S. Hart,3840
White Nights,G. Hines,J. Goldman,8160
White Nights,M. Schell,F. Dostoyevsky,5820
White Night Wedding,Þ. L. Gunnarsson,B. Kormákur,5760
White Mission,F. Rey,J. d. Orduña,5280
White Mischief,J. Ackland,J. Gems,6420
White Men Can't Jump,W. Snipes,R. Shelton,6900
White Material,I. Huppert,C. Denis,6360
White Man's Burden,H. Belafonte,D. Nakano,5340
White Line Fever,R. G. Armstrong,J. Kaplan,5400
White Lightning,B. Reynolds,W. W. Norton,6060
White Lightnin',M. Watson,S. Smith,5520
White Lies,A. Prebble,D. Rotberg,5580
White Lies,M. Trintignant,P. Salvadori,6360
White Lies,F. Wray,H. Shumate,3780
"White King, Red Queen",A. Dzhigarkhanyan,S. Bodrov,5160
White Irish Drinkers,G. Wigdor,J. Gray,6540
White Hunter Black Heart,M. Berenson,J. Bridges,6600
White Hunter,G. Patrick,G. W. Pabst,3900
White House Down,C. Tatum,J. Vanderbilt,7860
White Heat,E. O'Brien,I. Goff,6840
White Gold,J. Holland,J. Jopson,5460
