col0,col1,col2,col3,col4
T. Knap,1–0,2011-09-24,1914-12-08,1–3 (D-II playoffs)
S. Fulton,0–2,1985-07-13,1929-10-24,0–1 (NCAA Division III)
S. Sheriff,1–1,1993-01-16,1932-04-24,0–1 (NCAA D-II playoffs)
P. Pierce,3–2–1,2004-03-31,1914-12-29,1–0–1 (NAIA playoffs)
J. Wacker,0–1,2003-08-26,1937-04-29,4–0 (NAIA D-II playoffs)
J. Sochor,0&ndash;1,2015-11-23,1938-02-11,4&ndash;8 (NCAA D-II playoffs)
H. Elliott,0–1,2005-11-01,1931-12-24,0–1 (NCAA D-II playoffs)
E. Robinson,9–6,2007-04-03,1919-02-13,0–3 (NCAA D-I-AA playoffs)
D. Maurer,1–0,2011-07-30,1932-03-18,9–2 (NCAA D-III playoffs)
