col0,col1,col2,col3,col4
J. Leno,M. Leno,James Douglas Muir Leno,1950-04-28,1950-04-28
J. O'Loghlin,L. Bell,James O'Loghlin,1966-1-1,1966-1-1
J. Sreekumar,M. Sukumaran,Sreekumar Achary,1951-01-05,1951-01-05
H. Ker,M. Ganz,David Humphrey Rivers Ker,1982-10-11,1982-10-11
H. Lloyd,M. Davis,Harold Clayton Lloyd,1893-04-20,1893-04-20
H. Blake,Logie Awards of 2012,Hamish Donald Blake,1981-12-11,1981-12-11
G. Marx,E. Hartford,Julius Henry Marx,1890-10-02,1890-10-02
G. Delaney,S. Millican,Gary Justin Delaney,1973-04-16,1973-04-16
F. Armisen,E. Moss,Fereydun Robert Armisen,1966-12-04,1966-12-04
E. Kovacs,E. Adams,Ernest Edward Kovacs,1919-01-23,1919-01-23
E. DeGeneres,P. d. Rossi,Ellen Lee DeGeneres,1958-01-26,1958-01-26
E. Murphy,1993 MTV Movie Awards,Edward Regan Murphy,1961-04-03,1961-04-03
