col0,col1,col2,col3,col4,col5
Dark purple,8,25,52,52,51
Cyclamen,0,111,55,161,54
Cyan,100,255,0,255,100
Crimson,0,20,100,60,91
Cream,0,253,1,208,18
Coyote brown,0,97,25,62,52
Cornflower blue,59,149,37,237,58
Cordovan,0,63,54,69,54
Coral,0,127,50,80,69
Coquelicot,0,56,78,0,100
Copper,0,115,32,51,72
Columbia blue,13,216,4,226,13
Coffee,0,78,30,55,51
Citron,6,169,0,31,82
Citrine,0,208,8,10,96
Cinereous,0,129,15,123,19
Chocolate,0,63,50,0,100
Chestnut,0,69,54,53,64
Chartreuse,50,255,0,0,100
Champagne,0,231,6,206,17
Cerulean,100,123,26,167,100
Cerise,7,49,95,99,78
Carmine,0,0,75,24,100
Cardinal,0,30,85,58,85
Capri,100,191,25,255,100
Candy apple red,0,8,97,0,100
Camel,0,154,20,107,45
Cadet grey,46,163,29,176,18
Byzantium,0,41,63,99,63
Buff,0,220,8,130,46
Brown,0,75,50,0,100
Bronze,25,127,59,50,76
British racing green,98,66,0,37,99
Bole,0,68,44,59,51
Blue-green,93,152,18,186,93
Blue-gray,50,153,25,204,50
Bleu de France,79,140,39,231,79
Bistre,0,43,30,31,49
Beige,0,245,0,220,10
Baker-Miller Pink,0,145,43,175,43
Baby blue,43,207,14,240,43
Aqua,100,255,0,255,100
Apricot,0,206,18,177,30
Android green,17,198,0,57,71
Amber,0,191,25,0,100
Amaranth,0,156,35,187,35
Alizarin crimson,0,38,83,54,83
Alice blue,6,248,2,255,6
Acid green,8,191,0,26,86
