col0,col1,col2,col3
T. Brown,"Mandurah, Western Australia",1944-07-06,1944-07-06
T. Temple,Yorkshire,1961-08-16,1961-08-16
T. Jenkins,Herefordshire,1963-09-26,1963-09-26
T. Hankey,Telford,1968-02-20,1968-02-20
S. Groen,Wijhe,1995-05-30,1995-05-30
S. Kellett,"Denton, Greater Manchester",1981-08-12,1981-08-12
S. Holden,Chester-le-Street,1965-11-28,1965-11-28
S. West,Den Haag,1975-06-05,1975-06-05
S. Maish,Wigan,1963-11-22,1963-11-22
S. Hine,Coventry,1969-04-20,1969-04-20
S. Grubb,Bristol,1968-09-19,1968-09-19
S. Farmer,Telford,1965-03-26,1965-03-26
S. Evans,Pennal,1972-01-07,1972-01-07
S. Douglas,"Gillingham, Kent",1977-11-17,1977-11-17
S. Coote,Bolton,1970-09-19,1970-09-19
S. Brown,Missouri,1962-07-15,1962-07-15
S. Brown,Bristol,1981-01-25,1981-01-25
S. Brennan,Leiston,1951-02-11,1951-02-11
S. Beaton,Norfolk,1964-04-05,1964-04-05
S. Alker,Llanelli,1964-02-14,1964-02-14
S. Roberts,Wisbech,1957-04-26,1957-04-26
S. Bunting,Merseyside,1985-04-09,1985-04-09
S. Nagy,Enkoping,1951-07-31,1951-07-31
S. Bromberg,Las Vegas Valley,1956-07-27,1956-07-27
S. Whitlock,Australia,1969-03-03,1969-03-03
S. Whatley,Yeovil,1973-02-25,1973-02-25
S. Stevenson,Plymouth,1972-02-18,1972-02-18
S. Burgess,Hastings,1964-06-01,1964-06-01
S. Griffiths,Partington,1991-11-24,1991-11-24
S. Greatbatch,Lakenheath,1969-07-13,1969-07-13
S. Prins,Zoetermeer,1988-08-24,1988-08-24
S. O'Connor,Tallaght,1985-12-04,1985-12-04
S. Reed,Sydney,1965-06-28,1965-06-28
S. Waites,"Halifax, West Yorkshire",1977-02-17,1977-02-17
S. Rand,Coventry,1975-07-04,1975-07-04
S. Mitchell,Bransgore,1970-06-05,1970-06-05
S. MacKenzie,Hong Kong,1972-02-21,1972-02-21
S. Kirchner,Wisconsin,1969-08-27,1969-08-27
S. Burnett,"Sacramento, California",1974-02-04,1974-02-04
S. Stein,Birkenau,1984-10-19,1984-10-19
S. Head,Portsmouth,1993-06-14,1993-06-14
R. Meikle,Ipswich,1996-08-13,1996-08-13
R. Smith,Bolton,1989-01-12,1989-01-12
R. Montgomery,"Greenhills, East Kilbride",1962-10-16,1962-10-16
R. Huybrechts,Antwerp,1965-07-20,1965-07-20
R. Sharp,"Irvine, Scotland",1965-11-28,1965-11-28
R. Baxter,Lancashire,1961-02-05,1961-02-05
R. Meulenkamp,Heusden,1988-11-05,1988-11-05
R. Scholten,The Hague,1965-01-11,1965-01-11
R. David,Oslo,1985-10-22,1985-10-22
R. Carter,"Auburn, Alabama",1961-10-28,1961-10-28
R. Thornton,Ayrshire,1967-07-17,1967-07-17
R. MacKenzie,Fauldhouse,1958-3-25,1958-3-25
R. Hughes,Milford Haven,1966-12-12,1966-12-12
R. Green,Wallasey,1974-07-19,1974-07-19
R. Szabo,Wellington,1965-10-29,1965-10-29
R. Gardner,Surrey,1958-11-10,1958-11-10
R. Davies,Aberdare,1971-11-27,1971-11-27
R. Vonck,Posterholt,1987-03-12,1987-03-12
R. Evans,Kettering,1990-07-29,1990-07-29
R. Hofstra,Sneek,1977-04-21,1977-04-21
R. Howson,"Rainham, London",1965-12-19,1965-12-19
R. George,Essex,1989-12-18,1989-12-18
R. Burnett,Rhondda,1967-02-07,1967-02-07
R. Herbert,Pontypool,1972-11-28,1972-11-28
R. Edwards,Llanelli,1981-01-20,1981-01-20
R. Eidams,Hagen,1989-05-08,1989-05-08
R. v. Eijden,Zaandam,1977-09-12,1977-09-12
R. Robinson,Kingston upon Hull,1992-05-15,1992-05-15
R. v. Barneveld,The Hague,1967-04-20,1967-04-20
R. Farrell,Belfast,1965-1-1,1965-1-1
R. Carver,"Nashua, New Hampshire",1901-6-13,1901-6-13
R. Smith,Dumfries,1948-05-29,1948-05-29
P. Ridd,Christchurch,1953-0-0,1953-0-0
P. Jiwa,England,1970-05-21,1970-05-21
P. Blackwell,Kent,1974-11-27,1974-11-27
P. Hazel,"Napier, New Zealand",1956-01-03,1956-01-03
P. Nixon,County Durham,1956-03-13,1956-03-13
P. Taylor,Stoke-on-Trent,1960-08-13,1960-08-13
P. Gilman,Grimsby,1964-10-01,1964-10-01
P. Korte,Lahti,1966-12-12,1966-12-12
P. Wright,"Mendham, Suffolk",1970-03-10,1970-03-10
P. McDonald,Edinburgh,1965-02-11,1965-02-11
P. Manley,Cumbria,1962-03-07,1962-03-07
P. Locke,Welshpool,1956-08-14,1956-08-14
P. Johnstone,Falkirk,1961-10-25,1961-10-25
P. Hudson,"Eccles, Greater Manchester",1984-04-20,1984-04-20
P. Laursen,Låsby,1966-04-16,1966-04-16
P. Jacklin,"Gainsborough, Lincolnshire",1957-03-24,1957-03-24
P. Nicholson,Corby,1979-05-10,1979-05-10
P. Lim,"San Bernardino, California",1954-01-25,1954-01-25
P. Jennings,Hartlepool,1976-09-22,1976-09-22
P. Hogan,Basingstoke,1963-08-30,1963-08-30
P. Hanvidge,Barrhead,1961-06-15,1961-06-15
P. Gosling,Sheffield,1949-06-07,1949-06-07
P. Gibbs,Lancashire,1971-11-18,1971-11-18
P. Coughlin,Dundee,1978-12-19,1978-12-19
P. Carter,Bransgore,1974-08-30,1974-08-30
P. Barham,Essex,1989-04-29,1989-04-29
P. Amos,England,1975-08-08,1975-08-08
O. Thomas,Pontypool,1964-04-06,1964-04-06
O. Lukasiak,"Bro, Stockholm",1991-10-27,1991-10-27
N. Arendse,Cape Town,1968-12-16,1968-12-16
N. Heydon,Royal Leamington Spa,1970-07-22,1970-07-22
N. d. Ruiter,Nieuwegein,1983-01-21,1983-01-21
M. Hashimoto,Okayama Prefecture,1977-02-10,1977-02-10
M. Clegg,"Newcastle, New South Wales",1990-11-12,1990-11-12
M. Veitch,Bonnyrigg,1960-08-15,1960-08-15
M. d. Boer,Maastricht,1980-01-11,1980-01-11
M. McGowan,Dublin,1973-02-01,1973-02-01
M. Smith,"St Helens, Merseyside",1990-09-18,1990-09-18
M. Rosenauer,Gütersloh,1966-07-13,1966-07-13
M. Mansell,Clonoe,1973-08-31,1973-08-31
M. Barnard,Romford,1976-10-08,1976-10-08
M. King,"Bradwell, Norfolk",1966-03-15,1966-03-15
M. Hopp,Idstein,1996-08-20,1996-08-20
M. Flowers,England,1945-12-6,1945-12-6
M. Medhurst,Delft,1983-09-09,1983-09-09
M. Edgar,Daventry,1986-08-28,1986-08-28
M. Dicken,West Bromwich,1992-12-27,1992-12-27
M. Padgett,Ilkeston,1982-03-27,1982-03-27
M. Clark,Walkden,1968-04-04,1968-04-04
M. Phillips,Dolgellau,1960-04-30,1960-04-30
M. Atkins,"Rawdon, West Yorkshire",1965-12-24,1965-12-24
M. Adams,Lincolnshire,1956-06-04,1956-06-04
M. Pusa,Hollola,1977-04-15,1977-04-15
M. Kantele,Vääksy,1968-08-24,1968-08-24
M. Webster,Denbigh,1983-08-12,1983-08-12
M. Walsh,Abbots Langley,1965-02-02,1965-02-02
M. Stephenson,Newcastle upon Tyne,1976-01-13,1976-01-13
M. Salmon,Pontypridd,1963-02-23,1963-02-23
M. McGrath,Palmerston North,1968-07-15,1968-07-15
M. McGeeney,England,1972-06-28,1972-06-28
M. Lawrence,Tyne & Wear,1986-11-28,1986-11-28
M. Jones,Brierley Hill,1970-04-21,1970-04-21
M. Hylton,Staffordshire,1966-05-30,1966-05-30
M. Frost,Stoke-on-Trent,1971-10-23,1971-10-23
M. Barilli,Greenock,1973-11-14,1973-11-14
M. Michels,Dordrecht,1984-10-23,1984-10-23
M. Davies,Cardiff,1962-11-28,1962-11-28
M. Caris,Stockholm,1968-11-15,1968-11-15
M. Razma,Liepāja,1988-09-26,1988-09-26
L. Ilagan,Cainta,1978-02-11,1978-02-11
L. Blundell,Chorley,1978-03-16,1978-03-16
L. Winstanley,Derbyshire,1975-10-28,1975-10-28
L. Ashton,Bolton,1970-08-27,1970-08-27
L. Sams,Letchworth,1961-01-20,1961-01-20
L. Wallace,Southampton,1962-02-22,1962-02-22
L. Capewell,London,1959-11-28,1959-11-28
L. Kwadijk,Zaandam,1983-08-03,1983-08-03
L. Laurens,Itegem,1952-07-30,1952-07-30
L. Evans,Gloucestershire,1989-12-08,1989-12-08
L. C. Peng,Kuala Lumpur,1966-10-24,1966-10-24
L. Ryder,Perth,1966-12-28,1966-12-28
