col0,col1,col2,col3,col4,col5
Yellow,255,0,100,60,100
Yale Blue,0,40,42,210,8
Wine,114,55,45,353,52
Wheat,245,3,96,39,26
Viridian,64,11,51,161,63
Violet,127,0,100,270,0
Vermilion,227,0,89,5,71
Verdigris,67,30,48,177,3
Venetian red,200,0,84,0,97
Vanilla,243,5,95,48,30
Umber,99,61,39,21,28
Tuscan red,124,51,49,0,61
Turquoise,64,12,88,174,7
Tufts Blue,62,0,87,210,0
Terra cotta,226,11,89,10,60
Teal,0,8,50,180,49
Taupe,72,30,34,30,60
Tan,210,18,82,34,33
Sunset,250,2,98,35,34
Straw,228,11,89,54,51
Steel blue,70,29,71,207,0
Spring green,0,0,100,150,50
Spring bud,167,0,63,88,80
Slate gray,112,4,56,210,34
Sky blue,135,8,92,197,0
Shades of yellow,255,0,100,60,100
Shades of white,255,0,100,0,0
Shades of violet,143,0,100,274,0
Shades of pink,255,0,100,350,14
Shades of orange,255,0,100,30,100
Shades of magenta,255,0,100,300,0
Shades of cyan,0,0,100,180,0
Shades of brown,150,41,59,30,100
Shades of blue,0,0,100,240,0
Sepia,112,56,44,30,82
Seashell,255,0,100,25,4
Seal brown,89,57,20,0,93
School bus yellow,255,0,100,51,100
Scarlet,255,0,100,9,100
Sapphire,15,27,73,216,0
Salmon,250,0,100,14,69
Saffron,244,5,96,45,81
Safety orange,255,0,100,28,100
Rust,183,13,72,18,100
Russet,128,50,50,26,79
Ruby,224,12,88,337,57
Royal blue,0,60,40,219,0
Rose,255,0,100,330,50
Robin egg blue,0,0,80,180,27
Raspberry,227,11,89,337,60
Raisin black,36,86,14,300,0
Purple,128,0,50,300,0
Puce,114,55,45,353,52
Powder blue,176,10,90,220,0
Plum,142,44,557,347,6
Pink,255,0,100,350,14
Persian green,0,0,60,135,22
Persian blue,28,11,49,249,21
Periwinkle,204,0,100,240,0
Peach,255,0,100,40,29
Oxford Blue,0,60,28,212,0
Orchid,218,15,86,302,2
Orange,255,0,100,30,100
Olive,128,50,50,60,100
Old gold,207,19,81,49,71
Ochre,204,20,80,30,83
Navy blue,0,17,50,240,14
Navajo white,255,0,100,36,32
Naples yellow,250,2,98,48,62
NIVO,65,70,30,120,15
Mustard,255,0,100,47,77
Mulberry,197,0,70,285,0
Mikado yellow,255,0,100,45,95
Midnight green,0,70,33,187,26
Midnight blue,25,29,44,240,39
Mauve,224,0,100,276,0
Marigold,234,8,91,39,86
Marian blue,225,0,91,193,0
Marengo,76,60,40,212,0
Maize,251,2,98,54,63
Mahogany,192,25,75,20,100
Magenta,255,0,100,300,0
Liver,103,60,40,9,31
Lion,193,24,76,33,20
Lime,191,0,100,75,100
Lilac,200,22,78,300,0
Lavender,230,2,98,240,0
Lava,72,72,28,27,31
Kobicha,107,58,42,28,67
Jonquil,244,4,96,49,91
Jasmine,248,3,97,47,49
Ivory,255,0,100,60,6
Indigo,75,49,51,275,0
Indian red,205,25,75,0,52
Heliotrope,223,0,100,286,0
Goldenrod,218,15,85,43,85
Gold,255,0,100,51,100
Glaucous,96,29,71,216,0
Fulvous,228,11,89,35,100
Forest green,34,8,55,120,100
Flax,238,0,93,50,60
Fire engine red,206,19,81,357,80
Federal Standard 595 camouflage colours,146,0,62,212,40
Fallow,193,8,76,33,33
Electric green,0,0,100,120,100
Electric blue,125,0,100,183,0
Eggshell,240,6,94,46,11
Duke blue,0,24,34,222,6
Desert sand,237,7,93,25,26
Dark purple,48,80,20,291,0
Cyclamen,245,4,96,0,34
Cyan,0,0,100,180,0
Crimson,220,40,86,348,100
Cream,255,0,100,57,18
Coyote brown,129,49,51,31,52
Cornflower blue,100,0,93,219,0
Cordovan,137,46,54,355,50
Coral,255,0,100,16,69
Coquelicot,255,0,100,13,100
Copper,184,28,72,29,72
