col0,col1,col2,col3
The Overlanders,C. Rafferty,L. Norman,250000
The Outside Chance of Maximilian Glick,J. Rubes,R. Martin,317670
The Outlaw,W. Huston,W. Grissell,5075000
The Out-of-Towners,S. Martin,K. Beyda,28544120
The Other Woman,C. Diaz,A. Heim,196700000
The Other Sister,T. Skerritt,B. Green,27800000
The Other Side of Midnight,S. Sarandon,H. F. Kress,24652021
The Other Man,A. Banderas,T. Anwar,970157
The Other Love,R. Conte,W. A. Thompson,1000000
The Other Guys,M. Wahlberg,B. White,170400000
The Other End of the Line,A. Kher,E. Maniquis,507534
The Other Boleyn Girl,E. Bana,C. Littleton,77700000
The Osterman Weekend,B. Lancaster,E. M. Abroms,6486797
The Original Kings of Comedy,B. Mac,B. A. Brown,38182790
The Order,B. Fürmann,K. Stitt,11560806
The Oranges,O. Platt,J. M. Werner,366377
The Only Game in Town,E. Taylor,J. Holmes,1500000
The One and Only,H. Winkler,B. Molin,16928137
"The One and Only, Genuine, Original Family Band",L. A. Warren,C. Warburton,2250000
The One That Got Away,H. Krüger,S. Hayers,3000000
The One,J. Li,J. Coblentz,72700000
The Omen,D. Thewlis,D. Zimmerman,119500000
The Omen,G. Peck,S. Baird,60900000
