col0,col1,col2,col3
This is Emily Yeung,J. Johnson,J. Johnson,2006-12-20
This is Daniel Cook,J. Johnson,J. Johnson,2006-04-22
This Is England '90,J. Thorne,S. Meadows,2015-10-04
This Is England '88,J. Thorne,S. Meadows,2011-12-15
This Is England '86,J. Thorne,S. Meadows,2010-09-28
Thirtysomething,J. Dougherty,K. Olin,1991-05-28
Thirteen Steps Down,A. Hodges,M. Losey,2012-08-20
Thik Jeno Love Story,A. Banerjee,S. Chatterjee,2015-11-21
They Came from Outer Space,T. McLoughlin,S. Hayers,1991-03-19
Thea,C. Sheridan,J. Sandrich,1994-02-16
The Young Ones,A. Sayle,E. Bye,1984-06-19
The Wrong Mans,T. Basden,J. F. Smith,2014-12-23
The Wrong Door,B. Wheatley,B. Wheatley,2008-10-02
The World That They Live In,N. Hee-kyung,K. Kyu-tae,2008-12-16
The World Beyond,A. Wallace,N. Black,1978-01-27
The World's Greatest Super Friends,B. Kane,R. Patterson,1980-09-27
The Women of Brewster Place,G. Naylor,D. Deitch,1989-03-20
The Wombles,E. Beresford,I. Wood,1975-10-24
The Woman in White,D. Pirie,T. Fywell,1997-12-29
The Winds of War,H. Wouk,D. Curtis,1983-02-13
The Wind in the Willows,K. Grahame,M. Hall,1990-06-19
The White Shadow,G. Kott,J. Cooper,1981-03-16
The White Queen,L. McGee,C. Teague,2013-08-18
The Westerner,S. Peckinpah,S. Peckinpah,1960-12-30
The West Point Story,G. Roddenberry,T. Post,1957-07-05
The West,G. Ward,S. Ives,1996-09-22
The Way We Live Now,A. Davies,D. Yates,2001-12-02
The Visitor,H. Tobeason,K. Kerslake,1998-01-16
The Virginian,L. Stevens,A. Biberman,1971-03-24
The Village,P. Moffat,G. MacKinnon,2014-09-14
The Van Dyke Show,R. Clark,J. Sandrich,1988-12-07
The Twisted Whiskers Show,M. Olson,B. Kopp,2010-12-01
The Trojan Horse,J. Krizanc,C. Binamé,2008-04-06
The Tripods,J. Christopher,C. Barry,1985-11-23
The Trap,A. Curtis,A. Curtis,2007-03-25
The Tracy Morgan Show,T. Morgan,D. Schwimmer,2004-03-20
The Tony Randall Show,H. Wilson,T. Mordente,1978-03-25
The Thin Blue Line,B. Elton,J. Birkin,1996-12-23
The Ten Commandments,R. Hutchinson,R. Dornhelm,2006-04-11
The Ted Knight Show,L. Ganz,J. Burrows,1978-05-13
The Tall Man,D. C. Fontana,S. Pollack,1962-05-26
The Swiss Family Robinson,J. M. Lucas,L. H. Martinson,1976-04-04
The Super Powers Team: Galactic Guardians,A. Burnett,R. Patterson,1986-09-06
The Stu Erwin Show,E. Lazarus,C. Barton,1955-04-13
The Strip,A. Gough,D. J. Caruso,2000-07-07
The Street,J. McGovern,D. Blair,2009-08-17
The Straits,L. Nowra,R. Ward,2012-04-05
The Starter Wife,J. McGibbon,J. Avnet,2007-06-28
The Spoils of Babylon,M. Piedmont,M. Piedmont,2014-02-06
The Spoils Before Dying,M. Piedmont,M. Piedmont,2015-07-10
The Spectacular Spider-Man,M. Wayne,K. Altieri,2009-11-18
The Spa,D. Litten,S. Johnson,2013-12-27
The Sopranos,T. Winter,T. V. Patten,2007-06-10
The Smothers Brothers Show,D. Caruso,F. D. Cordova,1966-04-22
The Smoke,L. Kirkwood,M. Barker,2014-04-10
The Slingshot,S. Ji-na,Y. Sung-sik,2009-06-09
The Slap,B. Cowell,R. Connolly,2011-11-24
The Sinking of the Laconia,A. Bleasdale,U. Janson,2011-01-07
The Singing Detective,D. Potter,J. Amiel,1986-12-21
The Shnookums and Meat Funny Cartoon Show,B. Kopp,J. DeGrandis,1995-03-27
The Shadow Line,H. Blick,H. Blick,2011-06-16
The Secrets,S. Solemani,D. Savage,2014-09-12
The Secret Service,T. Barwick,K. Turner,1969-12-14
The Secret River,J. Sardi,D. Reid,2015-06-21
The Secret Life of the American Teenager,A. Ramsay,J. Priestley,2013-06-03
The Secret Garden,D. Brooking,D. Brooking,1975-02-12
The Secret Diary of Desmond Pfeiffer,M. Benson,M. Diamond,1998-10-28
The Secret Agent,T. Marchant,C. McDougall,2016-07-31
The Secret,S. Urban,N. Murphy,2016-05-20
The Second Hundred Years,R. Lees,J. Erman,1968-03-28
The Ruff and Reddy Show,J. Barbera,J. Barbera,1960-04-02
The Royle Family,C. Aherne,C. Aherne,2012-12-25
The Royal Family,E. Murphy,J. Shea,1992-05-13
The Rousters,T. McDonnell,J. Pevney,1984-07-21
The Rough Riders,S. A. Peeples,F. Adreon,1959-09-24
The Road West,B. C. Schoenfeld,P. Stanley,1967-08-28
The River,M. Aitkens,S. Belbin,1988-11-24
The Richie Rich/Scooby-Doo Show,M. Evanier,R. Patterson,1982-09-18
The Richard Boone Show,C. Odets,H. Morgan,1964-03-31
The Reporter,J. Weidman,T. Gries,1964-12-18
The Real Hustle,R. P. Wilson,A. J. McDowall,2012-03-30
The Range Rider,E. Freiwald,F. McDonald,1953-09-01
The Quest,S. J. Cannell,R. Holcomb,1982-11-19
The Quest,K. Powers,B. McEveety,1976-12-29
The Promise,P. Kosminsky,P. Kosminsky,2011-02-27
The Power of Nightmares,A. Curtis,A. Curtis,2004-11-03
The Politician's Husband,P. Milne,S. C. Jones,2013-05-09
The Phantom of the Opera,G. Leroux,T. Richardson,1990-03-19
The Peter Principle,J. O'Farrell,N. Wood,2000-03-06
The Perils of Penelope Pitstop,M. Maltese,J. Barbera,1970-01-17
The People Next Door,W. Craven,J. Lobue,1989-10-16
The Patty Duke Show,W. Asher,S. Prager,1966-04-27
The Passion,F. Deasy,M. Offer,2008-03-23
The Partners,L. Marks,D. Adams,1972-09-08
The Pacific,G. Pelecanos,C. Franklin,2010-05-16
The Outcasts,G. Day,R. Butler,1969-05-05
The Office,R. Gervais,R. Gervais,2003-12-27
The Office,K. Estin,J. Sandrich,1995-04-15
The Office: The Accountants,M. Schur,R. Einhorn,2006-09-07
The O. Henry Playhouse,G. Waggner,G. Waggner,1957-11-19
The O'Keefes,K. Murphy,A. Ackerman,2003-06-12
The Nutt House,M. Brooks,G. Nelson,1989-10-25
The No. 1 Ladies' Detective Agency,R. Curtis,A. Minghella,2009-04-19
The Night Of,R. Price,S. Zaillian,2016-08-28
The New Scooby and Scrappy-Doo Show,P. Dini,R. Patterson,1984-12-01
The New Phil Silvers Show,B. Starr,R. Amateau,1964-04-25
The New Perry Mason,E. S. Gardner,A. Marks,1974-01-20
The New Odd Couple,L. Ganz,J. Zwick,1983-05-26
The New Breed,D. Brinkley,J. Pevney,1962-06-05
The New Bob Cummings Show,S. Keller,D. Weis,1962-03-01
The New Andy Griffith Show,A. Ruben,L. Philips,1971-05-21
The New Adventures of Winnie the Pooh,D. Ross,J. Mitchell,1991-10-26
The New Adventures of Ocean Girl,J. M. Shiff,J. Tatoulis,2000-08-05
The New Adventures of Chor Lau-heung,G. Long,J. To,1985-01-04
The Nazis: A Warning from History,L. Rees,L. Rees,1997-10-15
The Nativity,T. Jordan,C. Giedroyc,2010-12-23
The Naked Truth,T. Martin,R. Benson,1998-05-25
The Moonstone,K. Elyot,R. Bierman,1996-12-30
The Mill,J. Fay,J. Hawes,2014-08-24
The Mike O'Malley Show,D. Gould,J. Widdoes,1999-09-28
The Mayfair Set,A. Curtis,A. Curtis,1999-08-08
The Mary Tyler Moore Hour,A. Kogen,J. Sandrich,1979-06-10
The Martian Chronicles,R. Matheson,M. Anderson,1980-01-29
The Marriage,E. Kinoy,J. Garfein,1954-08-19
The Manhunter,R. Bloch,L. H. Martinson,1975-03-05
The Lucy–Desi Comedy Hour,B. C. Jr.,D. Arnaz,1960-04-01
The Lovers,J. Rosenthal,J. Rosenthal,1971-11-18
The Lorax,D. Seuss,H. Pratt,2012-12-16
"The Long, Hot Summer",D. Riesner,V. Sherman,1966-04-13
The Lloyd Bridges Show,R. Towne,A. Biberman,1963-05-28
The Living and the Dead,A. Pharoah,A. Troughton,2016-08-02
"The Lion, the Witch and the Wardrobe",C. Lewis,M. Fox,1988-12-18
The Line of Beauty,A. Davies,S. Dibb,2006-05-31
The Life of Rock with Brian Pern,S. Day,R. Thomas,2016-01-30
The Life of Muhammad,Z. Sardar,F. Kermani,2011-07-25
The Life and Times of David Lloyd George,E. Morgan,J. Hefin,1981-04-29
The Life and Legend of Wyatt Earp,F. McDonald,F. H. Brennan,1961-06-27
The Life & Times of Tim,S. Dildarian,S. Dildarian,2012-02-17
The Legend of the Condor Heroes,L. Cha,J. To,1983-07-22
The Legend of Lu Xiaofeng,G. Long,B. Tang,2007-03-14
The Law and Mr. Jones,W. Bast,R. E. Miller,1961-09-22
The Langoliers,S. King,T. Holland,1995-05-15
The Kwicky Koala Show,B. Ogle,C. Urbano,1981-12-26
The Karen Dunbar Show,G. Sutherland,I. Davidson,2006-04-07
The Kaiser Aluminum Hour,E. Hunter,P. Bogart,1957-06-18
The Jury,P. Morgan,P. Travis,2002-03-18
The Jonathan Winters Show,J. Winters,H. Kenwith,1957-06-25
The Joey Bishop Show,G. Marshall,J. Paris,1965-03-30
The Jinx,A. Jarecki,A. Jarecki,2015-03-15
The Jimmy Durante Show,B. Schiller,S. Leonard,1956-06-23
The Jacksons: An American Dream,J. Eliason,K. Arthur,1992-11-18
The Jackie Thomas Show,R. Barr,P. Segal,1993-04-30
The Interns,D. Brinkley,M. J. Chomsky,1971-09-10
The Indian Doctor,D. Sehgal,D. Sehgal,2013-11-08
The Inbetweeners,I. Morris,I. Morris,2010-10-18
The Honourable Woman,H. Blick,H. Blick,2014-08-21
The History of Sex,M. J. Peltier,S. Benegal,1999-09-21
