col0,col1,col2,col3
Hull High,G. Grant,K. Ortega,1990-12-30
Howzat! Kerry Packer's War,C. Lee,D. Reid,2012-08-26
How to Marry a Millionaire,P. Schneider,P. Tewksbury,1959-08-20
How Soon Is Now?,P. Birro,M. Marcimain,2007-09-24
Housos,P. Fenech,P. Fenech,2013-09-16
House of Hancock,K. Thomson,M. Joffe,2015-02-15
House of Cards,A. Davies,P. Seed,1990-12-09
House Full,R. Rony,R. Rony,2009-07-23
Houdini,N. Meyer,U. Edel,2014-09-02
Hoppity Hooper,B. Scott,P. Burness,1967-09-02
Hondo,L. L'Amour,L. H. Katzin,1967-12-29
Holocaust,G. Green,M. J. Chomsky,1978-04-19
Hollywood,K. Brownlow,K. Brownlow,1980-04-01
HolbyBlue,S. Phelps,M. Huda,2008-06-05
Hobitit,T. Torikka,T. Torikka,1993-05-24
Him & Her,S. Golaszewski,R. Laxton,2013-12-19
High Society,L. Albert,M. Lembeck,1996-02-26
High School USA!,D. Stamatopoulos,J. Pham,2013-11-30
Hidden Hills,P. Segal,M. Coolidge,2003-01-21
Hidden,R. Bennett,N. MacCormick,2011-10-27
Heroes and Villains,A. Grieve,G. Edwards,2008-03-29
Hero: 108,N. Dubuc,T. Wall,2012-07-09
Here and Now,M. Pennette,J. Bowab,1993-01-02
Here's Boomer,L. Ganz,H. Kenwith,1982-08-14
"Herbie, the Love Bug",D. Nelson,B. Bixby,1982-04-14
Henry VIII,P. Morgan,P. Travis,2003-10-19
Helter Skelter,V. Bugliosi,T. Gries,1976-04-02
Help!... It's the Hair Bear Bunch!,J. Ruby,J. Barbera,1972-01-08
Heartland,E. Dingo,K. Woods,1994-06-01
Health and Efficiency,A. Marshall,R. Boden,1995-02-10
He Knew He Was Right,A. Davies,T. Vaughan,2004-04-25
Have Faith,N. Mauldin,N. Pitlik,1989-06-13
Harts of the West,D. Debin,B. D'Elia,1994-06-18
Harry and the Hendersons,S. Helberg,R. Kline,1993-06-18
Harry O,J. M. Lucas,D. Duke,1976-04-29
Hardball,A. Cole,D. Hemmings,1990-06-29
Happily Ever After: Fairy Tales for Every Child,F. Ajaye,B. W. Smith,2000-07-18
Hanging In,A. Julian,A. Rafkin,1979-08-29
H,É. Lavaine,É. Lartigau,2002-04-20
Guys Like Us,D. Schneider,S. Baio,1999-01-18
Gul-e-Rana,S. Bukhari,F. Rind,2016-04-02
"Guestward, Ho!",P. Dennis,D. Arnaz,1961-09-21
Grown Ups,P. E. O'Connell,M. Diamond,2000-05-22
Grizzly Tales for Gruesome Kids,J. Rix,J. Rix,2007-10-19
Grindl,B. Styler,C. Barton,1964-05-03
Grim & Evil,G. Miller,J. McIntyre,2002-10-18
Green Acres,J. Sommers,R. L. Bare,1971-04-27
Great Night Out,J. Harvey,E. Hegarty,2013-02-15
Great Expectations,S. Phelps,B. Kirk,2011-12-29
Great Expectations,C. Dickens,K. Connor,1991-08-25
Grandpas Over Flowers,L. Woo-jung,N. Young-seok,2015-05-08
Gormenghast,M. McKay,A. Wilson,2000-02-07
"Goodnight, Beantown",A. Carothers,B. Bixby,1984-08-29
Good Sports,M. Johnson,S. Lathan,1991-07-13
Good News,R. Dubin,A. M. Horsford,1998-05-19
"Good Morning, World",B. Persky,C. Reiner,1968-03-19
