col0,col1,col2,col3,col4
D. McEwen,Winnipeg,Ottawa,1980-07-03,1980-07-03
D. Nedohin,Alberta,Manitoba,1973-12-20,1973-12-20
D. Murdoch,Aberdeen,Dumfries,1978-04-17,1978-04-17
D. Roach,"Saint John, New Brunswick","Saint John, New Brunswick",1986-12-29,1986-12-29
D. Robertson,Winnipeg,Manitoba,1965-03-13,1965-03-13
D. Parsons,New Brunswick,City of Halifax,1990-01-29,1990-01-29
D. Inglis,Ottawa Hunt & Golf Club,Ontario,1988-02-26,1988-02-26
D. Jentsch,Füssen,Füssen,1982-01-15,1982-01-15
D. Ferguson,Saville Sports Centre,"St. Albert, Alberta",1987-02-25,1987-02-25
D. Muyres,"Saskatoon, Saskatchewan","Humboldt, Saskatchewan",1987-02-25,1987-02-25
D. Peters,"East St. Paul, Manitoba",Manitoba,1984-09-18,1984-09-18
D. Matchett,"Cookstown, Ontario","Newmarket, Ontario",1975-09-01,1975-09-01
D. Pewarchuk,"Victoria, British Columbia",Saskatchewan,1990-08-16,1990-08-16
C. Webster,Greater Sudbury,Alberta,1975-02-26,1975-02-26
C. V. Ymeren,"Ingersoll, Ontario",Ontario,1989-03-10,1989-03-10
C. Savill,Ottawa,West Germany,1978-10-25,1978-10-25
C. Brown,"Blaine, Minnesota","Madison, Wisconsin",1975-08-18,1975-08-18
C. George,"St. Paul, Minnesota",Minnesota,1986-06-24,1986-06-24
C. Scholz,Füssen,Germany,1989-08-01,1989-08-01
C. Morris,Calgary,Saskatchewan,1971-06-21,1971-06-21
C. Flasch,"Saskatoon, Saskatchewan","Biggar, Saskatchewan",1991-02-27,1991-02-27
C. Mitchell,Ontario,Bahamas,1969-09-23,1969-09-23
C. Pinkney,"Truro, Nova Scotia",Nova Scotia,1957-04-20,1957-04-20
C. Jones,"Halifax, Nova Scotia","Halifax, Nova Scotia",1959-12-16,1959-12-16
C. Hodgson,"West St. Paul, Manitoba",Alberta,1990-06-08,1990-06-08
C. Pescia,Switzerland,Switzerland,1963-11-17,1963-11-17
C. Hamilton,Lockerbie,Lockerbie,1989-01-31,1989-01-31
C. Sundgren,Karlstad,Sweden,1989-07-31,1989-07-31
C. Urech,Flims,Biel/Bienne,1984-01-15,1984-01-15
C. Schille,"Regina, Saskatchewan","Barrhead, Alberta",1983-02-19,1983-02-19
C. Gardner,"Ajax, Ontario",Ontario,1985-03-25,1985-03-25
C. Yoshida,Kitami,Hokkaido,1991-07-26,1991-07-26
C. Carey,"Calgary, Alberta",Manitoba,1984-09-12,1984-09-12
C. Thomas,Calgary,"Victoria, British Columbia",1986-04-04,1986-04-04
C. Eberle,"Regina, Saskatchewan","Regina, Saskatchewan",1981-09-17,1981-09-17
C. Osborne,Thurso,Canada,1966-06-17,1966-06-17
C. Stevens,"Halifax, Nova Scotia","Lunenburg, Nova Scotia",1974-06-23,1974-06-23
C. Overton-Clapham,Winnipeg,Manitoba,1969-07-19,1969-07-19
C. Auld,Port Perry,"Kingston, Ontario",1971-0-0,1971-0-0
C. Scheidegger,"Lethbridge, Alberta","Red Deer, Alberta",1988-01-31,1988-01-31
C. Rycroft,Alberta,Alberta,1977-08-29,1977-08-29
C. Delahunt,"Owen Sound, Ontario",Ontario,1981-07-11,1981-07-11
C. McRorie,Calgary Curling Club,Manitoba,1963-12-06,1963-12-06
C. Flaxey,Mississauga,Ontario,1983-08-30,1983-08-30
B. Cochrane,"Russell, Ontario","Winchester, Ontario",1957-10-09,1957-10-09
B. Webster,Calgary,Calgary,1978-08-02,1978-08-02
B. Virtue,Callie Curling Club,Alberta,1986-09-21,1986-09-21
B. O'Neill,Ottawa,"Ancaster, Ontario",1986-05-06,1986-05-06
B. Gallant,"St. John's, Newfoundland and Labrador",Prince Edward Island,1990-02-18,1990-02-18
B. Pierce,"New Westminster, British Columbia","New Westminster, British Columbia",1969-07-07,1969-07-07
B. Laing,Calgary,Ontario,1978-12-10,1978-12-10
B. Bottcher,Edmonton,Alberta,1991-12-19,1991-12-19
B. Nicholls,"Saint-Romuald, Quebec",Quebec City,1972-08-09,1972-08-09
B. Moskowy,"West St. Paul, Manitoba","Regina, Saskatchewan",1990-08-14,1990-08-14
B. Clark,"Seattle, Washington","Grand Forks, North Dakota",1977-09-12,1977-09-12
B. Jacobs,"Sault Ste. Marie, Ontario",Ontario,1985-06-11,1985-06-11
B. Gushue,"St. John's, Newfoundland and Labrador",Canada,1980-06-16,1980-06-16
B. Chorostkowski,Yellowknife,Northwest Territories,1973-09-05,1973-09-05
B. Ursel,Kelowna,Manitoba,1965-02-12,1965-02-12
B. Joyce,Halifax Regional Municipality,"Lunenburg, Nova Scotia",1983-03-06,1983-03-06
B. MacDonald,Edmonton,"Cold Lake, Alberta",1976-04-10,1976-04-10
B. Feltscher,Flims,Chur,1978-10-13,1978-10-13
B. Stopera,"Irvington, New York","Schenectady, New York",1968-08-13,1968-08-13
B. Å. Ramsfjell,Oslo,Oslo,1967-11-30,1967-11-30
B. Schwarz,Geneva,Zürich,1991-08-10,1991-08-10
B. Hebert,The Glencoe Club,Saskatchewan,1983-03-16,1983-03-16
B. Spencer,Winnipeg,Manitoba,1966-02-14,1966-02-14
B. J. Neufeld,Winnipeg,Manitoba,1986-02-28,1986-02-28
A. Ogasawara,Japan,Hokkaido,1978-11-25,1978-11-25
A. Sippala,Thunder Bay,Ontario,1987-01-21,1987-01-21
A. Razhabov,Saint Petersburg,"St. Petersburg, Russia",1989-04-28,1989-04-28
A. Kalalb,Saint Petersburg,Soviet Union,1988-03-16,1988-03-16
A. Carmody,"Summerside, Prince Edward Island","Summerside, Prince Edward Island",1989-11-29,1989-11-29
A. Lemay,"Dollard-des-Ormeaux, Quebec",Quebec,1977-05-16,1977-05-16
A. Sloan,Scotland,Dumfries,1991-02-05,1991-02-05
A. Sidorova,Moscow,Moscow,1991-02-06,1991-02-06
A. Ohmiya,"Aomori, Aomori","Tokoro, Hokkaido",1989-10-12,1989-10-12
A. Swisshelm,"Highland Park, Illinois","Middletown, Ohio",1968-03-09,1968-03-09
A. Jensen,Tårnby,Denmark,1973-05-23,1973-05-23
A. Kapp,Füssen,Sonthofen,1967-12-08,1967-12-08
A. Drozdov,Moscow,Moscow,1988-02-23,1988-02-23
A. Gibson,"Halifax, Nova Scotia",Nova Scotia,1979-05-31,1979-05-31
A. Sinclair,Ottawa,Ontario,1993-05-14,1993-05-14
A. Schöpp,Garmisch-Partenkirchen,Germany,1965-02-27,1965-02-27
