col0,col1,col2,col3,col4,col5
1927 Italian Grand Prix,R. Benoist,E. Cooper,Officine Meccaniche,Delage,9994
1926 San Sebastián Grand Prix,J. Goux,M. Costantini,Delage,Delage,17750
1925 Italian Grand Prix,G. Brilli-Peri,M. Costantini,Alfa Romeo in motorsport,Duesenberg,9994
1925 French Grand Prix,R. Benoist,G. Masetti,Delage,Sunbeam Motor Car Company,12500
1924 Italian Grand Prix,A. Ascari,G. Campari,Alfa Romeo in motorsport,Alfa Romeo in motorsport,9994
1924 French Grand Prix,G. Campari,R. Benoist,Delage,Sunbeam Motor Car Company,23142
1923 French Grand Prix,H. Segrave,E. Friderich,Sunbeam Motor Car Company,Fiat,22830
1922 Italian Grand Prix,P. Bordino,P. d. Vizcaya,Fiat,Fiat,9994
1921 Italian Grand Prix,J. Goux,L. Wagner,Ballot,Fiat,17300
1921 French Grand Prix,J. A. Murphy,J. Goux,Ballot,Duesenberg,17252
1914 French Grand Prix,C. Lautenschlager,O. Salzer,Mercedes,Mercedes,37626
1913 French Grand Prix,G. Boillot,J. Chassagne,Peugot,Delage,31620
1910 American Grand Prize,D. Bruce-Brown,B. Burman,Mercedes-Benz,Fiat,27800
1908 American Grand Prize,L. Wagner,F. Nazzaro,Benz & Cie.,Fiat,40434
1907 French Grand Prix,F. Nazzaro,P. Baras,Renault,Lorraine-Dietrich,76989
1906 French Grand Prix,F. Szisz,A. Clément,Fiat,Brasier,103175
