col0,col1,col2,col3
D. Arjmand,Iran,A. Arjmand,Iran
D. Singh,Indian people,List of Hindi film clans,Indian people
D. Nawaz,Pakistan,Y. Nawaz,Pakistan
D. Razon,Filipino people,E. Soriano,Filipino people
D. Padilla,Filipino people,R. Padilla,Filipino people
D. Snow,British Army,D. L. George,British Army
D. Ekborg,Sweden,A. Ekborg,Sweden
D. Dash,Americans,S. Dash,Americans
C. Lee,British people,H. Walter,British people
C. Evans,British nationality law,T. Evans,British nationality law
Champa,Bangladesh,Moushumi,Bangladesh
C. Fulop,Argentina,G. Sabatini,Argentina
C. Abellana,Filipino people,"R. "". Abellana",Filipino people
C. Lee,United States,C. Lee,United States
B. Kinsella,British nationality law,Murder of Ben Kinsella,British nationality law
B. Gleeson,Irish people,D. Gleeson,Irish people
B. A. Yap,Filipino people,B. A. Jr.,Filipino people
B. Alves,Filipino people,P. Pascual,Filipino people
B. Eklund,Sweden,F. Eklund,Sweden
B. Rahal,United States nationality law,C. Rahal,United States nationality law
B. A. W. Jayamanne,Sri Lanka,R. Devi,Sri Lanka
A. Fujitani,Japanese language,J. Gullón,Japanese language
A. Atayde,Filipino people,C. Garcia,Filipino people
A. Khan,India,S. Khan,India
