[
    {
        "col0": "Surplice",
        "col1": "Priam",
        "col2": "Touchstone",
        "col3": "1845-01-21"
    },
    {
        "col0": "Surfside",
        "col1": "Seeking The Gold",
        "col2": "Seattle Slew",
        "col3": "1997-01-21"
    },
    {
        "col0": "Sunspangled",
        "col1": "Ardross",
        "col2": "Caerleon",
        "col3": "1996-05-10"
    },
    {
        "col0": "Sunshack",
        "col1": "Roberto",
        "col2": "Rainbow Quest",
        "col3": "1991-02-08"
    },
    {
        "col0": "Sun Princess",
        "col1": "Val de Loir",
        "col2": "English Prince",
        "col3": "1980-05-18"
    },
    {
        "col0": "Summer Squall",
        "col1": "Secretariat",
        "col2": "Storm Bird",
        "col3": "1987-03-12"
    },
    {
        "col0": "Sultanina",
        "col1": "Zafonic",
        "col2": "New Approach",
        "col3": "2010-03-11"
    },
    {
        "col0": "Storming Home",
        "col1": "Shareef Dancer",
        "col2": "Machiavellian",
        "col3": "1998-05-14"
    },
    {
        "col0": "Storm Cat",
        "col1": "Secretariat",
        "col2": "Storm Bird",
        "col3": "1983-02-27"
    },
    {
        "col0": "Storm Bird",
        "col1": "New Providence",
        "col2": "Northern Dancer",
        "col3": "1978-04-19"
    },
    {
        "col0": "Still in Love",
        "col1": "Roberto",
        "col2": "Sunday Silence",
        "col3": "2000-05-02"
    },
    {
        "col0": "Steel Heart",
        "col1": "Abernant",
        "col2": "Habitat",
        "col3": "1972-03-25"
    },
    {
        "col0": "Stay Thirsty",
        "col1": "Storm Bird",
        "col2": "Bernardini",
        "col3": "2008-03-29"
    },
    {
        "col0": "Starborough",
        "col1": "Desert Wine",
        "col2": "Soviet Star",
        "col3": "1994-05-15"
    },
    {
        "col0": "St Reims",
        "col1": "L'Enjoleur",
        "col2": "Zabeel",
        "col3": "1999-11-09"
    },
    {
        "col0": "Spinning Queen",
        "col1": "Arazi",
        "col2": "Spinning World",
        "col3": "2003-03-27"
    },
    {
        "col0": "Speightstown",
        "col1": "Storm Cat",
        "col2": "Gone West",
        "col3": "1998-02-01"
    },
    {
        "col0": "Spectrum",
        "col1": "Irish River",
        "col2": "Rainbow Quest",
        "col3": "1992-05-08"
    },
    {
        "col0": "Speciosa",
        "col1": "Sky Classic",
        "col2": "Danehill Dancer",
        "col3": "2003-04-28"
    },
    {
        "col0": "Spearmint",
        "col1": "Minting",
        "col2": "Carbine",
        "col3": "1903-04-06"
    },
    {
        "col0": "Soviet Song",
        "col1": "Soviet Star",
        "col2": "Marju",
        "col3": "2000-02-18"
    },
    {
        "col0": "Sophisticat",
        "col1": "Rahy",
        "col2": "Storm Cat",
        "col3": "1999-01-25"
    },
    {
        "col0": "Solford",
        "col1": "Cavan",
        "col2": "Nijinsky",
        "col3": "1980-01-31"
    },
    {
        "col0": "Sole Power",
        "col1": "Distant View",
        "col2": "Kyllachy",
        "col3": "2007-03-18"
    },
    {
        "col0": "So Factual",
        "col1": "Roberto",
        "col2": "Known Fact",
        "col3": "1990-03-04"
    },
    {
        "col0": "Sleepytime",
        "col1": "Chief Singer",
        "col2": "Royal Academy",
        "col3": "1994-02-20"
    },
    {
        "col0": "Sky Lantern",
        "col1": "Shareef Dancer",
        "col2": "Red Clubs",
        "col3": "2010-01-27"
    },
    {
        "col0": "Siyouma",
        "col1": "Danehill",
        "col2": "Medicean",
        "col3": "2008-04-03"
    },
    {
        "col0": "Sixties Icon",
        "col1": "Diesis",
        "col2": "Galileo",
        "col3": "2003-02-16"
    },
    {
        "col0": "Sir Percy",
        "col1": "Blakeney",
        "col2": "Mark of Esteem",
        "col3": "2003-01-27"
    },
    {
        "col0": "Sir Harry Lewis",
        "col1": "Mr Prospector",
        "col2": "Alleged",
        "col3": "1984-01-24"
    },
    {
        "col0": "Singspiel",
        "col1": "Halo",
        "col2": "In the Wings",
        "col3": "1992-02-25"
    },
    {
        "col0": "Simply Perfect",
        "col1": "Selkirk",
        "col2": "Danehill",
        "col3": "2004-01-14"
    },
    {
        "col0": "Simple Verse",
        "col1": "Sadler's Wells",
        "col2": "Duke of Marmalade",
        "col3": "2012-03-05"
    },
    {
        "col0": "Sheriff's Star",
        "col1": "Kalamoun",
        "col2": "Posse",
        "col3": "1985-04-27"
    },
    {
        "col0": "Shergar",
        "col1": "Val de Loir",
        "col2": "Great Nephew",
        "col3": "1978-03-03"
    },
    {
        "col0": "Shavian",
        "col1": "Nijinsky",
        "col2": "Kris",
        "col3": "1987-03-31"
    },
    {
        "col0": "Shareta",
        "col1": "Barathea",
        "col2": "Sinndar",
        "col3": "2008-05-08"
    },
    {
        "col0": "Shared Belief",
        "col1": "Storm Cat",
        "col2": "Candy Ride",
        "col3": "2011-02-15"
    },
    {
        "col0": "Shanghai Bobby",
        "col1": "Orientate",
        "col2": "Harlan's Holiday",
        "col3": "2010-02-27"
    },
    {
        "col0": "Shamshir",
        "col1": "Be My Guest",
        "col2": "Kris",
        "col3": "1988-02-21"
    },
    {
        "col0": "Shaman Ghost",
        "col1": "Gilded Time",
        "col2": "Ghostzapper",
        "col3": "2012-05-05"
    },
    {
        "col0": "Shalaa",
        "col1": "War Chant",
        "col2": "Invincible Spirit",
        "col3": "2013-02-23"
    },
    {
        "col0": "Shake The Yoke",
        "col1": "Double Form",
        "col2": "Caerleon",
        "col3": "1993-04-01"
    },
    {
        "col0": "Shahrastani",
        "col1": "Thatch",
        "col2": "Nijinsky II",
        "col3": "1983-03-27"
    },
    {
        "col0": "Shady Heights",
        "col1": "Bold Lad",
        "col2": "Shirley Heights",
        "col3": "1984-05-17"
    },
    {
        "col0": "Shaamit",
        "col1": "Habitat",
        "col2": "Mtoto",
        "col3": "1993-02-11"
    },
    {
        "col0": "Shaadi",
        "col1": "Hoist The Flag",
        "col2": "Danzig",
        "col3": "1986-05-20"
    },
    {
        "col0": "Seventh Heaven",
        "col1": "Johannesburg",
        "col2": "Galileo",
        "col3": "2013-03-29"
    },
    {
        "col0": "Serious Attitude",
        "col1": "Cape Cross",
        "col2": "Mtoto",
        "col3": "2006-03-23"
    },
    {
        "col0": "Sendawar",
        "col1": "Darshaan",
        "col2": "Priolo",
        "col3": "1996-04-15"
    },
    {
        "col0": "Selkirk",
        "col1": "Nebbiolo",
        "col2": "Sharpen Up",
        "col3": "1988-02-19"
    },
    {
        "col0": "Seeking The Gold",
        "col1": "Buckpasser",
        "col2": "Mr. Prospector",
        "col3": "1985-04-07"
    },
    {
        "col0": "Seek Again",
        "col1": "Danehill",
        "col2": "Speightstown",
        "col3": "2010-04-13"
    },
    {
        "col0": "Secreto",
        "col1": "Secretariat",
        "col2": "Northern Dancer",
        "col3": "1981-02-12"
    },
    {
        "col0": "Secretariat",
        "col1": "Princequillo",
        "col2": "Bold Ruler",
        "col3": "1970-03-30"
    },
    {
        "col0": "Sea The Moon",
        "col1": "Monsun",
        "col2": "Sea The Stars",
        "col3": "2011-04-29"
    },
    {
        "col0": "Sea Moon",
        "col1": "Alleged",
        "col2": "Beat Hollow",
        "col3": "2008-03-06"
    },
    {
        "col0": "Screen Hero",
        "col1": "Sunday Silence",
        "col2": "Grass Wonder",
        "col3": "2004-04-18"
    },
    {
        "col0": "Scenic",
        "col1": "Foolish Pleasure",
        "col2": "Sadler's Wells",
        "col3": "1986-04-13"
    },
    {
        "col0": "Savabeel",
        "col1": "Success Express",
        "col2": "Zabeel",
        "col3": "2001-09-23"
    },
    {
        "col0": "Saratoga Springs",
        "col1": "General Assembly",
        "col2": "El Gran Senor",
        "col3": "1995-01-21"
    },
    {
        "col0": "Sanglamore",
        "col1": "Irish River",
        "col2": "Sharpen Up",
        "col3": "1987-03-01"
    },
    {
        "col0": "Salsabil",
        "col1": "Artaius",
        "col2": "Sadler's Wells",
        "col3": "1987-01-18"
    },
    {
        "col0": "Sakhee",
        "col1": "Sadler's Wells",
        "col2": "Bahri",
        "col3": "1997-02-14"
    },
    {
        "col0": "Sadler's Wells",
        "col1": "Bold Reason",
        "col2": "Northern Dancer",
        "col3": "1981-04-11"
    },
    {
        "col0": "Sadeem",
        "col1": "Nijinsky",
        "col2": "Forli",
        "col3": "1983-03-25"
    },
    {
        "col0": "Saddlers' Hall",
        "col1": "Val de Loir",
        "col2": "Sadler's Wells",
        "col3": "1988-05-26"
    },
    {
        "col0": "Sabirli",
        "col1": "Shareef Dancer",
        "col2": "Strike the Gold",
        "col3": "2001-04-09"
    },
    {
        "col0": "Ryafan",
        "col1": "Northern Dancer",
        "col2": "Lear Fan",
        "col3": "1994-03-08"
    },
    {
        "col0": "Russian Rhythm",
        "col1": "Nijinsky II",
        "col2": "Kingmambo",
        "col3": "2000-02-12"
    },
    {
        "col0": "Rumplestiltskin",
        "col1": "Mr. Prospector",
        "col2": "Danehill",
        "col3": "2003-02-17"
    },
    {
        "col0": "Ruler of the World",
        "col1": "Kingmambo",
        "col2": "Galileo",
        "col3": "2010-03-17"
    },
    {
        "col0": "Rule of Law",
        "col1": "Royal Academy",
        "col2": "Kingmambo",
        "col3": "2001-03-06"
    },
    {
        "col0": "Royal Orbit",
        "col1": "War Admiral",
        "col2": "Royal Charger",
        "col3": "1956-04-25"
    },
    {
        "col0": "Royal Gait",
        "col1": "High Top",
        "col2": "Gunner B",
        "col3": "1983-04-12"
    },
    {
        "col0": "Royal Anthem",
        "col1": "Ack Ack",
        "col2": "Theatrical",
        "col3": "1995-04-02"
    },
    {
        "col0": "Roseate Tern",
        "col1": "High Top",
        "col2": "Blakeney",
        "col3": "1986-03-12"
    },
    {
        "col0": "Rose Kingdom",
        "col1": "Sunday Silence",
        "col2": "King Kamehameha",
        "col3": "2007-05-10"
    },
    {
        "col0": "Rock Hard Ten",
        "col1": "Mr. Prospector",
        "col2": "Kris S.",
        "col3": "2001-04-05"
    },
    {
        "col0": "Rite of Passage",
        "col1": "Kris S",
        "col2": "Giant's Causeway",
        "col3": "2004-03-29"
    },
    {
        "col0": "Ribocco",
        "col1": "Hyperion",
        "col2": "Ribot",
        "col3": "1964-03-23"
    },
    {
        "col0": "Reliable Man",
        "col1": "Sadler's Wells",
        "col2": "Dalakhani",
        "col3": "2008-03-27"
    },
    {
        "col0": "Reine de Saba",
        "col1": "Sicambre",
        "col2": "Lyphard",
        "col3": "1975-05-07"
    },
    {
        "col0": "Regal Rose",
        "col1": "Conquistador Cielo",
        "col2": "Danehill",
        "col3": "1998-05-07"
    },
    {
        "col0": "Refuse To Bend",
        "col1": "Gulch",
        "col2": "Sadler's Wells",
        "col3": "2000-03-17"
    },
    {
        "col0": "Reference Point",
        "col1": "Habitat",
        "col2": "Mill Reef",
        "col3": "1984-02-26"
    },
    {
        "col0": "Red Clubs",
        "col1": "First Trump",
        "col2": "Red Ransom",
        "col3": "2003-01-17"
    },
    {
        "col0": "Red Cadeaux",
        "col1": "Peintre Celebre",
        "col2": "Cadeaux Genereux",
        "col3": "2006-03-06"
    },
    {
        "col0": "Red Bloom",
        "col1": "Polar Falcon",
        "col2": "Selkirk",
        "col3": "2001-03-11"
    },
    {
        "col0": "Reams of Verse",
        "col1": "Roberto",
        "col2": "Nureyev",
        "col3": "1994-04-23"
    },
    {
        "col0": "Ravinella",
        "col1": "Northern Dancer",
        "col2": "Mr Prospector",
        "col3": "1985-03-11"
    },
    {
        "col0": "Rajeem",
        "col1": "Cadeaux Genereux",
        "col2": "Diktat",
        "col3": "2003-02-27"
    },
    {
        "col0": "Rainbow View",
        "col1": "Nureyev",
        "col2": "Dynaformer",
        "col3": "2006-05-21"
    },
    {
        "col0": "Quiff",
        "col1": "Selkirk",
        "col2": "Sadler's Wells",
        "col3": "2001-03-02"
    },
    {
        "col0": "Quick As Lightning",
        "col1": "Bold Ruler",
        "col2": "Buckpasser",
        "col3": "1977-03-17"
    },
    {
        "col0": "Questing",
        "col1": "Seeking the Gold",
        "col2": "Hard Spun",
        "col3": "2009-04-13"
    },
    {
        "col0": "Quest for Fame",
        "col1": "Green Dancer",
        "col2": "Rainbow Quest",
        "col3": "1987-02-15"
    },
    {
        "col0": "Queen's Logic",
        "col1": "Diesis",
        "col2": "Grand Lodge",
        "col3": "1999-02-21"
    },
    {
        "col0": "Qualify",
        "col1": "Galileo",
        "col2": "Fastnet Rock",
        "col3": "2012-04-22"
    },
    {
        "col0": "Punctilious",
        "col1": "Roberto",
        "col2": "Danehill",
        "col3": "2001-05-07"
    },
    {
        "col0": "Protectionist",
        "col1": "Peintre Celebre",
        "col2": "Monsun",
        "col3": "2010-03-21"
    },
    {
        "col0": "Prized",
        "col1": "My Dad George",
        "col2": "Kris S.",
        "col3": "1986-05-20"
    },
    {
        "col0": "Prince of Penzance",
        "col1": "Mr Prospector",
        "col2": "Pentire",
        "col3": "2009-11-20"
    },
    {
        "col0": "Prince of Dance",
        "col1": "English Prince",
        "col2": "Sadler's Wells",
        "col3": "1986-04-21"
    },
    {
        "col0": "Prince John",
        "col1": "Count Fleet",
        "col2": "Princequillo",
        "col3": "1953-04-06"
    },
    {
        "col0": "Pride",
        "col1": "Alleged",
        "col2": "Peintre Celebre",
        "col3": "2000-04-20"
    },
    {
        "col0": "Presvis",
        "col1": "Never So Bold",
        "col2": "Sakhee",
        "col3": "2004-03-10"
    },
    {
        "col0": "Pour Moi",
        "col1": "Darshaan",
        "col2": "Montjeu",
        "col3": "2008-01-10"
    },
    {
        "col0": "Postponed",
        "col1": "Dubai Destination",
        "col2": "Dubawi",
        "col3": "2011-04-04"
    },
    {
        "col0": "Posse",
        "col1": "Bold Ruler",
        "col2": "Forli",
        "col3": "1977-05-15"
    },
    {
        "col0": "Pleascach",
        "col1": "Thunder Gulch",
        "col2": "Teofilo",
        "col3": "2012-02-06"
    },
    {
        "col0": "Pleasant Stage",
        "col1": "Stage Door Johnny",
        "col2": "Pleasant Colony",
        "col3": "1989-03-14"
    },
    {
        "col0": "Pivotal",
        "col1": "Cozzene",
        "col2": "Polar Falcon",
        "col3": "1993-01-19"
    },
    {
        "col0": "Phalaris",
        "col1": "Sainfoin",
        "col2": "Polymelus",
        "col3": "1913-05-16"
    },
    {
        "col0": "Petrushka",
        "col1": "Ela-Mana-Mou",
        "col2": "Unfuwain",
        "col3": "1997-05-03"
    },
    {
        "col0": "Petoski",
        "col1": "Petingo",
        "col2": "Niniski",
        "col3": "1982-02-24"
    },
    {
        "col0": "Peter Davies",
        "col1": "Silent Screen",
        "col2": "Bering",
        "col3": "1988-03-03"
    },
    {
        "col0": "Personal Ensign",
        "col1": "Hoist The Flag",
        "col2": "Private Account",
        "col3": "1984-04-27"
    },
    {
        "col0": "Pennekamp",
        "col1": "Green Dancer",
        "col2": "Bering",
        "col3": "1992-03-26"
    },
    {
        "col0": "Pay the Butler",
        "col1": "Graustark",
        "col2": "Val de l'Orne",
        "col3": "1984-02-20"
    },
    {
        "col0": "Pas de Reponse",
        "col1": "Mr Prospector",
        "col2": "Danzig",
        "col3": "1994-04-17"
    }
]