[
    {
        "col0": "Yuri Olefirenko",
        "col1": "9",
        "col2": "1970-12-31",
        "col3": "1971-05-31"
    },
    {
        "col0": "Yugoslav torpedo boat T3",
        "col1": "5",
        "col2": "1914-03-04",
        "col3": "1914-08-23"
    },
    {
        "col0": "Yugoslav destroyer Dubrovnik",
        "col1": "10",
        "col2": "1931-10-11",
        "col3": "1944-08-18"
    },
    {
        "col0": "Voima",
        "col1": "19",
        "col2": "1952-11-27",
        "col3": "1954-02-13"
    },
    {
        "col0": "United States lightship Overfalls",
        "col1": "7",
        "col2": "1938-06-04",
        "col3": "1938-09-11"
    },
    {
        "col0": "United States lightship Nantucket II",
        "col1": "9",
        "col2": "1952-08-04",
        "col3": "1952-09-12"
    },
    {
        "col0": "Ukrainian frigate Hetman Sahaydachniy",
        "col1": "14",
        "col2": "1992-03-29",
        "col3": "1993-04-02"
    },
    {
        "col0": "Ukrainian frigate Dnipropetrovsk",
        "col1": "14",
        "col2": "1977-05-07",
        "col3": "1978-02-17"
    },
    {
        "col0": "Ukrainian corvette Vinnytsia",
        "col1": "10",
        "col2": "1976-06-17",
        "col3": "1976-09-12"
    },
    {
        "col0": "Ukrainian corvette Ternopil",
        "col1": "10",
        "col2": "2002-03-15",
        "col3": "2006-02-16"
    },
    {
        "col0": "Ukrainian corvette Lutsk",
        "col1": "10",
        "col2": "1993-05-22",
        "col3": "1993-10-14"
    },
    {
        "col0": "USS Zuni",
        "col1": "11",
        "col2": "1943-07-31",
        "col3": "1943-10-09"
    },
    {
        "col0": "USS Zephyr",
        "col1": "7",
        "col2": "1993-12-03",
        "col3": "1994-10-15"
    },
    {
        "col0": "USS Zellars",
        "col1": "12",
        "col2": "1944-07-19",
        "col3": "1944-10-25"
    },
    {
        "col0": "USS Zelima",
        "col1": "19",
        "col2": "1945-03-02",
        "col3": "1946-07-27"
    },
    {
        "col0": "USS Zeilin",
        "col1": "21",
        "col2": "1920-12-11",
        "col3": "1942-01-03"
    },
    {
        "col0": "USS Zebra",
        "col1": "17",
        "col2": "1943-04-11",
        "col3": "1944-02-27"
    },
    {
        "col0": "USS Zeal",
        "col1": "9",
        "col2": "1942-09-15",
        "col3": "1943-07-09"
    },
    {
        "col0": "USS Zaniah",
        "col1": "17",
        "col2": "1943-12-12",
        "col3": "1943-12-22"
    },
    {
        "col0": "USS Zane",
        "col1": "9",
        "col2": "1919-08-12",
        "col3": "1921-02-15"
    },
    {
        "col0": "USS Young",
        "col1": "12",
        "col2": "1942-10-15",
        "col3": "1943-07-31"
    },
    {
        "col0": "USS Yosemite",
        "col1": "22",
        "col2": "1943-05-16",
        "col3": "1944-03-26"
    },
    {
        "col0": "USS Yorktown",
        "col1": "10",
        "col2": "1888-04-28",
        "col3": "1889-04-23"
    },
    {
        "col0": "USS Yorktown",
        "col1": "25",
        "col2": "1936-04-04",
        "col3": "1937-09-30"
    },
    {
        "col0": "USS Yorktown",
        "col1": "10",
        "col2": "1839-06-17",
        "col3": "1840-11-15"
    },
    {
        "col0": "USS York County",
        "col1": "18",
        "col2": "1957-03-05",
        "col3": "1957-11-08"
    },
    {
        "col0": "USS Yokes",
        "col1": "10",
        "col2": "1943-11-27",
        "col3": "1944-12-18"
    },
    {
        "col0": "USS Yew",
        "col1": "9",
        "col2": "1941-10-04",
        "col3": "1944-01-01"
    },
    {
        "col0": "USS Yellowstone",
        "col1": "16",
        "col2": "1917-12-09",
        "col3": "1918-09-21"
    },
    {
        "col0": "USS Yellowstone",
        "col1": "25",
        "col2": "1979-01-27",
        "col3": "1980-06-28"
    },
    {
        "col0": "USS Yellowstone",
        "col1": "21",
        "col2": "1945-04-12",
        "col3": "1946-01-16"
    },
    {
        "col0": "USS Yazoo",
        "col1": "10",
        "col2": "1944-10-18",
        "col3": "1945-05-31"
    },
    {
        "col0": "USS Yarnall",
        "col1": "12",
        "col2": "1943-07-25",
        "col3": "1943-12-30"
    },
    {
        "col0": "USS Yarnall",
        "col1": "9",
        "col2": "1918-06-19",
        "col3": "1918-11-29"
    },
    {
        "col0": "USS Yarborough",
        "col1": "9",
        "col2": "1919-06-20",
        "col3": "1920-12-31"
    },
    {
        "col0": "USS Yantic",
        "col1": "9",
        "col2": "1864-03-19",
        "col3": "1864-08-12"
    },
    {
        "col0": "USS Yale",
        "col1": "19",
        "col2": "1888-10-23",
        "col3": "1898-05-02"
    },
    {
        "col0": "USS Yakutat",
        "col1": "12",
        "col2": "1943-07-02",
        "col3": "1944-03-31"
    },
    {
        "col0": "USS Yahara",
        "col1": "11",
        "col2": "1944-07-30",
        "col3": "1944-09-29"
    },
    {
        "col0": "USS Yacona",
        "col1": "11",
        "col2": "1945-01-14",
        "col3": "1945-02-07"
    },
    {
        "col0": "USS YMS-477",
        "col1": "7",
        "col2": "1943-11-06",
        "col3": "1944-07-10"
    },
    {
        "col0": "USS YMS-386",
        "col1": "7",
        "col2": "1943-03-23",
        "col3": "1943-07-23"
    },
    {
        "col0": "USS Xenia",
        "col1": "17",
        "col2": "1945-06-27",
        "col3": "1945-07-28"
    },
    {
        "col0": "USS Xanthus",
        "col1": "17",
        "col2": "1944-07-31",
        "col3": "1945-05-09"
    },
    {
        "col0": "USS Wyman",
        "col1": "10",
        "col2": "1943-06-03",
        "col3": "1943-09-01"
    },
    {
        "col0": "USS Wyffels",
        "col1": "10",
        "col2": "1942-12-07",
        "col3": "1943-04-15"
    },
    {
        "col0": "USS Wyandotte",
        "col1": "13",
        "col2": "1864-12-22",
        "col3": "1876-01-24"
    },
    {
        "col0": "USS Wyalusing",
        "col1": "10",
        "col2": "1863-05-12",
        "col3": "1864-02-08"
    },
    {
        "col0": "USS Wright",
        "col1": "17",
        "col2": "1920-04-28",
        "col3": "1921-12-16"
    },
    {
        "col0": "USS Wren",
        "col1": "12",
        "col2": "1944-01-29",
        "col3": "1944-05-20"
    },
    {
        "col0": "USS Worden",
        "col1": "10",
        "col2": "1934-10-27",
        "col3": "1935-01-15"
    },
    {
        "col0": "USS Worden",
        "col1": "9",
        "col2": "1919-10-24",
        "col3": "1920-02-24"
    },
    {
        "col0": "USS Worden",
        "col1": "7",
        "col2": "1901-08-15",
        "col3": "1903-03-17"
    },
    {
        "col0": "USS Worden",
        "col1": "16",
        "col2": "1962-06-02",
        "col3": "1963-08-03"
    },
    {
        "col0": "USS Worcester",
        "col1": "21",
        "col2": "1947-02-04",
        "col3": "1948-06-26"
    },
    {
        "col0": "USS Worcester",
        "col1": "12",
        "col2": "1866-08-25",
        "col3": "1871-02-27"
    },
    {
        "col0": "USS Woonsocket",
        "col1": "11",
        "col2": "1943-09-27",
        "col3": "1944-09-01"
    },
    {
        "col0": "USS Woolsey",
        "col1": "9",
        "col2": "1918-09-17",
        "col3": "1918-09-30"
    },
    {
        "col0": "USS Woolsey",
        "col1": "10",
        "col2": "1941-02-12",
        "col3": "1941-05-07"
    },
    {
        "col0": "USS Woodworth",
        "col1": "10",
        "col2": "1941-11-29",
        "col3": "1942-04-30"
    },
    {
        "col0": "USS Woodson",
        "col1": "11",
        "col2": "1944-04-29",
        "col3": "1944-08-24"
    },
    {
        "col0": "USS Woodford",
        "col1": "19",
        "col2": "1944-10-05",
        "col3": "1945-03-03"
    },
    {
        "col0": "USS Woodcock",
        "col1": "10",
        "col2": "1918-05-12",
        "col3": "1919-02-19"
    },
    {
        "col0": "USS Woodbury",
        "col1": "9",
        "col2": "1919-02-06",
        "col3": "1920-10-20"
    },
    {
        "col0": "USS Wood County",
        "col1": "18",
        "col2": "1957-12-14",
        "col3": "1959-08-05"
    },
    {
        "col0": "USS Wood",
        "col1": "9",
        "col2": "1919-05-28",
        "col3": "1921-01-28"
    },
    {
        "col0": "USS Wolverine",
        "col1": "17",
        "col2": "1912-11-09",
        "col3": "1942-08-12"
    },
    {
        "col0": "USS Witter",
        "col1": "11",
        "col2": "1943-10-17",
        "col3": "1943-12-19"
    },
    {
        "col0": "USS Witek",
        "col1": "12",
        "col2": "1946-02-02",
        "col3": "1946-04-23"
    },
    {
        "col0": "USS Wiseman",
        "col1": "10",
        "col2": "1943-11-06",
        "col3": "1944-04-04"
    },
    {
        "col0": "USS Wisconsin",
        "col1": "21",
        "col2": "1898-11-26",
        "col3": "1901-02-04"
    },
    {
        "col0": "USS Wintle",
        "col1": "10",
        "col2": "1943-02-18",
        "col3": "1943-07-10"
    },
    {
        "col0": "USS Winterberry",
        "col1": "10",
        "col2": "1944-03-22",
        "col3": "1944-05-30"
    },
    {
        "col0": "USS Winston",
        "col1": "19",
        "col2": "1944-11-30",
        "col3": "1945-01-19"
    },
    {
        "col0": "USS Winslow",
        "col1": "4",
        "col2": "1897-05-08",
        "col3": "1897-12-29"
    },
    {
        "col0": "USS Winslow",
        "col1": "9",
        "col2": "1915-02-11",
        "col3": "1915-08-07"
    },
    {
        "col0": "USS Winooski",
        "col1": "20",
        "col2": "1941-11-12",
        "col3": "1942-01-27"
    },
    {
        "col0": "USS Winooski",
        "col1": "10",
        "col2": "1863-07-30",
        "col3": "1865-06-27"
    },
    {
        "col0": "USS Winnemucca",
        "col1": "7",
        "col2": "1943-10-27",
        "col3": "1944-06-01"
    },
    {
        "col0": "USS Winnebago",
        "col1": "17",
        "col2": "1863-07-04",
        "col3": "1864-04-27"
    },
    {
        "col0": "USS Winifred",
        "col1": "12",
        "col2": "1898-07-08",
        "col3": "1918-06-21"
    },
    {
        "col0": "USS Wingina",
        "col1": "7",
        "col2": "1944-07-14",
        "col3": "1944-12-15"
    },
    {
        "col0": "USS Wingfield",
        "col1": "10",
        "col2": "1943-12-30",
        "col3": "1944-01-28"
    },
    {
        "col0": "USS Winged Arrow",
        "col1": "19",
        "col2": "1943-04-03",
        "col3": "1944-04-21"
    },
    {
        "col0": "USS Windsor",
        "col1": "20",
        "col2": "1942-12-28",
        "col3": "1943-06-17"
    },
    {
        "col0": "USS Windlass",
        "col1": "10",
        "col2": "1945-12-07",
        "col3": "1946-04-09"
    },
    {
        "col0": "USS Windham County",
        "col1": "16",
        "col2": "1954-05-22",
        "col3": "1954-12-15"
    },
    {
        "col0": "USS Windham Bay",
        "col1": "19",
        "col2": "1944-03-29",
        "col3": "1944-05-03"
    },
    {
        "col0": "USS Wilson",
        "col1": "10",
        "col2": "1939-04-12",
        "col3": "1939-07-05"
    },
    {
        "col0": "USS Wilmington",
        "col1": "11",
        "col2": "1895-10-19",
        "col3": "1897-05-13"
    },
    {
        "col0": "USS Willoughby",
        "col1": "12",
        "col2": "1943-08-21",
        "col3": "1944-06-18"
    },
    {
        "col0": "USS Willmarth",
        "col1": "11",
        "col2": "1943-11-21",
        "col3": "1944-03-13"
    },
    {
        "col0": "USS Willis",
        "col1": "11",
        "col2": "1943-09-14",
        "col3": "1943-12-10"
    },
    {
        "col0": "USS Willimantic",
        "col1": "16",
        "col2": "1918-05-29",
        "col3": "1918-11-02"
    },
    {
        "col0": "USS Williamsburg",
        "col1": "10",
        "col2": "1930-12-08",
        "col3": "1941-10-07"
    },
    {
        "col0": "USS Williams",
        "col1": "11",
        "col2": "1944-08-22",
        "col3": "1944-11-11"
    },
    {
        "col0": "USS Williams",
        "col1": "9",
        "col2": "1918-07-04",
        "col3": "1919-03-01"
    },
    {
        "col0": "USS William V. Pratt",
        "col1": "15",
        "col2": "1960-03-06",
        "col3": "1961-11-04"
    },
    {
        "col0": "USS William T. Powell",
        "col1": "11",
        "col2": "1943-11-27",
        "col3": "1944-03-28"
    },
    {
        "col0": "USS William Seiverling",
        "col1": "10",
        "col2": "1944-03-07",
        "col3": "1944-06-01"
    },
    {
        "col0": "USS William R. Rush",
        "col1": "12",
        "col2": "1945-07-08",
        "col3": "1945-09-21"
    },
    {
        "col0": "USS William M. Wood",
        "col1": "12",
        "col2": "1945-07-29",
        "col3": "1945-11-24"
    },
    {
        "col0": "USS William M. Hobby",
        "col1": "11",
        "col2": "1944-02-02",
        "col3": "1945-04-04"
    },
    {
        "col0": "USS William Jones",
        "col1": "9",
        "col2": "1919-04-06",
        "col3": "1920-09-30"
    },
    {
        "col0": "USS William J. Pattison",
        "col1": "11",
        "col2": "1944-02-15",
        "col3": "1945-02-27"
    },
    {
        "col0": "USS William C. Miller",
        "col1": "10",
        "col2": "1943-02-22",
        "col3": "1943-07-02"
    },
    {
        "col0": "USS William C. Cole",
        "col1": "10",
        "col2": "1943-12-29",
        "col3": "1944-05-12"
    },
    {
        "col0": "USS William B. Preston",
        "col1": "9",
        "col2": "1919-08-09",
        "col3": "1920-08-23"
    },
    {
        "col0": "USS Willamette",
        "col1": "26",
        "col2": "1981-07-18",
        "col3": "1982-12-18"
    }
]