[
    {
        "col0": "Royal Horseguards Hotel",
        "col1": "Guoman Hotels",
        "col2": "2",
        "col3": "282"
    },
    {
        "col0": "Rosewood Washington, D.C.",
        "col1": "Rosewood Hotels & Resorts",
        "col2": "1",
        "col3": "27"
    },
    {
        "col0": "Radisson Blu Hotel Chennai",
        "col1": "Carlson Rezidor Hotel Group",
        "col2": "3",
        "col3": "101"
    },
    {
        "col0": "Park Hyatt Toronto",
        "col1": "Hyatt",
        "col2": "2",
        "col3": "336"
    },
    {
        "col0": "Marriott's Ko Olina Beach Club",
        "col1": "Marriott Vacation Club",
        "col2": "3",
        "col3": "546"
    },
    {
        "col0": "Malmaison Hotel, Reading",
        "col1": "Malmaison",
        "col2": "1",
        "col3": "75"
    },
    {
        "col0": "Le Meridien San Francisco",
        "col1": "Le Meridien",
        "col2": "333",
        "col3": "360"
    },
    {
        "col0": "La Concha Resort",
        "col1": "Marriott International",
        "col2": "5",
        "col3": "483"
    },
    {
        "col0": "Jumeirah Zabeel Saray",
        "col1": "Jumeirah",
        "col2": "8",
        "col3": "405"
    },
    {
        "col0": "InterContinental San Francisco",
        "col1": "InterContinental",
        "col2": "888",
        "col3": "554"
    },
    {
        "col0": "InterContinental Kyiv",
        "col1": "InterContinental",
        "col2": "3",
        "col3": "272"
    },
    {
        "col0": "ITC Grand Chola Hotel",
        "col1": "ITC Welcomgroup Hotels, Palaces and Resorts",
        "col2": "10",
        "col3": "600"
    },
    {
        "col0": "Hyatt Regency San Francisco",
        "col1": "Global Hyatt Corporation",
        "col2": "2",
        "col3": "804"
    },
    {
        "col0": "Hyatt Regency Chicago",
        "col1": "Hyatt Hotels Corporation",
        "col2": "2",
        "col3": "2019"
    },
    {
        "col0": "Hyatt Centric French Quarter New Orleans Hotel",
        "col1": "Hyatt",
        "col2": "3",
        "col3": "254"
    },
    {
        "col0": "Hotel Torni",
        "col1": "Sokos Hotels",
        "col2": "4",
        "col3": "152"
    }
]