[
    {
        "col0": "Black Hawk Statue",
        "col1": "L. Taft",
        "col2": "Oregon, Illinois",
        "col3": "9000871"
    },
    {
        "col0": "Bishop's Palace, Galveston",
        "col1": "N. J. Clayton",
        "col2": "Galveston, Texas",
        "col3": "70000746"
    },
    {
        "col0": "Big Thompson River bridges",
        "col1": "Colorado Department of Highways",
        "col2": "Estes Park, Colorado",
        "col3": "02001139, 02001140"
    },
    {
        "col0": "Big Creek Bridge 2",
        "col1": "J. B. Marsh",
        "col2": "Madrid, Iowa",
        "col3": "98000767"
    },
    {
        "col0": "Big Creek Bridge",
        "col1": "C. B. McCullough",
        "col2": "Heceta Head, Oregon",
        "col3": "5000819"
    },
    {
        "col0": "Berry House",
        "col1": "D. Williams",
        "col2": "Palmer, Alaska",
        "col3": "91000779"
    },
    {
        "col0": "Berkhimer Bridge",
        "col1": "C. Iowa",
        "col2": "Humboldt, Iowa",
        "col3": "98000523"
    },
    {
        "col0": "Bent's Old Fort National Historic Site",
        "col1": "C. Bent",
        "col2": "Colorado",
        "col3": "66000254"
    },
    {
        "col0": "Bennies Hill Road Bridge",
        "col1": "K. B. Company",
        "col2": "Middletown, Maryland",
        "col3": "79003265"
    },
    {
        "col0": "Bellefountain Bridge",
        "col1": "C. B. Company",
        "col2": "Tracy, Iowa",
        "col3": "98000506"
    },
    {
        "col0": "Belair Mansion",
        "col1": "B. T. Sr.",
        "col2": "Bowie, Maryland",
        "col3": "77001520"
    },
    {
        "col0": "Beaver Creek Ranger Station",
        "col1": "C. C. Corps",
        "col2": "Rimrock, Arizona",
        "col3": "93000512"
    },
    {
        "col0": "Beaver Creek Bridge",
        "col1": "H. Gene McKeown & Assoc.",
        "col2": "Schleswig, Iowa",
        "col3": "98000799"
    },
    {
        "col0": "Beaver Creek Bridge",
        "col1": "J. B. Marsh",
        "col2": "Perry, Iowa",
        "col3": "98000796"
    },
    {
        "col0": "Beaver Creek Bridge",
        "col1": "T. H. Department",
        "col2": "Texas",
        "col3": "96001104"
    },
    {
        "col0": "Balsam Lake Mountain Fire Observation Station",
        "col1": "A. Corporation",
        "col2": "New York",
        "col3": "1001038"
    },
    {
        "col0": "Bailey Colony Farm",
        "col1": "D. Williams",
        "col2": "Palmer, Alaska",
        "col3": "91000775"
    },
    {
        "col0": "B Reactor",
        "col1": "DuPont",
        "col2": "Richland, Washington",
        "col3": "92000245"
    },
    {
        "col0": "August and Vera Luedtke Barn",
        "col1": "L. M. Company",
        "col2": "Fairfield, Iowa",
        "col3": "99000121"
    },
    {
        "col0": "Atka B-24D Liberator",
        "col1": "C. Aircraft",
        "col2": "Atka, Alaska",
        "col3": "79000407"
    },
    {
        "col0": "Atalaya and Brookgreen Gardens",
        "col1": "A. H. Huntington",
        "col2": "Murrells Inlet, South Carolina",
        "col3": "84002045"
    },
    {
        "col0": "Atalaya Castle",
        "col1": "A. M. Huntington",
        "col2": "Murrells Inlet, South Carolina",
        "col3": "84002045"
    },
    {
        "col0": "Arden",
        "col1": "C. a. Hastings",
        "col2": "Newburgh",
        "col3": "66000561"
    },
    {
        "col0": "Arbor Lodge State Historical Park and Arboretum",
        "col1": "F. L. Olmsted",
        "col2": "Nebraska City, Nebraska",
        "col3": "69000135"
    },
    {
        "col0": "Arapahoe Acres",
        "col1": "E. Sternberg",
        "col2": "Colorado",
        "col3": "98001249"
    },
    {
        "col0": "Apostle Islands Lighthouses",
        "col1": "U. L. Service",
        "col2": "Bayfield, Wisconsin",
        "col3": "77000145"
    },
    {
        "col0": "Andalusia",
        "col1": "B. Latrobe",
        "col2": "Pennsylvania",
        "col3": "66000649"
    },
    {
        "col0": "Ames Monument",
        "col1": "H. H. Richardson",
        "col2": "Laramie, Wyoming",
        "col3": "72001296"
    },
    {
        "col0": "Altair Campground Community Kitchen",
        "col1": "C. C. Corps",
        "col2": "Port Angeles, Washington",
        "col3": "7000732"
    },
    {
        "col0": "Allenhurst",
        "col1": "T. Lewinski",
        "col2": "Georgetown, Kentucky",
        "col3": "73000829"
    },
    {
        "col0": "Alaska Central Railroad Tunnel No. 1",
        "col1": "A. C. Railroad",
        "col2": "Seward, Alaska",
        "col3": "77001576"
    },
    {
        "col0": "Acoma Pueblo",
        "col1": "V. architecture",
        "col2": "Grants, New Mexico",
        "col3": "66000500"
    },
    {
        "col0": "Acadia National Park carriage paths, bridges and gatehouses",
        "col1": "G. Atterbury",
        "col2": "Maine",
        "col3": "79000131"
    }
]