[
    {
        "col0": "Wilhelm Mansion and Carriage House",
        "col1": "1877",
        "col2": "25495",
        "col3": "1982-03-01"
    },
    {
        "col0": "Wilfong-Wilson Farm",
        "col1": "1830",
        "col2": "214483",
        "col3": "1990-06-21"
    },
    {
        "col0": "Wiley and Jane Vann Brown House",
        "col1": "1850",
        "col2": "80937",
        "col3": "2007-02-13"
    },
    {
        "col0": "Wiley and Elizabeth Forbus House",
        "col1": "1931",
        "col2": "5260",
        "col3": "2005-04-28"
    },
    {
        "col0": "Wiley United Methodist Church",
        "col1": "1886",
        "col2": "1214",
        "col3": "1979-08-01"
    },
    {
        "col0": "Wiley H. Bates High School",
        "col1": "1932",
        "col2": "6474",
        "col3": "1994-07-26"
    },
    {
        "col0": "Wiley-Ringland House",
        "col1": "1893",
        "col2": "4046",
        "col3": "2000-11-22"
    },
    {
        "col0": "Wildwood Plantation",
        "col1": "1850",
        "col2": "24685",
        "col3": "1988-06-30"
    },
    {
        "col0": "Wildwood Park Historic District",
        "col1": "1914",
        "col2": "647497",
        "col3": "2013-09-18"
    },
    {
        "col0": "Wildwood Hall",
        "col1": "1893",
        "col2": "44515",
        "col3": "1978-10-02"
    },
    {
        "col0": "Wildwood Cottage",
        "col1": "1865",
        "col2": "4046",
        "col3": "1988-01-14"
    },
    {
        "col0": "Wildwood",
        "col1": "1893",
        "col2": "16592",
        "col3": "2001-10-05"
    },
    {
        "col0": "Wildwood",
        "col1": "1835",
        "col2": "2023",
        "col3": "1970-08-25"
    },
    {
        "col0": "Wilds Hall",
        "col1": "1839",
        "col2": "23067",
        "col3": "1985-10-10"
    },
    {
        "col0": "Wilds-Edwards House",
        "col1": "1856",
        "col2": "10926",
        "col3": "1988-02-10"
    },
    {
        "col0": "Wildfell",
        "col1": "1854",
        "col2": "36421",
        "col3": "1973-09-20"
    },
    {
        "col0": "Wilder Homestead",
        "col1": "1842",
        "col2": "339935",
        "col3": "2014-11-19"
    },
    {
        "col0": "Wilder-Swaim House",
        "col1": "1815",
        "col2": "2023",
        "col3": "1981-05-20"
    },
    {
        "col0": "Wild's Mill Complex",
        "col1": "1828",
        "col2": "22257",
        "col3": "1982-06-14"
    },
    {
        "col0": "Wilcox Farmhouse",
        "col1": "1839",
        "col2": "121405",
        "col3": "1990-09-06"
    },
    {
        "col0": "Wilcox-Cutts House",
        "col1": "1789",
        "col2": "1080510",
        "col3": "1974-12-02"
    },
    {
        "col0": "Wilcox, Crittenden Mill",
        "col1": "1814",
        "col2": "68796",
        "col3": "1986-12-03"
    },
    {
        "col0": "Wilbur and Martha Carter House",
        "col1": "1951",
        "col2": "5260",
        "col3": "2008-08-13"
    },
    {
        "col0": "Wilbur Wynant House",
        "col1": "1916",
        "col2": "4046",
        "col3": "2002-10-18"
    },
    {
        "col0": "Wilbur J. Cohen Federal Building",
        "col1": "1939",
        "col2": "12140",
        "col3": "2007-07-06"
    },
    {
        "col0": "Wilbur House",
        "col1": "1873",
        "col2": "28327",
        "col3": "1980-05-06"
    },
    {
        "col0": "Wilbur Cahoon House",
        "col1": "1826",
        "col2": "4046",
        "col3": "1978-04-06"
    },
    {
        "col0": "Wilbor House",
        "col1": "1690",
        "col2": "5665",
        "col3": "2007-03-06"
    },
    {
        "col0": "Wightman School",
        "col1": "1897",
        "col2": "4046",
        "col3": "1986-09-30"
    },
    {
        "col0": "Wiggins-Collamer House",
        "col1": "1835",
        "col2": "8093",
        "col3": "2007-10-31"
    },
    {
        "col0": "Widow Haviland's Tavern",
        "col1": "1730",
        "col2": "1214",
        "col3": "1974-04-16"
    },
    {
        "col0": "Widner-Magers Farm Historic District",
        "col1": "1912",
        "col2": "5260",
        "col3": "2007-01-29"
    },
    {
        "col0": "Wicks Building",
        "col1": "1915",
        "col2": "4046",
        "col3": "1983-03-03"
    },
    {
        "col0": "Wicklow Hall Plantation",
        "col1": "1840",
        "col2": "35612",
        "col3": "1978-08-29"
    },
    {
        "col0": "Wickliffe Presbyterian Church",
        "col1": "1889",
        "col2": "809",
        "col3": "1978-05-22"
    },
    {
        "col0": "Wickliffe Church",
        "col1": "1846",
        "col2": "8093",
        "col3": "1995-03-17"
    },
    {
        "col0": "Wickland",
        "col1": "1901",
        "col2": "2023",
        "col3": "1984-09-28"
    },
    {
        "col0": "Wickham Road Historic District",
        "col1": "1735",
        "col2": "910542",
        "col3": "1996-07-25"
    },
    {
        "col0": "Wicker Apartments",
        "col1": "1945",
        "col2": "30270",
        "col3": "2016-01-09"
    },
    {
        "col0": "Wickapogue Road Historic District",
        "col1": "1684",
        "col2": "109265",
        "col3": "1986-10-02"
    },
    {
        "col0": "Wickaboag Valley Historic District",
        "col1": "1669",
        "col2": "1618742",
        "col3": "2000-10-27"
    },
    {
        "col0": "Wiawaka bateaux",
        "col1": "1758",
        "col2": "5260",
        "col3": "1992-06-14"
    },
    {
        "col0": "Wiawaka Holiday House",
        "col1": "1873",
        "col2": "241192",
        "col3": "1998-07-15"
    },
    {
        "col0": "Wianno Historic District",
        "col1": "1879",
        "col2": "161874",
        "col3": "1987-11-10"
    },
    {
        "col0": "Whittington Park Historic District",
        "col1": "1913",
        "col2": "186155",
        "col3": "2012-12-19"
    }
]