[
    {
        "col0": "Trust Me",
        "col1": "C. Zisk",
        "col2": "T. Cavanagh",
        "col3": "2009-04-07"
    },
    {
        "col0": "True Love",
        "col1": "D. Savage",
        "col2": "A. Walters",
        "col3": "2012-06-20"
    },
    {
        "col0": "True Colors",
        "col1": "R. Schiller",
        "col2": "N. Walker",
        "col3": "1992-04-12"
    },
    {
        "col0": "Trudis Liit",
        "col1": "D. M. Perez",
        "col2": "M. Magalona",
        "col3": "2010-10-22"
    },
    {
        "col0": "Truckers",
        "col1": "S. Folkson",
        "col2": "H. Treadaway",
        "col3": "2013-11-07"
    },
    {
        "col0": "Trinity Tales",
        "col1": "T. D. Cole",
        "col2": "B. Maynard",
        "col3": "1975-12-26"
    },
    {
        "col0": "Trinity",
        "col1": "S. Woolfenden",
        "col2": "M. Wood",
        "col3": "2009-11-08"
    },
    {
        "col0": "Trigger Happy TV",
        "col1": "D. Joly",
        "col2": "D. Joly",
        "col3": "2003-07-28"
    },
    {
        "col0": "Triangle",
        "col1": "T. Dudley",
        "col2": "P. Jerricho",
        "col3": "1983-07-06"
    },
    {
        "col0": "Trevor's World of Sport",
        "col1": "A. Hamilton",
        "col2": "P. Reynolds",
        "col3": "2003-10-06"
    },
    {
        "col0": "Tres mujeres",
        "col1": "R. Araiza",
        "col2": "J. Salinas",
        "col3": "2000-04-14"
    },
    {
        "col0": "Treasury Men in Action",
        "col1": "W. Beaudine",
        "col2": "R. Martin",
        "col3": "1955-07-01"
    },
    {
        "col0": "Tratame bien",
        "col1": "D. Barone",
        "col2": "C. Roth",
        "col3": "2009-12-23"
    },
    {
        "col0": "Transporter: The Series",
        "col1": "A. Mikita",
        "col2": "F. Berleand",
        "col3": "2014-12-14"
    },
    {
        "col0": "Trailer Park Boys",
        "col1": "J. Baruchel",
        "col2": "B. Dunn",
        "col3": "2007-06-10"
    },
    {
        "col0": "Trackdown",
        "col1": "T. Carr",
        "col2": "R. Culp",
        "col3": "1959-09-23"
    },
    {
        "col0": "Tracey Ullman's State of the Union",
        "col1": "T. Ullman",
        "col2": "T. Ullman",
        "col3": "2010-03-08"
    },
    {
        "col0": "Tracey Takes On...",
        "col1": "M. McKean",
        "col2": "T. Ullman",
        "col3": "1999-03-17"
    },
    {
        "col0": "Townies",
        "col1": "P. Fryman",
        "col2": "L. Graham",
        "col3": "1996-12-04"
    },
    {
        "col0": "Totoy Bato",
        "col1": "D. M. Perez",
        "col2": "M. Pacquiao",
        "col3": "2009-07-03"
    },
    {
        "col0": "Topper",
        "col1": "P. Rapp",
        "col2": "L. Patrick",
        "col3": "1955-07-15"
    },
    {
        "col0": "Top of the Hill",
        "col1": "M. V. Peebles",
        "col2": "W. Katt",
        "col3": "1989-11-30"
    },
    {
        "col0": "Top Boy",
        "col1": "Y. Demange",
        "col2": "Kano",
        "col3": "2013-09-10"
    },
    {
        "col0": "Toonsylvania",
        "col1": "J. DeGrandis",
        "col2": "W. Knight",
        "col3": "1999-01-18"
    },
    {
        "col0": "Too Rich: The Secret Life of Doris Duke",
        "col1": "J. Erman",
        "col2": "L. Frost",
        "col3": "1999-02-24"
    },
    {
        "col0": "Tomorrow's Pioneers",
        "col1": "F. Hamad",
        "col2": "H. Al-Sha'arawi",
        "col3": "2009-10-16"
    },
    {
        "col0": "Tomica Hero: Rescue Force",
        "col1": "A. Iwamoto",
        "col2": "H. Iwanaga",
        "col3": "2009-03-28"
    },
    {
        "col0": "Tomica Hero: Rescue Fire",
        "col1": "A. Iwamoto",
        "col2": "S. Nakamura",
        "col3": "2010-03-27"
    },
    {
        "col0": "Toma",
        "col1": "J. Szwarc",
        "col2": "T. Musante",
        "col3": "1974-05-10"
    },
    {
        "col0": "Tom Clancy's Op Center",
        "col1": "L. Teague",
        "col2": "D. Hall",
        "col3": "1995-02-27"
    },
    {
        "col0": "Tokumei Sentai Go-Busters",
        "col1": "O. Kaneda",
        "col2": "A. Komiya",
        "col3": "2013-02-10"
    },
    {
        "col0": "Toki o Kakeru Shojo",
        "col1": "M. Ochiai",
        "col2": "Y. Uchida",
        "col3": "1994-03-19"
    },
    {
        "col0": "Together We Stand",
        "col1": "P. Bonerz",
        "col2": "E. Gould",
        "col3": "1987-04-24"
    },
    {
        "col0": "Together Forever",
        "col1": "R. Lindayag",
        "col2": "E. Magalona",
        "col3": "2012-09-08"
    },
    {
        "col0": "Todd and the Book of Pure Evil",
        "col1": "J. Genn",
        "col2": "A. House",
        "col3": "2012-01-26"
    },
    {
        "col0": "Today's FBI",
        "col1": "S. Jolley",
        "col2": "M. Connors",
        "col3": "1982-04-26"
    },
    {
        "col0": "To the Manor Born",
        "col1": "G. Gwenlan",
        "col2": "P. Keith",
        "col3": "1981-11-29"
    },
    {
        "col0": "To Serve Them All My Days",
        "col1": "T. Dudley",
        "col2": "F. Middlemass",
        "col3": "1981-01-16"
    },
    {
        "col0": "To Rome with Love",
        "col1": "F. d. Cordova",
        "col2": "J. Forsythe",
        "col3": "1971-09-01"
    },
    {
        "col0": "To Play the King",
        "col1": "P. Seed",
        "col2": "I. Richardson",
        "col3": "1993-12-12"
    },
    {
        "col0": "Tjuvarnas jul",
        "col1": "S. Roos",
        "col2": "C. Mansson",
        "col3": "2010-12-24"
    },
    {
        "col0": "Tittybangbang",
        "col1": "B. Mortimer",
        "col2": "D. Chazen",
        "col3": "2007-12-26"
    },
    {
        "col0": "Titser",
        "col1": "A. Yapan",
        "col2": "A. Isidro",
        "col3": "2013-10-13"
    },
    {
        "col0": "Tito",
        "col1": "A. Vrdoljak",
        "col2": "T. Filipovic",
        "col3": "2010-06-11"
    },
    {
        "col0": "Titanic: Blood and Steel",
        "col1": "C. Donnelly",
        "col2": "D. Jacobi",
        "col3": "2012-07-29"
    },
    {
        "col0": "Tinker Tailor Soldier Spy",
        "col1": "J. Irvin",
        "col2": "A. Guinness",
        "col3": "1979-10-22"
    },
    {
        "col0": "Tinig",
        "col1": "M. Alejandre",
        "col2": "S. Cruz",
        "col3": "2006-04-12"
    },
    {
        "col0": "Tin Man",
        "col1": "N. Willing",
        "col2": "R. Trujillo",
        "col3": "2007-12-04"
    },
    {
        "col0": "Timecop",
        "col1": "P. Hyams",
        "col2": "C. Conaway",
        "col3": "1998-07-18"
    },
    {
        "col0": "Time of My Life",
        "col1": "M. Reyes",
        "col2": "L. Reyes",
        "col3": "2011-11-18"
    },
    {
        "col0": "Time Gentlemen Please",
        "col1": "G. Gwenlan",
        "col2": "A. Murray",
        "col3": "2002-05-01"
    },
    {
        "col0": "Time Bomb 9/11",
        "col1": "K. Mehta",
        "col2": "T. B. 9/11",
        "col3": "2005-12-25"
    },
    {
        "col0": "Time Belt",
        "col1": "C. Tallman",
        "col2": "C. Tallman",
        "col3": "2004-03-29"
    },
    {
        "col0": "Tightrope!",
        "col1": "A. Biberman",
        "col2": "M. Connors",
        "col3": "1960-09-13"
    },
    {
        "col0": "Tiempo de amar",
        "col1": "R. Banquells",
        "col2": "A. Avalos",
        "col3": "1987-12-19"
    },
    {
        "col0": "Thunder Alley",
        "col1": "B. Kellman",
        "col2": "H. J. Osment",
        "col3": "1995-07-04"
    },
    {
        "col0": "Three for the Road",
        "col1": "B. McEveety",
        "col2": "V. V. Patten",
        "col3": "1975-11-30"
    },
    {
        "col0": "Three Seven Eleven",
        "col1": "J. Darnell",
        "col2": "J. Haworth",
        "col3": "1994-06-15"
    },
    {
        "col0": "Thompson",
        "col1": "J. Stroud",
        "col2": "E. Thompson",
        "col3": "1988-12-15"
    },
    {
        "col0": "This Is Not My Life",
        "col1": "R. Sarkies",
        "col2": "C. Mesure",
        "col3": "2010-10-14"
    },
    {
        "col0": "This Is England '90",
        "col1": "S. Meadows",
        "col2": "J. Gilgun",
        "col3": "2015-10-04"
    },
    {
        "col0": "This Is England '88",
        "col1": "S. Meadows",
        "col2": "J. Gilgun",
        "col3": "2011-12-15"
    },
    {
        "col0": "This Is England '86",
        "col1": "S. Meadows",
        "col2": "T. Turgoose",
        "col3": "2010-09-28"
    },
    {
        "col0": "Thirtysomething",
        "col1": "S. Winant",
        "col2": "P. Horton",
        "col3": "1991-05-28"
    },
    {
        "col0": "Thirteen Steps Down",
        "col1": "M. Losey",
        "col2": "L. Treadaway",
        "col3": "2012-08-20"
    },
    {
        "col0": "Thik Jeno Love Story",
        "col1": "S. Chatterjee",
        "col2": "D. Dutta",
        "col3": "2015-11-21"
    },
    {
        "col0": "They Came from Outer Space",
        "col1": "S. Hayers",
        "col2": "D. Cameron",
        "col3": "1991-03-19"
    },
    {
        "col0": "Thekkathi Ponnu",
        "col1": "P. Bharathiraja",
        "col2": "Napoleon",
        "col3": "2011-09-20"
    },
    {
        "col0": "Thea",
        "col1": "J. Sandrich",
        "col2": "B. Norwood",
        "col3": "1994-02-16"
    },
    {
        "col0": "The Young Ones",
        "col1": "E. Bye",
        "col2": "A. Edmondson",
        "col3": "1984-06-19"
    },
    {
        "col0": "The Yang's Saga",
        "col1": "J. To",
        "col2": "K. Tsang",
        "col3": "1985-09-28"
    },
    {
        "col0": "The Wrong Mans",
        "col1": "J. F. Smith",
        "col2": "J. Corden",
        "col3": "2014-12-23"
    },
    {
        "col0": "The World That They Live In",
        "col1": "K. Kyu-tae",
        "col2": "S. Hye-kyo",
        "col3": "2008-12-16"
    },
    {
        "col0": "The World Beyond",
        "col1": "N. Black",
        "col2": "G. V. Dusen",
        "col3": "1978-01-27"
    },
    {
        "col0": "The Women of Brewster Place",
        "col1": "D. Deitch",
        "col2": "M. Alice",
        "col3": "1989-03-20"
    },
    {
        "col0": "The Woman in White",
        "col1": "T. Fywell",
        "col2": "C. Redgrave",
        "col3": "1997-12-29"
    },
    {
        "col0": "The Winds of War",
        "col1": "D. Curtis",
        "col2": "A. MacGraw",
        "col3": "1983-02-13"
    },
    {
        "col0": "The Wind in the Willows",
        "col1": "M. Hall",
        "col2": "P. Sallis",
        "col3": "1990-06-19"
    },
    {
        "col0": "The Wild Thornberrys",
        "col1": "M. Risley",
        "col2": "T. Kane",
        "col3": "2004-06-11"
    },
    {
        "col0": "The White Shadow",
        "col1": "J. Cooper",
        "col2": "K. Howard",
        "col3": "1981-03-16"
    },
    {
        "col0": "The White Queen",
        "col1": "C. Teague",
        "col2": "J. McTeer",
        "col3": "2013-08-18"
    },
    {
        "col0": "The Westerner",
        "col1": "S. Peckinpah",
        "col2": "B. Keith",
        "col3": "1960-12-30"
    },
    {
        "col0": "The Wedding Scheme",
        "col1": "L. Min-woo",
        "col2": "K. Hye-jung",
        "col3": "2012-05-22"
    },
    {
        "col0": "The Wedding",
        "col1": "J. Jeturian",
        "col2": "A. Curtis",
        "col3": "2009-09-04"
    },
    {
        "col0": "The Way We Live Now",
        "col1": "D. Yates",
        "col2": "D. Suchet",
        "col3": "2001-12-02"
    },
    {
        "col0": "The Watcher",
        "col1": "M. W. Watkins",
        "col2": "S. Mix-a-Lot",
        "col3": "1995-06-07"
    },
    {
        "col0": "The War at Home",
        "col1": "A. Cadiff",
        "col2": "R. Malek",
        "col3": "2007-04-22"
    },
    {
        "col0": "The Visitor",
        "col1": "K. Kerslake",
        "col2": "G. L. Bush",
        "col3": "1998-01-16"
    },
    {
        "col0": "The Virginian",
        "col1": "A. Biberman",
        "col2": "J. Drury",
        "col3": "1971-03-24"
    },
    {
        "col0": "The Village",
        "col1": "G. MacKinnon",
        "col2": "J. Stevenson",
        "col3": "2014-09-14"
    },
    {
        "col0": "The Van Dyke Show",
        "col1": "J. Sandrich",
        "col2": "D. V. Dyke",
        "col3": "1988-12-07"
    },
    {
        "col0": "The Two of Us",
        "col1": "P. Bonerz",
        "col2": "M. Kennedy",
        "col3": "1982-02-24"
    },
    {
        "col0": "The Troubleshooters",
        "col1": "R. Altman",
        "col2": "K. Wynn",
        "col3": "1960-04-10"
    },
    {
        "col0": "The Trojan Horse",
        "col1": "C. Biname",
        "col2": "P. Gross",
        "col3": "2008-04-06"
    },
    {
        "col0": "The Tripods",
        "col1": "C. Barry",
        "col2": "J. Baker",
        "col3": "1985-11-23"
    }
]