[
    {
        "col0": "Cadet grey",
        "col1": "46",
        "col2": "69",
        "col3": "163",
        "col4": "176",
        "col5": "29"
    },
    {
        "col0": "Byzantium",
        "col1": "0",
        "col2": "44",
        "col3": "41",
        "col4": "99",
        "col5": "63"
    },
    {
        "col0": "Buff",
        "col1": "0",
        "col2": "94",
        "col3": "220",
        "col4": "130",
        "col5": "8"
    },
    {
        "col0": "Brown",
        "col1": "0",
        "col2": "59",
        "col3": "75",
        "col4": "0",
        "col5": "50"
    },
    {
        "col0": "Bronze",
        "col1": "25",
        "col2": "80",
        "col3": "127",
        "col4": "50",
        "col5": "59"
    },
    {
        "col0": "British racing green",
        "col1": "98",
        "col2": "26",
        "col3": "66",
        "col4": "37",
        "col5": "0"
    },
    {
        "col0": "Bole",
        "col1": "0",
        "col2": "47",
        "col3": "68",
        "col4": "59",
        "col5": "44"
    },
    {
        "col0": "Blue-green",
        "col1": "93",
        "col2": "72",
        "col3": "152",
        "col4": "186",
        "col5": "18"
    },
    {
        "col0": "Blue-gray",
        "col1": "50",
        "col2": "80",
        "col3": "153",
        "col4": "204",
        "col5": "25"
    },
    {
        "col0": "Bleu de France",
        "col1": "79",
        "col2": "91",
        "col3": "140",
        "col4": "231",
        "col5": "39"
    }
]