[
    {
        "col0": "H. Gervais",
        "col1": "Edmonton, Alberta",
        "col2": "1997-7-19",
        "col3": "1934-1-1"
    },
    {
        "col0": "G. Hummelt",
        "col1": "Germany",
        "col2": "2010-07-03",
        "col3": "1931-07-21"
    },
    {
        "col0": "G. Watson",
        "col1": "Thunder Bay, Ontario",
        "col2": "1977-04-06",
        "col3": "1905-10-31"
    },
    {
        "col0": "G. Hudson",
        "col1": "Winnipeg",
        "col2": "1959-07-10",
        "col3": "1894-01-05"
    },
    {
        "col0": "G. Campbell",
        "col1": "Regina, Saskatchewan",
        "col2": "2005-02-01",
        "col3": "1916-09-23"
    },
    {
        "col0": "G. Andre",
        "col1": "Versailles, Yvelines",
        "col2": "1945-3-19",
        "col3": "1876-7-26"
    },
    {
        "col0": "G. Richardson",
        "col1": "Regina, Saskatchewan",
        "col2": "2016-01-21",
        "col3": "1933-11-06"
    },
    {
        "col0": "G. Campbell",
        "col1": "Okotoks, Alberta",
        "col2": "2011-12-30",
        "col3": "1927-01-11"
    },
    {
        "col0": "G. Hummelt",
        "col1": "Germany",
        "col2": "2010-07-03",
        "col3": "1931-07-21"
    },
    {
        "col0": "F. Dyke",
        "col1": "Coldbrook, Nova Scotia",
        "col2": "2012-06-28",
        "col3": "1922-12-27"
    },
    {
        "col0": "F. Britton",
        "col1": "Calgary, Alberta",
        "col2": "2014-09-12",
        "col3": "1932-08-16"
    },
    {
        "col0": "E. Severin",
        "col1": "Stockholm",
        "col2": "1942-11-15",
        "col3": "1879-07-18"
    },
    {
        "col0": "D. Rollo",
        "col1": "Winnipeg, Manitoba",
        "col2": "1948-04-13",
        "col3": "1887-03-11"
    },
    {
        "col0": "D. Oyler",
        "col1": "Halifax, Nova Scotia",
        "col2": "1989-09-19",
        "col3": "1907-03-08"
    },
    {
        "col0": "C. Scrymgeour",
        "col1": "Manitoba",
        "col2": "2000-11-24",
        "col3": "1914-06-15"
    },
    {
        "col0": "C. W. Petersen",
        "col1": "San Diego",
        "col2": "1973-10-03",
        "col3": "1884-03-28"
    },
    {
        "col0": "C. A. Pettersson",
        "col1": "Stockholm",
        "col2": "1962-05-31",
        "col3": "1874-04-13"
    },
    {
        "col0": "B. Gourley",
        "col1": "La Jolla, California",
        "col2": "1976-03-11",
        "col3": "1878-02-20"
    },
    {
        "col0": "B. Walsh",
        "col1": "Winnipeg",
        "col2": "1971-10-07",
        "col3": "1917-01-20"
    }
]