[
    {
        "col0": "We're Not Gonna Take It",
        "col1": "P. Townshend",
        "col2": "Kit Lambert",
        "col3": "Pinball Wizard",
        "col4": "405"
    },
    {
        "col0": "We're Going Wrong",
        "col1": "J. Bruce",
        "col2": "Felix Pappalardi",
        "col3": "SWLABR",
        "col4": "207"
    },
    {
        "col0": "We're Almost There",
        "col1": "B. Holland",
        "col2": "Brian Holland",
        "col3": "Happy",
        "col4": "222"
    },
    {
        "col0": "We'll Burn That Bridge",
        "col1": "R. Dunn",
        "col2": "Don Cook",
        "col3": "Hard Workin' Man",
        "col4": "177"
    },
    {
        "col0": "We'll Bring the House Down",
        "col1": "N. Holder",
        "col2": "Slade",
        "col3": "Xmas Ear Bender",
        "col4": "212"
    },
    {
        "col0": "We'll Be Together",
        "col1": "Sandra",
        "col2": "Michael Cretu",
        "col3": "Secret Land",
        "col4": "229"
    },
    {
        "col0": "We'll Be Coming Back",
        "col1": "C. Harris",
        "col2": "Calvin Harris",
        "col3": "Let's Go",
        "col4": "236"
    },
    {
        "col0": "Ways to an End",
        "col1": "Mirrors",
        "col2": "Mirrors",
        "col3": "Look at Me",
        "col4": "291"
    },
    {
        "col0": "Way of the World",
        "col1": "A. Hammond",
        "col2": "Roger Davies",
        "col3": "Nutbush City Limits",
        "col4": "262"
    },
    {
        "col0": "Way of the World",
        "col1": "R. Nielsen",
        "col2": "Tom Werman",
        "col3": "Voices",
        "col4": "221"
    },
    {
        "col0": "Way Out Here",
        "col1": "D. L. Murphy",
        "col2": "Michael Knox",
        "col3": "Beer on the Table",
        "col4": "246"
    },
    {
        "col0": "Way Down",
        "col1": "L. M. Jr.",
        "col2": "Felton Jarvis",
        "col3": "Moody Blue",
        "col4": "159"
    },
    {
        "col0": "Way Cool Jr.",
        "col1": "W. DeMartini",
        "col2": "Beau Hill",
        "col3": "I Want a Woman",
        "col4": "267"
    },
    {
        "col0": "Wavy",
        "col1": "D. Mustard",
        "col2": "DJ Mustard",
        "col3": "Saved",
        "col4": "188"
    },
    {
        "col0": "Wavin' Flag",
        "col1": "B. Mars",
        "col2": "Bob Ezrin",
        "col3": "Each Tear",
        "col4": "218"
    },
    {
        "col0": "Wavelength",
        "col1": "V. Morrison",
        "col2": "Van Morrison",
        "col3": "Moondance",
        "col4": "344"
    },
    {
        "col0": "Wave on Wave",
        "col1": "P. Green",
        "col2": "Tony Brown",
        "col3": "Three Days",
        "col4": "239"
    },
    {
        "col0": "Waterloo Sunset",
        "col1": "R. Davies",
        "col2": "Ray Davies",
        "col3": "Dead End Street",
        "col4": "196"
    },
    {
        "col0": "Waterline",
        "col1": "S. Vaughn",
        "col2": "Nick Jarl",
        "col3": "Wow Oh Wow",
        "col4": "181"
    },
    {
        "col0": "Waterfalls",
        "col1": "Timomatic",
        "col2": "Arnthor Birgisson",
        "col3": "Parachute",
        "col4": "212"
    },
    {
        "col0": "Waterfalls",
        "col1": "L. Lopes",
        "col2": "Organized Noize",
        "col3": "Red Light Special",
        "col4": "209"
    },
    {
        "col0": "Waterfalls",
        "col1": "P. McCartney",
        "col2": "Paul McCartney",
        "col3": "Coming Up",
        "col4": "200"
    },
    {
        "col0": "Waterfall",
        "col1": "I. Brown",
        "col2": "John Leckie",
        "col3": "One Love",
        "col4": "7"
    },
    {
        "col0": "Waterfall",
        "col1": "C. Simon",
        "col2": "Richard Perry",
        "col3": "Attitude Dancing",
        "col4": "212"
    },
    {
        "col0": "Watercolour",
        "col1": "R. Swire",
        "col2": "Gareth McGrillen",
        "col3": "Showdown",
        "col4": "12"
    },
    {
        "col0": "Water on Glass",
        "col1": "M. Wilde",
        "col2": "Ricky Wilde",
        "col3": "Chequered Love",
        "col4": "7"
    },
    {
        "col0": "Water of Love",
        "col1": "M. Knopfler",
        "col2": "Muff Winwood",
        "col3": "Sultans of Swing",
        "col4": "323"
    },
    {
        "col0": "Water from the Moon",
        "col1": "D. Warren",
        "col2": "Walter Afanasieff",
        "col3": "Love Can Move Mountains",
        "col4": "251"
    },
    {
        "col0": "Water and a Flame",
        "col1": "D. Merriweather",
        "col2": "Eg White",
        "col3": "Incredible",
        "col4": "219"
    },
    {
        "col0": "Water Under the Bridge",
        "col1": "Adele",
        "col2": "Greg Kurstin",
        "col3": "Remedy",
        "col4": "240"
    },
    {
        "col0": "Water Tower Town",
        "col1": "C. Swindell",
        "col2": "Mark Bright",
        "col3": "The Trouble with Girls",
        "col4": "164"
    },
    {
        "col0": "Water Runs Dry",
        "col1": "Babyface",
        "col2": "Babyface",
        "col3": "Thank You",
        "col4": "202"
    },
    {
        "col0": "Water",
        "col1": "B. Paisley",
        "col2": "Frank Rogers",
        "col3": "American Saturday Night",
        "col4": "210"
    },
    {
        "col0": "Watchtower",
        "col1": "B. Dylan",
        "col2": "Labrinth",
        "col3": "Young Guns",
        "col4": "219"
    },
    {
        "col0": "Watching the Wildlife",
        "col1": "H. Johnson",
        "col2": "Stephen Lipson",
        "col3": "Warriors of the Wasteland",
        "col4": "230"
    },
    {
        "col0": "Watching the Wheels",
        "col1": "J. Lennon",
        "col2": "John Lennon",
        "col3": "Woman",
        "col4": "198"
    },
    {
        "col0": "Watching the River Flow",
        "col1": "B. Dylan",
        "col2": "Leon Russell",
        "col3": "If Not for You",
        "col4": "214"
    },
    {
        "col0": "Watching the Detectives",
        "col1": "E. Costello",
        "col2": "Nick Lowe",
        "col3": "(The Angels Wanna Wear My) Red Shoes",
        "col4": "225"
    },
    {
        "col0": "Watching and Waiting",
        "col1": "R. Thomas",
        "col2": "Tony Clarke",
        "col3": "Never Comes the Day",
        "col4": "256"
    },
    {
        "col0": "Watching You",
        "col1": "J. Ash",
        "col2": "James Ash",
        "col3": "Way to Go!",
        "col4": "208"
    },
    {
        "col0": "Watching You",
        "col1": "R. Atkins",
        "col2": "Rodney Atkins",
        "col3": "If You're Going Through Hell",
        "col4": "235"
    },
    {
        "col0": "Watching Movies",
        "col1": "M. Miller",
        "col2": "Sap",
        "col3": "S.D.S.",
        "col4": "220"
    },
    {
        "col0": "Watching Airplanes",
        "col1": "J. Singleton",
        "col2": "Gary Allan",
        "col3": "A Feelin' Like That",
        "col4": "243"
    },
    {
        "col0": "Watching",
        "col1": "T. Bailey",
        "col2": "Tom Bailey",
        "col3": "We Are Detective",
        "col4": "228"
    },
    {
        "col0": "Watchin' Girls Go By",
        "col1": "R. McDowell",
        "col2": "Buddy Killen",
        "col3": "Older Women",
        "col4": "160"
    },
    {
        "col0": "Watcher of the Skies",
        "col1": "P. Gabriel",
        "col2": "David Hitchcock",
        "col3": "Seven Stones",
        "col4": "222"
    },
    {
        "col0": "Watch the Wind Blow By",
        "col1": "A. Osborne",
        "col2": "Byron Gallimore",
        "col3": "Real Good Man",
        "col4": "276"
    },
    {
        "col0": "Watch the Flowers Grow",
        "col1": "L. R. Brown",
        "col2": "Bob Crewe",
        "col3": "Lonesome Road",
        "col4": "191"
    },
    {
        "col0": "Watch This",
        "col1": "A. Barker",
        "col2": "Clay Walker",
        "col3": "One, Two, I Love You",
        "col4": "190"
    },
    {
        "col0": "Watch Out for This",
        "col1": "R. Blades",
        "col2": "Willie Colon",
        "col3": "Jah No Partial",
        "col4": "207"
    },
    {
        "col0": "Watch Out for Lucy",
        "col1": "E. Clapton",
        "col2": "Glyn Johns",
        "col3": "Promises",
        "col4": "193"
    },
    {
        "col0": "Watch Out Now",
        "col1": "F. Arbex",
        "col2": "The Beatnuts",
        "col3": "Here's a Drink",
        "col4": "174"
    },
    {
        "col0": "Watch Out",
        "col1": "2. Chainz",
        "col2": "FKi",
        "col3": "3500",
        "col4": "207"
    },
    {
        "col0": "Watch Me",
        "col1": "T. Shapiro",
        "col2": "Richard Landis",
        "col3": "Something in Red",
        "col4": "217"
    },
    {
        "col0": "Watch Dem Roll",
        "col1": "S. Paul",
        "col2": "Di Genius",
        "col3": "Give It to You",
        "col4": "192"
    },
    {
        "col0": "Wasting Time",
        "col1": "T. DeLonge",
        "col2": "Blink-182",
        "col3": "M+M's",
        "col4": "169"
    },
    {
        "col0": "Wastin' Gas",
        "col1": "J. Nite",
        "col2": "Joey Moi",
        "col3": "A Girl Like You",
        "col4": "183"
    },
    {
        "col0": "Wastelands",
        "col1": "L. Park",
        "col2": "Brad Delson",
        "col3": "Until It's Gone",
        "col4": "190"
    },
    {
        "col0": "Wasted Years",
        "col1": "A. Smith",
        "col2": "Martin Birch",
        "col3": "Run to the Hills",
        "col4": "306"
    },
    {
        "col0": "Wasted Time",
        "col1": "S. Bach",
        "col2": "Michael Wagener",
        "col3": "Slave to the Grind",
        "col4": "349"
    },
    {
        "col0": "Wasted Time",
        "col1": "K. Urban",
        "col2": "Keith Urban",
        "col3": "Break on Me",
        "col4": "233"
    },
    {
        "col0": "Wasted Love",
        "col1": "C. Kreviazuk",
        "col2": "Sterling Fox",
        "col3": "Over the Rainbow",
        "col4": "209"
    },
    {
        "col0": "Wasted",
        "col1": "Tiesto",
        "col2": "Tiesto",
        "col3": "Red Lights",
        "col4": "189"
    },
    {
        "col0": "Wasted",
        "col1": "C. Hawkes",
        "col2": "Jennifer Paige",
        "col3": "Stranded",
        "col4": "217"
    },
    {
        "col0": "Wasted",
        "col1": "Plies",
        "col2": "FATBOI",
        "col3": "Break Up",
        "col4": "248"
    },
    {
        "col0": "Wasted",
        "col1": "H. Lindsey",
        "col2": "Mark Bright",
        "col3": "Before He Cheats",
        "col4": "240"
    },
    {
        "col0": "Wash My World",
        "col1": "L. Wolf",
        "col2": "Laurent Wolf",
        "col3": "No Stress",
        "col4": "201"
    },
    {
        "col0": "Wash It All Away",
        "col1": "I. L. Moody",
        "col2": "Kevin Churko",
        "col3": "Jekyll and Hyde",
        "col4": "225"
    },
    {
        "col0": "Was That My Life",
        "col1": "M. Green",
        "col2": "Tim McGraw",
        "col3": "Dare to Dream",
        "col4": "230"
    },
    {
        "col0": "Was It Worth It?",
        "col1": "N. Tennant",
        "col2": "Pet Shop Boys",
        "col3": "DJ Culture",
        "col4": "264"
    },
    {
        "col0": "Was It Worth It?",
        "col1": "A. Laiho",
        "col2": "Matt Hyde",
        "col3": "Lookin' Out My Back Door",
        "col4": "243"
    },
    {
        "col0": "Warszawa",
        "col1": "B. Eno",
        "col2": "David Bowie",
        "col3": "A New Career in a New Town",
        "col4": "383"
    },
    {
        "col0": "Warriors of the Wasteland",
        "col1": "H. Johnson",
        "col2": "Stephen Lipson",
        "col3": "Rage Hard",
        "col4": "301"
    },
    {
        "col0": "Warrior",
        "col1": "D. Donegan",
        "col2": "Dan Donegan",
        "col3": "The Animal",
        "col4": "205"
    },
    {
        "col0": "Warrior's Dance",
        "col1": "L. Howlett",
        "col2": "Liam Howlett",
        "col3": "Omen",
        "col4": "175"
    },
    {
        "col0": "Warped",
        "col1": "Flea",
        "col2": "Rick Rubin",
        "col3": "Soul to Squeeze",
        "col4": "259"
    },
    {
        "col0": "Warning",
        "col1": "A. Katunich",
        "col2": "Incubus",
        "col3": "Nice to Know You",
        "col4": "230"
    },
    {
        "col0": "Warning",
        "col1": "B. J. Armstrong",
        "col2": "Green Day",
        "col3": "Minority",
        "col4": "221"
    },
    {
        "col0": "Warm Wet Circles",
        "col1": "Fish",
        "col2": "Chris Kimsey",
        "col3": "Sugar Mice",
        "col4": "270"
    },
    {
        "col0": "Warm Machine",
        "col1": "G. Rossdale",
        "col2": "Clive Langer",
        "col3": "The Chemicals Between Us",
        "col4": "226"
    },
    {
        "col0": "Warm Leatherette",
        "col1": "D. Miller",
        "col2": "Daniel Miller",
        "col3": "Breakdown",
        "col4": "265"
    },
    {
        "col0": "Warm It Up",
        "col1": "J. Dupri",
        "col2": "Jermaine Dupri",
        "col3": "Jump",
        "col4": "249"
    },
    {
        "col0": "Warehouse",
        "col1": "D. Matthews",
        "col2": "Steve Lillywhite",
        "col3": "Jimi Thing",
        "col4": "426"
    },
    {
        "col0": "Wardance",
        "col1": "G. Walker",
        "col2": "Killing Joke",
        "col3": "Nervous System",
        "col4": "522"
    },
    {
        "col0": "War Is Hell",
        "col1": "C. Putman",
        "col2": "Buddy Killen",
        "col3": "Finally",
        "col4": "205"
    },
    {
        "col0": "War Is All We Know",
        "col1": "GWAR",
        "col2": "Devin Townsend",
        "col3": "Intro",
        "col4": "280"
    },
    {
        "col0": "War Child",
        "col1": "D. Harry",
        "col2": "Mike Chapman",
        "col3": "Island of Lost Souls",
        "col4": "241"
    },
    {
        "col0": "Wanted You More",
        "col1": "H. Scott",
        "col2": "Lady Antebellum",
        "col3": "Dancin' Away with My Heart",
        "col4": "242"
    },
    {
        "col0": "Wanted Man",
        "col1": "R. Crosby",
        "col2": "Beau Hill",
        "col3": "Round and Round",
        "col4": "217"
    },
    {
        "col0": "Wanted Dead or Alive",
        "col1": "T. Shakur",
        "col2": "Dat Nigga Daz",
        "col3": "Hail Mary",
        "col4": "279"
    },
    {
        "col0": "Wanted Dead or Alive",
        "col1": "R. Sambora",
        "col2": "Bruce Fairbairn",
        "col3": "Livin' on a Prayer",
        "col4": "309"
    },
    {
        "col0": "Wanted",
        "col1": "H. Hayes",
        "col2": "Dann Huff",
        "col3": "Storm Warning",
        "col4": "228"
    },
    {
        "col0": "Wanted",
        "col1": "A. Jackson",
        "col2": "Scott Hendricks",
        "col3": "Here in the Real World",
        "col4": "179"
    },
    {
        "col0": "Want to Want Me",
        "col1": "J. Derulo",
        "col2": "Ian Kirkpatrick",
        "col3": "Bubblegum",
        "col4": "207"
    },
    {
        "col0": "Want You Bad",
        "col1": "D. Holland",
        "col2": "Brendan O'Brien",
        "col3": "Original Prankster",
        "col4": "203"
    },
    {
        "col0": "Want U Back",
        "col1": "Shellback",
        "col2": "Shellback",
        "col3": "With Ur Love",
        "col4": "214"
    },
    {
        "col0": "Want To",
        "col1": "J. Nettles",
        "col2": "Sugarland",
        "col3": "Down in Mississippi",
        "col4": "215"
    },
    {
        "col0": "Want More Need Less",
        "col1": "T. Halliday",
        "col2": "Curve",
        "col3": "Perish",
        "col4": "239"
    },
    {
        "col0": "Wannabe in L.A.",
        "col1": "J. Homme",
        "col2": "Joshua Homme",
        "col3": "I Gotta Feelin",
        "col4": "135"
    },
    {
        "col0": "Wanna Take You Home",
        "col1": "W. Mobley",
        "col2": "Matt Serletic",
        "col3": "The World Is Ours Tonight",
        "col4": "218"
    },
    {
        "col0": "Wanna Be with You",
        "col1": "M. White",
        "col2": "Maurice White",
        "col3": "Let's Groove",
        "col4": "235"
    },
    {
        "col0": "Wanna Be That Song",
        "col1": "B. Eldredge",
        "col2": "Brett Eldredge",
        "col3": "Drunk on Your Love",
        "col4": "236"
    },
    {
        "col0": "Wanna Be Startin' Somethin'",
        "col1": "M. Jackson",
        "col2": "Michael Jackson",
        "col3": "Beat It",
        "col4": "231"
    },
    {
        "col0": "Wang Dang Doodle",
        "col1": "W. Dixon",
        "col2": "Willie Dixon",
        "col3": "Spoonful",
        "col4": "140"
    },
    {
        "col0": "Wanderlust",
        "col1": "T. Weeknd",
        "col2": "The Weeknd",
        "col3": "Elastic Heart",
        "col4": "306"
    },
    {
        "col0": "Wanderlust",
        "col1": "Sjon",
        "col2": "Bjork",
        "col3": "Declare Independence",
        "col4": "351"
    },
    {
        "col0": "Waltz Away Dreaming",
        "col1": "G. Michael",
        "col2": "George Michael",
        "col3": "Star People",
        "col4": "284"
    },
    {
        "col0": "Walls",
        "col1": "J. Anderson",
        "col2": "Trevor Rabin",
        "col3": "The Calling",
        "col4": "297"
    },
    {
        "col0": "Walls",
        "col1": "I. Davies",
        "col2": "Iva Davies",
        "col3": "We Can Get Together",
        "col4": "262"
    },
    {
        "col0": "Wall to Wall",
        "col1": "C. Brown",
        "col2": "Sean Garrett",
        "col3": "Poppin'",
        "col4": "223"
    },
    {
        "col0": "Walks Like Rihanna",
        "col1": "A. Hill",
        "col2": "Cirkut",
        "col3": "I Found You",
        "col4": "202"
    },
    {
        "col0": "Walking to Jerusalem",
        "col1": "M. D. Sanders",
        "col2": "Tony Brown",
        "col3": "The Keeper of the Stars",
        "col4": "205"
    },
    {
        "col0": "Walking on the Moon",
        "col1": "Sting",
        "col2": "Nigel Gray",
        "col3": "Message in a Bottle",
        "col4": "302"
    },
    {
        "col0": "Walking on the Chinese Wall",
        "col1": "R. Seeman",
        "col2": "Phil Collins",
        "col3": "Photogenic Memory",
        "col4": "310"
    },
    {
        "col0": "Walking on Thin Ice",
        "col1": "Y. Ono",
        "col2": "John Lennon",
        "col3": "Kiss Kiss Kiss",
        "col4": "360"
    },
    {
        "col0": "Walking on Broken Glass",
        "col1": "A. Lennox",
        "col2": "Stephen Lipson",
        "col3": "Precious",
        "col4": "238"
    },
    {
        "col0": "Walking in the Sun",
        "col1": "F. Healy",
        "col2": "Mike Hedges",
        "col3": "Love Will Come Through",
        "col4": "178"
    },
    {
        "col0": "Walking in My Sleep",
        "col1": "J. Green",
        "col2": "Mike Thorne",
        "col3": "Without Your Love",
        "col4": "200"
    },
    {
        "col0": "Walking in My Shoes",
        "col1": "M. Gore",
        "col2": "Depeche Mode",
        "col3": "I Feel You",
        "col4": "299"
    },
    {
        "col0": "Walking in Memphis",
        "col1": "M. Cohn",
        "col2": "Marc Cohn",
        "col3": "Love Can Build a Bridge",
        "col4": "230"
    },
    {
        "col0": "Walking Wounded",
        "col1": "T. T. Party",
        "col2": "Jeff Martin",
        "col3": "Gone",
        "col4": "278"
    },
    {
        "col0": "Walking Slow",
        "col1": "J. Browne",
        "col2": "Jackson Browne",
        "col3": "Take It Easy",
        "col4": "597"
    },
    {
        "col0": "Walking Shoes",
        "col1": "P. Kennerley",
        "col2": "Jerry Crutchfield",
        "col3": "My Arms Stay Open All Night",
        "col4": "155"
    },
    {
        "col0": "Walking Down Your Street",
        "col1": "S. Hoffs",
        "col2": "David Kahne",
        "col3": "Walk Like an Egyptian",
        "col4": "184"
    },
    {
        "col0": "Walking Disaster",
        "col1": "D. Whibley",
        "col2": "Deryck Whibley",
        "col3": "Underclass Hero",
        "col4": "256"
    },
    {
        "col0": "Walking Contradiction",
        "col1": "G. Day",
        "col2": "Green Day",
        "col3": "Brain Stew/Jaded",
        "col4": "151"
    },
    {
        "col0": "Walking Barefoot",
        "col1": "T. Wheeler",
        "col2": "Owen Morris",
        "col3": "There's a Star",
        "col4": "254"
    },
    {
        "col0": "Walking Away",
        "col1": "P. Robb",
        "col2": "Fred Maher",
        "col3": "What's on Your Mind",
        "col4": "239"
    },
    {
        "col0": "Walkin' on the Moon",
        "col1": "K. West",
        "col2": "Kanye West",
        "col3": "My Love",
        "col4": "242"
    },
    {
        "col0": "Walkin' Away",
        "col1": "C. Wiseman",
        "col2": "Diamond Rio",
        "col3": "Finish What We Started",
        "col4": "230"
    },
    {
        "col0": "Walkin' Away",
        "col1": "C. Black",
        "col2": "James Stroud",
        "col3": "Nobody's Home",
        "col4": "167"
    },
    {
        "col0": "Walkin', Talkin', Cryin', Barely Beatin' Broken Heart",
        "col1": "R. Miller",
        "col2": "Paul Worley",
        "col3": "Who's Lonely Now",
        "col4": "153"
    },
    {
        "col0": "Walkaway Joe",
        "col1": "V. Melamed",
        "col2": "Garth Fundis",
        "col3": "Wrong Side of Memphis",
        "col4": "259"
    },
    {
        "col0": "Walk the Way the Wind Blows",
        "col1": "T. O'Brien",
        "col2": "Allen Reynolds",
        "col3": "Love at the Five and Dime",
        "col4": "226"
    },
    {
        "col0": "Walk on Water",
        "col1": "J. Blades",
        "col2": "Bruce Fairbairn",
        "col3": "Blind Man",
        "col4": "295"
    },
    {
        "col0": "Walk on Faith",
        "col1": "A. Shamblin",
        "col2": "Steve Buckingham",
        "col3": "Old Folks",
        "col4": "189"
    },
    {
        "col0": "Walk of Shame",
        "col1": "Pink",
        "col2": "Greg Kurstin",
        "col3": "True Love",
        "col4": "164"
    },
    {
        "col0": "Walk of Life",
        "col1": "B. Piper",
        "col2": "Skin Games",
        "col3": "Something Deep Inside",
        "col4": "229"
    },
    {
        "col0": "Walk of Life",
        "col1": "M. Knopfler",
        "col2": "Mark Knopfler",
        "col3": "Brothers in Arms",
        "col4": "252"
    },
    {
        "col0": "Walk Thru",
        "col1": "R. H. Quan",
        "col2": "Problem",
        "col3": "I Know",
        "col4": "187"
    },
    {
        "col0": "Walk This Way",
        "col1": "MO",
        "col2": "Ronni Vindahl",
        "col3": "Say You'll Be There",
        "col4": "223"
    },
    {
        "col0": "Walk Right Now",
        "col1": "M. Jackson",
        "col2": "The Jackson 5",
        "col3": "Can You Feel It",
        "col4": "387"
    },
    {
        "col0": "Walk Right Back",
        "col1": "S. Curtis",
        "col2": "Wesley Rose",
        "col3": "Ebony Eyes",
        "col4": "138"
    },
    {
        "col0": "Walk On By",
        "col1": "B. Bacharach",
        "col2": "Burt Bacharach",
        "col3": "Anyone Who Had a Heart",
        "col4": "175"
    },
    {
        "col0": "Walk Me Home",
        "col1": "T. Moran",
        "col2": "Tony Moran",
        "col3": "Candy",
        "col4": "222"
    },
    {
        "col0": "Walk Like an Egyptian",
        "col1": "L. Sternberg",
        "col2": "David Kahne",
        "col3": "If She Knew What She Wants",
        "col4": "204"
    },
    {
        "col0": "Walk Like a Man",
        "col1": "B. Gaudio",
        "col2": "Bob Crewe",
        "col3": "Santa Claus Is Coming to Town",
        "col4": "137"
    },
    {
        "col0": "Walk Like a Man",
        "col1": "M. Farner",
        "col2": "Todd Rundgren",
        "col3": "We're an American Band",
        "col4": "243"
    },
    {
        "col0": "Walk It Out",
        "col1": "Timbaland",
        "col2": "Timbaland",
        "col3": "I Can't Describe",
        "col4": "283"
    },
    {
        "col0": "Walk Away",
        "col1": "C. Milian",
        "col2": "Stargate",
        "col3": "Doing Too Much",
        "col4": "261"
    },
    {
        "col0": "Walk Away",
        "col1": "A. Kapranos",
        "col2": "Rich Costey",
        "col3": "Do You Want To",
        "col4": "216"
    },
    {
        "col0": "Walk Away",
        "col1": "I. L. Moody",
        "col2": "Kevin Churko",
        "col3": "Hard To See",
        "col4": "223"
    },
    {
        "col0": "Walk Away",
        "col1": "A. Morissette",
        "col2": "Leslie Howe",
        "col3": "Too Hot",
        "col4": "236"
    },
    {
        "col0": "Walk",
        "col1": "P. Anselmo",
        "col2": "Avenged Sevenfold",
        "col3": "Hollow",
        "col4": "315"
    },
    {
        "col0": "Walk",
        "col1": "F. Fighters",
        "col2": "Butch Vig",
        "col3": "White Limo",
        "col4": "256"
    },
    {
        "col0": "Wakuteka Take a Chance",
        "col1": "Tsunku",
        "col2": "Tsunku",
        "col3": "One Two Three / The Matenro Show",
        "col4": "283"
    },
    {
        "col0": "Waking Up in Vegas",
        "col1": "A. Carlsson",
        "col2": "Katy Perry",
        "col3": "Thinking of You",
        "col4": "199"
    },
    {
        "col0": "Waking Up",
        "col1": "Elastica",
        "col2": "Elastica",
        "col3": "Connection",
        "col4": "196"
    },
    {
        "col0": "Waking Light",
        "col1": "Beck",
        "col2": "Beck",
        "col3": "Blue Moon",
        "col4": "301"
    },
    {
        "col0": "Wake Up My Love",
        "col1": "G. Harrison",
        "col2": "George Harrison",
        "col3": "Teardrops",
        "col4": "216"
    },
    {
        "col0": "Wake Up Everybody",
        "col1": "G. McFadden",
        "col2": "The Roots",
        "col3": "Hopelessly Devoted to You",
        "col4": "218"
    },
    {
        "col0": "Wake Up Call",
        "col1": "A. Levine",
        "col2": "Patrick Stump",
        "col3": "Makes Me Wonder",
        "col4": "201"
    },
    {
        "col0": "Wake Up",
        "col1": "S. Mac",
        "col2": "Steve Mac",
        "col3": "Oh Cecilia",
        "col4": "192"
    },
    {
        "col0": "Wake Up",
        "col1": "B. Wilk",
        "col2": "Rage Against the Machine",
        "col3": "Know Your Enemy",
        "col4": "364"
    },
    {
        "col0": "Wake Up",
        "col1": "R. Chassagne",
        "col2": "Arcade Fire",
        "col3": "Rebellion",
        "col4": "225"
    },
    {
        "col0": "Wake Me When It's Over",
        "col1": "W. Nelson",
        "col2": "Joe Allison",
        "col3": "Touch Me",
        "col4": "166"
    },
    {
        "col0": "Wake Me Up When September Ends",
        "col1": "G. Day",
        "col2": "Rob Cavallo",
        "col3": "Holiday",
        "col4": "285"
    },
    {
        "col0": "Wake Me Up Before You Go-Go",
        "col1": "G. Michael",
        "col2": "George Michael",
        "col3": "Club Fantastic Megamix",
        "col4": "230"
    },
    {
        "col0": "Wake Me Up",
        "col1": "Avicii",
        "col2": "DJ Khalil",
        "col3": "Green Lights",
        "col4": "225"
    }
]