[
    {
        "col0": "African Story",
        "col1": "Gone West",
        "col2": "Pivotal",
        "col3": "2007-03-10"
    },
    {
        "col0": "African Rose",
        "col1": "Quest for Fame",
        "col2": "Observatory",
        "col3": "2005-05-08"
    },
    {
        "col0": "Affirmed",
        "col1": "Crafty Admiral",
        "col2": "Exclusive Native",
        "col3": "1975-02-21"
    },
    {
        "col0": "Admire Vega",
        "col1": "Tony Bin",
        "col2": "Sunday Silence",
        "col3": "1996-03-12"
    },
    {
        "col0": "Admire Rakti",
        "col1": "Helissio",
        "col2": "Heart's Cry",
        "col3": "2008-02-20"
    },
    {
        "col0": "Adelaide",
        "col1": "Elnadim",
        "col2": "Galileo",
        "col3": "2011-02-19"
    },
    {
        "col0": "Ad Valorem",
        "col1": "Relaunch",
        "col2": "Danzig",
        "col3": "2002-04-27"
    },
    {
        "col0": "Able One",
        "col1": "Danehill",
        "col2": "Cape Cross",
        "col3": "2002-11-01"
    },
    {
        "col0": "A Shin Hikari",
        "col1": "Storm Cat",
        "col2": "Deep Impact",
        "col3": "2011-05-03"
    },
    {
        "col0": "A.P. Indy",
        "col1": "Secretariat",
        "col2": "Seattle Slew",
        "col3": "1989-03-31"
    }
]