[
    {
        "col0": "W. S. Allen",
        "col1": "Manchester",
        "col2": "Woodhead Hall",
        "col3": "W. Allen",
        "col4": "1831-06-22"
    },
    {
        "col0": "R. Layton",
        "col1": "Montreal",
        "col2": "Montreal",
        "col3": "J. Layton",
        "col4": "1925-12-25"
    },
    {
        "col0": "M. Hodgman",
        "col1": "Hobart",
        "col2": "Tasmania",
        "col3": "W. Hodgman",
        "col4": "1938-11-16"
    },
    {
        "col0": "J. Appiah",
        "col1": "Kumasi",
        "col2": "Kumasi",
        "col3": "K. A. Appiah",
        "col4": "1918-11-16"
    },
    {
        "col0": "G. S. Malhi",
        "col1": "India",
        "col2": "Brampton, Ontario",
        "col3": "H. Malhi",
        "col4": "1949-10-12"
    },
    {
        "col0": "G. Layton",
        "col1": "Canada",
        "col2": "Montreal",
        "col3": "R. Layton",
        "col4": "1899-11-05"
    },
    {
        "col0": "C. Palmer",
        "col1": "Melbourne",
        "col2": "Queensland",
        "col3": "C. Palmer",
        "col4": "1954-03-26"
    },
    {
        "col0": "C. Strahl",
        "col1": "British Columbia",
        "col2": "British Columbia",
        "col3": "M. Strahl",
        "col4": "1957-02-25"
    },
    {
        "col0": "B. Katter",
        "col1": "Cloncurry, Queensland",
        "col2": "Charters Towers, Queensland",
        "col3": "R. Katter",
        "col4": "1945-05-22"
    },
    {
        "col0": "B. Follett",
        "col1": "Jamaica",
        "col2": "London",
        "col3": "J. Turner",
        "col4": "1942-12-25"
    }
]