[
    {
        "col0": "Park Express",
        "col1": "Match",
        "col2": "Ahonoora",
        "col3": "1983-03-25"
    },
    {
        "col0": "Papineau",
        "col1": "Grey Dawn",
        "col2": "Singspiel",
        "col3": "2000-04-06"
    },
    {
        "col0": "Palentino",
        "col1": "Palace Music",
        "col2": "Teofilo",
        "col3": "2012-10-18"
    },
    {
        "col0": "Palace Malice",
        "col1": "Royal Anthem",
        "col2": "Curlin",
        "col3": "2010-05-02"
    },
    {
        "col0": "Palace Episode",
        "col1": "Seattle Dancer",
        "col2": "Machiavellian",
        "col3": "2003-05-02"
    },
    {
        "col0": "Paean",
        "col1": "Nijinsky",
        "col2": "Bustino",
        "col3": "1983-04-04"
    },
    {
        "col0": "Owington",
        "col1": "High Top",
        "col2": "Green Desert",
        "col3": "1991-02-06"
    },
    {
        "col0": "Ormonde",
        "col1": "Macaroni",
        "col2": "Bend Or",
        "col3": "1883-03-18"
    },
    {
        "col0": "Order of St George",
        "col1": "Gone West",
        "col2": "Galileo",
        "col3": "2012-02-22"
    },
    {
        "col0": "Orb",
        "col1": "Unbridled",
        "col2": "Malibu Moon",
        "col3": "2010-02-24"
    },
    {
        "col0": "Oratorio",
        "col1": "Vaguely Noble",
        "col2": "Danehill",
        "col3": "2002-04-29"
    },
    {
        "col0": "One So Wonderful",
        "col1": "Habitat",
        "col2": "Nashwan",
        "col3": "1994-05-04"
    },
    {
        "col0": "On the House",
        "col1": "Lorenzaccio",
        "col2": "Be My Guest",
        "col3": "1979-03-20"
    },
    {
        "col0": "Oh So Sharp",
        "col1": "Graustark",
        "col2": "Kris",
        "col3": "1982-03-30"
    },
    {
        "col0": "Observatory",
        "col1": "Roberto",
        "col2": "Distant View",
        "col3": "1997-02-17"
    },
    {
        "col0": "Oasis Dream",
        "col1": "Dancing Brave",
        "col2": "Green Desert",
        "col3": "2000-03-30"
    },
    {
        "col0": "Noverre",
        "col1": "Northern Dancer",
        "col2": "Rahy",
        "col3": "1998-05-02"
    },
    {
        "col0": "Northern Trick",
        "col1": "Prince John",
        "col2": "Northern Dancer",
        "col3": "1981-04-11"
    },
    {
        "col0": "Northern Baby",
        "col1": "Round Table",
        "col2": "Northern Dancer",
        "col3": "1976-04-01"
    },
    {
        "col0": "Nomadic Way",
        "col1": "Bustino",
        "col2": "Assert",
        "col3": "1985-03-03"
    },
    {
        "col0": "Noble Mission",
        "col1": "Danehill",
        "col2": "Galileo",
        "col3": "2009-02-25"
    },
    {
        "col0": "Nobiliary",
        "col1": "Court Martial",
        "col2": "Vaguely Noble",
        "col3": "1972-02-14"
    },
    {
        "col0": "No Nay Never",
        "col1": "Elusive Quality",
        "col2": "Scat Daddy",
        "col3": "2011-03-01"
    },
    {
        "col0": "No Le Hace",
        "col1": "Crafty Admiral",
        "col2": "Candy Spots",
        "col3": "1969-03-18"
    },
    {
        "col0": "Niniski",
        "col1": "Tom Rolfe",
        "col2": "Nijinsky",
        "col3": "1976-02-15"
    },
    {
        "col0": "Nijinsky",
        "col1": "Bull Page",
        "col2": "Northern Dancer",
        "col3": "1967-02-21"
    },
    {
        "col0": "Night of Thunder",
        "col1": "Galileo",
        "col2": "Dubawi",
        "col3": "2011-03-12"
    },
    {
        "col0": "Nichols Canyon",
        "col1": "Dalakhani",
        "col2": "Authorized",
        "col3": "2010-02-11"
    },
    {
        "col0": "Never Too Late",
        "col1": "Alycidon",
        "col2": "Never Say Die",
        "col3": "1957-03-10"
    },
    {
        "col0": "Never So Bold",
        "col1": "Habitat",
        "col2": "Bold Lad",
        "col3": "1980-04-26"
    },
    {
        "col0": "Nedawi",
        "col1": "Northern Dancer",
        "col2": "Rainbow Quest",
        "col3": "1995-04-09"
    },
    {
        "col0": "Nashwan",
        "col1": "Bustino",
        "col2": "Blushing Groom",
        "col3": "1986-03-01"
    },
    {
        "col0": "My Tent Or Yours",
        "col1": "Ela-Mana-Mou",
        "col2": "Desert Prince",
        "col3": "2007-03-16"
    },
    {
        "col0": "My Emma",
        "col1": "High Top",
        "col2": "Marju",
        "col3": "1993-03-19"
    },
    {
        "col0": "Musical Bliss",
        "col1": "Quadrangle",
        "col2": "The Minstrel",
        "col3": "1986-02-25"
    },
    {
        "col0": "Music Show",
        "col1": "Mr Prospector",
        "col2": "Noverre",
        "col3": "2007-04-18"
    },
    {
        "col0": "Music Note",
        "col1": "Sadler's Wells",
        "col2": "A.P. Indy",
        "col3": "2005-02-05"
    },
    {
        "col0": "Mukhadram",
        "col1": "Timber Country",
        "col2": "Shamardal",
        "col3": "2009-04-06"
    },
    {
        "col0": "Mujahid",
        "col1": "Storm Cat",
        "col2": "Danzig",
        "col3": "1996-01-31"
    },
    {
        "col0": "Muhtarram",
        "col1": "Northern Dancer",
        "col2": "Alleged",
        "col3": "1989-02-22"
    },
    {
        "col0": "Mr. Prospector",
        "col1": "Nashua",
        "col2": "Raise a Native",
        "col3": "1970-01-28"
    },
    {
        "col0": "Mozart",
        "col1": "Spectacular Bid",
        "col2": "Danehill",
        "col3": "1998-02-13"
    },
    {
        "col0": "Mount Nelson",
        "col1": "Selkirk",
        "col2": "Rock of Gibraltar",
        "col3": "2004-04-07"
    },
    {
        "col0": "Moonshell",
        "col1": "Kris",
        "col2": "Sadler's Wells",
        "col3": "1992-02-20"
    },
    {
        "col0": "Moonax",
        "col1": "Solinus",
        "col2": "Caerleon",
        "col3": "1991-03-22"
    },
    {
        "col0": "Monteverdi",
        "col1": "Match",
        "col2": "Lyphard",
        "col3": "1977-04-10"
    },
    {
        "col0": "Monterosso",
        "col1": "Barathea",
        "col2": "Dubawi",
        "col3": "2007-02-14"
    },
    {
        "col0": "Mohaymen",
        "col1": "Dixie Union",
        "col2": "Tapit",
        "col3": "2013-05-02"
    },
    {
        "col0": "Misty for Me",
        "col1": "Storm Cat",
        "col2": "Galileo",
        "col3": "2008-04-09"
    },
    {
        "col0": "Miss France",
        "col1": "Tirol",
        "col2": "Dansili",
        "col3": "2011-03-23"
    },
    {
        "col0": "Miss Finland",
        "col1": "Woodman",
        "col2": "Redoute's Choice",
        "col3": "2003-02-16"
    },
    {
        "col0": "Misremembered",
        "col1": "Quack",
        "col2": "Candy Ride",
        "col3": "2006-04-15"
    },
    {
        "col0": "Mining My Own",
        "col1": "Vice Regent",
        "col2": "Smart Strike",
        "col3": "2001-02-09"
    },
    {
        "col0": "Mine That Bird",
        "col1": "Smart Strike",
        "col2": "Birdstone",
        "col3": "2006-05-10"
    },
    {
        "col0": "Minding",
        "col1": "Danehill Dancer",
        "col2": "Galileo",
        "col3": "2013-02-10"
    },
    {
        "col0": "Millenary",
        "col1": "Dancing Brave",
        "col2": "Rainbow Quest",
        "col3": "1997-04-21"
    },
    {
        "col0": "Military Attack",
        "col1": "Dancing Brave",
        "col2": "Oratorio",
        "col3": "2008-03-04"
    },
    {
        "col0": "Miesque",
        "col1": "Prove Out",
        "col2": "Nureyev",
        "col3": "1984-03-14"
    },
    {
        "col0": "Midway Lady",
        "col1": "His Majesty",
        "col2": "Alleged",
        "col3": "1983-02-14"
    },
    {
        "col0": "Mendez",
        "col1": "Caro",
        "col2": "Bellypha",
        "col3": "1981-04-02"
    },
    {
        "col0": "Medicean",
        "col1": "Storm Bird",
        "col2": "Machiavellian",
        "col3": "1997-02-26"
    },
    {
        "col0": "Mayson",
        "col1": "Pivotal",
        "col2": "Invincible Spirit",
        "col3": "2008-05-16"
    },
    {
        "col0": "Maybe",
        "col1": "Danehill",
        "col2": "Galileo",
        "col3": "2009-02-09"
    },
    {
        "col0": "Mayano Top Gun",
        "col1": "Blushing Groom",
        "col2": "Brian's Time",
        "col3": "1992-03-24"
    },
    {
        "col0": "Maurice",
        "col1": "Carnegie",
        "col2": "Screen Hero",
        "col3": "2011-03-02"
    },
    {
        "col0": "Mastery",
        "col1": "Diesis",
        "col2": "Sulamani",
        "col3": "2006-02-25"
    },
    {
        "col0": "Masked Marvel",
        "col1": "Mark of Esteem",
        "col2": "Montjeu",
        "col3": "2008-05-14"
    },
    {
        "col0": "Mashaallah",
        "col1": "Round Table",
        "col2": "Nijinsky II",
        "col3": "1988-03-09"
    },
    {
        "col0": "Marvellous",
        "col1": "Storm Cat",
        "col2": "Galileo",
        "col3": "2011-01-09"
    },
    {
        "col0": "Maroof",
        "col1": "Bustino",
        "col2": "Danzig",
        "col3": "1990-04-12"
    },
    {
        "col0": "Marling",
        "col1": "Habitat",
        "col2": "Lomond",
        "col3": "1989-03-17"
    },
    {
        "col0": "Markab",
        "col1": "Nashwan",
        "col2": "Green Desert",
        "col3": "2003-02-04"
    },
    {
        "col0": "Mark of Esteem",
        "col1": "Ajdal",
        "col2": "Darshaan",
        "col3": "1993-03-26"
    },
    {
        "col0": "Marienbard",
        "col1": "Darshaan",
        "col2": "Caerleon II",
        "col3": "1997-05-26"
    },
    {
        "col0": "Marcel",
        "col1": "Marju",
        "col2": "Lawman",
        "col3": "2013-03-25"
    },
    {
        "col0": "Manhattan Cafe",
        "col1": "Law Society",
        "col2": "Sunday Silence",
        "col3": "1998-03-05"
    },
    {
        "col0": "Manado",
        "col1": "Sing Sing",
        "col2": "Captain's Gig",
        "col3": "1973-02-26"
    },
    {
        "col0": "Man o' War",
        "col1": "Rock Sand",
        "col2": "Fair Play",
        "col3": "1917-03-29"
    },
    {
        "col0": "Malhub",
        "col1": "Ahonoora",
        "col2": "Kingmambo",
        "col3": "1998-04-26"
    },
    {
        "col0": "Malacate",
        "col1": "My Babu",
        "col2": "Lucky Debonair",
        "col3": "1973-04-18"
    },
    {
        "col0": "Makfi",
        "col1": "Green Desert",
        "col2": "Dubawi",
        "col3": "2007-03-04"
    },
    {
        "col0": "Make Believe",
        "col1": "Suave Dancer",
        "col2": "Makfi",
        "col3": "2012-02-19"
    },
    {
        "col0": "Maids Causeway",
        "col1": "Kingmambo",
        "col2": "Giant's Causeway",
        "col3": "2002-03-11"
    },
    {
        "col0": "Magician",
        "col1": "Mozart",
        "col2": "Galileo",
        "col3": "2010-04-24"
    },
    {
        "col0": "Magical Romance",
        "col1": "Shirley Heights",
        "col2": "Barathea",
        "col3": "2002-02-05"
    },
    {
        "col0": "Magic of Life",
        "col1": "Northern Dancer",
        "col2": "Seattle Slew",
        "col3": "1985-01-27"
    },
    {
        "col0": "Lyric of Light",
        "col1": "Green Desert",
        "col2": "Street Cry",
        "col3": "2009-03-01"
    },
    {
        "col0": "Lyphard",
        "col1": "Court Martial",
        "col2": "Northern Dancer",
        "col3": "1969-05-10"
    },
    {
        "col0": "Lumiere",
        "col1": "Tobougg",
        "col2": "Shamardal",
        "col3": "2013-03-10"
    },
    {
        "col0": "Lujain",
        "col1": "Shadeed",
        "col2": "Seeking the Gold",
        "col3": "1996-02-08"
    },
    {
        "col0": "Lucky Pulpit",
        "col1": "Cozzene",
        "col2": "Pulpit",
        "col3": "2001-02-10"
    },
    {
        "col0": "Lucky Nine",
        "col1": "Green Desert",
        "col2": "Dubawi",
        "col3": "2007-03-12"
    },
    {
        "col0": "Love Divine",
        "col1": "Law Society",
        "col2": "Diesis",
        "col3": "1997-02-12"
    },
    {
        "col0": "Lord Kanaloa",
        "col1": "Storm Cat",
        "col2": "King Kamehameha",
        "col3": "2008-03-11"
    },
    {
        "col0": "Look Here",
        "col1": "Rainbow Quest",
        "col2": "Hernando",
        "col3": "2005-02-28"
    },
    {
        "col0": "Logi Universe",
        "col1": "Cape Cross",
        "col2": "Neo Universe",
        "col3": "2006-03-11"
    },
    {
        "col0": "Listen",
        "col1": "Irish River",
        "col2": "Sadler's Wells",
        "col3": "2005-02-03"
    },
    {
        "col0": "Lily of the Valley",
        "col1": "Pennekamp",
        "col2": "Galileo",
        "col3": "2007-02-02"
    },
    {
        "col0": "Lillie Langtry",
        "col1": "Darshaan",
        "col2": "Danehill Dancer",
        "col3": "2007-02-27"
    },
    {
        "col0": "Light Shift",
        "col1": "Shirley Heights",
        "col2": "Kingmambo",
        "col3": "2004-03-22"
    },
    {
        "col0": "Light Cavalry",
        "col1": "Relko",
        "col2": "Brigadier Gerard",
        "col3": "1977-02-07"
    },
    {
        "col0": "Legatissimo",
        "col1": "Montjeu",
        "col2": "Danehill Dancer",
        "col3": "2012-04-22"
    },
    {
        "col0": "Legal Case",
        "col1": "Northern Dancer",
        "col2": "Alleged",
        "col3": "1986-04-18"
    },
    {
        "col0": "Leading Light",
        "col1": "Gone West",
        "col2": "Montjeu",
        "col3": "2010-03-06"
    },
    {
        "col0": "Lawman",
        "col1": "Gulch",
        "col2": "Invincible Spirit",
        "col3": "2004-05-09"
    },
    {
        "col0": "Law Society",
        "col1": "Boldnesian",
        "col2": "Alleged",
        "col3": "1982-02-16"
    },
    {
        "col0": "Lavinia Fontana",
        "col1": "Exclusive Native",
        "col2": "Sharpo",
        "col3": "1989-04-12"
    },
    {
        "col0": "Landing Light",
        "col1": "Ela-Mana-Mou",
        "col2": "In the Wings",
        "col3": "1995-05-09"
    },
    {
        "col0": "Lammtarra",
        "col1": "Blushing Groom",
        "col2": "Nijinsky II",
        "col3": "1992-02-02"
    },
    {
        "col0": "Lailani",
        "col1": "Mr Prospector",
        "col2": "Unfuwain",
        "col3": "1998-02-02"
    },
    {
        "col0": "Lahan",
        "col1": "Mr. Prospector",
        "col2": "Unfuwain",
        "col3": "1997-01-22"
    },
    {
        "col0": "Lagunette",
        "col1": "Sicambre",
        "col2": "Val de Loir",
        "col3": "1973-04-17"
    },
    {
        "col0": "Lady Eli",
        "col1": "Saint Ballado",
        "col2": "Divine Park",
        "col3": "2012-02-02"
    },
    {
        "col0": "Lady Carla",
        "col1": "Shirley Heights",
        "col2": "Caerleon",
        "col3": "1993-03-08"
    },
    {
        "col0": "La Cucaracha",
        "col1": "Formidable",
        "col2": "Piccolo",
        "col3": "2001-03-26"
    },
    {
        "col0": "L'Emigrant",
        "col1": "Vaguely Noble",
        "col2": "The Minstrel",
        "col3": "1980-04-26"
    },
    {
        "col0": "Kris Kin",
        "col1": "Rainbow Quest",
        "col2": "Kris S.",
        "col3": "2000-03-05"
    },
    {
        "col0": "Kizuna",
        "col1": "Storm Cat",
        "col2": "Deep Impact",
        "col3": "2010-03-05"
    },
    {
        "col0": "Kissing Cousin",
        "col1": "Kris",
        "col2": "Danehill",
        "col3": "1991-04-01"
    },
    {
        "col0": "Kingston Hill",
        "col1": "Rainbow Quest",
        "col2": "Mastercraftsman",
        "col3": "2011-01-15"
    },
    {
        "col0": "Kingsbarns",
        "col1": "Belmez",
        "col2": "Galileo",
        "col3": "2010-02-20"
    }
]