[
    {
        "col0": "Radial nerve",
        "col1": "Posterior cord",
        "col2": "12566581",
        "col3": "A08.800.800.720.050.700"
    },
    {
        "col0": "Pulmonary artery",
        "col1": "Right ventricle",
        "col2": "12826098",
        "col3": "A07.231.114.715"
    },
    {
        "col0": "Posterior cerebral artery",
        "col1": "Basilar artery",
        "col2": "12153821",
        "col3": "A07.231.114.228.700"
    },
    {
        "col0": "Popliteal artery",
        "col1": "Femoral artery",
        "col2": "12155539",
        "col3": "A07.231.114.681"
    },
    {
        "col0": "Ophthalmic artery",
        "col1": "Internal carotid artery",
        "col2": "12155313",
        "col3": "A07.231.114.622"
    },
    {
        "col0": "Mandibular nerve",
        "col1": "Trigeminal nerve",
        "col2": "12566125",
        "col3": "A08.800.800.120.760.500"
    },
    {
        "col0": "Lumbar plexus",
        "col1": "Lumbar nerves",
        "col2": "12648073",
        "col3": "A08.800.800.720.450"
    },
    {
        "col0": "Lingual nerve",
        "col1": "Mandibular nerve",
        "col2": "12566098",
        "col3": "A08.800.800.120.760.500.450"
    },
    {
        "col0": "Internal thoracic artery",
        "col1": "Subclavian artery",
        "col2": "12156309",
        "col3": "A07.231.114.891.525"
    },
    {
        "col0": "Internal iliac artery",
        "col1": "Common iliac artery",
        "col2": "12154560",
        "col3": "A07.231.114.444"
    },
    {
        "col0": "Intercostal nerves",
        "col1": "Thoracic nerves",
        "col2": "12565929",
        "col3": "A08.800.800.720.800.350"
    },
    {
        "col0": "Inferior mesenteric artery",
        "col1": "Abdominal aorta",
        "col2": "12155065",
        "col3": "A07.231.114.565.510"
    },
    {
        "col0": "Inferior ganglion of vagus nerve",
        "col1": "Vagus nerve",
        "col2": "12384714",
        "col3": "A08.340.390.550"
    },
    {
        "col0": "Femoral artery",
        "col1": "External iliac artery",
        "col2": "12154275",
        "col3": "A07.231.114.351"
    },
    {
        "col0": "External carotid artery",
        "col1": "Common carotid artery",
        "col2": "12153668",
        "col3": "A07.231.114.186.200.210"
    },
    {
        "col0": "Ductus arteriosus",
        "col1": "Pulmonary artery",
        "col2": "12314749",
        "col3": "A07.541.278.395"
    },
    {
        "col0": "Descending aorta",
        "col1": "Aorta",
        "col2": "12616698",
        "col3": "A07.231.114.056.372"
    },
    {
        "col0": "Common carotid artery",
        "col1": "Aortic arch",
        "col2": "12153659",
        "col3": "A07.231.114.186.200"
    },
    {
        "col0": "Chorda tympani",
        "col1": "Facial nerve",
        "col2": "12236891",
        "col3": "A08.800.800.120.250.120"
    },
    {
        "col0": "Central retinal artery",
        "col1": "Ophthalmic artery",
        "col2": "12153778",
        "col3": "A07.231.114.765"
    },
    {
        "col0": "Celiac plexus",
        "col1": "Celiac branches of vagus nerve",
        "col2": "12647753",
        "col3": "A08.800.050.050.150"
    },
    {
        "col0": "Celiac ganglia",
        "col1": "Thoracic splanchnic nerves",
        "col2": "12384424",
        "col3": "A08.340.315.350"
    },
    {
        "col0": "Celiac artery",
        "col1": "Abdominal aorta",
        "col2": "12825991",
        "col3": "A07.231.114.207"
    },
    {
        "col0": "Brachiocephalic artery",
        "col1": "Aorta",
        "col2": "12825973",
        "col3": "A07.231.908.130"
    },
    {
        "col0": "Brachial plexus",
        "col1": "Cervical spinal nerve 5",
        "col2": "12647576",
        "col3": "A08.800.800.720.050"
    },
    {
        "col0": "Axillary artery",
        "col1": "Subclavian artery",
        "col2": "12153528",
        "col3": "A07.231.114.085"
    },
    {
        "col0": "Aortic arch",
        "col1": "Ascending aorta",
        "col2": "12150514",
        "col3": "A07.231.114.056.372."
    },
    {
        "col0": "Abdominal aorta",
        "col1": "Thoracic aorta",
        "col2": "12616144",
        "col3": "A07.231.114.056.205"
    }
]