[
    {
        "col0": "T. Katori",
        "col1": "Japanese people",
        "col2": "1938-1-1",
        "col3": "1938-1-1",
        "col4": "2015-10-12"
    },
    {
        "col0": "N. Momoi",
        "col1": "Japan",
        "col2": "1978-09-23",
        "col3": "1978-09-23",
        "col4": "2002-10-12"
    },
    {
        "col0": "M. Ichigo",
        "col1": "Japanese people",
        "col2": "1981-02-02",
        "col3": "1981-02-02",
        "col4": "2012-10-0"
    },
    {
        "col0": "M. Morrison",
        "col1": "Caucasian Race",
        "col2": "1946-05-23",
        "col3": "1946-05-23",
        "col4": "2006-12-22"
    },
    {
        "col0": "M. Leigh",
        "col1": "Caucasian race",
        "col2": "1964-03-02",
        "col3": "1964-03-02",
        "col4": "1990-06-16"
    },
    {
        "col0": "M. Millington",
        "col1": "Caucasian race",
        "col2": "1945-11-30",
        "col3": "1945-11-30",
        "col4": "1979-08-19"
    },
    {
        "col0": "M. A. Beluzzi",
        "col1": "Italians",
        "col2": "1930-07-26",
        "col3": "1930-07-26",
        "col4": "1997-08-09"
    },
    {
        "col0": "M. Stevens",
        "col1": "Jewish",
        "col2": "1943-02-09",
        "col3": "1943-02-09",
        "col4": "1989-08-10"
    },
    {
        "col0": "L. Ferrari",
        "col1": "France",
        "col2": "1963-02-09",
        "col3": "1963-02-09",
        "col4": "2000-03-05"
    },
    {
        "col0": "L. D. Leeuw",
        "col1": "White people",
        "col2": "1958-07-03",
        "col3": "1958-07-03",
        "col4": "1993-11-11"
    },
    {
        "col0": "L. D. Mae",
        "col1": "Czechs",
        "col2": "1976-12-26",
        "col3": "1976-12-26",
        "col4": "2004-12-09"
    },
    {
        "col0": "K. Marshall",
        "col1": "White people",
        "col2": "1965-11-13",
        "col3": "1965-11-13",
        "col4": "1988-10-10"
    },
    {
        "col0": "K. North",
        "col1": "White people",
        "col2": "1971-12-27",
        "col3": "1971-12-27",
        "col4": "2007-07-04"
    },
    {
        "col0": "K. Lancaume",
        "col1": "Caucasian race",
        "col2": "1973-01-19",
        "col3": "1973-01-19",
        "col4": "2005-01-28"
    },
    {
        "col0": "K. Dior",
        "col1": "White people",
        "col2": "1967-02-14",
        "col3": "1967-02-14",
        "col4": "2004-08-25"
    },
    {
        "col0": "J. Leslie",
        "col1": "White people",
        "col2": "1945-01-25",
        "col3": "1945-01-25",
        "col4": "2010-12-05"
    },
    {
        "col0": "J. Holliday",
        "col1": "Caucasian Race",
        "col2": "1948-1-1",
        "col3": "1948-1-1",
        "col4": "2004-12-15"
    },
    {
        "col0": "J. Gillis",
        "col1": "Dutch people",
        "col2": "1943-04-20",
        "col3": "1943-04-20",
        "col4": "2010-02-19"
    },
    {
        "col0": "H. Akane",
        "col1": "Japanese people",
        "col2": "1983-10-25",
        "col3": "1983-10-25",
        "col4": "2016-08-15"
    },
    {
        "col0": "H. Paige",
        "col1": "Mexican people",
        "col2": "1981-12-30",
        "col3": "1981-12-30",
        "col4": "2007-08-21"
    },
    {
        "col0": "E. Rhodes",
        "col1": "Caucasian race",
        "col2": "1982-02-08",
        "col3": "1982-02-08",
        "col4": "2012-06-14"
    },
    {
        "col0": "Ellen Cuffe, Countess of Desart",
        "col1": "Jewish",
        "col2": "1857-09-01",
        "col3": "1857-09-01",
        "col4": "1933-06-29"
    },
    {
        "col0": "C. Vincent",
        "col1": "United States",
        "col2": "1940-09-06",
        "col3": "1940-09-06",
        "col4": "1991-09-23"
    },
    {
        "col0": "C. Royalle",
        "col1": "Cherokee",
        "col2": "1950-10-15",
        "col3": "1950-10-15",
        "col4": "2015-09-07"
    },
    {
        "col0": "B. Adams",
        "col1": "White people",
        "col2": "1955-11-15",
        "col3": "1955-11-15",
        "col4": "2008-10-28"
    },
    {
        "col0": "B. Seven",
        "col1": "United States",
        "col2": "1946-06-04",
        "col3": "1946-06-04",
        "col4": "2000-01-15"
    },
    {
        "col0": "B. Guccione",
        "col1": "Italian Americans",
        "col2": "1930-12-17",
        "col3": "1930-12-17",
        "col4": "2010-10-20"
    },
    {
        "col0": "A. Jordan",
        "col1": "Whites",
        "col2": "1963-09-20",
        "col3": "1963-09-20",
        "col4": "1995-07-02"
    },
    {
        "col0": "Aja",
        "col1": "Caucasian race",
        "col2": "1963-07-14",
        "col3": "1963-07-14",
        "col4": "2006-09-18"
    }
]