[
    {
        "col0": "E. Gorman",
        "col1": "Racine Legion/Tornadoes",
        "col2": "1896-06-27",
        "col3": "1962-11-06"
    },
    {
        "col0": "E. Faison",
        "col1": "Miami Dolphins",
        "col2": "1939-1-31",
        "col3": "2016-6-12"
    },
    {
        "col0": "D. Peabody",
        "col1": "Toledo Maroons",
        "col2": "1894-01-26",
        "col3": "1972-01-03"
    },
    {
        "col0": "D. Gaustad",
        "col1": "Minneapolis Marines",
        "col2": "1889-06-06",
        "col3": "1945-03-23"
    },
    {
        "col0": "D. Forst",
        "col1": "Hartford Blues",
        "col2": "1891-02-17",
        "col3": "1963-10-05"
    },
    {
        "col0": "D. Clark",
        "col1": "Detroit Lions",
        "col2": "1906-10-11",
        "col3": "1978-8-5"
    },
    {
        "col0": "D. McDonald",
        "col1": "Green Bay Packers",
        "col2": "1908-10-03",
        "col3": "1975-02-23"
    },
    {
        "col0": "D. Anderson",
        "col1": "Atlanta Falcons",
        "col2": "1970-12-31",
        "col3": "2004-05-31"
    },
    {
        "col0": "D. Slater",
        "col1": "Chicago Cardinals",
        "col2": "1898-12-09",
        "col3": "1966-08-14"
    },
    {
        "col0": "D. Iversen",
        "col1": "New York Giants",
        "col2": "1920-02-26",
        "col3": "2011-05-20"
    },
    {
        "col0": "D. Pearson",
        "col1": "Racine Legion/Tornadoes",
        "col2": "1896-02-08",
        "col3": "1982-09-03"
    },
    {
        "col0": "D. Garrett",
        "col1": "Chicago Bears",
        "col2": "1925-01-29",
        "col3": "1976-07-24"
    },
    {
        "col0": "D. Ellis",
        "col1": "Philadelphia Eagles",
        "col2": "1914-12-27",
        "col3": "1988-05-18"
    },
    {
        "col0": "D. Nix",
        "col1": "Dallas Cowboys",
        "col2": "1933-5-30",
        "col3": "2009-1-6"
    },
    {
        "col0": "D. Wycoff",
        "col1": "New York Giants",
        "col2": "1903-9-16",
        "col3": "1981-10-27"
    },
    {
        "col0": "D. Elmore",
        "col1": "Washington Redskins",
        "col2": "1939-12-15",
        "col3": "2002-06-28"
    },
    {
        "col0": "D. Buffone",
        "col1": "Chicago Bears",
        "col2": "1944-06-27",
        "col3": "2015-04-20"
    },
    {
        "col0": "D. Adams",
        "col1": "Cincinnati Bengals",
        "col2": "1949-11-03",
        "col3": "1997-08-09"
    },
    {
        "col0": "D. Churchwell",
        "col1": "Oakland Raiders",
        "col2": "1936-5-11",
        "col3": "2010-1-22"
    }
]