[
    {
        "col0": "USS West Ekonk",
        "col1": "1918-04-16",
        "col2": "12225000000",
        "col3": "7"
    },
    {
        "col0": "USS Wateree",
        "col1": "1943-10-05",
        "col2": "534000000",
        "col3": "3"
    },
    {
        "col0": "USS Vega",
        "col1": "1918-07-08",
        "col2": "4037000000",
        "col3": "7"
    },
    {
        "col0": "USS Undaunted",
        "col1": "1943-11-27",
        "col2": "534000000",
        "col3": "3"
    },
    {
        "col0": "USS Umpqua",
        "col1": "1944-12-16",
        "col2": "534000000",
        "col3": "3"
    },
    {
        "col0": "USS Thresher",
        "col1": "1958-05-28",
        "col2": "22480037",
        "col3": "7"
    },
    {
        "col0": "USS Texas",
        "col1": "1973-08-18",
        "col2": "69853224",
        "col3": "9"
    },
    {
        "col0": "USS Taylor",
        "col1": "1917-10-15",
        "col2": "1090000000",
        "col3": "2"
    },
    {
        "col0": "USS Tatnuck",
        "col1": "1944-11-15",
        "col2": "534000000",
        "col3": "3"
    },
    {
        "col0": "USS Tarazed",
        "col1": "1932-03-18",
        "col2": "6983000000",
        "col3": "7"
    },
    {
        "col0": "USS Sunnadin",
        "col1": "1944-12-04",
        "col2": "534000000",
        "col3": "3"
    },
    {
        "col0": "USS Stewart",
        "col1": "1919-09-09",
        "col2": "7715606",
        "col3": "2"
    },
    {
        "col0": "USS Stallion",
        "col1": "1944-10-26",
        "col2": "534000000",
        "col3": "3"
    },
    {
        "col0": "USS St. Francis River",
        "col1": "1945-05-19",
        "col2": "758000000",
        "col3": "1"
    },
    {
        "col0": "USS Spica",
        "col1": "1918-06-15",
        "col2": "5800000000",
        "col3": "7"
    },
    {
        "col0": "USS Sonoma",
        "col1": "1943-12-09",
        "col2": "534000000",
        "col3": "3"
    },
    {
        "col0": "USS Sibley",
        "col1": "1944-05-17",
        "col2": "6873000000",
        "col3": "7"
    }
]