[
    {
        "col0": "What I Want",
        "col1": "C. Daughtry",
        "col2": "Howard Benson",
        "col3": "Daughtry",
        "col4": "Over You"
    },
    {
        "col0": "What I Really Meant to Say",
        "col1": "C. Thomson",
        "col2": "Paul Worley",
        "col3": "Cyndi Thomson",
        "col4": "I Always Liked That Best"
    },
    {
        "col0": "What I Need",
        "col1": "R. Jerkins",
        "col2": "Darkchild",
        "col3": "Ray J",
        "col4": "Sexy Can I"
    },
    {
        "col0": "What I Meant to Say",
        "col1": "D. Cook",
        "col2": "Don Cook",
        "col3": "Wade Hayes",
        "col4": "On a Good Night"
    },
    {
        "col0": "What I Mean",
        "col1": "R. Tranchart",
        "col2": "Romain Tranchart",
        "col3": "Modjo",
        "col4": "No More Tears"
    },
    {
        "col0": "What I Got",
        "col1": "B. Nowell",
        "col2": "David Kahne",
        "col3": "Sublime",
        "col4": "Santeria"
    },
    {
        "col0": "What I Go to School For",
        "col1": "C. Simpson",
        "col2": "Steve Robson",
        "col3": "Busted",
        "col4": "Year 3000"
    },
    {
        "col0": "What I Didn't Do",
        "col1": "W. Newton",
        "col2": "Jimmy Bowen",
        "col3": "Steve Wariner",
        "col4": "Heart Trouble"
    },
    {
        "col0": "What I Can Do for You",
        "col1": "S. Crow",
        "col2": "Bill Bottrell",
        "col3": "Sheryl Crow",
        "col4": "All I Wanna Do"
    },
    {
        "col0": "What I Can't Put Down",
        "col1": "J. Pardi",
        "col2": "Jon Pardi",
        "col3": "Jon Pardi",
        "col4": "When I've Been Drinkin'"
    },
    {
        "col0": "What I've Done",
        "col1": "L. Park",
        "col2": "Rick Rubin",
        "col3": "Linkin Park",
        "col4": "Bleed It Out"
    },
    {
        "col0": "What I'm After",
        "col1": "Lords of the Underground",
        "col2": "Lords of the Underground",
        "col3": "Lords of the Underground",
        "col4": "Faith"
    },
    {
        "col0": "What I'd Say",
        "col1": "R. Byrne",
        "col2": "Randy Scruggs",
        "col3": "Earl Thomas Conley",
        "col4": "Love Out Loud"
    },
    {
        "col0": "What Have You Done for Me Lately",
        "col1": "Jimmy Jam and Terry Lewis",
        "col2": "Jimmy Jam and Terry Lewis",
        "col3": "Janet Jackson",
        "col4": "Nasty"
    },
    {
        "col0": "What Have I Done to Deserve This?",
        "col1": "C. Lowe",
        "col2": "Stephen Hague",
        "col3": "Pet Shop Boys",
        "col4": "Rent"
    },
    {
        "col0": "What Happens Tomorrow",
        "col1": "N. Rhodes",
        "col2": "Duran Duran",
        "col3": "Duran Duran",
        "col4": "Nice"
    },
    {
        "col0": "What Drives the Weak",
        "col1": "M. Bachand",
        "col2": "Shadows Fall",
        "col3": "Shadows Fall",
        "col4": "Inspiration on Demand"
    },
    {
        "col0": "What Doesn't Kill You",
        "col1": "J. Bugg",
        "col2": "Rick Rubin",
        "col3": "Jake Bugg",
        "col4": "Slumville Sunrise"
    },
    {
        "col0": "What Does It Take",
        "col1": "J. Glaser",
        "col2": "Felton Jarvis",
        "col3": "Skeeter Davis",
        "col4": "Set Him Free"
    },
    {
        "col0": "What Do You Want",
        "col1": "J. Niemann",
        "col2": "Jerrod Niemann",
        "col3": "Jerrod Niemann",
        "col4": "One More Drinkin' Song"
    },
    {
        "col0": "What Do You Take Me For?",
        "col1": "Rusko",
        "col2": "Rusko",
        "col3": "Pixie Lott",
        "col4": "Kiss the Stars"
    },
    {
        "col0": "What Do You Say to That",
        "col1": "M. Montgomery",
        "col2": "Tony Brown",
        "col3": "George Strait",
        "col4": "The Best Day"
    },
    {
        "col0": "What Do You Say",
        "col1": "N. Thrasher",
        "col2": "Reba McEntire",
        "col3": "Reba McEntire",
        "col4": "I'll Be"
    },
    {
        "col0": "What Do You Know About Love",
        "col1": "D. Yoakam",
        "col2": "Pete Anderson",
        "col3": "Dwight Yoakam",
        "col4": "I Want You to Want Me"
    },
    {
        "col0": "What Do You Got?",
        "col1": "B. James",
        "col2": "Howard Benson",
        "col3": "Bon Jovi",
        "col4": "No Apologies"
    },
    {
        "col0": "What Do Ya Think About That",
        "col1": "A. Smith",
        "col2": "Jeffrey Steele",
        "col3": "Montgomery Gentry",
        "col4": "Back When I Knew It All"
    },
    {
        "col0": "What Do I Get?",
        "col1": "P. Shelley",
        "col2": "Martin Rushent",
        "col3": "Buzzcocks",
        "col4": "I Don't Mind"
    },
    {
        "col0": "What Do I Do Now?",
        "col1": "L. Wener",
        "col2": "Stephen Street",
        "col3": "Sleeper",
        "col4": "Sale of the Century"
    },
    {
        "col0": "What Difference Does It Make?",
        "col1": "Morrissey",
        "col2": "John Porter",
        "col3": "The Smiths",
        "col4": "Heaven Knows I'm Miserable Now"
    },
    {
        "col0": "What Did I Do? / God As My Witness",
        "col1": "C. Shiflett",
        "col2": "Butch Vig",
        "col3": "Foo Fighters",
        "col4": "Outside"
    },
    {
        "col0": "What Could Have Been Love",
        "col1": "S. Tyler",
        "col2": "Steven Tyler",
        "col3": "Aerosmith",
        "col4": "Can't Stop Lovin' You"
    },
    {
        "col0": "What Comes Around",
        "col1": "D. Chavarri",
        "col2": "St. Germain",
        "col3": "Ill Nino",
        "col4": "Unreal"
    },
    {
        "col0": "What Comes Around",
        "col1": "A. Yauch",
        "col2": "Dust Brothers",
        "col3": "Beastie Boys",
        "col4": "Shadrach"
    },
    {
        "col0": "What Can I Do with My Heart",
        "col1": "O. Young",
        "col2": "Richard Landis",
        "col3": "Juice Newton",
        "col4": "First Time Caller"
    },
    {
        "col0": "What Can I Do",
        "col1": "T. Corrs",
        "col2": "Jim Corr",
        "col3": "The Corrs",
        "col4": "Dreams"
    },
    {
        "col0": "What Are You Waiting For?",
        "col1": "C. Kroeger",
        "col2": "Nickelback",
        "col3": "Nickelback",
        "col4": "Million Miles an Hour"
    },
    {
        "col0": "What Are You Looking For",
        "col1": "S. Moore",
        "col2": "Rock Mafia",
        "col3": "Sick Puppies",
        "col4": "Pitiful"
    },
    {
        "col0": "What Are We Doin' in Love",
        "col1": "R. Goodrum",
        "col2": "Randy Goodrum",
        "col3": "Kenny Rogers",
        "col4": "(I'm Gonna) Put You Back on the Rack"
    },
    {
        "col0": "What Am I Worth",
        "col1": "G. Jones",
        "col2": "Pappy Daily",
        "col3": "George Jones",
        "col4": "I'm Ragged But I'm Right"
    },
    {
        "col0": "What Am I Gonna Do",
        "col1": "M. Haggard",
        "col2": "Merle Haggard",
        "col3": "Merle Haggard",
        "col4": "That's the Way Love Goes"
    },
    {
        "col0": "What About the Love",
        "col1": "J. Ian",
        "col2": "Brown Bannister",
        "col3": "Amy Grant",
        "col4": "Say Once More"
    },
    {
        "col0": "What About Your Friends",
        "col1": "L. Lopes",
        "col2": "Dallas Austin",
        "col3": "TLC",
        "col4": "Hat 2 da Back"
    },
    {
        "col0": "What About Us",
        "col1": "D. Swing",
        "col2": "DeVante Swing",
        "col3": "Jodeci",
        "col4": "Freek'n You"
    },
    {
        "col0": "What About Us?",
        "col1": "M. Elliott",
        "col2": "Timbaland",
        "col3": "Timbaland",
        "col4": "What You Want"
    },
    {
        "col0": "What About Us?",
        "col1": "B. Norwood",
        "col2": "Rodney Jerkins",
        "col3": "Brandy Norwood",
        "col4": "Full Moon"
    },
    {
        "col0": "What About Now",
        "col1": "A. Barker",
        "col2": "Dann Huff",
        "col3": "Lonestar",
        "col4": "Tell Her"
    },
    {
        "col0": "What About Now",
        "col1": "B. Moody",
        "col2": "Howard Benson",
        "col3": "Westlife",
        "col4": "No Surprise"
    },
    {
        "col0": "What About Me",
        "col1": "S. McKenzie",
        "col2": "Brian Ahern",
        "col3": "Anne Murray",
        "col4": "Send a Little Love My Way"
    },
    {
        "col0": "What About Love",
        "col1": "J. Vallance",
        "col2": "Ron Nevison",
        "col3": "Heart",
        "col4": "Never"
    },
    {
        "col0": "What's the Ugliest Part of Your Body?",
        "col1": "F. Zappa",
        "col2": "Frank Zappa",
        "col3": "The Mothers of Invention",
        "col4": "Absolutely Free"
    },
    {
        "col0": "What's the Frequency, Kenneth?",
        "col1": "M. Stipe",
        "col2": "Scott Litt",
        "col3": "R.E.M.",
        "col4": "Bang and Blame"
    },
    {
        "col0": "What's on Your Mind",
        "col1": "P. Robb",
        "col2": "Fred Maher",
        "col3": "Information Society",
        "col4": "Walking Away"
    },
    {
        "col0": "What's on Tonight",
        "col1": "M. Jordan",
        "col2": "Montell Jordan",
        "col3": "Montell Jordan",
        "col4": "Let's Ride"
    },
    {
        "col0": "What's a Memory Like You",
        "col1": "J. Jarrard",
        "col2": "Jimmy Bowen",
        "col3": "John Schneider",
        "col4": "You're the Last Thing I Needed Tonight"
    },
    {
        "col0": "What's a Guy Gotta Do",
        "col1": "J. Nichols",
        "col2": "Brent Rowan",
        "col3": "Joe Nichols",
        "col4": "Tequila Makes Her Clothes Fall Off"
    },
    {
        "col0": "What's Your Name",
        "col1": "Will.i.am",
        "col2": "Will.i.am",
        "col3": "Usher",
        "col4": "Here I Stand"
    },
    {
        "col0": "What's Your Name",
        "col1": "R. V. Zant",
        "col2": "Tom Dowd",
        "col3": "Lynyrd Skynyrd",
        "col4": "You Got That Right"
    },
    {
        "col0": "What's Your Mama's Name",
        "col1": "D. Frazier",
        "col2": "Billy Sherrill",
        "col3": "Tanya Tucker",
        "col4": "Blood Red and Goin' Down"
    },
    {
        "col0": "What's Your Fantasy",
        "col1": "Ludacris",
        "col2": "Bangladesh",
        "col3": "Ludacris",
        "col4": "Southern Hospitality"
    },
    {
        "col0": "What's Up Doc?",
        "col1": "S. O'Neal",
        "col2": "Main Source",
        "col3": "Shaquille O'Neal",
        "col4": "Breakdown"
    },
    {
        "col0": "What's So Good About Goodbye",
        "col1": "S. Robinson",
        "col2": "Berry Gordy, Jr.",
        "col3": "The Miracles",
        "col4": "I'll Try Something New"
    },
    {
        "col0": "What's Next?",
        "col1": "S. Erna",
        "col2": "Sully Erna",
        "col3": "Godsmack",
        "col4": "Inside Yourself"
    },
    {
        "col0": "What's My Name?",
        "col1": "D. Dre",
        "col2": "Dr. Dre",
        "col3": "Snoop Dogg",
        "col4": "Gin and Juice"
    },
    {
        "col0": "What's My Name?",
        "col1": "DMX",
        "col2": "Irv Gotti",
        "col3": "DMX",
        "col4": "What These Bitches Want"
    },
    {
        "col0": "What's My Mission Now?",
        "col1": "A. Sherwood",
        "col2": "Adrian Sherwood",
        "col3": "Tackhead",
        "col4": "Mind at the End of the Tether"
    },
    {
        "col0": "What's Made Milwaukee Famous",
        "col1": "G. Sutton",
        "col2": "Jerry Kennedy",
        "col3": "Jerry Lee Lewis",
        "col4": "She Still Comes Around"
    },
    {
        "col0": "What's Love Got to Do with It",
        "col1": "G. Lyle",
        "col2": "Warren G",
        "col3": "Tina Turner",
        "col4": "Better Be Good to Me"
    },
    {
        "col0": "What's It to You",
        "col1": "R. E. Orrall",
        "col2": "James Stroud",
        "col3": "Clay Walker",
        "col4": "Live Until I Die"
    },
    {
        "col0": "What's It All About",
        "col1": "D. McDaniels",
        "col2": "Darryl McDaniels",
        "col3": "Run-D.M.C.",
        "col4": "Faces"
    },
    {
        "col0": "What's Holding Me",
        "col1": "G. Fox",
        "col2": "Bob Gaudio",
        "col3": "George Fox",
        "col4": "First Comes Love"
    },
    {
        "col0": "What's Happening Brother",
        "col1": "M. Gaye",
        "col2": "Marvin Gaye",
        "col3": "Marvin Gaye",
        "col4": "Flying High"
    },
    {
        "col0": "What's Happened to Blue Eyes",
        "col1": "J. Colter",
        "col2": "Waylon Jennings",
        "col3": "Jessi Colter",
        "col4": "It's Morning"
    },
    {
        "col0": "What's Going On in Your World",
        "col1": "R. Steagall",
        "col2": "Jimmy Bowen",
        "col3": "George Strait",
        "col4": "Ace in the Hole"
    },
    {
        "col0": "What's Going On",
        "col1": "M. Gaye",
        "col2": "Marvin Gaye",
        "col3": "Marvin Gaye",
        "col4": "Boy Blue"
    },
    {
        "col0": "What'll You Do About Me",
        "col1": "D. Linde",
        "col2": "Richard Landis",
        "col3": "Doug Supernaw",
        "col4": "Not Enough Hours in the Night"
    },
    {
        "col0": "What'd I Say",
        "col1": "R. Charles",
        "col2": "Jerry Wexler",
        "col3": "Ray Charles",
        "col4": "I'm Movin' On"
    },
    {
        "col0": "What'chu Like",
        "col1": "D. Brat",
        "col2": "Jermaine Dupri",
        "col3": "Da Brat",
        "col4": "In Love wit Chu"
    },
    {
        "col0": "Whammy Kiss",
        "col1": "K. Pierson",
        "col2": "Steven Stanley",
        "col3": "The B-52's",
        "col4": "Song for a Future Generation"
    },
    {
        "col0": "Wetsuit / Tiger Blood",
        "col1": "T. Vaccines",
        "col2": "Albert Hammond, Jr.",
        "col3": "The Vaccines",
        "col4": "Why Should I Love You?"
    },
    {
        "col0": "Wet the Bed",
        "col1": "C. Brown",
        "col2": "Bigg D",
        "col3": "Chris Brown",
        "col4": "International Love"
    },
    {
        "col0": "Wet Dreamz",
        "col1": "J. Cole",
        "col2": "J. Cole",
        "col3": "J. Cole",
        "col4": "No Sleeep"
    },
    {
        "col0": "Wet",
        "col1": "S. Dogg",
        "col2": "David Guetta",
        "col3": "Snoop Dogg",
        "col4": "Where Them Girls At"
    },
    {
        "col0": "Westside Story",
        "col1": "D. Dre",
        "col2": "Dr. Dre",
        "col3": "The Game",
        "col4": "How We Do"
    },
    {
        "col0": "Westside",
        "col1": "F. Wap",
        "col2": "London on da Track",
        "col3": "Fetty Wap",
        "col4": "Different Now"
    }
]