[
    {
        "col0": "M. Olheiser",
        "col1": "Lupus Racing Team",
        "col2": "1975-01-23",
        "col3": "1975-01-23"
    },
    {
        "col0": "M. Morkov",
        "col1": "Team Katusha",
        "col2": "1985-04-30",
        "col3": "1985-04-30"
    },
    {
        "col0": "M. Creed",
        "col1": "USA Paralympics",
        "col2": "1981-01-08",
        "col3": "1981-01-08"
    },
    {
        "col0": "M. Radotic",
        "col1": "BTC City Ljubljana",
        "col2": "1984-12-02",
        "col3": "1984-12-02"
    },
    {
        "col0": "M. Mutlu",
        "col1": "Brisaspor",
        "col2": "1974-02-09",
        "col3": "1974-02-09"
    },
    {
        "col0": "M. Teshome",
        "col1": "Stradalli-Bike Aid",
        "col2": "1992-07-13",
        "col3": "1992-07-13"
    },
    {
        "col0": "M. Amanuel",
        "col1": "Stradalli-Bike Aid",
        "col2": "1990-11-06",
        "col3": "1990-11-06"
    },
    {
        "col0": "M. Miller",
        "col1": "Pepper Palace Pro Cycling p/b The Happy Tooth",
        "col2": "1973-12-26",
        "col3": "1973-12-26"
    },
    {
        "col0": "M. Hoskins",
        "col1": "Orica-AIS",
        "col2": "1991-02-24",
        "col3": "1991-02-24"
    },
    {
        "col0": "M. Benhamouda",
        "col1": "Team Novo Nordisk",
        "col2": "1995-01-02",
        "col3": "1995-01-02"
    },
    {
        "col0": "M. Renault",
        "col1": "HP BTP-Auber93",
        "col2": "1990-01-02",
        "col3": "1990-01-02"
    },
    {
        "col0": "M. Farazijn",
        "col1": "Topsport Vlaanderen-Baloise",
        "col2": "1994-06-02",
        "col3": "1994-06-02"
    },
    {
        "col0": "M. Razumov",
        "col1": "Itera-Katusha",
        "col2": "1990-01-12",
        "col3": "1990-01-12"
    },
    {
        "col0": "M. Walscheid",
        "col1": "Team Giant-Alpecin",
        "col2": "1993-06-13",
        "col3": "1993-06-13"
    },
    {
        "col0": "M. Ardila",
        "col1": "Orgullo Antioqueno",
        "col2": "1979-05-12",
        "col3": "1979-05-12"
    },
    {
        "col0": "M. Mamykin",
        "col1": "Team Katusha",
        "col2": "1994-10-31",
        "col3": "1994-10-31"
    },
    {
        "col0": "M. Breschel",
        "col1": "Cannondale-Garmin",
        "col2": "1984-08-31",
        "col3": "1984-08-31"
    },
    {
        "col0": "M. Krizek",
        "col1": "Felbermayr-Simplon Wels",
        "col2": "1988-09-29",
        "col3": "1988-09-29"
    },
    {
        "col0": "M. Rowe",
        "col1": "NFTO",
        "col2": "1988-04-28",
        "col3": "1988-04-28"
    },
    {
        "col0": "M. Dal-Cin",
        "col1": "Silber Pro Cycling Team",
        "col2": "1991-01-14",
        "col3": "1991-01-14"
    },
    {
        "col0": "M. White",
        "col1": "GreenEDGE Cycling",
        "col2": "1974-02-22",
        "col3": "1974-02-22"
    },
    {
        "col0": "M. Cooke",
        "col1": "Jamis-Hagens Berman",
        "col2": "1979-08-05",
        "col3": "1979-08-05"
    },
    {
        "col0": "M. Brammeier",
        "col1": "Dimension Data",
        "col2": "1985-06-07",
        "col3": "1985-06-07"
    },
    {
        "col0": "M. Perget",
        "col1": "Rietumu-Delfin",
        "col2": "1984-09-18",
        "col3": "1984-09-18"
    },
    {
        "col0": "M. Westergaard",
        "col1": "Team Almeborg-Bornholm",
        "col2": "1994-02-21",
        "col3": "1994-02-21"
    },
    {
        "col0": "M. Nowak",
        "col1": "Dare 2B",
        "col2": "1992-07-15",
        "col3": "1992-07-15"
    },
    {
        "col0": "M. Mugerli",
        "col1": "Synergy Baku Cycling Project",
        "col2": "1981-06-17",
        "col3": "1981-06-17"
    },
    {
        "col0": "M. Jurco",
        "col1": "Dukla Trencin-Trek",
        "col2": "1984-08-08",
        "col3": "1984-08-08"
    },
    {
        "col0": "M. Graziato",
        "col1": "Parkhotel Valkenburg Continental Team",
        "col2": "1988-09-25",
        "col3": "1988-09-25"
    },
    {
        "col0": "M. Yamamoto",
        "col1": "Kinan Cycling Team",
        "col2": "1978-08-04",
        "col3": "1978-08-04"
    },
    {
        "col0": "M. Ito",
        "col1": "Aisan Racing Team",
        "col2": "1988-06-12",
        "col3": "1988-06-12"
    },
    {
        "col0": "M. L. Calle",
        "col1": "List of doping cases in cycling",
        "col2": "1968-10-03",
        "col3": "1968-10-03"
    },
    {
        "col0": "M. Garrido",
        "col1": "Clube de Ciclismo de Tavira",
        "col2": "1974-11-09",
        "col3": "1974-11-09"
    },
    {
        "col0": "M. Reimer",
        "col1": "LKT Team Brandenburg",
        "col2": "1987-06-14",
        "col3": "1987-06-14"
    },
    {
        "col0": "M. Mahdar",
        "col1": "Dukla Banska Bystrica",
        "col2": "1989-07-31",
        "col3": "1989-07-31"
    },
    {
        "col0": "M. Laas",
        "col1": "Marseille 13-KTM",
        "col2": "1993-09-15",
        "col3": "1993-09-15"
    },
    {
        "col0": "M. Hunal",
        "col1": "Whirlpool-Author",
        "col2": "1989-09-08",
        "col3": "1989-09-08"
    },
    {
        "col0": "M. Blaha",
        "col1": "ASC Dukla Praha",
        "col2": "1977-09-12",
        "col3": "1977-09-12"
    },
    {
        "col0": "M. Tagliaferro",
        "col1": "Ale Cipollini",
        "col2": "1989-11-04",
        "col3": "1989-11-04"
    },
    {
        "col0": "M. Garrido",
        "col1": "Clube de Ciclismo de Tavira",
        "col2": "1974-11-09",
        "col3": "1974-11-09"
    },
    {
        "col0": "M. S. Pedersen",
        "col1": "Team Trefor-Blue Water",
        "col2": "1991-11-06",
        "col3": "1991-11-06"
    },
    {
        "col0": "M. Renshaw",
        "col1": "Dimension Data",
        "col2": "1982-10-22",
        "col3": "1982-10-22"
    },
    {
        "col0": "M. Padun",
        "col1": "Team Colpack",
        "col2": "1996-07-06",
        "col3": "1996-07-06"
    },
    {
        "col0": "M. O'Brien",
        "col1": "Avanti IsoWhey Sports",
        "col2": "1987-09-16",
        "col3": "1987-09-16"
    },
    {
        "col0": "M. Beccia",
        "col1": "Team Vorarlberg",
        "col2": "1955-08-16",
        "col3": "1955-08-16"
    },
    {
        "col0": "M. Canecky",
        "col1": "Amplatz-BMC",
        "col2": "1988-06-17",
        "col3": "1988-06-17"
    },
    {
        "col0": "M. Faglum",
        "col1": "Team Tre Berg-Bianchi",
        "col2": "1994-07-20",
        "col3": "1994-07-20"
    },
    {
        "col0": "M. Zanotti",
        "col1": "Parkhotel Valkenburg Continental Team",
        "col2": "1988-09-10",
        "col3": "1988-09-10"
    },
    {
        "col0": "M. Zamparella",
        "col1": "Amore & Vita-Selle SMP",
        "col2": "1987-10-01",
        "col3": "1987-10-01"
    },
    {
        "col0": "M. Tecchio",
        "col1": "Unieuro-Wilier",
        "col2": "1994-08-31",
        "col3": "1994-08-31"
    },
    {
        "col0": "M. Minnaard",
        "col1": "Wanty-Groupe Gobert",
        "col2": "1989-04-11",
        "col3": "1989-04-11"
    },
    {
        "col0": "M. D'Urbano",
        "col1": "Team Roth",
        "col2": "1991-08-15",
        "col3": "1991-08-15"
    },
    {
        "col0": "M. Benfatto",
        "col1": "Androni Giocattoli",
        "col2": "1988-01-06",
        "col3": "1988-01-06"
    },
    {
        "col0": "M. Mrozek",
        "col1": "CCC-Sprandi-Polkowice",
        "col2": "1990-02-26",
        "col3": "1990-02-26"
    },
    {
        "col0": "M. L. Calle",
        "col1": "List of doping cases in cycling",
        "col2": "1968-10-03",
        "col3": "1968-10-03"
    },
    {
        "col0": "M. Senni",
        "col1": "BMC Racing Team",
        "col2": "1992-03-11",
        "col3": "1992-03-11"
    },
    {
        "col0": "M. Carpenter",
        "col1": "Madison Saracen",
        "col2": "1993-03-11",
        "col3": "1993-03-11"
    },
    {
        "col0": "M. Ishibashi",
        "col1": "Nippo-Vini Fantini",
        "col2": "1992-11-30",
        "col3": "1992-11-30"
    },
    {
        "col0": "M. Hasnaoui",
        "col1": "Skydive Dubai-Al Ahli Club",
        "col2": "1989-09-22",
        "col3": "1989-09-22"
    },
    {
        "col0": "M. B. Klaris",
        "col1": "SEG Racing Academy",
        "col2": "1996-01-23",
        "col3": "1996-01-23"
    },
    {
        "col0": "M. W. Schmidt",
        "col1": "Team TreFor-Blue Water",
        "col2": "1994-03-31",
        "col3": "1994-03-31"
    },
    {
        "col0": "M. v. Trijp",
        "col1": "Metec-TKH Continental Cyclingteam",
        "col2": "1993-10-06",
        "col3": "1993-10-06"
    },
    {
        "col0": "M. d. Jonge",
        "col1": "Bike Aid",
        "col2": "1985-03-09",
        "col3": "1985-03-09"
    },
    {
        "col0": "M. A trombergs",
        "col1": "Talava",
        "col2": "1987-03-10",
        "col3": "1987-03-10"
    },
    {
        "col0": "M. Costa",
        "col1": "Lampre-Merida",
        "col2": "1985-11-15",
        "col3": "1985-11-15"
    },
    {
        "col0": "L. Mudgway",
        "col1": "Avanti IsoWhey Sports",
        "col2": "1996-06-12",
        "col3": "1996-06-12"
    },
    {
        "col0": "L. Keough",
        "col1": "UnitedHealthcare",
        "col2": "1991-08-10",
        "col3": "1991-08-10"
    },
    {
        "col0": "L. Davison",
        "col1": "Team Budget Forklifts",
        "col2": "1990-05-08",
        "col3": "1990-05-08"
    },
    {
        "col0": "L. Jaun",
        "col1": "Team Roth",
        "col2": "1991-07-29",
        "col3": "1991-07-29"
    },
    {
        "col0": "L. Lemus",
        "col1": "Airgas-Safeway Cycling Team",
        "col2": "1992-04-21",
        "col3": "1992-04-21"
    },
    {
        "col0": "L. Capelle",
        "col1": "Rietumu Banka - Riga",
        "col2": "1976-02-27",
        "col3": "1976-02-27"
    },
    {
        "col0": "L. S. Haedo",
        "col1": "Jamis-Hagens Berman",
        "col2": "1983-04-18",
        "col3": "1983-04-18"
    },
    {
        "col0": "L. Wackermann",
        "col1": "Al Nasr Pro Cycling Team-Dubai",
        "col2": "1992-03-13",
        "col3": "1992-03-13"
    },
    {
        "col0": "L. Sterbini",
        "col1": "Bardiani-CSF",
        "col2": "1991-11-12",
        "col3": "1991-11-12"
    },
    {
        "col0": "L. Guercilena",
        "col1": "Trek Factory Racing",
        "col2": "1973-08-04",
        "col3": "1973-08-04"
    },
    {
        "col0": "L. J. Wen",
        "col1": "CCN Cycling Team",
        "col2": "1989-10-27",
        "col3": "1989-10-27"
    },
    {
        "col0": "L. Meintjes",
        "col1": "Lampre-Merida",
        "col2": "1992-02-21",
        "col3": "1992-02-21"
    },
    {
        "col0": "L. Owen",
        "col1": "Axeon Cycling Team",
        "col2": "1995-03-25",
        "col3": "1995-03-25"
    },
    {
        "col0": "L. Gunnewijk",
        "col1": "GreenEDGE-AIS",
        "col2": "1980-11-27",
        "col3": "1980-11-27"
    },
    {
        "col0": "L. Williams",
        "col1": "Orica-AIS",
        "col2": "1983-08-15",
        "col3": "1983-08-15"
    },
    {
        "col0": "L. Brennauer",
        "col1": "Canyon-SRAM",
        "col2": "1988-01-22",
        "col3": "1988-01-22"
    },
    {
        "col0": "L. Villumsen",
        "col1": "UnitedHealthcare Women's Team",
        "col2": "1985-04-09",
        "col3": "1985-04-09"
    },
    {
        "col0": "L. Calmejane",
        "col1": "Team Europcar",
        "col2": "1992-12-06",
        "col3": "1992-12-06"
    },
    {
        "col0": "L. Laizane",
        "col1": "Vaiano-Fondriest",
        "col2": "1993-07-06",
        "col3": "1993-07-06"
    },
    {
        "col0": "L. Decroix",
        "col1": "Lotto Soudal Ladies",
        "col2": "1987-05-12",
        "col3": "1987-05-12"
    },
    {
        "col0": "L. D. Vocht",
        "col1": "Lotto Belisol Ladies",
        "col2": "1979-01-05",
        "col3": "1979-01-05"
    },
    {
        "col0": "L. Phillips",
        "col1": "United Kingdom",
        "col2": "1989-03-11",
        "col3": "1989-03-11"
    },
    {
        "col0": "L. Hill",
        "col1": "Kenyan Riders Downunder",
        "col2": "1993-10-05",
        "col3": "1993-10-05"
    },
    {
        "col0": "L. Nederlof",
        "col1": "Black Inc Cycling Team",
        "col2": "1966-06-10",
        "col3": "1966-06-10"
    },
    {
        "col0": "L. Oliva",
        "col1": "Welsh Cycling",
        "col2": "1992-08-23",
        "col3": "1992-08-23"
    },
    {
        "col0": "L. Pipes",
        "col1": "BePink",
        "col2": "1985-01-11",
        "col3": "1985-01-11"
    },
    {
        "col0": "L. W. Sze",
        "col1": "Hong Kong",
        "col2": "1987-05-12",
        "col3": "1987-05-12"
    },
    {
        "col0": "L. Stephens",
        "col1": "Team TIBCO-SVB",
        "col2": "1986-12-28",
        "col3": "1986-12-28"
    },
    {
        "col0": "L. Kitchen",
        "col1": "Team Hitec Products",
        "col2": "1990-11-21",
        "col3": "1990-11-21"
    },
    {
        "col0": "L. Hall",
        "col1": "Twenty16 presented by Sho-Air",
        "col2": "1979-02-02",
        "col3": "1979-02-02"
    },
    {
        "col0": "L. Rosas",
        "col1": "Sindicato de Empleados Publicos de San Juan",
        "col2": "1990-08-23",
        "col3": "1990-08-23"
    }
]