[
    {
        "col0": "S. Campfield",
        "col1": "New York Giants",
        "col2": "1868-02-19",
        "col3": "1952-05-16"
    },
    {
        "col0": "S. Stroud",
        "col1": "Detroit Tigers",
        "col2": "1885-03-15",
        "col3": "1970-04-11"
    },
    {
        "col0": "S. McMahon",
        "col1": "Philadelphia Athletics",
        "col2": "1867-09-19",
        "col3": "1954-02-20"
    },
    {
        "col0": "S. Houck",
        "col1": "Boston Red Caps",
        "col2": "1856-3-1",
        "col3": "1919-05-26"
    },
    {
        "col0": "S. S. Jones",
        "col1": "Cleveland Indians",
        "col2": "1892-07-26",
        "col3": "1966-07-06"
    },
    {
        "col0": "R. Wolters",
        "col1": "New York Mutuals",
        "col2": "1842-03-17",
        "col3": "1917-01-03"
    },
    {
        "col0": "R. Duren",
        "col1": "Baltimore Orioles",
        "col2": "1929-02-22",
        "col3": "2011-01-06"
    },
    {
        "col0": "R. Freel",
        "col1": "Toronto Blue Jays",
        "col2": "1976-03-08",
        "col3": "2012-12-22"
    },
    {
        "col0": "R. Yarnall",
        "col1": "Philadelphia Phillies",
        "col2": "1902-10-22",
        "col3": "1985-10-09"
    },
    {
        "col0": "R. Saunders",
        "col1": "Philadelphia Athletics",
        "col2": "1906-03-12",
        "col3": "1967-11-24"
    },
    {
        "col0": "R. Peters",
        "col1": "Philadelphia Athletics",
        "col2": "1914-12-14",
        "col3": "2003-02-21"
    },
    {
        "col0": "R. Pence",
        "col1": "Chicago White Sox",
        "col2": "1900-03-11",
        "col3": "1971-08-11"
    },
    {
        "col0": "R. Young",
        "col1": "St. Louis Browns",
        "col2": "1902-09-15",
        "col3": "1984-05-13"
    },
    {
        "col0": "R. V. Atta",
        "col1": "New York Yankees",
        "col2": "1906-06-21",
        "col3": "1986-10-10"
    },
    {
        "col0": "R. Swan",
        "col1": "San Francisco Giants",
        "col2": "1964-01-03",
        "col3": "2006-04-26"
    },
    {
        "col0": "R. Sullivan",
        "col1": "Detroit Tigers",
        "col2": "1923-02-19",
        "col3": "2013-11-02"
    },
    {
        "col0": "R. Meyer",
        "col1": "Chicago Cubs",
        "col2": "1923-10-25",
        "col3": "1997-11-16"
    },
    {
        "col0": "R. Meers",
        "col1": "Chicago Cubs",
        "col2": "1918-11-28",
        "col3": "1994-11-16"
    },
    {
        "col0": "R. McKelvy",
        "col1": "Indianapolis Blues",
        "col2": "1854-09-08",
        "col3": "1915-10-19"
    },
    {
        "col0": "R. Kerns",
        "col1": "Detroit Tigers",
        "col2": "1920-11-10",
        "col3": "2000-08-21"
    },
    {
        "col0": "R. Kemmerer",
        "col1": "Boston Red Sox",
        "col2": "1930-11-01",
        "col3": "2014-12-08"
    },
    {
        "col0": "R. Hall",
        "col1": "St. Louis Browns",
        "col2": "1871-09-29",
        "col3": "1937-07-01"
    },
    {
        "col0": "R. Gibson",
        "col1": "Boston Red Sox",
        "col2": "1939-05-06",
        "col3": "2008-07-27"
    },
    {
        "col0": "R. Finsterwald",
        "col1": "Detroit Heralds",
        "col2": "1896-08-12",
        "col3": "1962-06-13"
    },
    {
        "col0": "R. Ennis",
        "col1": "Washington Senators",
        "col2": "1897-03-10",
        "col3": "1949-01-21"
    },
    {
        "col0": "R. Derry",
        "col1": "New York Yankees",
        "col2": "1916-10-07",
        "col3": "2004-10-26"
    },
    {
        "col0": "R. Christopher",
        "col1": "Philadelphia Athletics",
        "col2": "1917-09-12",
        "col3": "1954-12-05"
    },
    {
        "col0": "R. Mills",
        "col1": "Newark Peppers",
        "col2": "1892-10-12",
        "col3": "1929-07-20"
    },
    {
        "col0": "R. Smith",
        "col1": "Detroit Tigers",
        "col2": "1905-01-24",
        "col3": "1984-08-21"
    },
    {
        "col0": "R. Lewis",
        "col1": "Pittsburgh Crawfords",
        "col2": "1919-12-13",
        "col3": "1999-12-17"
    },
    {
        "col0": "R. Linares",
        "col1": "Atlanta Braves",
        "col2": "1951-02-28",
        "col3": "1998-05-16"
    },
    {
        "col0": "R. Gentry",
        "col1": "Detroit Tigers",
        "col2": "1918-05-18",
        "col3": "1997-07-03"
    },
    {
        "col0": "R. Clarke",
        "col1": "Detroit Tigers",
        "col2": "1900-04-13",
        "col3": "1983-02-08"
    },
    {
        "col0": "R. York",
        "col1": "Detroit Tigers",
        "col2": "1913-08-17",
        "col3": "1970-02-05"
    },
    {
        "col0": "R. Sommers",
        "col1": "Chicago Cubs",
        "col2": "1886-10-30",
        "col3": "1949-03-18"
    },
    {
        "col0": "R. Schwenck",
        "col1": "Chicago Cubs",
        "col2": "1884-04-06",
        "col3": "1941-11-27"
    },
    {
        "col0": "R. Rufer",
        "col1": "New York Giants",
        "col2": "1926-10-28",
        "col3": "2010-10-25"
    },
    {
        "col0": "R. Minarcin",
        "col1": "Cincinnati Redlegs",
        "col2": "1930-03-25",
        "col3": "2013-10-15"
    },
    {
        "col0": "R. Leopold",
        "col1": "Chicago White Sox",
        "col2": "1905-07-27",
        "col3": "1965-09-03"
    },
    {
        "col0": "R. Kling",
        "col1": "St. Louis Cardinals",
        "col2": "1870-03-23",
        "col3": "1937-03-14"
    },
    {
        "col0": "R. Kallio",
        "col1": "Detroit Tigers",
        "col2": "1892-12-14",
        "col3": "1979-04-06"
    },
    {
        "col0": "R. Bell",
        "col1": "New York Yankees",
        "col2": "1881-01-01",
        "col3": "1955-07-28"
    },
    {
        "col0": "R. Quevedo",
        "col1": "Chicago Cubs",
        "col2": "1979-01-05",
        "col3": "2016-06-07"
    },
    {
        "col0": "R. Gomez",
        "col1": "New York Giants",
        "col2": "1927-07-13",
        "col3": "2004-07-26"
    },
    {
        "col0": "R. Yarrison",
        "col1": "Philadelphia Athletics",
        "col2": "1896-03-09",
        "col3": "1977-04-22"
    },
    {
        "col0": "R. Ward",
        "col1": "Brooklyn Superbas",
        "col2": "1879-02-06",
        "col3": "1945-01-17"
    },
    {
        "col0": "R. Walker",
        "col1": "Chicago Cubs",
        "col2": "1926-05-16",
        "col3": "1992-12-12"
    },
    {
        "col0": "R. Walberg",
        "col1": "New York Giants",
        "col2": "1896-07-27",
        "col3": "1978-10-27"
    },
    {
        "col0": "R. Waddell",
        "col1": "Louisville Colonels",
        "col2": "1876-10-13",
        "col3": "1914-04-01"
    },
    {
        "col0": "R. Vinson",
        "col1": "Cleveland Indians",
        "col2": "1879-03-20",
        "col3": "1951-10-12"
    },
    {
        "col0": "R. Vickers",
        "col1": "Cincinnati Reds",
        "col2": "1878-05-17",
        "col3": "1958-12-09"
    },
    {
        "col0": "R. Sellers",
        "col1": "Boston Doves",
        "col2": "1881-03-07",
        "col3": "1952-01-14"
    },
    {
        "col0": "R. Schauer",
        "col1": "New York Giants",
        "col2": "1891-03-19",
        "col3": "1957-04-15"
    },
    {
        "col0": "R. Peters",
        "col1": "Chicago White Sox",
        "col2": "1885-03-15",
        "col3": "1965-02-07"
    },
    {
        "col0": "R. Parnham",
        "col1": "Philadelphia Athletics",
        "col2": "1894-02-01",
        "col3": "1963-11-25"
    },
    {
        "col0": "R. Oldring",
        "col1": "New York Highlanders",
        "col2": "1884-05-30",
        "col3": "1961-09-09"
    },
    {
        "col0": "R. Melton",
        "col1": "Philadelphia Phillies",
        "col2": "1917-02-27",
        "col3": "1971-09-11"
    },
    {
        "col0": "R. Marshall",
        "col1": "Philadelphia Phillies",
        "col2": "1890-07-19",
        "col3": "1980-06-11"
    },
    {
        "col0": "R. Marquard",
        "col1": "New York Giants",
        "col2": "1886-10-09",
        "col3": "1980-06-01"
    },
    {
        "col0": "R. Manning",
        "col1": "New York Yankees",
        "col2": "1883-04-29",
        "col3": "1930-04-23"
    },
    {
        "col0": "R. Kroh",
        "col1": "Boston Americans",
        "col2": "1886-08-25",
        "col3": "1944-03-17"
    },
    {
        "col0": "R. Geyer",
        "col1": "St. Louis Cardinals",
        "col2": "1884-03-26",
        "col3": "1962-10-12"
    },
    {
        "col0": "R. Foster",
        "col1": "Boston Red Sox",
        "col2": "1888-01-05",
        "col3": "1976-03-01"
    },
    {
        "col0": "R. Foster",
        "col1": "Leland Giants",
        "col2": "1879-09-17",
        "col3": "1930-12-09"
    },
    {
        "col0": "R. Fischer",
        "col1": "New York Giants",
        "col2": "1916-09-19",
        "col3": "1997-07-16"
    },
    {
        "col0": "R. Ellis",
        "col1": "St. Louis Cardinals",
        "col2": "1885-11-17",
        "col3": "1938-03-13"
    },
    {
        "col0": "R. Ehrhardt",
        "col1": "Brooklyn Robins",
        "col2": "1894-11-20",
        "col3": "1980-04-27"
    },
    {
        "col0": "R. Dessau",
        "col1": "Boston Doves",
        "col2": "1883-03-29",
        "col3": "1952-05-06"
    },
    {
        "col0": "R. Currie",
        "col1": "Kansas City Monarchs",
        "col2": "1898-10-10",
        "col3": "1966-06-11"
    },
    {
        "col0": "R. Bressler",
        "col1": "Philadelphia Athletics",
        "col2": "1894-10-23",
        "col3": "1966-11-07"
    },
    {
        "col0": "R. Benton",
        "col1": "Cincinnati Reds",
        "col2": "1890-06-27",
        "col3": "1937-12-12"
    },
    {
        "col0": "R. Quevedo",
        "col1": "Chicago Cubs",
        "col2": "1979-01-05",
        "col3": "2016-06-07"
    },
    {
        "col0": "R. Gomez",
        "col1": "New York Giants",
        "col2": "1927-07-13",
        "col3": "2004-07-26"
    },
    {
        "col0": "R. Lint",
        "col1": "St. Louis Cardinals",
        "col2": "1921-01-01",
        "col3": "2006-04-03"
    },
    {
        "col0": "R. Zimmerman",
        "col1": "New York Giants",
        "col2": "1916-09-13",
        "col3": "1991-11-22"
    },
    {
        "col0": "R. Wood",
        "col1": "Pittsburgh Pirates",
        "col2": "1892-08-29",
        "col3": "1974-04-06"
    },
    {
        "col0": "R. Witherup",
        "col1": "Boston Beaneaters",
        "col2": "1886-07-26",
        "col3": "1941-12-23"
    },
    {
        "col0": "R. Wise",
        "col1": "Pittsburgh Pirates",
        "col2": "1923-11-18",
        "col3": "2008-02-25"
    },
    {
        "col0": "R. Wilson",
        "col1": "Chicago White Sox",
        "col2": "1896-09-13",
        "col3": "1969-12-03"
    },
    {
        "col0": "R. Wilkinson",
        "col1": "Cleveland Indians",
        "col2": "1894-05-08",
        "col3": "1956-07-02"
    },
    {
        "col0": "R. Weir",
        "col1": "Boston Bees",
        "col2": "1911-02-25",
        "col3": "1989-09-30"
    },
    {
        "col0": "R. Weatherly",
        "col1": "Cleveland Indians",
        "col2": "1915-02-25",
        "col3": "1991-01-19"
    },
    {
        "col0": "R. Vaughn",
        "col1": "Philadelphia Athletics",
        "col2": "1911-09-04",
        "col3": "1937-03-01"
    },
    {
        "col0": "R. Valdes",
        "col1": "Washington Senators",
        "col2": "1920-02-23",
        "col3": "2005-12-03"
    },
    {
        "col0": "R. Thomas",
        "col1": "Philadelphia Phillies",
        "col2": "1874-03-24",
        "col3": "1959-11-20"
    },
    {
        "col0": "R. Talcott",
        "col1": "Boston Braves",
        "col2": "1920-01-16",
        "col3": "1999-12-06"
    },
    {
        "col0": "R. Spencer",
        "col1": "Pittsburgh Pirates",
        "col2": "1900-02-22",
        "col3": "1973-02-08"
    },
    {
        "col0": "R. S. Jr.",
        "col1": "Chicago Cubs",
        "col2": "1926-06-09",
        "col3": "2011-10-22"
    },
    {
        "col0": "R. Schalk",
        "col1": "New York Yankees",
        "col2": "1908-11-09",
        "col3": "1990-03-11"
    },
    {
        "col0": "R. Sanders",
        "col1": "Cincinnati Reds",
        "col2": "1892-08-01",
        "col3": "1950-01-17"
    },
    {
        "col0": "R. Sanders",
        "col1": "New York Yankees",
        "col2": "1894-06-10",
        "col3": "1963-07-08"
    },
    {
        "col0": "R. Roberts",
        "col1": "Bacharach Giants",
        "col2": "1894-06-21",
        "col3": "1964-01-01"
    },
    {
        "col0": "R. Radebaugh",
        "col1": "St. Louis Cardinals",
        "col2": "1881-02-22",
        "col3": "1945-01-17"
    },
    {
        "col0": "R. Patterson",
        "col1": "Chicago White Sox",
        "col2": "1876-12-17",
        "col3": "1953-04-14"
    },
    {
        "col0": "R. Partlow",
        "col1": "Cincinnati Tigers",
        "col2": "1911-06-08",
        "col3": "1987-04-19"
    },
    {
        "col0": "R. Partee",
        "col1": "Boston Red Sox",
        "col2": "1917-09-07",
        "col3": "2000-12-27"
    },
    {
        "col0": "R. Parmelee",
        "col1": "New York Giants",
        "col2": "1907-04-25",
        "col3": "1981-08-31"
    },
    {
        "col0": "R. Parker",
        "col1": "St. Louis Cardinals",
        "col2": "1896-02-29",
        "col3": "1954-05-17"
    },
    {
        "col0": "R. Nichols",
        "col1": "New York Giants",
        "col2": "1921-03-03",
        "col3": "2002-04-03"
    },
    {
        "col0": "R. Moran",
        "col1": "Washington Senators",
        "col2": "1884-09-17",
        "col3": "1966-07-18"
    },
    {
        "col0": "R. Mitchell",
        "col1": "St. Louis Browns",
        "col2": "1885-04-19",
        "col3": "1959-09-08"
    },
    {
        "col0": "R. Meeker",
        "col1": "Philadelphia Athletics",
        "col2": "1900-09-15",
        "col3": "1929-03-25"
    },
    {
        "col0": "R. McMillan",
        "col1": "Cincinnati Reds",
        "col2": "1929-07-17",
        "col3": "1997-11-02"
    },
    {
        "col0": "R. Mahaffey",
        "col1": "Pittsburgh Pirates",
        "col2": "1904-02-09",
        "col3": "1969-07-23"
    },
    {
        "col0": "R. Leslie",
        "col1": "Chicago Cubs",
        "col2": "1894-08-23",
        "col3": "1972-04-09"
    },
    {
        "col0": "R. Lee",
        "col1": "New York Giants",
        "col2": "1917-09-28",
        "col3": "1985-11-11"
    },
    {
        "col0": "R. Joiner",
        "col1": "Chicago Cubs",
        "col2": "1906-10-30",
        "col3": "1989-12-26"
    },
    {
        "col0": "R. Johnson",
        "col1": "History of the Philadelphia Athletics",
        "col2": "1895-10-01",
        "col3": "1986-01-10"
    },
    {
        "col0": "R. Johnson",
        "col1": "Montreal Expos",
        "col2": "1959-06-27",
        "col3": "2009-01-26"
    },
    {
        "col0": "R. Johnson",
        "col1": "Detroit Tigers",
        "col2": "1903-02-23",
        "col3": "1973-09-10"
    },
    {
        "col0": "R. Jarvis",
        "col1": "Brooklyn Dodgers",
        "col2": "1926-06-07",
        "col3": "1990-01-13"
    },
    {
        "col0": "R. Hutson",
        "col1": "Brooklyn Robins",
        "col2": "1902-02-27",
        "col3": "1957-05-20"
    },
    {
        "col0": "R. Hughes",
        "col1": "Cleveland Indians",
        "col2": "1911-01-11",
        "col3": "1995-03-05"
    },
    {
        "col0": "R. Hitt",
        "col1": "Cincinnati Reds",
        "col2": "1884-06-22",
        "col3": "1956-02-08"
    },
    {
        "col0": "R. Henshaw",
        "col1": "Chicago Cubs",
        "col2": "1911-07-29",
        "col3": "1993-06-08"
    }
]