[
    {
        "col0": "Ibn Khaldun",
        "col1": "Gossamer",
        "col2": "Sadler's Wells",
        "col3": "Kingmambo",
        "col4": "D. Stud",
        "col5": "Dubai Destination",
        "col6": "2005-02-14"
    },
    {
        "col0": "Frankel",
        "col1": "Kind",
        "col2": "Danehill",
        "col3": "Sadler's Wells",
        "col4": "J. Farms",
        "col5": "Galileo",
        "col6": "2008-02-11"
    },
    {
        "col0": "Eswarah",
        "col1": "Midway Lady",
        "col2": "Alleged",
        "col3": "Northern Dancer",
        "col4": "S. Racing",
        "col5": "Unfuwain",
        "col6": "2002-04-21"
    },
    {
        "col0": "Eclipse",
        "col1": "Spilletta",
        "col2": "Regulus",
        "col3": "Squirt",
        "col4": "Prince William Augustus, Duke of Cumberland",
        "col5": "Marske",
        "col6": "1764-04-01"
    },
    {
        "col0": "Dansili",
        "col1": "Hasili",
        "col2": "Kahyasi",
        "col3": "Danzig",
        "col4": "J. Farms",
        "col5": "Danehill",
        "col6": "1996-01-27"
    },
    {
        "col0": "Dancethruthedawn",
        "col1": "Dance Smartly",
        "col2": "Danzig",
        "col3": "Raise a Native",
        "col4": "S. Farm",
        "col5": "Mr. Prospector",
        "col6": "1998-03-06"
    },
    {
        "col0": "Cellini",
        "col1": "Gamely",
        "col2": "Bold Ruler",
        "col3": "Princequillo",
        "col4": "C. Farm",
        "col5": "Round Table",
        "col6": "1971-04-10"
    },
    {
        "col0": "Carnegie",
        "col1": "Detroit",
        "col2": "Riverman",
        "col3": "Northern Dancer",
        "col4": "R. Sangster",
        "col5": "Sadler's Wells",
        "col6": "1991-02-26"
    },
    {
        "col0": "Brian Boru",
        "col1": "Eva Luna",
        "col2": "Alleged",
        "col3": "Northern Dancer",
        "col4": "J. Farms",
        "col5": "Sadler's Wells",
        "col6": "2000-03-16"
    },
    {
        "col0": "A.P. Indy",
        "col1": "Weekend Surprise",
        "col2": "Secretariat",
        "col3": "Bold Reasoning",
        "col4": "William Stamps Farish III",
        "col5": "Seattle Slew",
        "col6": "1989-03-31"
    }
]