[
    {
        "col0": "Yugoslav torpedo boat T3",
        "col1": "262000000",
        "col2": "5",
        "col3": "1914-03-04"
    },
    {
        "col0": "Yugoslav monitor Drava",
        "col1": "536000000",
        "col2": "10",
        "col3": "1914-07-29"
    },
    {
        "col0": "Yugoslav minelayer Zmaj",
        "col1": "1870000000",
        "col2": "13",
        "col3": "1929-06-22"
    },
    {
        "col0": "Ymer",
        "col1": "9500000000",
        "col2": "23",
        "col3": "1976-09-03"
    },
    {
        "col0": "Yelcho",
        "col1": "467000000",
        "col2": "7",
        "col3": "1906-06-23"
    },
    {
        "col0": "Viking",
        "col1": "6300000000",
        "col2": "13",
        "col3": "1906-12-01"
    },
    {
        "col0": "United States lightship Overfalls",
        "col1": "2616320",
        "col2": "7",
        "col3": "1938-06-04"
    },
    {
        "col0": "USS Zelima",
        "col1": "15500000000",
        "col2": "19",
        "col3": "1945-03-02"
    },
    {
        "col0": "USS Zaniah",
        "col1": "4350000000",
        "col2": "17",
        "col3": "1943-12-12"
    },
    {
        "col0": "USS YMS-386",
        "col1": "270000000",
        "col2": "7",
        "col3": "1943-03-23"
    },
    {
        "col0": "USS West Gate",
        "col1": "12185000000",
        "col2": "16",
        "col3": "1918-01-27"
    },
    {
        "col0": "USS West Ekonk",
        "col1": "12225000000",
        "col2": "16",
        "col3": "1918-06-22"
    },
    {
        "col0": "USS West Corum",
        "col1": "12424000000",
        "col2": "16",
        "col3": "1919-01-02"
    },
    {
        "col0": "USS West Coast",
        "col1": "12200000000",
        "col2": "16",
        "col3": "1918-07-06"
    },
    {
        "col0": "USS West Carnifax",
        "col1": "12200000000",
        "col2": "16",
        "col3": "1918-10-19"
    },
    {
        "col0": "USS West Avenal",
        "col1": "12200000000",
        "col2": "16",
        "col3": "1918-10-13"
    },
    {
        "col0": "USS West Alsek",
        "col1": "12226000000",
        "col2": "16",
        "col3": "1918-05-04"
    },
    {
        "col0": "USS Weight",
        "col1": "1232000000",
        "col2": "11",
        "col3": "1943-04-21"
    },
    {
        "col0": "USS Wateree",
        "col1": "534000000",
        "col2": "10",
        "col3": "1943-11-18"
    },
    {
        "col0": "USS Wakiva II",
        "col1": "853000000",
        "col2": "9",
        "col3": "1907-02-03"
    },
    {
        "col0": "USS Volans",
        "col1": "4023000000",
        "col2": "17",
        "col3": "1943-02-02"
    },
    {
        "col0": "USS Vega",
        "col1": "4037000000",
        "col2": "16",
        "col3": "1919-07-18"
    },
    {
        "col0": "USS Undaunted",
        "col1": "534000000",
        "col2": "10",
        "col3": "1944-08-22"
    },
    {
        "col0": "USS Umpqua",
        "col1": "534000000",
        "col2": "10",
        "col3": "1945-02-02"
    },
    {
        "col0": "USS Tonkawa",
        "col1": "835000000",
        "col2": "10",
        "col3": "1944-03-01"
    },
    {
        "col0": "USS Thresher",
        "col1": "22480037",
        "col2": "9",
        "col3": "1960-07-09"
    },
    {
        "col0": "USS Texas",
        "col1": "7900000000",
        "col2": "10",
        "col3": "2005-04-09"
    },
    {
        "col0": "USS Texas",
        "col1": "69853224",
        "col2": "19",
        "col3": "1975-08-09"
    },
    {
        "col0": "USS Taylor",
        "col1": "1090000000",
        "col2": "9",
        "col3": "1918-02-14"
    },
    {
        "col0": "USS Tatnuck",
        "col1": "534000000",
        "col2": "10",
        "col3": "1944-12-14"
    },
    {
        "col0": "USS Susquehanna",
        "col1": "17857000000",
        "col2": "17",
        "col3": "1899-09-20"
    },
    {
        "col0": "USS Sunnadin",
        "col1": "534000000",
        "col2": "10",
        "col3": "1945-02-06"
    },
    {
        "col0": "USS Stratford",
        "col1": "2300000000",
        "col2": "13",
        "col3": "1918-05-28"
    },
    {
        "col0": "USS Stewart",
        "col1": "7715606",
        "col2": "9",
        "col3": "1920-03-04"
    },
    {
        "col0": "USS Stallion",
        "col1": "534000000",
        "col2": "10",
        "col3": "1944-11-24"
    },
    {
        "col0": "USS St. Francis River",
        "col1": "758000000",
        "col2": "10",
        "col3": "1945-06-16"
    },
    {
        "col0": "USS Spica",
        "col1": "5800000000",
        "col2": "16",
        "col3": "1918-08-08"
    },
    {
        "col0": "USS Sonoma",
        "col1": "534000000",
        "col2": "10",
        "col3": "1944-01-29"
    },
    {
        "col0": "USS Sonoma",
        "col1": "1120000000",
        "col2": "10",
        "col3": "1912-05-11"
    },
    {
        "col0": "USS Sibley",
        "col1": "6873000000",
        "col2": "18",
        "col3": "1944-07-19"
    },
    {
        "col0": "USS Shikellamy",
        "col1": "10800000000",
        "col2": "16",
        "col3": "1921-03-26"
    },
    {
        "col0": "USS Seekonk",
        "col1": "5372348",
        "col2": "11",
        "col3": "1943-05-24"
    },
    {
        "col0": "USS Sciota",
        "col1": "534000000",
        "col2": "10",
        "col3": "1944-11-26"
    },
    {
        "col0": "USS Sanderling",
        "col1": "320000000",
        "col2": "7",
        "col3": "1944-02-26"
    },
    {
        "col0": "USS Samoset",
        "col1": "534000000",
        "col2": "10",
        "col3": "1944-10-26"
    },
    {
        "col0": "USS Sagamore",
        "col1": "534000000",
        "col2": "10",
        "col3": "1945-01-17"
    },
    {
        "col0": "USS SC-277",
        "col1": "85000000",
        "col2": "3",
        "col3": "1917-07-31"
    },
    {
        "col0": "USS Rocky Mount",
        "col1": "7240000000",
        "col2": "19",
        "col3": "1943-03-07"
    },
    {
        "col0": "USS Riverside",
        "col1": "8100000000",
        "col2": "21",
        "col3": "1944-04-13"
    },
    {
        "col0": "USS Reindeer",
        "col1": "534000000",
        "col2": "10",
        "col3": "1944-10-19"
    },
    {
        "col0": "USS Princess Matoika",
        "col1": "20500000000",
        "col2": "18",
        "col3": "1900-09-14"
    },
    {
        "col0": "USS Pollux",
        "col1": "7350000000",
        "col2": "19",
        "col3": "1942-02-05"
    },
    {
        "col0": "USS Pinola",
        "col1": "534000000",
        "col2": "10",
        "col3": "1944-12-14"
    },
    {
        "col0": "USS Pinola",
        "col1": "1000000000",
        "col2": "9",
        "col3": "1919-08-12"
    },
    {
        "col0": "USS Pecatonica",
        "col1": "1846000000",
        "col2": "14",
        "col3": "1945-03-17"
    },
    {
        "col0": "USS Pathfinder",
        "col1": "2175000000",
        "col2": "11",
        "col3": "1942-01-11"
    },
    {
        "col0": "USS Palisana",
        "col1": "3139000000",
        "col2": "15",
        "col3": "1944-10-21"
    },
    {
        "col0": "USS PCS-1450",
        "col1": "320000000",
        "col2": "7",
        "col3": "1943-08-14"
    },
    {
        "col0": "USS PC-552",
        "col1": "280000000",
        "col2": "7",
        "col3": "1942-02-13"
    },
    {
        "col0": "USS PC-1264",
        "col1": "2857631",
        "col2": "7",
        "col3": "1943-11-28"
    },
    {
        "col0": "USS Octavia",
        "col1": "3139000000",
        "col2": "15",
        "col3": "1945-01-18"
    },
    {
        "col0": "USS Nottoway",
        "col1": "534000000",
        "col2": "10",
        "col3": "1944-08-16"
    },
    {
        "col0": "USS New Mexico",
        "col1": "7900000000",
        "col2": "10",
        "col3": "2009-01-18"
    },
    {
        "col0": "USS Navigator",
        "col1": "534000000",
        "col2": "10",
        "col3": "1944-10-26"
    },
    {
        "col0": "USS Natchaug",
        "col1": "1846000000",
        "col2": "14",
        "col3": "1944-12-06"
    },
    {
        "col0": "USS Nashville",
        "col1": "7695000000",
        "col2": "25",
        "col3": "1967-10-07"
    },
    {
        "col0": "USS Meriwether",
        "col1": "6873000000",
        "col2": "18",
        "col3": "1944-10-18"
    },
    {
        "col0": "USS Mercury",
        "col1": "7345000000",
        "col2": "19",
        "col3": "1939-07-15"
    },
    {
        "col0": "USS Merapi",
        "col1": "3139000000",
        "col2": "15",
        "col3": "1944-10-04"
    },
    {
        "col0": "USS Merak",
        "col1": "7068000000",
        "col2": "18",
        "col3": "1932-04-23"
    },
    {
        "col0": "USS Menifee",
        "col1": "6873000000",
        "col2": "18",
        "col3": "1944-10-15"
    }
]