[
    {
        "col0": "Tan",
        "col1": "14",
        "col2": "33",
        "col3": "82"
    },
    {
        "col0": "Sunset",
        "col1": "14",
        "col2": "34",
        "col3": "98"
    },
    {
        "col0": "Straw",
        "col1": "5",
        "col2": "51",
        "col3": "89"
    },
    {
        "col0": "Steel blue",
        "col1": "28",
        "col2": "0",
        "col3": "71"
    },
    {
        "col0": "Spring green",
        "col1": "0",
        "col2": "50",
        "col3": "100"
    },
    {
        "col0": "Spring bud",
        "col1": "0",
        "col2": "80",
        "col3": "63"
    },
    {
        "col0": "Slate gray",
        "col1": "43",
        "col2": "34",
        "col3": "56"
    },
    {
        "col0": "Sky blue",
        "col1": "12",
        "col2": "0",
        "col3": "92"
    },
    {
        "col0": "Shades of yellow",
        "col1": "0",
        "col2": "100",
        "col3": "100"
    },
    {
        "col0": "Shades of white",
        "col1": "0",
        "col2": "0",
        "col3": "100"
    },
    {
        "col0": "Shades of violet",
        "col1": "100",
        "col2": "0",
        "col3": "100"
    },
    {
        "col0": "Shades of pink",
        "col1": "20",
        "col2": "14",
        "col3": "100"
    },
    {
        "col0": "Shades of orange",
        "col1": "50",
        "col2": "100",
        "col3": "100"
    },
    {
        "col0": "Shades of magenta",
        "col1": "100",
        "col2": "0",
        "col3": "100"
    },
    {
        "col0": "Shades of gray",
        "col1": "0",
        "col2": "0",
        "col3": "50"
    },
    {
        "col0": "Shades of cyan",
        "col1": "0",
        "col2": "0",
        "col3": "100"
    },
    {
        "col0": "Shades of brown",
        "col1": "50",
        "col2": "100",
        "col3": "59"
    },
    {
        "col0": "Shades of blue",
        "col1": "100",
        "col2": "0",
        "col3": "100"
    },
    {
        "col0": "Shades of black",
        "col1": "0",
        "col2": "0",
        "col3": "0"
    },
    {
        "col0": "Sepia",
        "col1": "41",
        "col2": "82",
        "col3": "44"
    },
    {
        "col0": "Seashell",
        "col1": "3",
        "col2": "4",
        "col3": "100"
    },
    {
        "col0": "Seal brown",
        "col1": "80",
        "col2": "93",
        "col3": "20"
    },
    {
        "col0": "School bus yellow",
        "col1": "12",
        "col2": "100",
        "col3": "100"
    },
    {
        "col0": "Scarlet",
        "col1": "86",
        "col2": "100",
        "col3": "100"
    },
    {
        "col0": "Sapphire",
        "col1": "56",
        "col2": "0",
        "col3": "73"
    },
    {
        "col0": "Salmon",
        "col1": "45",
        "col2": "69",
        "col3": "100"
    },
    {
        "col0": "Saffron",
        "col1": "23",
        "col2": "81",
        "col3": "96"
    },
    {
        "col0": "Safety orange",
        "col1": "55",
        "col2": "100",
        "col3": "100"
    },
    {
        "col0": "Rust",
        "col1": "85",
        "col2": "100",
        "col3": "72"
    },
    {
        "col0": "Russet",
        "col1": "45",
        "col2": "79",
        "col3": "50"
    },
    {
        "col0": "Ruby",
        "col1": "92",
        "col2": "57",
        "col3": "88"
    },
    {
        "col0": "Royal blue",
        "col1": "66",
        "col2": "0",
        "col3": "40"
    },
    {
        "col0": "Rose",
        "col1": "100",
        "col2": "50",
        "col3": "100"
    },
    {
        "col0": "Robin egg blue",
        "col1": "0",
        "col2": "27",
        "col3": "80"
    },
    {
        "col0": "Raspberry",
        "col1": "95",
        "col2": "60",
        "col3": "89"
    },
    {
        "col0": "Raisin black",
        "col1": "8",
        "col2": "0",
        "col3": "14"
    },
    {
        "col0": "Purple",
        "col1": "100",
        "col2": "0",
        "col3": "50"
    },
    {
        "col0": "Puce",
        "col1": "59",
        "col2": "52",
        "col3": "45"
    },
    {
        "col0": "Powder blue",
        "col1": "2",
        "col2": "0",
        "col3": "90"
    },
    {
        "col0": "Plum",
        "col1": "51",
        "col2": "6",
        "col3": "557"
    },
    {
        "col0": "Pink",
        "col1": "20",
        "col2": "14",
        "col3": "100"
    },
    {
        "col0": "Persian green",
        "col1": "0",
        "col2": "22",
        "col3": "60"
    },
    {
        "col0": "Persian blue",
        "col1": "100",
        "col2": "21",
        "col3": "49"
    },
    {
        "col0": "Periwinkle",
        "col1": "20",
        "col2": "0",
        "col3": "100"
    },
    {
        "col0": "Peach",
        "col1": "10",
        "col2": "29",
        "col3": "100"
    },
    {
        "col0": "Oxford Blue",
        "col1": "80",
        "col2": "0",
        "col3": "28"
    },
    {
        "col0": "Orchid",
        "col1": "49",
        "col2": "2",
        "col3": "86"
    },
    {
        "col0": "Orange",
        "col1": "50",
        "col2": "100",
        "col3": "100"
    },
    {
        "col0": "Olive",
        "col1": "0",
        "col2": "100",
        "col3": "50"
    },
    {
        "col0": "Old gold",
        "col1": "13",
        "col2": "71",
        "col3": "81"
    },
    {
        "col0": "Ochre",
        "col1": "42",
        "col2": "83",
        "col3": "80"
    },
    {
        "col0": "Navy blue",
        "col1": "98",
        "col2": "14",
        "col3": "50"
    },
    {
        "col0": "Navajo white",
        "col1": "13",
        "col2": "32",
        "col3": "100"
    },
    {
        "col0": "Naples yellow",
        "col1": "13",
        "col2": "62",
        "col3": "98"
    },
    {
        "col0": "NIVO",
        "col1": "0",
        "col2": "15",
        "col3": "30"
    },
    {
        "col0": "Mustard",
        "col1": "12",
        "col2": "77",
        "col3": "100"
    }
]