[
    {
        "col0": "Vertebral artery",
        "col1": "Brainstem",
        "col2": "Subclavian+Artery",
        "col3": "a_61",
        "col4": "A07.231.114.839",
        "col5": "578"
    },
    {
        "col0": "Superior mesenteric artery",
        "col1": "Intestine",
        "col2": "Mesenteric+Artery,+Superior",
        "col3": "a_61",
        "col4": "A07.231.114.565.755",
        "col5": "606"
    },
    {
        "col0": "Splenic artery",
        "col1": "Spleen",
        "col2": "Splenic+Artery",
        "col3": "a_61",
        "col4": "A07.231.114.814",
        "col5": "605"
    },
    {
        "col0": "Renal artery",
        "col1": "Kidney",
        "col2": "Renal+Artery",
        "col3": "a_61",
        "col4": "A07.231.114.745",
        "col5": "610"
    },
    {
        "col0": "Posterior cerebral artery",
        "col1": "Occipital lobe",
        "col2": "Posterior+Cerebral+Artery",
        "col3": "a_61",
        "col4": "A07.231.114.228.700",
        "col5": "580"
    },
    {
        "col0": "Femoral artery",
        "col1": "Anterior compartment of thigh",
        "col2": "Femoral+Artery",
        "col3": "a_61",
        "col4": "A07.231.114.351",
        "col5": "623"
    },
    {
        "col0": "Central retinal artery",
        "col1": "Retina",
        "col2": "Retinal+Artery",
        "col3": "a_61",
        "col4": "A07.231.114.765",
        "col5": "571"
    },
    {
        "col0": "Axillary artery",
        "col1": "Axilla",
        "col2": "Axillary+Artery",
        "col3": "a_61",
        "col4": "A07.231.114.085",
        "col5": "586"
    },
    {
        "col0": "Aortic arch",
        "col1": "Arm",
        "col2": "Aortic+Arch",
        "col3": "a_58",
        "col4": "A07.231.114.056.372.",
        "col5": "547"
    }
]