[
    {
        "col0": "S. Haggas",
        "col1": "1856-4-18",
        "col2": "1856-4-18",
        "col3": "1926-3-14"
    },
    {
        "col0": "S. d. Silva",
        "col1": "1956-11-17",
        "col2": "1956-11-17",
        "col3": "1980-4-12"
    },
    {
        "col0": "S. Walker",
        "col1": "1908-05-18",
        "col2": "1908-05-18",
        "col3": "1993-11-26"
    },
    {
        "col0": "S. Toyne",
        "col1": "1881-06-13",
        "col2": "1881-06-13",
        "col3": "1962-02-22"
    },
    {
        "col0": "S. Tomkinson",
        "col1": "1907-06-05",
        "col2": "1907-06-05",
        "col3": "1969-08-12"
    },
    {
        "col0": "S. Stephens",
        "col1": "1883-04-16",
        "col2": "1883-04-16",
        "col3": "1965-09-07"
    },
    {
        "col0": "S. Sproston",
        "col1": "1872-11-09",
        "col2": "1872-11-09",
        "col3": "1930-07-16"
    },
    {
        "col0": "S. Snooke",
        "col1": "1878-11-11",
        "col2": "1878-11-11",
        "col3": "1959-4-6"
    },
    {
        "col0": "S. Smith",
        "col1": "1910-01-08",
        "col2": "1910-01-08",
        "col3": "1984-0-0"
    },
    {
        "col0": "S. Scott",
        "col1": "1854-1-1",
        "col2": "1854-1-1",
        "col3": "1933-1-1"
    },
    {
        "col0": "S. Rimington",
        "col1": "1892-01-22",
        "col2": "1892-01-22",
        "col3": "1991-11-23"
    },
    {
        "col0": "S. Richardson",
        "col1": "1890-7-2",
        "col2": "1890-7-2",
        "col3": "1958-1-24"
    },
    {
        "col0": "S. Raper",
        "col1": "1909-8-9",
        "col2": "1909-8-9",
        "col3": "1997-3-9"
    },
    {
        "col0": "S. Quin",
        "col1": "1908-04-17",
        "col2": "1908-04-17",
        "col3": "1967-11-27"
    },
    {
        "col0": "S. Proffitt",
        "col1": "1910-10-08",
        "col2": "1910-10-08",
        "col3": "1999-01-03"
    },
    {
        "col0": "S. Philips",
        "col1": "1920-02-04",
        "col2": "1920-02-04",
        "col3": "2015-10-0"
    },
    {
        "col0": "S. Pearce",
        "col1": "1863-09-21",
        "col2": "1863-09-21",
        "col3": "1929-04-05"
    },
    {
        "col0": "S. McKenzie",
        "col1": "1890-5-17",
        "col2": "1890-5-17",
        "col3": "1915-12-8"
    },
    {
        "col0": "S. James",
        "col1": "1932-1-3",
        "col2": "1932-1-3",
        "col3": "2002-10-12"
    },
    {
        "col0": "S. Jackson",
        "col1": "1870-11-21",
        "col2": "1870-11-21",
        "col3": "1947-3-9"
    },
    {
        "col0": "S. Horwood",
        "col1": "1877-7-22",
        "col2": "1877-7-22",
        "col3": "1959-8-15"
    },
    {
        "col0": "S. Holden",
        "col1": "1886-01-25",
        "col2": "1886-01-25",
        "col3": "1971-05-10"
    },
    {
        "col0": "S. Hill",
        "col1": "1885-08-02",
        "col2": "1885-08-02",
        "col3": "1970-05-10"
    },
    {
        "col0": "S. Hewitt",
        "col1": "1936-3-13",
        "col2": "1936-3-13",
        "col3": "2001-8-14"
    },
    {
        "col0": "S. Hahn",
        "col1": "1945-06-09",
        "col2": "1945-06-09",
        "col3": "1991-01-28"
    },
    {
        "col0": "S. Gethin",
        "col1": "1875-2-16",
        "col2": "1875-2-16",
        "col3": "1950-2-17"
    },
    {
        "col0": "S. Frankish",
        "col1": "1872-11-02",
        "col2": "1872-11-02",
        "col3": "1909-05-30"
    },
    {
        "col0": "S. Fenley",
        "col1": "1896-01-04",
        "col2": "1896-01-04",
        "col3": "1972-09-22"
    },
    {
        "col0": "S. Ellis",
        "col1": "1896-02-12",
        "col2": "1896-02-12",
        "col3": "1987-02-14"
    },
    {
        "col0": "S. Douglas",
        "col1": "1903-4-4",
        "col2": "1903-4-4",
        "col3": "1971-12-27"
    },
    {
        "col0": "S. Dickinson",
        "col1": "1890-03-07",
        "col2": "1890-03-07",
        "col3": "1972-06-25"
    },
    {
        "col0": "S. Collins",
        "col1": "1909-03-06",
        "col2": "1909-03-06",
        "col3": "1993-06-02"
    },
    {
        "col0": "S. Christopherson",
        "col1": "1861-11-11",
        "col2": "1861-11-11",
        "col3": "1949-04-06"
    },
    {
        "col0": "S. Brown",
        "col1": "1907-03-15",
        "col2": "1907-03-15",
        "col3": "1978-06-15"
    },
    {
        "col0": "S. Brown",
        "col1": "1877-05-23",
        "col2": "1877-05-23",
        "col3": "1952-09-12"
    },
    {
        "col0": "S. Bradshaw",
        "col1": "1898-01-16",
        "col2": "1898-01-16",
        "col3": "1980-01-09"
    },
    {
        "col0": "S. Bergin",
        "col1": "1926-12-18",
        "col2": "1926-12-18",
        "col3": "1969-8-4"
    },
    {
        "col0": "S. Behrend",
        "col1": "1908-11-15",
        "col2": "1908-11-15",
        "col3": "1944-03-30"
    },
    {
        "col0": "S. Banham",
        "col1": "1913-9-21",
        "col2": "1913-9-21",
        "col3": "1984-12-29"
    },
    {
        "col0": "S. A. Trick",
        "col1": "1884-6-3",
        "col2": "1884-6-3",
        "col3": "1958-2-11"
    },
    {
        "col0": "S. Amor",
        "col1": "1887-07-22",
        "col2": "1887-07-22",
        "col3": "1965-08-07"
    },
    {
        "col0": "S. Worthington",
        "col1": "1905-08-21",
        "col2": "1905-08-21",
        "col3": "1973-08-31"
    },
    {
        "col0": "S. Stoker",
        "col1": "1944-05-29",
        "col2": "1944-05-29",
        "col3": "2015-10-10"
    },
    {
        "col0": "S. Squires",
        "col1": "1909-2-22",
        "col2": "1909-2-22",
        "col3": "1950-1-24"
    },
    {
        "col0": "S. Quin",
        "col1": "1896-4-3",
        "col2": "1896-4-3",
        "col3": "1970-4-9"
    },
    {
        "col0": "S. Nichols",
        "col1": "1900-10-6",
        "col2": "1900-10-6",
        "col3": "1961-1-26"
    },
    {
        "col0": "S. McCabe",
        "col1": "1910-07-16",
        "col2": "1910-07-16",
        "col3": "1968-08-25"
    },
    {
        "col0": "S. Eve",
        "col1": "1925-12-18",
        "col2": "1925-12-18",
        "col3": "1990-01-27"
    },
    {
        "col0": "S. Cowman",
        "col1": "1923-04-14",
        "col2": "1923-04-14",
        "col3": "2003-02-02"
    },
    {
        "col0": "S. Castledine",
        "col1": "1912-04-10",
        "col2": "1912-04-10",
        "col3": "1986-04-17"
    },
    {
        "col0": "S. Harrison",
        "col1": "1857-06-29",
        "col2": "1857-06-29",
        "col3": "1927-06-18"
    },
    {
        "col0": "S. Allen",
        "col1": "1893-12-20",
        "col2": "1893-12-20",
        "col3": "1978-10-9"
    },
    {
        "col0": "S. Colah",
        "col1": "1902-09-22",
        "col2": "1902-09-22",
        "col3": "1950-09-11"
    },
    {
        "col0": "S. Moloney",
        "col1": "1910-8-11",
        "col2": "1910-8-11",
        "col3": "1942-7-15"
    },
    {
        "col0": "S. Hool",
        "col1": "1924-1-28",
        "col2": "1924-1-28",
        "col3": "1988-10-10"
    },
    {
        "col0": "S. Avery",
        "col1": "1914-12-19",
        "col2": "1914-12-19",
        "col3": "1997-05-12"
    },
    {
        "col0": "S. Hardy",
        "col1": "1863-05-18",
        "col2": "1863-05-18",
        "col3": "1931-07-05"
    },
    {
        "col0": "S. Browne",
        "col1": "1890-10-08",
        "col2": "1890-10-08",
        "col3": "1964-01-12"
    },
    {
        "col0": "S. Samuelson",
        "col1": "1883-11-21",
        "col2": "1883-11-21",
        "col3": "1958-11-18"
    },
    {
        "col0": "S. Lane",
        "col1": "1881-08-21",
        "col2": "1881-08-21",
        "col3": "1961-02-10"
    },
    {
        "col0": "S. Curley",
        "col1": "1917-7-21",
        "col2": "1917-7-21",
        "col3": "1989-3-11"
    },
    {
        "col0": "S. Hardy",
        "col1": "1867-04-30",
        "col2": "1867-04-30",
        "col3": "1905-06-27"
    },
    {
        "col0": "S. Cooper",
        "col1": "1778-0-0",
        "col2": "1778-0-0",
        "col3": "1816-5-30"
    },
    {
        "col0": "S. Wilcox",
        "col1": "1893-02-28",
        "col2": "1893-02-28",
        "col3": "1973-10-21"
    },
    {
        "col0": "S. Styler",
        "col1": "1908-8-26",
        "col2": "1908-8-26",
        "col3": "1980-1-27"
    },
    {
        "col0": "S. Stretton",
        "col1": "1902-11-20",
        "col2": "1902-11-20",
        "col3": "1984-01-14"
    },
    {
        "col0": "S. Smith",
        "col1": "1929-1-14",
        "col2": "1929-1-14",
        "col3": "1985-4-25"
    },
    {
        "col0": "S. Pothecary",
        "col1": "1886-09-26",
        "col2": "1886-09-26",
        "col3": "1976-10-31"
    },
    {
        "col0": "S. Olivier",
        "col1": "1870-03-01",
        "col2": "1870-03-01",
        "col3": "1932-01-21"
    },
    {
        "col0": "S. Martin",
        "col1": "1909-01-11",
        "col2": "1909-01-11",
        "col3": "1988-02-13"
    },
    {
        "col0": "S. Kitcat",
        "col1": "1868-07-20",
        "col2": "1868-07-20",
        "col3": "1942-06-17"
    },
    {
        "col0": "S. King",
        "col1": "1885-1-1",
        "col2": "1885-1-1",
        "col3": "1972-1-1"
    },
    {
        "col0": "S. Freeman",
        "col1": "1888-8-21",
        "col2": "1888-8-21",
        "col3": "1971-6-6"
    },
    {
        "col0": "S. Cope",
        "col1": "1904-08-12",
        "col2": "1904-08-12",
        "col3": "1986-04-14"
    },
    {
        "col0": "S. Adams",
        "col1": "1904-8-17",
        "col2": "1904-8-17",
        "col3": "1945-3-24"
    },
    {
        "col0": "S. Abrahams",
        "col1": "1915-08-03",
        "col2": "1915-08-03",
        "col3": "1983-07-27"
    },
    {
        "col0": "S. Khan",
        "col1": "1947-03-02",
        "col2": "1947-03-02",
        "col3": "2007-10-21"
    },
    {
        "col0": "S. Russell",
        "col1": "1937-10-04",
        "col2": "1937-10-04",
        "col3": "1994-06-18"
    },
    {
        "col0": "S. Pegler",
        "col1": "1888-7-28",
        "col2": "1888-7-28",
        "col3": "1972-9-10"
    },
    {
        "col0": "S. Kiel",
        "col1": "1916-07-18",
        "col2": "1916-07-18",
        "col3": "2007-07-19"
    },
    {
        "col0": "S. Hird",
        "col1": "1910-1-7",
        "col2": "1910-1-7",
        "col3": "1980-12-20"
    },
    {
        "col0": "S. Hadden",
        "col1": "1877-08-26",
        "col2": "1877-08-26",
        "col3": "1934-11-02"
    },
    {
        "col0": "S. Emery",
        "col1": "1885-10-15",
        "col2": "1885-10-15",
        "col3": "1967-1-7"
    },
    {
        "col0": "S. Barnes",
        "col1": "1916-06-05",
        "col2": "1916-06-05",
        "col3": "1973-12-16"
    },
    {
        "col0": "S. Sinha",
        "col1": "1930-07-10",
        "col2": "1930-07-10",
        "col3": "1963-06-07"
    },
    {
        "col0": "S. Banerjee",
        "col1": "1911-10-03",
        "col2": "1911-10-03",
        "col3": "1980-10-14"
    },
    {
        "col0": "S. Coen",
        "col1": "1902-10-14",
        "col2": "1902-10-14",
        "col3": "1967-1-28"
    },
    {
        "col0": "S. Siddiqi",
        "col1": "1919-5-10",
        "col2": "1919-5-10",
        "col3": "2003-7-21"
    },
    {
        "col0": "S. Butt",
        "col1": "1930-04-10",
        "col2": "1930-04-10",
        "col3": "2006-02-07"
    },
    {
        "col0": "S. Griffiths",
        "col1": "1930-7-11",
        "col2": "1930-7-11",
        "col3": "2015-1-1"
    },
    {
        "col0": "S. Raynor",
        "col1": "1934-07-07",
        "col2": "1934-07-07",
        "col3": "2011-12-10"
    },
    {
        "col0": "S. Wickramasinghe",
        "col1": "1926-1-1",
        "col2": "1926-1-1",
        "col3": "2011-08-10"
    },
    {
        "col0": "S. Salahuddin",
        "col1": "1969-02-10",
        "col2": "1969-02-10",
        "col3": "2013-10-29"
    },
    {
        "col0": "S. Vohra",
        "col1": "1936-05-20",
        "col2": "1936-05-20",
        "col3": "2010-10-13"
    },
    {
        "col0": "S. Jeffares",
        "col1": "1906-8-14",
        "col2": "1906-8-14",
        "col3": "1994-0-0"
    },
    {
        "col0": "S. Thakre",
        "col1": "1968-09-07",
        "col2": "1968-09-07",
        "col3": "2014-11-20"
    },
    {
        "col0": "S. Julien",
        "col1": "1956-01-06",
        "col2": "1956-01-06",
        "col3": "1992-01-25"
    },
    {
        "col0": "S. Clements",
        "col1": "1958-06-28",
        "col2": "1958-06-28",
        "col3": "2001-04-22"
    },
    {
        "col0": "S. Singh",
        "col1": "1972-10-16",
        "col2": "1972-10-16",
        "col3": "2013-03-21"
    },
    {
        "col0": "S. Rana",
        "col1": "1936-04-03",
        "col2": "1936-04-03",
        "col3": "2001-04-09"
    },
    {
        "col0": "S. Nasiruddin",
        "col1": "1916-1-1",
        "col2": "1916-1-1",
        "col3": "1991-1-1"
    },
    {
        "col0": "S. Qureshi",
        "col1": "1936-0-0",
        "col2": "1936-0-0",
        "col3": "2013-09-02"
    },
    {
        "col0": "S. Israr",
        "col1": "1950-3-1",
        "col2": "1950-3-1",
        "col3": "2013-4-29"
    },
    {
        "col0": "S. Akbar",
        "col1": "1958-09-06",
        "col2": "1958-09-06",
        "col3": "2012-11-28"
    },
    {
        "col0": "S. Clark",
        "col1": "1902-03-26",
        "col2": "1902-03-26",
        "col3": "1995-03-17"
    },
    {
        "col0": "S. Waring",
        "col1": "1838-11-4",
        "col2": "1838-11-4",
        "col3": "1919-4-17"
    },
    {
        "col0": "S. Palmer",
        "col1": "1858-8-23",
        "col2": "1858-8-23",
        "col3": "1935-12-14"
    },
    {
        "col0": "S. Kinneir",
        "col1": "1871-5-13",
        "col2": "1871-5-13",
        "col3": "1928-10-16"
    },
    {
        "col0": "S. Coppinger",
        "col1": "1828-9-15",
        "col2": "1828-9-15",
        "col3": "1870-4-8"
    },
    {
        "col0": "S. Brutton",
        "col1": "1869-07-26",
        "col2": "1869-07-26",
        "col3": "1933-10-29"
    },
    {
        "col0": "S. Lambert",
        "col1": "1876-8-3",
        "col2": "1876-8-3",
        "col3": "1959-4-21"
    },
    {
        "col0": "S. Norton",
        "col1": "1836-9-13",
        "col2": "1836-9-13",
        "col3": "1906-11-11"
    },
    {
        "col0": "S. Wigginton",
        "col1": "1909-03-26",
        "col2": "1909-03-26",
        "col3": "1977-09-15"
    },
    {
        "col0": "S. Mason",
        "col1": "1976-07-27",
        "col2": "1976-07-27",
        "col3": "2005-04-09"
    },
    {
        "col0": "S. Huey",
        "col1": "1923-12-21",
        "col2": "1923-12-21",
        "col3": "2012-3-8"
    },
    {
        "col0": "S. Taylor",
        "col1": "1925-7-25",
        "col2": "1925-7-25",
        "col3": "2004-2-7"
    },
    {
        "col0": "S. Haigh",
        "col1": "1871-03-19",
        "col2": "1871-03-19",
        "col3": "1921-02-27"
    },
    {
        "col0": "S. Wade",
        "col1": "1858-2-8",
        "col2": "1858-2-8",
        "col3": "1931-11-5"
    },
    {
        "col0": "S. Qureshi",
        "col1": "1947-01-18",
        "col2": "1947-01-18",
        "col3": "1998-03-28"
    }
]