[
    {
        "col0": "S. Frangen",
        "col1": "R. Merilainen",
        "col2": "Finnish people",
        "col3": "Simo Juhani Frangen"
    },
    {
        "col0": "R. Pryor",
        "col1": "D. McGuire",
        "col2": "Americans",
        "col3": "Richard Franklin Lennox Thomas Pryor"
    },
    {
        "col0": "P. Oldring",
        "col1": "S. Erikson",
        "col2": "Canadian",
        "col3": "Peter James Edward Oldring"
    },
    {
        "col0": "P. Merton",
        "col1": "C. Quentin",
        "col2": "British people",
        "col3": "Paul James Martin"
    },
    {
        "col0": "M. Kasher",
        "col1": "N. Leggero",
        "col2": "United States",
        "col3": "Mark Moshe Kasher"
    },
    {
        "col0": "M. Sahl",
        "col1": "C. Lee",
        "col2": "Americans",
        "col3": "Morton Lyon Sahl"
    },
    {
        "col0": "M. Mira",
        "col1": "D. Shafrir",
        "col2": "United States",
        "col3": "Matthew Paul Mira"
    },
    {
        "col0": "M. Mull",
        "col1": "W. Haas",
        "col2": "United States",
        "col3": "Martin Eugene Mull"
    },
    {
        "col0": "J. Saunders",
        "col1": "A. Edmondson",
        "col2": "England",
        "col3": "Jennifer Jane Saunders"
    },
    {
        "col0": "H. Lloyd",
        "col1": "M. Davis",
        "col2": "United States",
        "col3": "Harold Clayton Lloyd"
    },
    {
        "col0": "D. Harron",
        "col1": "V. Leith",
        "col2": "Canadians",
        "col3": "Donald Hugh Harron"
    },
    {
        "col0": "C. Mochrie",
        "col1": "D. McGrath",
        "col2": "Canadian",
        "col3": "Colin Andrew Mochrie"
    },
    {
        "col0": "C. Reiner",
        "col1": "E. Reiner",
        "col2": "Americans",
        "col3": "CarltonReiner"
    },
    {
        "col0": "B. Connolly",
        "col1": "P. Stephenson",
        "col2": "Scottish people",
        "col3": "William Connolly"
    },
    {
        "col0": "A. Buenafuente",
        "col1": "S. Abril",
        "col2": "Spain",
        "col3": "Andreu Buenafuente Moreno"
    },
    {
        "col0": "A. Edmondson",
        "col1": "J. Saunders",
        "col2": "British nationality law",
        "col3": "Adrian Charles Edmondson"
    }
]