[
    {
        "col0": "Na-K-Cl cotransporter",
        "col1": "P55011",
        "col2": "10910",
        "col3": "6557"
    },
    {
        "col0": "NPAS1",
        "col1": "Q99742",
        "col2": "7894",
        "col3": "4861"
    },
    {
        "col0": "NKG2",
        "col1": "P26715",
        "col2": "6374",
        "col3": "3821"
    },
    {
        "col0": "NF-kB",
        "col1": "P19838",
        "col2": "7794",
        "col3": "4790"
    },
    {
        "col0": "N-terminal prohormone of brain natriuretic peptide",
        "col1": "P16860",
        "col2": "7940",
        "col3": "4879"
    },
    {
        "col0": "N-acyl phosphatidylethanolamine-specific phospholipase D",
        "col1": "Q6IQ20",
        "col2": "21683",
        "col3": "222236"
    },
    {
        "col0": "N-acetylglucosamine-1-phosphate transferase",
        "col1": "Q3T906",
        "col2": "23026",
        "col3": "79158"
    },
    {
        "col0": "N-Acetylglutamate synthase",
        "col1": "Q8N159",
        "col2": "17996",
        "col3": "162417"
    },
    {
        "col0": "N-Acetylglucosamine receptor",
        "col1": "P52272",
        "col2": "5046",
        "col3": "4670"
    },
    {
        "col0": "Myosin light-chain kinase",
        "col1": "Q15746",
        "col2": "16243",
        "col3": "340156"
    },
    {
        "col0": "Myophosphorylase",
        "col1": "P11217",
        "col2": "9726",
        "col3": "5837"
    },
    {
        "col0": "Mu hemoglobin",
        "col1": "Q6B0K9",
        "col2": "4826",
        "col3": "3042"
    },
    {
        "col0": "Motilin",
        "col1": "P12872",
        "col2": "7141",
        "col3": "4295"
    },
    {
        "col0": "Monoacylglycerol lipase",
        "col1": "Q99685",
        "col2": "17038",
        "col3": "11343"
    },
    {
        "col0": "Mitochondrial calcium uniporter",
        "col1": "Q8NE86",
        "col2": "23526",
        "col3": "90550"
    },
    {
        "col0": "Methylcrotonyl-CoA carboxylase",
        "col1": "Q96RQ3",
        "col2": "6936",
        "col3": "56922"
    },
    {
        "col0": "Membrane-bound transcription factor site-2 protease",
        "col1": "O43462",
        "col2": "15455",
        "col3": "51360"
    },
    {
        "col0": "Melatonin receptor",
        "col1": "P48039",
        "col2": "7463",
        "col3": "4543"
    },
    {
        "col0": "Melanocyte-stimulating hormone",
        "col1": "P01189",
        "col2": "9201",
        "col3": "5443"
    },
    {
        "col0": "Melanin-concentrating hormone receptor",
        "col1": "Q969V1",
        "col2": "20867",
        "col3": "2847"
    },
    {
        "col0": "Melanin-concentrating hormone",
        "col1": "P20382",
        "col2": "9109",
        "col3": "5367"
    },
    {
        "col0": "Map44",
        "col1": "P48740",
        "col2": "6901",
        "col3": "5648"
    },
    {
        "col0": "Mannose receptor",
        "col1": "P22897",
        "col2": "16875",
        "col3": "4360"
    },
    {
        "col0": "Mannose 6-phosphate receptor",
        "col1": "P11717",
        "col2": "5467",
        "col3": "3482"
    },
    {
        "col0": "Major histocompatibility complex, class II, DP alpha 1",
        "col1": "P20036",
        "col2": "4938",
        "col3": "3113"
    },
    {
        "col0": "Macrophage inflammatory protein",
        "col1": "P10147",
        "col2": "10627",
        "col3": "6348"
    },
    {
        "col0": "MYLK4",
        "col1": "Q86YV6",
        "col2": "27972",
        "col3": "340156"
    },
    {
        "col0": "MTORC2",
        "col1": "P42345",
        "col2": "18752",
        "col3": "2475"
    },
    {
        "col0": "MTORC1",
        "col1": "P42345",
        "col2": "30287",
        "col3": "2475"
    },
    {
        "col0": "MT-RNR2",
        "col1": "Q8IVG9",
        "col2": "7471",
        "col3": "4550"
    },
    {
        "col0": "MOSC1",
        "col1": "Q5VT66",
        "col2": "26189",
        "col3": "64757"
    },
    {
        "col0": "MCEF",
        "col1": "Q9UHB7",
        "col2": "17869",
        "col3": "27125"
    },
    {
        "col0": "MAS1 oncogene",
        "col1": "P04201",
        "col2": "13961",
        "col3": "116511"
    },
    {
        "col0": "Lysosomal lipase",
        "col1": "P38571",
        "col2": "6617",
        "col3": "3988"
    },
    {
        "col0": "Lymphotoxin",
        "col1": "P01374",
        "col2": "6709",
        "col3": "4049"
    },
    {
        "col0": "Luteinizing hormone",
        "col1": "P01215",
        "col2": "1885",
        "col3": "1081"
    },
    {
        "col0": "Low-molecular-weight kininogen",
        "col1": "P01042",
        "col2": "6383",
        "col3": "3827"
    },
    {
        "col0": "Liver X receptor",
        "col1": "P55055",
        "col2": "7965",
        "col3": "10062"
    },
    {
        "col0": "Leucyl aminopeptidase",
        "col1": "P28838",
        "col2": "18449",
        "col3": "51056"
    },
    {
        "col0": "Leprecan",
        "col1": "Q32P28",
        "col2": "19316",
        "col3": "64175"
    },
    {
        "col0": "Lefty",
        "col1": "O00292",
        "col2": "3122",
        "col3": "10637"
    },
    {
        "col0": "Latrophilin",
        "col1": "O94910",
        "col2": "18582",
        "col3": "22859"
    },
    {
        "col0": "Latent TGF-beta binding protein",
        "col1": "Q14766",
        "col2": "6714",
        "col3": "4052"
    },
    {
        "col0": "Lanosterol 14 alpha-demethylase",
        "col1": "Q16850",
        "col2": "2649",
        "col3": "1595"
    },
    {
        "col0": "Laforin",
        "col1": "O95278",
        "col2": "3413",
        "col3": "7957"
    },
    {
        "col0": "LIX1L",
        "col1": "Q8IVB5",
        "col2": "28715",
        "col3": "128077"
    },
    {
        "col0": "LEM domain-containing protein 3",
        "col1": "Q9Y2U8",
        "col2": "28887",
        "col3": "23592"
    },
    {
        "col0": "Ku",
        "col1": "P12956",
        "col2": "12833",
        "col3": "2547"
    },
    {
        "col0": "Kir2.6",
        "col1": "B7U540",
        "col2": "39080",
        "col3": "100134444"
    },
    {
        "col0": "Keratin 6B",
        "col1": "P04259",
        "col2": "6444",
        "col3": "3854"
    },
    {
        "col0": "KLRA1",
        "col1": "O75889",
        "col2": "6372",
        "col3": "10748"
    },
    {
        "col0": "KAL1 gene",
        "col1": "P23352",
        "col2": "6211",
        "col3": "3730"
    },
    {
        "col0": "Isopentenyl-diphosphate delta isomerase",
        "col1": "Q13907",
        "col2": "5387",
        "col3": "3422"
    },
    {
        "col0": "Iron-responsive element-binding protein",
        "col1": "P21399",
        "col2": "117",
        "col3": "3658"
    },
    {
        "col0": "Internexin",
        "col1": "Q16352",
        "col2": "6057",
        "col3": "9118"
    },
    {
        "col0": "Interleukin 28",
        "col1": "Q8IZI9",
        "col2": "18364",
        "col3": "282616"
    },
    {
        "col0": "Interleukin 27",
        "col1": "Q14213",
        "col2": "19157",
        "col3": "10148"
    },
    {
        "col0": "Interleukin 23",
        "col1": "P29460",
        "col2": "15488",
        "col3": "3593"
    },
    {
        "col0": "Interleukin 17",
        "col1": "Q16552",
        "col2": "13765",
        "col3": "112744"
    },
    {
        "col0": "Interleukin 12",
        "col1": "P29459",
        "col2": "5969",
        "col3": "3592"
    },
    {
        "col0": "Interleukin-8 receptor",
        "col1": "P25024",
        "col2": "6026",
        "col3": "3577"
    },
    {
        "col0": "Interleukin-7 receptor",
        "col1": "P16871",
        "col2": "6010",
        "col3": "3561"
    },
    {
        "col0": "Interleukin-5 receptor",
        "col1": "P32927",
        "col2": "2436",
        "col3": "1439"
    },
    {
        "col0": "Interleukin-28 receptor",
        "col1": "Q08334",
        "col2": "18584",
        "col3": "163702"
    },
    {
        "col0": "Interleukin-27 receptor",
        "col1": "P40189",
        "col2": "17290",
        "col3": "3572"
    },
    {
        "col0": "Interleukin-22 receptor",
        "col1": "A8K839",
        "col2": "13700",
        "col3": "116379"
    },
    {
        "col0": "Interleukin-20 receptor",
        "col1": "Q6UXL0",
        "col2": "6003",
        "col3": "53832"
    },
    {
        "col0": "Interleukin-1 receptor",
        "col1": "P14778",
        "col2": "5993",
        "col3": "3554"
    },
    {
        "col0": "Interleukin-18 receptor",
        "col1": "O95256",
        "col2": "5988",
        "col3": "8807"
    },
    {
        "col0": "Interleukin-17 receptor",
        "col1": "Q6ZVW7",
        "col2": "17616",
        "col3": "132014"
    },
    {
        "col0": "Interleukin-15 receptor",
        "col1": "P14784",
        "col2": "5978",
        "col3": "3560"
    },
    {
        "col0": "Interleukin-13 receptor",
        "col1": "P78552",
        "col2": "5974",
        "col3": "3566"
    },
    {
        "col0": "Interleukin-12 receptor",
        "col1": "P42701",
        "col2": "5971",
        "col3": "3594"
    },
    {
        "col0": "Interleukin-11 receptor",
        "col1": "Q14626",
        "col2": "5967",
        "col3": "3590"
    },
    {
        "col0": "Interleukin-10 receptor",
        "col1": "Q08334",
        "col2": "5964",
        "col3": "3587"
    },
    {
        "col0": "Interferon-gamma receptor",
        "col1": "P15260",
        "col2": "5439",
        "col3": "3459"
    },
    {
        "col0": "Interferon-alpha/beta receptor",
        "col1": "P17181",
        "col2": "5432",
        "col3": "3454"
    },
    {
        "col0": "Intelectin",
        "col1": "Q8WWA0",
        "col2": "18259",
        "col3": "55600"
    },
    {
        "col0": "Inositol trisphosphate receptor",
        "col1": "Q14571",
        "col2": "6180",
        "col3": "3708"
    },
    {
        "col0": "Inositol monophosphatase",
        "col1": "O14732",
        "col2": "26019",
        "col3": "3612"
    },
    {
        "col0": "Inorganic pyrophosphatase",
        "col1": "Q15181",
        "col2": "28883",
        "col3": "27068"
    },
    {
        "col0": "ITCH",
        "col1": "Q96J02",
        "col2": "13890",
        "col3": "83737"
    },
    {
        "col0": "IL22RA2",
        "col1": "Q969J5",
        "col2": "14901",
        "col3": "116379"
    },
    {
        "col0": "IL-2 receptor",
        "col1": "P01589",
        "col2": "6008",
        "col3": "3559"
    },
    {
        "col0": "IKBKAP",
        "col1": "O95163",
        "col2": "1874",
        "col3": "8518"
    },
    {
        "col0": "ICAM4",
        "col1": "Q14773",
        "col2": "5347",
        "col3": "3386"
    },
    {
        "col0": "Hypoxia-inducible factors",
        "col1": "P27540",
        "col2": "15825",
        "col3": "2034"
    },
    {
        "col0": "Hydroxymethylglutaryl-CoA synthase",
        "col1": "P54868",
        "col2": "5007",
        "col3": "3157"
    },
    {
        "col0": "Human serum albumin",
        "col1": "P02768",
        "col2": "399",
        "col3": "213"
    },
    {
        "col0": "Human placental lactogen",
        "col1": "P01243",
        "col2": "2440",
        "col3": "1442"
    },
    {
        "col0": "Holocarboxylase synthetase",
        "col1": "P50747",
        "col2": "4976",
        "col3": "3141"
    },
    {
        "col0": "Histone H4",
        "col1": "P62805",
        "col2": "4780",
        "col3": "3023"
    },
    {
        "col0": "Histone H3",
        "col1": "P84243",
        "col2": "4764",
        "col3": "3020"
    },
    {
        "col0": "High-molecular-weight kininogen",
        "col1": "P01042",
        "col2": "6383",
        "col3": "3827"
    },
    {
        "col0": "Heterochromatin protein 1",
        "col1": "P45973",
        "col2": "1551",
        "col3": "10951"
    }
]