[
    {
        "col0": "Conel Hugh O'Donel Alexander",
        "col1": "Cork",
        "col2": "1909-04-19",
        "col3": "1974-02-15"
    },
    {
        "col0": "C. Ranken",
        "col1": "Brislington",
        "col2": "1828-01-05",
        "col3": "1905-04-12"
    },
    {
        "col0": "C. Purdy",
        "col1": "Egypt",
        "col2": "1906-03-27",
        "col3": "1979-11-06"
    },
    {
        "col0": "C. T. Repetto",
        "col1": "Merida, Yucatan",
        "col2": "1904-11-29",
        "col3": "1978-03-19"
    },
    {
        "col0": "C. Guimard",
        "col1": "Santiago del Estero",
        "col2": "1913-04-06",
        "col3": "1998-09-11"
    },
    {
        "col0": "C. Schlechter",
        "col1": "Austria-Hungary",
        "col2": "1874-03-02",
        "col3": "1918-12-27"
    },
    {
        "col0": "C. Boutteville",
        "col1": "Hanoi",
        "col2": "1917-06-24",
        "col3": "2015-05-21"
    },
    {
        "col0": "B. Milic",
        "col1": "Belgrade",
        "col2": "1925-10-20",
        "col3": "1986-5-28"
    },
    {
        "col0": "B. d. Greiff",
        "col1": "Medellin",
        "col2": "1930-02-13",
        "col3": "2011-10-31"
    },
    {
        "col0": "B. Kostic",
        "col1": "VrA!ac",
        "col2": "1887-2-24",
        "col3": "1963-11-3"
    },
    {
        "col0": "B. Katalymov",
        "col1": "Soviet Union",
        "col2": "1932-06-13",
        "col3": "2013-2-1"
    },
    {
        "col0": "B. Fischer",
        "col1": "Chicago",
        "col2": "1943-03-09",
        "col3": "2008-01-17"
    },
    {
        "col0": "B. Sundberg",
        "col1": "Stockholm",
        "col2": "1907-07-07",
        "col3": "1979-07-20"
    },
    {
        "col0": "B. Lasker",
        "col1": "Barlinek",
        "col2": "1860-12-31",
        "col3": "1928-10-19"
    },
    {
        "col0": "B. Larsen",
        "col1": "Thisted",
        "col2": "1935-03-04",
        "col3": "2010-09-09"
    },
    {
        "col0": "A. Eller",
        "col1": "Estonia",
        "col2": "1907-1-1",
        "col3": "1990-1-1"
    },
    {
        "col0": "A. Kubbel",
        "col1": "Russian Empire",
        "col2": "1889-09-12",
        "col3": "1938-01-11"
    },
    {
        "col0": "A. Pomar",
        "col1": "Palma, Majorca",
        "col2": "1931-9-1",
        "col3": "2016-5-26"
    }
]