[
    {
        "col0": "L. Chaney",
        "col1": "L. C. Jr.",
        "col2": "California",
        "col3": "Forest Lawn Memorial Park, Glendale",
        "col4": "Leonidas Frank Chaney"
    },
    {
        "col0": "L. Bochner",
        "col1": "H. Bochner",
        "col2": "California",
        "col3": "California",
        "col4": "Lloyd Wolfe Bochner"
    },
    {
        "col0": "L. Damita",
        "col1": "S. Flynn",
        "col2": "Palm Beach, Florida",
        "col3": "Fort Dodge, Iowa",
        "col4": "Liliane Marie Madeleine Carre"
    },
    {
        "col0": "L. Penn",
        "col1": "M. Penn",
        "col2": "California",
        "col3": "California",
        "col4": "Leo Z. Penn"
    },
    {
        "col0": "L. Harvey",
        "col1": "D. Harvey",
        "col2": "England",
        "col3": "California",
        "col4": "Laruschka Mischa Skikne"
    },
    {
        "col0": "L. Bacall",
        "col1": "S. Robards",
        "col2": "Manhattan",
        "col3": "California",
        "col4": "Betty Joan Perske"
    },
    {
        "col0": "L. F. Baum",
        "col1": "F. J. Baum",
        "col2": "California",
        "col3": "Forest Lawn Memorial Park, Glendale",
        "col4": "Lyman Frank Baum"
    },
    {
        "col0": "J. Page",
        "col1": "G. Orr",
        "col2": "Los Angeles",
        "col3": "Forest Lawn Memorial Park",
        "col4": "Joy Cerrette Paige"
    },
    {
        "col0": "J. Baker",
        "col1": "J. Baker",
        "col2": "Paris, France",
        "col3": "Monaco Cemetery",
        "col4": "Freda Josephine McDonald"
    },
    {
        "col0": "J. Pertwee",
        "col1": "S. Pertwee",
        "col2": "Connecticut",
        "col3": "Putney Vale Crematorium",
        "col4": "John Devon Roland Pertwee"
    },
    {
        "col0": "J. Lennon",
        "col1": "J. Lennon",
        "col2": "Manhattan",
        "col3": "Central Park",
        "col4": "John Winston Lennon"
    },
    {
        "col0": "J. Cassavetes",
        "col1": "N. Cassavetes",
        "col2": "Los Angeles",
        "col3": "Westwood Village Memorial Park Cemetery",
        "col4": "John Nicholas Cassavetes"
    },
    {
        "col0": "J. McCrea",
        "col1": "J. McCrea",
        "col2": "California",
        "col3": "Cremains",
        "col4": "Joel Albert McCrea"
    },
    {
        "col0": "J. Moore",
        "col1": "T. O'Neal",
        "col2": "Indian Wells, California",
        "col3": "Americus, Georgia",
        "col4": "Dorothy Joanne Cook"
    },
    {
        "col0": "J. Davis",
        "col1": "B. Wills",
        "col2": "Palm Springs, California",
        "col3": "Holy Cross Cemetery, Culver City",
        "col4": "Josephine Davis"
    },
    {
        "col0": "J. Crawford",
        "col1": "C. Crawford",
        "col2": "New York",
        "col3": "Ferncliff Cemetery",
        "col4": "Lucille Fay LeSueur"
    },
    {
        "col0": "J. Blondell",
        "col1": "N. Powell",
        "col2": "Santa Monica, California",
        "col3": "Forest Lawn Memorial Park, Glendale",
        "col4": "Rose Joan Blondell"
    },
    {
        "col0": "J. Henson",
        "col1": "J. Henson",
        "col2": "New York",
        "col3": "Cremation",
        "col4": "James Maury Henson"
    },
    {
        "col0": "J. Orbach",
        "col1": "C. Orbach",
        "col2": "New York City",
        "col3": "New York City",
        "col4": "Jerome Bernard Orbach"
    },
    {
        "col0": "J. Mansfield",
        "col1": "M. Hargitay",
        "col2": "St. Tammany Parish, Louisiana",
        "col3": "Fairview Cemetery",
        "col4": "Vera Jayne Palmer"
    },
    {
        "col0": "J. Leigh",
        "col1": "J. L. Curtis",
        "col2": "Beverly Hills, California",
        "col3": "Westwood Village Memorial Park Cemetery",
        "col4": "Jeanette Helen Morrison"
    },
    {
        "col0": "J. Wyman",
        "col1": "M. Reagan",
        "col2": "Palm Springs, California",
        "col3": "Cathedral City, California",
        "col4": "Sarah Jane Mayfield"
    },
    {
        "col0": "J. Whitmore",
        "col1": "J. W. Jr.",
        "col2": "Malibu, California",
        "col3": "Cremains",
        "col4": "James Allen Whitmore, Jr."
    },
    {
        "col0": "J. Lemmon",
        "col1": "C. Lemmon",
        "col2": "Los Angeles",
        "col3": "Westwood Village Memorial Park Cemetery",
        "col4": "John Uhler Lemmon III"
    },
    {
        "col0": "J. Layton",
        "col1": "M. Layton",
        "col2": "Ontario",
        "col3": "Toronto Islands",
        "col4": "John Gilbert Layton"
    },
    {
        "col0": "J. Klugman",
        "col1": "A. Klugman",
        "col2": "Los Angeles, California",
        "col3": "Mount Sinai Memorial Park Cemetery",
        "col4": "Jacob Joachim \"Jack\" Klugman"
    },
    {
        "col0": "J. Hemingway",
        "col1": "M. Hemingway",
        "col2": "New York",
        "col3": "Ketchum, Idaho",
        "col4": "John Hadley Nicanor Hemingway"
    },
    {
        "col0": "I. Hervey",
        "col1": "J. Jones",
        "col2": "Woodland Hills, Los Angeles, California",
        "col3": "Forest Lawn Memorial Park",
        "col4": "Beulah Irene Herwick"
    },
    {
        "col0": "I. S. Jolley",
        "col1": "S. Jolley",
        "col2": "California",
        "col3": "Forest Lawn Memorial Park",
        "col4": "Isaac Stanford Jolley, Sr."
    }
]