[
    {
        "col0": "Cerulean",
        "col1": "196",
        "col2": "0",
        "col3": "167",
        "col4": "123"
    },
    {
        "col0": "Cerise",
        "col1": "343",
        "col2": "222",
        "col3": "99",
        "col4": "49"
    },
    {
        "col0": "Carnelian",
        "col1": "0",
        "col2": "179",
        "col3": "27",
        "col4": "27"
    },
    {
        "col0": "Carmine",
        "col1": "350",
        "col2": "150",
        "col3": "24",
        "col4": "0"
    },
    {
        "col0": "Cardinal",
        "col1": "350",
        "col2": "196",
        "col3": "58",
        "col4": "30"
    },
    {
        "col0": "Capri",
        "col1": "195",
        "col2": "0",
        "col3": "255",
        "col4": "191"
    },
    {
        "col0": "Candy apple red",
        "col1": "2",
        "col2": "255",
        "col3": "0",
        "col4": "8"
    },
    {
        "col0": "Camel",
        "col1": "33",
        "col2": "193",
        "col3": "107",
        "col4": "154"
    },
    {
        "col0": "Cadet grey",
        "col1": "205",
        "col2": "145",
        "col3": "176",
        "col4": "163"
    },
    {
        "col0": "Byzantium",
        "col1": "311",
        "col2": "112",
        "col3": "99",
        "col4": "41"
    },
    {
        "col0": "Burgundy",
        "col1": "347",
        "col2": "144",
        "col3": "32",
        "col4": "0"
    },
    {
        "col0": "Buff",
        "col1": "49",
        "col2": "240",
        "col3": "130",
        "col4": "220"
    },
    {
        "col0": "Brown",
        "col1": "30",
        "col2": "150",
        "col3": "0",
        "col4": "75"
    },
    {
        "col0": "Bronze",
        "col1": "30",
        "col2": "205",
        "col3": "50",
        "col4": "127"
    },
    {
        "col0": "British racing green",
        "col1": "153",
        "col2": "1",
        "col3": "37",
        "col4": "66"
    },
    {
        "col0": "Bole",
        "col1": "9",
        "col2": "121",
        "col3": "59",
        "col4": "68"
    }
]