[
    {
        "col0": "Vertebral artery",
        "col1": "Anterior spinal artery",
        "col2": "Vertebral vein",
        "col3": "Subclavian artery",
        "col4": "12156505",
        "col5": "148"
    },
    {
        "col0": "Transverse cervical artery",
        "col1": "Superficial branch of transverse cervical artery",
        "col2": "Transverse cervical veins",
        "col3": "Thyrocervical trunk",
        "col4": "12156407",
        "col5": "148"
    },
    {
        "col0": "Superior thyroid artery",
        "col1": "Superior laryngeal artery",
        "col2": "Superior thyroid vein",
        "col3": "External carotid artery",
        "col4": "12156385",
        "col5": "144"
    },
    {
        "col0": "Superior mesenteric artery",
        "col1": "Inferior pancreaticoduodenal artery",
        "col2": "Superior mesenteric vein",
        "col3": "Abdominal aorta",
        "col4": "12155072",
        "col5": "154"
    },
    {
        "col0": "Superficial temporal artery",
        "col1": "Transverse facial artery",
        "col2": "Superficial temporal vein",
        "col3": "External carotid artery",
        "col4": "12156279",
        "col5": "144"
    },
    {
        "col0": "Superficial palmar arch",
        "col1": "Common palmar digital arteries",
        "col2": "Superficial palmar venous arch",
        "col3": "Ulnar artery",
        "col4": "12150655",
        "col5": "152"
    },
    {
        "col0": "Subclavian artery",
        "col1": "Vertebral artery",
        "col2": "Subclavian vein",
        "col3": "Aortic arch",
        "col4": "12156042",
        "col5": "148"
    },
    {
        "col0": "Splenic artery",
        "col1": "Left gastro-omental artery",
        "col2": "Splenic vein",
        "col3": "Celiac artery",
        "col4": "12156021",
        "col5": "154"
    },
    {
        "col0": "Renal artery",
        "col1": "Inferior suprarenal artery",
        "col2": "Renal vein",
        "col3": "Abdominal aorta",
        "col4": "12155727",
        "col5": "154"
    },
    {
        "col0": "Posterior tibial artery",
        "col1": "Lateral plantar artery",
        "col2": "Posterior tibial vein",
        "col3": "Popliteal artery",
        "col4": "12156400",
        "col5": "162"
    },
    {
        "col0": "Popliteal artery",
        "col1": "Posterior tibial artery",
        "col2": "Popliteal vein",
        "col3": "Femoral artery",
        "col4": "12155539",
        "col5": "159"
    },
    {
        "col0": "Plantar arch",
        "col1": "Plantar metatarsal arteries",
        "col2": "Plantar venous arch",
        "col3": "Lateral plantar artery",
        "col4": "12150710",
        "col5": "162"
    },
    {
        "col0": "Ovarian artery",
        "col1": "Tubal branches of ovarian artery",
        "col2": "Ovarian vein",
        "col3": "Abdominal aorta",
        "col4": "12155320",
        "col5": "154"
    },
    {
        "col0": "Ophthalmic artery",
        "col1": "Lacrimal artery",
        "col2": "Inferior ophthalmic vein",
        "col3": "Internal carotid artery",
        "col4": "12155313",
        "col5": "146"
    },
    {
        "col0": "Obturator artery",
        "col1": "Anterior branch of the obturator artery",
        "col2": "Obturator veins",
        "col3": "Internal iliac artery",
        "col4": "12155276",
        "col5": "155"
    },
    {
        "col0": "Middle meningeal artery",
        "col1": "Superior tympanic artery",
        "col2": "Middle meningeal vein",
        "col3": "Internal maxillary artery",
        "col4": "12155038",
        "col5": "144"
    },
    {
        "col0": "Maxillary artery",
        "col1": "Posterior superior alveolar artery",
        "col2": "Maxillary veins",
        "col3": "External carotid artery",
        "col4": "12154985",
        "col5": "144"
    },
    {
        "col0": "Lingual artery",
        "col1": "Deep lingual artery",
        "col2": "Lingual vein",
        "col3": "External carotid artery",
        "col4": "12154839",
        "col5": "144"
    },
    {
        "col0": "Internal thoracic artery",
        "col1": "Superior epigastric artery",
        "col2": "Internal thoracic vein",
        "col3": "Subclavian artery",
        "col4": "12156309",
        "col5": "148"
    },
    {
        "col0": "Internal iliac artery",
        "col1": "Uterine artery",
        "col2": "Internal iliac vein",
        "col3": "Common iliac artery",
        "col4": "12154560",
        "col5": "155"
    },
    {
        "col0": "Interlobular arteries",
        "col1": "Afferent arterioles",
        "col2": "Interlobular veins",
        "col3": "Arcuate arteries of the kidney",
        "col4": "12154691",
        "col5": "253"
    },
    {
        "col0": "Inferior phrenic arteries",
        "col1": "Superior suprarenal artery",
        "col2": "Inferior phrenic vein",
        "col3": "Abdominal aorta",
        "col4": "12155488",
        "col5": "154"
    },
    {
        "col0": "Inferior mesenteric artery",
        "col1": "Sigmoid arteries",
        "col2": "Inferior mesenteric vein",
        "col3": "Abdominal aorta",
        "col4": "12155065",
        "col5": "154"
    },
    {
        "col0": "Inferior gluteal artery",
        "col1": "Accompanying artery of ischiadic nerve",
        "col2": "Inferior gluteal veins",
        "col3": "Internal iliac artery",
        "col4": "12154415",
        "col5": "155"
    },
    {
        "col0": "Inferior epigastric artery",
        "col1": "Superior epigastric artery",
        "col2": "Inferior epigastric vein",
        "col3": "External iliac artery",
        "col4": "12154222",
        "col5": "156"
    },
    {
        "col0": "Ileocolic artery",
        "col1": "Appendicular artery",
        "col2": "Ileocolic vein",
        "col3": "Superior mesenteric artery",
        "col4": "12154536",
        "col5": "154"
    },
    {
        "col0": "Fibular artery",
        "col1": "Posterior tibial artery",
        "col2": "Fibular vein",
        "col3": "Popliteal artery",
        "col4": "12154284",
        "col5": "162"
    },
    {
        "col0": "Femoral artery",
        "col1": "Popliteal artery",
        "col2": "Femoral vein",
        "col3": "External iliac artery",
        "col4": "12154275",
        "col5": "157"
    },
    {
        "col0": "Facial artery",
        "col1": "Angular artery",
        "col2": "Posterior facial vein",
        "col3": "External carotid artery",
        "col4": "12154265",
        "col5": "144"
    },
    {
        "col0": "External iliac artery",
        "col1": "Femoral artery",
        "col2": "External iliac vein",
        "col3": "Common iliac artery",
        "col4": "12154552",
        "col5": "156"
    },
    {
        "col0": "Ductus arteriosus",
        "col1": "Descending aorta",
        "col2": "Ductus venosus",
        "col3": "Pulmonary artery",
        "col4": "12314749",
        "col5": "139"
    },
    {
        "col0": "Dorsal metacarpal arteries",
        "col1": "Dorsal digital arteries of hand",
        "col2": "Dorsal metacarpal veins",
        "col3": "Dorsal carpal arch",
        "col4": "12155079",
        "col5": "151"
    },
    {
        "col0": "Deep palmar arch",
        "col1": "Palmar metacarpal arteries",
        "col2": "Deep palmar venous arch",
        "col3": "Radial artery",
        "col4": "12150649",
        "col5": "151"
    }
]