[
    {
        "col0": "E. Sylvain",
        "col1": "Saint-Romuald",
        "col2": "1971-06-16",
        "col3": "1971-06-16"
    },
    {
        "col0": "E. Belisle",
        "col1": "Mount Royal, Quebec",
        "col2": "1979-09-14",
        "col3": "1979-09-14"
    },
    {
        "col0": "Z. Yan",
        "col1": "Harbin",
        "col2": "1982-9-30",
        "col3": "1982-9-30"
    },
    {
        "col0": "Z. Jialiang",
        "col1": "China",
        "col2": "1988-01-12",
        "col3": "1988-01-12"
    },
    {
        "col0": "Z. BikA!e",
        "col1": "Jelgava",
        "col2": "1970-10-01",
        "col3": "1970-10-01"
    },
    {
        "col0": "Y. Morozumi",
        "col1": "Karuizawa, Nagano",
        "col2": "1985-01-16",
        "col3": "1985-01-16"
    },
    {
        "col0": "Y. Funayama",
        "col1": "Japan",
        "col2": "1978-04-05",
        "col3": "1978-04-05"
    },
    {
        "col0": "X. Xiaoming",
        "col1": "Harbin",
        "col2": "1984-9-14",
        "col3": "1984-9-14"
    },
    {
        "col0": "W. Lyburn",
        "col1": "Winnipeg",
        "col2": "1975-05-08",
        "col3": "1975-05-08"
    },
    {
        "col0": "W. Miller",
        "col1": "Northwest Territories",
        "col2": "1981-03-03",
        "col3": "1981-03-03"
    },
    {
        "col0": "W. Middaugh",
        "col1": "Etobicoke, Ontario",
        "col2": "1967-09-20",
        "col3": "1967-09-20"
    },
    {
        "col0": "W. Ursuliak",
        "col1": "Edmonton",
        "col2": "1929-0-0",
        "col3": "1929-0-0"
    },
    {
        "col0": "V. Adams",
        "col1": "Scotland",
        "col2": "1989-11-16",
        "col3": "1989-11-16"
    },
    {
        "col0": "V. Sweeting",
        "col1": "Edmonton, Alberta",
        "col2": "1987-07-09",
        "col3": "1987-07-09"
    },
    {
        "col0": "V. Tanner",
        "col1": "Geneva",
        "col2": "1992-10-02",
        "col3": "1992-10-02"
    },
    {
        "col0": "U. Min-ji",
        "col1": "Korea",
        "col2": "1991-02-01",
        "col3": "1991-02-01"
    },
    {
        "col0": "U. Schmidt",
        "col1": "Hvidovre",
        "col2": "1962-08-19",
        "col3": "1962-08-19"
    },
    {
        "col0": "T. Griffith",
        "col1": "Kelowna, British Columbia",
        "col2": "1985-12-22",
        "col3": "1985-12-22"
    },
    {
        "col0": "T. Hogan",
        "col1": "Australia",
        "col2": "1998-07-11",
        "col3": "1998-07-11"
    },
    {
        "col0": "T. George",
        "col1": "Duluth Curling Club",
        "col2": "1982-10-06",
        "col3": "1982-10-06"
    },
    {
        "col0": "T. MacGregor",
        "col1": "Charlottetown, Prince Edward Island",
        "col2": "1970-09-25",
        "col3": "1970-09-25"
    },
    {
        "col0": "T. Andrews",
        "col1": "Bemidji",
        "col2": "1990-05-21",
        "col3": "1990-05-21"
    },
    {
        "col0": "T. Fleury",
        "col1": "Greater Sudbury",
        "col2": "1986-06-13",
        "col3": "1986-06-13"
    },
    {
        "col0": "T. Muller",
        "col1": "Baden, Switzerland",
        "col2": "1984-05-10",
        "col3": "1984-05-10"
    },
    {
        "col0": "T. Brewster",
        "col1": "Aberdeen",
        "col2": "1974-04-10",
        "col3": "1974-04-10"
    },
    {
        "col0": "T. Birr",
        "col1": "Blaine, Minnesota",
        "col2": "1968-04-20",
        "col3": "1968-04-20"
    },
    {
        "col0": "T. Steuber",
        "col1": "Edmonton",
        "col2": "1977-07-17",
        "col3": "1977-07-17"
    },
    {
        "col0": "T. Sallows",
        "col1": "Grande Prairie, Alberta",
        "col2": "1984-03-03",
        "col3": "1984-03-03"
    },
    {
        "col0": "T. Lips",
        "col1": "Baden",
        "col2": "1970-02-27",
        "col3": "1970-02-27"
    },
    {
        "col0": "T. Dufour",
        "col1": "Chamonix",
        "col2": "1973-2-12",
        "col3": "1973-2-12"
    },
    {
        "col0": "T. Meek",
        "col1": "Calgary",
        "col2": "1962-11-03",
        "col3": "1962-11-03"
    },
    {
        "col0": "T. Udle",
        "col1": "Halifax, Nova Scotia",
        "col2": "1981-04-11",
        "col3": "1981-04-11"
    },
    {
        "col0": "T. Appelman",
        "col1": "Alberta",
        "col2": "1980-08-27",
        "col3": "1980-08-27"
    },
    {
        "col0": "T. Peterson",
        "col1": "St. Paul, Minnesota",
        "col2": "1991-05-28",
        "col3": "1991-05-28"
    },
    {
        "col0": "T. Peterson",
        "col1": "St. Paul, Minnesota",
        "col2": "1989-03-06",
        "col3": "1989-03-06"
    },
    {
        "col0": "S. Michel",
        "col1": "Adelboden",
        "col2": "1988-03-30",
        "col3": "1988-03-30"
    },
    {
        "col0": "S. Birt",
        "col1": "Charlottetown",
        "col2": "1981-10-02",
        "col3": "1981-10-02"
    },
    {
        "col0": "S. O'Connor",
        "col1": "Calgary",
        "col2": "1977-05-03",
        "col3": "1977-05-03"
    },
    {
        "col0": "S. McInnis",
        "col1": "Charlottetown",
        "col2": "1963-06-18",
        "col3": "1963-06-18"
    },
    {
        "col0": "S. Laycock",
        "col1": "Saskatoon, Saskatchewan",
        "col2": "1982-10-29",
        "col3": "1982-10-29"
    },
    {
        "col0": "S. Bice",
        "col1": "Sarnia, Ontario",
        "col2": "1981-10-05",
        "col3": "1981-10-05"
    },
    {
        "col0": "S. Schmidt",
        "col1": "Regina, Saskatchewan",
        "col2": "1989-11-01",
        "col3": "1989-11-01"
    },
    {
        "col0": "S. Hanna",
        "col1": "Ottawa",
        "col2": "1982-07-31",
        "col3": "1982-07-31"
    },
    {
        "col0": "S. Heiss",
        "col1": "Garmisch-Partenkirchen",
        "col2": "1993-01-15",
        "col3": "1993-01-15"
    },
    {
        "col0": "S. Lawton",
        "col1": "Saskatoon",
        "col2": "1980-06-20",
        "col3": "1980-06-20"
    },
    {
        "col0": "S. Clark",
        "col1": "Prince Edward Island",
        "col2": "1980-11-10",
        "col3": "1980-11-10"
    },
    {
        "col0": "S. Curtis",
        "col1": "St. John's, Newfoundland and Labrador",
        "col2": "1986-05-27",
        "col3": "1986-05-27"
    },
    {
        "col0": "S. Barbour",
        "col1": "Yellowknife",
        "col2": "1979-07-04",
        "col3": "1979-07-04"
    },
    {
        "col0": "S. Mi-sung",
        "col1": "Gyeonggi-do",
        "col2": "1978-04-15",
        "col3": "1978-04-15"
    },
    {
        "col0": "S. Middaugh",
        "col1": "Coldwater, Ontario",
        "col2": "1966-10-11",
        "col3": "1966-10-11"
    },
    {
        "col0": "S. Singler",
        "col1": "Saskatoon, Saskatchewan",
        "col2": "1974-02-19",
        "col3": "1974-02-19"
    },
    {
        "col0": "S. Bradley",
        "col1": "Charlottetown",
        "col2": "1970-11-17",
        "col3": "1970-11-17"
    },
    {
        "col0": "S. Hardy",
        "col1": "St. John's, Newfoundland and Labrador",
        "col2": "1982-05-19",
        "col3": "1982-05-19"
    },
    {
        "col0": "S. Adams",
        "col1": "Halifax, Nova Scotia",
        "col2": "1974-04-04",
        "col3": "1974-04-04"
    },
    {
        "col0": "S. Cormier",
        "col1": "Yellowknife, Northwest Territories",
        "col2": "1964-07-08",
        "col3": "1964-07-08"
    },
    {
        "col0": "S. Kleibrink",
        "col1": "Coaldale, Alberta",
        "col2": "1968-10-07",
        "col3": "1968-10-07"
    },
    {
        "col0": "S. Beighton",
        "col1": "Blaine, Minnesota",
        "col2": "1988-11-22",
        "col3": "1988-11-22"
    },
    {
        "col0": "S. Becker",
        "col1": "New Zealand",
        "col2": "1975-07-07",
        "col3": "1975-07-07"
    },
    {
        "col0": "S. Pfeifer",
        "col1": "Edmonton",
        "col2": "1977-01-05",
        "col3": "1977-01-05"
    },
    {
        "col0": "S. Jones",
        "col1": "Moncton, New Brunswick",
        "col2": "1971-11-4",
        "col3": "1971-11-4"
    },
    {
        "col0": "S. Howard",
        "col1": "Etobicoke, Ontario",
        "col2": "1990-07-11",
        "col3": "1990-07-11"
    },
    {
        "col0": "S. Bitz",
        "col1": "Regina, Saskatchewan",
        "col2": "1973-10-29",
        "col3": "1973-10-29"
    },
    {
        "col0": "S. Bailey",
        "col1": "Ingersoll, Ontario",
        "col2": "1970-03-12",
        "col3": "1970-03-12"
    },
    {
        "col0": "S. Andrews",
        "col1": "Aberdeen",
        "col2": "1989-06-14",
        "col3": "1989-06-14"
    },
    {
        "col0": "S. Fujisawa",
        "col1": "Japan",
        "col2": "1991-05-24",
        "col3": "1991-05-24"
    },
    {
        "col0": "S. Reid",
        "col1": "Scotland",
        "col2": "1985-11-28",
        "col3": "1985-11-28"
    },
    {
        "col0": "S. Pyke",
        "col1": "Kelowna Curling Club",
        "col2": "1987-01-13",
        "col3": "1987-01-13"
    },
    {
        "col0": "S. Fullerton",
        "col1": "Charlottetown",
        "col2": "1991-03-08",
        "col3": "1991-03-08"
    },
    {
        "col0": "S. Carlsson",
        "col1": "Karlstad",
        "col2": "1986-12-26",
        "col3": "1986-12-26"
    },
    {
        "col0": "S. Preston",
        "col1": "Calgary",
        "col2": "1984-12-15",
        "col3": "1984-12-15"
    },
    {
        "col0": "R. Kuhn",
        "col1": "Vernon, British Columbia",
        "col2": "1982-12-26",
        "col3": "1982-12-26"
    }
]