[
    {
        "col0": "Bole",
        "col1": "0",
        "col2": "53",
        "col3": "51"
    },
    {
        "col0": "Blue-green",
        "col1": "93",
        "col2": "27",
        "col3": "93"
    },
    {
        "col0": "Blue-gray",
        "col1": "50",
        "col2": "20",
        "col3": "50"
    },
    {
        "col0": "Bleu de France",
        "col1": "79",
        "col2": "9",
        "col3": "79"
    },
    {
        "col0": "Bistre",
        "col1": "0",
        "col2": "76",
        "col3": "49"
    },
    {
        "col0": "Beige",
        "col1": "0",
        "col2": "4",
        "col3": "10"
    },
    {
        "col0": "Baker-Miller Pink",
        "col1": "0",
        "col2": "0",
        "col3": "43"
    },
    {
        "col0": "Baby blue",
        "col1": "43",
        "col2": "6",
        "col3": "43"
    },
    {
        "col0": "Aqua",
        "col1": "100",
        "col2": "0",
        "col3": "100"
    },
    {
        "col0": "Apricot",
        "col1": "0",
        "col2": "16",
        "col3": "30"
    },
    {
        "col0": "Android green",
        "col1": "17",
        "col2": "22",
        "col3": "71"
    },
    {
        "col0": "Amber",
        "col1": "0",
        "col2": "0",
        "col3": "100"
    },
    {
        "col0": "Amaranth",
        "col1": "0",
        "col2": "5",
        "col3": "35"
    },
    {
        "col0": "Alizarin crimson",
        "col1": "0",
        "col2": "11",
        "col3": "83"
    },
    {
        "col0": "Alice blue",
        "col1": "6",
        "col2": "0",
        "col3": "6"
    },
    {
        "col0": "Acid green",
        "col1": "8",
        "col2": "25",
        "col3": "86"
    }
]