[
    {
        "col0": "R. Peeters",
        "col1": "Telenet-Fidea",
        "col2": "1985-07-02",
        "col3": "1985-07-02"
    },
    {
        "col0": "R. Britton",
        "col1": "Team SmartStop",
        "col2": "1984-09-22",
        "col3": "1984-09-22"
    },
    {
        "col0": "R. Zampilli",
        "col1": "Amore & Vita-Selle SMP",
        "col2": "1984-03-07",
        "col3": "1984-03-07"
    },
    {
        "col0": "R. Rogers",
        "col1": "Attaque Team Gusto",
        "col2": "1978-04-15",
        "col3": "1978-04-15"
    },
    {
        "col0": "R. Lang",
        "col1": "JLT-Condor",
        "col2": "1989-02-23",
        "col3": "1989-02-23"
    },
    {
        "col0": "R. Stacchiotti",
        "col1": "Nippo-Vini Fantini",
        "col2": "1991-11-08",
        "col3": "1991-11-08"
    },
    {
        "col0": "R. Ricco",
        "col1": "Meridiana-Kamen",
        "col2": "1983-09-01",
        "col3": "1983-09-01"
    },
    {
        "col0": "R. Minali",
        "col1": "Team Colpack",
        "col2": "1995-04-19",
        "col3": "1995-04-19"
    },
    {
        "col0": "R. G. Ambroa",
        "col1": "Kinan Cycling Team",
        "col2": "1988-02-26",
        "col3": "1988-02-26"
    },
    {
        "col0": "R. Lloyd",
        "col1": "NFTO",
        "col2": "1989-01-23",
        "col3": "1989-01-23"
    },
    {
        "col0": "R. t. Brake",
        "col1": "Metec-TKH Continental Cyclingteam",
        "col2": "1988-11-29",
        "col3": "1988-11-29"
    },
    {
        "col0": "R. Honig",
        "col1": "Team Roompot",
        "col2": "1983-10-28",
        "col3": "1983-10-28"
    },
    {
        "col0": "R. Gough",
        "col1": "Avanti Racing Team",
        "col2": "1996-10-06",
        "col3": "1996-10-06"
    },
    {
        "col0": "R. Halilaj",
        "col1": "Amore & Vita-Selle SMP",
        "col2": "1989-08-31",
        "col3": "1989-08-31"
    },
    {
        "col0": "R. Bouhanni",
        "col1": "Cofidis",
        "col2": "1996-02-24",
        "col3": "1996-02-24"
    },
    {
        "col0": "R. Margaliot",
        "col1": "Cycling Academy Team",
        "col2": "1988-07-18",
        "col3": "1988-07-18"
    },
    {
        "col0": "R. Matzka",
        "col1": "Team NetApp-Endura",
        "col2": "1989-08-24",
        "col3": "1989-08-24"
    },
    {
        "col0": "R. Ememi",
        "col1": "Pishgaman-Giant Team",
        "col2": "1981-2-27",
        "col3": "1981-2-27"
    },
    {
        "col0": "R. Montiel",
        "col1": "Orgullo Antioqueno",
        "col2": "1981-06-28",
        "col3": "1981-06-28"
    },
    {
        "col0": "R. Infantino",
        "col1": "EPM-UNE-Area Metropolitana",
        "col2": "1984-08-28",
        "col3": "1984-08-28"
    },
    {
        "col0": "R. Heal",
        "col1": "UnitedHealthcare Women's Team",
        "col2": "1973-04-01",
        "col3": "1973-04-01"
    },
    {
        "col0": "Q. Pacher",
        "col1": "Delko-Marseille Provence KTM",
        "col2": "1992-01-06",
        "col3": "1992-01-06"
    },
    {
        "col0": "Q. Jauregui",
        "col1": "Ag2r-La Mondiale",
        "col2": "1994-04-22",
        "col3": "1994-04-22"
    },
    {
        "col0": "P. Roglic",
        "col1": "Team LottoNL-Jumbo",
        "col2": "1989-10-29",
        "col3": "1989-10-29"
    },
    {
        "col0": "P. Schlechter",
        "col1": "Leopard Development Team",
        "col2": "1990-10-26",
        "col3": "1990-10-26"
    },
    {
        "col0": "P. Mazur",
        "col1": "CCC Polsat Polkowice",
        "col2": "1982-12-02",
        "col3": "1982-12-02"
    },
    {
        "col0": "P. Naud",
        "col1": "Rally Cycling",
        "col2": "1991-01-26",
        "col3": "1991-01-26"
    },
    {
        "col0": "P. Latour",
        "col1": "Ag2r-La Mondiale",
        "col2": "1993-10-12",
        "col3": "1993-10-12"
    },
    {
        "col0": "P. Lecuisinier",
        "col1": "FDJ.fr",
        "col2": "1993-06-30",
        "col3": "1993-06-30"
    },
    {
        "col0": "P. Lindau",
        "col1": "Team Joker",
        "col2": "1991-08-18",
        "col3": "1991-08-18"
    },
    {
        "col0": "P. Schulting",
        "col1": "Parkhotel Valkenburg Continental Team",
        "col2": "1987-08-19",
        "col3": "1987-08-19"
    },
    {
        "col0": "P. Lenderink",
        "col1": "Rabobank Development Team",
        "col2": "1996-02-11",
        "col3": "1996-02-11"
    },
    {
        "col0": "P. Pruus",
        "col1": "Rietumu-Delfin",
        "col2": "1989-07-16",
        "col3": "1989-07-16"
    },
    {
        "col0": "P. A. Nicacio",
        "col1": "Scott-Marcondes Cesar-Sao Jose dos Campos",
        "col2": "1981-10-13",
        "col3": "1981-10-13"
    },
    {
        "col0": "P. Cieslik",
        "col1": "Verva ActiveJet",
        "col2": "1986-04-12",
        "col3": "1986-04-12"
    },
    {
        "col0": "P. Charucki",
        "col1": "CCC Polsat Polkowice",
        "col2": "1988-10-14",
        "col3": "1988-10-14"
    },
    {
        "col0": "P. Bernas",
        "col1": "ActiveJet Team",
        "col2": "1990-05-24",
        "col3": "1990-05-24"
    },
    {
        "col0": "P. Cieslik",
        "col1": "Verva ActiveJet",
        "col2": "1986-04-12",
        "col3": "1986-04-12"
    },
    {
        "col0": "P. Charucki",
        "col1": "CCC Polsat Polkowice",
        "col2": "1988-10-14",
        "col3": "1988-10-14"
    },
    {
        "col0": "P. Bernas",
        "col1": "ActiveJet Team",
        "col2": "1990-05-24",
        "col3": "1990-05-24"
    },
    {
        "col0": "P. Siskevicius",
        "col1": "Staki-Baltik Vairas",
        "col2": "1993-09-07",
        "col3": "1993-09-07"
    },
    {
        "col0": "P. Manning",
        "col1": "Landbouwkrediet-Tonissteiner",
        "col2": "1974-11-06",
        "col3": "1974-11-06"
    },
    {
        "col0": "P. Tybor",
        "col1": "Dukla Banska Bystrica",
        "col2": "1987-09-16",
        "col3": "1987-09-16"
    },
    {
        "col0": "P. Shaw",
        "col1": "Avanti IsoWhey Sports",
        "col2": "1986-02-19",
        "col3": "1986-02-19"
    },
    {
        "col0": "P. Lane",
        "col1": "Avanti IsoWhey Sports",
        "col2": "1991-08-28",
        "col3": "1991-08-28"
    },
    {
        "col0": "P. Clausen",
        "col1": "Riwal Platform Cycling Team",
        "col2": "1990-07-02",
        "col3": "1990-07-02"
    },
    {
        "col0": "P. Ackermann",
        "col1": "Rad-Net Rose Team",
        "col2": "1994-01-17",
        "col3": "1994-01-17"
    },
    {
        "col0": "P. Sang-hoon",
        "col1": "Seoul Cycling Team",
        "col2": "1993-03-13",
        "col3": "1993-03-13"
    },
    {
        "col0": "P. Sang-hong",
        "col1": "RTS-Santic Racing Team",
        "col2": "1989-03-29",
        "col3": "1989-03-29"
    },
    {
        "col0": "P. Lanfranchi",
        "col1": "Retired",
        "col2": "1968-07-25",
        "col3": "1968-07-25"
    },
    {
        "col0": "P. Urtasun",
        "col1": "Funvic Soul Cycles-Carrefour",
        "col2": "1980-03-29",
        "col3": "1980-03-29"
    },
    {
        "col0": "O. Bulgarelli",
        "col1": "Funvic Soul Cycles-Carrefour",
        "col2": "1984-10-15",
        "col3": "1984-10-15"
    },
    {
        "col0": "O. Vergaerde",
        "col1": "Topsport Vlaanderen-Baloise",
        "col2": "1994-07-15",
        "col3": "1994-07-15"
    },
    {
        "col0": "O. Bulgarelli",
        "col1": "Funvic Soul Cycles-Carrefour",
        "col2": "1984-10-15",
        "col3": "1984-10-15"
    },
    {
        "col0": "O. Riesebeek",
        "col1": "Metec-TKH Continental Cyclingteam",
        "col2": "1992-12-23",
        "col3": "1992-12-23"
    },
    {
        "col0": "O. Pelliccioli",
        "col1": "Colombia",
        "col2": "1965-07-01",
        "col3": "1965-07-01"
    },
    {
        "col0": "O. Landa",
        "col1": "Team Coop-Oster Hus",
        "col2": "1993-08-15",
        "col3": "1993-08-15"
    },
    {
        "col0": "O. Clark",
        "col1": "Hincapie Racing",
        "col2": "1989-02-20",
        "col3": "1989-02-20"
    },
    {
        "col0": "O. Balkan",
        "col1": "Brisaspor",
        "col2": "1996-03-10",
        "col3": "1996-03-10"
    },
    {
        "col0": "O. Pardini",
        "col1": "Wallonie-Bruxelles",
        "col2": "1985-07-30",
        "col3": "1985-07-30"
    }
]