[
    {
        "col0": "T. Bennett",
        "col1": "234-105 ()",
        "col2": "Tied single-season win records at bothVirginiaandWashington State",
        "col3": "165-72 ()"
    },
    {
        "col0": "T. Gurnett",
        "col1": "410-131-62",
        "col2": "400 wins",
        "col3": "410-131-62"
    },
    {
        "col0": "S. Johnson",
        "col1": "140-146 ()",
        "col2": "*Ivy League single-game record most three point shots with no misses (6, 1997-)",
        "col3": "74-93 ()"
    },
    {
        "col0": "S. Montgomery",
        "col1": "985-506-2",
        "col2": "Most wins in SIUE history (957)",
        "col3": "28-26 (2016)"
    },
    {
        "col0": "R. Broadway",
        "col1": "110-43",
        "col2": "CIAACoach of the Year (2006)",
        "col3": "42-20"
    },
    {
        "col0": "K. Allain",
        "col1": "173-105-29",
        "col2": "*Most wins in one season inYalehistory (28)",
        "col3": "173-105-29"
    },
    {
        "col0": "G. Patton",
        "col1": "759-343 (2004?)",
        "col2": "(coaching records; e.g. all-time wins, etc.)",
        "col3": "0-0"
    },
    {
        "col0": "F. Leoni",
        "col1": "510-581-4",
        "col2": "Martha's Vineyard Sharks FCBL Regular Season Champions 35-21 (2015)",
        "col3": "48-60"
    },
    {
        "col0": "B. Schneider",
        "col1": "407-163 ()",
        "col2": "Most wins in Emporia State history (306)",
        "col3": "6-25"
    },
    {
        "col0": "B. Wallace",
        "col1": "160-150-1",
        "col2": "Most wins in GSC history (141)",
        "col3": "115-49-1"
    },
    {
        "col0": "B. Carmody",
        "col1": "299-265",
        "col2": "Ivy League career winning percentage  (min 4 seasons, 78.6% -- 92-25,Princeton, 1996-2000)",
        "col3": "15-20"
    },
    {
        "col0": "A. Talley",
        "col1": "254-154-2",
        "col2": "Winningest coach in CAA history",
        "col3": "226-135-1"
    }
]