[
    {
        "col0": "French submarine Fresnel",
        "col1": "1905-10-08",
        "col2": "404000000",
        "col3": "1908-06-16"
    },
    {
        "col0": "French submarine Foucault",
        "col1": "1906-11-01",
        "col2": "397000000",
        "col3": "1912-06-15"
    },
    {
        "col0": "French submarine Dupuy de LA'me",
        "col1": "1913-09-01",
        "col2": "853000000",
        "col3": "1915-09-09"
    },
    {
        "col0": "French submarine Diane",
        "col1": "1913-08-16",
        "col2": "673000000",
        "col3": "1916-09-30"
    },
    {
        "col0": "French submarine Daphne",
        "col1": "1913-08-16",
        "col2": "673000000",
        "col3": "1915-10-25"
    },
    {
        "col0": "French submarine Cugnot",
        "col1": "1906-10-30",
        "col2": "404000000",
        "col3": "1909-10-12"
    },
    {
        "col0": "French submarine Casabianca",
        "col1": "1981-09-19",
        "col2": "2670000000",
        "col3": "1984-12-22"
    },
    {
        "col0": "French submarine Bernouilli",
        "col1": "1906-11-01",
        "col2": "397000000",
        "col3": "1911-06-01"
    },
    {
        "col0": "French submarine Bellone",
        "col1": "1913-04-23",
        "col2": "540000000",
        "col3": "1914-07-08"
    },
    {
        "col0": "French submarine Archimede",
        "col1": "1908-01-02",
        "col2": "580000000",
        "col3": "1909-08-04"
    },
    {
        "col0": "French submarine Amiral Bourgois",
        "col1": "1908-05-19",
        "col2": "580000000",
        "col3": "1912-11-25"
    },
    {
        "col0": "French ship Mistral",
        "col1": "2003-07-10",
        "col2": "16500000000",
        "col3": "2004-10-06"
    },
    {
        "col0": "French ship Laplace",
        "col1": "1987-09-01",
        "col2": "850000000",
        "col3": "1988-11-09"
    },
    {
        "col0": "French ship Dixmude",
        "col1": "2010-01-20",
        "col2": "16500000000",
        "col3": "2010-09-17"
    },
    {
        "col0": "French minelaying cruiser Pluton",
        "col1": "1928-04-16",
        "col2": "5300000000",
        "col3": "1929-04-10"
    },
    {
        "col0": "French ironclad Victorieuse",
        "col1": "1869-08-05",
        "col2": "4150000000",
        "col3": "1875-11-18"
    },
    {
        "col0": "French ironclad Richelieu",
        "col1": "1869-12-01",
        "col2": "8984000000",
        "col3": "1873-12-03"
    },
    {
        "col0": "French ironclad Redoutable",
        "col1": "1873-07-18",
        "col2": "8858020000",
        "col3": "1876-09-18"
    },
    {
        "col0": "French ironclad Ocean",
        "col1": "1865-04-18",
        "col2": "7749000000",
        "col3": "1868-10-15"
    },
    {
        "col0": "French ironclad Montcalm",
        "col1": "1865-10-26",
        "col2": "3889000000",
        "col3": "1868-10-16"
    },
    {
        "col0": "French ironclad Marceau",
        "col1": "1882-11-28",
        "col2": "10850000000",
        "col3": "1887-05-24"
    },
    {
        "col0": "French ironclad La Galissonniere",
        "col1": "1868-06-22",
        "col2": "4654000000",
        "col3": "1872-05-07"
    },
    {
        "col0": "French ironclad Formidable",
        "col1": "1879-01-10",
        "col2": "12350000000",
        "col3": "1885-04-16"
    },
    {
        "col0": "French ironclad Couronne",
        "col1": "1859-02-14",
        "col2": "6428000000",
        "col3": "1861-03-28"
    },
    {
        "col0": "French ironclad Colbert",
        "col1": "1869-05-07",
        "col2": "8617000000",
        "col3": "1875-09-15"
    },
    {
        "col0": "French ironclad Alma",
        "col1": "1865-10-01",
        "col2": "3778000000",
        "col3": "1867-11-26"
    },
    {
        "col0": "French frigate Primauguet",
        "col1": "1981-11-17",
        "col2": "3680000000",
        "col3": "1984-03-17"
    },
    {
        "col0": "French frigate Montcalm",
        "col1": "1975-12-05",
        "col2": "3550000000",
        "col3": "1980-05-31"
    },
    {
        "col0": "French frigate Latouche-Treville",
        "col1": "1984-02-15",
        "col2": "3550000000",
        "col3": "1988-03-19"
    },
    {
        "col0": "French frigate La Motte-Picquet",
        "col1": "1982-02-12",
        "col2": "3550000000",
        "col3": "1985-02-06"
    },
    {
        "col0": "French frigate Jean Bart",
        "col1": "1986-02-12",
        "col2": "4500000000",
        "col3": "1988-03-19"
    },
    {
        "col0": "French frigate Georges Leygues",
        "col1": "1974-09-16",
        "col2": "3550000000",
        "col3": "1976-12-17"
    },
    {
        "col0": "French frigate Dupleix",
        "col1": "1975-10-17",
        "col2": "3550000000",
        "col3": "1978-12-02"
    },
    {
        "col0": "French frigate Cassard",
        "col1": "1982-09-03",
        "col2": "4500000000",
        "col3": "1985-02-06"
    },
    {
        "col0": "French destroyer Epee",
        "col1": "1936-10-15",
        "col2": "2577000000",
        "col3": "1938-10-26"
    },
    {
        "col0": "French destroyer Typhon",
        "col1": "1923-09-01",
        "col2": "1320000000",
        "col3": "1925-05-22"
    },
    {
        "col0": "French destroyer Tramontane",
        "col1": "1923-06-29",
        "col2": "1320000000",
        "col3": "1924-11-29"
    },
    {
        "col0": "French destroyer Tornade",
        "col1": "1923-04-25",
        "col2": "1320000000",
        "col3": "1925-03-12"
    },
    {
        "col0": "French destroyer Tigre",
        "col1": "1923-09-18",
        "col2": "2126000000",
        "col3": "1924-08-02"
    },
    {
        "col0": "French destroyer Tempete",
        "col1": "1923-12-03",
        "col2": "1320000000",
        "col3": "1925-02-21"
    },
    {
        "col0": "French destroyer Siroco",
        "col1": "1937-05-24",
        "col2": "2577000000",
        "col3": "1939-11-14"
    },
    {
        "col0": "French destroyer Siroco",
        "col1": "1924-03-15",
        "col2": "1320000000",
        "col3": "1925-10-03"
    },
    {
        "col0": "French destroyer Simoun",
        "col1": "1923-08-08",
        "col2": "1320000000",
        "col3": "1924-06-03"
    },
    {
        "col0": "French destroyer Rapiere",
        "col1": "1900-01-02",
        "col2": "306000000",
        "col3": "1901-07-16"
    },
    {
        "col0": "French destroyer Panthere",
        "col1": "1923-12-23",
        "col2": "2126000000",
        "col3": "1924-10-27"
    },
    {
        "col0": "French destroyer Ouragan",
        "col1": "1923-09-07",
        "col2": "1320000000",
        "col3": "1924-12-06"
    },
    {
        "col0": "French destroyer Orage",
        "col1": "1923-08-20",
        "col2": "1320000000",
        "col3": "1924-08-30"
    },
    {
        "col0": "French destroyer Mecanicien Principal Lestin",
        "col1": "1913-11-12",
        "col2": "850000000",
        "col3": "1915-05-15"
    },
    {
        "col0": "French destroyer Mistral",
        "col1": "1923-11-28",
        "col2": "1320000000",
        "col3": "1925-06-06"
    },
    {
        "col0": "French destroyer Mecanicien Principal Lestin",
        "col1": "1913-11-12",
        "col2": "850000000",
        "col3": "1915-05-15"
    },
    {
        "col0": "French destroyer Leopard",
        "col1": "1923-08-14",
        "col2": "2126000000",
        "col3": "1924-09-29"
    },
    {
        "col0": "French destroyer Lynx",
        "col1": "1924-01-14",
        "col2": "2126000000",
        "col3": "1925-02-24"
    },
    {
        "col0": "French destroyer Le Flibustier",
        "col1": "1938-03-11",
        "col2": "2577000000",
        "col3": "1939-12-19"
    },
    {
        "col0": "French destroyer Lansquenet",
        "col1": "1936-12-17",
        "col2": "2577000000",
        "col3": "1939-05-20"
    },
    {
        "col0": "French destroyer L'Adroit",
        "col1": "1925-04-26",
        "col2": "1380000000",
        "col3": "1927-04-01"
    },
    {
        "col0": "French destroyer Leopard",
        "col1": "1923-08-14",
        "col2": "2126000000",
        "col3": "1924-09-29"
    },
    {
        "col0": "French destroyer Jaguar",
        "col1": "1922-08-24",
        "col2": "2126000000",
        "col3": "1923-11-17"
    },
    {
        "col0": "French destroyer Forbin",
        "col1": "1927-06-29",
        "col2": "1380000000",
        "col3": "1928-07-17"
    },
    {
        "col0": "French destroyer Fleuret",
        "col1": "1936-08-18",
        "col2": "2577000000",
        "col3": "1938-07-28"
    },
    {
        "col0": "French destroyer Flamberge",
        "col1": "1902-06-15",
        "col2": "306000000",
        "col3": "1900-10-28"
    },
    {
        "col0": "French destroyer Enseigne Roux",
        "col1": "1913-12-13",
        "col2": "850000000",
        "col3": "1915-07-13"
    },
    {
        "col0": "French destroyer Cyclone",
        "col1": "1923-09-29",
        "col2": "1320000000",
        "col3": "1925-01-24"
    },
    {
        "col0": "French destroyer Casque",
        "col1": "1936-11-30",
        "col2": "2577000000",
        "col3": "1938-11-02"
    },
    {
        "col0": "French destroyer Boulonnais",
        "col1": "1926-05-04",
        "col2": "1380000000",
        "col3": "1927-06-01"
    },
    {
        "col0": "French destroyer Bordelais",
        "col1": "1926-11-19",
        "col2": "1380000000",
        "col3": "1928-05-23"
    },
    {
        "col0": "French destroyer Basque",
        "col1": "1926-09-18",
        "col2": "1380000000",
        "col3": "1929-05-25"
    },
    {
        "col0": "French destroyer Aconit",
        "col1": "1968-03-22",
        "col2": "3135000000",
        "col3": "1970-03-07"
    },
    {
        "col0": "French destroyer Epee",
        "col1": "1936-10-15",
        "col2": "2577000000",
        "col3": "1938-10-26"
    },
    {
        "col0": "French cruiser Sully",
        "col1": "1899-05-24",
        "col2": "10014000000",
        "col3": "1901-06-04"
    },
    {
        "col0": "French cruiser Montcalm",
        "col1": "1898-09-27",
        "col2": "9177000000",
        "col3": "1900-03-27"
    },
    {
        "col0": "French cruiser Jurien de la Graviere",
        "col1": "1897-11-15",
        "col2": "5600000000",
        "col3": "1899-06-26"
    },
    {
        "col0": "French cruiser Gloire",
        "col1": "1899-09-05",
        "col2": "10212000000",
        "col3": "1900-06-27"
    },
    {
        "col0": "French cruiser Ernest Renan",
        "col1": "1903-10-01",
        "col2": "13644000000",
        "col3": "1906-03-09"
    },
    {
        "col0": "French cruiser Destrees",
        "col1": "1897-05-03",
        "col2": "2500000000",
        "col3": "1897-10-27"
    },
    {
        "col0": "French cruiser Conde",
        "col1": "1901-03-20",
        "col2": "10223000000",
        "col3": "1902-03-12"
    },
    {
        "col0": "French cruiser Chateaurenault",
        "col1": "1895-10-12",
        "col2": "8200000000",
        "col3": "1898-05-12"
    },
    {
        "col0": "French cruiser Amiral Aube",
        "col1": "1899-08-09",
        "col2": "9534000000",
        "col3": "1902-05-09"
    },
    {
        "col0": "French battleship Voltaire",
        "col1": "1907-07-20",
        "col2": "18318000000",
        "col3": "1909-01-16"
    },
    {
        "col0": "French battleship Saint Louis",
        "col1": "1893-09-30",
        "col2": "11275000000",
        "col3": "1896-09-02"
    },
    {
        "col0": "French battleship Mirabeau",
        "col1": "1908-05-04",
        "col2": "18318000000",
        "col3": "1909-10-28"
    },
    {
        "col0": "French battleship Jean Bart",
        "col1": "1910-11-15",
        "col2": "23475000000",
        "col3": "1911-09-23"
    },
    {
        "col0": "French battleship Iena",
        "col1": "1898-01-15",
        "col2": "11688000000",
        "col3": "1898-09-01"
    },
    {
        "col0": "French battleship France",
        "col1": "1911-11-30",
        "col2": "23475000000",
        "col3": "1912-11-07"
    },
    {
        "col0": "French battleship Diderot",
        "col1": "1907-10-20",
        "col2": "18318000000",
        "col3": "1909-04-19"
    },
    {
        "col0": "French battleship Condorcet",
        "col1": "1907-08-23",
        "col2": "18318000000",
        "col3": "1909-04-20"
    }
]