[
    {
        "col0": "D. D. Glover",
        "col1": "Arkansas",
        "col2": "R. W. Glover",
        "col3": "1868-01-18"
    },
    {
        "col0": "C. C. Esty",
        "col1": "Framingham, Massachusetts",
        "col2": "A. R. Esty",
        "col3": "1824-12-26"
    },
    {
        "col0": "C. Ogle",
        "col1": "Pennsylvania",
        "col2": "A. Ogle",
        "col3": "1798-1-1"
    },
    {
        "col0": "C. H. Atherton",
        "col1": "New Hampshire",
        "col2": "W. Gordon",
        "col3": "1773-08-14"
    },
    {
        "col0": "C. G. DeWitt",
        "col1": "New York",
        "col2": "C. DeWitt",
        "col3": "1789-11-07"
    },
    {
        "col0": "C. A. Eaton",
        "col1": "Washington, D.C.",
        "col2": "C. S. Eaton",
        "col3": "1868-03-29"
    },
    {
        "col0": "B. Brown",
        "col1": "Maine",
        "col2": "J. Brown",
        "col3": "1756-09-23"
    },
    {
        "col0": "A. Frank",
        "col1": "New York City",
        "col2": "W. Patterson",
        "col3": "1826-07-17"
    },
    {
        "col0": "A. Livermore",
        "col1": "New Hampshire",
        "col2": "S. Livermore",
        "col3": "1766-07-29"
    },
    {
        "col0": "Alphonzo E. Bell, Jr.",
        "col1": "Santa Monica, California",
        "col2": "E. Roosevelt",
        "col3": "1914-09-19"
    },
    {
        "col0": "Aaron Van Schaick Cochrane",
        "col1": "New York",
        "col2": "Isaac W. Van Schaick",
        "col3": "1858-03-14"
    },
    {
        "col0": "A. S. J. Carnahan",
        "col1": "Rochester, Minnesota",
        "col2": "J. Carnahan",
        "col3": "1897-01-09"
    }
]