[
    {
        "col0": "Churchville Presbyterian Church",
        "col1": "N. &. Neilson",
        "col2": "86001733",
        "col3": "18210"
    },
    {
        "col0": "Churchill Public School",
        "col1": "W. Dubois",
        "col2": "5000704",
        "col3": "6474"
    },
    {
        "col0": "Church of the Redeemer",
        "col1": "H. Louis Duhring, Jr.",
        "col2": "92001179",
        "col3": "2428"
    },
    {
        "col0": "Church of the Presidents",
        "col1": "W. A. Potter",
        "col2": "76001169",
        "col3": "404"
    },
    {
        "col0": "Church of the New Jerusalem",
        "col1": "C. H. Kimball",
        "col2": "86001274",
        "col3": "2023"
    },
    {
        "col0": "Church of the Holy Trinity",
        "col1": "E. Jones",
        "col2": "78001633",
        "col3": "2023"
    },
    {
        "col0": "Church of the Holy Innocents",
        "col1": "H. Vaughan",
        "col2": "77000871",
        "col3": "3237"
    },
    {
        "col0": "Church of the Holy Communion",
        "col1": "J. C. Cady",
        "col2": "88000928",
        "col3": "6879"
    },
    {
        "col0": "Church of the Good Shepherd and Parish House",
        "col1": "E. T. Potter",
        "col2": "75001925",
        "col3": "36421"
    },
    {
        "col0": "Church of the Good Shepherd",
        "col1": "C. W. Bulger",
        "col2": "83003607",
        "col3": "4046"
    },
    {
        "col0": "Church of St. Thomas the Apostle",
        "col1": "J. J. Egan",
        "col2": "83003413",
        "col3": "1618"
    },
    {
        "col0": "Church of St. Joseph of Arimathea",
        "col1": "H. Upjohn",
        "col2": "1001439",
        "col3": "14568"
    },
    {
        "col0": "Church of St. Ignatius Loyola",
        "col1": "S. &. Ditmars",
        "col2": "80002679",
        "col3": "14163"
    },
    {
        "col0": "Church Park Historic District",
        "col1": "R. Upjohn",
        "col2": "80002735, 04000991",
        "col3": "4127793"
    },
    {
        "col0": "Church Hill North Historic District",
        "col1": "S. Sloan",
        "col2": "97000958 and 00000887",
        "col3": "149733"
    },
    {
        "col0": "Church Hill Grammar School",
        "col1": "William R. Walker & Son",
        "col2": "10000165",
        "col3": "1618"
    },
    {
        "col0": "Christopher Rhodes Greene House",
        "col1": "A. E. Stone",
        "col2": "7000891",
        "col3": "6070"
    },
    {
        "col0": "Christ Church",
        "col1": "R. M. Upjohn",
        "col2": "83001637",
        "col3": "4856"
    },
    {
        "col0": "Christ Church, Hyde Park",
        "col1": "R. A. Cram",
        "col2": "86000140",
        "col3": "2023"
    },
    {
        "col0": "Children's Museum of Evansville",
        "col1": "W. a. Weeks",
        "col2": "82000086",
        "col3": "4046"
    },
    {
        "col0": "Chicago, Milwaukee, St. Paul and Pacific Railroad Station",
        "col1": "J. U. Nettenstrom",
        "col2": "82002852",
        "col3": "4451"
    },
    {
        "col0": "Chicago, Milwaukee, St. Paul and Pacific Railroad: South Cle Elum Yard",
        "col1": "Chicago, Milwaukee, St. Paul and Pacific Railroad",
        "col2": "3000305",
        "col3": "97124"
    },
    {
        "col0": "Chesterwood",
        "col1": "D. C. French",
        "col2": "66000652",
        "col3": "522044"
    },
    {
        "col0": "Chester County Courthouse",
        "col1": "T. U. Walter",
        "col2": "72001109",
        "col3": "12140"
    },
    {
        "col0": "Cheekwood Botanical Garden and Museum of Art",
        "col1": "B. Fleming",
        "col2": "993",
        "col3": "28327"
    },
    {
        "col0": "Chaves County Courthouse",
        "col1": "I. H. Rapp",
        "col2": "87000892",
        "col3": "16187"
    },
    {
        "col0": "Chautauqua Institution",
        "col1": "L. Miller",
        "col2": "73001168",
        "col3": "8376992"
    },
    {
        "col0": "Chatter Creek Guard Station",
        "col1": "C. C. Corps",
        "col2": "86000812",
        "col3": "8093"
    },
    {
        "col0": "Chatham Village",
        "col1": "C. Stein",
        "col2": "98001372",
        "col3": "186155"
    },
    {
        "col0": "Chateau Crillon Apartment House",
        "col1": "H. Trumbauer",
        "col2": "78002443",
        "col3": "1214"
    },
    {
        "col0": "Chateau-sur-Mer",
        "col1": "R. M. Hunt",
        "col2": "68000002",
        "col3": "68796"
    },
    {
        "col0": "Charnwood Residential Historic District",
        "col1": "B. &. Klutz",
        "col2": "99001023",
        "col3": "240787"
    },
    {
        "col0": "Charlestown Heights",
        "col1": "F. L. Olmsted",
        "col2": "97000969",
        "col3": "15378"
    },
    {
        "col0": "Charles W. Stribley House",
        "col1": "Van Ryn & DeGelleke",
        "col2": "84003770",
        "col3": "8093"
    },
    {
        "col0": "Charles Sumner School",
        "col1": "A. Cluss",
        "col2": "79003150",
        "col3": "1214"
    },
    {
        "col0": "Charles River Reservation Parkways",
        "col1": "O. Brothers",
        "col2": "5001530",
        "col3": "263045"
    },
    {
        "col0": "Charles O. Boynton House",
        "col1": "G. O. Garnsey",
        "col2": "78003104",
        "col3": "400638"
    },
    {
        "col0": "Charles Morschauser House",
        "col1": "W. J. Beardsley",
        "col2": "14000487",
        "col3": "9793"
    },
    {
        "col0": "Charles M. Pratt House",
        "col1": "Charles and Henry Greene",
        "col2": "1227",
        "col3": "21853"
    },
    {
        "col0": "Charles J. Martin House",
        "col1": "W. C. Whitney",
        "col2": "78001541",
        "col3": "8093"
    },
    {
        "col0": "Charles H. Stickney House",
        "col1": "W. H. Wood",
        "col2": "85000232",
        "col3": "1618"
    },
    {
        "col0": "Charles H. Murphy Sr. House",
        "col1": "C. L. Thompson",
        "col2": "83001168",
        "col3": "24281"
    },
    {
        "col0": "Charles D. McIver School",
        "col1": "Starrett & Van Vleck",
        "col2": "92000177",
        "col3": "26304"
    },
    {
        "col0": "Charles B. Russell House",
        "col1": "S. Hannaford",
        "col2": "80003081",
        "col3": "4046"
    },
    {
        "col0": "Charles A. Miller House",
        "col1": "S. Hannaford",
        "col2": "80003064",
        "col3": "4046"
    },
    {
        "col0": "Charles A. Lindbergh State Park",
        "col1": "N. P. Service",
        "col2": "70000303",
        "col3": "36421"
    },
    {
        "col0": "Chapel Hill",
        "col1": "G. Howe",
        "col2": "4000846",
        "col3": "1930350"
    },
    {
        "col0": "Chanticleer Garden",
        "col1": "Zantzinger, Borie and Medary",
        "col2": "84003350",
        "col3": "109265"
    },
    {
        "col0": "Chalmers Knitting Mills",
        "col1": "C. R. Makepeace & Company",
        "col2": "10000028",
        "col3": "10117"
    },
    {
        "col0": "Central Square Historic District",
        "col1": "H. a. Richardson",
        "col2": "89001526",
        "col3": "25657"
    },
    {
        "col0": "Central Presbyterian Church",
        "col1": "W. H. Hayes",
        "col2": "83000926",
        "col3": "4046"
    },
    {
        "col0": "Central Library",
        "col1": "A. E. Doyle",
        "col2": "79002129",
        "col3": "4046"
    },
    {
        "col0": "Central Library",
        "col1": "R. F. Almirall",
        "col2": "1001446",
        "col3": "11331"
    }
]