[
    {
        "col0": "Zona orbicularis",
        "col1": "z_01",
        "col2": "92",
        "col3": "334",
        "col4": "12869758"
    },
    {
        "col0": "Ulnar carpal collateral ligament",
        "col1": "l_09",
        "col2": "86",
        "col3": "328",
        "col4": "12491929"
    },
    {
        "col0": "Trapezoid ligament",
        "col1": "l_09",
        "col2": "82",
        "col3": "315",
        "col4": "12493465"
    },
    {
        "col0": "Transverse ligament of knee",
        "col1": "l_09",
        "col2": "93",
        "col3": "343",
        "col4": "12493431"
    },
    {
        "col0": "Transverse ligament of atlas",
        "col1": "l_09",
        "col2": "73",
        "col3": "293",
        "col4": "12493416"
    },
    {
        "col0": "Transverse humeral ligament",
        "col1": "l_09",
        "col2": "83",
        "col3": "319",
        "col4": "12491258"
    },
    {
        "col0": "Transverse acetabular ligament",
        "col1": "l_09",
        "col2": "92",
        "col3": "336",
        "col4": "12493410"
    },
    {
        "col0": "Thyrohyoid membrane",
        "col1": "m_08",
        "col2": "236",
        "col3": "1076",
        "col4": "12522288"
    },
    {
        "col0": "Thyroepiglottic ligament",
        "col1": "l_09",
        "col2": "236",
        "col3": "1075",
        "col4": "12493357"
    },
    {
        "col0": "Temporomandibular ligament",
        "col1": "l_09",
        "col2": "75",
        "col3": "297",
        "col4": "12492499"
    },
    {
        "col0": "Supraspinous ligament",
        "col1": "l_09",
        "col2": "72",
        "col3": "290",
        "col4": "12493174"
    },
    {
        "col0": "Superior transverse scapular ligament",
        "col1": "l_09",
        "col2": "82",
        "col3": "317",
        "col4": "12493458"
    },
    {
        "col0": "Stylomandibular ligament",
        "col1": "l_09",
        "col2": "75",
        "col3": "298",
        "col4": "12493166"
    },
    {
        "col0": "Stylohyoid ligament",
        "col1": "l_09",
        "col2": "112",
        "col3": "392",
        "col4": "12493159"
    },
    {
        "col0": "Splenorenal ligament",
        "col1": "l_09",
        "col2": "278",
        "col3": "1283",
        "col4": "12493097"
    },
    {
        "col0": "Sphenomandibular ligament",
        "col1": "l_09",
        "col2": "75",
        "col3": "297",
        "col4": "12493077"
    },
    {
        "col0": "Round ligament of liver",
        "col1": "l_09",
        "col2": "250",
        "col3": "1188",
        "col4": "12493344"
    },
    {
        "col0": "Right triangular ligament",
        "col1": "l_09",
        "col2": "250",
        "col3": "1193",
        "col4": "12493472"
    },
    {
        "col0": "Radiate ligament of head of rib",
        "col1": "l_09",
        "col2": "76",
        "col3": "299",
        "col4": "12491767"
    },
    {
        "col0": "Radial collateral ligament of wrist joint",
        "col1": "l_09",
        "col2": "86",
        "col3": "328",
        "col4": "12491922"
    },
    {
        "col0": "Pubofemoral ligament",
        "col1": "l_09",
        "col2": "93",
        "col3": "335",
        "col4": "12492887"
    },
    {
        "col0": "Posterior tibiofibular ligament",
        "col1": "l_09",
        "col2": "94",
        "col3": "348",
        "col4": "12493388"
    },
    {
        "col0": "Posterior talofibular ligament",
        "col1": "l_09",
        "col2": "95",
        "col3": "351",
        "col4": "12493261"
    },
    {
        "col0": "Posterior sternoclavicular ligament",
        "col1": "l_09",
        "col2": "81",
        "col3": "313",
        "col4": "12493123"
    },
    {
        "col0": "Posterior sacroiliac ligament",
        "col1": "l_09",
        "col2": "80",
        "col3": "307",
        "col4": "12493031"
    },
    {
        "col0": "Posterior longitudinal ligament",
        "col1": "l_09",
        "col2": "72",
        "col3": "288",
        "col4": "12492528"
    },
    {
        "col0": "Posterior ligament of the head of the fibula",
        "col1": "l_09",
        "col2": "94",
        "col3": "348",
        "col4": "12491791"
    },
    {
        "col0": "Posterior cruciate ligament",
        "col1": "l_09",
        "col2": "93",
        "col3": "342",
        "col4": "12492130"
    },
    {
        "col0": "Plantar tarsometatarsal ligaments",
        "col1": "l_09",
        "col2": "97",
        "col3": "358",
        "col4": "12493325"
    },
    {
        "col0": "Plantar plate",
        "col1": "l_09",
        "col2": "99",
        "col3": "359",
        "col4": "12492834"
    },
    {
        "col0": "Plantar metatarsal ligaments",
        "col1": "l_09",
        "col2": "98",
        "col3": "358",
        "col4": "12492666"
    },
    {
        "col0": "Plantar calcaneonavicular ligament",
        "col1": "l_09",
        "col2": "96",
        "col3": "355",
        "col4": "12491745"
    },
    {
        "col0": "Plantar calcaneocuboid ligament",
        "col1": "l_09",
        "col2": "96",
        "col3": "354",
        "col4": "12491722"
    },
    {
        "col0": "Pisohamate ligament",
        "col1": "l_09",
        "col2": "87",
        "col3": "329",
        "col4": "12492813"
    },
    {
        "col0": "Phrenicocolic ligament",
        "col1": "l_09",
        "col2": "246",
        "col3": "1158",
        "col4": "12492796"
    },
    {
        "col0": "Patellar ligament",
        "col1": "l_09",
        "col2": "93",
        "col3": "340",
        "col4": "12492768"
    },
    {
        "col0": "Palmar radiocarpal ligament",
        "col1": "l_09",
        "col2": "86",
        "col3": "327",
        "col4": "12492942"
    },
    {
        "col0": "Ovarian ligament",
        "col1": "l_09",
        "col2": "266",
        "col3": "1254",
        "col4": "12492730"
    },
    {
        "col0": "Oblique popliteal ligament",
        "col1": "l_09",
        "col2": "93",
        "col3": "340",
        "col4": "12492857"
    },
    {
        "col0": "Oblique cord",
        "col1": "c_31",
        "col2": "85",
        "col3": "325",
        "col4": "12236870"
    },
    {
        "col0": "Nuchal ligament",
        "col1": "l_09",
        "col2": "72",
        "col3": "290",
        "col4": "12492708"
    },
    {
        "col0": "Median thyrohyoid ligament",
        "col1": "l_09",
        "col2": "236",
        "col3": "1077",
        "col4": "12493373"
    },
    {
        "col0": "Medial talocalcaneal ligament",
        "col1": "l_09",
        "col2": "96",
        "col3": "353",
        "col4": "12493246"
    },
    {
        "col0": "Medial collateral ligament",
        "col1": "l_09",
        "col2": "93",
        "col3": "341",
        "col4": "12491979"
    },
    {
        "col0": "Long plantar ligament",
        "col1": "l_09",
        "col2": "96",
        "col3": "354",
        "col4": "12492843"
    },
    {
        "col0": "Ligamentum arteriosum",
        "col1": "l_09",
        "col2": "141",
        "col3": "545",
        "col4": "12491658"
    },
    {
        "col0": "Ligamenta flava",
        "col1": "l_09",
        "col2": "72",
        "col3": "290",
        "col4": "12492241"
    },
    {
        "col0": "Left triangular ligament",
        "col1": "l_09",
        "col2": "250",
        "col3": "1193",
        "col4": "12493479"
    },
    {
        "col0": "Lateral thyrohyoid ligament",
        "col1": "l_09",
        "col2": "236",
        "col3": "1077",
        "col4": "12493365"
    },
    {
        "col0": "Lateral talocalcaneal ligament",
        "col1": "l_09",
        "col2": "96",
        "col3": "352",
        "col4": "12493237"
    },
    {
        "col0": "Lateral collateral ligament of ankle joint",
        "col1": "l_09",
        "col2": "95",
        "col3": "351",
        "col4": "12491943"
    },
    {
        "col0": "Lateral arcuate ligament",
        "col1": "l_09",
        "col2": "117",
        "col3": "405",
        "col4": "12491634"
    },
    {
        "col0": "Ischiofemoral ligament",
        "col1": "l_09",
        "col2": "92",
        "col3": "335",
        "col4": "12492470"
    },
    {
        "col0": "Intra-articular ligament of head of rib",
        "col1": "l_09",
        "col2": "76",
        "col3": "299",
        "col4": "12491758"
    },
    {
        "col0": "Intertransverse ligament",
        "col1": "l_09",
        "col2": "72",
        "col3": "291",
        "col4": "12492454"
    },
    {
        "col0": "Interspinous ligament",
        "col1": "l_09",
        "col2": "72",
        "col3": "291",
        "col4": "12492445"
    },
    {
        "col0": "Interosseous talocalcaneal ligament",
        "col1": "l_09",
        "col2": "96",
        "col3": "353",
        "col4": "12493228"
    },
    {
        "col0": "Interosseous sacroiliac ligament",
        "col1": "l_09",
        "col2": "80",
        "col3": "308",
        "col4": "12493023"
    }
]