[
    {
        "col0": "Into the Unknown with Josh Bernstein",
        "col1": "J. Bernstein",
        "col2": "J. Bernstein",
        "col3": "2010-09-30"
    },
    {
        "col0": "Instant Star",
        "col1": "A. Johnson",
        "col2": "A. Johnson",
        "col3": "2008-06-26"
    },
    {
        "col0": "In the Night Garden...",
        "col1": "D. Jacobi",
        "col2": "N. Kellington",
        "col3": "2009-03-06"
    },
    {
        "col0": "Ice Road Truckers",
        "col1": "T. Beers",
        "col2": "L. Kelly",
        "col3": "2011-12-18"
    },
    {
        "col0": "I Survived",
        "col1": "C. Drilon",
        "col2": "C. Drilon",
        "col3": "2010-12-02"
    },
    {
        "col0": "I Led Three Lives",
        "col1": "H. Philbrick",
        "col2": "R. Carlson",
        "col3": "1956-01-01"
    },
    {
        "col0": "I'll Fly Away",
        "col1": "R. Taylor",
        "col2": "K. Harrold",
        "col3": "1993-02-05"
    },
    {
        "col0": "Hyakujuu Sentai Gaoranger",
        "col1": "H. Masuoka",
        "col2": "T. Tamayama",
        "col3": "2002-02-10"
    },
    {
        "col0": "Housos",
        "col1": "I. Turpie",
        "col2": "A. Anderson",
        "col3": "2013-09-16"
    },
    {
        "col0": "House Gift",
        "col1": "P. Torrens",
        "col2": "L. Llewellyn-Bowen",
        "col3": "2011-03-18"
    },
    {
        "col0": "Home Time",
        "col1": "E. Fryer",
        "col2": "P. Jackson",
        "col3": "2009-10-22"
    },
    {
        "col0": "Holmes Inspection",
        "col1": "M. Holmes",
        "col2": "M. Holmes",
        "col3": "2011-11-17"
    },
    {
        "col0": "Hole in the Wall",
        "col1": "J. Pearce",
        "col2": "A. d. Beke",
        "col3": "2009-12-12"
    },
    {
        "col0": "Himitsu Sentai Gorenger",
        "col1": "T. Ohira",
        "col2": "H. Miyauchi",
        "col3": "1977-03-26"
    },
    {
        "col0": "Highway Patrol",
        "col1": "A. Gilmore",
        "col2": "B. Crawford",
        "col3": "1959-09-01"
    },
    {
        "col0": "Henry VIII",
        "col1": "D. Jacobi",
        "col2": "H. B. Carter",
        "col3": "2003-10-19"
    },
    {
        "col0": "Head Rush",
        "col1": "R. Lee",
        "col2": "K. Byron",
        "col3": "2011-10-03"
    },
    {
        "col0": "Hawkins Falls, Population 6200",
        "col1": "H. Downs",
        "col2": "M. Copeland",
        "col3": "1955-07-01"
    },
    {
        "col0": "Have Gun - Will Travel",
        "col1": "R. Boone",
        "col2": "R. Boone",
        "col3": "1963-04-20"
    },
    {
        "col0": "Hanako to Anne",
        "col1": "A. Miwa",
        "col2": "H. Kuroki",
        "col3": "2014-09-27"
    },
    {
        "col0": "Hana Moyu",
        "col1": "S. Ikeda",
        "col2": "T. Emori",
        "col3": "2015-12-13"
    },
    {
        "col0": "Ham on the Street",
        "col1": "G. Duran",
        "col2": "G. Duran",
        "col3": "2006-11-15"
    },
    {
        "col0": "Grumpy Old Women",
        "col1": "A. Steadman",
        "col2": "S. Hancock",
        "col3": "2007-08-24"
    },
    {
        "col0": "Growing Up Fisher",
        "col1": "J. Bateman",
        "col2": "J. Elfman",
        "col3": "2014-06-11"
    },
    {
        "col0": "Greg the Bunny",
        "col1": "D. Milano",
        "col2": "S. Green",
        "col3": "2006-12-16"
    },
    {
        "col0": "Gossip Girl: Acapulco",
        "col1": "P. Cantu",
        "col2": "V. Derbez",
        "col3": "2013-09-06"
    },
    {
        "col0": "Gossip Girl",
        "col1": "K. Bell",
        "col2": "B. Lively",
        "col3": "2012-12-17"
    },
    {
        "col0": "Gochisosan",
        "col1": "K. Yoshiyuki",
        "col2": "K. Yoshiyuki",
        "col3": "2014-03-29"
    },
    {
        "col0": "GoGo Sentai Boukenger",
        "col1": "S. Ota",
        "col2": "J. Morita",
        "col3": "2007-02-11"
    },
    {
        "col0": "Gladiators",
        "col1": "A. Parry",
        "col2": "J. Anderson",
        "col3": "2009-10-25"
    },
    {
        "col0": "Girls in Love",
        "col1": "O. Hallinan",
        "col2": "O. Hallinan",
        "col3": "2005-05-20"
    },
    {
        "col0": "Gameshow Marathon",
        "col1": "R. Fields",
        "col2": "G. Foreman",
        "col3": "2006-06-29"
    },
    {
        "col0": "Gambit",
        "col1": "K. Williams",
        "col2": "E. Stewart",
        "col3": "1981-11-27"
    },
    {
        "col0": "Fridays",
        "col1": "J. Burns",
        "col2": "B. Mahler",
        "col3": "1982-04-23"
    },
    {
        "col0": "Friday Night Videos",
        "col1": "S. Muni",
        "col2": "B. Marsalis",
        "col3": "2002-05-24"
    },
    {
        "col0": "Fiddley Foodle Bird",
        "col1": "B. Forsyth",
        "col2": "D. Waterman",
        "col3": "1992-04-01"
    },
    {
        "col0": "Fetch! with Ruff Ruffman",
        "col1": "J. Conroy",
        "col2": "List of Fetch! with Ruff Ruffman characters",
        "col3": "2010-11-04"
    },
    {
        "col0": "Felicity",
        "col1": "J. Garofalo",
        "col2": "K. Russell",
        "col3": "2002-05-22"
    },
    {
        "col0": "Fear Factor: Khatron Ke Khiladi",
        "col1": "A. Bachchan",
        "col2": "S. Shukla",
        "col3": "2016-04-03"
    },
    {
        "col0": "Fast Forward",
        "col1": "J. Deeks",
        "col2": "M. Szubanski",
        "col3": "1992-11-26"
    },
    {
        "col0": "Ezel",
        "col1": "T. Kurtiz",
        "col2": "T. Kurtiz",
        "col3": "2011-06-20"
    },
    {
        "col0": "Extreme Engineering",
        "col1": "D. Forster",
        "col2": "D. Forster",
        "col3": "2011-07-09"
    },
    {
        "col0": "Everybody Hates Chris",
        "col1": "C. Rock",
        "col2": "T. Crews",
        "col3": "2009-05-08"
    },
    {
        "col0": "Evening Shade",
        "col1": "O. Davis",
        "col2": "M. Henner",
        "col3": "1994-05-23"
    },
    {
        "col0": "Erotas",
        "col1": "K. Karanti",
        "col2": "G. Valtinos",
        "col3": "2008-05-30"
    },
    {
        "col0": "Enlightened",
        "col1": "L. Dern",
        "col2": "L. Dern",
        "col3": "2013-03-03"
    },
    {
        "col0": "Electric Dreams",
        "col1": "R. Llewellyn",
        "col2": "T. Wrigglesworth",
        "col3": "2009-10-13"
    },
    {
        "col0": "El clon",
        "col1": "D. Lugo",
        "col2": "M. Ochmann",
        "col3": "2010-10-29"
    },
    {
        "col0": "Egypt",
        "col1": "A. Sachs",
        "col2": "S. Graham",
        "col3": "2005-12-04"
    },
    {
        "col0": "Early Edition",
        "col1": "F. Stevens",
        "col2": "K. Swanson",
        "col3": "2000-05-27"
    },
    {
        "col0": "ECW Hardcore TV",
        "col1": "J. Styles",
        "col2": "Extreme Championship Wrestling alumni",
        "col3": "2000-12-31"
    },
    {
        "col0": "E!'s Pam: Girl on the Loose!",
        "col1": "P. Anderson",
        "col2": "P. Anderson",
        "col3": "2008-09-23"
    },
    {
        "col0": "Dyesebel",
        "col1": "A. Curtis",
        "col2": "A. Eigenmann",
        "col3": "2014-07-18"
    },
    {
        "col0": "Dyesebel",
        "col1": "J. Garcia",
        "col2": "D. Dantes",
        "col3": "2008-10-17"
    },
    {
        "col0": "Dunkirk",
        "col1": "T. Dalton",
        "col2": "S. R. Beale",
        "col3": "2004-02-20"
    },
    {
        "col0": "Drew Carey's Improv-A-Ganza",
        "col1": "R. Fields",
        "col2": "R. Stiles",
        "col3": "2011-06-03"
    },
    {
        "col0": "Dragnet",
        "col1": "J. Webb",
        "col2": "B. Alexander",
        "col3": "2004-12-04"
    },
    {
        "col0": "Dragnet",
        "col1": "J. Webb",
        "col2": "B. Alexander",
        "col3": "1959-08-23"
    },
    {
        "col0": "Don't Trust the B---- in Apartment 23",
        "col1": "D. Walker",
        "col2": "K. Ritter",
        "col3": "2013-05-13"
    },
    {
        "col0": "Do Over",
        "col1": "T. E. Scott",
        "col2": "A. Goethals",
        "col3": "2002-12-05"
    },
    {
        "col0": "Dirty Money: The Story of the Criminal Assets Bureau",
        "col1": "P. Williams",
        "col2": "P. Williams",
        "col3": "2008-04-03"
    },
    {
        "col0": "Dinosaur Planet",
        "col1": "C. Slater",
        "col2": "S. D. Sampson",
        "col3": "2003-12-14"
    },
    {
        "col0": "Dink, the Little Dinosaur",
        "col1": "K. Mars",
        "col2": "F. Welker",
        "col3": "1990-11-03"
    },
    {
        "col0": "Diary of a Bad Man",
        "col1": "H. Arshad",
        "col2": "H. Arshad",
        "col3": "2013-10-10"
    },
    {
        "col0": "Dexter",
        "col1": "M. C. Hall",
        "col2": "J. Benz",
        "col3": "2013-09-22"
    },
    {
        "col0": "Destination Truth",
        "col1": "J. Gates",
        "col2": "J. Gates",
        "col3": "2012-08-14"
    },
    {
        "col0": "Desperate Housewives",
        "col1": "B. Strong",
        "col2": "C. Mesure",
        "col3": "2012-05-13"
    },
    {
        "col0": "Denshi Sentai Denziman",
        "col1": "T. Ohira",
        "col2": "N. Uchida",
        "col3": "1981-01-31"
    },
    {
        "col0": "Denise Richards: It's Complicated",
        "col1": "D. Richards",
        "col2": "D. Richards",
        "col3": "2009-07-26"
    },
    {
        "col0": "Deal or No Deal",
        "col1": "A. Pang",
        "col2": "A. Pang",
        "col3": "2008-01-31"
    },
    {
        "col0": "Dead Like Me",
        "col1": "E. Muth",
        "col2": "M. Patinkin",
        "col3": "2004-10-31"
    },
    {
        "col0": "Dastardly and Muttley in Their Flying Machines",
        "col1": "D. Messick",
        "col2": "P. Winchell",
        "col3": "1970-01-03"
    },
    {
        "col0": "Dai Sentai Goggle-V",
        "col1": "T. Ohira",
        "col2": "J. Haruta",
        "col3": "1983-01-29"
    },
    {
        "col0": "Curious George",
        "col1": "R. Romano",
        "col2": "F. Welker",
        "col3": "2015-04-01"
    },
    {
        "col0": "Curious Buddies",
        "col1": "C. Richardson",
        "col2": "M. Schwabe",
        "col3": "2005-04-12"
    },
    {
        "col0": "Crusader",
        "col1": "E. Reimers",
        "col2": "B. Keith",
        "col3": "1956-12-28"
    },
    {
        "col0": "Crime Stories",
        "col1": "T. Butcher",
        "col2": "B. Hull",
        "col3": "2012-12-07"
    },
    {
        "col0": "Corazon salvaje",
        "col1": "J. Aleman",
        "col2": "A. Arambula",
        "col3": "2010-04-16"
    },
    {
        "col0": "Come Fly with Me",
        "col1": "L. Duncan",
        "col2": "D. Walliams",
        "col3": "2011-01-27"
    },
    {
        "col0": "Clueless",
        "col1": "R. Blanchard",
        "col2": "D. Faison",
        "col3": "1999-05-25"
    },
    {
        "col0": "Clarissa Explains It All",
        "col1": "M. J. Hart",
        "col2": "M. J. Hart",
        "col3": "1994-10-01"
    },
    {
        "col0": "Childrens Hospital",
        "col1": "E. Hayes",
        "col2": "E. Hayes",
        "col3": "2016-04-15"
    },
    {
        "col0": "Chemistry: A Volatile History",
        "col1": "J. Al-Khalili",
        "col2": "A. Sella",
        "col3": "2010-02-04"
    },
    {
        "col0": "Chartjackers",
        "col1": "MistaJam",
        "col2": "C. McDonnell",
        "col3": "2009-11-21"
    },
    {
        "col0": "Chad Vader: Day Shift Manager",
        "col1": "M. Sloan",
        "col2": "A. Yonda",
        "col3": "2012-12-11"
    },
    {
        "col0": "Cash & Treasures",
        "col1": "K. Gum",
        "col2": "K. Gum",
        "col3": "2009-12-27"
    },
    {
        "col0": "Casey, Crime Photographer",
        "col1": "K. Roberts",
        "col2": "D. McGavin",
        "col3": "1952-06-05"
    },
    {
        "col0": "Bump in the Night",
        "col1": "J. Cummings",
        "col2": "B. Garrett",
        "col3": "1995-12-09"
    },
    {
        "col0": "Brum",
        "col1": "T. Willcox",
        "col2": "Birmingham",
        "col3": "2002-11-04"
    },
    {
        "col0": "Brothers & Sisters",
        "col1": "S. Field",
        "col2": "C. Flockhart",
        "col3": "2011-05-08"
    },
    {
        "col0": "Britain from Above",
        "col1": "A. Marr",
        "col2": "A. Marr",
        "col3": "2008-08-24"
    },
    {
        "col0": "Brink",
        "col1": "J. Zepps",
        "col2": "D. McKellar",
        "col3": "2009-08-25"
    },
    {
        "col0": "Born Free",
        "col1": "D. Muldaur",
        "col2": "D. Muldaur",
        "col3": "1974-12-30"
    },
    {
        "col0": "Born Again Virgin",
        "col1": "D. Nicolet",
        "col2": "E. Marcille",
        "col3": "2016-03-29"
    },
    {
        "col0": "Boohbah",
        "col1": "C. Langham",
        "col2": "P. Hayes",
        "col3": "2006-01-06"
    },
    {
        "col0": "Bishaash",
        "col1": "A. Noor",
        "col2": "S. Rahman",
        "col3": "2011-07-14"
    },
    {
        "col0": "Bill Nye the Science Guy",
        "col1": "P. Cashman",
        "col2": "B. Nye",
        "col3": "1998-06-20"
    },
    {
        "col0": "Big Fat Gypsy Weddings",
        "col1": "B. Flynn",
        "col2": "P. Doherty",
        "col3": "2015-04-06"
    },
    {
        "col0": "Big Bag",
        "col1": "A. Sachs",
        "col2": "A. Dinnean",
        "col3": "1998-06-30"
    },
    {
        "col0": "Better Off Ted",
        "col1": "J. Harrington",
        "col2": "P. d. Rossi",
        "col3": "2010-01-26"
    },
    {
        "col0": "Bertha",
        "col1": "R. Kinnear",
        "col2": "R. Kinnear",
        "col3": "1986-06-18"
    },
    {
        "col0": "Being: Liverpool",
        "col1": "C. Owen",
        "col2": "L. F. Club",
        "col3": "2012-10-26"
    },
    {
        "col0": "Bedsitcom",
        "col1": "S. Frost",
        "col2": "J. Mockford",
        "col3": "2003-12-18"
    },
    {
        "col0": "Beautiful People",
        "col1": "S. Barnett",
        "col2": "O. Colman",
        "col3": "2009-12-18"
    },
    {
        "col0": "Battle Fever J",
        "col1": "T. Ohira",
        "col2": "K. Ohba",
        "col3": "1980-01-26"
    },
    {
        "col0": "BattleBots",
        "col1": "K. Florian",
        "col2": "A. Haislip",
        "col3": "2002-12-21"
    },
    {
        "col0": "Batman",
        "col1": "W. Dozier",
        "col2": "A. Napier",
        "col3": "1968-03-14"
    },
    {
        "col0": "Batfink",
        "col1": "L. Maxwell",
        "col2": "L. Maxwell",
        "col3": "1967-10-04"
    },
    {
        "col0": "Batang Bibbo",
        "col1": "R. Barcelo",
        "col2": "R. Barcelo",
        "col3": "2010-07-09"
    },
    {
        "col0": "Barbershop",
        "col1": "O. Gooding",
        "col2": "G. Akinnagbe",
        "col3": "2005-10-16"
    },
    {
        "col0": "Baby, I'm Back",
        "col1": "D. Wilson",
        "col2": "H. Martin",
        "col3": "1978-04-24"
    },
    {
        "col0": "Baa Baa Black Sheep",
        "col1": "R. Conrad",
        "col2": "D. Elcar",
        "col3": "1978-04-06"
    },
    {
        "col0": "Awkward",
        "col1": "A. Rickards",
        "col2": "G. Grammer",
        "col3": "2016-05-24"
    },
    {
        "col0": "Auto-B-Good",
        "col1": "A. Henderson",
        "col2": "J. Martin",
        "col3": "2003-03-15"
    },
    {
        "col0": "Atsuhime",
        "col1": "N. Tomoko",
        "col2": "H. Tamaki",
        "col3": "2008-12-14"
    },
    {
        "col0": "Ark on the Move",
        "col1": "G. Durrell",
        "col2": "G. Durrell",
        "col3": "1982-03-29"
    },
    {
        "col0": "Aoi Tokugawa Sandai",
        "col1": "N. B. II",
        "col2": "I. Yamada",
        "col3": "2000-12-17"
    },
    {
        "col0": "Andy Richter Controls the Universe",
        "col1": "A. Richter",
        "col2": "A. Richter",
        "col3": "2003-01-12"
    },
    {
        "col0": "Ancient Rome: The Rise and Fall of an Empire",
        "col1": "A. Simpson",
        "col2": "C. McCormack",
        "col3": "2006-10-26"
    },
    {
        "col0": "American Chopper",
        "col1": "M. Rowe",
        "col2": "P. T. Sr.",
        "col3": "2010-02-11"
    },
    {
        "col0": "America",
        "col1": "C. O'Donnell",
        "col2": "M. Stevenson",
        "col3": "1986-01-03"
    },
    {
        "col0": "Amas de Casa Desesperadas",
        "col1": "L. Mendez",
        "col2": "A. Serradilla",
        "col3": "2008-06-19"
    },
    {
        "col0": "Amachan",
        "col1": "N. Miyamoto",
        "col2": "K. Kanie",
        "col3": "2013-09-28"
    },
    {
        "col0": "Alphas",
        "col1": "D. Strathairn",
        "col2": "D. Strathairn",
        "col3": "2012-10-22"
    },
    {
        "col0": "Alondra",
        "col1": "D. Bracho",
        "col2": "B. Sheridan",
        "col3": "1995-09-01"
    },
    {
        "col0": "All of Me",
        "col1": "A. Martinez",
        "col2": "A. Martinez",
        "col3": "2016-01-29"
    },
    {
        "col0": "Alias Smith and Jones",
        "col1": "R. Story",
        "col2": "P. Duel",
        "col3": "1973-01-13"
    },
    {
        "col0": "Airline",
        "col1": "T. Robinson",
        "col2": "EasyJet",
        "col3": "2007-01-19"
    },
    {
        "col0": "Agent Anna",
        "col1": "R. Malcolm",
        "col2": "R. Billing",
        "col3": "2014-08-07"
    },
    {
        "col0": "Adventures of Superman",
        "col1": "G. Reeves",
        "col2": "G. Reeves",
        "col3": "1958-04-28"
    },
    {
        "col0": "Action League Now!",
        "col1": "S. Paulsen",
        "col2": "S. Paulsen",
        "col3": "2002-02-10"
    },
    {
        "col0": "7 RCR",
        "col1": "C. Bhagat",
        "col2": "C. Bhagat",
        "col3": "2014-03-29"
    },
    {
        "col0": "30 Days",
        "col1": "M. Spurlock",
        "col2": "M. Spurlock",
        "col3": "2008-07-08"
    },
    {
        "col0": "101 Cars You Must Drive",
        "col1": "A. Bodden",
        "col2": "A. Bodden",
        "col3": "2008-09-01"
    },
    {
        "col0": "'Til Death Do Us Part",
        "col1": "J. Waters",
        "col2": "J. Waters",
        "col3": "2007-06-04"
    }
]