[
    {
        "col0": "R. Stillwell",
        "col1": "1951-11-17",
        "col2": "1951-11-17",
        "col3": "212"
    },
    {
        "col0": "R. Knight",
        "col1": "1978-10-11",
        "col2": "1978-10-11",
        "col3": "182"
    },
    {
        "col0": "R. Jones",
        "col1": "1969-4-22",
        "col2": "1969-4-22",
        "col3": "21"
    },
    {
        "col0": "R. Harper",
        "col1": "1970-10-26",
        "col2": "1970-10-26",
        "col3": "38"
    },
    {
        "col0": "R. Harding",
        "col1": "1923-6-11",
        "col2": "1923-6-11",
        "col3": "37"
    },
    {
        "col0": "R. Ellis",
        "col1": "1938-2-1",
        "col2": "1938-2-1",
        "col3": "166"
    },
    {
        "col0": "R. Eason",
        "col1": "1918-7-31",
        "col2": "1918-7-31",
        "col3": "17"
    },
    {
        "col0": "R. Duffy",
        "col1": "1967-07-16",
        "col2": "1967-07-16",
        "col3": "197"
    },
    {
        "col0": "R. Davis",
        "col1": "1938-06-23",
        "col2": "1938-06-23",
        "col3": "7"
    },
    {
        "col0": "R. Craig",
        "col1": "1960-07-10",
        "col2": "1960-07-10",
        "col3": "49"
    },
    {
        "col0": "R. Carr",
        "col1": "1952-07-01",
        "col2": "1952-07-01",
        "col3": "24"
    },
    {
        "col0": "R. Caron",
        "col1": "1962-06-03",
        "col2": "1962-06-03",
        "col3": "117"
    },
    {
        "col0": "R. Brown",
        "col1": "1966-12-16",
        "col2": "1966-12-16",
        "col3": "215"
    },
    {
        "col0": "R. Preston",
        "col1": "1972-06-23",
        "col2": "1972-06-23",
        "col3": "145"
    },
    {
        "col0": "R. Wright",
        "col1": "1984-07-31",
        "col2": "1984-07-31",
        "col3": "226"
    },
    {
        "col0": "R. Barnes",
        "col1": "1950-02-10",
        "col2": "1950-02-10",
        "col3": "176"
    },
    {
        "col0": "R. Brooks",
        "col1": "1978-08-30",
        "col2": "1978-08-30",
        "col3": "238"
    },
    {
        "col0": "R. Young",
        "col1": "1973-01-25",
        "col2": "1973-01-25",
        "col3": "85"
    },
    {
        "col0": "R. Wright",
        "col1": "1979-11-28",
        "col2": "1979-11-28",
        "col3": "250"
    },
    {
        "col0": "R. Williams",
        "col1": "1977-04-25",
        "col2": "1977-04-25",
        "col3": "252"
    },
    {
        "col0": "R. Wallace",
        "col1": "1949-02-10",
        "col2": "1949-02-10",
        "col3": "259"
    },
    {
        "col0": "R. Peete",
        "col1": "1966-03-16",
        "col2": "1966-03-16",
        "col3": "141"
    },
    {
        "col0": "R. Hudson",
        "col1": "1989-07-12",
        "col2": "1989-07-12",
        "col3": "55"
    },
    {
        "col0": "R. Holman",
        "col1": "1960-04-20",
        "col2": "1960-04-20",
        "col3": "82"
    },
    {
        "col0": "R. Harrison",
        "col1": "1972-12-15",
        "col2": "1972-12-15",
        "col3": "145"
    },
    {
        "col0": "R. Hampton",
        "col1": "1969-04-03",
        "col2": "1969-04-03",
        "col3": "24"
    },
    {
        "col0": "R. Gunter",
        "col1": "1992-01-19",
        "col2": "1992-01-19",
        "col3": "116"
    },
    {
        "col0": "R. Carter",
        "col1": "1964-10-30",
        "col2": "1964-10-30",
        "col3": "175"
    },
    {
        "col0": "R. Bailey",
        "col1": "1979-10-07",
        "col2": "1979-10-07",
        "col3": "181"
    },
    {
        "col0": "R. Mullen",
        "col1": "1972-12-05",
        "col2": "1972-12-05",
        "col3": "153"
    },
    {
        "col0": "R. Lewis",
        "col1": "1971-06-09",
        "col2": "1971-06-09",
        "col3": "157"
    },
    {
        "col0": "R. Green",
        "col1": "1982-04-26",
        "col2": "1982-04-26",
        "col3": "153"
    },
    {
        "col0": "R. White",
        "col1": "1981-11-2",
        "col2": "1981-11-2",
        "col3": "27"
    },
    {
        "col0": "R. Muckelroy",
        "col1": "1986-10-27",
        "col2": "1986-10-27",
        "col3": "131"
    },
    {
        "col0": "R. Woodson",
        "col1": "1965-3-10",
        "col2": "1965-3-10",
        "col3": "10"
    },
    {
        "col0": "R. Wilson",
        "col1": "1981-11-12",
        "col2": "1981-11-12",
        "col3": "220"
    },
    {
        "col0": "R. Walters",
        "col1": "1954-02-27",
        "col2": "1954-02-27",
        "col3": "14"
    },
    {
        "col0": "R. Shoate",
        "col1": "1953-04-25",
        "col2": "1953-04-25",
        "col3": "41"
    },
    {
        "col0": "R. Sherman",
        "col1": "1944-12-25",
        "col2": "1944-12-25",
        "col3": "54"
    }
]