[
    {
        "col0": "Spleen",
        "col1": "Mesenchyme",
        "col2": "Splenic artery",
        "col3": "Spleen",
        "col4": "278",
        "col5": "1282"
    },
    {
        "col0": "Seminal vesicle",
        "col1": "Mesonephric duct",
        "col2": "Inferior vesical artery",
        "col3": "Seminal+Vesicles",
        "col4": "260",
        "col5": "1246"
    },
    {
        "col0": "Scrotum",
        "col1": "Labioscrotal folds",
        "col2": "Anterior scrotal artery",
        "col3": "Scrotum",
        "col4": "258",
        "col5": "1237"
    },
    {
        "col0": "Round ligament of uterus",
        "col1": "Gubernaculum",
        "col2": "Uterine artery",
        "col3": "Round+Ligament",
        "col4": "268",
        "col5": "1261"
    },
    {
        "col0": "Rectum",
        "col1": "Hindgut",
        "col2": "Middle rectal artery",
        "col3": "Rectum",
        "col4": "249",
        "col5": "1183"
    },
    {
        "col0": "Prostate",
        "col1": "Endodermic evagination",
        "col2": "Inferior vesical artery",
        "col3": "Prostate",
        "col4": "263",
        "col5": "1251"
    },
    {
        "col0": "Posterior pituitary",
        "col1": "Neural tube",
        "col2": "Inferior hypophyseal artery",
        "col3": "Pituitary+Gland,+Posterior",
        "col4": "275",
        "col5": "1275"
    },
    {
        "col0": "Parathyroid gland",
        "col1": "Neural crest",
        "col2": "Inferior thyroid artery",
        "col3": "Parathyroid+Glands",
        "col4": "273",
        "col5": "1271"
    },
    {
        "col0": "Pancreas",
        "col1": "Pancreatic bud",
        "col2": "Anterior superior pancreaticoduodenal artery",
        "col3": "Pancreas",
        "col4": "251",
        "col5": "1199"
    },
    {
        "col0": "Liver",
        "col1": "Foregut",
        "col2": "Hepatic artery proper",
        "col3": "Liver",
        "col4": "250",
        "col5": "1188"
    },
    {
        "col0": "Jejunum",
        "col1": "Midgut",
        "col2": "Jejunal arteries",
        "col3": "Jejunum",
        "col4": "248",
        "col5": "1170"
    },
    {
        "col0": "Iris",
        "col1": "Ectoderm",
        "col2": "Long posterior ciliary arteries",
        "col3": "Iris",
        "col4": "225",
        "col5": "1012"
    },
    {
        "col0": "Human penis",
        "col1": "Genital tubercle",
        "col2": "Dorsal artery of the penis",
        "col3": "Penis",
        "col4": "262",
        "col5": "1247"
    },
    {
        "col0": "Gallbladder",
        "col1": "Foregut",
        "col2": "Cystic artery",
        "col3": "Gallbladder",
        "col4": "250",
        "col5": "1197"
    },
    {
        "col0": "Foreskin",
        "col1": "Genital tubercle",
        "col2": "Dorsal artery of the penis",
        "col3": "Foreskin",
        "col4": "262",
        "col5": "1250"
    },
    {
        "col0": "Fallopian tube",
        "col1": "Mullerian duct",
        "col2": "Tubal branches of ovarian artery",
        "col3": "Fallopian+Tubes",
        "col4": "267",
        "col5": "1257"
    },
    {
        "col0": "Esophagus",
        "col1": "Foregut",
        "col2": "Esophageal arteries",
        "col3": "Esophagus",
        "col4": "245",
        "col5": "1144"
    },
    {
        "col0": "Duodenum",
        "col1": "Midgut",
        "col2": "Inferior pancreaticoduodenal artery",
        "col3": "duodenum",
        "col4": "248",
        "col5": "1169"
    },
    {
        "col0": "Descending colon",
        "col1": "Hindgut",
        "col2": "Left colic artery",
        "col3": "Colon,+Descending",
        "col4": "249",
        "col5": "1181"
    },
    {
        "col0": "Clitoris",
        "col1": "Genital tubercle",
        "col2": "Deep artery of clitoris",
        "col3": "Clitoris",
        "col4": "270",
        "col5": "1266"
    },
    {
        "col0": "Cervix",
        "col1": "Paramesonephric duct",
        "col2": "Uterine artery",
        "col3": "Cervix+uteri",
        "col4": "268",
        "col5": "1259"
    },
    {
        "col0": "Bulbourethral gland",
        "col1": "Urogenital sinus",
        "col2": "Artery of the urethral bulb",
        "col3": "Bulbourethral+Glands",
        "col4": "264",
        "col5": "1253"
    },
    {
        "col0": "Bartholin's gland",
        "col1": "Urogenital sinus",
        "col2": "Deep external pudendal artery",
        "col3": "Bartholin's+Glands",
        "col4": "270",
        "col5": "1266"
    },
    {
        "col0": "Appendix",
        "col1": "Midgut",
        "col2": "Appendicular artery",
        "col3": "Appendix",
        "col4": "249",
        "col5": "1178"
    },
    {
        "col0": "Anal canal",
        "col1": "Proctodeum",
        "col2": "Superior rectal artery",
        "col3": "Anal+Canal",
        "col4": "249",
        "col5": "1184"
    },
    {
        "col0": "Adrenal gland",
        "col1": "Mesoderm",
        "col2": "Inferior suprarenal artery",
        "col3": "Adrenal+Glands",
        "col4": "277",
        "col5": "1278"
    }
]