[
    {
        "col0": "ZMPSTE24",
        "col1": "606480",
        "col2": "O75844",
        "col3": "12877",
        "col4": "3.4.24.84",
        "col5": "10269"
    },
    {
        "col0": "Wee1",
        "col1": "193525",
        "col2": "P07527",
        "col3": "12761",
        "col4": "2.7.11.1",
        "col5": "2539123"
    },
    {
        "col0": "VEGF receptor",
        "col1": "136352",
        "col2": "P17948",
        "col3": "3763",
        "col4": "2.7.1.112",
        "col5": "2321"
    },
    {
        "col0": "USP26",
        "col1": "300309",
        "col2": "Q9BXU7",
        "col3": "13485",
        "col4": "3.1.2.15",
        "col5": "83844"
    },
    {
        "col0": "ULK2",
        "col1": "608650",
        "col2": "Q8IYT8",
        "col3": "13480",
        "col4": "2.7.11.1",
        "col5": "9706"
    },
    {
        "col0": "Telokin",
        "col1": "600922",
        "col2": "Q5MYA0",
        "col3": "7590",
        "col4": "2.7.11.18",
        "col5": "4638"
    },
    {
        "col0": "TIE1",
        "col1": "600222",
        "col2": "P35590",
        "col3": "11809",
        "col4": "2.7.1.112",
        "col5": "7075"
    },
    {
        "col0": "TGM5",
        "col1": "603805",
        "col2": "O43548",
        "col3": "11781",
        "col4": "2.3.2.13",
        "col5": "9333"
    },
    {
        "col0": "Sucrase-isomaltase",
        "col1": "609845",
        "col2": "P14410",
        "col3": "10856",
        "col4": "3.2.1.10",
        "col5": "6476"
    },
    {
        "col0": "Spermidine synthase",
        "col1": "182891",
        "col2": "P19623",
        "col3": "11296",
        "col4": "2.5.1.16",
        "col5": "6723"
    },
    {
        "col0": "Sorbitol dehydrogenase",
        "col1": "182500",
        "col2": "Q00796",
        "col3": "11184",
        "col4": "1.1.1.14",
        "col5": "6652"
    },
    {
        "col0": "Serine dehydratase",
        "col1": "182128",
        "col2": "P20132",
        "col3": "10691",
        "col4": "4.3.1.17",
        "col5": "10993"
    },
    {
        "col0": "Rhodopsin kinase",
        "col1": "180381",
        "col2": "Q15835",
        "col3": "10013",
        "col4": "2.7.11.14",
        "col5": "6011"
    },
    {
        "col0": "Rho-associated protein kinase",
        "col1": "601702",
        "col2": "O75116",
        "col3": "10251",
        "col4": "2.7.11.1",
        "col5": "579202"
    },
    {
        "col0": "Receptor tyrosine kinase-like orphan receptor",
        "col1": "602336",
        "col2": "Q01973",
        "col3": "10256",
        "col4": "2.7.10.1",
        "col5": "4919"
    },
    {
        "col0": "Rab geranylgeranyltransferase",
        "col1": "179080",
        "col2": "P53611",
        "col3": "9795",
        "col4": "2.5.1.60",
        "col5": "5875"
    },
    {
        "col0": "Pyrophosphomevalonate decarboxylase",
        "col1": "603236",
        "col2": "P53602",
        "col3": "7529",
        "col4": "4.1.1.33",
        "col5": "4597"
    },
    {
        "col0": "Protein phosphatase 2",
        "col1": "176915",
        "col2": "P62714",
        "col3": "9299",
        "col4": "3.1.3.16",
        "col5": "5515"
    },
    {
        "col0": "Protein phosphatase 1",
        "col1": "176875",
        "col2": "P36873",
        "col3": "9281",
        "col4": "3.1.3.16",
        "col5": "5499"
    },
    {
        "col0": "Procollagen peptidase",
        "col1": "164010",
        "col2": "Q9HD42",
        "col3": "8740",
        "col4": "3.4.24.14",
        "col5": "5119"
    },
    {
        "col0": "Presenilin",
        "col1": "104311",
        "col2": "P49768",
        "col3": "9508",
        "col4": "3.4.23.-",
        "col5": "5663"
    },
    {
        "col0": "Phosphoglycerate mutase",
        "col1": "172250",
        "col2": "P15259",
        "col3": "8888",
        "col4": "5.4.2.11",
        "col5": "5223"
    },
    {
        "col0": "Phosphogluconate dehydrogenase",
        "col1": "172200",
        "col2": "P52209",
        "col3": "8891",
        "col4": "1.1.1.44",
        "col5": "5226"
    },
    {
        "col0": "Paraoxonase",
        "col1": "168820",
        "col2": "P27169",
        "col3": "9204",
        "col4": "3.1.8.1",
        "col5": "5444"
    },
    {
        "col0": "Palmitoyl protein thioesterase",
        "col1": "600722",
        "col2": "P50897",
        "col3": "9325",
        "col4": "3.1.2.22",
        "col5": "5538"
    },
    {
        "col0": "PHLPP",
        "col1": "609396",
        "col2": "O60346",
        "col3": "20610",
        "col4": "3.1.3.16",
        "col5": "23035"
    }
]