[
    {
        "col0": "Washington's Crossing",
        "col1": "3528858",
        "col2": "3528858",
        "col3": "1966-10-15"
    },
    {
        "col0": "Washburn Square-Leicester Common Historic District",
        "col1": "84983",
        "col2": "84983",
        "col3": "2006-02-22"
    },
    {
        "col0": "Washburn Historic District",
        "col1": "263855",
        "col2": "263855",
        "col3": "2002-02-20"
    },
    {
        "col0": "Wasena Historic District",
        "col1": "704153",
        "col2": "704153",
        "col3": "2012-01-03"
    },
    {
        "col0": "Warwick Mills",
        "col1": "29542",
        "col2": "29542",
        "col3": "1974-12-30"
    },
    {
        "col0": "Warwick County Courthouses",
        "col1": "4046",
        "col2": "4046",
        "col3": "1988-11-03"
    },
    {
        "col0": "Warsaw Historic District",
        "col1": "121405",
        "col2": "121405",
        "col3": "1996-12-13"
    },
    {
        "col0": "Warsaw Historic District",
        "col1": "1072416",
        "col2": "1072416",
        "col3": "1977-12-16"
    },
    {
        "col0": "Warsaw Cut Glass Company",
        "col1": "2023",
        "col2": "2023",
        "col3": "1984-03-01"
    },
    {
        "col0": "Warsaw Academy",
        "col1": "2023",
        "col2": "2023",
        "col3": "1980-01-03"
    },
    {
        "col0": "Warrington Site",
        "col1": "8093",
        "col2": "8093",
        "col3": "1977-10-20"
    },
    {
        "col0": "Warrington Meetinghouse",
        "col1": "8093",
        "col2": "8093",
        "col3": "1975-02-20"
    },
    {
        "col0": "Warrenville Elementary School",
        "col1": "16187",
        "col2": "16187",
        "col3": "2002-05-22"
    },
    {
        "col0": "Warrenton Woolen Mill",
        "col1": "27113",
        "col2": "27113",
        "col3": "1987-02-12"
    },
    {
        "col0": "Warrensburg Mills Historic District",
        "col1": "161874",
        "col2": "161874",
        "col3": "1975-09-18"
    },
    {
        "col0": "Warren Z. Cole House",
        "col1": "8093",
        "col2": "8093",
        "col3": "1973-03-07"
    },
    {
        "col0": "Warren Wilson House",
        "col1": "751501",
        "col2": "751501",
        "col3": "1985-09-27"
    },
    {
        "col0": "Warren Waterfront Historic District",
        "col1": "667731",
        "col2": "667731",
        "col3": "1974-02-28"
    },
    {
        "col0": "Warren T. Wright Farmhouse Site",
        "col1": "4046",
        "col2": "4046",
        "col3": "1979-04-26"
    },
    {
        "col0": "Warren House and Warren's Store",
        "col1": "24281",
        "col2": "24281",
        "col3": "1973-06-19"
    },
    {
        "col0": "Warren Historic District",
        "col1": "1784663",
        "col2": "1784663",
        "col3": "1999-07-22"
    },
    {
        "col0": "Warren G. Harding Junior High School",
        "col1": "33588",
        "col2": "33588",
        "col3": "1988-11-18"
    },
    {
        "col0": "Warren County Training School",
        "col1": "26304",
        "col2": "26304",
        "col3": "2006-04-19"
    },
    {
        "col0": "Warren County Fire Tower",
        "col1": "404",
        "col2": "404",
        "col3": "2000-03-03"
    },
    {
        "col0": "Warren County Courthouse",
        "col1": "6879",
        "col2": "6879",
        "col3": "2000-01-28"
    },
    {
        "col0": "Warren County Courthouse",
        "col1": "7284",
        "col2": "7284",
        "col3": "1977-04-18"
    },
    {
        "col0": "Warren County Administration Building",
        "col1": "8093",
        "col2": "8093",
        "col3": "2002-10-24"
    },
    {
        "col0": "Warren Congregational Church",
        "col1": "8093",
        "col2": "8093",
        "col3": "1991-11-29"
    },
    {
        "col0": "Warren Commercial Historic District",
        "col1": "36421",
        "col2": "36421",
        "col3": "1995-11-07"
    },
    {
        "col0": "Warren Block",
        "col1": "2023",
        "col2": "2023",
        "col3": "1974-11-05"
    },
    {
        "col0": "Warren Armory",
        "col1": "809",
        "col2": "809",
        "col3": "1991-05-09"
    },
    {
        "col0": "Warren-Erwin House",
        "col1": "44515",
        "col2": "44515",
        "col3": "1982-03-19"
    },
    {
        "col0": "Warren's Mill",
        "col1": "2023",
        "col2": "2023",
        "col3": "1978-09-13"
    },
    {
        "col0": "Warner Theatre",
        "col1": "10117",
        "col2": "10117",
        "col3": "1984-02-16"
    },
    {
        "col0": "Warner Theater",
        "col1": "0",
        "col2": "0",
        "col3": "1979-11-20"
    },
    {
        "col0": "Warner Parks",
        "col1": "10780825",
        "col2": "10780825",
        "col3": "1984-01-20"
    },
    {
        "col0": "Warner House",
        "col1": "202342",
        "col2": "202342",
        "col3": "1987-02-19"
    },
    {
        "col0": "Warner Hall",
        "col1": "153780",
        "col2": "153780",
        "col3": "1980-11-25"
    },
    {
        "col0": "Warm Springs Mill",
        "col1": "2023",
        "col2": "2023",
        "col3": "1989-09-11"
    },
    {
        "col0": "Warlick-Huffman Farm",
        "col1": "295420",
        "col2": "295420",
        "col3": "1990-06-21"
    },
    {
        "col0": "Warfield Complex, Hubner, and T Buildings",
        "col1": "303514",
        "col2": "303514",
        "col3": "2000-11-02"
    },
    {
        "col0": "Warenski-Duvall Commercial Building and Apartments",
        "col1": "4046",
        "col2": "4046",
        "col3": "2000-05-19"
    },
    {
        "col0": "Warehouse District",
        "col1": "52609",
        "col2": "52609",
        "col3": "1982-08-17"
    },
    {
        "col0": "Ware Parish Church",
        "col1": "40468",
        "col2": "40468",
        "col3": "1973-03-20"
    },
    {
        "col0": "Ware Neck Store and Post Office",
        "col1": "14568",
        "col2": "14568",
        "col3": "2009-06-03"
    },
    {
        "col0": "Ware-Lyndon House",
        "col1": "36421",
        "col2": "36421",
        "col3": "1976-03-15"
    },
    {
        "col0": "Wardman Row",
        "col1": "4451",
        "col2": "4451",
        "col3": "1984-07-27"
    },
    {
        "col0": "Wardlaw Junior High School",
        "col1": "16996",
        "col2": "16996",
        "col3": "1984-09-13"
    },
    {
        "col0": "Warden's House",
        "col1": "7689",
        "col2": "7689",
        "col3": "2005-06-17"
    },
    {
        "col0": "Wardell House",
        "col1": "87412",
        "col2": "87412",
        "col3": "1974-07-24"
    },
    {
        "col0": "Wardell Court Historic Residential District",
        "col1": "20234",
        "col2": "20234",
        "col3": "1997-01-30"
    },
    {
        "col0": "Ward House",
        "col1": "8093",
        "col2": "8093",
        "col3": "1980-05-22"
    },
    {
        "col0": "Ward Hinckley House",
        "col1": "4046",
        "col2": "4046",
        "col3": "1974-12-16"
    },
    {
        "col0": "Ward Family House",
        "col1": "12545",
        "col2": "12545",
        "col3": "1997-05-23"
    },
    {
        "col0": "Ward County Courthouse",
        "col1": "6474",
        "col2": "6474",
        "col3": "1985-11-14"
    },
    {
        "col0": "Ward Brothers' House and Shop",
        "col1": "2832",
        "col2": "2832",
        "col3": "1997-11-21"
    },
    {
        "col0": "Ward-Force House and Condit Family Cook House",
        "col1": "2023",
        "col2": "2023",
        "col3": "1981-12-29"
    },
    {
        "col0": "Ward's Point",
        "col1": "135569",
        "col2": "135569",
        "col3": "1982-09-29"
    },
    {
        "col0": "War Office",
        "col1": "2023",
        "col2": "2023",
        "col3": "1970-10-06"
    },
    {
        "col0": "War Memorial Park",
        "col1": "19829",
        "col2": "19829",
        "col3": "2008-05-21"
    },
    {
        "col0": "Waquoit Historic District",
        "col1": "687965",
        "col2": "687965",
        "col3": "2004-02-26"
    },
    {
        "col0": "Wantagh Railroad Complex",
        "col1": "6070",
        "col2": "6070",
        "col3": "1983-06-30"
    },
    {
        "col0": "Wanskuck Historic District",
        "col1": "481575",
        "col2": "481575",
        "col3": "1983-12-01"
    },
    {
        "col0": "Wananalua Congregational Church",
        "col1": "14973",
        "col2": "14973",
        "col3": "1988-11-23"
    },
    {
        "col0": "Wamsutta Mills",
        "col1": "78104",
        "col2": "78104",
        "col3": "2008-08-19"
    },
    {
        "col0": "Walton and Willett Stone Store",
        "col1": "4046",
        "col2": "4046",
        "col3": "1976-05-24"
    },
    {
        "col0": "Walton Wait House",
        "col1": "404",
        "col2": "404",
        "col3": "1982-12-10"
    },
    {
        "col0": "Walterboro Library Society Building",
        "col1": "1214",
        "col2": "1214",
        "col3": "1971-10-14"
    },
    {
        "col0": "Walter and Eva Burgess Farm",
        "col1": "833652",
        "col2": "833652",
        "col3": "1997-04-14"
    },
    {
        "col0": "Walter V. Smith House",
        "col1": "2023",
        "col2": "2023",
        "col3": "1993-02-19"
    },
    {
        "col0": "Walter Thompson House and Carriage House",
        "col1": "133546",
        "col2": "133546",
        "col3": "1982-11-23"
    },
    {
        "col0": "Walter Scott Montgomery House",
        "col1": "10521",
        "col2": "10521",
        "col3": "1984-11-01"
    },
    {
        "col0": "Walter S. Zimmerman House",
        "col1": "2711",
        "col2": "2711",
        "col3": "1991-02-28"
    },
    {
        "col0": "Walter R. and Eliza Smith Moore House",
        "col1": "33184",
        "col2": "33184",
        "col3": "2005-05-04"
    },
    {
        "col0": "Walter McDonald Sanders House",
        "col1": "8093",
        "col2": "8093",
        "col3": "2002-11-21"
    },
    {
        "col0": "Walter McCanless House",
        "col1": "7284",
        "col2": "7284",
        "col3": "2005-05-21"
    },
    {
        "col0": "Walter James Lenoir House",
        "col1": "25899",
        "col2": "25899",
        "col3": "2004-09-02"
    },
    {
        "col0": "Walter House",
        "col1": "5665",
        "col2": "5665",
        "col3": "2007-12-11"
    },
    {
        "col0": "Walter George Smith School",
        "col1": "8093",
        "col2": "8093",
        "col3": "1986-12-04"
    },
    {
        "col0": "Walter Field House",
        "col1": "4046",
        "col2": "4046",
        "col3": "1980-03-03"
    },
    {
        "col0": "Walter E. Moore House",
        "col1": "3237",
        "col2": "3237",
        "col3": "1990-02-23"
    },
    {
        "col0": "Walter E. Hoffman United States Courthouse",
        "col1": "7689",
        "col2": "7689",
        "col3": "1984-10-10"
    },
    {
        "col0": "Walter Curtis House",
        "col1": "4046",
        "col2": "4046",
        "col3": "1980-10-03"
    },
    {
        "col0": "Walter Cliff Ranch District",
        "col1": "106027",
        "col2": "106027",
        "col3": "1985-09-16"
    },
    {
        "col0": "Walter Butler Homestead",
        "col1": "8093",
        "col2": "8093",
        "col3": "1976-06-23"
    },
    {
        "col0": "Walter Allman House",
        "col1": "4046",
        "col2": "4046",
        "col3": "2010-12-27"
    },
    {
        "col0": "Walter A. Sheaffer House",
        "col1": "32374",
        "col2": "32374",
        "col3": "2006-09-19"
    },
    {
        "col0": "Walter's Mill Bridge",
        "col1": "404",
        "col2": "404",
        "col3": "1980-12-10"
    },
    {
        "col0": "Walt Whitman Birthplace State Historic Site",
        "col1": "5260",
        "col2": "5260",
        "col3": "1985-09-26"
    },
    {
        "col0": "Walt Disney Elementary School",
        "col1": "80937",
        "col2": "80937",
        "col3": "2007-08-30"
    },
    {
        "col0": "Walston-Bulluck House",
        "col1": "1214",
        "col2": "1214",
        "col3": "1971-02-18"
    },
    {
        "col0": "Walstein Childs House",
        "col1": "513141",
        "col2": "513141",
        "col3": "2003-07-03"
    },
    {
        "col0": "Walsh Stable",
        "col1": "404",
        "col2": "404",
        "col3": "1986-11-06"
    },
    {
        "col0": "Walsh Flats/Langworth Building",
        "col1": "4046",
        "col2": "4046",
        "col3": "1984-04-05"
    },
    {
        "col0": "Walsh County Courthouse",
        "col1": "6879",
        "col2": "6879",
        "col3": "1985-11-25"
    },
    {
        "col0": "Walsh-Havemeyer House",
        "col1": "8336",
        "col2": "8336",
        "col3": "2010-03-23"
    },
    {
        "col0": "Walpole Academy",
        "col1": "6070",
        "col2": "6070",
        "col3": "1975-05-21"
    },
    {
        "col0": "Walnut Valley",
        "col1": "1063959",
        "col2": "1063959",
        "col3": "2013-08-27"
    },
    {
        "col0": "Walnut Street Historic District",
        "col1": "52609",
        "col2": "52609",
        "col3": "1980-07-30"
    },
    {
        "col0": "Walnut Street Historic District",
        "col1": "28327",
        "col2": "28327",
        "col3": "2006-09-20"
    },
    {
        "col0": "Walnut Street Historic District",
        "col1": "72843",
        "col2": "72843",
        "col3": "1989-02-17"
    },
    {
        "col0": "Walnut Street Historic District",
        "col1": "87007",
        "col2": "87007",
        "col3": "1976-12-12"
    },
    {
        "col0": "Walnut Street Bridge",
        "col1": "6474",
        "col2": "6474",
        "col3": "1990-02-23"
    },
    {
        "col0": "Walnut Spring",
        "col1": "8093",
        "col2": "8093",
        "col3": "1989-11-13"
    },
    {
        "col0": "Walnut Ridge Friends Meetinghouse",
        "col1": "16187",
        "col2": "16187",
        "col3": "1984-03-01"
    },
    {
        "col0": "Walnut Ridge Commercial Historic District",
        "col1": "80937",
        "col2": "80937",
        "col3": "2010-05-28"
    },
    {
        "col0": "Walnut Ridge Army Airfield Access Road",
        "col1": "14568",
        "col2": "14568",
        "col3": "2016-06-07"
    },
    {
        "col0": "Walnut Lane",
        "col1": "14568",
        "col2": "14568",
        "col3": "1979-07-22"
    },
    {
        "col0": "Walnut Hills United Presbyterian Church",
        "col1": "4046",
        "col2": "4046",
        "col3": "1980-03-03"
    },
    {
        "col0": "Walnut Hills Cemetery",
        "col1": "183160",
        "col2": "183160",
        "col3": "1985-10-17"
    },
    {
        "col0": "Walnut Hill Presbyterian Church",
        "col1": "38445",
        "col2": "38445",
        "col3": "1973-05-07"
    },
    {
        "col0": "Walnut Hill Historic District",
        "col1": "635356",
        "col2": "635356",
        "col3": "2000-10-06"
    },
    {
        "col0": "Walnut Hill Cotton Gin",
        "col1": "2023",
        "col2": "2023",
        "col3": "1986-08-14"
    },
    {
        "col0": "Walnut Hill",
        "col1": "793183",
        "col2": "793183",
        "col3": "2000-01-27"
    },
    {
        "col0": "Walnut Grove Methodist Church",
        "col1": "4046",
        "col2": "4046",
        "col3": "1977-09-28"
    },
    {
        "col0": "Walnut Grove Farm",
        "col1": "1335462",
        "col2": "1335462",
        "col3": "1991-01-17"
    },
    {
        "col0": "Walnut Grove",
        "col1": "20234",
        "col2": "20234",
        "col3": "1977-08-22"
    },
    {
        "col0": "Walnut Grove",
        "col1": "80937",
        "col2": "80937",
        "col3": "1975-05-29"
    },
    {
        "col0": "Walnut Grove",
        "col1": "32779",
        "col2": "32779",
        "col3": "2004-08-20"
    },
    {
        "col0": "Walnut Grove",
        "col1": "15378",
        "col2": "15378",
        "col3": "1984-03-08"
    },
    {
        "col0": "Walnut Grove",
        "col1": "16187",
        "col2": "16187",
        "col3": "1980-11-21"
    },
    {
        "col0": "Walnut-Chancellor Historic District",
        "col1": "20234",
        "col2": "20234",
        "col3": "1980-12-01"
    },
    {
        "col0": "Wallowa Ranger Station",
        "col1": "4856",
        "col2": "4856",
        "col3": "2009-10-28"
    },
    {
        "col0": "Wallingford Main Street Historic District",
        "col1": "263045",
        "col2": "263045",
        "col3": "1984-11-01"
    },
    {
        "col0": "Wallingford Hall",
        "col1": "15782",
        "col2": "15782",
        "col3": "2004-04-28"
    },
    {
        "col0": "Waller House",
        "col1": "50828",
        "col2": "50828",
        "col3": "2014-08-25"
    },
    {
        "col0": "Wallaceton",
        "col1": "12140",
        "col2": "12140",
        "col3": "1994-05-19"
    },
    {
        "col0": "Wallace K. Harrison Estate",
        "col1": "46538",
        "col2": "46538",
        "col3": "1985-09-26"
    },
    {
        "col0": "Wallace House",
        "col1": "6070",
        "col2": "6070",
        "col3": "1970-12-02"
    },
    {
        "col0": "Wallace Commercial Historic District",
        "col1": "70010",
        "col2": "70010",
        "col3": "1995-10-20"
    },
    {
        "col0": "Wallace-McGee House",
        "col1": "2023",
        "col2": "2023",
        "col3": "1979-03-02"
    },
    {
        "col0": "Wallace-Cross Mill",
        "col1": "2023",
        "col2": "2023",
        "col3": "1977-12-22"
    },
    {
        "col0": "Wallabout Industrial Historic District",
        "col1": "40792",
        "col2": "40792",
        "col3": "2012-08-07"
    },
    {
        "col0": "Wallabout Historic District",
        "col1": "73531",
        "col2": "73531",
        "col3": "2011-04-27"
    },
    {
        "col0": "Walla Lutheran Church",
        "col1": "12140",
        "col2": "12140",
        "col3": "2004-05-19"
    }
]