[
    {
        "col0": "W. Garne",
        "col1": "England",
        "col2": "1861-05-09",
        "col3": "1895",
        "col4": "1861-05-09"
    },
    {
        "col0": "N. Neville",
        "col1": "Great Britain",
        "col2": "1949-09-26",
        "col3": "2015",
        "col4": "1949-09-26"
    },
    {
        "col0": "M. Pavri",
        "col1": "India",
        "col2": "1866-10-10",
        "col3": "1946",
        "col4": "1866-10-10"
    },
    {
        "col0": "J. S. Munn",
        "col1": "Newfoundland",
        "col2": "1880-06-06",
        "col3": "1918",
        "col4": "1880-06-06"
    },
    {
        "col0": "G. Atkinson",
        "col1": "England",
        "col2": "1830-09-21",
        "col3": "1906",
        "col4": "1830-09-21"
    }
]