[
    {
        "col0": "Vulva",
        "col1": "Pudendal nerve",
        "col2": "Superficial inguinal lymph nodes",
        "col3": "Vulva"
    },
    {
        "col0": "Urethra",
        "col1": "Pudendal nerve",
        "col2": "Internal iliac lymph nodes",
        "col3": "urethra"
    },
    {
        "col0": "Thumb",
        "col1": "Dorsal digital nerves of radial nerve",
        "col2": "Infraclavicular lymph nodes",
        "col3": "Thumb"
    },
    {
        "col0": "Sublingual gland",
        "col1": "Submandibular ganglion",
        "col2": "Submandibular lymph nodes",
        "col3": "Sublingual+Gland"
    },
    {
        "col0": "Stomach",
        "col1": "Vagus nerve",
        "col2": "Celiac lymph nodes",
        "col3": "Stomach"
    },
    {
        "col0": "Small intestine",
        "col1": "Vagus",
        "col2": "Intestinal lymph trunk",
        "col3": "Small+intestine"
    },
    {
        "col0": "Scrotum",
        "col1": "Perineal branches of posterior femoral cutaneous nerve",
        "col2": "Superficial inguinal lymph nodes",
        "col3": "Scrotum"
    },
    {
        "col0": "Scalp",
        "col1": "Greater occipital nerve",
        "col2": "Mastoid lymph nodes",
        "col3": "Scalp"
    },
    {
        "col0": "Rectum",
        "col1": "Inferior anal nerves",
        "col2": "Internal iliac lymph nodes",
        "col3": "Rectum"
    },
    {
        "col0": "Prostate",
        "col1": "Inferior hypogastric plexus",
        "col2": "External iliac lymph nodes",
        "col3": "Prostate"
    },
    {
        "col0": "Parotid gland",
        "col1": "Glossopharyngeal nerve",
        "col2": "Preauricular deep parotid lymph nodes",
        "col3": "Parotid+Gland"
    },
    {
        "col0": "Parathyroid gland",
        "col1": "Inferior cervical ganglion",
        "col2": "Pretracheal lymph nodes",
        "col3": "Parathyroid+Glands"
    },
    {
        "col0": "Pancreas",
        "col1": "Vagus nerve",
        "col2": "Celiac lymph nodes",
        "col3": "Pancreas"
    },
    {
        "col0": "Ovary",
        "col1": "Ovarian plexus",
        "col2": "Paraaortic lymph node",
        "col3": "Ovary"
    },
    {
        "col0": "Mammary gland",
        "col1": "Intercostal nerves",
        "col2": "Pectoral axillary lymph nodes",
        "col3": "A01.236.249"
    },
    {
        "col0": "Human penis",
        "col1": "Dorsal nerve of the penis",
        "col2": "Superficial inguinal lymph nodes",
        "col3": "Penis"
    },
    {
        "col0": "Bartholin's gland",
        "col1": "Ilioinguinal nerve",
        "col2": "Superficial inguinal lymph nodes",
        "col3": "Bartholin's+Glands"
    },
    {
        "col0": "Axilla",
        "col1": "Axillary nerve",
        "col2": "Axillary lymph nodes",
        "col3": "Axilla"
    },
    {
        "col0": "Anal canal",
        "col1": "Autonomic nervous system",
        "col2": "Internal iliac lymph nodes",
        "col3": "Anal+Canal"
    },
    {
        "col0": "Adrenal gland",
        "col1": "Celiac plexus",
        "col2": "Lumbar lymph nodes",
        "col3": "Adrenal+Glands"
    },
    {
        "col0": "Adrenal adenoma",
        "col1": "Celiac plexus",
        "col2": "Lumbar glands",
        "col3": "Adrenal+Glands"
    }
]