[
    {
        "col0": "R. Tucker",
        "col1": "1975-06-12",
        "col2": "112",
        "col3": "1975-06-12"
    },
    {
        "col0": "R. Taylor",
        "col1": "1987-11-16",
        "col2": "218",
        "col3": "1987-11-16"
    },
    {
        "col0": "R. Swope",
        "col1": "1990-09-20",
        "col2": "174",
        "col3": "1990-09-20"
    },
    {
        "col0": "R. Stewart",
        "col1": "1973-09-30",
        "col2": "76",
        "col3": "1973-09-30"
    },
    {
        "col0": "R. Smith",
        "col1": "1993-09-07",
        "col2": "108",
        "col3": "1993-09-07"
    },
    {
        "col0": "R. Smith",
        "col1": "1985-07-17",
        "col2": "206",
        "col3": "1985-07-17"
    },
    {
        "col0": "R. Sims",
        "col1": "1980-05-04",
        "col2": "6",
        "col3": "1980-05-04"
    },
    {
        "col0": "R. Seymour",
        "col1": "1990-02-07",
        "col2": "220",
        "col3": "1990-02-07"
    },
    {
        "col0": "R. Russell",
        "col1": "1992-01-17",
        "col2": "163",
        "col3": "1992-01-17"
    },
    {
        "col0": "R. Riddle",
        "col1": "1981-07-05",
        "col2": "212",
        "col3": "1981-07-05"
    },
    {
        "col0": "R. Pontbriand",
        "col1": "1979-10-01",
        "col2": "142",
        "col3": "1979-10-01"
    },
    {
        "col0": "R. Pickett",
        "col1": "1979-10-08",
        "col2": "29",
        "col3": "1979-10-08"
    },
    {
        "col0": "R. Phillips",
        "col1": "1974-02-07",
        "col2": "68",
        "col3": "1974-02-07"
    },
    {
        "col0": "R. O'Callaghan",
        "col1": "1983-07-19",
        "col2": "136",
        "col3": "1983-07-19"
    },
    {
        "col0": "R. Nassib",
        "col1": "1990-03-10",
        "col2": "110",
        "col3": "1990-03-10"
    },
    {
        "col0": "R. Murphy",
        "col1": "1992-10-14",
        "col2": "248",
        "col3": "1992-10-14"
    },
    {
        "col0": "R. Mundy",
        "col1": "1985-2-11",
        "col2": "194",
        "col3": "1985-2-11"
    },
    {
        "col0": "R. Mouton",
        "col1": "1986-09-23",
        "col2": "94",
        "col3": "1986-09-23"
    },
    {
        "col0": "R. Moats",
        "col1": "1982-12-17",
        "col2": "77",
        "col3": "1982-12-17"
    },
    {
        "col0": "R. Miller",
        "col1": "1989-07-06",
        "col2": "160",
        "col3": "1989-07-06"
    },
    {
        "col0": "R. McNeil",
        "col1": "1970-10-04",
        "col2": "33",
        "col3": "1970-10-04"
    },
    {
        "col0": "R. McBean",
        "col1": "1984-04-23",
        "col2": "132",
        "col3": "1984-04-23"
    },
    {
        "col0": "R. Mathews",
        "col1": "1987-10-10",
        "col2": "12",
        "col3": "1987-10-10"
    },
    {
        "col0": "R. Mallett",
        "col1": "1988-06-05",
        "col2": "74",
        "col3": "1988-06-05"
    },
    {
        "col0": "R. Lindley",
        "col1": "1989-06-22",
        "col2": "185",
        "col3": "1989-06-22"
    },
    {
        "col0": "R. Leaf",
        "col1": "1976-05-15",
        "col2": "2",
        "col3": "1976-05-15"
    },
    {
        "col0": "R. Krause",
        "col1": "1981-06-16",
        "col2": "169",
        "col3": "1981-06-16"
    },
    {
        "col0": "R. Kerrigan",
        "col1": "1988-08-16",
        "col2": "16",
        "col3": "1988-08-16"
    },
    {
        "col0": "R. Kelly",
        "col1": "1993-0-0",
        "col2": "18",
        "col3": "1993-0-0"
    },
    {
        "col0": "R. Kalil",
        "col1": "1985-03-29",
        "col2": "59",
        "col3": "1985-03-29"
    },
    {
        "col0": "R. Jensen",
        "col1": "1991-05-27",
        "col2": "203",
        "col3": "1991-05-27"
    },
    {
        "col0": "R. Hoag",
        "col1": "1979-11-23",
        "col2": "262",
        "col3": "1979-11-23"
    },
    {
        "col0": "R. Harris",
        "col1": "1985-03-11",
        "col2": "70",
        "col3": "1985-03-11"
    },
    {
        "col0": "R. Hannam",
        "col1": "1980-2-24",
        "col2": "169",
        "col3": "1980-2-24"
    },
    {
        "col0": "R. Hale",
        "col1": "1975-07-10",
        "col2": "225",
        "col3": "1975-07-10"
    },
    {
        "col0": "R. Grigson",
        "col1": "1972-2-23",
        "col2": "175",
        "col3": "1972-2-23"
    },
    {
        "col0": "R. Griffin",
        "col1": "1990-01-11",
        "col2": "201",
        "col3": "1990-01-11"
    },
    {
        "col0": "R. Grant",
        "col1": "1990-12-19",
        "col2": "142",
        "col3": "1990-12-19"
    },
    {
        "col0": "R. Fitzpatrick",
        "col1": "1982-11-24",
        "col2": "250",
        "col3": "1982-11-24"
    },
    {
        "col0": "R. Durand",
        "col1": "1985-11-17",
        "col2": "239",
        "col3": "1985-11-17"
    },
    {
        "col0": "R. Diem",
        "col1": "1979-07-01",
        "col2": "118",
        "col3": "1979-07-01"
    },
    {
        "col0": "R. Denney",
        "col1": "1977-06-15",
        "col2": "61",
        "col3": "1977-06-15"
    },
    {
        "col0": "R. Cook",
        "col1": "1983-05-08",
        "col2": "51",
        "col3": "1983-05-08"
    },
    {
        "col0": "R. Christopherson",
        "col1": "1972-07-26",
        "col2": "169",
        "col3": "1972-07-26"
    },
    {
        "col0": "R. Broyles",
        "col1": "1988-04-09",
        "col2": "54",
        "col3": "1988-04-09"
    },
    {
        "col0": "R. Smith",
        "col1": "1987-01-28",
        "col2": "176",
        "col3": "1987-01-28"
    },
    {
        "col0": "R. Russell",
        "col1": "1963-08-16",
        "col2": "60",
        "col3": "1963-08-16"
    },
    {
        "col0": "R. Hilger",
        "col1": "1962-5-9",
        "col2": "143",
        "col3": "1962-5-9"
    },
    {
        "col0": "R. Wilson",
        "col1": "1988-11-29",
        "col2": "75",
        "col3": "1988-11-29"
    },
    {
        "col0": "R. White",
        "col1": "1970-12-15",
        "col2": "73",
        "col3": "1970-12-15"
    },
    {
        "col0": "R. Maryland",
        "col1": "1969-03-22",
        "col2": "1",
        "col3": "1969-03-22"
    },
    {
        "col0": "R. Erxleben",
        "col1": "1957-01-13",
        "col2": "11",
        "col3": "1957-01-13"
    },
    {
        "col0": "R. Davis",
        "col1": "1956-09-15",
        "col2": "86",
        "col3": "1956-09-15"
    },
    {
        "col0": "R. Davis",
        "col1": "1975-03-28",
        "col2": "49",
        "col3": "1975-03-28"
    },
    {
        "col0": "R. Bodine",
        "col1": "1992-06-30",
        "col2": "111",
        "col3": "1992-06-30"
    },
    {
        "col0": "R. Washington",
        "col1": "1946-12-17",
        "col2": "4",
        "col3": "1946-12-17"
    },
    {
        "col0": "R. Thomas",
        "col1": "1924-07-24",
        "col2": "22",
        "col3": "1924-07-24"
    },
    {
        "col0": "R. Hochstein",
        "col1": "1977-10-07",
        "col2": "151",
        "col3": "1977-10-07"
    },
    {
        "col0": "R. Grimm",
        "col1": "1959-05-02",
        "col2": "69",
        "col3": "1959-05-02"
    },
    {
        "col0": "R. Cotton",
        "col1": "1915-05-24",
        "col2": "113",
        "col3": "1915-05-24"
    },
    {
        "col0": "R. Campbell",
        "col1": "1969-04-02",
        "col2": "179",
        "col3": "1969-04-02"
    },
    {
        "col0": "R. Mayes",
        "col1": "1947-12-05",
        "col2": "14",
        "col3": "1947-12-05"
    },
    {
        "col0": "R. Johnson",
        "col1": "1990-08-28",
        "col2": "183",
        "col3": "1990-08-28"
    },
    {
        "col0": "R. Granderson",
        "col1": "1936-8-13",
        "col2": "221",
        "col3": "1936-8-13"
    },
    {
        "col0": "R. Deal",
        "col1": "1917-12-07",
        "col2": "21",
        "col3": "1917-12-07"
    },
    {
        "col0": "R. Alexander",
        "col1": "1983-04-12",
        "col2": "176",
        "col3": "1983-04-12"
    },
    {
        "col0": "R. Randle",
        "col1": "1991-05-07",
        "col2": "63",
        "col3": "1991-05-07"
    },
    {
        "col0": "R. Mayes",
        "col1": "1963-06-06",
        "col2": "57",
        "col3": "1963-06-06"
    },
    {
        "col0": "R. Redmond",
        "col1": "1947-08-25",
        "col2": "91",
        "col3": "1947-08-25"
    },
    {
        "col0": "R. Mucha",
        "col1": "1918-07-22",
        "col2": "4",
        "col3": "1918-07-22"
    },
    {
        "col0": "R. Mobley",
        "col1": "1921-12-08",
        "col2": "107",
        "col3": "1921-12-08"
    },
    {
        "col0": "R. Johnson",
        "col1": "1941-08-12",
        "col2": "57",
        "col3": "1941-08-12"
    },
    {
        "col0": "R. Harris",
        "col1": "1971-09-18",
        "col2": "91",
        "col3": "1971-09-18"
    },
    {
        "col0": "R. Johnson",
        "col1": "1979-10-01",
        "col2": "100",
        "col3": "1979-10-01"
    },
    {
        "col0": "R. Rodriguez",
        "col1": "1965-03-03",
        "col2": "131",
        "col3": "1965-03-03"
    },
    {
        "col0": "R. Brown",
        "col1": "1972-02-13",
        "col2": "14",
        "col3": "1972-02-13"
    },
    {
        "col0": "R. Young",
        "col1": "1957-12-01",
        "col2": "23",
        "col3": "1957-12-01"
    },
    {
        "col0": "R. Williams",
        "col1": "1981-03-14",
        "col2": "136",
        "col3": "1981-03-14"
    },
    {
        "col0": "R. Smith",
        "col1": "1949-06-17",
        "col2": "8",
        "col3": "1949-06-17"
    },
    {
        "col0": "R. Berry",
        "col1": "1946-04-19",
        "col2": "161",
        "col3": "1946-04-19"
    },
    {
        "col0": "R. Zimmerman",
        "col1": "1918-02-20",
        "col2": "58",
        "col3": "1918-02-20"
    },
    {
        "col0": "R. Young",
        "col1": "1917-09-11",
        "col2": "59",
        "col3": "1917-09-11"
    },
    {
        "col0": "R. Winston",
        "col1": "1940-9-15",
        "col2": "45",
        "col3": "1940-9-15"
    },
    {
        "col0": "R. Williams",
        "col1": "1981-12-20",
        "col2": "7",
        "col3": "1981-12-20"
    },
    {
        "col0": "R. Williams",
        "col1": "1980-08-14",
        "col2": "8",
        "col3": "1980-08-14"
    },
    {
        "col0": "R. Williams",
        "col1": "1937-04-30",
        "col2": "27",
        "col3": "1937-04-30"
    },
    {
        "col0": "R. Wilkins",
        "col1": "1933-12-26",
        "col2": "64",
        "col3": "1933-12-26"
    },
    {
        "col0": "R. Miller",
        "col1": "1987-07-09",
        "col2": "81",
        "col3": "1987-07-09"
    },
    {
        "col0": "R. McKay",
        "col1": "1920-2-2",
        "col2": "38",
        "col3": "1920-2-2"
    },
    {
        "col0": "R. Jefferson",
        "col1": "1943-11-09",
        "col2": "18",
        "col3": "1943-11-09"
    },
    {
        "col0": "R. H. Jr.",
        "col1": "1934-12-25",
        "col2": "88",
        "col3": "1934-12-25"
    },
    {
        "col0": "R. Helu",
        "col1": "1988-12-07",
        "col2": "105",
        "col3": "1988-12-07"
    },
    {
        "col0": "R. Hart",
        "col1": "1965-07-10",
        "col2": "158",
        "col3": "1965-07-10"
    },
    {
        "col0": "R. Hall",
        "col1": "1983-12-08",
        "col2": "169",
        "col3": "1983-12-08"
    },
    {
        "col0": "R. Green",
        "col1": "1957-6-30",
        "col2": "89",
        "col3": "1957-6-30"
    },
    {
        "col0": "R. Foster",
        "col1": "1960-05-24",
        "col2": "24",
        "col3": "1960-05-24"
    },
    {
        "col0": "R. Curry",
        "col1": "1939-11-09",
        "col2": "164",
        "col3": "1939-11-09"
    },
    {
        "col0": "R. Barker",
        "col1": "1969-2-24",
        "col2": "98",
        "col3": "1969-2-24"
    },
    {
        "col0": "R. Verba",
        "col1": "1973-10-31",
        "col2": "30",
        "col3": "1973-10-31"
    },
    {
        "col0": "R. Homan",
        "col1": "1987-03-05",
        "col2": "200",
        "col3": "1987-03-05"
    },
    {
        "col0": "R. Coyle",
        "col1": "1937-3-23",
        "col2": "237",
        "col3": "1937-3-23"
    },
    {
        "col0": "R. Cockrell",
        "col1": "1991-08-06",
        "col2": "109",
        "col3": "1991-08-06"
    },
    {
        "col0": "R. Carter",
        "col1": "1914-03-10",
        "col2": "69",
        "col3": "1914-03-10"
    },
    {
        "col0": "R. Browner",
        "col1": "1954-03-22",
        "col2": "8",
        "col3": "1954-03-22"
    },
    {
        "col0": "R. Manning",
        "col1": "1950-05-31",
        "col2": "42",
        "col3": "1950-05-31"
    },
    {
        "col0": "R. Grier",
        "col1": "1932-07-14",
        "col2": "31",
        "col3": "1932-07-14"
    },
    {
        "col0": "R. Brown",
        "col1": "1932-10-20",
        "col2": "321",
        "col3": "1932-10-20"
    },
    {
        "col0": "R. Colvin",
        "col1": "1947-9-5",
        "col2": "111",
        "col3": "1947-9-5"
    },
    {
        "col0": "R. Parrish",
        "col1": "1982-07-16",
        "col2": "55",
        "col3": "1982-07-16"
    },
    {
        "col0": "R. Hansen",
        "col1": "1929-09-24",
        "col2": "346",
        "col3": "1929-09-24"
    },
    {
        "col0": "R. Anderson",
        "col1": "1992-10-02",
        "col2": "254",
        "col3": "1992-10-02"
    },
    {
        "col0": "R. Williams",
        "col1": "1978-09-10",
        "col2": "72",
        "col3": "1978-09-10"
    },
    {
        "col0": "R. Nix",
        "col1": "1967-04-17",
        "col2": "199",
        "col3": "1967-04-17"
    },
    {
        "col0": "R. Leaks",
        "col1": "1953-01-31",
        "col2": "105",
        "col3": "1953-01-31"
    },
    {
        "col0": "R. Collins",
        "col1": "1968-01-25",
        "col2": "155",
        "col3": "1968-01-25"
    },
    {
        "col0": "R. Blackmon",
        "col1": "1974-09-10",
        "col2": "121",
        "col3": "1974-09-10"
    },
    {
        "col0": "R. Barnes",
        "col1": "1958-08-03",
        "col2": "266",
        "col3": "1958-08-03"
    },
    {
        "col0": "R. Stanley",
        "col1": "1994-03-18",
        "col2": "6",
        "col3": "1994-03-18"
    },
    {
        "col0": "R. Shanklin",
        "col1": "1948-01-21",
        "col2": "28",
        "col3": "1948-01-21"
    },
    {
        "col0": "R. Lott",
        "col1": "1959-05-08",
        "col2": "8",
        "col3": "1959-05-08"
    },
    {
        "col0": "R. L. South",
        "col1": "1945-05-08",
        "col2": "115",
        "col3": "1945-05-08"
    },
    {
        "col0": "R. Lee",
        "col1": "1956-12-24",
        "col2": "65",
        "col3": "1956-12-24"
    },
    {
        "col0": "R. Hillman",
        "col1": "1991-09-14",
        "col2": "67",
        "col3": "1991-09-14"
    },
    {
        "col0": "R. Harmon",
        "col1": "1964-05-07",
        "col2": "16",
        "col3": "1964-05-07"
    },
    {
        "col0": "R. Dixon",
        "col1": "1971-05-10",
        "col2": "165",
        "col3": "1971-05-10"
    },
    {
        "col0": "R. Brown",
        "col1": "1981-12-12",
        "col2": "2",
        "col3": "1981-12-12"
    },
    {
        "col0": "R. Bradford",
        "col1": "1970-10-01",
        "col2": "(By theMiami Dolphins)",
        "col3": "1970-10-01"
    },
    {
        "col0": "R. Lewis",
        "col1": "1990-09-17",
        "col2": "125",
        "col3": "1990-09-17"
    },
    {
        "col0": "R. Mealey",
        "col1": "1977-02-24",
        "col2": "252",
        "col3": "1977-02-24"
    },
    {
        "col0": "R. Jones",
        "col1": "1971-05-07",
        "col2": "69",
        "col3": "1971-05-07"
    },
    {
        "col0": "R. Barber",
        "col1": "1975-4-7",
        "col2": "66",
        "col3": "1975-4-7"
    },
    {
        "col0": "R. Powell",
        "col1": "1991-05-14",
        "col2": "169",
        "col3": "1991-05-14"
    },
    {
        "col0": "R. Johnson",
        "col1": "1988-08-03",
        "col2": "182",
        "col3": "1988-08-03"
    },
    {
        "col0": "R. Fields",
        "col1": "1981-09-13",
        "col2": "137",
        "col3": "1981-09-13"
    },
    {
        "col0": "R. Darby",
        "col1": "1994-01-02",
        "col2": "50",
        "col3": "1994-01-02"
    },
    {
        "col0": "R. Curry",
        "col1": "1979-05-28",
        "col2": "235",
        "col3": "1979-05-28"
    },
    {
        "col0": "R. Blair",
        "col1": "1993-01-23",
        "col2": "142",
        "col3": "1993-01-23"
    },
    {
        "col0": "R. Wolfley",
        "col1": "1962-10-14",
        "col2": "104",
        "col3": "1962-10-14"
    },
    {
        "col0": "R. Warner",
        "col1": "1975-09-26",
        "col2": "239",
        "col3": "1975-09-26"
    },
    {
        "col0": "R. Waller",
        "col1": "1933-02-14",
        "col2": "15",
        "col3": "1933-02-14"
    },
    {
        "col0": "R. Stone",
        "col1": "1971-07-20",
        "col2": "96",
        "col3": "1971-07-20"
    },
    {
        "col0": "R. Stallworth",
        "col1": "1966-02-25",
        "col2": "98",
        "col3": "1966-02-25"
    },
    {
        "col0": "R. Springs",
        "col1": "1956-11-04",
        "col2": "136",
        "col3": "1956-11-04"
    },
    {
        "col0": "R. Solt",
        "col1": "1962-05-19",
        "col2": "19",
        "col3": "1962-05-19"
    },
    {
        "col0": "R. Singleton",
        "col1": "1952-04-15",
        "col2": "113",
        "col3": "1952-04-15"
    },
    {
        "col0": "R. Simpkins",
        "col1": "1958-04-02",
        "col2": "167",
        "col3": "1958-04-02"
    },
    {
        "col0": "R. Sellers",
        "col1": "1947-2-5",
        "col2": "6",
        "col3": "1947-2-5"
    },
    {
        "col0": "R. Saul",
        "col1": "1948-2-5",
        "col2": "110",
        "col3": "1948-2-5"
    },
    {
        "col0": "R. Sabal",
        "col1": "1936-07-23",
        "col2": "220",
        "col3": "1936-07-23"
    },
    {
        "col0": "R. Rivera",
        "col1": "1962-1-7",
        "col2": "44",
        "col3": "1962-1-7"
    },
    {
        "col0": "R. Reeves",
        "col1": "1960-03-04",
        "col2": "261",
        "col3": "1960-03-04"
    },
    {
        "col0": "R. Pritchard",
        "col1": "1947-04-02",
        "col2": "15",
        "col3": "1947-04-02"
    }
]