[
    {
        "col0": "V. Wood",
        "col1": "G. Durham",
        "col2": "Lancashire",
        "col3": "London",
        "col4": "1953-05-19",
        "col5": "2016-04-20"
    },
    {
        "col0": "R. Pryor",
        "col1": "D. McGuire",
        "col2": "Peoria, Illinois",
        "col3": "California",
        "col4": "1940-12-01",
        "col5": "2005-12-10"
    },
    {
        "col0": "P. Silvers",
        "col1": "J. Dennison",
        "col2": "Brooklyn",
        "col3": "California",
        "col4": "1911-05-11",
        "col5": "1985-11-01"
    },
    {
        "col0": "L. Weinstock",
        "col1": "D. Jove",
        "col2": "Pennsylvania",
        "col3": "California",
        "col4": "1943-0-0",
        "col5": "1997-08-31"
    },
    {
        "col0": "L. Bruce",
        "col1": "H. Harlow",
        "col2": "Mineola, New York",
        "col3": "Hollywood",
        "col4": "1925-10-13",
        "col5": "1966-08-03"
    },
    {
        "col0": "H. Einstein",
        "col1": "T. Leeds",
        "col2": "Boston",
        "col3": "Los Angeles, California",
        "col4": "1904-05-06",
        "col5": "1958-11-23"
    },
    {
        "col0": "H. Lloyd",
        "col1": "M. Davis",
        "col2": "United States",
        "col3": "California",
        "col4": "1893-04-20",
        "col5": "1971-03-08"
    },
    {
        "col0": "G. Marx",
        "col1": "E. Hartford",
        "col2": "New York",
        "col3": "California",
        "col4": "1890-10-02",
        "col5": "1977-08-19"
    },
    {
        "col0": "E. Kovacs",
        "col1": "E. Adams",
        "col2": "Trenton, New Jersey",
        "col3": "California",
        "col4": "1919-01-23",
        "col5": "1962-01-13"
    },
    {
        "col0": "D. Harron",
        "col1": "V. Leith",
        "col2": "Ontario",
        "col3": "Ontario",
        "col4": "1924-09-19",
        "col5": "2015-01-17"
    },
    {
        "col0": "D. Martin",
        "col1": "D. Read",
        "col2": "United States",
        "col3": "Santa Monica, California",
        "col4": "1922-01-30",
        "col5": "2008-05-24"
    }
]