[
    {
        "col0": "W. W. II",
        "col1": "W. F. Whiting",
        "col2": "Massachusetts",
        "col3": "1841-05-24",
        "col4": "1841-05-24"
    },
    {
        "col0": "N. Steers",
        "col1": "B. Steers",
        "col2": "Bethesda, Maryland",
        "col3": "1917-01-13",
        "col4": "1917-01-13"
    },
    {
        "col0": "L. Stokes",
        "col1": "L. Stokes",
        "col2": "Cleveland",
        "col3": "1925-02-23",
        "col4": "1925-02-23"
    },
    {
        "col0": "L. G. Sasscer",
        "col1": "Lansdale Ghiselin Sasscer, Jr.",
        "col2": "Upper Marlboro, Maryland",
        "col3": "1893-09-30",
        "col4": "1893-09-30"
    },
    {
        "col0": "John Thomson Mason, Jr.",
        "col1": "J. T. Mason",
        "col2": "Maryland",
        "col3": "1815-05-09",
        "col4": "1815-05-09"
    },
    {
        "col0": "J. Quinn",
        "col1": "J. Q. III",
        "col2": "Hamburg, New York",
        "col3": "1951-04-13",
        "col4": "1951-04-13"
    },
    {
        "col0": "E. R. Potter",
        "col1": "E. R. Potter",
        "col2": "Kingston, Rhode Island",
        "col3": "1764-11-05",
        "col4": "1764-11-05"
    },
    {
        "col0": "E. L. Wingo",
        "col1": "Edwin H Baker Pratt",
        "col2": "Arkansas",
        "col3": "1883-04-13",
        "col4": "1883-04-13"
    },
    {
        "col0": "E. W. Robertson",
        "col1": "S. M. Robertson",
        "col2": "Baton Rouge, Louisiana",
        "col3": "1823-06-13",
        "col4": "1823-06-13"
    },
    {
        "col0": "D. Hunter",
        "col1": "D. D. Hunter",
        "col2": "Alpine, California",
        "col3": "1948-05-31",
        "col4": "1948-05-31"
    },
    {
        "col0": "C. I. White",
        "col1": "Compton I. White, Jr.",
        "col2": "Clark Fork, Idaho",
        "col3": "1877-07-31",
        "col4": "1877-07-31"
    },
    {
        "col0": "C. Wilson",
        "col1": "J. Wilson",
        "col2": "St. Clairsville, Ohio",
        "col3": "1943-01-18",
        "col4": "1943-01-18"
    },
    {
        "col0": "C. H. Sr.",
        "col1": "C. H. Jr.",
        "col2": "Chicago",
        "col3": "1825-02-15",
        "col4": "1825-02-15"
    }
]