[
    {
        "col0": "Wabash Avenue-West Historic District",
        "col1": "24281",
        "col2": "24281",
        "col3": "1983-06-30"
    },
    {
        "col0": "Wabash Avenue-East Historic District",
        "col1": "14163",
        "col2": "14163",
        "col3": "1983-06-30"
    },
    {
        "col0": "WPA Field House and Pump Station",
        "col1": "20234",
        "col2": "20234",
        "col3": "2009-05-29"
    },
    {
        "col0": "W. W. Hartwell House & Dependencies",
        "col1": "7689",
        "col2": "7689",
        "col3": "1982-11-12"
    },
    {
        "col0": "W. W. Griffin Farm",
        "col1": "27518",
        "col2": "27518",
        "col3": "2001-10-20"
    },
    {
        "col0": "W. Stokes Boney House",
        "col1": "72034",
        "col2": "72034",
        "col3": "1999-07-08"
    },
    {
        "col0": "W. Q. M. Berly House",
        "col1": "2832",
        "col2": "2832",
        "col3": "1983-11-22"
    },
    {
        "col0": "W. J. Little House",
        "col1": "4046",
        "col2": "4046",
        "col3": "1985-09-19"
    },
    {
        "col0": "W. H. Winborne House",
        "col1": "1618",
        "col2": "1618",
        "col3": "1986-08-05"
    },
    {
        "col0": "W. H. Shipman House",
        "col1": "19829",
        "col2": "19829",
        "col3": "1978-06-23"
    },
    {
        "col0": "W. H. Langley House",
        "col1": "829605",
        "col2": "829605",
        "col3": "1986-02-13"
    },
    {
        "col0": "W. H. Bradford Hook and Ladder Fire House",
        "col1": "1214",
        "col2": "1214",
        "col3": "1999-10-28"
    },
    {
        "col0": "W. H. Applewhite House",
        "col1": "714270",
        "col2": "714270",
        "col3": "1986-02-13"
    },
    {
        "col0": "W. E. B. DuBois School",
        "col1": "16187",
        "col2": "16187",
        "col3": "1993-10-05"
    },
    {
        "col0": "W. Casperson House",
        "col1": "89030",
        "col2": "89030",
        "col3": "1982-04-08"
    },
    {
        "col0": "W. C. Brown House",
        "col1": "18210",
        "col2": "18210",
        "col3": "1986-10-16"
    },
    {
        "col0": "W. B. Thompson Mansion",
        "col1": "6070",
        "col2": "6070",
        "col3": "1982-10-29"
    },
    {
        "col0": "W. B. Smith Whaley House",
        "col1": "2428",
        "col2": "2428",
        "col3": "1979-03-02"
    },
    {
        "col0": "W. B. Davis Hosiery Mill",
        "col1": "8093",
        "col2": "8093",
        "col3": "1986-05-08"
    },
    {
        "col0": "W. A. Strain Farm-Strain House",
        "col1": "8093",
        "col2": "8093",
        "col3": "1978-11-29"
    },
    {
        "col0": "W.T. Askins House",
        "col1": "8093",
        "col2": "8093",
        "col3": "1995-05-26"
    },
    {
        "col0": "W.R. Surles Memorial Library",
        "col1": "28327",
        "col2": "28327",
        "col3": "2009-09-16"
    },
    {
        "col0": "W.L. Wood House",
        "col1": "8093",
        "col2": "8093",
        "col3": "2002-06-06"
    },
    {
        "col0": "W.H. Dorrance House",
        "col1": "1618",
        "col2": "1618",
        "col3": "1999-04-29"
    },
    {
        "col0": "W.H.L. McCourtie Estate",
        "col1": "169967",
        "col2": "169967",
        "col3": "1992-01-24"
    },
    {
        "col0": "W.F. Reeves House",
        "col1": "0",
        "col2": "0",
        "col3": "1993-10-04"
    },
    {
        "col0": "W.E. Chilton II House",
        "col1": "14568",
        "col2": "14568",
        "col3": "1984-10-26"
    },
    {
        "col0": "W.E.B. Du Bois Boyhood Homesite",
        "col1": "20234",
        "col2": "20234",
        "col3": "1976-05-11"
    },
    {
        "col0": "W.D. Crawford House",
        "col1": "29542",
        "col2": "29542",
        "col3": "1992-11-20"
    },
    {
        "col0": "W.C. Retszch House",
        "col1": "8498",
        "col2": "8498",
        "col3": "1986-08-25"
    },
    {
        "col0": "W.C. Record House",
        "col1": "4046",
        "col2": "4046",
        "col3": "1980-08-27"
    },
    {
        "col0": "W.C. Clemmons Mound",
        "col1": "12140",
        "col2": "12140",
        "col3": "1974-05-02"
    },
    {
        "col0": "W.C. Ball House",
        "col1": "8538",
        "col2": "8538",
        "col3": "1985-04-04"
    },
    {
        "col0": "W.A. Thorp House",
        "col1": "4046",
        "col2": "4046",
        "col3": "1978-12-04"
    },
    {
        "col0": "W.A. McNeill House",
        "col1": "4046",
        "col2": "4046",
        "col3": "1999-10-21"
    },
    {
        "col0": "W.A. Edwards House",
        "col1": "8093",
        "col2": "8093",
        "col3": "1982-06-02"
    },
    {
        "col0": "Vulcan statue",
        "col1": "16187",
        "col2": "16187",
        "col3": "1976-07-06"
    },
    {
        "col0": "Vrooman Avenue School",
        "col1": "8093",
        "col2": "8093",
        "col3": "1983-06-30"
    },
    {
        "col0": "Vosburg Turning Mill Complex",
        "col1": "20234",
        "col2": "20234",
        "col3": "2002-10-10"
    },
    {
        "col0": "Voorhees College Historic District",
        "col1": "161874",
        "col2": "161874",
        "col3": "1982-01-21"
    },
    {
        "col0": "Von Trotha-Firestien Farm",
        "col1": "198295",
        "col2": "198295",
        "col3": "2009-05-12"
    },
    {
        "col0": "Von Mach Site",
        "col1": "6070",
        "col2": "6070",
        "col3": "1989-01-17"
    },
    {
        "col0": "Volney G. Bennett Lumber Company",
        "col1": "7284",
        "col2": "7284",
        "col3": "1993-08-05"
    },
    {
        "col0": "Volkert Van Buren House",
        "col1": "7284",
        "col2": "7284",
        "col3": "1988-10-07"
    },
    {
        "col0": "Vol Walker Hall",
        "col1": "11331",
        "col2": "11331",
        "col3": "1992-09-04"
    },
    {
        "col0": "Vogt House",
        "col1": "9307",
        "col2": "9307",
        "col3": "1980-11-19"
    },
    {
        "col0": "Vogl House",
        "col1": "20234",
        "col2": "20234",
        "col3": "1976-11-07"
    },
    {
        "col0": "Virginian Railway Yard Historic District",
        "col1": "133546",
        "col2": "133546",
        "col3": "2003-05-01"
    },
    {
        "col0": "Virginia Trunk & Bag Company",
        "col1": "25495",
        "col2": "25495",
        "col3": "2009-12-23"
    },
    {
        "col0": "Virginia State Capitol",
        "col1": "57060",
        "col2": "57060",
        "col3": "1966-10-15"
    },
    {
        "col0": "Virginia School for the Deaf and the Blind",
        "col1": "404685",
        "col2": "404685",
        "col3": "1969-11-12"
    },
    {
        "col0": "Virginia Robinson Gardens",
        "col1": "25090",
        "col2": "25090",
        "col3": "1978-11-15"
    },
    {
        "col0": "Virginia Metalcrafters Historic District",
        "col1": "38040",
        "col2": "38040",
        "col3": "2015-11-16"
    },
    {
        "col0": "Virginia Manor",
        "col1": "133546",
        "col2": "133546",
        "col3": "1987-09-10"
    },
    {
        "col0": "Virginia Kendall State Park Historic District",
        "col1": "2144833",
        "col2": "2144833",
        "col3": "1997-01-02"
    },
    {
        "col0": "Virginia House",
        "col1": "35612",
        "col2": "35612",
        "col3": "1990-06-13"
    },
    {
        "col0": "Virginia Hill Historic District",
        "col1": "134760",
        "col2": "134760",
        "col3": "2002-11-27"
    },
    {
        "col0": "Virginia Heights Historic District",
        "col1": "119786",
        "col2": "119786",
        "col3": "2008-02-21"
    },
    {
        "col0": "Virginia Furnace",
        "col1": "25899",
        "col2": "25899",
        "col3": "1999-07-01"
    },
    {
        "col0": "Virginia Durant Young House",
        "col1": "2023",
        "col2": "2023",
        "col3": "1983-08-08"
    },
    {
        "col0": "Virginia Can Company-S.H. Heironimus Warehouse",
        "col1": "4451",
        "col2": "4451",
        "col3": "2006-02-22"
    },
    {
        "col0": "Virgil Hickox House",
        "col1": "2428",
        "col2": "2428",
        "col3": "1982-03-05"
    },
    {
        "col0": "Violett-Martin House and Gardens",
        "col1": "11331",
        "col2": "11331",
        "col3": "2007-09-20"
    },
    {
        "col0": "Violet Cemetery",
        "col1": "10117",
        "col2": "10117",
        "col3": "2004-10-06"
    },
    {
        "col0": "Violet Bank Historic District",
        "col1": "202342",
        "col2": "202342",
        "col3": "2015-09-29"
    },
    {
        "col0": "Violet Avenue School",
        "col1": "36826",
        "col2": "36826",
        "col3": "2014-08-18"
    },
    {
        "col0": "Vintonville Historic District",
        "col1": "80937",
        "col2": "80937",
        "col3": "2006-08-23"
    },
    {
        "col0": "Vinsonhaler Blacksmith Shop",
        "col1": "445",
        "col2": "445",
        "col3": "1996-09-06"
    },
    {
        "col0": "Vine-Oakwood-Green Bay Road Historic District",
        "col1": "52609",
        "col2": "52609",
        "col3": "1980-03-28"
    },
    {
        "col0": "Viney Fork Baptist Church",
        "col1": "2832",
        "col2": "2832",
        "col3": "1989-02-08"
    },
    {
        "col0": "Vinegar Hill Historic District",
        "col1": "84983",
        "col2": "84983",
        "col3": "2005-06-17"
    },
    {
        "col0": "Vinedale",
        "col1": "38849",
        "col2": "38849",
        "col3": "1982-07-15"
    },
    {
        "col0": "Vine Street Hill Cemetery",
        "col1": "4046",
        "col2": "4046",
        "col3": "2008-02-28"
    },
    {
        "col0": "Vine Lake Cemetery",
        "col1": "129499",
        "col2": "129499",
        "col3": "2005-04-14"
    },
    {
        "col0": "Vine Hill",
        "col1": "119382",
        "col2": "119382",
        "col3": "1983-07-15"
    },
    {
        "col0": "Vine Hill",
        "col1": "80937",
        "col2": "80937",
        "col3": "1975-05-28"
    },
    {
        "col0": "Vine Forest",
        "col1": "32374",
        "col2": "32374",
        "col3": "1991-08-23"
    },
    {
        "col0": "Vine-Oakwood-Green Bay Road Historic District",
        "col1": "52609",
        "col2": "52609",
        "col3": "1980-03-28"
    },
    {
        "col0": "Vincent Street Historic District",
        "col1": "10521",
        "col2": "10521",
        "col3": "1980-11-26"
    },
    {
        "col0": "Vincent LeRay House",
        "col1": "16187",
        "col2": "16187",
        "col3": "1973-11-15"
    },
    {
        "col0": "Vincennes Historic District",
        "col1": "2023428",
        "col2": "2023428",
        "col3": "1974-12-31"
    },
    {
        "col0": "Village of the Branch Historic District",
        "col1": "80937",
        "col2": "80937",
        "col3": "1986-09-11"
    }
]