[
    {
        "col0": "M. Aganina",
        "col1": "A. Knyazev",
        "col2": "1985-6-21",
        "col3": "1985-6-21"
    },
    {
        "col0": "M. Honda",
        "col1": "M. Zueva",
        "col2": "2001-8-21",
        "col3": "2001-8-21"
    },
    {
        "col0": "M. Kihara",
        "col1": "T. Dickson",
        "col2": "1997-9-4",
        "col3": "1997-9-4"
    },
    {
        "col0": "M. Lauriault",
        "col1": "M. Dubreuil",
        "col2": "1996-11-10",
        "col3": "1996-11-10"
    },
    {
        "col0": "M. Bell",
        "col1": "R. Ward",
        "col2": "1996-4-18",
        "col3": "1996-4-18"
    },
    {
        "col0": "M. Vigalova",
        "col1": "O. Volozhinskaia",
        "col2": "1999-6-29",
        "col3": "1999-6-29"
    },
    {
        "col0": "M. Mukhortova",
        "col1": "A. Matveev",
        "col2": "1985-11-20",
        "col3": "1985-11-20"
    },
    {
        "col0": "M. Binczyk",
        "col1": "A. Gorshkov",
        "col2": "1983-9-17",
        "col3": "1983-9-17"
    },
    {
        "col0": "M. Fabbri",
        "col1": "B. Fusar-Poli",
        "col2": "1988-2-2",
        "col3": "1988-2-2"
    },
    {
        "col0": "M. Craig",
        "col1": "S. Britten",
        "col2": "1982-10-21",
        "col3": "1982-10-21"
    },
    {
        "col0": "M. Asada",
        "col1": "L. Nichol",
        "col2": "1990-9-25",
        "col3": "1990-9-25"
    },
    {
        "col0": "M. Koll",
        "col1": "A. Kirchmayr",
        "col2": "1987-9-14",
        "col3": "1987-9-14"
    },
    {
        "col0": "M. Spodyriev",
        "col1": "S. Nowak-Trebacka",
        "col2": "1993-12-29",
        "col3": "1993-12-29"
    },
    {
        "col0": "M. Shibutani",
        "col1": "M. Zueva",
        "col2": "1994-7-20",
        "col3": "1994-7-20"
    },
    {
        "col0": "M. Mihara",
        "col1": "M. Zueva",
        "col2": "1999-8-22",
        "col3": "1999-8-22"
    },
    {
        "col0": "M. Leska",
        "col1": "M. Zoueva",
        "col2": "1984-10-13",
        "col3": "1984-10-13"
    },
    {
        "col0": "M. Hubbell",
        "col1": "M. Dubreuil",
        "col2": "1991-2-24",
        "col3": "1991-2-24"
    },
    {
        "col0": "M. Edwards",
        "col1": "M. Wing",
        "col2": "1996-6-14",
        "col3": "1996-6-14"
    },
    {
        "col0": "M. Aaron",
        "col1": "C. Lindgren",
        "col2": "1994-10-25",
        "col3": "1994-10-25"
    },
    {
        "col0": "M. Bent",
        "col1": "J. Razgulajevs",
        "col2": "1997-6-11",
        "col3": "1997-6-11"
    },
    {
        "col0": "M. Bernadowski",
        "col1": "A. Gorshkov",
        "col2": "1989-4-29",
        "col3": "1989-4-29"
    },
    {
        "col0": "M. Ephrem",
        "col1": "V. Gusmeroli",
        "col2": "1990-2-7",
        "col3": "1990-2-7"
    },
    {
        "col0": "M. Fejes",
        "col1": "E. Kustarova",
        "col2": "1988-2-8",
        "col3": "1988-2-8"
    },
    {
        "col0": "L. Gilleron-Gorry",
        "col1": "M. Ephrem",
        "col2": "1995-4-23",
        "col3": "1995-4-23"
    },
    {
        "col0": "L. Serna",
        "col1": "M. Ephrem",
        "col2": "1999-10-31",
        "col3": "1999-10-31"
    },
    {
        "col0": "L. Bock",
        "col1": "P. Camerlengo",
        "col2": "1999-5-8",
        "col3": "1999-5-8"
    },
    {
        "col0": "L. Manella",
        "col1": "I. Melnichenko",
        "col2": "1995-2-1",
        "col3": "1995-2-1"
    },
    {
        "col0": "L. Hernandez",
        "col1": "H. Walentin",
        "col2": "1985-3-11",
        "col3": "1985-3-11"
    },
    {
        "col0": "L. Fenero",
        "col1": "R. Haguenauer",
        "col2": "1992-7-23",
        "col3": "1992-7-23"
    },
    {
        "col0": "L. Ilyushechkina",
        "col1": "D. Wilson",
        "col2": "1991-11-5",
        "col3": "1991-11-5"
    },
    {
        "col0": "L. Thauron",
        "col1": "R. Haguenauer",
        "col2": "1995-8-5",
        "col3": "1995-8-5"
    },
    {
        "col0": "L. Bye",
        "col1": "I. Shpilband",
        "col2": "1998-3-2",
        "col3": "1998-3-2"
    },
    {
        "col0": "L. Jones",
        "col1": "P. Carron",
        "col2": "1988-8-1",
        "col3": "1988-8-1"
    },
    {
        "col0": "L. Efimenko",
        "col1": "M. Huth",
        "col2": "1999-6-20",
        "col3": "1999-6-20"
    },
    {
        "col0": "L. Xinyu",
        "col1": "A. Krylova",
        "col2": "1994-10-16",
        "col3": "1994-10-16"
    },
    {
        "col0": "L. Mellgren",
        "col1": "M. McLean",
        "col2": "1989-5-17",
        "col3": "1989-5-17"
    },
    {
        "col0": "L. Weinstein",
        "col1": "D. Sappenfield",
        "col2": "2000-2-18",
        "col3": "2000-2-18"
    },
    {
        "col0": "L. Fedorova",
        "col1": "I. Bobrin",
        "col2": "1997-12-20",
        "col3": "1997-12-20"
    },
    {
        "col0": "L. Zijun",
        "col1": "L. Nichol",
        "col2": "1996-12-14",
        "col3": "1996-12-14"
    },
    {
        "col0": "L. Kenchadze",
        "col1": "I. Lutai",
        "col2": "1986-8-16",
        "col3": "1986-8-16"
    },
    {
        "col0": "L. Rogers",
        "col1": "R. Cousins",
        "col2": "1989-8-1",
        "col3": "1989-8-1"
    },
    {
        "col0": "L. Ho-jung",
        "col1": "M. Wing",
        "col2": "1997-3-15",
        "col3": "1997-3-15"
    },
    {
        "col0": "L. Keiser",
        "col1": "L. Nichol",
        "col2": "1997-9-13",
        "col3": "1997-9-13"
    },
    {
        "col0": "L. Bonacorsi",
        "col1": "M. Scali",
        "col2": "1993-1-17",
        "col3": "1993-1-17"
    },
    {
        "col0": "L. F. Beaudry",
        "col1": "M. Dubreuil",
        "col2": "1992-7-18",
        "col3": "1992-7-18"
    },
    {
        "col0": "L. Wilson",
        "col1": "J. Buttle",
        "col2": "1987-4-19",
        "col3": "1987-4-19"
    },
    {
        "col0": "L. Gilleron-Gorry",
        "col1": "M. Ephrem",
        "col2": "1995-4-23",
        "col3": "1995-4-23"
    },
    {
        "col0": "L. Serna",
        "col1": "M. Ephrem",
        "col2": "1999-10-31",
        "col3": "1999-10-31"
    },
    {
        "col0": "K. Duarte",
        "col1": "D. Sappenfield",
        "col2": "1993-4-23",
        "col3": "1993-4-23"
    },
    {
        "col0": "K. Min-jeong",
        "col1": "J. Buttle",
        "col2": "1994-1-23",
        "col3": "1994-1-23"
    },
    {
        "col0": "K. Gaskell",
        "col1": "M. Zueva",
        "col2": "1990-4-28",
        "col3": "1990-4-28"
    },
    {
        "col0": "K. Fraser",
        "col1": "N. Morozov",
        "col2": "1980-2-24",
        "col3": "1980-2-24"
    },
    {
        "col0": "K. Shimada",
        "col1": "K. Miyamoto",
        "col2": "2001-9-11",
        "col3": "2001-9-11"
    },
    {
        "col0": "K. Olson",
        "col1": "R. Ward",
        "col2": "1991-10-20",
        "col3": "1991-10-20"
    },
    {
        "col0": "K. Minov",
        "col1": "I. Zhuk",
        "col2": "1993-1-2",
        "col3": "1993-1-2"
    },
    {
        "col0": "K. Navarro",
        "col1": "N. Linichuk",
        "col2": "1981-4-26",
        "col3": "1981-4-26"
    },
    {
        "col0": "K. Na-young",
        "col1": "H. Yutaka",
        "col2": "1990-11-18",
        "col3": "1990-11-18"
    },
    {
        "col0": "K. Min-woo",
        "col1": "I. Romanova",
        "col2": "1986-2-5",
        "col3": "1986-2-5"
    },
    {
        "col0": "K. Lucine",
        "col1": "N. Morozov",
        "col2": "1988-9-16",
        "col3": "1988-9-16"
    },
    {
        "col0": "K. Jin-seo",
        "col1": "K. Miyamoto",
        "col2": "1996-11-29",
        "col3": "1996-11-29"
    },
    {
        "col0": "K. Hye-min",
        "col1": "I. Romanova",
        "col2": "1985-2-20",
        "col3": "1985-2-20"
    },
    {
        "col0": "K. Hae-jin",
        "col1": "D. Wilson",
        "col2": "1997-4-23",
        "col3": "1997-4-23"
    },
    {
        "col0": "K. Korpi",
        "col1": "S. Bourne",
        "col2": "1988-9-26",
        "col3": "1988-9-26"
    }
]