[
    {
        "col0": "J. Alaphilippe",
        "col1": "Etixx-Quick Step",
        "col2": "1992-06-11",
        "col3": "1992-06-11"
    },
    {
        "col0": "J. Amezqueta",
        "col1": "Southeast-Venezuela",
        "col2": "1993-08-12",
        "col3": "1993-08-12"
    },
    {
        "col0": "J. P. Villegas",
        "col1": "Team Manzana Postobon",
        "col2": "1987-10-15",
        "col3": "1987-10-15"
    },
    {
        "col0": "J. P. Suarez",
        "col1": "EPM-UNE-Area Metropolitana",
        "col2": "1985-05-30",
        "col3": "1985-05-30"
    },
    {
        "col0": "J. E. Chamorro",
        "col1": "472-Colombia",
        "col2": "1991-11-18",
        "col3": "1991-11-18"
    },
    {
        "col0": "J. Numainville",
        "col1": "Bigla Pro Cycling Team",
        "col2": "1987-11-20",
        "col3": "1987-11-20"
    },
    {
        "col0": "J. Gaspar",
        "col1": "Funvic Soul Cycles-Carrefour",
        "col2": "1992-02-19",
        "col3": "1992-02-19"
    },
    {
        "col0": "J. Benta",
        "col1": "Louletano-Ray Just Energy",
        "col2": "1986-12-21",
        "col3": "1986-12-21"
    },
    {
        "col0": "J. V. Toribio",
        "col1": "Matrix Powertag",
        "col2": "1985-12-22",
        "col3": "1985-12-22"
    },
    {
        "col0": "J. P. Jr.",
        "col1": "Scott-Marcondes Cesar-Sao Jose dos Campos",
        "col2": "1988-10-20",
        "col3": "1988-10-20"
    },
    {
        "col0": "Jose Luis Rodriguez Aguilar",
        "col1": "World Cycling Centre",
        "col2": "1994-06-01",
        "col3": "1994-06-01"
    },
    {
        "col0": "J. L. Carrasco",
        "col1": "Andalucia-Cajasur",
        "col2": "1982-04-27",
        "col3": "1982-04-27"
    },
    {
        "col0": "J. Goncalves",
        "col1": "Caja Rural-Seguros RGA",
        "col2": "1989-02-13",
        "col3": "1989-02-13"
    },
    {
        "col0": "Jose Antonio de Segovia",
        "col1": "Louletano-Hospital de Loule",
        "col2": "1982-10-23",
        "col3": "1982-10-23"
    },
    {
        "col0": "J. Rumac",
        "col1": "Synergy Baku Cycling Project",
        "col2": "1994-10-26",
        "col3": "1994-10-26"
    },
    {
        "col0": "J. Hunt",
        "col1": "ONE Pro Cycling",
        "col2": "1991-04-03",
        "col3": "1991-04-03"
    },
    {
        "col0": "J. Bryceland",
        "col1": "Santa Cruz Syndicate",
        "col2": "1990-03-23",
        "col3": "1990-03-23"
    },
    {
        "col0": "J. Lewis",
        "col1": "Hincapie Racing Team",
        "col2": "1989-01-13",
        "col3": "1989-01-13"
    },
    {
        "col0": "J. V. Toribio",
        "col1": "Matrix Powertag",
        "col2": "1985-12-22",
        "col3": "1985-12-22"
    },
    {
        "col0": "J. P. Jr.",
        "col1": "Scott-Marcondes Cesar-Sao Jose dos Campos",
        "col2": "1988-10-20",
        "col3": "1988-10-20"
    },
    {
        "col0": "Jose Luis Rodriguez Aguilar",
        "col1": "World Cycling Centre",
        "col2": "1994-06-01",
        "col3": "1994-06-01"
    },
    {
        "col0": "J. L. Carrasco",
        "col1": "Andalucia-Cajasur",
        "col2": "1982-04-27",
        "col3": "1982-04-27"
    },
    {
        "col0": "J. Goncalves",
        "col1": "Caja Rural-Seguros RGA",
        "col2": "1989-02-13",
        "col3": "1989-02-13"
    },
    {
        "col0": "Jose Antonio de Segovia",
        "col1": "Louletano-Hospital de Loule",
        "col2": "1982-10-23",
        "col3": "1982-10-23"
    },
    {
        "col0": "J. Simon",
        "col1": "Team Ecuador",
        "col2": "1990-09-06",
        "col3": "1990-09-06"
    },
    {
        "col0": "J. Brandao",
        "col1": "Efapel",
        "col2": "1989-11-20",
        "col3": "1989-11-20"
    },
    {
        "col0": "J. Lastra",
        "col1": "Caja Rural-Seguros RGA",
        "col2": "1993-06-03",
        "col3": "1993-06-03"
    },
    {
        "col0": "J. Clarke",
        "col1": "UnitedHealthcare",
        "col2": "1984-12-18",
        "col3": "1984-12-18"
    },
    {
        "col0": "J. Caicedo",
        "col1": "Strongman-Campagnolo-Wilier",
        "col2": "1993-04-28",
        "col3": "1993-04-28"
    },
    {
        "col0": "J. Breyne",
        "col1": "Veranclassic-Ago",
        "col2": "1991-01-04",
        "col3": "1991-01-04"
    },
    {
        "col0": "J. Tenbrock",
        "col1": "Stolting Service Group",
        "col2": "1995-12-16",
        "col3": "1995-12-16"
    },
    {
        "col0": "J. Koch",
        "col1": "Verva ActiveJet",
        "col2": "1993-06-15",
        "col3": "1993-06-15"
    },
    {
        "col0": "J. G. Wilsly",
        "col1": "Riwal Platform Cycling Team",
        "col2": "1996-07-30",
        "col3": "1996-07-30"
    },
    {
        "col0": "J. Bokeloh",
        "col1": "Klein Constantia",
        "col2": "1996-03-16",
        "col3": "1996-03-16"
    },
    {
        "col0": "J. Kiesanowski",
        "col1": "Tibco-Silicon Valley Bank",
        "col2": "1979-05-24",
        "col3": "1979-05-24"
    },
    {
        "col0": "J. Numainville",
        "col1": "Bigla Pro Cycling Team",
        "col2": "1987-11-20",
        "col3": "1987-11-20"
    },
    {
        "col0": "J. Gaspar",
        "col1": "Funvic Soul Cycles-Carrefour",
        "col2": "1992-02-19",
        "col3": "1992-02-19"
    },
    {
        "col0": "J. Benta",
        "col1": "Louletano-Ray Just Energy",
        "col2": "1986-12-21",
        "col3": "1986-12-21"
    },
    {
        "col0": "J. Polnicky",
        "col1": "Verva ActiveJet",
        "col2": "1989-12-16",
        "col3": "1989-12-16"
    },
    {
        "col0": "J. Hochmann",
        "col1": "ASC Dukla Praha",
        "col2": "1986-01-10",
        "col3": "1986-01-10"
    },
    {
        "col0": "J. Polnicky",
        "col1": "Verva ActiveJet",
        "col2": "1989-12-16",
        "col3": "1989-12-16"
    },
    {
        "col0": "J. Hochmann",
        "col1": "ASC Dukla Praha",
        "col2": "1986-01-10",
        "col3": "1986-01-10"
    },
    {
        "col0": "J. Bol",
        "col1": "Cyclingteam de Rijke",
        "col2": "1989-09-08",
        "col3": "1989-09-08"
    },
    {
        "col0": "J. Ezquerra",
        "col1": "Sporting Clube de Portugal/Tavira",
        "col2": "1990-11-30",
        "col3": "1990-11-30"
    },
    {
        "col0": "J. A. Rubio",
        "col1": "Al Nasr-Dubai",
        "col2": "1992-01-25",
        "col3": "1992-01-25"
    },
    {
        "col0": "J. Walker",
        "col1": "Servetto Footon",
        "col2": "1994-09-20",
        "col3": "1994-09-20"
    },
    {
        "col0": "J. Allen",
        "col1": "Team Halfords Bikehut",
        "col2": "1989-08-21",
        "col3": "1989-08-21"
    },
    {
        "col0": "J. Anthony",
        "col1": "Optum-Kelly Benefit Strategies",
        "col2": "1985-06-12",
        "col3": "1985-06-12"
    },
    {
        "col0": "J. Ezquerra",
        "col1": "Sporting Clube de Portugal/Tavira",
        "col2": "1990-11-30",
        "col3": "1990-11-30"
    },
    {
        "col0": "J. A. Rubio",
        "col1": "Al Nasr-Dubai",
        "col2": "1992-01-25",
        "col3": "1992-01-25"
    },
    {
        "col0": "J. Meijers",
        "col1": "Rabobank Development Team",
        "col2": "1993-01-12",
        "col3": "1993-01-12"
    },
    {
        "col0": "J. Wallays",
        "col1": "Topsport Vlaanderen-Baloise",
        "col2": "1992-09-15",
        "col3": "1992-09-15"
    },
    {
        "col0": "J. B. Nsengimana",
        "col1": "Stradalli-Bike Aid",
        "col2": "1993-11-04",
        "col3": "1993-11-04"
    },
    {
        "col0": "J. v. Poppel",
        "col1": "Roompot-Oranje Peloton",
        "col2": "1962-09-30",
        "col3": "1962-09-30"
    },
    {
        "col0": "J. Paiani",
        "col1": "Roubaix-Lille Metropole",
        "col2": "1988-12-13",
        "col3": "1988-12-13"
    },
    {
        "col0": "J. Rovira",
        "col1": "Team Ecuador",
        "col2": "1979-11-03",
        "col3": "1979-11-03"
    },
    {
        "col0": "J. Ockeloen",
        "col1": "Parkhotel Valkenburg CT",
        "col2": "1990-05-10",
        "col3": "1990-05-10"
    },
    {
        "col0": "J. Lowndes",
        "col1": "Drapac Professional Cycling",
        "col2": "1994-12-14",
        "col3": "1994-12-14"
    },
    {
        "col0": "J. Rebiewski",
        "col1": "Dare 2B",
        "col2": "1974-02-27",
        "col3": "1974-02-27"
    },
    {
        "col0": "J. Salomein",
        "col1": "Topsport Vlaanderen-Baloise",
        "col2": "1989-01-27",
        "col3": "1989-01-27"
    },
    {
        "col0": "J. Hadi",
        "col1": "Stradalli-Bike Aid",
        "col2": "1991-01-15",
        "col3": "1991-01-15"
    },
    {
        "col0": "J. v. Eijden",
        "col1": "British Cycling",
        "col2": "1976-08-10",
        "col3": "1976-08-10"
    },
    {
        "col0": "J. Sokol",
        "col1": "WSA-Greenlife",
        "col2": "1990-09-26",
        "col3": "1990-09-26"
    },
    {
        "col0": "J. Schaffrath",
        "col1": "Omega Pharma-Quick Step",
        "col2": "1971-03-16",
        "col3": "1971-03-16"
    },
    {
        "col0": "J. Brockhoff",
        "col1": "AWT-Greenway",
        "col2": "1994-12-03",
        "col3": "1994-12-03"
    },
    {
        "col0": "J. Driscoll",
        "col1": "Cannondale/Cyclocrossworld.com",
        "col2": "1986-11-11",
        "col3": "1986-11-11"
    },
    {
        "col0": "J. Oram",
        "col1": "ONE Pro Cycling",
        "col2": "1993-06-17",
        "col3": "1993-06-17"
    },
    {
        "col0": "J. McLaughlin",
        "col1": "Felbermayr-Simplon Wels",
        "col2": "1990-10-02",
        "col3": "1990-10-02"
    },
    {
        "col0": "J. Gullen",
        "col1": "Pedal Heaven Race Team",
        "col2": "1989-10-15",
        "col3": "1989-10-15"
    },
    {
        "col0": "J. Roson",
        "col1": "Caja Rural-Seguros RGA",
        "col2": "1993-01-13",
        "col3": "1993-01-13"
    },
    {
        "col0": "J. Crawford",
        "col1": "Kinan Cycling Team",
        "col2": "1983-08-04",
        "col3": "1983-08-04"
    },
    {
        "col0": "J. Crowell",
        "col1": "UnitedHealthcare Women's Team",
        "col2": "1988-02-16",
        "col3": "1988-02-16"
    },
    {
        "col0": "J. Cornu",
        "col1": "Team Europcar",
        "col2": "1991-08-07",
        "col3": "1991-08-07"
    },
    {
        "col0": "I. Slik",
        "col1": "Team Roompot",
        "col2": "1993-05-27",
        "col3": "1993-05-27"
    },
    {
        "col0": "I. Stevic",
        "col1": "Tusnad Cycling Team",
        "col2": "1980-03-12",
        "col3": "1980-03-12"
    },
    {
        "col0": "I. Sanchez",
        "col1": "Aero Cycling Team",
        "col2": "1982-06-17",
        "col3": "1982-06-17"
    },
    {
        "col0": "I. Slappendel",
        "col1": "Bigla Pro Cycling Team",
        "col2": "1985-02-18",
        "col3": "1985-02-18"
    },
    {
        "col0": "I. Tamouridis",
        "col1": "Synergy Baku Cycling Project",
        "col2": "1980-06-03",
        "col3": "1980-06-03"
    },
    {
        "col0": "I. Nika",
        "col1": "D'Amico-Bottecchia",
        "col2": "1995-03-23",
        "col3": "1995-03-23"
    },
    {
        "col0": "I. Flores",
        "col1": "Fuerteventura-Canarias",
        "col2": "1976-07-28",
        "col3": "1976-07-28"
    },
    {
        "col0": "H. Blikra",
        "col1": "Team Coop-Oster Hus",
        "col2": "1991-11-02",
        "col3": "1991-11-02"
    },
    {
        "col0": "H. Sabido",
        "col1": "Sporting-Tavira",
        "col2": "1979-12-14",
        "col3": "1979-12-14"
    },
    {
        "col0": "H. Hofstetter",
        "col1": "Cofidis",
        "col2": "1994-02-13",
        "col3": "1994-02-13"
    },
    {
        "col0": "H. Jahanbanian",
        "col1": "Tabriz Shahrdari Team",
        "col2": "1976-04-02",
        "col3": "1976-04-02"
    },
    {
        "col0": "H. Fernandez",
        "col1": "Team Ecuador",
        "col2": "1988-10-06",
        "col3": "1988-10-06"
    },
    {
        "col0": "H. BrA'co",
        "col1": "LA Aluminios-Antarte",
        "col2": "1981-06-13",
        "col3": "1981-06-13"
    },
    {
        "col0": "H. Parra",
        "col1": "Boyaca Raza de Campeones",
        "col2": "1991-10-09",
        "col3": "1991-10-09"
    },
    {
        "col0": "H. Salleh",
        "col1": "Terengganu Pro Asia Cycling Team",
        "col2": "1988-09-15",
        "col3": "1988-09-15"
    },
    {
        "col0": "H. S. Kalsi",
        "col1": "Maharashtra",
        "col2": "1994-07-13",
        "col3": "1994-07-13"
    },
    {
        "col0": "H. Fitrianto",
        "col1": "Black Inc Cycling Team",
        "col2": "1985-06-20",
        "col3": "1985-06-20"
    },
    {
        "col0": "H. Barnes",
        "col1": "Canyon-SRAM",
        "col2": "1993-05-04",
        "col3": "1993-05-04"
    },
    {
        "col0": "H. Kupfernagel",
        "col1": "RusVelo",
        "col2": "1974-03-19",
        "col3": "1974-03-19"
    },
    {
        "col0": "H. Schreurs",
        "col1": "Klein Constantia",
        "col2": "1994-01-23",
        "col3": "1994-01-23"
    },
    {
        "col0": "H. Blikra",
        "col1": "Team Coop-Oster Hus",
        "col2": "1991-11-02",
        "col3": "1991-11-02"
    },
    {
        "col0": "G. Gabay",
        "col1": "Cycling Academy Team",
        "col2": "1993-07-18",
        "col3": "1993-07-18"
    },
    {
        "col0": "G. Cesar",
        "col1": "W52-Quinta da Lixa",
        "col2": "1980-01-29",
        "col3": "1980-01-29"
    },
    {
        "col0": "G. Hoog",
        "col1": "Team Tre Berg-Bianchi",
        "col2": "1995-04-11",
        "col3": "1995-04-11"
    },
    {
        "col0": "G. Thevenot",
        "col1": "Team Europcar",
        "col2": "1993-09-13",
        "col3": "1993-09-13"
    },
    {
        "col0": "G. Habeaux",
        "col1": "Wanty-Groupe Gobert",
        "col2": "1982-10-20",
        "col3": "1982-10-20"
    },
    {
        "col0": "G. Janorschke",
        "col1": "Team Roth",
        "col2": "1987-05-30",
        "col3": "1987-05-30"
    },
    {
        "col0": "G. Habeaux",
        "col1": "Wanty-Groupe Gobert",
        "col2": "1982-10-20",
        "col3": "1982-10-20"
    },
    {
        "col0": "G. Rabunal",
        "col1": "Xacobeo-Galicia",
        "col2": "1984-08-01",
        "col3": "1984-08-01"
    },
    {
        "col0": "G. Hyo-suk",
        "col1": "KSPO Cycling Team",
        "col2": "1986-01-01",
        "col3": "1986-01-01"
    },
    {
        "col0": "G. Ciccone",
        "col1": "Bardiani-CSF",
        "col2": "1994-12-20",
        "col3": "1994-12-20"
    },
    {
        "col0": "G. Ducournau",
        "col1": "Southeast-Venezuela",
        "col2": "1992-09-25",
        "col3": "1992-09-25"
    },
    {
        "col0": "G. D. Francesco",
        "col1": "MG.Kvis Vega",
        "col2": "1989-08-02",
        "col3": "1989-08-02"
    },
    {
        "col0": "G. Mizbani",
        "col1": "Tabriz Shahrdari Team",
        "col2": "1975-09-06",
        "col3": "1975-09-06"
    },
    {
        "col0": "G. Druyts",
        "col1": "Crelan-Vastgoedservice",
        "col2": "1991-01-30",
        "col3": "1991-01-30"
    },
    {
        "col0": "G. d. Keijzer",
        "col1": "Team Novo Nordisk",
        "col2": "1992-01-18",
        "col3": "1992-01-18"
    },
    {
        "col0": "G. Harper",
        "col1": "ONE Pro Cycling",
        "col2": "1992-07-10",
        "col3": "1992-07-10"
    },
    {
        "col0": "G. Curran",
        "col1": "Axeon Cycling Team",
        "col2": "1995-10-20",
        "col3": "1995-10-20"
    },
    {
        "col0": "G. Yamamoto",
        "col1": "Nippo-Vini Fantini",
        "col2": "1991-11-19",
        "col3": "1991-11-19"
    },
    {
        "col0": "G. Mannion",
        "col1": "Drapac Pro Cycling",
        "col2": "1991-08-24",
        "col3": "1991-08-24"
    },
    {
        "col0": "F. Pouilly",
        "col1": "Roubaix-Lille Metropole",
        "col2": "1994-09-22",
        "col3": "1994-09-22"
    },
    {
        "col0": "F. S. Galta",
        "col1": "Delko-Marseille Provence KTM",
        "col2": "1992-10-19",
        "col3": "1992-10-19"
    },
    {
        "col0": "F. Backaert",
        "col1": "Wanty-Groupe Gobert",
        "col2": "1990-03-13",
        "col3": "1990-03-13"
    },
    {
        "col0": "F. Gavazzi",
        "col1": "Androni Giocattoli-Sidermec",
        "col2": "1984-08-01",
        "col3": "1984-08-01"
    },
    {
        "col0": "F. Cardoso",
        "col1": "Funvic Soul Cycles-Carrefour",
        "col2": "1980-10-12",
        "col3": "1980-10-12"
    },
    {
        "col0": "F. Oliveira",
        "col1": "Lensworld.eu-Zannata",
        "col2": "1981-10-27",
        "col3": "1981-10-27"
    },
    {
        "col0": "F. Gerts",
        "col1": "BMC Racing Team",
        "col2": "1992-05-03",
        "col3": "1992-05-03"
    },
    {
        "col0": "F. Senechal",
        "col1": "Cofidis",
        "col2": "1993-07-10",
        "col3": "1993-07-10"
    },
    {
        "col0": "F. Guillou",
        "col1": "Bretagne-Seche Environnement",
        "col2": "1982-12-29",
        "col3": "1982-12-29"
    },
    {
        "col0": "F. Bissinger",
        "col1": "WSA-Greenlife",
        "col2": "1988-01-30",
        "col3": "1988-01-30"
    },
    {
        "col0": "F. Mackaij",
        "col1": "Team Liv-Plantur",
        "col2": "1995-10-18",
        "col3": "1995-10-18"
    },
    {
        "col0": "F. d. Luna",
        "col1": "Team Illuminate",
        "col2": "1990-01-26",
        "col3": "1990-01-26"
    },
    {
        "col0": "F. Cardoso",
        "col1": "Funvic Soul Cycles-Carrefour",
        "col2": "1980-10-12",
        "col3": "1980-10-12"
    },
    {
        "col0": "F. Oliveira",
        "col1": "Lensworld.eu-Zannata",
        "col2": "1981-10-27",
        "col3": "1981-10-27"
    },
    {
        "col0": "F. Ganna",
        "col1": "Team Colpack",
        "col2": "1996-07-25",
        "col3": "1996-07-25"
    },
    {
        "col0": "F. Cardoso",
        "col1": "Efapel",
        "col2": "1984-05-15",
        "col3": "1984-05-15"
    },
    {
        "col0": "F. Orjuela",
        "col1": "4-72 Colombia",
        "col2": "1991-11-04",
        "col3": "1991-11-04"
    },
    {
        "col0": "F. Debesay",
        "col1": "MTN Qhubeka",
        "col2": "1986-06-10",
        "col3": "1986-06-10"
    },
    {
        "col0": "F. Puttini",
        "col1": "Bigla Pro Cycling Team",
        "col2": "1967-09-18",
        "col3": "1967-09-18"
    },
    {
        "col0": "F. Masnada",
        "col1": "Team Colpack",
        "col2": "1993-11-06",
        "col3": "1993-11-06"
    },
    {
        "col0": "F. Ferrari",
        "col1": "Caja Rural-Seguros RGA",
        "col2": "1985-06-03",
        "col3": "1985-06-03"
    },
    {
        "col0": "F. Masotti",
        "col1": "Gruppo Sportivo Fiamme Azzurre",
        "col2": "1974-06-03",
        "col3": "1974-06-03"
    },
    {
        "col0": "F. Wegmann",
        "col1": "Stolting Service Group",
        "col2": "1980-06-20",
        "col3": "1980-06-20"
    },
    {
        "col0": "F. Pouilly",
        "col1": "Roubaix-Lille Metropole",
        "col2": "1994-09-22",
        "col3": "1994-09-22"
    },
    {
        "col0": "E. Rivera",
        "col1": "4-72 Colombia",
        "col2": "1991-12-27",
        "col3": "1991-12-27"
    },
    {
        "col0": "E. Huffman",
        "col1": "Rally Cycling",
        "col2": "1990-01-07",
        "col3": "1990-01-07"
    },
    {
        "col0": "E. Zhupa",
        "col1": "Southeast Pro Cycling",
        "col2": "1990-04-04",
        "col3": "1990-04-04"
    },
    {
        "col0": "E. v. Empel",
        "col1": "Team Roompot",
        "col2": "1994-04-14",
        "col3": "1994-04-14"
    },
    {
        "col0": "E. Marcotte",
        "col1": "Team Jamis",
        "col2": "1980-02-08",
        "col3": "1980-02-08"
    },
    {
        "col0": "E. Moyano",
        "col1": "San Luis Somos Todos",
        "col2": "1989-02-15",
        "col3": "1989-02-15"
    },
    {
        "col0": "E. Mas",
        "col1": "Klein Constantia",
        "col2": "1995-01-07",
        "col3": "1995-01-07"
    },
    {
        "col0": "E. Collins",
        "col1": "Team TIBCO-SVB",
        "col2": "1990-09-16",
        "col3": "1990-09-16"
    },
    {
        "col0": "E. Oronte",
        "col1": "Rally Cycling",
        "col2": "1990-01-29",
        "col3": "1990-01-29"
    },
    {
        "col0": "E. KiA!erlovski",
        "col1": "Meridiana-Kamen",
        "col2": "1984-08-03",
        "col3": "1984-08-03"
    },
    {
        "col0": "E. Buchmann",
        "col1": "Bora-Argon 18",
        "col2": "1992-11-18",
        "col3": "1992-11-18"
    },
    {
        "col0": "E. Reinders",
        "col1": "Cyclingteam Jo Piels",
        "col2": "1992-03-14",
        "col3": "1992-03-14"
    },
    {
        "col0": "E. Porter",
        "col1": "Team 3M",
        "col2": "1991-12-31",
        "col3": "1991-12-31"
    },
    {
        "col0": "E. Barker",
        "col1": "Welsh Cycling",
        "col2": "1994-09-07",
        "col3": "1994-09-07"
    },
    {
        "col0": "E. Cecchini",
        "col1": "Canyon-SRAM",
        "col2": "1992-05-25",
        "col3": "1992-05-25"
    },
    {
        "col0": "E. Juodvalkis",
        "col1": "Colba-Superano Ham",
        "col2": "1988-04-08",
        "col3": "1988-04-08"
    },
    {
        "col0": "E. Bernal",
        "col1": "Androni Giocattoli-Sidermec",
        "col2": "1997-01-13",
        "col3": "1997-01-13"
    },
    {
        "col0": "E. Cammaerts",
        "col1": "Team3M",
        "col2": "1987-07-17",
        "col3": "1987-07-17"
    },
    {
        "col0": "E. Ravasi",
        "col1": "Team Colpack",
        "col2": "1994-06-05",
        "col3": "1994-06-05"
    },
    {
        "col0": "E. Beltran",
        "col1": "Team Tinkoff-Saxo",
        "col2": "1990-01-18",
        "col3": "1990-01-18"
    },
    {
        "col0": "E. Wilson",
        "col1": "Team Joker",
        "col2": "1989-04-25",
        "col3": "1989-04-25"
    },
    {
        "col0": "E. Estrada",
        "col1": "D'Amico-Bottecchia",
        "col2": "1995-01-25",
        "col3": "1995-01-25"
    },
    {
        "col0": "E. Prades",
        "col1": "Caja Rural-Seguros RGA",
        "col2": "1987-08-09",
        "col3": "1987-08-09"
    },
    {
        "col0": "E. Grosu",
        "col1": "Nippo-Vini Fantini",
        "col2": "1992-09-04",
        "col3": "1992-09-04"
    }
]