[
    {
        "col0": "Y. Edochie",
        "col1": "M. Obiekwe",
        "col2": "P. Edochie",
        "col3": "1982-01-07"
    },
    {
        "col0": "W. Houston",
        "col1": "D. Warwick",
        "col2": "C. Houston",
        "col3": "1963-08-09"
    },
    {
        "col0": "V. McMahon",
        "col1": "T. H",
        "col2": "V. M. Sr.",
        "col3": "1945-08-24"
    },
    {
        "col0": "S. McMahon",
        "col1": "S. McMahon",
        "col2": "V. McMahon",
        "col3": "1976-09-24"
    },
    {
        "col0": "S. Arngrim",
        "col1": "A. Arngrim",
        "col2": "N. MacMillan",
        "col3": "1955-12-23"
    },
    {
        "col0": "Sinitta",
        "col1": "A. Stewart",
        "col2": "M. Brown",
        "col3": "1963-10-19"
    },
    {
        "col0": "S. Penn",
        "col1": "M. Penn",
        "col2": "L. Penn",
        "col3": "1960-08-17"
    },
    {
        "col0": "R. Reagan",
        "col1": "M. Reagan",
        "col2": "R. Reagan",
        "col3": "1958-05-20"
    },
    {
        "col0": "R. Padilla",
        "col1": "R. Padilla",
        "col2": "R. P. Sr.",
        "col3": "1964-1-4"
    },
    {
        "col0": "R. Stone",
        "col1": "M. Bell",
        "col2": "R. Stone",
        "col3": "1969-11-03"
    },
    {
        "col0": "P. McCartney",
        "col1": "M. McGear",
        "col2": "Jim and Mary McCartney",
        "col3": "1942-06-18"
    },
    {
        "col0": "P. Davis",
        "col1": "M. Reagan",
        "col2": "R. Reagan",
        "col3": "1952-10-21"
    },
    {
        "col0": "N. Hjulstrom",
        "col1": "F. Hjulstrom",
        "col2": "L. Hjulstrom",
        "col3": "1962-02-15"
    },
    {
        "col0": "M. Lagercrantz",
        "col1": "D. Lagercrantz",
        "col2": "O. Lagercrantz",
        "col3": "1954-07-12"
    },
    {
        "col0": "M. Sinden",
        "col1": "J. Sinden",
        "col2": "D. Sinden",
        "col3": "1954-05-09"
    },
    {
        "col0": "L. Garrel",
        "col1": "M. Garrel",
        "col2": "P. Garrel",
        "col3": "1983-06-14"
    },
    {
        "col0": "K. Aquino",
        "col1": "N. Aquino",
        "col2": "C. Aquino",
        "col3": "1971-02-14"
    },
    {
        "col0": "J. McMahon",
        "col1": "Political families of Australia",
        "col2": "W. McMahon",
        "col3": "1968-07-27"
    },
    {
        "col0": "J. Smith",
        "col1": "W. Smith",
        "col2": "W. Smith",
        "col3": "1998-07-08"
    },
    {
        "col0": "H. Crosby",
        "col1": "B. Crosby",
        "col2": "B. Crosby",
        "col3": "1958-08-08"
    },
    {
        "col0": "H. C. Jr.",
        "col1": "P. Fix",
        "col2": "H. Carey",
        "col3": "1921-05-16"
    },
    {
        "col0": "F. Britton",
        "col1": "J. Britton",
        "col2": "T. Britton",
        "col3": "1957-07-17"
    },
    {
        "col0": "E. B. Beale",
        "col1": "J. K. Onassis",
        "col2": "Edith Ewing Bouvier Beale",
        "col3": "1917-11-07"
    },
    {
        "col0": "D. Day-Lewis",
        "col1": "M. Balcon",
        "col2": "C. Day-Lewis",
        "col3": "1957-04-29"
    },
    {
        "col0": "C. Chaplin",
        "col1": "G. Chaplin",
        "col2": "C. Chaplin",
        "col3": "1962-07-06"
    },
    {
        "col0": "C. Peck",
        "col1": "C. Tiegs",
        "col2": "G. Peck",
        "col3": "1958-05-01"
    },
    {
        "col0": "C. Deneuve",
        "col1": "F. Dorleac",
        "col2": "R. Simonot",
        "col3": "1943-10-22"
    },
    {
        "col0": "C. Hjulstrom",
        "col1": "F. Hjulstrom",
        "col2": "L. Hjulstrom",
        "col3": "1963-08-31"
    },
    {
        "col0": "B. Hughes",
        "col1": "S. Hughes",
        "col2": "P. Hughes",
        "col3": "1968-1-1"
    },
    {
        "col0": "Babita",
        "col1": "List of Hindi film clans",
        "col2": "H. Shivdasani",
        "col3": "1948-04-20"
    },
    {
        "col0": "A. Patel",
        "col1": "A. Patel",
        "col2": "A. Patel",
        "col3": "1978-01-13"
    },
    {
        "col0": "A. Arngrim",
        "col1": "S. Arngrim",
        "col2": "N. MacMillan",
        "col3": "1962-01-18"
    },
    {
        "col0": "A. Pelosi",
        "col1": "C. Pelosi",
        "col2": "N. Pelosi",
        "col3": "1970-10-05"
    }
]