[
    {
        "col0": "Ventromedial nucleus of the hypothalamus",
        "col1": "Ventromedial+Hypothalamic+Nucleus",
        "col2": "A08.186.211.730.385.357.352.953",
        "col3": "381"
    },
    {
        "col0": "Tuber cinereum",
        "col1": "Tuber+cinereum",
        "col2": "A08.186.211.730.385.357.352.870",
        "col3": "376"
    },
    {
        "col0": "Trochlear nucleus",
        "col1": "n_11",
        "col2": "12582022",
        "col3": "504"
    },
    {
        "col0": "Trigeminal nerve nuclei",
        "col1": "Trigeminal+nuclei",
        "col2": "A08.186.211.132.931",
        "col3": "1008020136"
    },
    {
        "col0": "Trigeminal motor nucleus",
        "col1": "Trigeminal+nuclei",
        "col2": "A08.186.211.132.931",
        "col3": "551"
    },
    {
        "col0": "Temporal lobe",
        "col1": "Temporal+Lobe",
        "col2": "A08.186.211.730.885.213.863",
        "col3": "107"
    },
    {
        "col0": "Supraoptic nucleus",
        "col1": "Supraoptic+nucleus",
        "col2": "A08.186.211.730.385.357.342.650",
        "col3": "368"
    },
    {
        "col0": "Suprachiasmatic nucleus",
        "col1": "Suprachiasmatic+Nucleus",
        "col2": "A08.186.211.730.385.357.342.625",
        "col3": "367"
    },
    {
        "col0": "Superior salivary nucleus",
        "col1": "n_11",
        "col2": "12583296",
        "col3": "585"
    },
    {
        "col0": "Subthalamic nucleus",
        "col1": "Subthalamic+Nucleus",
        "col2": "A08.186.211.730.385.800.800",
        "col3": "418"
    },
    {
        "col0": "Substantia nigra",
        "col1": "Substantia+Nigra",
        "col2": "A08.186.211.132.659.687",
        "col3": "527"
    },
    {
        "col0": "Substantia innominata",
        "col1": "Substantia+innominata",
        "col2": "A08.186.211.577.820",
        "col3": "256"
    },
    {
        "col0": "Subiculum",
        "col1": "Subiculum",
        "col2": "A08.186.211.577.405",
        "col3": "170"
    },
    {
        "col0": "Subfornical organ",
        "col1": "Subfornical+Organ",
        "col2": "A08.713.840",
        "col3": "437"
    },
    {
        "col0": "Spinal trigeminal nucleus",
        "col1": "Trigeminal+Nucleus,+Spinal",
        "col2": "A08.186.211.132.931.920",
        "col3": "1015266456"
    },
    {
        "col0": "Solitary nucleus",
        "col1": "Solitary+Nucleus",
        "col2": "A08.186.211.132.810.406.750",
        "col3": "739"
    },
    {
        "col0": "Septum pellucidum",
        "col1": "Septum+Pellucidum",
        "col2": "A08.186.211.276.814",
        "col3": "238"
    },
    {
        "col0": "Rhombic lip",
        "col1": "Metencephalon",
        "col2": "A08.186.211.132.810.428",
        "col3": "534"
    },
    {
        "col0": "Rhinencephalon",
        "col1": "Rhinencephalon",
        "col2": "A08.186.211.577.699",
        "col3": "241"
    },
    {
        "col0": "Red nucleus",
        "col1": "Red+Nucleus",
        "col2": "A08.186.211.132.659.822.642",
        "col3": "496"
    },
    {
        "col0": "Pyramidal tracts",
        "col1": "Pyramidal+Tracts",
        "col2": "A08.186.854.633",
        "col3": "373"
    },
    {
        "col0": "Pulvinar nuclei",
        "col1": "Pulvinar",
        "col2": "A08.186.211.730.385.826.701.485.600",
        "col3": "311"
    },
    {
        "col0": "Principal sensory nucleus of trigeminal nerve",
        "col1": "Trigeminal+nuclei",
        "col2": "A08.186.211.132.931",
        "col3": "552"
    },
    {
        "col0": "Preoptic area",
        "col1": "Preoptic+area",
        "col2": "A08.186.211.730.385.357.342.450",
        "col3": "360"
    },
    {
        "col0": "Pons",
        "col1": "Pons",
        "col2": "A08.186.211.132.810.428.600",
        "col3": "538"
    },
    {
        "col0": "Pituitary stalk",
        "col1": "Pituitary+Stalk",
        "col2": "A06.407.747",
        "col3": "388"
    },
    {
        "col0": "Periaqueductal gray",
        "col1": "Periaqueductal+Gray",
        "col2": "A08.186.211.132.659.822.595",
        "col3": "501"
    },
    {
        "col0": "Paraventricular nucleus of hypothalamus",
        "col1": "Paraventricular+hypothalamic+nucleus",
        "col2": "A08.186.211.730.385.357.342.400",
        "col3": "370"
    },
    {
        "col0": "Nucleus basalis of Meynert",
        "col1": "Basal+nucleus+of+Meynert",
        "col2": "A08.186.211.730.885.105.880.100",
        "col3": "257"
    },
    {
        "col0": "Nucleus accumbens",
        "col1": "Nucleus+Accumbens",
        "col2": "A08.186.211.730.885.105.683",
        "col3": "259"
    },
    {
        "col0": "Midbrain tegmentum",
        "col1": "Tegmentum+Mesencephali",
        "col2": "A08.186.211.132.659.822",
        "col3": "482"
    },
    {
        "col0": "Midbrain",
        "col1": "Mesencephalon",
        "col2": "A08.186.211.132.659",
        "col3": "445"
    },
    {
        "col0": "Metencephalon",
        "col1": "Metencephalon",
        "col2": "A08.186.211.132.810.428",
        "col3": "534"
    },
    {
        "col0": "Metathalamus",
        "col1": "Metathalamus",
        "col2": "A08.186.211.730.385.826.701.444",
        "col3": "334"
    },
    {
        "col0": "Mesencephalic nucleus of trigeminal nerve",
        "col1": "Trigeminal+nuclei",
        "col2": "A08.186.211.132.931",
        "col3": "550"
    },
    {
        "col0": "Medulla oblongata",
        "col1": "Medulla+Oblongata",
        "col2": "A08.186.211.132.810.406",
        "col3": "695"
    },
    {
        "col0": "Median eminence",
        "col1": "Median+eminence",
        "col2": "A08.186.211.730.385.357.352.435.249",
        "col3": "385"
    },
    {
        "col0": "Lentiform nucleus",
        "col1": "Corpus+Striatum",
        "col2": "A08.186.211.730.885.105.487",
        "col3": "253"
    },
    {
        "col0": "Lateral ventricles",
        "col1": "Lateral+Ventricles",
        "col2": "A08.186.211.276.650",
        "col3": "191"
    },
    {
        "col0": "Lateral hypothalamus",
        "col1": "Lateral+Hypothalamic+Area",
        "col2": "A08.186.211.730.385.357.300",
        "col3": "409"
    },
    {
        "col0": "Lamina terminalis",
        "col1": "Lamina+Terminalis",
        "col2": "A08.186.211.577.482",
        "col3": "190"
    },
    {
        "col0": "Islands of Calleja",
        "col1": "Islands+of+Calleja",
        "col2": "A08.186.211.577.699.400",
        "col3": "258"
    },
    {
        "col0": "Interventricular foramina",
        "col1": "Foramen+of+Monro",
        "col2": "A08.186.211.276",
        "col3": "430"
    },
    {
        "col0": "Inferior olivary nucleus",
        "col1": "Olivary+Nucleus",
        "col2": "A08.186.211.132.810.406.574",
        "col3": "696"
    },
    {
        "col0": "Hindbrain",
        "col1": "Rhombencephalon",
        "col2": "A08.186.211.132.810",
        "col3": "531"
    },
    {
        "col0": "Fourth ventricle",
        "col1": "Fourth+Ventricle",
        "col2": "A08.186.211.276.500",
        "col3": "617"
    },
    {
        "col0": "Fornix",
        "col1": "Fornix+(Brain)",
        "col2": "A08.186.211.577.265",
        "col3": "250"
    },
    {
        "col0": "Dorsomedial hypothalamic nucleus",
        "col1": "Dorsomedial+hypothalamic+nucleus",
        "col2": "A08.186.211.730.385.357.352.270",
        "col3": "380"
    },
    {
        "col0": "Diagonal band of Broca",
        "col1": "Diagonal+Band+of+Broca",
        "col2": "A08.186.211.730.885.380",
        "col3": "267"
    },
    {
        "col0": "Dentate gyrus",
        "col1": "Dentate+Gyrus",
        "col2": "A08.186.211.577.405.200",
        "col3": "161"
    },
    {
        "col0": "Corpus callosum",
        "col1": "Corpus+Callosum",
        "col2": "A08.186.211.730.885.362",
        "col3": "173"
    },
    {
        "col0": "Corpora quadrigemina",
        "col1": "Corpora+Quadrigemina",
        "col2": "A08.186.211.132.659.237",
        "col3": "324"
    },
    {
        "col0": "Claustrum",
        "col1": "Claustrum",
        "col2": "A08.186.211.730.885.105",
        "col3": "234"
    },
    {
        "col0": "Cisterna magna",
        "col1": "Cisterna+Magna",
        "col2": "A08.186.566.166.686.351",
        "col3": "533"
    },
    {
        "col0": "Cingulate cortex",
        "col1": "Gyrus+Cinguli",
        "col2": "A08.186.211.577.330",
        "col3": "141"
    }
]