[
    {
        "col0": "V. Hobson",
        "col1": "1980-02-03",
        "col2": "53",
        "col3": "1980-02-03"
    },
    {
        "col0": "V. Hicks",
        "col1": "1957-01-19",
        "col2": "122",
        "col3": "1957-01-19"
    },
    {
        "col0": "V. Heflin",
        "col1": "1960-7-7",
        "col2": "143",
        "col3": "1960-7-7"
    },
    {
        "col0": "V. Butler",
        "col1": "1987-07-29",
        "col2": "110",
        "col3": "1987-07-29"
    },
    {
        "col0": "V. Bailey",
        "col1": "1970-07-03",
        "col2": "50",
        "col3": "1970-07-03"
    },
    {
        "col0": "V. Ballard",
        "col1": "1990-07-16",
        "col2": "170",
        "col3": "1990-07-16"
    },
    {
        "col0": "V. Zucco",
        "col1": "1935-09-04",
        "col2": "60",
        "col3": "1935-09-04"
    },
    {
        "col0": "V. Washington",
        "col1": "1946-3-23",
        "col2": "87",
        "col3": "1946-3-23"
    },
    {
        "col0": "V. Vasicek",
        "col1": "1926-5-5",
        "col2": "(By theWashington Redskins)",
        "col3": "1926-5-5"
    },
    {
        "col0": "V. Spadaccini",
        "col1": "1916-03-02",
        "col2": "101",
        "col3": "1916-03-02"
    },
    {
        "col0": "V. Sears",
        "col1": "1918-03-14",
        "col2": "33",
        "col3": "1918-03-14"
    },
    {
        "col0": "V. Schwall",
        "col1": "1925-1-25",
        "col2": "(By theNew York Giants)",
        "col3": "1925-1-25"
    },
    {
        "col0": "V. Lindskog",
        "col1": "1914-12-03",
        "col2": "13",
        "col3": "1914-12-03"
    },
    {
        "col0": "V. Janowicz",
        "col1": "1930-02-26",
        "col2": "79",
        "col3": "1930-02-26"
    },
    {
        "col0": "V. Eaton",
        "col1": "1933-01-03",
        "col2": "126",
        "col3": "1933-01-03"
    },
    {
        "col0": "V. Beasley",
        "col1": "1992-07-08",
        "col2": "8",
        "col3": "1992-07-08"
    },
    {
        "col0": "V. Jackson",
        "col1": "1963-08-14",
        "col2": "55",
        "col3": "1963-08-14"
    },
    {
        "col0": "V. Haynes",
        "col1": "1979-02-17",
        "col2": "166",
        "col3": "1979-02-17"
    },
    {
        "col0": "V. Maxwell",
        "col1": "1961-10-25",
        "col2": "29",
        "col3": "1961-10-25"
    },
    {
        "col0": "V. Martin",
        "col1": "1920-05-02",
        "col2": "11",
        "col3": "1920-05-02"
    },
    {
        "col0": "V. Hargreaves",
        "col1": "1995-06-03",
        "col2": "11",
        "col3": "1995-06-03"
    },
    {
        "col0": "V. Dean",
        "col1": "1959-05-05",
        "col2": "49",
        "col3": "1959-05-05"
    },
    {
        "col0": "V. Davis",
        "col1": "1984-01-31",
        "col2": "6",
        "col3": "1984-01-31"
    },
    {
        "col0": "V. Crawford",
        "col1": "1974-06-25",
        "col2": "159",
        "col3": "1974-06-25"
    },
    {
        "col0": "V. Carey",
        "col1": "1981-07-31",
        "col2": "19",
        "col3": "1981-07-31"
    },
    {
        "col0": "V. Butler",
        "col1": "1994-06-14",
        "col2": "30",
        "col3": "1994-06-14"
    },
    {
        "col0": "V. Morency",
        "col1": "1980-02-04",
        "col2": "73",
        "col3": "1980-02-04"
    },
    {
        "col0": "V. Huffman",
        "col1": "1914-12-18",
        "col2": "27",
        "col3": "1914-12-18"
    },
    {
        "col0": "V. D. Herder",
        "col1": "1948-11-28",
        "col2": "230",
        "col3": "1948-11-28"
    },
    {
        "col0": "V. Adams",
        "col1": "1918-07-14",
        "col2": "291",
        "col3": "1918-07-14"
    },
    {
        "col0": "V. Glenn",
        "col1": "1964-10-26",
        "col2": "54",
        "col3": "1964-10-26"
    },
    {
        "col0": "V. Parker",
        "col1": "1971-06-05",
        "col2": "63",
        "col3": "1971-06-05"
    },
    {
        "col0": "V. Martin",
        "col1": "1986-04-18",
        "col2": "113",
        "col3": "1986-04-18"
    },
    {
        "col0": "V. Mancha",
        "col1": "1921-10-07",
        "col2": "5",
        "col3": "1921-10-07"
    },
    {
        "col0": "V. Dunbar",
        "col1": "1968-09-04",
        "col2": "21",
        "col3": "1968-09-04"
    },
    {
        "col0": "V. McElroy",
        "col1": "1960-01-13",
        "col2": "64",
        "col3": "1960-01-13"
    },
    {
        "col0": "V. Walker",
        "col1": "1987-4-26",
        "col2": "210",
        "col3": "1987-4-26"
    },
    {
        "col0": "V. McDonald",
        "col1": "1990-06-13",
        "col2": "55",
        "col3": "1990-06-13"
    },
    {
        "col0": "V. Johnson",
        "col1": "1963-03-13",
        "col2": "31",
        "col3": "1963-03-13"
    },
    {
        "col0": "V. Green",
        "col1": "1951-04-21",
        "col2": "150",
        "col3": "1951-04-21"
    },
    {
        "col0": "V. J. Walker",
        "col1": "1930-01-07",
        "col2": "83",
        "col3": "1930-01-07"
    },
    {
        "col0": "V. Alexander",
        "col1": "1994-03-23",
        "col2": "234",
        "col3": "1994-03-23"
    },
    {
        "col0": "U. Young",
        "col1": "1985-05-08",
        "col2": "66",
        "col3": "1985-05-08"
    },
    {
        "col0": "U. Norris",
        "col1": "1957-01-15",
        "col2": "88",
        "col3": "1957-01-15"
    },
    {
        "col0": "U. John",
        "col1": "1992-05-20",
        "col2": "232",
        "col3": "1992-05-20"
    },
    {
        "col0": "U. Nwaneri",
        "col1": "1984-03-20",
        "col2": "149",
        "col3": "1984-03-20"
    },
    {
        "col0": "T. Branch",
        "col1": "1986-12-11",
        "col2": "100",
        "col3": "1986-12-11"
    },
    {
        "col0": "T. Walter",
        "col1": "1978-03-17",
        "col2": "179",
        "col3": "1978-03-17"
    },
    {
        "col0": "T. Jackson",
        "col1": "1986-06-06",
        "col2": "3",
        "col3": "1986-06-06"
    },
    {
        "col0": "T. Thompson",
        "col1": "1991-11-17",
        "col2": "185",
        "col3": "1991-11-17"
    },
    {
        "col0": "T. Green",
        "col1": "1986-04-06",
        "col2": "133",
        "col3": "1986-04-06"
    },
    {
        "col0": "T. Drakeford",
        "col1": "1971-06-21",
        "col2": "62",
        "col3": "1971-06-21"
    },
    {
        "col0": "T. Williams",
        "col1": "1970-3-26",
        "col2": "239",
        "col3": "1970-3-26"
    },
    {
        "col0": "T. Williams",
        "col1": "1973-05-31",
        "col2": "93",
        "col3": "1973-05-31"
    },
    {
        "col0": "T. Wheatley",
        "col1": "1972-01-19",
        "col2": "17",
        "col3": "1972-01-19"
    },
    {
        "col0": "T. Robertson",
        "col1": "1979-08-15",
        "col2": "238",
        "col3": "1979-08-15"
    },
    {
        "col0": "T. Poole",
        "col1": "1972-02-03",
        "col2": "22",
        "col3": "1972-02-03"
    },
    {
        "col0": "T. McKenzie",
        "col1": "1985-12-11",
        "col2": "97",
        "col3": "1985-12-11"
    },
    {
        "col0": "T. Keys",
        "col1": "1960-10-24",
        "col2": "113",
        "col3": "1960-10-24"
    },
    {
        "col0": "T. Hughes",
        "col1": "1970-01-14",
        "col2": "137",
        "col3": "1970-01-14"
    },
    {
        "col0": "T. Holmes",
        "col1": "1993-09-10",
        "col2": "181",
        "col3": "1993-09-10"
    },
    {
        "col0": "T. Davis",
        "col1": "1972-06-30",
        "col2": "107",
        "col3": "1972-06-30"
    }
]