[
    {
        "col0": "Broad ligament of the uterus",
        "col1": "12492509",
        "col2": "268",
        "col3": "1259",
        "col4": "l_09"
    },
    {
        "col0": "Bifurcated ligament",
        "col1": "12491709",
        "col2": "96",
        "col3": "354",
        "col4": "l_09"
    },
    {
        "col0": "Apical ligament of dens",
        "col1": "12491621",
        "col2": "74",
        "col3": "296",
        "col4": "l_09"
    },
    {
        "col0": "Anterior tibiofibular ligament",
        "col1": "12493381",
        "col2": "94",
        "col3": "348",
        "col4": "l_09z"
    },
    {
        "col0": "Anterior talofibular ligament",
        "col1": "12493255",
        "col2": "95",
        "col3": "351",
        "col4": "l_09"
    },
    {
        "col0": "Anterior sternoclavicular ligament",
        "col1": "12493116",
        "col2": "81",
        "col3": "313",
        "col4": "l_09"
    },
    {
        "col0": "Anterior sacroiliac ligament",
        "col1": "12493007",
        "col2": "80",
        "col3": "307",
        "col4": "l_09"
    },
    {
        "col0": "Anterior sacrococcygeal ligament",
        "col1": "12492953",
        "col2": "80",
        "col3": "309",
        "col4": "l_09"
    },
    {
        "col0": "Anterior longitudinal ligament",
        "col1": "12492521",
        "col2": "72",
        "col3": "288",
        "col4": "l_09"
    },
    {
        "col0": "Anterior ligament of the head of the fibula",
        "col1": "12491784",
        "col2": "94",
        "col3": "348",
        "col4": "l_09"
    },
    {
        "col0": "Alar ligament",
        "col1": "12491573",
        "col2": "74",
        "col3": "296",
        "col4": "l_09"
    },
    {
        "col0": "Acromioclavicular ligament",
        "col1": "12491567",
        "col2": "82",
        "col3": "315",
        "col4": "l_09"
    }
]