[
    {
        "col0": "They Won't Forget",
        "col1": "C. Rains",
        "col2": "Jack L. Warner",
        "col3": "T. Richards",
        "col4": "5700"
    },
    {
        "col0": "They Won't Believe Me",
        "col1": "J. Greer",
        "col2": "Joan Harrison",
        "col3": "E. Williams",
        "col4": "5700"
    },
    {
        "col0": "They Who Dare",
        "col1": "D. Bogarde",
        "col2": "Maxwell Setton",
        "col3": "V. Sagovsky",
        "col4": "6420"
    },
    {
        "col0": "They Wanted to Marry",
        "col1": "B. Furness",
        "col2": "Samuel J. Briskin",
        "col3": "D. Marquette",
        "col4": "3600"
    },
    {
        "col0": "They Stooge to Conga",
        "col1": "C. Howard",
        "col2": "Jules White",
        "col3": "P. Borofsky",
        "col4": "932"
    },
    {
        "col0": "They Shoot Horses, Don't They?",
        "col1": "J. Fonda",
        "col2": "Robert Chartoff",
        "col3": "F. Steinkamp",
        "col4": "7200"
    },
    {
        "col0": "They Never Come Back",
        "col1": "R. Toomey",
        "col2": "Louis Weiss",
        "col3": "H. N. Todd",
        "col4": "3840"
    },
    {
        "col0": "They Might Be Giants",
        "col1": "G. C. Scott",
        "col2": "John Foreman",
        "col3": "G. B. Greenberg",
        "col4": "5880"
    },
    {
        "col0": "They Met in the Dark",
        "col1": "J. Mason",
        "col2": "Marcel Hellman",
        "col3": "T. Fisher",
        "col4": "6240"
    },
    {
        "col0": "They Met in Bombay",
        "col1": "C. Gable",
        "col2": "Hunt Stromberg",
        "col3": "B. Sewell",
        "col4": "5520"
    },
    {
        "col0": "They Meet Again",
        "col1": "J. Hersholt",
        "col2": "William Stephens",
        "col3": "A. Troffey",
        "col4": "4140"
    },
    {
        "col0": "They Made Me a Fugitive",
        "col1": "T. Howard",
        "col2": "Nat Bronstein",
        "col3": "R. Beck",
        "col4": "5940"
    },
    {
        "col0": "They Knew What They Wanted",
        "col1": "C. Lombard",
        "col2": "Erich Pommer",
        "col3": "J. Sturges",
        "col4": "5400"
    },
    {
        "col0": "They Knew Mr. Knight",
        "col1": "M. Johns",
        "col2": "Norman Walker",
        "col3": "S. Simmonds",
        "col4": "5580"
    },
    {
        "col0": "They Just Had to Get Married",
        "col1": "S. Summerville",
        "col2": "Carl Laemmle Jr.",
        "col3": "T. J. Kent",
        "col4": "4140"
    },
    {
        "col0": "They Got Me Covered",
        "col1": "B. Hope",
        "col2": "Samuel Goldwyn",
        "col3": "D. Mandell",
        "col4": "5700"
    },
    {
        "col0": "They Go Boom",
        "col1": "C. Hall",
        "col2": "Hal Roach",
        "col3": "R. C. Currier",
        "col4": "1221"
    },
    {
        "col0": "They Flew Alone",
        "col1": "A. Neagle",
        "col2": "Herbert Wilcox",
        "col3": "G. Foot",
        "col4": "5640"
    },
    {
        "col0": "They Drive by Night",
        "col1": "E. Williams",
        "col2": "Jerome Jackson",
        "col3": "L. Norman",
        "col4": "5040"
    },
    {
        "col0": "They Drive by Night",
        "col1": "I. Lupino",
        "col2": "Mark Hellinger",
        "col3": "T. Richards",
        "col4": "5700"
    },
    {
        "col0": "They Died with Their Boots On",
        "col1": "O. d. Havilland",
        "col2": "Hal B. Wallis",
        "col3": "W. Holmes",
        "col4": "8400"
    },
    {
        "col0": "They Came to a City",
        "col1": "G. Withers",
        "col2": "Michael Balcon",
        "col3": "M. Truman",
        "col4": "4680"
    },
    {
        "col0": "They Came to Cordura",
        "col1": "V. Heflin",
        "col2": "William Goetz",
        "col3": "W. A. Lyon",
        "col4": "7380"
    },
    {
        "col0": "They Came Together",
        "col1": "B. Hader",
        "col2": "Michael Showalter",
        "col3": "J. Gross",
        "col4": "4980"
    },
    {
        "col0": "They Call Us Misfits",
        "col1": "Kenta",
        "col2": "Stefan Jarl",
        "col3": "S. Jarl",
        "col4": "6000"
    },
    {
        "col0": "They Call Me Mister Tibbs!",
        "col1": "S. Poitier",
        "col2": "Herbert Hirschman",
        "col3": "B. Molin",
        "col4": "6480"
    },
    {
        "col0": "They All Come Out",
        "col1": "A. Richards",
        "col2": "Jack Chertok",
        "col3": "R. Goldstein",
        "col4": "4200"
    },
    {
        "col0": "These Thousand Hills",
        "col1": "L. Remick",
        "col2": "David Weisbart",
        "col3": "H. S. Fowler",
        "col4": "5760"
    },
    {
        "col0": "These Glamour Girls",
        "col1": "L. Ayres",
        "col2": "Sam Zimbalist",
        "col3": "H. F. Kress",
        "col4": "4740"
    },
    {
        "col0": "These Are the Damned",
        "col1": "O. Reed",
        "col2": "Anthony Hinds",
        "col3": "R. Mills",
        "col4": "5760"
    },
    {
        "col0": "Theri",
        "col1": "A. Jackson",
        "col2": "Kalaipuli S. Thanu",
        "col3": "Ruben",
        "col4": "9480"
    },
    {
        "col0": "There Will Be Blood",
        "col1": "D. Day-Lewis",
        "col2": "Daniel Lupi",
        "col3": "D. Tichenor",
        "col4": "9480"
    },
    {
        "col0": "There Was a Crooked Man",
        "col1": "N. Wisdom",
        "col2": "John Bryan",
        "col3": "P. R. Hunt",
        "col4": "6420"
    },
    {
        "col0": "There Was a Crooked Man...",
        "col1": "H. Fonda",
        "col2": "Joseph L. Mankiewicz",
        "col3": "G. Milford",
        "col4": "7560"
    },
    {
        "col0": "There Is Another Sun",
        "col1": "L. Harvey",
        "col2": "Ernest G. Roy",
        "col3": "C. Hasse",
        "col4": "5340"
    },
    {
        "col0": "There Goes the Groom",
        "col1": "B. Meredith",
        "col2": "Albert Lewis",
        "col3": "J. Hively",
        "col4": "3900"
    },
    {
        "col0": "There Goes the Bride",
        "col1": "J. Matthews",
        "col2": "Michael Balcon",
        "col3": "I. Dalrymple",
        "col4": "4740"
    },
    {
        "col0": "There Goes My Baby",
        "col1": "L. Deakins",
        "col2": "Robert Shapiro",
        "col3": "D. B. Greene",
        "col4": "5940"
    },
    {
        "col0": "There Be Dragons",
        "col1": "D. Scott",
        "col2": "Roland Joffe",
        "col3": "R. Nord",
        "col4": "7320"
    },
    {
        "col0": "There Ain't No Justice",
        "col1": "M. Wilding",
        "col2": "Michael Balcon",
        "col3": "R. Pitt",
        "col4": "4980"
    },
    {
        "col0": "There's Something About Mary",
        "col1": "C. Diaz",
        "col2": "Frank Beddor",
        "col3": "C. Greenbury",
        "col4": "7140"
    },
    {
        "col0": "There's No Business Like Show Business",
        "col1": "M. Monroe",
        "col2": "Sol C. Siegel",
        "col3": "R. L. Simpson",
        "col4": "7020"
    },
    {
        "col0": "There's Always a Woman",
        "col1": "M. Douglas",
        "col2": "William Perlberg",
        "col3": "V. Lawrence",
        "col4": "-4920"
    },
    {
        "col0": "There's Always Vanilla",
        "col1": "J. Ridley",
        "col2": "John A. Russo",
        "col3": "G. A. Romero",
        "col4": "5580"
    },
    {
        "col0": "There's Always Tomorrow",
        "col1": "F. MacMurray",
        "col2": "Ross Hunter",
        "col3": "W. Morgan",
        "col4": "5040"
    },
    {
        "col0": "There's Always Tomorrow",
        "col1": "R. Taylor",
        "col2": "Carl Laemmle, Jr.",
        "col3": "D. Mandell",
        "col4": "5160"
    },
    {
        "col0": "Them!",
        "col1": "J. Arness",
        "col2": "David Weisbart",
        "col3": "T. Reilly",
        "col4": "5640"
    },
    {
        "col0": "Their Purple Moment",
        "col1": "O. Hardy",
        "col2": "Hal Roach",
        "col3": "R. C. Currier",
        "col4": "1320"
    },
    {
        "col0": "Their Night Out",
        "col1": "B. Barnes",
        "col2": "Harry Hughes",
        "col3": "W. Stokvis",
        "col4": "4440"
    }
]