[
    {
        "col0": "G. Seiffert",
        "col1": "0",
        "col2": "0",
        "col3": "0"
    },
    {
        "col0": "G. Bechem",
        "col1": "0",
        "col2": "0",
        "col3": "0"
    },
    {
        "col0": "G. Mairesse",
        "col1": "0",
        "col2": "0",
        "col3": "0"
    },
    {
        "col0": "G. Ligier",
        "col1": "0",
        "col2": "0",
        "col3": "0"
    },
    {
        "col0": "G. Edwards",
        "col1": "0",
        "col2": "0",
        "col3": "0"
    },
    {
        "col0": "G. Hutchison",
        "col1": "0",
        "col2": "0",
        "col3": "0"
    },
    {
        "col0": "G. Nilsson",
        "col1": "1",
        "col2": "0",
        "col3": "4"
    },
    {
        "col0": "G. Whitehead",
        "col1": "0",
        "col2": "0",
        "col3": "0"
    },
    {
        "col0": "G. McRae",
        "col1": "0",
        "col2": "0",
        "col3": "0"
    },
    {
        "col0": "G. Hill",
        "col1": "14",
        "col2": "13",
        "col3": "36"
    },
    {
        "col0": "G. Cabianca",
        "col1": "0",
        "col2": "0",
        "col3": "0"
    },
    {
        "col0": "G. d. Riu",
        "col1": "0",
        "col2": "0",
        "col3": "0"
    },
    {
        "col0": "G. Amati",
        "col1": "0",
        "col2": "0",
        "col3": "0"
    },
    {
        "col0": "G. Scarlatti",
        "col1": "0",
        "col2": "0",
        "col3": "0"
    },
    {
        "col0": "G. Francia",
        "col1": "0",
        "col2": "0",
        "col3": "0"
    },
    {
        "col0": "G. Bassi",
        "col1": "0",
        "col2": "0",
        "col3": "0"
    },
    {
        "col0": "G. Munaron",
        "col1": "0",
        "col2": "0",
        "col3": "0"
    },
    {
        "col0": "G. Bianco",
        "col1": "0",
        "col2": "0",
        "col3": "0"
    },
    {
        "col0": "G. Villeneuve",
        "col1": "6",
        "col2": "2",
        "col3": "13"
    },
    {
        "col0": "G. v. Lennep",
        "col1": "0",
        "col2": "0",
        "col3": "0"
    },
    {
        "col0": "G. Morbidelli",
        "col1": "0",
        "col2": "0",
        "col3": "1"
    },
    {
        "col0": "G. Bruni",
        "col1": "0",
        "col2": "0",
        "col3": "0"
    },
    {
        "col0": "G. Fisichella",
        "col1": "3",
        "col2": "4",
        "col3": "19"
    },
    {
        "col0": "G. Ashmore",
        "col1": "0",
        "col2": "0",
        "col3": "0"
    },
    {
        "col0": "G. Gerini",
        "col1": "0",
        "col2": "0",
        "col3": "0"
    },
    {
        "col0": "G. Berger",
        "col1": "10",
        "col2": "12",
        "col3": "48"
    },
    {
        "col0": "G. Grignard",
        "col1": "0",
        "col2": "0",
        "col3": "0"
    },
    {
        "col0": "G. Berger",
        "col1": "0",
        "col2": "0",
        "col3": "0"
    },
    {
        "col0": "G. Fonder",
        "col1": "0",
        "col2": "0",
        "col3": "0"
    },
    {
        "col0": "G. Eaton",
        "col1": "0",
        "col2": "0",
        "col3": "0"
    },
    {
        "col0": "G. Constantine",
        "col1": "0",
        "col2": "0",
        "col3": "0"
    },
    {
        "col0": "G. Connor",
        "col1": "0",
        "col2": "0",
        "col3": "0"
    },
    {
        "col0": "G. Amick",
        "col1": "0",
        "col2": "0",
        "col3": "1"
    },
    {
        "col0": "G. Crossley",
        "col1": "0",
        "col2": "0",
        "col3": "0"
    },
    {
        "col0": "G. Lees",
        "col1": "0",
        "col2": "0",
        "col3": "0"
    },
    {
        "col0": "G. Hartley",
        "col1": "0",
        "col2": "0",
        "col3": "0"
    },
    {
        "col0": "G. Force",
        "col1": "0",
        "col2": "0",
        "col3": "0"
    },
    {
        "col0": "G. Mazzacane",
        "col1": "0",
        "col2": "0",
        "col3": "0"
    },
    {
        "col0": "G. Brabham",
        "col1": "0",
        "col2": "0",
        "col3": "0"
    },
    {
        "col0": "G. Tarquini",
        "col1": "0",
        "col2": "0",
        "col3": "0"
    },
    {
        "col0": "G. Seiffert",
        "col1": "0",
        "col2": "0",
        "col3": "0"
    },
    {
        "col0": "G. Bechem",
        "col1": "0",
        "col2": "0",
        "col3": "0"
    },
    {
        "col0": "F. Riess",
        "col1": "0",
        "col2": "0",
        "col3": "0"
    },
    {
        "col0": "F. Wacker",
        "col1": "0",
        "col2": "0",
        "col3": "0"
    },
    {
        "col0": "F. Gamble",
        "col1": "0",
        "col2": "0",
        "col3": "0"
    },
    {
        "col0": "F. Picard",
        "col1": "0",
        "col2": "0",
        "col3": "0"
    },
    {
        "col0": "F. Mazet",
        "col1": "0",
        "col2": "0",
        "col3": "0"
    },
    {
        "col0": "F. Gardner",
        "col1": "0",
        "col2": "0",
        "col3": "0"
    },
    {
        "col0": "F. Armi",
        "col1": "0",
        "col2": "0",
        "col3": "0"
    },
    {
        "col0": "F. Rol",
        "col1": "0",
        "col2": "0",
        "col3": "0"
    },
    {
        "col0": "F. Forini",
        "col1": "0",
        "col2": "0",
        "col3": "0"
    },
    {
        "col0": "F. Lagorce",
        "col1": "0",
        "col2": "0",
        "col3": "0"
    },
    {
        "col0": "F. Picard",
        "col1": "0",
        "col2": "0",
        "col3": "0"
    },
    {
        "col0": "F. Mazet",
        "col1": "0",
        "col2": "0",
        "col3": "0"
    },
    {
        "col0": "E. Martin",
        "col1": "0",
        "col2": "0",
        "col3": "0"
    },
    {
        "col0": "E. Martin",
        "col1": "0",
        "col2": "0",
        "col3": "0"
    },
    {
        "col0": "E. Tuero",
        "col1": "0",
        "col2": "0",
        "col3": "0"
    },
    {
        "col0": "E. Bauer",
        "col1": "0",
        "col2": "0",
        "col3": "0"
    },
    {
        "col0": "E. Loof",
        "col1": "0",
        "col2": "0",
        "col3": "0"
    },
    {
        "col0": "E. d. Vos",
        "col1": "0",
        "col2": "0",
        "col3": "0"
    },
    {
        "col0": "E. Pieterse",
        "col1": "0",
        "col2": "0",
        "col3": "0"
    },
    {
        "col0": "E. McCoy",
        "col1": "0",
        "col2": "0",
        "col3": "0"
    },
    {
        "col0": "E. Thompson",
        "col1": "0",
        "col2": "0",
        "col3": "0"
    },
    {
        "col0": "E. Brandon",
        "col1": "0",
        "col2": "0",
        "col3": "0"
    },
    {
        "col0": "E. Bertaggia",
        "col1": "0",
        "col2": "0",
        "col3": "0"
    },
    {
        "col0": "E. d. Villota",
        "col1": "0",
        "col2": "0",
        "col3": "0"
    },
    {
        "col0": "E. Andres",
        "col1": "0",
        "col2": "0",
        "col3": "0"
    },
    {
        "col0": "E. Pirro",
        "col1": "0",
        "col2": "0",
        "col3": "0"
    },
    {
        "col0": "E. George",
        "col1": "0",
        "col2": "0",
        "col3": "0"
    },
    {
        "col0": "E. d. Angelis",
        "col1": "2",
        "col2": "3",
        "col3": "9"
    },
    {
        "col0": "E. Cantoni",
        "col1": "0",
        "col2": "0",
        "col3": "0"
    },
    {
        "col0": "E. Barth",
        "col1": "0",
        "col2": "0",
        "col3": "0"
    },
    {
        "col0": "E. Sachs",
        "col1": "0",
        "col2": "1",
        "col3": "0"
    },
    {
        "col0": "E. Russo",
        "col1": "0",
        "col2": "0",
        "col3": "0"
    },
    {
        "col0": "E. Keizan",
        "col1": "0",
        "col2": "0",
        "col3": "0"
    },
    {
        "col0": "E. Johnson",
        "col1": "0",
        "col2": "0",
        "col3": "0"
    },
    {
        "col0": "E. Irvine",
        "col1": "4",
        "col2": "0",
        "col3": "26"
    },
    {
        "col0": "E. Cheever",
        "col1": "0",
        "col2": "0",
        "col3": "9"
    },
    {
        "col0": "D. Nalon",
        "col1": "0",
        "col2": "1",
        "col3": "0"
    },
    {
        "col0": "D. Dinsmore",
        "col1": "0",
        "col2": "0",
        "col3": "0"
    },
    {
        "col0": "D. Carter",
        "col1": "0",
        "col2": "0",
        "col3": "1"
    },
    {
        "col0": "D. Serrurier",
        "col1": "0",
        "col2": "0",
        "col3": "0"
    },
    {
        "col0": "D. Serafini",
        "col1": "0",
        "col2": "0",
        "col3": "1"
    },
    {
        "col0": "D. Freeland",
        "col1": "0",
        "col2": "0",
        "col3": "1"
    },
    {
        "col0": "D. Edmunds",
        "col1": "0",
        "col2": "0",
        "col3": "0"
    },
    {
        "col0": "D. Beauman",
        "col1": "0",
        "col2": "0",
        "col3": "0"
    },
    {
        "col0": "D. Schiattarella",
        "col1": "0",
        "col2": "0",
        "col3": "0"
    },
    {
        "col0": "D. Galica",
        "col1": "0",
        "col2": "0",
        "col3": "0"
    },
    {
        "col0": "D. Gibson",
        "col1": "0",
        "col2": "0",
        "col3": "0"
    },
    {
        "col0": "D. Titterington",
        "col1": "0",
        "col2": "0",
        "col3": "0"
    },
    {
        "col0": "D. Wilson",
        "col1": "0",
        "col2": "0",
        "col3": "0"
    },
    {
        "col0": "D. Warwick",
        "col1": "0",
        "col2": "0",
        "col3": "4"
    },
    {
        "col0": "D. Daly",
        "col1": "0",
        "col2": "0",
        "col3": "0"
    },
    {
        "col0": "D. Bell",
        "col1": "0",
        "col2": "0",
        "col3": "0"
    },
    {
        "col0": "D. Hulme",
        "col1": "8",
        "col2": "1",
        "col3": "33"
    },
    {
        "col0": "D. Taylor",
        "col1": "0",
        "col2": "0",
        "col3": "0"
    },
    {
        "col0": "D. Poore",
        "col1": "0",
        "col2": "0",
        "col3": "0"
    },
    {
        "col0": "D. Wilson",
        "col1": "0",
        "col2": "0",
        "col3": "0"
    },
    {
        "col0": "D. Walker",
        "col1": "0",
        "col2": "0",
        "col3": "0"
    },
    {
        "col0": "D. Prophet",
        "col1": "0",
        "col2": "0",
        "col3": "0"
    },
    {
        "col0": "D. Piper",
        "col1": "0",
        "col2": "0",
        "col3": "0"
    },
    {
        "col0": "D. Murray",
        "col1": "0",
        "col2": "0",
        "col3": "0"
    },
    {
        "col0": "D. Kennedy",
        "col1": "0",
        "col2": "0",
        "col3": "0"
    },
    {
        "col0": "D. Hobbs",
        "col1": "0",
        "col2": "0",
        "col3": "0"
    },
    {
        "col0": "D. Hampshire",
        "col1": "0",
        "col2": "0",
        "col3": "0"
    },
    {
        "col0": "D. Clapham",
        "col1": "0",
        "col2": "0",
        "col3": "0"
    },
    {
        "col0": "D. Brabham",
        "col1": "0",
        "col2": "0",
        "col3": "0"
    }
]