[
    {
        "col0": "Popliteal lymph nodes",
        "col1": "Deep inguinal lymph nodes",
        "col2": "179",
        "col3": "701"
    },
    {
        "col0": "Pectoral axillary lymph nodes",
        "col1": "Central lymph nodes",
        "col2": "178",
        "col3": "699"
    },
    {
        "col0": "Paratracheal lymph nodes",
        "col1": "Bronchomediastinal lymph trunks",
        "col2": "177",
        "col3": "697"
    },
    {
        "col0": "Parasternal lymph nodes",
        "col1": "Bronchomediastinal trunk",
        "col2": "181",
        "col3": "715"
    },
    {
        "col0": "Pararectal lymph nodes",
        "col1": "Inferior mesenteric lymph nodes",
        "col2": "180",
        "col3": "710"
    },
    {
        "col0": "Mesenteric lymph nodes",
        "col1": "Intestinal lymph trunk",
        "col2": "180",
        "col3": "709"
    },
    {
        "col0": "Mastoid lymph nodes",
        "col1": "Superior deep cervical glands",
        "col2": "177",
        "col3": "693"
    },
    {
        "col0": "Lumbar lymph trunk",
        "col1": "Cisterna chyli",
        "col2": "176",
        "col3": "691"
    },
    {
        "col0": "Intestinal lymph trunk",
        "col1": "Cisterna chyli",
        "col2": "176",
        "col3": "691"
    },
    {
        "col0": "Internal iliac lymph nodes",
        "col1": "Common iliac lymph nodes",
        "col2": "180",
        "col3": "704"
    },
    {
        "col0": "Intercostal lymph nodes",
        "col1": "Thoracic duct",
        "col2": "181",
        "col3": "715"
    },
    {
        "col0": "Inferior mesenteric lymph nodes",
        "col1": "Preaortic lymph node",
        "col2": "180",
        "col3": "710"
    },
    {
        "col0": "Inferior deep cervical lymph nodes",
        "col1": "Jugular trunk",
        "col2": "177",
        "col3": "697"
    },
    {
        "col0": "Hepatic lymph nodes",
        "col1": "Celiac lymph nodes",
        "col2": "180",
        "col3": "706"
    },
    {
        "col0": "Gastric lymph nodes",
        "col1": "Celiac lymph nodes",
        "col2": "180",
        "col3": "706"
    },
    {
        "col0": "External iliac lymph nodes",
        "col1": "Common iliac lymph nodes",
        "col2": "180",
        "col3": "703"
    },
    {
        "col0": "Deltopectoral lymph nodes",
        "col1": "Apical lymph nodes",
        "col2": "178",
        "col3": "699"
    },
    {
        "col0": "Deep inguinal lymph nodes",
        "col1": "External iliac glands",
        "col2": "179",
        "col3": "702"
    },
    {
        "col0": "Common iliac lymph nodes",
        "col1": "Lateral aortic lymph nodes",
        "col2": "180",
        "col3": "704"
    },
    {
        "col0": "Cisterna chyli",
        "col1": "Thoracic duct",
        "col2": "176",
        "col3": "690"
    },
    {
        "col0": "Central lymph nodes",
        "col1": "Apical lymph nodes",
        "col2": "178",
        "col3": "699"
    },
    {
        "col0": "Celiac lymph nodes",
        "col1": "Preaortic lymph node",
        "col2": "180",
        "col3": "706"
    },
    {
        "col0": "Bronchomediastinal lymph trunk",
        "col1": "Thoracic duct",
        "col2": "181",
        "col3": "717"
    },
    {
        "col0": "Apical lymph nodes",
        "col1": "Subclavian trunk",
        "col2": "178",
        "col3": "700"
    }
]